Script started on Sat 04 May 2013 06:16:15 AM PDT
***
Targeting SpiderMonkey / Gecko.

tryItOut 1

tryItOut 2
Compiling threw: SyntaxError: missing ; before statement

tryItOut 3

tryItOut 4
Compiling threw: SyntaxError: missing ) after condition

tryItOut 5
Compiling threw: TypeError: generator function anonymous returns a value

tryItOut 6

tryItOut 7

tryItOut 8

tryItOut 9

tryItOut 10

tryItOut 11

tryItOut 12
Compiling threw: SyntaxError: syntax error

tryItOut 13
Compiling threw: TypeError: anonymous generator function returns a value

tryItOut 14

tryItOut 15

tryItOut 16

tryItOut 17

tryItOut 18

tryItOut 19
Running threw: ReferenceError: reference to undefined XML name @foo

tryItOut 20
It's an iterator!
Iterating succeeded, iterCount == 1

tryItOut 21
Compiling threw: SyntaxError: missing variable name

tryItOut 22
Running threw: ReferenceError: z1 is not defined

tryItOut 23
It's an iterator!
Iterating threw!
Iterating threw: ReferenceError: z1 is not defined

tryItOut 24
Running threw: ReferenceError: prototype is not defined

tryItOut 25

tryItOut 26
Running threw: ReferenceError: reference to undefined XML name *

tryItOut 27
Compiling threw: SyntaxError: missing ) after argument list

tryItOut 28
It's an iterator!
Iterating succeeded, iterCount == 1

tryItOut 29
It's an iterator!
Iterating succeeded, iterCount == 1

tryItOut 30
Compiling threw: SyntaxError: syntax error

tryItOut 31
Running threw: ReferenceError: reference to undefined XML name @foo

tryItOut 32

tryItOut 33
Running threw: ReferenceError: reference to undefined XML name *

tryItOut 34
It's an iterator!
Iterating threw!
Iterating threw: ReferenceError: reference to undefined XML name *

tryItOut 35
Running threw: TypeError: [15, 16, 17, 18].sort(<x><y/></x>, prop = <x><y/></x>) is not a function

tryItOut 36
Compiling threw: TypeError: generator function anonymous returns a value

tryItOut 37
It's an iterator!
Iterating threw!
Iterating threw: ReferenceError: reference to undefined XML name @foo

tryItOut 38

tryItOut 39

tryItOut 40

tryItOut 41

tryItOut 42

tryItOut 43
Compiling threw: SyntaxError: invalid destructuring assignment operator

tryItOut 44
Compiling threw: SyntaxError: missing ) after condition

tryItOut 45
Compiling threw: SyntaxError: syntax error

tryItOut 46
It's an iterator!
Iterating threw!
Iterating threw: ReferenceError: __iterator__ is not defined

tryItOut 47

tryItOut 48
before 104640, after 104640, break 02050000

tryItOut 49

tryItOut 50
Running threw: ReferenceError: reference to undefined XML name *::*

tryItOut 51
Compiling threw: SyntaxError: missing : after property id

tryItOut 52

tryItOut 53
Compiling threw: SyntaxError: missing { before function body

tryItOut 54

tryItOut 55
Compiling threw: SyntaxError: missing : after property id

tryItOut 56
Compiling threw: SyntaxError: syntax error

tryItOut 57
Running threw: ReferenceError: reference to undefined XML name @foo

tryItOut 58

tryItOut 59
Compiling threw: SyntaxError: illegal XML character

tryItOut 60
Running threw: ReferenceError: prototype is not defined

tryItOut 61
Compiling threw: TypeError: generator function anonymous returns a value

tryItOut 62
Compiling threw: SyntaxError: missing ) in parenthetical

tryItOut 63
Running threw: ReferenceError: __iterator__ is not defined

tryItOut 64
Compiling threw: TypeError: generator function anonymous returns a value

tryItOut 65

tryItOut 66
Compiling threw: SyntaxError: missing { before function body

tryItOut 67
Compiling threw: SyntaxError: invalid increment operand

tryItOut 68
It's an iterator!
Iterating succeeded, iterCount == 1

tryItOut 69

tryItOut 70
It's an iterator!
Iterating threw!
Iterating threw: ReferenceError: reference to undefined XML name *

tryItOut 71

tryItOut 72

tryItOut 73
It's an iterator!
Iterating threw!
Iterating threw: TypeError: [[]] is not a function

tryItOut 74
Compiling threw: SyntaxError: missing variable name

tryItOut 75

tryItOut 76
Compiling threw: SyntaxError: invalid for/in left-hand side

tryItOut 77
Compiling threw: TypeError: redeclaration of variable __count__

tryItOut 78
It's an iterator!
Iterating succeeded, iterCount == 1

tryItOut 79
Compiling threw: TypeError: redeclaration of variable __iterator__

tryItOut 80
It's an iterator!
Iterating succeeded, iterCount == 1

tryItOut 81

tryItOut 82
Compiling threw: SyntaxError: syntax error

tryItOut 83
Compiling threw: TypeError: generator function anonymous returns a value

tryItOut 84

tryItOut 85
Compiling threw: SyntaxError: illegal XML character

tryItOut 86
Running threw: ReferenceError: reference to undefined XML name *

tryItOut 87
Compiling threw: SyntaxError: missing ) in parenthetical

tryItOut 88
It's an iterator!
Iterating succeeded, iterCount == 1

tryItOut 89

tryItOut 90
Compiling threw: SyntaxError: missing } in compound statement

tryItOut 91
It's an iterator!
Iterating succeeded, iterCount == 0

tryItOut 92
Running threw: ReferenceError: __iterator__ is not defined

tryItOut 93
Compiling threw: SyntaxError: duplicate label

tryItOut 94
Compiling threw: SyntaxError: missing ( before formal parameters

tryItOut 95

tryItOut 96
Compiling threw: SyntaxError: syntax error

tryItOut 97

tryItOut 98
Compiling threw: SyntaxError: invalid for/in left-hand side

tryItOut 99
It's an iterator!
Iterating succeeded, iterCount == 1

tryItOut 100
Compiling threw: SyntaxError: invalid assignment left-hand side

tryItOut 101
Compiling threw: SyntaxError: yield expression must be parenthesized

tryItOut 102
Compiling threw: SyntaxError: missing } after let block

tryItOut 103

tryItOut 104

tryItOut 105

tryItOut 106
Running threw: ReferenceError: reference to undefined XML name *

tryItOut 107
Compiling threw: SyntaxError: invalid XML tag syntax

tryItOut 108
Compiling threw: SyntaxError: syntax error

tryItOut 109
Running threw: ReferenceError: z1 is not defined

tryItOut 110
Compiling threw: SyntaxError: missing : after property id

tryItOut 111

tryItOut 112
Compiling threw: SyntaxError: invalid XML name

tryItOut 113
Compiling threw: SyntaxError: missing } after property list

tryItOut 114
Running threw: ReferenceError: reference to undefined XML name *::*

tryItOut 115
Compiling threw: TypeError: generator function anonymous returns a value

tryItOut 116

tryItOut 117
It's an iterator!
Iterating threw!
Iterating threw: ReferenceError: reference to undefined XML name *::*

tryItOut 118
Compiling threw: SyntaxError: duplicate label

tryItOut 119
It's an iterator!
Iterating succeeded, iterCount == 1

tryItOut 120
Compiling threw: SyntaxError: missing identifier in catch

tryItOut 121
It's an iterator!
Iterating succeeded, iterCount == 1

tryItOut 122
Running threw: ReferenceError: z2 is not defined

tryItOut 123
Compiling threw: SyntaxError: missing variable name

tryItOut 124

tryItOut 125

tryItOut 126

tryItOut 127

tryItOut 128

tryItOut 129

tryItOut 130

tryItOut 131

tryItOut 132
Compiling threw: SyntaxError: missing ) after condition

tryItOut 133
Running threw: ReferenceError: reference to undefined XML name *::*

tryItOut 134
Running threw: ReferenceError: reference to undefined XML name @foo

tryItOut 135

tryItOut 136
Compiling threw: SyntaxError: syntax error

tryItOut 137
It's an iterator!
Iterating succeeded, iterCount == 1

tryItOut 138

tryItOut 139
Compiling threw: TypeError: generator function anonymous returns a value

tryItOut 140

tryItOut 141
Compiling threw: SyntaxError: missing ; before statement

tryItOut 142

tryItOut 143
Compiling threw: SyntaxError: missing variable name

tryItOut 144

tryItOut 145

tryItOut 146

tryItOut 147
Running threw: ReferenceError: reference to undefined XML name *::*

tryItOut 148
It's an iterator!
Iterating succeeded, iterCount == 1

tryItOut 149
Compiling threw: SyntaxError: invalid assignment left-hand side

tryItOut 150
Compiling threw: SyntaxError: syntax error

tryItOut 151
Compiling threw: TypeError: generator function anonymous returns a value

tryItOut 152

tryItOut 153
Compiling threw: SyntaxError: syntax error

tryItOut 154
Compiling threw: SyntaxError: syntax error

tryItOut 155
Compiling threw: SyntaxError: missing ; before statement

tryItOut 156

tryItOut 157
Compiling threw: SyntaxError: missing } after let block

tryItOut 158
It's an iterator!
Iterating succeeded, iterCount == 1

tryItOut 159

tryItOut 160

tryItOut 161
Compiling threw: SyntaxError: invalid default XML namespace

tryItOut 162

tryItOut 163
It's an iterator!
Iterating threw!
Iterating threw: ReferenceError: reference to undefined XML name *::*

tryItOut 164
Running threw: ReferenceError: z1 is not defined

tryItOut 165
It's an iterator!
Iterating succeeded, iterCount == 2

tryItOut 166
Compiling threw: SyntaxError: invalid for each loop

tryItOut 167

tryItOut 168
Compiling threw: SyntaxError: syntax error

tryItOut 169
Compiling threw: SyntaxError: invalid for/in left-hand side

tryItOut 170
Compiling threw: SyntaxError: missing ; before statement

tryItOut 171
Compiling threw: SyntaxError: missing variable name

tryItOut 172
Compiling threw: SyntaxError: syntax error

tryItOut 173
Compiling threw: SyntaxError: missing ) after condition

tryItOut 174
It's an iterator!
Iterating threw!
Iterating threw: TypeError: <x><y/></x>['throw'] is not a function

tryItOut 175

tryItOut 176
Running threw: ReferenceError: __iterator__ is not defined

tryItOut 177
It's an iterator!
Iterating succeeded, iterCount == 0

tryItOut 178

tryItOut 179

tryItOut 180

tryItOut 181
Compiling threw: SyntaxError: invalid increment operand

tryItOut 182
Compiling threw: SyntaxError: missing } in compound statement

tryItOut 183
Compiling threw: SyntaxError: syntax error

tryItOut 184
Compiling threw: SyntaxError: invalid assignment left-hand side

tryItOut 185
Compiling threw: SyntaxError: missing { before function body

tryItOut 186

tryItOut 187
Compiling threw: SyntaxError: illegal XML character

tryItOut 188

tryItOut 189
Compiling threw: SyntaxError: missing variable name

tryItOut 190

tryItOut 191
Compiling threw: SyntaxError: invalid for/in left-hand side

tryItOut 192
It's an iterator!
Iterating threw!
Iterating threw: ReferenceError: z2 is not defined

tryItOut 193
Compiling threw: SyntaxError: syntax error

tryItOut 194
Compiling threw: SyntaxError: missing ) in parenthetical

tryItOut 195

tryItOut 196
Compiling threw: SyntaxError: invalid for/in left-hand side

tryItOut 197
Compiling threw: SyntaxError: yield expression must be parenthesized

tryItOut 198
Compiling threw: SyntaxError: syntax error

tryItOut 199
Compiling threw: SyntaxError: missing ; before statement

tryItOut 200
Compiling threw: SyntaxError: missing } in compound statement

tryItOut 201
Running threw: TypeError: arguments[0] has no properties

tryItOut 202
Compiling threw: TypeError: generator function anonymous returns a value

tryItOut 203
It's an iterator!
Iterating succeeded, iterCount == 1

tryItOut 204

tryItOut 205

tryItOut 206
Running threw: TypeError: arguments[0] has no properties

tryItOut 207
Running threw: ReferenceError: reference to undefined XML name *::*

tryItOut 208

tryItOut 209

tryItOut 210
Running threw: ReferenceError: reference to undefined XML name *

tryItOut 211
Compiling threw: SyntaxError: duplicate label

tryItOut 212
Running threw: ReferenceError: __iterator__ is not defined

tryItOut 213

tryItOut 214

tryItOut 215
It's an iterator!
Iterating threw!
Iterating threw: ReferenceError: reference to undefined XML name *::*

tryItOut 216
It's an iterator!
Iterating threw!
Iterating threw: ReferenceError: z1 is not defined

tryItOut 217
Compiling threw: SyntaxError: missing ; before statement

tryItOut 218
Running threw: ReferenceError: z1 is not defined

tryItOut 219
Compiling threw: TypeError: redeclaration of variable prop

tryItOut 220
Running threw: ReferenceError: reference to undefined XML name @foo

tryItOut 221
It's an iterator!
Iterating succeeded, iterCount == 1

tryItOut 222
Compiling threw: SyntaxError: invalid for/in left-hand side

tryItOut 223
Compiling threw: TypeError: generator function anonymous returns a value

tryItOut 224
Compiling threw: SyntaxError: invalid assignment left-hand side

tryItOut 225
Compiling threw: SyntaxError: missing ( before let head

tryItOut 226
Running threw: TypeError: this.zzz has no properties

tryItOut 227
Compiling threw: SyntaxError: missing } after let block

tryItOut 228

tryItOut 229
Running threw: ReferenceError: reference to undefined XML name *

tryItOut 230

tryItOut 231
Compiling threw: TypeError: redeclaration of const prototype

tryItOut 232
Running threw: ReferenceError: reference to undefined XML name *::*

tryItOut 233
Running threw: ReferenceError: __iterator__ is not defined

tryItOut 234
It's an iterator!
Iterating succeeded, iterCount == 1

tryItOut 235
Running threw: ReferenceError: reference to undefined XML name *

tryItOut 236
It's an iterator!
Iterating succeeded, iterCount == 1

tryItOut 237
Compiling threw: TypeError: generator function anonymous returns a value

tryItOut 238
Compiling threw: SyntaxError: missing { before function body

tryItOut 239

tryItOut 240

tryItOut 241
Compiling threw: SyntaxError: syntax error

tryItOut 242

tryItOut 243
Running threw: ReferenceError: evalreturn is not defined

tryItOut 244
Compiling threw: SyntaxError: missing { before function body

tryItOut 245
Running threw: ReferenceError: reference to undefined XML name @foo

tryItOut 246
Compiling threw: SyntaxError: unterminated parenthetical

tryItOut 247

tryItOut 248

tryItOut 249

tryItOut 250

tryItOut 251
Compiling threw: SyntaxError: syntax error

tryItOut 252
Compiling threw: SyntaxError: illegal XML character

tryItOut 253
It's an iterator!
Iterating succeeded, iterCount == 0

tryItOut 254
Compiling threw: TypeError: generator function anonymous returns a value

tryItOut 255
Compiling threw: SyntaxError: syntax error

tryItOut 256
Compiling threw: TypeError: redeclaration of const prototype

tryItOut 257
It's an iterator!
Iterating threw!
Iterating threw: ReferenceError: reference to undefined XML name @foo

tryItOut 258

tryItOut 259
Compiling threw: SyntaxError: syntax error

tryItOut 260
It's an iterator!
Iterating succeeded, iterCount == 1

tryItOut 261

tryItOut 262
Compiling threw: SyntaxError: missing ( before let head

tryItOut 263

tryItOut 264
Running threw: TypeError: null has no properties

tryItOut 265
Compiling threw: TypeError: generator function anonymous returns a value

tryItOut 266
Compiling threw: SyntaxError: syntax error

tryItOut 267
It's an iterator!
Iterating succeeded, iterCount == 1

tryItOut 268
Compiling threw: SyntaxError: syntax error

tryItOut 269
Compiling threw: TypeError: generator function anonymous returns a value

tryItOut 270
Running threw: TypeError: redeclaration of var __proto__

tryItOut 271
Compiling threw: SyntaxError: missing ; before statement

tryItOut 272

tryItOut 273

tryItOut 274
It's an iterator!
Iterating succeeded, iterCount == 0

tryItOut 275
It's an iterator!
Iterating threw!
Iterating threw: ReferenceError: reference to undefined XML name *

tryItOut 276

tryItOut 277

tryItOut 278
It's an iterator!
Iterating succeeded, iterCount == 1

tryItOut 279
Compiling threw: TypeError: redeclaration of const __count__

tryItOut 280
Compiling threw: SyntaxError: invalid for/in left-hand side

tryItOut 281
Compiling threw: SyntaxError: missing ; before statement

tryItOut 282

tryItOut 283

tryItOut 284

tryItOut 285
Compiling threw: TypeError: redeclaration of variable __noSuchMethod__

tryItOut 286
Running threw: ReferenceError: reference to undefined XML name @foo

tryItOut 287
It's an iterator!
Iterating succeeded, iterCount == 4

tryItOut 288
Compiling threw: SyntaxError: invalid for/in left-hand side

tryItOut 289
It's an iterator!
Iterating succeeded, iterCount == 1

tryItOut 290
It's an iterator!
Iterating succeeded, iterCount == 0

tryItOut 291
It's an iterator!
Iterating succeeded, iterCount == 0

tryItOut 292
It's an iterator!
Iterating threw!
Iterating threw: ReferenceError: reference to undefined XML name *

tryItOut 293

tryItOut 294
Compiling threw: SyntaxError: invalid assignment left-hand side

tryItOut 295
Compiling threw: TypeError: generator function anonymous returns a value

tryItOut 296
Compiling threw: SyntaxError: missing } after let block

tryItOut 297
It's an iterator!
Iterating succeeded, iterCount == 1

tryItOut 298

tryItOut 299
Compiling threw: SyntaxError: missing ; before statement

tryItOut 300

tryItOut 301

tryItOut 302
Compiling threw: TypeError: generator function anonymous returns a value

tryItOut 303
Compiling threw: SyntaxError: invalid assignment left-hand side

tryItOut 304

tryItOut 305

tryItOut 306

tryItOut 307
Compiling threw: SyntaxError: invalid for/in left-hand side

tryItOut 308
It's an iterator!
Iterating threw!
Iterating threw: ReferenceError: z2 is not defined

tryItOut 309
Compiling threw: TypeError: generator function anonymous returns a value

tryItOut 310

tryItOut 311
Running threw: TypeError: this.zzz has no properties

tryItOut 312
Compiling threw: SyntaxError: missing ; before statement

tryItOut 313

tryItOut 314
Compiling threw: SyntaxError: missing } in XML expression

tryItOut 315

tryItOut 316
Compiling threw: SyntaxError: missing { before function body

tryItOut 317
Compiling threw: SyntaxError: unterminated string literal

tryItOut 318
It's an iterator!
Iterating threw!
Iterating threw: TypeError: Function.prototype.call called on incompatible [object Object]

tryItOut 319

tryItOut 320

tryItOut 321
Compiling threw: SyntaxError: missing ; before statement

tryItOut 322
Compiling threw: SyntaxError: missing } in compound statement

tryItOut 323
Compiling threw: SyntaxError: missing ) after condition

tryItOut 324
Compiling threw: SyntaxError: missing variable name

tryItOut 325
Compiling threw: SyntaxError: invalid property id

tryItOut 326
Running threw: ReferenceError: reference to undefined XML name @foo

tryItOut 327
Running threw: ReferenceError: reference to undefined XML name *

tryItOut 328

tryItOut 329
Compiling threw: SyntaxError: invalid destructuring assignment operator

tryItOut 330
Running threw: TypeError: <x>
  <y/>
</x> is not a constructor

tryItOut 331
Compiling threw: SyntaxError: yield expression must be parenthesized

tryItOut 332
Running threw: ReferenceError: reference to undefined XML name @foo

tryItOut 333

tryItOut 334

tryItOut 335

tryItOut 336
It's an iterator!
Iterating threw!
Iterating threw: TypeError: redeclaration of var __proto__

tryItOut 337

tryItOut 338
Compiling threw: SyntaxError: invalid for/in left-hand side

tryItOut 339
Compiling threw: SyntaxError: syntax error

tryItOut 340

tryItOut 341
Compiling threw: SyntaxError: missing variable name

tryItOut 342

tryItOut 343
Compiling threw: SyntaxError: missing ; before statement

tryItOut 344
Compiling threw: TypeError: generator function anonymous returns a value

tryItOut 345
Running threw: TypeError: XML filtering predicate operator called on incompatible Number

tryItOut 346
Compiling threw: SyntaxError: missing : after property id

tryItOut 347

tryItOut 348
Compiling threw: TypeError: generator function anonymous returns a value

tryItOut 349
Compiling threw: SyntaxError: invalid quantifier +<x><y

tryItOut 350

tryItOut 351
Running threw: Error: invalid sharp variable use #1#

tryItOut 352
Compiling threw: SyntaxError: missing variable name

tryItOut 353
Compiling threw: SyntaxError: illegal XML character

tryItOut 354

tryItOut 355

tryItOut 356
It's an iterator!
Iterating succeeded, iterCount == 1

tryItOut 357

tryItOut 358
Compiling threw: SyntaxError: syntax error

tryItOut 359
It's an iterator!
Iterating succeeded, iterCount == 1

tryItOut 360
Compiling threw: SyntaxError: syntax error

tryItOut 361
Compiling threw: SyntaxError: syntax error

tryItOut 362
Compiling threw: SyntaxError: missing = in destructuring declaration

tryItOut 363
It's an iterator!
Iterating threw!
Iterating threw: TypeError: <x>
  <y/>
</x> is not a constructor

tryItOut 364
Compiling threw: SyntaxError: syntax error

tryItOut 365

tryItOut 366
It's an iterator!
Iterating succeeded, iterCount == 4

tryItOut 367
Compiling threw: SyntaxError: missing variable name

tryItOut 368

tryItOut 369
It's an iterator!
Iterating succeeded, iterCount == 1

tryItOut 370
Compiling threw: TypeError: generator function anonymous returns a value

tryItOut 371
Compiling threw: SyntaxError: syntax error

tryItOut 372

tryItOut 373
Compiling threw: SyntaxError: invalid assignment left-hand side

tryItOut 374
Compiling threw: SyntaxError: invalid destructuring assignment operator

tryItOut 375

tryItOut 376
Running threw: TypeError: undefined is not a constructor

tryItOut 377

tryItOut 378
Compiling threw: SyntaxError: invalid assignment left-hand side

tryItOut 379

tryItOut 380
Compiling threw: SyntaxError: missing variable name

tryItOut 381
It's an iterator!
Iterating threw!
Iterating threw: ReferenceError: reference to undefined XML name @foo

tryItOut 382

tryItOut 383
It's an iterator!
Iterating threw!
Iterating threw: TypeError: this.zzz has no properties

tryItOut 384
Compiling threw: SyntaxError: invalid for/in left-hand side

tryItOut 385
It's an iterator!
Iterating threw!
Iterating threw: ReferenceError: reference to undefined XML name @foo

tryItOut 386
Compiling threw: SyntaxError: invalid destructuring assignment operator

tryItOut 387
Compiling threw: SyntaxError: catch without try

tryItOut 388
It's an iterator!
Iterating threw!
Iterating threw: ReferenceError: reference to undefined XML name @foo

tryItOut 389
Compiling threw: SyntaxError: invalid assignment left-hand side

tryItOut 390

tryItOut 391

tryItOut 392

tryItOut 393

tryItOut 394

tryItOut 395
Compiling threw: SyntaxError: syntax error

tryItOut 396

tryItOut 397

tryItOut 398

tryItOut 399

tryItOut 400
It's an iterator!
Iterating succeeded, iterCount == 4

tryItOut 401

tryItOut 402

tryItOut 403
Compiling threw: SyntaxError: missing ) in parenthetical

tryItOut 404
Compiling threw: SyntaxError: duplicate label

tryItOut 405

tryItOut 406

tryItOut 407
Compiling threw: SyntaxError: invalid destructuring assignment operator

tryItOut 408

tryItOut 409

tryItOut 410

tryItOut 411
It's an iterator!
Iterating threw!
Iterating threw: TypeError: undefined has no properties

tryItOut 412
It's an iterator!
Iterating threw!
Iterating threw: TypeError: this.zzz has no properties

tryItOut 413
It's an iterator!
Iterating succeeded, iterCount == 1

tryItOut 414
Compiling threw: SyntaxError: missing ; before statement

tryItOut 415
Compiling threw: SyntaxError: syntax error

tryItOut 416

tryItOut 417

tryItOut 418
Compiling threw: SyntaxError: missing variable name

tryItOut 419

tryItOut 420
Compiling threw: SyntaxError: missing : after property id

tryItOut 421

tryItOut 422
Compiling threw: SyntaxError: finally without try

tryItOut 423
Compiling threw: TypeError: redeclaration of const __iterator__

tryItOut 424
Compiling threw: SyntaxError: unterminated regular expression literal

tryItOut 425

tryItOut 426
Compiling threw: SyntaxError: invalid for/in left-hand side

tryItOut 427
Compiling threw: SyntaxError: missing ) after let head

tryItOut 428
It's an iterator!
Iterating succeeded, iterCount == 1

tryItOut 429

tryItOut 430

tryItOut 431
It's an iterator!
Iterating threw!
Iterating threw: ReferenceError: reference to undefined XML name *

tryItOut 432
It's an iterator!
Iterating threw!
Iterating threw: TypeError: undefined has no properties

tryItOut 433

tryItOut 434
Compiling threw: SyntaxError: invalid assignment left-hand side

tryItOut 435
It's an iterator!
Iterating succeeded, iterCount == 1

tryItOut 436
Compiling threw: SyntaxError: invalid decrement operand

tryItOut 437

tryItOut 438
Compiling threw: SyntaxError: unterminated regular expression literal

tryItOut 439
It's an iterator!
Iterating succeeded, iterCount == 1

tryItOut 440
It's an iterator!
Iterating threw!
Iterating threw: ReferenceError: reference to undefined XML name *

tryItOut 441

tryItOut 442
Running threw: ReferenceError: reference to undefined XML name @foo

tryItOut 443
Compiling threw: TypeError: generator function anonymous returns a value

tryItOut 444
Running threw: ReferenceError: z1 is not defined

tryItOut 445

tryItOut 446

tryItOut 447

tryItOut 448

tryItOut 449

tryItOut 450
Running threw: TypeError: prop has no properties

tryItOut 451
It's an iterator!
Iterating succeeded, iterCount == 1

tryItOut 452

tryItOut 453
Compiling threw: SyntaxError: invalid destructuring assignment operator

tryItOut 454

tryItOut 455
Running threw: ReferenceError: reference to undefined XML name *::*

tryItOut 456

tryItOut 457
Compiling threw: SyntaxError: invalid assignment left-hand side

tryItOut 458
Running threw: ReferenceError: reference to undefined XML name *

tryItOut 459

tryItOut 460
Running threw: ReferenceError: reference to undefined XML name @foo

tryItOut 461
Compiling threw: SyntaxError: missing : after property id

tryItOut 462

tryItOut 463
Compiling threw: SyntaxError: missing variable name

tryItOut 464
Compiling threw: SyntaxError: invalid for/in left-hand side

tryItOut 465
Compiling threw: SyntaxError: invalid for/in left-hand side

tryItOut 466
Compiling threw: SyntaxError: invalid for/in left-hand side

tryItOut 467

tryItOut 468
Compiling threw: SyntaxError: syntax error

tryItOut 469
Compiling threw: SyntaxError: illegal XML character

tryItOut 470
Compiling threw: SyntaxError: syntax error

tryItOut 471
Compiling threw: TypeError: redeclaration of variable __parent__

tryItOut 472
Compiling threw: SyntaxError: missing variable name

tryItOut 473
It's an iterator!
Iterating threw!
Iterating threw: ReferenceError: reference to undefined XML name *

tryItOut 474

tryItOut 475
Running threw: TypeError: __parent__ has no properties

tryItOut 476

tryItOut 477

tryItOut 478

tryItOut 479
Compiling threw: SyntaxError: illegal XML character

tryItOut 480
It's an iterator!
Iterating succeeded, iterCount == 4

tryItOut 481
It's an iterator!
Iterating threw!
Iterating threw: ReferenceError: reference to undefined XML name *::*

tryItOut 482

tryItOut 483

tryItOut 484
Compiling threw: SyntaxError: syntax error

tryItOut 485
Compiling threw: TypeError: generator function anonymous returns a value

tryItOut 486
It's an iterator!
Iterating succeeded, iterCount == 1

tryItOut 487
It's an iterator!
Iterating succeeded, iterCount == 1

tryItOut 488
Compiling threw: SyntaxError: invalid for/in left-hand side

tryItOut 489

tryItOut 490
Compiling threw: SyntaxError: missing ) in parenthetical

tryItOut 491
Compiling threw: SyntaxError: missing ) in parenthetical

tryItOut 492

tryItOut 493
Compiling threw: SyntaxError: invalid for each loop

tryItOut 494
It's an iterator!
Iterating threw!
Iterating threw: ReferenceError: Exception is not defined

tryItOut 495

tryItOut 496
Compiling threw: SyntaxError: duplicate label

tryItOut 497
Running threw: ReferenceError: reference to undefined XML name *

tryItOut 498
It's an iterator!
Iterating threw!
Iterating threw: ReferenceError: Exception is not defined

tryItOut 499

tryItOut 500

tryItOut 501

tryItOut 502
It's an iterator!
Iterating succeeded, iterCount == 4

tryItOut 503
uneval returned the string: ({a1:1})
Skipping re-eval test

tryItOut 504
Compiling threw: TypeError: generator function anonymous returns a value

tryItOut 505
It's an iterator!
Iterating succeeded, iterCount == 1

tryItOut 506
It's an iterator!
Iterating threw!
Iterating threw: ReferenceError: reference to undefined XML name *

tryItOut 507

tryItOut 508
Compiling threw: SyntaxError: illegal XML character

tryItOut 509
Running threw: ReferenceError: __noSuchMethod__ is not defined

tryItOut 510
It's an iterator!
Iterating threw!
Iterating threw: TypeError: redeclaration of var __proto__

tryItOut 511
It's an iterator!
Iterating threw!
Iterating threw: ReferenceError: reference to undefined XML name @foo

tryItOut 512

tryItOut 513
Running threw: ReferenceError: reference to undefined XML name *

tryItOut 514
Compiling threw: SyntaxError: catch without try

tryItOut 515
Running threw: ReferenceError: z1 is not defined

tryItOut 516

tryItOut 517
It's an iterator!
Iterating succeeded, iterCount == 1

tryItOut 518
Compiling threw: SyntaxError: missing { before function body

tryItOut 519
Compiling threw: SyntaxError: invalid for/in left-hand side

tryItOut 520
It's an iterator!
Iterating threw!
Iterating threw: ReferenceError: z2 is not defined

tryItOut 521
Running threw: SyntaxError: invalid setter usage

tryItOut 522
Compiling threw: SyntaxError: yield expression must be parenthesized

tryItOut 523

tryItOut 524

tryItOut 525
It's an iterator!
Iterating threw!
Iterating threw: SyntaxError: missing { before function body

tryItOut 526

tryItOut 527
Running threw: ReferenceError: reference to undefined XML name @foo

tryItOut 528
Compiling threw: TypeError: generator function anonymous returns a value

tryItOut 529
Compiling threw: SyntaxError: missing : after property id

tryItOut 530
Compiling threw: SyntaxError: missing variable name

tryItOut 531
Compiling threw: SyntaxError: invalid assignment left-hand side

tryItOut 532
Running threw: TypeError: null has no properties

tryItOut 533
It's an iterator!
Iterating succeeded, iterCount == 1

tryItOut 534
It's an iterator!
Iterating succeeded, iterCount == 1

tryItOut 535
Compiling threw: TypeError: generator function anonymous returns a value

tryItOut 536

tryItOut 537
Compiling threw: SyntaxError: syntax error

tryItOut 538
Compiling threw: SyntaxError: missing ; before statement

tryItOut 539
It's an iterator!
Iterating succeeded, iterCount == 1

tryItOut 540

tryItOut 541

tryItOut 542

tryItOut 543
It's an iterator!
Iterating succeeded, iterCount == 1

tryItOut 544

tryItOut 545

tryItOut 546
It's an iterator!
Iterating threw!
Iterating threw: ReferenceError: reference to undefined XML name *::*

tryItOut 547
Compiling threw: SyntaxError: invalid for/in left-hand side

tryItOut 548
Compiling threw: SyntaxError: missing ; before statement

tryItOut 549

tryItOut 550
It's an iterator!
Iterating succeeded, iterCount == 1

tryItOut 551

tryItOut 552
Compiling threw: SyntaxError: invalid assignment left-hand side

tryItOut 553

tryItOut 554
It's an iterator!
Iterating threw!
Iterating threw: ReferenceError: reference to undefined XML name *::*

tryItOut 555
Compiling threw: SyntaxError: invalid assignment left-hand side

tryItOut 556
Compiling threw: SyntaxError: invalid decrement operand

tryItOut 557
Running threw: TypeError: this.zzz has no properties

tryItOut 558

tryItOut 559
Compiling threw: SyntaxError: syntax error

tryItOut 560
Compiling threw: TypeError: generator function anonymous returns a value

tryItOut 561
Compiling threw: SyntaxError: invalid assignment left-hand side

tryItOut 562

tryItOut 563
Compiling threw: SyntaxError: missing : after property id

tryItOut 564
Compiling threw: SyntaxError: missing ( before let head

tryItOut 565
Running threw: ReferenceError: reference to undefined XML name *

tryItOut 566

tryItOut 567

tryItOut 568

tryItOut 569
It's an iterator!
Iterating succeeded, iterCount == 0

tryItOut 570
Compiling threw: TypeError: redeclaration of const __parent__

tryItOut 571
Compiling threw: SyntaxError: syntax error

tryItOut 572

tryItOut 573

tryItOut 574
Compiling threw: SyntaxError: missing } after let block

tryItOut 575
Compiling threw: TypeError: generator function anonymous returns a value

tryItOut 576
Running threw: ReferenceError: z1 is not defined

tryItOut 577
Compiling threw: TypeError: generator function anonymous returns a value

tryItOut 578
Compiling threw: SyntaxError: missing variable name

tryItOut 579

tryItOut 580
Compiling threw: SyntaxError: missing ; before statement

tryItOut 581
Compiling threw: SyntaxError: invalid assignment left-hand side

tryItOut 582

tryItOut 583
Compiling threw: SyntaxError: syntax error

tryItOut 584
It's an iterator!
Iterating threw!
Iterating threw: ReferenceError: z1 is not defined

tryItOut 585

tryItOut 586
Compiling threw: SyntaxError: syntax error

tryItOut 587

tryItOut 588
Running threw: ReferenceError: reference to undefined XML name *

tryItOut 589
It's an iterator!
Iterating threw!
Iterating threw: TypeError: undefined is not a function

tryItOut 590

tryItOut 591
Running threw: ReferenceError: R is not defined

tryItOut 592
It's an iterator!
Iterating threw!
Iterating threw: TypeError: this.zzz has no properties

tryItOut 593
Running threw: ReferenceError: reference to undefined XML name *

tryItOut 594

tryItOut 595

tryItOut 596
Compiling threw: SyntaxError: catch without try

tryItOut 597
Running threw: ReferenceError: x is not defined

tryItOut 598
Compiling threw: TypeError: anonymous generator function returns a value

tryItOut 599
Compiling threw: SyntaxError: missing ; before statement

tryItOut 600
Running threw: ReferenceError: z1 is not defined

tryItOut 601
Compiling threw: SyntaxError: invalid property id

tryItOut 602
It's an iterator!
Iterating succeeded, iterCount == 1

tryItOut 603
Compiling threw: SyntaxError: syntax error

tryItOut 604

tryItOut 605
Compiling threw: SyntaxError: invalid assignment left-hand side

tryItOut 606
Compiling threw: SyntaxError: missing variable name

tryItOut 607
Compiling threw: SyntaxError: duplicate label

tryItOut 608

tryItOut 609
Compiling threw: SyntaxError: invalid for/in left-hand side

tryItOut 610
Running threw: TypeError: XML filtering predicate operator called on incompatible Number

tryItOut 611
It's an iterator!
Iterating succeeded, iterCount == 1

tryItOut 612
Compiling threw: SyntaxError: missing { before function body

tryItOut 613
Running threw: ReferenceError: reference to undefined XML name @foo

tryItOut 614
It's an iterator!
Iterating succeeded, iterCount == 1

tryItOut 615

tryItOut 616
Running threw: ReferenceError: reference to undefined XML name *::*

tryItOut 617
Compiling threw: SyntaxError: duplicate label

tryItOut 618
Compiling threw: SyntaxError: invalid assignment left-hand side

tryItOut 619

tryItOut 620
Compiling threw: SyntaxError: invalid for/in left-hand side

tryItOut 621
It's an iterator!
Iterating succeeded, iterCount == 1

tryItOut 622

tryItOut 623
Compiling threw: SyntaxError: missing = in destructuring declaration

tryItOut 624
Compiling threw: TypeError: generator function anonymous returns a value

tryItOut 625

tryItOut 626
Compiling threw: SyntaxError: syntax error

tryItOut 627
Compiling threw: SyntaxError: invalid decrement operand

tryItOut 628

tryItOut 629

tryItOut 630

tryItOut 631
Compiling threw: SyntaxError: syntax error

tryItOut 632
Compiling threw: SyntaxError: syntax error

tryItOut 633
Compiling threw: SyntaxError: invalid destructuring assignment operator

tryItOut 634

tryItOut 635
Compiling threw: TypeError: generator function anonymous returns a value

tryItOut 636
Compiling threw: SyntaxError: missing variable name

tryItOut 637
Compiling threw: TypeError: generator function anonymous returns a value

tryItOut 638
Compiling threw: SyntaxError: missing formal parameter

tryItOut 639

tryItOut 640

tryItOut 641

tryItOut 642
Compiling threw: SyntaxError: missing variable name

tryItOut 643

tryItOut 644

tryItOut 645
Compiling threw: SyntaxError: missing } after let block

tryItOut 646
Compiling threw: SyntaxError: illegal XML character

tryItOut 647

tryItOut 648

tryItOut 649

tryItOut 650

tryItOut 651
Compiling threw: SyntaxError: invalid for/in left-hand side

tryItOut 652
Compiling threw: SyntaxError: syntax error

tryItOut 653
Compiling threw: SyntaxError: missing : after property id

tryItOut 654
It's an iterator!
Iterating threw!
Iterating threw: ReferenceError: reference to undefined XML name *

tryItOut 655
Compiling threw: SyntaxError: missing ) in parenthetical

tryItOut 656
Compiling threw: SyntaxError: unmatched ) in regular expression

tryItOut 657
It's an iterator!
Iterating threw!
Iterating threw: TypeError: this.zzz has no properties

tryItOut 658
Compiling threw: SyntaxError: missing variable name

tryItOut 659
Compiling threw: SyntaxError: invalid decrement operand

tryItOut 660

tryItOut 661
It's an iterator!
Iterating threw!
Iterating threw: ReferenceError: __noSuchMethod__ is not defined

tryItOut 662

tryItOut 663

tryItOut 664
Compiling threw: SyntaxError: yield expression must be parenthesized

tryItOut 665

tryItOut 666

tryItOut 667
Compiling threw: SyntaxError: invalid XML name

tryItOut 668
Compiling threw: SyntaxError: invalid XML tag syntax

tryItOut 669
Running threw: ReferenceError: reference to undefined XML name *

tryItOut 670
Compiling threw: SyntaxError: yield expression must be parenthesized

tryItOut 671
Compiling threw: SyntaxError: invalid assignment left-hand side

tryItOut 672
It's an iterator!
Iterating succeeded, iterCount == 1

tryItOut 673

tryItOut 674
It's an iterator!
Iterating threw!
Iterating threw: ReferenceError: z2 is not defined

tryItOut 675
Compiling threw: SyntaxError: invalid for/in left-hand side

tryItOut 676
It's an iterator!
Iterating threw!
Iterating threw: ReferenceError: z1 is not defined

tryItOut 677
It's an iterator!
Iterating succeeded, iterCount == 1

tryItOut 678

tryItOut 679

tryItOut 680
It's an iterator!
Iterating threw!
Iterating threw: TypeError: XML filtering predicate operator called on incompatible Object

tryItOut 681

tryItOut 682
Compiling threw: SyntaxError: missing ) in parenthetical

tryItOut 683
Compiling threw: SyntaxError: invalid for/in left-hand side

tryItOut 684
It's an iterator!
Iterating succeeded, iterCount == 1

tryItOut 685

tryItOut 686

tryItOut 687

tryItOut 688

tryItOut 689
Compiling threw: SyntaxError: syntax error

tryItOut 690
Running threw: ReferenceError: reference to undefined XML name @foo

tryItOut 691

tryItOut 692
Running threw: ReferenceError: reference to undefined XML name @foo

tryItOut 693
Running threw: ReferenceError: reference to undefined XML name *::*

tryItOut 694
It's an iterator!
Iterating threw!
Iterating threw: TypeError: redeclaration of const __parent__

tryItOut 695

tryItOut 696
Running threw: ReferenceError: reference to undefined XML name *

tryItOut 697
Compiling threw: TypeError: generator function anonymous returns a value

tryItOut 698
Compiling threw: TypeError: generator function anonymous returns a value

tryItOut 699

tryItOut 700
Compiling threw: SyntaxError: invalid for/in left-hand side

tryItOut 701

tryItOut 702

tryItOut 703
It's an iterator!
Iterating succeeded, iterCount == 1

tryItOut 704
Compiling threw: SyntaxError: missing variable name

tryItOut 705
Compiling threw: SyntaxError: syntax error

tryItOut 706
Running threw: ReferenceError: reference to undefined XML name *::*

tryItOut 707
Compiling threw: SyntaxError: invalid for/in left-hand side

tryItOut 708

tryItOut 709
Running threw: ReferenceError: __noSuchMethod__ is not defined

tryItOut 710
Compiling threw: SyntaxError: missing { before function body

tryItOut 711

tryItOut 712
Compiling threw: SyntaxError: missing variable name

tryItOut 713
It's an iterator!
Iterating succeeded, iterCount == 2

tryItOut 714
It's an iterator!
Iterating succeeded, iterCount == 2

tryItOut 715

tryItOut 716
Running threw: Error: invalid sharp variable use #1#

tryItOut 717

tryItOut 718
Compiling threw: TypeError: redeclaration of const constructor

tryItOut 719

tryItOut 720
Compiling threw: SyntaxError: missing { before function body

tryItOut 721
It's an iterator!
Iterating succeeded, iterCount == 1

tryItOut 722
Compiling threw: SyntaxError: invalid assignment left-hand side

tryItOut 723

tryItOut 724
Running threw: ReferenceError: reference to undefined XML name *::*

tryItOut 725
Compiling threw: TypeError: generator function anonymous returns a value

tryItOut 726
Running threw: ReferenceError: z1 is not defined

tryItOut 727
Compiling threw: SyntaxError: missing } after let block

tryItOut 728
It's an iterator!
before 488320, after 488320, break 0247c000
Iterating succeeded, iterCount == 0

tryItOut 729

tryItOut 730
It's an iterator!
Iterating succeeded, iterCount == 1

tryItOut 731
Compiling threw: SyntaxError: invalid assignment left-hand side

tryItOut 732
Compiling threw: SyntaxError: syntax error

tryItOut 733

tryItOut 734
uneval returned the string: []

tryItOut 735
Compiling threw: TypeError: generator function anonymous returns a value

tryItOut 736
It's an iterator!
Iterating succeeded, iterCount == 1

tryItOut 737

tryItOut 738

tryItOut 739

tryItOut 740
Compiling threw: SyntaxError: missing ) after condition

tryItOut 741

tryItOut 742

tryItOut 743
Compiling threw: SyntaxError: syntax error

tryItOut 744
Compiling threw: SyntaxError: syntax error

tryItOut 745
It's an iterator!
Iterating threw!
Iterating threw: SyntaxError: invalid setter usage

tryItOut 746
Running threw: ReferenceError: z1 is not defined

tryItOut 747

tryItOut 748

tryItOut 749
It's an iterator!
Iterating succeeded, iterCount == 1

tryItOut 750
Compiling threw: SyntaxError: missing variable name

tryItOut 751
Compiling threw: SyntaxError: missing formal parameter

tryItOut 752

tryItOut 753

tryItOut 754
Compiling threw: SyntaxError: invalid for/in left-hand side

tryItOut 755
Compiling threw: SyntaxError: missing variable name

tryItOut 756
It's an iterator!
Iterating threw!
Iterating threw: ReferenceError: reference to undefined XML name *

tryItOut 757
Running threw: ReferenceError: __noSuchMethod__ is not defined

tryItOut 758

tryItOut 759
Compiling threw: SyntaxError: syntax error

tryItOut 760

tryItOut 761

tryItOut 762
It's an iterator!
Iterating succeeded, iterCount == 1

tryItOut 763
Running threw: ReferenceError: reference to undefined XML name *

tryItOut 764
Compiling threw: SyntaxError: missing variable name

tryItOut 765
Compiling threw: SyntaxError: invalid assignment left-hand side

tryItOut 766
It's an iterator!
Iterating threw!
Iterating threw: TypeError: null is not a constructor

tryItOut 767
Compiling threw: SyntaxError: invalid assignment left-hand side

tryItOut 768
Compiling threw: SyntaxError: invalid destructuring assignment operator

tryItOut 769
It's an iterator!
Iterating threw!
Iterating threw: ReferenceError: z1 is not defined

tryItOut 770
It's an iterator!
Iterating succeeded, iterCount == 1

tryItOut 771
It's an iterator!
Iterating succeeded, iterCount == 0

tryItOut 772
Compiling threw: SyntaxError: syntax error

tryItOut 773
It's an iterator!
Iterating threw!
Iterating threw: ReferenceError: reference to undefined XML name *::*

tryItOut 774

tryItOut 775

tryItOut 776
Compiling threw: SyntaxError: missing ) in parenthetical

tryItOut 777
Compiling threw: TypeError: generator function anonymous returns a value

tryItOut 778
Running threw: ReferenceError: reference to undefined XML name *

tryItOut 779
Compiling threw: TypeError: generator function anonymous returns a value

tryItOut 780
It's an iterator!
Iterating threw!
Iterating threw: ReferenceError: reference to undefined XML name *::*

tryItOut 781
Compiling threw: SyntaxError: invalid assignment left-hand side

tryItOut 782
Compiling threw: SyntaxError: missing ; before statement

tryItOut 783
Compiling threw: SyntaxError: syntax error

tryItOut 784

tryItOut 785
Compiling threw: SyntaxError: missing ; before statement

tryItOut 786
Running threw: ReferenceError: z1 is not defined

tryItOut 787

tryItOut 788
It's an iterator!
Iterating succeeded, iterCount == 1

tryItOut 789

tryItOut 790

tryItOut 791
It's an iterator!
Iterating threw!
Iterating threw: ReferenceError: reference to undefined XML name *

tryItOut 792

tryItOut 793
Compiling threw: SyntaxError: syntax error

tryItOut 794

tryItOut 795

tryItOut 796
Compiling threw: SyntaxError: missing { before function body

tryItOut 797
Compiling threw: SyntaxError: invalid property id

tryItOut 798
Running threw: ReferenceError: z1 is not defined

tryItOut 799
Compiling threw: SyntaxError: syntax error

tryItOut 800
Compiling threw: SyntaxError: syntax error

tryItOut 801

tryItOut 802
It's an iterator!
Iterating threw!
Iterating threw: ReferenceError: reference to undefined XML name @foo

tryItOut 803

tryItOut 804
Compiling threw: SyntaxError: missing ; before statement

tryItOut 805
Compiling threw: SyntaxError: missing ) after condition

tryItOut 806
Compiling threw: SyntaxError: invalid destructuring assignment operator

tryItOut 807

tryItOut 808
Compiling threw: SyntaxError: syntax error

tryItOut 809

tryItOut 810

tryItOut 811

tryItOut 812
Running threw: ReferenceError: reference to undefined XML name *::*

tryItOut 813
uneval returned the string: [1, undefined]
***
Mismatch with uneval/eval on the function's return value! 
[1, undefined]
[1, 1]

Script done on Sat 04 May 2013 06:16:15 AM PDT
