Script started on Sat 04 May 2013 04:39:16 AM PDT
timeout: failed to run command `/scratch/experiments/js1.7/src/Linux_All_DBG/js': No such file or directory

Script done on Sat 04 May 2013 04:39:16 AM PDT
