Script started on Sat 04 May 2013 07:35:04 AM PDT
***
Targeting SpiderMonkey / Gecko.

tryItOut 1
Compiling threw: SyntaxError: invalid break

tryItOut 2

tryItOut 3

tryItOut 4

tryItOut 5
Compiling threw: SyntaxError: label not found

tryItOut 6

tryItOut 7
Running threw: ReferenceError: prototype is not defined

tryItOut 8
Compiling threw: SyntaxError: invalid for/in left-hand side

tryItOut 9

tryItOut 10
Running threw: [object StopIteration]

tryItOut 11
Compiling threw: SyntaxError: missing : after property id

tryItOut 12

tryItOut 13

tryItOut 14
Compiling threw: SyntaxError: invalid continue

tryItOut 15
Compiling threw: SyntaxError: invalid for/in left-hand side

tryItOut 16
Compiling threw: SyntaxError: label not found

tryItOut 17

tryItOut 18
Compiling threw: SyntaxError: label not found

tryItOut 19
Compiling threw: SyntaxError: invalid continue

tryItOut 20

tryItOut 21

tryItOut 22

tryItOut 23

tryItOut 24

tryItOut 25

tryItOut 26
Compiling threw: SyntaxError: invalid assignment left-hand side

tryItOut 27
Compiling threw: SyntaxError: label not found

tryItOut 28
Compiling threw: SyntaxError: invalid for/in left-hand side

tryItOut 29

tryItOut 30
Running threw: ReferenceError: prototype is not defined

tryItOut 31

tryItOut 32

tryItOut 33
Compiling threw: TypeError: redeclaration of const constructor

tryItOut 34
Compiling threw: SyntaxError: missing variable name

tryItOut 35

tryItOut 36

tryItOut 37
Compiling threw: SyntaxError: invalid assignment left-hand side

tryItOut 38
Running threw: TypeError: __parent__ has no properties

tryItOut 39

tryItOut 40
Running threw: [object StopIteration]

tryItOut 41

tryItOut 42
Compiling threw: SyntaxError: invalid break

tryItOut 43
Running threw: TypeError: this.zzz has no properties

tryItOut 44
Running threw: ReferenceError: prototype is not defined

tryItOut 45

tryItOut 46

tryItOut 47

tryItOut 48
Compiling threw: TypeError: redeclaration of variable __iterator__

tryItOut 49
Running threw: TypeError: arguments[0] has no properties

tryItOut 50

tryItOut 51
Compiling threw: SyntaxError: syntax error

tryItOut 52
Compiling threw: TypeError: redeclaration of const prop

tryItOut 53
Compiling threw: SyntaxError: invalid assignment left-hand side

tryItOut 54
Running threw: [object StopIteration]

tryItOut 55
Compiling threw: SyntaxError: invalid for/in left-hand side

tryItOut 56
Compiling threw: SyntaxError: missing variable name

tryItOut 57
Running threw: ReferenceError: prototype is not defined

tryItOut 58
Compiling threw: SyntaxError: invalid for/in left-hand side

tryItOut 59
Compiling threw: SyntaxError: missing variable name

tryItOut 60

tryItOut 61
Compiling threw: SyntaxError: invalid decrement operand

tryItOut 62

tryItOut 63
Compiling threw: SyntaxError: invalid continue

tryItOut 64

tryItOut 65
Running threw: TypeError: false.__defineSetter__("__iterator__", new Function) has no properties

tryItOut 66
Compiling threw: SyntaxError: invalid for/in left-hand side

tryItOut 67

tryItOut 68
Compiling threw: SyntaxError: label not found

tryItOut 69

tryItOut 70
Running threw: TypeError: XML filtering predicate operator called on incompatible Boolean

tryItOut 71

tryItOut 72

tryItOut 73
Running threw: ReferenceError: prototype is not defined

tryItOut 74
Compiling threw: SyntaxError: label not found

tryItOut 75
Compiling threw: SyntaxError: label not found

tryItOut 76
Compiling threw: SyntaxError: invalid for/in left-hand side

tryItOut 77
Compiling threw: SyntaxError: syntax error

tryItOut 78

tryItOut 79
Compiling threw: SyntaxError: label not found

tryItOut 80

tryItOut 81
Compiling threw: SyntaxError: syntax error

tryItOut 82

tryItOut 83

tryItOut 84
Compiling threw: SyntaxError: syntax error

tryItOut 85

tryItOut 86

tryItOut 87
Compiling threw: SyntaxError: invalid property id

tryItOut 88
Running threw: TypeError: arguments[0] has no properties

tryItOut 89

tryItOut 90
Compiling threw: SyntaxError: missing = in destructuring declaration

tryItOut 91
Compiling threw: SyntaxError: invalid break

tryItOut 92

tryItOut 93
Compiling threw: SyntaxError: invalid continue

tryItOut 94
Compiling threw: SyntaxError: syntax error

tryItOut 95

tryItOut 96
Compiling threw: SyntaxError: label not found

tryItOut 97
Compiling threw: SyntaxError: syntax error

tryItOut 98

tryItOut 99

tryItOut 100
Compiling threw: SyntaxError: label not found

tryItOut 101
Compiling threw: SyntaxError: invalid for/in left-hand side

tryItOut 102
Compiling threw: TypeError: redeclaration of const __parent__

tryItOut 103

tryItOut 104

tryItOut 105
Compiling threw: SyntaxError: missing variable name

tryItOut 106

tryItOut 107
Compiling threw: SyntaxError: invalid for/in left-hand side

tryItOut 108

tryItOut 109
Compiling threw: SyntaxError: syntax error

tryItOut 110
Compiling threw: SyntaxError: invalid for each loop

tryItOut 111

tryItOut 112

tryItOut 113
Compiling threw: SyntaxError: invalid for/in left-hand side

tryItOut 114

tryItOut 115
Compiling threw: SyntaxError: missing } after let block

tryItOut 116

tryItOut 117

tryItOut 118

tryItOut 119
Compiling threw: SyntaxError: missing ; after for-loop initializer

tryItOut 120
Running threw: [object StopIteration]

tryItOut 121

tryItOut 122

tryItOut 123
Running threw: ReferenceError: z2 is not defined

tryItOut 124
Compiling threw: SyntaxError: invalid assignment left-hand side

tryItOut 125
It's an iterator!
Iterating succeeded, iterCount == 1

tryItOut 126
Compiling threw: SyntaxError: invalid for/in left-hand side

tryItOut 127

tryItOut 128

tryItOut 129
Compiling threw: SyntaxError: syntax error

tryItOut 130

tryItOut 131

tryItOut 132
Compiling threw: SyntaxError: syntax error

tryItOut 133

tryItOut 134
Compiling threw: TypeError: anonymous generator function returns a value

tryItOut 135
Compiling threw: SyntaxError: invalid for each loop

tryItOut 136
Compiling threw: SyntaxError: syntax error

tryItOut 137
Compiling threw: SyntaxError: missing ) in parenthetical

tryItOut 138
Running threw: [object StopIteration]

tryItOut 139
Compiling threw: SyntaxError: invalid for/in left-hand side

tryItOut 140
Running threw: [object StopIteration]

tryItOut 141

tryItOut 142
Compiling threw: SyntaxError: unterminated string literal

tryItOut 143
Running threw: ReferenceError: reference to undefined property "prototype"

tryItOut 144
Compiling threw: SyntaxError: finally without try

tryItOut 145

tryItOut 146
Compiling threw: SyntaxError: missing } after property list

tryItOut 147
Compiling threw: SyntaxError: invalid for/in left-hand side

tryItOut 148
Running threw: [object StopIteration]

tryItOut 149
Compiling threw: SyntaxError: invalid for/in left-hand side

tryItOut 150
Compiling threw: SyntaxError: syntax error

tryItOut 151

tryItOut 152
Compiling threw: SyntaxError: syntax error

tryItOut 153
Compiling threw: SyntaxError: missing ) after condition

tryItOut 154

tryItOut 155
Compiling threw: SyntaxError: label not found

tryItOut 156
Running threw: ReferenceError: z1 is not defined

tryItOut 157

tryItOut 158
Compiling threw: SyntaxError: invalid assignment left-hand side

tryItOut 159
Compiling threw: SyntaxError: label not found

tryItOut 160

tryItOut 161
Compiling threw: SyntaxError: duplicate label

tryItOut 162

tryItOut 163

tryItOut 164
Compiling threw: SyntaxError: missing ; after for-loop condition

tryItOut 165
Compiling threw: SyntaxError: missing variable name

tryItOut 166

tryItOut 167

tryItOut 168

tryItOut 169
Running threw: [object StopIteration]

tryItOut 170
Compiling threw: SyntaxError: invalid for/in left-hand side

tryItOut 171

tryItOut 172
Compiling threw: SyntaxError: syntax error

tryItOut 173
Compiling threw: SyntaxError: label not found

tryItOut 174
Compiling threw: SyntaxError: catch without try

tryItOut 175

tryItOut 176

tryItOut 177

tryItOut 178
Compiling threw: SyntaxError: invalid for/in left-hand side

tryItOut 179

tryItOut 180

tryItOut 181

tryItOut 182

tryItOut 183

tryItOut 184
Compiling threw: SyntaxError: syntax error

tryItOut 185

tryItOut 186
Compiling threw: SyntaxError: syntax error

tryItOut 187
Compiling threw: SyntaxError: missing ) in parenthetical

tryItOut 188
Compiling threw: SyntaxError: missing variable name

tryItOut 189
Compiling threw: SyntaxError: missing ) in parenthetical

tryItOut 190

tryItOut 191
Compiling threw: SyntaxError: missing } after let block

tryItOut 192
Compiling threw: SyntaxError: missing ; after for-loop initializer

tryItOut 193

tryItOut 194

tryItOut 195

tryItOut 196
Compiling threw: SyntaxError: label not found

tryItOut 197

tryItOut 198

tryItOut 199
Compiling threw: SyntaxError: invalid assignment left-hand side

tryItOut 200

tryItOut 201

tryItOut 202
Compiling threw: SyntaxError: missing : after property id

tryItOut 203

tryItOut 204
Compiling threw: SyntaxError: invalid break

tryItOut 205
Compiling threw: SyntaxError: missing variable name

tryItOut 206

tryItOut 207

tryItOut 208
Compiling threw: SyntaxError: missing ) after condition

tryItOut 209

tryItOut 210
Compiling threw: SyntaxError: syntax error

tryItOut 211
Compiling threw: SyntaxError: missing ) in parenthetical

tryItOut 212

tryItOut 213
Compiling threw: SyntaxError: invalid for/in left-hand side

tryItOut 214
Compiling threw: SyntaxError: invalid for/in left-hand side

tryItOut 215

tryItOut 216
Running threw: TypeError: prototype is not a constructor

tryItOut 217

tryItOut 218
Compiling threw: SyntaxError: invalid for/in left-hand side

tryItOut 219

tryItOut 220
Compiling threw: SyntaxError: syntax error

tryItOut 221

tryItOut 222
Compiling threw: SyntaxError: missing } after let block

tryItOut 223
Compiling threw: SyntaxError: missing { before function body

tryItOut 224

tryItOut 225
Compiling threw: TypeError: redeclaration of var __count__

tryItOut 226

tryItOut 227

tryItOut 228

tryItOut 229

tryItOut 230
Compiling threw: SyntaxError: invalid for/in left-hand side

tryItOut 231
Compiling threw: TypeError: redeclaration of var __count__

tryItOut 232
Compiling threw: SyntaxError: invalid assignment left-hand side

tryItOut 233
Compiling threw: SyntaxError: syntax error

tryItOut 234

tryItOut 235
Compiling threw: SyntaxError: missing ; after for-loop initializer

tryItOut 236

tryItOut 237
Compiling threw: SyntaxError: missing = in destructuring declaration

tryItOut 238

tryItOut 239
Compiling threw: SyntaxError: invalid for/in left-hand side

tryItOut 240
Running threw: TypeError: this.zzz has no properties

tryItOut 241
Compiling threw: SyntaxError: missing { before function body

tryItOut 242

tryItOut 243
Running threw: ReferenceError: z1 is not defined

tryItOut 244
Running threw: TypeError: __parent__ has no properties

tryItOut 245

tryItOut 246
Running threw: TypeError: #1={a:#1#} is not a function

tryItOut 247
Running threw: ReferenceError: prop is not defined

tryItOut 248
Compiling threw: TypeError: generator function anonymous returns a value

tryItOut 249

tryItOut 250

tryItOut 251

tryItOut 252
Compiling threw: SyntaxError: invalid assignment left-hand side

tryItOut 253
Compiling threw: SyntaxError: invalid assignment left-hand side

tryItOut 254

tryItOut 255
Compiling threw: SyntaxError: duplicate label

tryItOut 256
Compiling threw: SyntaxError: label not found

tryItOut 257

tryItOut 258

tryItOut 259
Running threw: ReferenceError: prop is not defined

tryItOut 260
Compiling threw: SyntaxError: missing variable name

tryItOut 261

tryItOut 262
Running threw: TypeError: this.zzz has no properties

tryItOut 263
Running threw: [object StopIteration]

tryItOut 264
Compiling threw: SyntaxError: invalid assignment left-hand side

tryItOut 265
Compiling threw: SyntaxError: label not found

tryItOut 266

tryItOut 267

tryItOut 268
Running threw: TypeError: this.zzz has no properties

tryItOut 269
Compiling threw: TypeError: redeclaration of var __iterator__

tryItOut 270
Compiling threw: SyntaxError: missing } after let block

tryItOut 271
Running threw: TypeError: undefined has no properties

tryItOut 272

tryItOut 273

tryItOut 274
Compiling threw: SyntaxError: missing ; before statement

tryItOut 275

tryItOut 276
Running threw: ReferenceError: prop is not defined

tryItOut 277
Compiling threw: SyntaxError: invalid break

tryItOut 278
Compiling threw: SyntaxError: missing { before function body

tryItOut 279
Compiling threw: SyntaxError: missing : after property id

tryItOut 280
Compiling threw: SyntaxError: invalid assignment left-hand side

tryItOut 281
Running threw: ReferenceError: prop is not defined

tryItOut 282
Compiling threw: SyntaxError: invalid continue

tryItOut 283
Compiling threw: SyntaxError: missing } after let block

tryItOut 284

tryItOut 285

tryItOut 286
Compiling threw: SyntaxError: missing ; before statement

tryItOut 287
Compiling threw: SyntaxError: label not found

tryItOut 288

tryItOut 289
Compiling threw: TypeError: redeclaration of variable prop

tryItOut 290

tryItOut 291

tryItOut 292

tryItOut 293

tryItOut 294
Compiling threw: SyntaxError: invalid continue

tryItOut 295

tryItOut 296

tryItOut 297
Running threw: ReferenceError: reference to undefined property "prop"

tryItOut 298
Compiling threw: SyntaxError: syntax error

tryItOut 299

tryItOut 300
Running threw: TypeError: /x/.__lookupSetter__("__count__") has no properties

tryItOut 301

tryItOut 302
Compiling threw: SyntaxError: missing ; after for-loop initializer

tryItOut 303
Compiling threw: SyntaxError: invalid for/in left-hand side

tryItOut 304
Running threw: ReferenceError: z1 is not defined

tryItOut 305

tryItOut 306
Compiling threw: SyntaxError: label not found

tryItOut 307
Running threw: TypeError: p.z = undefined is not a function

tryItOut 308

tryItOut 309
Compiling threw: SyntaxError: missing variable name

tryItOut 310

tryItOut 311

tryItOut 312

tryItOut 313
Compiling threw: SyntaxError: syntax error

tryItOut 314
Compiling threw: SyntaxError: label not found

tryItOut 315
Compiling threw: SyntaxError: missing variable name

tryItOut 316
Compiling threw: SyntaxError: missing { before function body

tryItOut 317
Compiling threw: SyntaxError: missing variable name

tryItOut 318

tryItOut 319
Compiling threw: SyntaxError: invalid assignment left-hand side

tryItOut 320

tryItOut 321
Running threw: [object StopIteration]

tryItOut 322

tryItOut 323
Compiling threw: TypeError: redeclaration of var __iterator__

tryItOut 324
Compiling threw: SyntaxError: duplicate label

tryItOut 325

tryItOut 326
Compiling threw: SyntaxError: invalid assignment left-hand side

tryItOut 327

tryItOut 328
Compiling threw: SyntaxError: missing { before function body

tryItOut 329
Compiling threw: SyntaxError: invalid for/in left-hand side

tryItOut 330
Compiling threw: SyntaxError: missing } after let block

tryItOut 331

tryItOut 332

tryItOut 333

tryItOut 334
Compiling threw: SyntaxError: invalid break

tryItOut 335
Running threw: ReferenceError: prop is not defined

tryItOut 336

tryItOut 337

tryItOut 338
Compiling threw: TypeError: redeclaration of const __parent__

tryItOut 339

tryItOut 340

tryItOut 341

tryItOut 342

tryItOut 343

tryItOut 344
Compiling threw: SyntaxError: invalid assignment left-hand side

tryItOut 345

tryItOut 346

tryItOut 347
Compiling threw: SyntaxError: invalid for/in left-hand side

tryItOut 348

tryItOut 349
Compiling threw: SyntaxError: missing variable name

tryItOut 350
Compiling threw: SyntaxError: invalid assignment left-hand side

tryItOut 351
Running threw: TypeError: this.zzz has no properties

tryItOut 352
Compiling threw: SyntaxError: missing ) in parenthetical

tryItOut 353
Compiling threw: SyntaxError: invalid destructuring assignment operator

tryItOut 354
Compiling threw: SyntaxError: label not found

tryItOut 355
Compiling threw: SyntaxError: label not found

tryItOut 356
Compiling threw: SyntaxError: invalid increment operand

tryItOut 357

tryItOut 358

tryItOut 359
Running threw: ReferenceError: z2 is not defined

tryItOut 360
Compiling threw: SyntaxError: invalid break

tryItOut 361

tryItOut 362
Compiling threw: SyntaxError: missing variable name

tryItOut 363

tryItOut 364

tryItOut 365

tryItOut 366
Compiling threw: SyntaxError: invalid for/in left-hand side

tryItOut 367
Running threw: TypeError: this.zzz has no properties

tryItOut 368

tryItOut 369
Compiling threw: SyntaxError: missing variable name

tryItOut 370

tryItOut 371

tryItOut 372

tryItOut 373

tryItOut 374

tryItOut 375
Compiling threw: SyntaxError: invalid property id

tryItOut 376

tryItOut 377

tryItOut 378
Compiling threw: SyntaxError: invalid decrement operand

tryItOut 379
Compiling threw: SyntaxError: syntax error

tryItOut 380

tryItOut 381

tryItOut 382

tryItOut 383

tryItOut 384
Compiling threw: SyntaxError: label not found

tryItOut 385

tryItOut 386

tryItOut 387
Compiling threw: SyntaxError: syntax error

tryItOut 388

tryItOut 389
Compiling threw: SyntaxError: missing ) in parenthetical

tryItOut 390
Running threw: [object StopIteration]

tryItOut 391

tryItOut 392

tryItOut 393
Compiling threw: SyntaxError: invalid break

tryItOut 394

tryItOut 395

tryItOut 396

tryItOut 397

tryItOut 398

tryItOut 399
Compiling threw: SyntaxError: label not found

tryItOut 400

tryItOut 401

tryItOut 402
Compiling threw: SyntaxError: invalid assignment left-hand side

tryItOut 403

tryItOut 404
Compiling threw: SyntaxError: invalid continue

tryItOut 405
Compiling threw: SyntaxError: invalid for/in left-hand side

tryItOut 406

tryItOut 407
Compiling threw: SyntaxError: missing variable name

tryItOut 408
Compiling threw: SyntaxError: missing variable name

tryItOut 409
Compiling threw: SyntaxError: invalid assignment left-hand side

tryItOut 410

tryItOut 411

tryItOut 412

tryItOut 413
Compiling threw: SyntaxError: invalid for/in left-hand side

tryItOut 414
Compiling threw: SyntaxError: syntax error

tryItOut 415

tryItOut 416

tryItOut 417

tryItOut 418

tryItOut 419

tryItOut 420

tryItOut 421

tryItOut 422
Compiling threw: SyntaxError: missing variable name

tryItOut 423
Running threw: TypeError: p.z = "" is not a function

tryItOut 424

tryItOut 425
Compiling threw: SyntaxError: syntax error

tryItOut 426

tryItOut 427

tryItOut 428
Running threw: ReferenceError: z2 is not defined

tryItOut 429

tryItOut 430
Compiling threw: SyntaxError: invalid break

tryItOut 431
Compiling threw: SyntaxError: missing ) in parenthetical

tryItOut 432

tryItOut 433
Compiling threw: SyntaxError: missing ) in parenthetical

tryItOut 434
Compiling threw: SyntaxError: invalid continue

tryItOut 435
Compiling threw: SyntaxError: missing while after do-loop body

tryItOut 436
Compiling threw: SyntaxError: missing variable name

tryItOut 437

tryItOut 438
Compiling threw: SyntaxError: label not found

tryItOut 439

tryItOut 440
Running threw: ReferenceError: z2 is not defined

tryItOut 441

tryItOut 442

tryItOut 443

tryItOut 444
Compiling threw: SyntaxError: invalid for/in left-hand side

tryItOut 445
Compiling threw: SyntaxError: invalid decrement operand

tryItOut 446
Compiling threw: TypeError: generator function anonymous returns a value

tryItOut 447

tryItOut 448

tryItOut 449
Compiling threw: SyntaxError: missing ; before statement

tryItOut 450

tryItOut 451
Compiling threw: SyntaxError: missing ( before let head

tryItOut 452
Compiling threw: SyntaxError: missing ) in parenthetical

tryItOut 453
Compiling threw: SyntaxError: invalid for/in left-hand side

tryItOut 454

tryItOut 455

tryItOut 456
Compiling threw: SyntaxError: missing ; after for-loop initializer

tryItOut 457
Compiling threw: SyntaxError: missing = in destructuring declaration

tryItOut 458
Compiling threw: SyntaxError: missing : after property id

tryItOut 459

tryItOut 460
Compiling threw: SyntaxError: label not found

tryItOut 461

tryItOut 462
Running threw: ReferenceError: prop is not defined

tryItOut 463

tryItOut 464

tryItOut 465

tryItOut 466

tryItOut 467

tryItOut 468
Compiling threw: SyntaxError: label not found

tryItOut 469

tryItOut 470
Compiling threw: TypeError: redeclaration of const prototype

tryItOut 471
Compiling threw: SyntaxError: missing : after property id

tryItOut 472
Compiling threw: SyntaxError: invalid for/in left-hand side

tryItOut 473
Compiling threw: SyntaxError: invalid assignment left-hand side

tryItOut 474

tryItOut 475
Compiling threw: SyntaxError: missing variable name

tryItOut 476

tryItOut 477

tryItOut 478
Compiling threw: SyntaxError: invalid break

tryItOut 479

tryItOut 480
Running threw: ReferenceError: z1 is not defined

tryItOut 481
Compiling threw: SyntaxError: syntax error

tryItOut 482

tryItOut 483
Compiling threw: SyntaxError: missing ; before statement

tryItOut 484
Compiling threw: SyntaxError: invalid for/in left-hand side

tryItOut 485
Compiling threw: SyntaxError: missing variable name

tryItOut 486

tryItOut 487

tryItOut 488

tryItOut 489

tryItOut 490

tryItOut 491
Compiling threw: SyntaxError: invalid assignment left-hand side

tryItOut 492

tryItOut 493

tryItOut 494
Compiling threw: SyntaxError: invalid for each loop

tryItOut 495

tryItOut 496
Compiling threw: SyntaxError: syntax error

tryItOut 497
Compiling threw: SyntaxError: missing ) after condition

tryItOut 498
Compiling threw: SyntaxError: missing variable name

tryItOut 499
Compiling threw: SyntaxError: invalid for/in left-hand side

tryItOut 500

tryItOut 501

tryItOut 502
Compiling threw: SyntaxError: label not found

tryItOut 503

tryItOut 504

tryItOut 505

tryItOut 506
Running threw: TypeError: p.z = null is not a function

tryItOut 507

tryItOut 508
Compiling threw: SyntaxError: label not found

tryItOut 509

tryItOut 510
Compiling threw: SyntaxError: missing variable name

tryItOut 511

tryItOut 512

tryItOut 513
Compiling threw: SyntaxError: label not found

tryItOut 514
Compiling threw: SyntaxError: invalid destructuring assignment operator

tryItOut 515
Compiling threw: SyntaxError: syntax error

tryItOut 516

tryItOut 517

tryItOut 518
Running threw: [object StopIteration]

tryItOut 519
Compiling threw: SyntaxError: missing ) after condition

tryItOut 520

tryItOut 521
Compiling threw: SyntaxError: invalid assignment left-hand side

tryItOut 522

tryItOut 523
Compiling threw: TypeError: redeclaration of variable prototype

tryItOut 524

tryItOut 525
Compiling threw: SyntaxError: invalid for/in left-hand side

tryItOut 526

tryItOut 527
Compiling threw: SyntaxError: missing { before function body

tryItOut 528

tryItOut 529
Compiling threw: SyntaxError: finally without try

tryItOut 530
Compiling threw: SyntaxError: missing ) in parenthetical

tryItOut 531
Running threw: TypeError: prototype has no properties

tryItOut 532
Compiling threw: TypeError: redeclaration of var __iterator__

tryItOut 533
Compiling threw: SyntaxError: missing ) after condition

tryItOut 534
Compiling threw: SyntaxError: invalid for/in left-hand side

tryItOut 535

tryItOut 536
Compiling threw: SyntaxError: syntax error

tryItOut 537
Compiling threw: SyntaxError: invalid for/in left-hand side

tryItOut 538

tryItOut 539
Compiling threw: SyntaxError: invalid break

tryItOut 540
Compiling threw: SyntaxError: missing { before function body

tryItOut 541
Running threw: ReferenceError: prop is not defined

tryItOut 542

tryItOut 543

tryItOut 544
Compiling threw: SyntaxError: invalid assignment left-hand side

tryItOut 545

tryItOut 546
Compiling threw: SyntaxError: missing variable name

tryItOut 547
Compiling threw: SyntaxError: missing variable name

tryItOut 548
Compiling threw: SyntaxError: missing variable name

tryItOut 549
Running threw: ReferenceError: z2 is not defined

tryItOut 550
Compiling threw: SyntaxError: label not found

tryItOut 551
Compiling threw: SyntaxError: invalid for/in left-hand side

tryItOut 552
Compiling threw: SyntaxError: syntax error

tryItOut 553
Compiling threw: SyntaxError: missing ; before statement

tryItOut 554

tryItOut 555

tryItOut 556

tryItOut 557
Running threw: ReferenceError: prop is not defined

tryItOut 558

tryItOut 559

tryItOut 560
Compiling threw: SyntaxError: missing formal parameter

tryItOut 561
Running threw: TypeError: __proto__ has no properties

tryItOut 562
Compiling threw: SyntaxError: invalid for/in left-hand side

tryItOut 563
Compiling threw: SyntaxError: label not found

tryItOut 564
Compiling threw: SyntaxError: invalid for/in left-hand side

tryItOut 565
Compiling threw: SyntaxError: syntax error

tryItOut 566
Compiling threw: SyntaxError: syntax error

tryItOut 567
Compiling threw: SyntaxError: invalid assignment left-hand side

tryItOut 568

tryItOut 569

tryItOut 570
Compiling threw: SyntaxError: invalid for/in left-hand side

tryItOut 571

tryItOut 572
Compiling threw: SyntaxError: syntax error

tryItOut 573
Compiling threw: SyntaxError: missing } after let block

tryItOut 574

tryItOut 575
Compiling threw: SyntaxError: invalid break

tryItOut 576

tryItOut 577
Compiling threw: SyntaxError: missing variable name

tryItOut 578

tryItOut 579

tryItOut 580

tryItOut 581

tryItOut 582
Running threw: SyntaxError: invalid setter usage

tryItOut 583

tryItOut 584

tryItOut 585

tryItOut 586
Running threw: [object StopIteration]

tryItOut 587
Compiling threw: SyntaxError: missing ; before statement

tryItOut 588

tryItOut 589

tryItOut 590
Compiling threw: SyntaxError: missing variable name

tryItOut 591
Compiling threw: SyntaxError: invalid for/in left-hand side

tryItOut 592
Compiling threw: SyntaxError: label not found

tryItOut 593

tryItOut 594

tryItOut 595
Compiling threw: SyntaxError: invalid continue

tryItOut 596

tryItOut 597
Compiling threw: SyntaxError: missing { before function body

tryItOut 598
Compiling threw: SyntaxError: label not found

tryItOut 599

tryItOut 600

tryItOut 601

tryItOut 602
Running threw: [object StopIteration]

tryItOut 603

tryItOut 604
Compiling threw: SyntaxError: invalid for/in left-hand side

tryItOut 605

tryItOut 606

tryItOut 607

tryItOut 608
uneval returned the string: [1]

tryItOut 609
Compiling threw: SyntaxError: missing variable name

tryItOut 610
Compiling threw: SyntaxError: invalid continue

tryItOut 611

tryItOut 612
Compiling threw: SyntaxError: missing ) after argument list

tryItOut 613

tryItOut 614

tryItOut 615
Running threw: TypeError: null is not a constructor

tryItOut 616
Compiling threw: SyntaxError: missing variable name

tryItOut 617
Compiling threw: TypeError: redeclaration of const __iterator__

tryItOut 618
Running threw: ReferenceError: reference to undefined XML name @mozilla.org/js/function::constructor

tryItOut 619
Running threw: TypeError: arguments[0] has no properties

tryItOut 620

tryItOut 621
Compiling threw: SyntaxError: invalid break

tryItOut 622
Compiling threw: SyntaxError: missing } after let block

tryItOut 623

tryItOut 624

tryItOut 625
Compiling threw: SyntaxError: invalid for/in left-hand side

tryItOut 626

tryItOut 627

tryItOut 628
Compiling threw: SyntaxError: missing } after let block

tryItOut 629
Running threw: ReferenceError: z1 is not defined

tryItOut 630
Compiling threw: SyntaxError: missing ) after condition

tryItOut 631

tryItOut 632
Compiling threw: SyntaxError: missing ) in parenthetical

tryItOut 633
Compiling threw: SyntaxError: invalid for/in left-hand side

tryItOut 634

tryItOut 635
Compiling threw: SyntaxError: missing } after let block

tryItOut 636
Compiling threw: SyntaxError: missing } after let block

tryItOut 637
Compiling threw: SyntaxError: invalid assignment left-hand side

tryItOut 638
Compiling threw: SyntaxError: missing { before function body

tryItOut 639
Running threw: TypeError: (function (id) {return id;}).unwatch("__count__") is not a function

tryItOut 640

tryItOut 641
Running threw: [object StopIteration]

tryItOut 642
Compiling threw: SyntaxError: label not found

tryItOut 643

tryItOut 644

tryItOut 645
Running threw: TypeError: this.zzz has no properties

tryItOut 646

tryItOut 647
Compiling threw: SyntaxError: label not found

tryItOut 648

tryItOut 649
Compiling threw: SyntaxError: label not found

tryItOut 650
Compiling threw: SyntaxError: missing identifier in catch

tryItOut 651

tryItOut 652

tryItOut 653
Compiling threw: SyntaxError: missing ; after for-loop condition

tryItOut 654
Running threw: ReferenceError: z2 is not defined

tryItOut 655
Compiling threw: SyntaxError: syntax error

tryItOut 656
Compiling threw: SyntaxError: missing ; after for-loop condition

tryItOut 657

tryItOut 658

tryItOut 659
Running threw: [object StopIteration]

tryItOut 660
Compiling threw: SyntaxError: label not found

tryItOut 661

tryItOut 662

tryItOut 663

tryItOut 664

tryItOut 665

tryItOut 666

tryItOut 667

tryItOut 668

tryItOut 669
Compiling threw: SyntaxError: syntax error

tryItOut 670
Compiling threw: SyntaxError: invalid for/in left-hand side

tryItOut 671
Compiling threw: SyntaxError: missing { before function body

tryItOut 672

tryItOut 673

tryItOut 674
Compiling threw: SyntaxError: missing variable name

tryItOut 675
Compiling threw: SyntaxError: invalid break

tryItOut 676
Compiling threw: SyntaxError: missing variable name

tryItOut 677
Running threw: [object StopIteration]

tryItOut 678

tryItOut 679

tryItOut 680

tryItOut 681

tryItOut 682
Compiling threw: SyntaxError: missing variable name

tryItOut 683

tryItOut 684

tryItOut 685

tryItOut 686

tryItOut 687
Compiling threw: SyntaxError: missing variable name

tryItOut 688

tryItOut 689
Compiling threw: TypeError: redeclaration of var __noSuchMethod__

tryItOut 690
Compiling threw: SyntaxError: missing variable name

tryItOut 691
Compiling threw: SyntaxError: duplicate label

tryItOut 692

tryItOut 693

tryItOut 694

tryItOut 695

tryItOut 696
It's an iterator!
Iterating succeeded, iterCount == 1

tryItOut 697

tryItOut 698
Compiling threw: SyntaxError: missing variable name

tryItOut 699
Compiling threw: SyntaxError: invalid for/in left-hand side

tryItOut 700

tryItOut 701
Compiling threw: SyntaxError: label not found

tryItOut 702
Compiling threw: SyntaxError: missing ) after argument list

tryItOut 703

tryItOut 704

tryItOut 705

tryItOut 706
Running threw: ReferenceError: z2 is not defined

tryItOut 707
Compiling threw: SyntaxError: syntax error

tryItOut 708

tryItOut 709

tryItOut 710
Compiling threw: SyntaxError: missing variable name

tryItOut 711
Compiling threw: SyntaxError: invalid continue

tryItOut 712
Compiling threw: SyntaxError: missing : after property id

tryItOut 713

tryItOut 714
Compiling threw: SyntaxError: missing variable name

tryItOut 715
Compiling threw: SyntaxError: invalid continue

tryItOut 716
Compiling threw: SyntaxError: invalid break

tryItOut 717

tryItOut 718
Compiling threw: SyntaxError: invalid for/in left-hand side

tryItOut 719

tryItOut 720
Running threw: TypeError: [1] is not a function

tryItOut 721
Compiling threw: SyntaxError: missing variable name

tryItOut 722

tryItOut 723
Compiling threw: SyntaxError: missing variable name

tryItOut 724

tryItOut 725
Compiling threw: SyntaxError: invalid XML tag syntax

tryItOut 726

tryItOut 727
Compiling threw: SyntaxError: invalid assignment left-hand side

tryItOut 728

tryItOut 729
Compiling threw: SyntaxError: invalid continue

tryItOut 730

tryItOut 731
Compiling threw: SyntaxError: invalid for/in left-hand side

tryItOut 732
Running threw: TypeError: this.zzz has no properties

tryItOut 733
Compiling threw: SyntaxError: invalid decrement operand

tryItOut 734
Compiling threw: SyntaxError: invalid assignment left-hand side

tryItOut 735

tryItOut 736
Compiling threw: SyntaxError: missing ) in parenthetical

tryItOut 737

tryItOut 738
Compiling threw: SyntaxError: label not found

tryItOut 739

tryItOut 740
Compiling threw: SyntaxError: label not found

tryItOut 741

tryItOut 742

tryItOut 743
Compiling threw: SyntaxError: invalid label

tryItOut 744
Compiling threw: SyntaxError: missing variable name

tryItOut 745
Compiling threw: SyntaxError: label not found

tryItOut 746

tryItOut 747

tryItOut 748
Compiling threw: SyntaxError: invalid for/in left-hand side

tryItOut 749
Running threw: TypeError: this.zzz has no properties

tryItOut 750

tryItOut 751
Compiling threw: SyntaxError: missing variable name

tryItOut 752

tryItOut 753
Compiling threw: SyntaxError: invalid for/in left-hand side

tryItOut 754

tryItOut 755
Compiling threw: SyntaxError: missing ( before let head

tryItOut 756
Compiling threw: SyntaxError: invalid for/in left-hand side

tryItOut 757

tryItOut 758

tryItOut 759
Compiling threw: TypeError: redeclaration of const constructor

tryItOut 760

tryItOut 761

tryItOut 762

tryItOut 763
Compiling threw: SyntaxError: duplicate label

tryItOut 764

tryItOut 765

tryItOut 766

tryItOut 767
Compiling threw: SyntaxError: missing ; after for-loop initializer

tryItOut 768
Compiling threw: SyntaxError: missing ) in parenthetical

tryItOut 769
Running threw: TypeError: null is not a constructor

tryItOut 770

tryItOut 771
Running threw: SyntaxError: invalid assignment left-hand side

tryItOut 772
Running threw: [object StopIteration]

tryItOut 773

tryItOut 774
Compiling threw: SyntaxError: syntax error

tryItOut 775
Compiling threw: SyntaxError: syntax error

tryItOut 776

tryItOut 777
Compiling threw: SyntaxError: invalid break

tryItOut 778
Running threw: SyntaxError: invalid setter usage

tryItOut 779

tryItOut 780
Compiling threw: SyntaxError: invalid assignment left-hand side

tryItOut 781

tryItOut 782

tryItOut 783
Compiling threw: SyntaxError: missing while after do-loop body

tryItOut 784
Compiling threw: SyntaxError: missing variable name

tryItOut 785
Compiling threw: SyntaxError: invalid assignment left-hand side

tryItOut 786

tryItOut 787

tryItOut 788

tryItOut 789
Compiling threw: SyntaxError: invalid break

tryItOut 790
Running threw: ReferenceError: z2 is not defined

tryItOut 791

tryItOut 792
Compiling threw: SyntaxError: missing ( before let head

tryItOut 793
Compiling threw: SyntaxError: missing ; after for-loop initializer

tryItOut 794
Compiling threw: SyntaxError: invalid break

tryItOut 795

tryItOut 796
Compiling threw: SyntaxError: invalid assignment left-hand side

tryItOut 797

tryItOut 798
Compiling threw: SyntaxError: invalid destructuring assignment operator

tryItOut 799
Compiling threw: SyntaxError: syntax error

tryItOut 800

tryItOut 801

tryItOut 802
Compiling threw: SyntaxError: label not found

tryItOut 803

tryItOut 804

tryItOut 805

tryItOut 806

tryItOut 807

tryItOut 808

tryItOut 809
uneval returned the string: [undefined, undefined]
***
Mismatch with uneval/eval on the function's return value! 
[undefined, undefined]
[NaN, NaN]

Script done on Sat 04 May 2013 07:35:04 AM PDT
