Script started on Sat 04 May 2013 05:04:41 AM PDT
***
Targeting SpiderMonkey / Gecko.

tryItOut 1
Compiling threw: SyntaxError: invalid for/in left-hand side

tryItOut 2
Compiling threw: SyntaxError: missing ] after element list

tryItOut 3

tryItOut 4

tryItOut 5

tryItOut 6

tryItOut 7

tryItOut 8
Compiling threw: SyntaxError: missing { before function body

tryItOut 9

tryItOut 10
Compiling threw: SyntaxError: missing ; before statement

tryItOut 11
Running threw: TypeError: undefined has no properties

tryItOut 12
Compiling threw: SyntaxError: missing variable name

tryItOut 13
Compiling threw: SyntaxError: invalid for/in left-hand side

tryItOut 14
Compiling threw: TypeError: redeclaration of var __iterator__

tryItOut 15

tryItOut 16
Compiling threw: SyntaxError: syntax error

tryItOut 17
Compiling threw: SyntaxError: missing { before function body

tryItOut 18
Compiling threw: SyntaxError: invalid assignment left-hand side

tryItOut 19

tryItOut 20
Compiling threw: SyntaxError: syntax error

tryItOut 21
Compiling threw: SyntaxError: missing formal parameter

tryItOut 22
Compiling threw: SyntaxError: invalid break

tryItOut 23
Compiling threw: SyntaxError: missing ] after element list

tryItOut 24
Running threw: TypeError: null has no properties

tryItOut 25
Compiling threw: SyntaxError: missing { before function body

tryItOut 26

tryItOut 27

tryItOut 28
Compiling threw: SyntaxError: invalid continue

tryItOut 29
Compiling threw: SyntaxError: syntax error

tryItOut 30

tryItOut 31
Compiling threw: SyntaxError: missing { before function body

tryItOut 32
Compiling threw: SyntaxError: missing { before function body

tryItOut 33

tryItOut 34

tryItOut 35
Compiling threw: SyntaxError: syntax error

tryItOut 36
Compiling threw: SyntaxError: missing ) in parenthetical

tryItOut 37
Compiling threw: SyntaxError: invalid destructuring assignment operator

tryItOut 38
Compiling threw: TypeError: redeclaration of const prop

tryItOut 39
Running threw: [object StopIteration]

tryItOut 40
Compiling threw: SyntaxError: invalid for/in left-hand side

tryItOut 41

tryItOut 42
Compiling threw: SyntaxError: missing ) in parenthetical

tryItOut 43
Compiling threw: SyntaxError: missing ; before statement

tryItOut 44
Compiling threw: SyntaxError: missing { before function body

tryItOut 45
Running threw: ReferenceError: window is not defined

tryItOut 46
Compiling threw: TypeError: redeclaration of var __count__

tryItOut 47
Compiling threw: SyntaxError: invalid assignment left-hand side

tryItOut 48

tryItOut 49

tryItOut 50

tryItOut 51
Running threw: ReferenceError: __noSuchMethod__ is not defined

tryItOut 52

tryItOut 53

tryItOut 54
Running threw: ReferenceError: window is not defined

tryItOut 55
Running threw: ReferenceError: prop is not defined

tryItOut 56
Compiling threw: SyntaxError: missing { before function body

tryItOut 57

tryItOut 58

tryItOut 59
Compiling threw: SyntaxError: syntax error

tryItOut 60
Compiling threw: SyntaxError: unterminated regular expression literal

tryItOut 61

tryItOut 62
Compiling threw: SyntaxError: missing } after let block

tryItOut 63
Compiling threw: SyntaxError: duplicate label

tryItOut 64
Compiling threw: SyntaxError: missing variable name

tryItOut 65
Compiling threw: SyntaxError: missing ; before statement

tryItOut 66
Running threw: TypeError: __proto__['throw'] is not a function

tryItOut 67
Running threw: ReferenceError: prop is not defined

tryItOut 68
Compiling threw: SyntaxError: missing ; before statement

tryItOut 69
Running threw: ReferenceError: prototype is not defined

tryItOut 70
Running threw: ReferenceError: window is not defined

tryItOut 71

tryItOut 72

tryItOut 73
Compiling threw: SyntaxError: syntax error

tryItOut 74

tryItOut 75

tryItOut 76
Compiling threw: SyntaxError: invalid continue

tryItOut 77

tryItOut 78
Compiling threw: SyntaxError: missing variable name

tryItOut 79
It's an iterator!
Iterating succeeded, iterCount == 1

tryItOut 80
Compiling threw: SyntaxError: invalid increment operand

tryItOut 81
Compiling threw: SyntaxError: invalid increment operand

tryItOut 82
Compiling threw: SyntaxError: label not found

tryItOut 83
Compiling threw: SyntaxError: missing { before function body

tryItOut 84
Compiling threw: SyntaxError: missing ; before statement

tryItOut 85

tryItOut 86

tryItOut 87
Compiling threw: SyntaxError: missing { before function body

tryItOut 88
Compiling threw: TypeError: redeclaration of variable __count__

tryItOut 89
Compiling threw: SyntaxError: missing ; before statement

tryItOut 90

tryItOut 91

tryItOut 92
Compiling threw: SyntaxError: syntax error

tryItOut 93
Compiling threw: SyntaxError: invalid for/in left-hand side

tryItOut 94
Compiling threw: SyntaxError: invalid assignment left-hand side

tryItOut 95

tryItOut 96

tryItOut 97
Compiling threw: SyntaxError: missing { before function body

tryItOut 98
Compiling threw: SyntaxError: invalid for/in left-hand side

tryItOut 99

tryItOut 100
Compiling threw: SyntaxError: invalid destructuring assignment operator

tryItOut 101
Compiling threw: SyntaxError: syntax error

tryItOut 102
Compiling threw: SyntaxError: missing variable name

tryItOut 103

tryItOut 104
Compiling threw: SyntaxError: label not found

tryItOut 105
Compiling threw: SyntaxError: missing ) in parenthetical

tryItOut 106

tryItOut 107

tryItOut 108
Compiling threw: SyntaxError: invalid for/in left-hand side

tryItOut 109
Compiling threw: SyntaxError: label not found

tryItOut 110

tryItOut 111
Compiling threw: SyntaxError: invalid break

tryItOut 112

tryItOut 113
Compiling threw: SyntaxError: invalid for/in left-hand side

tryItOut 114

tryItOut 115
Compiling threw: SyntaxError: missing ) after argument list

tryItOut 116
Compiling threw: SyntaxError: syntax error

tryItOut 117
Compiling threw: SyntaxError: syntax error

tryItOut 118

tryItOut 119

tryItOut 120
Running threw: ReferenceError: window is not defined

tryItOut 121
Compiling threw: SyntaxError: missing variable name

tryItOut 122
Compiling threw: SyntaxError: missing ; before statement

tryItOut 123
Compiling threw: SyntaxError: invalid decrement operand

tryItOut 124

tryItOut 125
Compiling threw: SyntaxError: missing while after do-loop body

tryItOut 126

tryItOut 127

tryItOut 128

tryItOut 129

tryItOut 130
Compiling threw: SyntaxError: invalid sharp variable definition

tryItOut 131

tryItOut 132
Compiling threw: SyntaxError: missing { before function body

tryItOut 133
Running threw: ReferenceError: window is not defined

tryItOut 134

tryItOut 135
Running threw: ReferenceError: prop is not defined

tryItOut 136

tryItOut 137
Compiling threw: SyntaxError: invalid decrement operand

tryItOut 138
Compiling threw: SyntaxError: invalid for/in left-hand side

tryItOut 139

tryItOut 140
Compiling threw: SyntaxError: invalid continue

tryItOut 141
Compiling threw: SyntaxError: missing variable name

tryItOut 142
Compiling threw: SyntaxError: invalid assignment left-hand side

tryItOut 143
Compiling threw: SyntaxError: label not found

tryItOut 144

tryItOut 145

tryItOut 146

tryItOut 147
Compiling threw: SyntaxError: invalid for/in left-hand side

tryItOut 148
Compiling threw: SyntaxError: missing ) after let head

tryItOut 149
Compiling threw: SyntaxError: missing variable name

tryItOut 150
Compiling threw: SyntaxError: invalid continue

tryItOut 151
Compiling threw: SyntaxError: missing ; before statement

tryItOut 152
Compiling threw: SyntaxError: syntax error

tryItOut 153

tryItOut 154
Running threw: ReferenceError: window is not defined

tryItOut 155

tryItOut 156
Compiling threw: SyntaxError: invalid for/in left-hand side

tryItOut 157
Compiling threw: SyntaxError: invalid increment operand

tryItOut 158
Running threw: ReferenceError: __iterator__ is not defined

tryItOut 159
Running threw: ReferenceError: window is not defined

tryItOut 160
Compiling threw: SyntaxError: missing ) in parenthetical

tryItOut 161
Compiling threw: SyntaxError: invalid assignment left-hand side

tryItOut 162

tryItOut 163

tryItOut 164

tryItOut 165
Running threw: TypeError: __count__ is not a constructor

tryItOut 166
Compiling threw: SyntaxError: missing { before function body

tryItOut 167
Compiling threw: SyntaxError: missing { before function body

tryItOut 168
Compiling threw: SyntaxError: missing ) after condition

tryItOut 169
Compiling threw: SyntaxError: missing variable name

tryItOut 170

tryItOut 171
Compiling threw: SyntaxError: missing ; before statement

tryItOut 172
Running threw: ReferenceError: prototype is not defined

tryItOut 173
Compiling threw: SyntaxError: invalid assignment left-hand side

tryItOut 174
uneval returned the string: [{}]

tryItOut 175
Compiling threw: SyntaxError: label not found

tryItOut 176
Compiling threw: SyntaxError: invalid break

tryItOut 177
Compiling threw: SyntaxError: label not found

tryItOut 178

tryItOut 179
Running threw: TypeError: <x>
  <y/>
</x> is not a constructor

tryItOut 180
Compiling threw: SyntaxError: label not found

tryItOut 181
Compiling threw: SyntaxError: syntax error

tryItOut 182
Compiling threw: SyntaxError: missing while after do-loop body

tryItOut 183

tryItOut 184
Compiling threw: SyntaxError: missing ; before statement

tryItOut 185
Running threw: ReferenceError: __iterator__ is not defined

tryItOut 186
Compiling threw: SyntaxError: syntax error

tryItOut 187

tryItOut 188
Compiling threw: SyntaxError: missing { before function body

tryItOut 189
Running threw: TypeError: undefined has no properties

tryItOut 190

tryItOut 191

tryItOut 192
Compiling threw: SyntaxError: missing ; before statement

tryItOut 193

tryItOut 194
Compiling threw: SyntaxError: missing ; before statement

tryItOut 195

tryItOut 196
Compiling threw: SyntaxError: invalid continue

tryItOut 197
Compiling threw: SyntaxError: missing ) after argument list

tryItOut 198
Compiling threw: SyntaxError: missing ; before statement

tryItOut 199
Running threw: TypeError: redeclaration of const __noSuchMethod__

tryItOut 200
Compiling threw: SyntaxError: missing { before function body

tryItOut 201
Running threw: ReferenceError: prototypewindow is not defined

tryItOut 202

tryItOut 203
Compiling threw: SyntaxError: label not found

tryItOut 204
Compiling threw: SyntaxError: label not found

tryItOut 205

tryItOut 206
Compiling threw: SyntaxError: label not found

tryItOut 207

tryItOut 208
Compiling threw: SyntaxError: invalid assignment left-hand side

tryItOut 209

tryItOut 210

tryItOut 211
Compiling threw: SyntaxError: missing { before function body

tryItOut 212
Running threw: ReferenceError: window is not defined

tryItOut 213
Compiling threw: SyntaxError: duplicate label

tryItOut 214

tryItOut 215
Compiling threw: SyntaxError: missing { before function body

tryItOut 216

tryItOut 217

tryItOut 218
Compiling threw: SyntaxError: label not found

tryItOut 219
Running threw: TypeError: [[]] is not a constructor

tryItOut 220
Running threw: [object Object]

tryItOut 221
Compiling threw: SyntaxError: syntax error

tryItOut 222

tryItOut 223

tryItOut 224

tryItOut 225

tryItOut 226
Compiling threw: SyntaxError: missing ) in parenthetical

tryItOut 227
Compiling threw: SyntaxError: syntax error

tryItOut 228
Compiling threw: SyntaxError: invalid continue

tryItOut 229
Compiling threw: SyntaxError: missing = in destructuring declaration

tryItOut 230
Compiling threw: SyntaxError: label not found

tryItOut 231
Compiling threw: SyntaxError: invalid increment operand

tryItOut 232

tryItOut 233
Compiling threw: SyntaxError: invalid assignment left-hand side

tryItOut 234

tryItOut 235
Compiling threw: SyntaxError: invalid decrement operand

tryItOut 236

tryItOut 237
Compiling threw: SyntaxError: label not found

tryItOut 238
Compiling threw: SyntaxError: missing variable name

tryItOut 239
Running threw: TypeError: #1=[#1#] is not a function

tryItOut 240
Compiling threw: SyntaxError: invalid assignment left-hand side

tryItOut 241
Running threw: ReferenceError: z1 is not defined

tryItOut 242

tryItOut 243
Compiling threw: SyntaxError: missing ) after for-loop control

tryItOut 244

tryItOut 245

tryItOut 246

tryItOut 247

tryItOut 248
Compiling threw: SyntaxError: invalid destructuring assignment operator

tryItOut 249
Compiling threw: SyntaxError: missing { before function body

tryItOut 250

tryItOut 251
Compiling threw: SyntaxError: invalid assignment left-hand side

tryItOut 252
Running threw: TypeError: true is not a constructor

tryItOut 253
Compiling threw: TypeError: redeclaration of var prop

tryItOut 254
Compiling threw: SyntaxError: invalid property id

tryItOut 255

tryItOut 256
Compiling threw: SyntaxError: label not found

tryItOut 257

tryItOut 258
Compiling threw: SyntaxError: label not found

tryItOut 259
Compiling threw: SyntaxError: invalid assignment left-hand side

tryItOut 260
Compiling threw: SyntaxError: missing ; after for-loop initializer

tryItOut 261

tryItOut 262

tryItOut 263

tryItOut 264
Compiling threw: SyntaxError: missing ) in parenthetical

tryItOut 265

tryItOut 266
Compiling threw: SyntaxError: label not found

tryItOut 267

tryItOut 268
It's an iterator!
Iterating threw!
Iterating threw: ReferenceError: window is not defined

tryItOut 269
Compiling threw: SyntaxError: invalid destructuring assignment operator

tryItOut 270

tryItOut 271
Compiling threw: SyntaxError: missing { before function body

tryItOut 272
Compiling threw: SyntaxError: syntax error

tryItOut 273
Compiling threw: SyntaxError: label not found

tryItOut 274
Compiling threw: SyntaxError: missing ; before statement

tryItOut 275

tryItOut 276
Compiling threw: SyntaxError: missing ; before statement

tryItOut 277
Compiling threw: SyntaxError: missing ) in parenthetical

tryItOut 278
Running threw: ReferenceError: prototype is not defined

tryItOut 279
Compiling threw: SyntaxError: invalid assignment left-hand side

tryItOut 280
Compiling threw: SyntaxError: label not found

tryItOut 281
Compiling threw: SyntaxError: invalid property id

tryItOut 282
Compiling threw: SyntaxError: missing ) in parenthetical

tryItOut 283
Compiling threw: SyntaxError: missing { before function body

tryItOut 284

tryItOut 285
Compiling threw: SyntaxError: missing ] after element list

tryItOut 286
Compiling threw: SyntaxError: missing { before function body

tryItOut 287
Compiling threw: SyntaxError: invalid decrement operand

tryItOut 288
Running threw: ReferenceError: prototype is not defined

tryItOut 289
Compiling threw: SyntaxError: missing { before function body

tryItOut 290
Running threw: ReferenceError: x is not defined

tryItOut 291
Compiling threw: SyntaxError: missing ) after condition

tryItOut 292

tryItOut 293

tryItOut 294
Compiling threw: TypeError: redeclaration of const __parent__

tryItOut 295
Compiling threw: SyntaxError: label not found

tryItOut 296
Compiling threw: SyntaxError: syntax error

tryItOut 297

tryItOut 298
Compiling threw: SyntaxError: invalid for/in left-hand side

tryItOut 299
Compiling threw: SyntaxError: missing variable name

tryItOut 300
Compiling threw: SyntaxError: missing ) in parenthetical

tryItOut 301

tryItOut 302
Compiling threw: SyntaxError: label not found

tryItOut 303

tryItOut 304
Compiling threw: SyntaxError: missing ) after condition

tryItOut 305
Compiling threw: SyntaxError: missing ; before statement

tryItOut 306
Running threw: [object Object]

tryItOut 307
Compiling threw: SyntaxError: missing ) after argument list

tryItOut 308
Compiling threw: SyntaxError: missing variable name

tryItOut 309
Compiling threw: SyntaxError: label not found

tryItOut 310
Compiling threw: SyntaxError: syntax error

tryItOut 311

tryItOut 312
Running threw: ReferenceError: window is not defined

tryItOut 313

tryItOut 314

tryItOut 315

tryItOut 316
Compiling threw: SyntaxError: syntax error

tryItOut 317

tryItOut 318
Compiling threw: SyntaxError: missing { before function body

tryItOut 319
Compiling threw: SyntaxError: illegal XML character

tryItOut 320

tryItOut 321
Compiling threw: SyntaxError: invalid for/in left-hand side

tryItOut 322
Compiling threw: SyntaxError: missing : after property id

tryItOut 323
Compiling threw: SyntaxError: syntax error

tryItOut 324
Compiling threw: SyntaxError: missing ) in parenthetical

tryItOut 325
Compiling threw: SyntaxError: invalid assignment left-hand side

tryItOut 326
Running threw: ReferenceError: prototype is not defined

tryItOut 327
Compiling threw: SyntaxError: missing { before function body

tryItOut 328
Running threw: ReferenceError: __iterator__ is not defined

tryItOut 329
Compiling threw: SyntaxError: invalid decrement operand

tryItOut 330
Compiling threw: SyntaxError: syntax error

tryItOut 331

tryItOut 332
Compiling threw: SyntaxError: label not found

tryItOut 333

tryItOut 334

tryItOut 335

tryItOut 336

tryItOut 337
Compiling threw: SyntaxError: missing ) after condition

tryItOut 338

tryItOut 339
Compiling threw: SyntaxError: invalid for/in left-hand side

tryItOut 340
Compiling threw: SyntaxError: invalid continue

tryItOut 341

tryItOut 342

tryItOut 343
Running threw: ReferenceError: window is not defined

tryItOut 344
Running threw: [object Object]

tryItOut 345
Compiling threw: SyntaxError: syntax error

tryItOut 346

tryItOut 347

tryItOut 348

tryItOut 349

tryItOut 350

tryItOut 351
Compiling threw: SyntaxError: missing ; before statement

tryItOut 352
Compiling threw: SyntaxError: duplicate label

tryItOut 353
Compiling threw: SyntaxError: invalid for/in left-hand side

tryItOut 354

tryItOut 355
Compiling threw: SyntaxError: invalid assignment left-hand side

tryItOut 356
Running threw: ReferenceError: z1 is not defined

tryItOut 357
Compiling threw: SyntaxError: missing ; before statement

tryItOut 358
Compiling threw: SyntaxError: missing variable name

tryItOut 359

tryItOut 360
Compiling threw: SyntaxError: invalid for/in left-hand side

tryItOut 361
Compiling threw: SyntaxError: invalid increment operand

tryItOut 362

tryItOut 363
Compiling threw: SyntaxError: missing { before function body

tryItOut 364

tryItOut 365
Compiling threw: SyntaxError: invalid assignment left-hand side

tryItOut 366

tryItOut 367
Compiling threw: SyntaxError: missing { before function body

tryItOut 368
Compiling threw: SyntaxError: invalid continue

tryItOut 369
Compiling threw: SyntaxError: missing variable name

tryItOut 370

tryItOut 371
Compiling threw: SyntaxError: syntax error

tryItOut 372

tryItOut 373

tryItOut 374
Running threw: [object StopIteration]

tryItOut 375
Compiling threw: SyntaxError: missing variable name

tryItOut 376
Compiling threw: SyntaxError: missing variable name

tryItOut 377
Compiling threw: SyntaxError: missing { before function body

tryItOut 378
Compiling threw: SyntaxError: label not found

tryItOut 379
Compiling threw: SyntaxError: invalid for/in left-hand side

tryItOut 380
Compiling threw: SyntaxError: label not found

tryItOut 381
Compiling threw: SyntaxError: missing formal parameter

tryItOut 382
Compiling threw: SyntaxError: missing { before function body

tryItOut 383
Compiling threw: SyntaxError: missing ; before statement

tryItOut 384
Running threw: ReferenceError: window is not defined

tryItOut 385
Compiling threw: SyntaxError: missing = in destructuring declaration

tryItOut 386
Compiling threw: SyntaxError: invalid for/in left-hand side

tryItOut 387
Compiling threw: SyntaxError: unmatched ) in regular expression

tryItOut 388
Running threw: TypeError: undefined has no properties

tryItOut 389
Compiling threw: SyntaxError: syntax error

tryItOut 390
Compiling threw: SyntaxError: missing ) in parenthetical

tryItOut 391

tryItOut 392
Compiling threw: SyntaxError: label not found

tryItOut 393

tryItOut 394
Compiling threw: SyntaxError: missing { before function body

tryItOut 395
Compiling threw: SyntaxError: label not found

tryItOut 396
Compiling threw: SyntaxError: missing ; after for-loop initializer

tryItOut 397
Compiling threw: SyntaxError: missing ] in index expression

tryItOut 398
Compiling threw: SyntaxError: missing variable name

tryItOut 399
Compiling threw: SyntaxError: missing : after property id

tryItOut 400
Compiling threw: SyntaxError: invalid decrement operand

tryItOut 401

tryItOut 402
Compiling threw: SyntaxError: invalid increment operand

tryItOut 403

tryItOut 404
Running threw: ReferenceError: __iterator__ is not defined

tryItOut 405

tryItOut 406
Compiling threw: SyntaxError: missing while after do-loop body

tryItOut 407

tryItOut 408

tryItOut 409

tryItOut 410
Compiling threw: SyntaxError: missing { before function body

tryItOut 411

tryItOut 412
Compiling threw: SyntaxError: invalid for/in left-hand side

tryItOut 413
Compiling threw: SyntaxError: missing ) in parenthetical

tryItOut 414

tryItOut 415
Compiling threw: SyntaxError: missing ) in parenthetical

tryItOut 416

tryItOut 417
Compiling threw: SyntaxError: missing = in destructuring declaration

tryItOut 418

tryItOut 419

tryItOut 420
Running threw: TypeError: undefined has no properties

tryItOut 421

tryItOut 422
Compiling threw: SyntaxError: syntax error

tryItOut 423

tryItOut 424

tryItOut 425
Compiling threw: SyntaxError: invalid for/in left-hand side

tryItOut 426
Running threw: ReferenceError: prototype is not defined

tryItOut 427

tryItOut 428

tryItOut 429
Compiling threw: SyntaxError: missing variable name

tryItOut 430
Running threw: ReferenceError: z1 is not defined

tryItOut 431

tryItOut 432

tryItOut 433

tryItOut 434
Compiling threw: TypeError: redeclaration of variable prototype

tryItOut 435

tryItOut 436

tryItOut 437

tryItOut 438

tryItOut 439
Compiling threw: SyntaxError: missing { before function body

tryItOut 440
Compiling threw: SyntaxError: unterminated regular expression literal

tryItOut 441
Compiling threw: SyntaxError: invalid for/in left-hand side

tryItOut 442

tryItOut 443
Compiling threw: SyntaxError: missing { before function body

tryItOut 444
Compiling threw: SyntaxError: invalid continue

tryItOut 445

tryItOut 446
Compiling threw: SyntaxError: missing ) in parenthetical

tryItOut 447

tryItOut 448
Compiling threw: SyntaxError: missing ; after for-loop initializer

tryItOut 449
Compiling threw: SyntaxError: missing { before function body

tryItOut 450
Compiling threw: SyntaxError: invalid break

tryItOut 451

tryItOut 452
Compiling threw: SyntaxError: missing { before function body

tryItOut 453
Compiling threw: SyntaxError: missing = in destructuring declaration

tryItOut 454
Running threw: ReferenceError: window is not defined

tryItOut 455
Compiling threw: SyntaxError: invalid default XML namespace

tryItOut 456
Running threw: null

tryItOut 457
Compiling threw: SyntaxError: illegal XML character

tryItOut 458

tryItOut 459
Compiling threw: SyntaxError: missing { before function body

tryItOut 460
Compiling threw: SyntaxError: missing { before function body

tryItOut 461

tryItOut 462

tryItOut 463
Compiling threw: SyntaxError: invalid assignment left-hand side

tryItOut 464
Compiling threw: SyntaxError: syntax error

tryItOut 465

tryItOut 466
Compiling threw: SyntaxError: invalid for/in left-hand side

tryItOut 467
Running threw: TypeError: false[[<x><y/></x>]] has no properties

tryItOut 468
Compiling threw: SyntaxError: missing } after let block

tryItOut 469

tryItOut 470
Running threw: [object StopIteration]

tryItOut 471

tryItOut 472
Compiling threw: SyntaxError: missing ; before statement

tryItOut 473
Compiling threw: SyntaxError: invalid continue

tryItOut 474
Compiling threw: SyntaxError: syntax error

tryItOut 475
Compiling threw: TypeError: redeclaration of variable __proto__

tryItOut 476

tryItOut 477

tryItOut 478
Compiling threw: SyntaxError: invalid continue

tryItOut 479
Compiling threw: SyntaxError: missing ) in parenthetical

tryItOut 480

tryItOut 481
Compiling threw: SyntaxError: syntax error

tryItOut 482
Compiling threw: SyntaxError: invalid continue

tryItOut 483
Compiling threw: SyntaxError: missing ) in parenthetical

tryItOut 484
Compiling threw: SyntaxError: invalid for/in left-hand side

tryItOut 485

tryItOut 486

tryItOut 487
Running threw: ReferenceError: window is not defined

tryItOut 488
Compiling threw: SyntaxError: illegal XML character

tryItOut 489

tryItOut 490

tryItOut 491
Compiling threw: SyntaxError: missing ) after let head

tryItOut 492

tryItOut 493

tryItOut 494
Compiling threw: SyntaxError: syntax error

tryItOut 495
Compiling threw: SyntaxError: missing ) in parenthetical

tryItOut 496
Compiling threw: SyntaxError: missing { before function body

tryItOut 497
Compiling threw: SyntaxError: missing ; before statement

tryItOut 498

tryItOut 499
Compiling threw: SyntaxError: missing : after property id

tryItOut 500

tryItOut 501

tryItOut 502
Running threw: ReferenceError: prototype is not defined

tryItOut 503
Compiling threw: SyntaxError: label not found

tryItOut 504
Compiling threw: SyntaxError: illegal XML character

tryItOut 505
Running threw: [object StopIteration]

tryItOut 506
Compiling threw: SyntaxError: illegal XML character

tryItOut 507
Running threw: ReferenceError: window is not defined

tryItOut 508

tryItOut 509
Compiling threw: SyntaxError: syntax error

tryItOut 510
Compiling threw: SyntaxError: invalid assignment left-hand side

tryItOut 511
Running threw: [object StopIteration]

tryItOut 512
Compiling threw: SyntaxError: missing variable name

tryItOut 513

tryItOut 514

tryItOut 515
Compiling threw: TypeError: redeclaration of variable __parent__

tryItOut 516
Compiling threw: SyntaxError: missing ; before statement

tryItOut 517
Compiling threw: SyntaxError: missing ) in parenthetical

tryItOut 518
Compiling threw: SyntaxError: missing ; before statement

tryItOut 519

tryItOut 520
Compiling threw: SyntaxError: missing } after let block

tryItOut 521

tryItOut 522

tryItOut 523
Compiling threw: SyntaxError: missing } after let block

tryItOut 524
Compiling threw: SyntaxError: syntax error

tryItOut 525

tryItOut 526
Compiling threw: SyntaxError: invalid assignment left-hand side

tryItOut 527

tryItOut 528

tryItOut 529
Compiling threw: SyntaxError: syntax error

tryItOut 530
Compiling threw: TypeError: redeclaration of variable constructor

tryItOut 531
Compiling threw: SyntaxError: missing = in destructuring declaration

tryItOut 532
Compiling threw: SyntaxError: syntax error

tryItOut 533
Compiling threw: SyntaxError: invalid assignment left-hand side

tryItOut 534

tryItOut 535
Compiling threw: SyntaxError: label not found

tryItOut 536

tryItOut 537
Compiling threw: SyntaxError: invalid continue

tryItOut 538

tryItOut 539
Running threw: ReferenceError: z1 is not defined

tryItOut 540
Compiling threw: SyntaxError: syntax error

tryItOut 541
Compiling threw: SyntaxError: invalid decrement operand

tryItOut 542

tryItOut 543

tryItOut 544

tryItOut 545
Compiling threw: SyntaxError: syntax error

tryItOut 546

tryItOut 547
Compiling threw: SyntaxError: invalid for/in left-hand side

tryItOut 548

tryItOut 549

tryItOut 550
Compiling threw: SyntaxError: missing variable name

tryItOut 551
Running threw: [object StopIteration]

tryItOut 552

tryItOut 553
Running threw: ReferenceError: window is not defined

tryItOut 554

tryItOut 555
Compiling threw: SyntaxError: missing ; before statement

tryItOut 556
Running threw: ReferenceError: z1 is not defined

tryItOut 557
Compiling threw: SyntaxError: label not found

tryItOut 558
Running threw: [object StopIteration]

tryItOut 559

tryItOut 560
Compiling threw: SyntaxError: missing { before function body

tryItOut 561
Running threw: TypeError: <x>
  <y/>
</x> is not a function

tryItOut 562
Compiling threw: SyntaxError: missing ; before statement

tryItOut 563
Compiling threw: SyntaxError: missing ; before statement

tryItOut 564
Compiling threw: SyntaxError: missing = in destructuring declaration

tryItOut 565

tryItOut 566

tryItOut 567
Running threw: TypeError: arguments[0] has no properties

tryItOut 568

tryItOut 569

tryItOut 570
Compiling threw: SyntaxError: missing ; before statement

tryItOut 571
Running threw: [object StopIteration]

tryItOut 572
Compiling threw: SyntaxError: missing ) in parenthetical

tryItOut 573
Compiling threw: SyntaxError: invalid variable initialization

tryItOut 574
Compiling threw: SyntaxError: syntax error

tryItOut 575

tryItOut 576

tryItOut 577
Compiling threw: SyntaxError: yield expression must be parenthesized

tryItOut 578

tryItOut 579

tryItOut 580

tryItOut 581
Compiling threw: SyntaxError: label not found

tryItOut 582
Compiling threw: SyntaxError: missing { before function body

tryItOut 583
Compiling threw: SyntaxError: syntax error

tryItOut 584

tryItOut 585
Compiling threw: SyntaxError: missing { before function body

tryItOut 586
Compiling threw: SyntaxError: label not found

tryItOut 587
Compiling threw: SyntaxError: missing ) in parenthetical

tryItOut 588

tryItOut 589

tryItOut 590
Compiling threw: SyntaxError: missing ; before statement

tryItOut 591
Compiling threw: SyntaxError: invalid increment operand

tryItOut 592

tryItOut 593
Compiling threw: SyntaxError: invalid assignment left-hand side

tryItOut 594

tryItOut 595

tryItOut 596
Running threw: ReferenceError: window is not defined

tryItOut 597
Running threw: ReferenceError: z2 is not defined

tryItOut 598
Running threw: ReferenceError: window is not defined

tryItOut 599
Compiling threw: SyntaxError: missing ; before statement

tryItOut 600
Compiling threw: SyntaxError: missing ) in parenthetical

tryItOut 601
Compiling threw: SyntaxError: syntax error

tryItOut 602
Compiling threw: SyntaxError: invalid for/in left-hand side

tryItOut 603
Compiling threw: SyntaxError: syntax error

tryItOut 604

tryItOut 605
Compiling threw: SyntaxError: invalid assignment left-hand side

tryItOut 606
Running threw: 108

tryItOut 607
Running threw: ReferenceError: __noSuchMethod____iterator__ is not defined

tryItOut 608
Compiling threw: SyntaxError: invalid assignment left-hand side

tryItOut 609

tryItOut 610
Compiling threw: TypeError: redeclaration of variable prop

tryItOut 611
Compiling threw: SyntaxError: label not found

tryItOut 612
Compiling threw: SyntaxError: missing ) in parenthetical

tryItOut 613
Compiling threw: SyntaxError: missing ; before statement

tryItOut 614
Running threw: ReferenceError: __iterator__ is not defined

tryItOut 615
Compiling threw: SyntaxError: missing variable name

tryItOut 616
Compiling threw: SyntaxError: label not found

tryItOut 617

tryItOut 618

tryItOut 619
Compiling threw: SyntaxError: invalid increment operand

tryItOut 620
Running threw: TypeError: null is not a constructor

tryItOut 621

tryItOut 622
Compiling threw: SyntaxError: invalid break

tryItOut 623

tryItOut 624

tryItOut 625
Compiling threw: SyntaxError: missing = in destructuring declaration

tryItOut 626

tryItOut 627

tryItOut 628

tryItOut 629

tryItOut 630
Compiling threw: SyntaxError: invalid for/in left-hand side

tryItOut 631

tryItOut 632
Compiling threw: SyntaxError: missing ) in parenthetical

tryItOut 633

tryItOut 634
Compiling threw: SyntaxError: missing ) in parenthetical

tryItOut 635

tryItOut 636
Running threw: ReferenceError: window is not defined

tryItOut 637
Compiling threw: SyntaxError: missing ] after element list

tryItOut 638
Compiling threw: SyntaxError: invalid for/in left-hand side

tryItOut 639

tryItOut 640

tryItOut 641

tryItOut 642
Running threw: ReferenceError: window is not defined

tryItOut 643
Compiling threw: SyntaxError: invalid for/in left-hand side

tryItOut 644
Compiling threw: SyntaxError: syntax error

tryItOut 645
Compiling threw: SyntaxError: syntax error

tryItOut 646
Compiling threw: SyntaxError: missing variable name

tryItOut 647
Compiling threw: SyntaxError: missing { before function body

tryItOut 648
Compiling threw: SyntaxError: label not found

tryItOut 649
Compiling threw: SyntaxError: duplicate label

tryItOut 650
Compiling threw: SyntaxError: invalid break

tryItOut 651
Compiling threw: SyntaxError: invalid break

tryItOut 652
Compiling threw: SyntaxError: label not found

tryItOut 653

tryItOut 654

tryItOut 655
Compiling threw: SyntaxError: missing { before function body

tryItOut 656
Running threw: ReferenceError: z1 is not defined

tryItOut 657
Compiling threw: SyntaxError: invalid for/in left-hand side

tryItOut 658
Compiling threw: SyntaxError: missing ; before statement

tryItOut 659
Compiling threw: SyntaxError: missing ) in parenthetical

tryItOut 660
Compiling threw: SyntaxError: missing { before function body

tryItOut 661
Running threw: ReferenceError: __iterator__ is not defined

tryItOut 662
Compiling threw: SyntaxError: missing { before function body

tryItOut 663

tryItOut 664

tryItOut 665

tryItOut 666

tryItOut 667
Compiling threw: SyntaxError: missing { before function body

tryItOut 668
Compiling threw: SyntaxError: invalid break

tryItOut 669
Compiling threw: SyntaxError: invalid increment operand

tryItOut 670

tryItOut 671
Compiling threw: SyntaxError: label not found

tryItOut 672

tryItOut 673

tryItOut 674
Compiling threw: SyntaxError: duplicate label

tryItOut 675
Running threw: ReferenceError: window is not defined

tryItOut 676
Running threw: ReferenceError: __iterator__ is not defined

tryItOut 677

tryItOut 678
Compiling threw: SyntaxError: missing ) in parenthetical

tryItOut 679

tryItOut 680
Compiling threw: SyntaxError: invalid assignment left-hand side

tryItOut 681

tryItOut 682

tryItOut 683
Compiling threw: TypeError: redeclaration of const __count__

tryItOut 684
Compiling threw: SyntaxError: label not found

tryItOut 685

tryItOut 686

tryItOut 687

tryItOut 688
Compiling threw: SyntaxError: missing { before function body

tryItOut 689

tryItOut 690
Compiling threw: SyntaxError: label not found

tryItOut 691

tryItOut 692
Compiling threw: SyntaxError: invalid for/in left-hand side

tryItOut 693
Compiling threw: SyntaxError: missing variable name

tryItOut 694

tryItOut 695
Compiling threw: TypeError: generator function anonymous returns a value

tryItOut 696
Running threw: ReferenceError: reference to undefined property "prototype"

tryItOut 697

tryItOut 698
Compiling threw: SyntaxError: invalid decrement operand

tryItOut 699

tryItOut 700
Compiling threw: SyntaxError: missing ; before statement

tryItOut 701

tryItOut 702
Compiling threw: SyntaxError: invalid default XML namespace

tryItOut 703
Compiling threw: SyntaxError: missing ) in parenthetical

tryItOut 704
Compiling threw: SyntaxError: syntax error

tryItOut 705

tryItOut 706

tryItOut 707
Compiling threw: SyntaxError: missing ] after element list

tryItOut 708

tryItOut 709
Running threw: ReferenceError: window is not defined

tryItOut 710

tryItOut 711
Compiling threw: SyntaxError: invalid for/in left-hand side

tryItOut 712
Compiling threw: SyntaxError: missing { before function body

tryItOut 713

tryItOut 714

tryItOut 715
Compiling threw: SyntaxError: missing { before function body

tryItOut 716

tryItOut 717
Compiling threw: SyntaxError: invalid assignment left-hand side

tryItOut 718
Compiling threw: SyntaxError: missing ; before statement

tryItOut 719

tryItOut 720

tryItOut 721
Compiling threw: SyntaxError: invalid break

tryItOut 722

tryItOut 723

tryItOut 724
Compiling threw: SyntaxError: missing variable name

tryItOut 725

tryItOut 726
Compiling threw: SyntaxError: label not found

tryItOut 727
Compiling threw: SyntaxError: invalid default XML namespace

tryItOut 728
Compiling threw: SyntaxError: missing variable name

tryItOut 729

tryItOut 730
Compiling threw: SyntaxError: invalid assignment left-hand side

tryItOut 731
Compiling threw: SyntaxError: invalid for/in left-hand side

tryItOut 732
Compiling threw: SyntaxError: missing ) in parenthetical

tryItOut 733
Running threw: ReferenceError: window is not defined

tryItOut 734

tryItOut 735
Compiling threw: SyntaxError: missing while after do-loop body

tryItOut 736
Compiling threw: TypeError: redeclaration of const prop

tryItOut 737
Compiling threw: SyntaxError: missing ; before statement

tryItOut 738

tryItOut 739
Running threw: ReferenceError: window is not defined

tryItOut 740
Compiling threw: SyntaxError: missing } after let block

tryItOut 741

tryItOut 742

tryItOut 743
Running threw: [object StopIteration]

tryItOut 744

tryItOut 745
Running threw: TypeError: undefined has no properties

tryItOut 746
Compiling threw: SyntaxError: invalid XML qualified name

tryItOut 747

tryItOut 748
Compiling threw: SyntaxError: invalid continue

tryItOut 749
Compiling threw: SyntaxError: invalid XML name

tryItOut 750

tryItOut 751
Compiling threw: SyntaxError: invalid destructuring assignment operator

tryItOut 752
Compiling threw: SyntaxError: missing { before function body

tryItOut 753

tryItOut 754
Compiling threw: SyntaxError: missing variable name

tryItOut 755
Compiling threw: SyntaxError: syntax error

tryItOut 756
Compiling threw: SyntaxError: syntax error

tryItOut 757
Compiling threw: SyntaxError: missing ) after let head

tryItOut 758
Running threw: TypeError: null is not a constructor

tryItOut 759
Running threw: function Object() {
    [native code]
}

tryItOut 760
Compiling threw: SyntaxError: missing ) in parenthetical

tryItOut 761

tryItOut 762
Compiling threw: SyntaxError: missing variable name

tryItOut 763
Compiling threw: SyntaxError: invalid continue

tryItOut 764
Compiling threw: SyntaxError: invalid destructuring assignment operator

tryItOut 765
Compiling threw: SyntaxError: label not found

tryItOut 766
Compiling threw: SyntaxError: syntax error

tryItOut 767

tryItOut 768

tryItOut 769

tryItOut 770
Compiling threw: SyntaxError: missing { before function body

tryItOut 771
Compiling threw: SyntaxError: syntax error

tryItOut 772

tryItOut 773
Compiling threw: SyntaxError: invalid break

tryItOut 774
Compiling threw: SyntaxError: label not found

tryItOut 775
Compiling threw: SyntaxError: invalid continue

tryItOut 776
Compiling threw: SyntaxError: invalid break

tryItOut 777

tryItOut 778
Compiling threw: SyntaxError: label not found

tryItOut 779
Running threw: [object StopIteration]

tryItOut 780
Running threw: ReferenceError: window is not defined

tryItOut 781
Running threw: ReferenceError: window is not defined

tryItOut 782
Compiling threw: SyntaxError: missing } after property list

tryItOut 783
Compiling threw: SyntaxError: missing ) in parenthetical

tryItOut 784
Compiling threw: SyntaxError: missing ( before let head

tryItOut 785
Compiling threw: SyntaxError: missing ; before statement

tryItOut 786
Compiling threw: SyntaxError: missing ; before statement

tryItOut 787
Running threw: undefined

tryItOut 788

tryItOut 789

tryItOut 790
Compiling threw: SyntaxError: label not found

tryItOut 791
Compiling threw: SyntaxError: label not found

tryItOut 792

tryItOut 793
Compiling threw: SyntaxError: label not found

tryItOut 794

tryItOut 795

tryItOut 796
Compiling threw: SyntaxError: label not found

tryItOut 797

tryItOut 798
Running threw: ReferenceError: z2 is not defined

tryItOut 799

tryItOut 800

tryItOut 801

tryItOut 802

tryItOut 803

tryItOut 804
Compiling threw: SyntaxError: missing variable name

tryItOut 805
Running threw: SyntaxError: illegal XML character

tryItOut 806
Compiling threw: SyntaxError: syntax error

tryItOut 807
Compiling threw: SyntaxError: invalid assignment left-hand side

tryItOut 808
Compiling threw: SyntaxError: missing { before function body

tryItOut 809

tryItOut 810
Compiling threw: SyntaxError: missing } after property list

tryItOut 811
Compiling threw: SyntaxError: label not found

tryItOut 812

tryItOut 813
Compiling threw: SyntaxError: missing ) after condition

tryItOut 814
Compiling threw: SyntaxError: label not found

tryItOut 815
Compiling threw: SyntaxError: missing } after property list

tryItOut 816
Running threw: 109

tryItOut 817

tryItOut 818
Compiling threw: SyntaxError: syntax error

tryItOut 819

tryItOut 820

tryItOut 821
Compiling threw: SyntaxError: label not found

tryItOut 822
Compiling threw: SyntaxError: syntax error

tryItOut 823
Running threw: TypeError: <x><y/></x>['throw'] is not a function

tryItOut 824
Compiling threw: SyntaxError: missing ) in parenthetical

tryItOut 825
Compiling threw: SyntaxError: syntax error

tryItOut 826
Compiling threw: SyntaxError: missing { before function body

tryItOut 827
Compiling threw: SyntaxError: invalid for/in left-hand side

tryItOut 828
Compiling threw: SyntaxError: invalid sharp variable definition

tryItOut 829
Compiling threw: SyntaxError: invalid continue

tryItOut 830

tryItOut 831
Compiling threw: SyntaxError: invalid XML tag syntax

tryItOut 832
Compiling threw: SyntaxError: missing ; before statement

tryItOut 833
Compiling threw: SyntaxError: label not found

tryItOut 834

tryItOut 835

tryItOut 836

tryItOut 837

tryItOut 838
Compiling threw: SyntaxError: missing = in destructuring declaration

tryItOut 839
Compiling threw: SyntaxError: label not found

tryItOut 840
Compiling threw: SyntaxError: missing { before function body

tryItOut 841
Compiling threw: SyntaxError: label not found

tryItOut 842

tryItOut 843

tryItOut 844
Running threw: TypeError: [{a1:1}] is not a constructor

tryItOut 845
Compiling threw: SyntaxError: missing ] after element list

tryItOut 846
Running threw: ReferenceError: window is not defined

tryItOut 847
Compiling threw: SyntaxError: duplicate label

tryItOut 848
Running threw: null

tryItOut 849

tryItOut 850
Compiling threw: SyntaxError: missing ] after element list

tryItOut 851
Compiling threw: SyntaxError: label not found

tryItOut 852

tryItOut 853

tryItOut 854

tryItOut 855
Compiling threw: SyntaxError: invalid for/in left-hand side

tryItOut 856

tryItOut 857
Running threw: SyntaxError: missing ) after argument list

tryItOut 858

tryItOut 859
Compiling threw: SyntaxError: missing ; before statement

tryItOut 860

tryItOut 861

tryItOut 862

tryItOut 863
Compiling threw: SyntaxError: syntax error

tryItOut 864
Compiling threw: SyntaxError: missing { before function body

tryItOut 865
Compiling threw: SyntaxError: invalid sharp variable definition

tryItOut 866
Running threw: ReferenceError: window is not defined

tryItOut 867

tryItOut 868
Running threw: TypeError: arguments[0] has no properties

tryItOut 869
Compiling threw: SyntaxError: missing variable name

tryItOut 870
Compiling threw: SyntaxError: missing ; before statement

tryItOut 871
Compiling threw: SyntaxError: missing ; before statement

tryItOut 872
Compiling threw: SyntaxError: syntax error

tryItOut 873

tryItOut 874

tryItOut 875
Compiling threw: SyntaxError: syntax error

tryItOut 876
Compiling threw: SyntaxError: missing ; before statement

tryItOut 877

tryItOut 878
Compiling threw: SyntaxError: invalid for/in left-hand side

tryItOut 879

tryItOut 880
Compiling threw: SyntaxError: missing ; before statement

tryItOut 881
Compiling threw: SyntaxError: syntax error

tryItOut 882
Compiling threw: SyntaxError: invalid increment operand

tryItOut 883
Compiling threw: SyntaxError: missing } after let block

tryItOut 884

tryItOut 885

tryItOut 886
Compiling threw: SyntaxError: missing ) in parenthetical

tryItOut 887
Compiling threw: SyntaxError: missing { before function body

tryItOut 888
Compiling threw: SyntaxError: label not found

tryItOut 889
Compiling threw: SyntaxError: missing } after property list

tryItOut 890
Compiling threw: SyntaxError: missing { before function body

tryItOut 891
Compiling threw: SyntaxError: invalid for/in left-hand side

tryItOut 892

tryItOut 893

tryItOut 894

tryItOut 895

tryItOut 896

tryItOut 897
Compiling threw: SyntaxError: missing { before function body

tryItOut 898
Compiling threw: SyntaxError: label not found

tryItOut 899
Running threw: ReferenceError: window is not defined

tryItOut 900

tryItOut 901
Running threw: ReferenceError: window is not defined

tryItOut 902
Compiling threw: SyntaxError: label not found

tryItOut 903

tryItOut 904
Running threw: ReferenceError: window is not defined

tryItOut 905

tryItOut 906

tryItOut 907
Running threw: ReferenceError: __iterator__ is not defined

tryItOut 908
Compiling threw: SyntaxError: label not found

tryItOut 909
Compiling threw: SyntaxError: invalid sharp variable definition

tryItOut 910

tryItOut 911

tryItOut 912

tryItOut 913
Compiling threw: SyntaxError: missing { before function body

tryItOut 914
Compiling threw: SyntaxError: missing ) in parenthetical

tryItOut 915
Running threw: 

tryItOut 916
Compiling threw: SyntaxError: syntax error

tryItOut 917
Compiling threw: SyntaxError: label not found

tryItOut 918
Compiling threw: SyntaxError: missing ) after for-loop control

tryItOut 919

tryItOut 920
Compiling threw: SyntaxError: missing ) in parenthetical

tryItOut 921
Compiling threw: SyntaxError: syntax error

tryItOut 922
Compiling threw: SyntaxError: missing { before function body

tryItOut 923
Running threw: undefined

tryItOut 924
Compiling threw: SyntaxError: label not found

tryItOut 925
Running threw: ReferenceError: __proto__null is not defined

tryItOut 926
Compiling threw: SyntaxError: syntax error

tryItOut 927

tryItOut 928
Running threw: ReferenceError: window is not defined

tryItOut 929

tryItOut 930
Compiling threw: SyntaxError: missing ; before statement

tryItOut 931
Compiling threw: SyntaxError: invalid for/in left-hand side

tryItOut 932

tryItOut 933
Compiling threw: SyntaxError: label not found

tryItOut 934
Compiling threw: SyntaxError: missing ) in parenthetical

tryItOut 935
Compiling threw: SyntaxError: missing ] after element list

tryItOut 936
Compiling threw: SyntaxError: missing variable name

tryItOut 937
Running threw: TypeError: __parent__ has no properties

tryItOut 938
Running threw: [object StopIteration]

tryItOut 939
Compiling threw: SyntaxError: missing ; before statement

tryItOut 940
Running threw: TypeError: false.__lookupGetter__("__noSuchMethod__") has no properties

tryItOut 941

tryItOut 942
Compiling threw: SyntaxError: invalid for/in left-hand side

tryItOut 943
Compiling threw: SyntaxError: missing { before function body

tryItOut 944
Compiling threw: SyntaxError: label not found

tryItOut 945
Compiling threw: SyntaxError: missing ; before statement

tryItOut 946
Compiling threw: SyntaxError: missing ; before statement

tryItOut 947
Running threw: 

tryItOut 948
Compiling threw: SyntaxError: missing variable name

tryItOut 949
Compiling threw: TypeError: redeclaration of variable __parent__

tryItOut 950

tryItOut 951

tryItOut 952
Compiling threw: SyntaxError: label not found

tryItOut 953

tryItOut 954
Compiling threw: SyntaxError: missing ; before statement

tryItOut 955

tryItOut 956

tryItOut 957
Compiling threw: SyntaxError: invalid for/in left-hand side

tryItOut 958
Compiling threw: SyntaxError: invalid assignment left-hand side

tryItOut 959
Compiling threw: SyntaxError: label not found

tryItOut 960

tryItOut 961
Compiling threw: SyntaxError: syntax error

tryItOut 962
Compiling threw: SyntaxError: syntax error

tryItOut 963
Compiling threw: SyntaxError: syntax error

tryItOut 964
Compiling threw: SyntaxError: invalid for/in left-hand side

tryItOut 965
Compiling threw: SyntaxError: duplicate label

tryItOut 966

tryItOut 967

tryItOut 968
Compiling threw: SyntaxError: label not found

tryItOut 969
Compiling threw: SyntaxError: missing variable name

tryItOut 970
Compiling threw: SyntaxError: missing { before function body

tryItOut 971

tryItOut 972
Compiling threw: SyntaxError: invalid break

tryItOut 973
Compiling threw: SyntaxError: missing { before function body

tryItOut 974

tryItOut 975

tryItOut 976
Compiling threw: SyntaxError: syntax error

tryItOut 977

tryItOut 978

tryItOut 979

tryItOut 980
Compiling threw: SyntaxError: missing ) in parenthetical

tryItOut 981

tryItOut 982

tryItOut 983

tryItOut 984
Compiling threw: SyntaxError: syntax error

tryItOut 985
Compiling threw: SyntaxError: missing while after do-loop body

tryItOut 986

tryItOut 987

tryItOut 988

tryItOut 989
Compiling threw: SyntaxError: missing ] after element list

tryItOut 990
Compiling threw: SyntaxError: invalid for/in left-hand side

tryItOut 991

tryItOut 992

tryItOut 993
Compiling threw: SyntaxError: invalid break

tryItOut 994
Compiling threw: SyntaxError: missing ) after for-loop control

tryItOut 995

tryItOut 996
Compiling threw: SyntaxError: invalid destructuring assignment operator

tryItOut 997
Compiling threw: SyntaxError: missing ; before statement

tryItOut 998
Compiling threw: SyntaxError: missing { before function body

tryItOut 999
Compiling threw: TypeError: redeclaration of const __noSuchMethod__

tryItOut 1000
Running threw: TypeError: null has no properties

ALL OK

Script done on Sat 04 May 2013 05:04:42 AM PDT
