Script started on Sat 04 May 2013 05:09:33 AM PDT
***
Targeting SpiderMonkey / Gecko.

tryItOut 1

tryItOut 2

tryItOut 3
Compiling threw: SyntaxError: missing ) in parenthetical

tryItOut 4
Compiling threw: SyntaxError: syntax error

tryItOut 5

tryItOut 6
It's an iterator!
Iterating threw!
Iterating threw: ReferenceError: window is not defined

tryItOut 7

tryItOut 8

tryItOut 9
Compiling threw: SyntaxError: syntax error

tryItOut 10

tryItOut 11
Compiling threw: SyntaxError: missing ) in parenthetical

tryItOut 12

tryItOut 13

tryItOut 14

tryItOut 15

tryItOut 16

tryItOut 17

tryItOut 18

tryItOut 19
Running threw: ReferenceError: reference to undefined XML name *

tryItOut 20
It's an iterator!
Iterating threw!
Iterating threw: Error: invalid sharp variable use #1#

tryItOut 21
Compiling threw: SyntaxError: missing ) in parenthetical

tryItOut 22

tryItOut 23
Running threw: ReferenceError: reference to undefined XML name *

tryItOut 24
Compiling threw: SyntaxError: label not found

tryItOut 25
Compiling threw: SyntaxError: invalid continue

tryItOut 26
Compiling threw: SyntaxError: invalid for/in left-hand side

tryItOut 27
Compiling threw: SyntaxError: missing ; after for-loop initializer

tryItOut 28
Running threw: TypeError: this.zzz has no properties

tryItOut 29
Compiling threw: SyntaxError: missing ) in parenthetical

tryItOut 30
Running threw: ReferenceError: reference to undefined XML name @foo

tryItOut 31

tryItOut 32
Compiling threw: SyntaxError: yield expression must be parenthesized

tryItOut 33

tryItOut 34
Running threw: ReferenceError: reference to undefined XML name *

tryItOut 35
Running threw: [object StopIteration]

tryItOut 36
Compiling threw: SyntaxError: missing { before function body

tryItOut 37
It's an iterator!
Iterating succeeded, iterCount == 1

tryItOut 38
Running threw: TypeError: arguments[0] has no properties

tryItOut 39

tryItOut 40
Running threw: TypeError: this.zzz has no properties

tryItOut 41
Compiling threw: SyntaxError: invalid for/in left-hand side

tryItOut 42
Compiling threw: SyntaxError: missing variable name

tryItOut 43

tryItOut 44
Running threw: ReferenceError: prototype is not defined

tryItOut 45
Compiling threw: SyntaxError: missing ; before statement

tryItOut 46

tryItOut 47
Running threw: ReferenceError: __iterator__ is not defined

tryItOut 48

tryItOut 49
Compiling threw: SyntaxError: syntax error

tryItOut 50
Compiling threw: SyntaxError: invalid assignment left-hand side

tryItOut 51
Compiling threw: SyntaxError: missing variable name

tryItOut 52
Running threw: TypeError: this.zzz has no properties

tryItOut 53

tryItOut 54

tryItOut 55

tryItOut 56

tryItOut 57

tryItOut 58

tryItOut 59
Compiling threw: SyntaxError: missing variable name

tryItOut 60
Compiling threw: SyntaxError: missing ; before statement

tryItOut 61
Compiling threw: SyntaxError: missing { before function body

tryItOut 62

tryItOut 63
Running threw: TypeError: this.zzz has no properties

tryItOut 64
Compiling threw: SyntaxError: missing variable name

tryItOut 65
Running threw: SyntaxError: malformed formal parameter

tryItOut 66

tryItOut 67
Compiling threw: SyntaxError: missing ; after for-loop initializer

tryItOut 68
Compiling threw: SyntaxError: missing variable name

tryItOut 69
Compiling threw: SyntaxError: missing variable name

tryItOut 70

tryItOut 71
It's an iterator!
Iterating threw!
Iterating threw: ReferenceError: reference to undefined XML name *::*

tryItOut 72

tryItOut 73
Compiling threw: SyntaxError: missing ] after element list

tryItOut 74
Running threw: ReferenceError: reference to undefined XML name *

tryItOut 75
Compiling threw: SyntaxError: illegal XML character

tryItOut 76
Running threw: [object Object]

tryItOut 77
Compiling threw: SyntaxError: invalid assignment left-hand side

tryItOut 78

tryItOut 79
Running threw: ReferenceError: reference to undefined XML name *

tryItOut 80
Compiling threw: SyntaxError: missing ) after with-statement object

tryItOut 81
Running threw: TypeError: this.zzz has no properties

tryItOut 82

tryItOut 83
Compiling threw: SyntaxError: invalid property id

tryItOut 84

tryItOut 85

tryItOut 86

tryItOut 87
Compiling threw: SyntaxError: missing ; before statement

tryItOut 88

tryItOut 89
Running threw: TypeError: this.zzz has no properties

tryItOut 90
Compiling threw: SyntaxError: invalid continue

tryItOut 91
Compiling threw: SyntaxError: label not found

tryItOut 92

tryItOut 93

tryItOut 94
Running threw: ReferenceError: __iterator__ is not defined

tryItOut 95
Running threw: [object StopIteration]

tryItOut 96
Compiling threw: SyntaxError: missing ; before statement

tryItOut 97

tryItOut 98

tryItOut 99
Compiling threw: SyntaxError: invalid destructuring assignment operator

tryItOut 100
Compiling threw: TypeError: redeclaration of variable prop

tryItOut 101
Running threw: [object StopIteration]

tryItOut 102

tryItOut 103

tryItOut 104
Compiling threw: SyntaxError: syntax error

tryItOut 105

tryItOut 106
Running threw: TypeError: __noSuchMethod__ has no properties

tryItOut 107
Compiling threw: SyntaxError: missing ) in parenthetical

tryItOut 108
Compiling threw: SyntaxError: syntax error

tryItOut 109

tryItOut 110

tryItOut 111

tryItOut 112

tryItOut 113
Compiling threw: SyntaxError: invalid continue

tryItOut 114
Running threw: TypeError: this.zzz has no properties

tryItOut 115

tryItOut 116
Compiling threw: SyntaxError: missing ) in parenthetical

tryItOut 117

tryItOut 118
Compiling threw: SyntaxError: missing formal parameter

tryItOut 119
Compiling threw: SyntaxError: missing variable name

tryItOut 120
Compiling threw: SyntaxError: invalid default XML namespace

tryItOut 121
Compiling threw: SyntaxError: invalid for/in left-hand side

tryItOut 122
Compiling threw: SyntaxError: invalid for/in left-hand side

tryItOut 123

tryItOut 124

tryItOut 125

tryItOut 126
Compiling threw: SyntaxError: missing ) after condition

tryItOut 127
It's an iterator!
Iterating threw!
Iterating threw: ReferenceError: reference to undefined XML name @foo

tryItOut 128

tryItOut 129
Compiling threw: SyntaxError: invalid assignment left-hand side

tryItOut 130

tryItOut 131
Running threw: ReferenceError: prototype is not defined

tryItOut 132

tryItOut 133
Running threw: [object StopIteration]

tryItOut 134
Compiling threw: SyntaxError: label not found

tryItOut 135

tryItOut 136
Compiling threw: SyntaxError: missing ] after element list

tryItOut 137

tryItOut 138
Compiling threw: SyntaxError: missing variable name

tryItOut 139

tryItOut 140

tryItOut 141
Compiling threw: SyntaxError: missing ; before statement

tryItOut 142

tryItOut 143
Running threw: ReferenceError: reference to undefined XML name @foo

tryItOut 144
Compiling threw: SyntaxError: invalid for/in left-hand side

tryItOut 145

tryItOut 146

tryItOut 147
Compiling threw: SyntaxError: invalid for/in left-hand side

tryItOut 148
Running threw: ReferenceError: reference to undefined XML name *

tryItOut 149
Running threw: ReferenceError: reference to undefined XML name @foo

tryItOut 150

tryItOut 151

tryItOut 152

tryItOut 153
Running threw: [object StopIteration]

tryItOut 154
Compiling threw: SyntaxError: missing ) in parenthetical

tryItOut 155
Running threw: [object StopIteration]

tryItOut 156

tryItOut 157
Compiling threw: SyntaxError: invalid assignment left-hand side

tryItOut 158

tryItOut 159

tryItOut 160
Compiling threw: SyntaxError: missing while after do-loop body

tryItOut 161
Running threw: ReferenceError: k is not defined

tryItOut 162

tryItOut 163
Compiling threw: SyntaxError: invalid destructuring assignment operator

tryItOut 164
Compiling threw: SyntaxError: syntax error

tryItOut 165
Compiling threw: SyntaxError: missing variable name

tryItOut 166

tryItOut 167
Compiling threw: SyntaxError: invalid continue

tryItOut 168

tryItOut 169

tryItOut 170
Compiling threw: SyntaxError: invalid sharp variable definition

tryItOut 171

tryItOut 172
Running threw: TypeError: this.zzz has no properties

tryItOut 173

tryItOut 174
Compiling threw: TypeError: redeclaration of variable __count__

tryItOut 175
Running threw: ReferenceError: __iterator__ is not defined

tryItOut 176

tryItOut 177
Running threw: ReferenceError: reference to undefined XML name @foo

tryItOut 178

tryItOut 179

tryItOut 180
Running threw: ReferenceError: z1 is not defined

tryItOut 181
Running threw: [object StopIteration]

tryItOut 182

tryItOut 183
Compiling threw: SyntaxError: missing variable name

tryItOut 184

tryItOut 185
Compiling threw: SyntaxError: missing : after property id

tryItOut 186
Running threw: TypeError: this.zzz has no properties

tryItOut 187
Running threw: TypeError: __proto__ has no properties

tryItOut 188

tryItOut 189

tryItOut 190

tryItOut 191
Running threw: TypeError: this.zzz has no properties

tryItOut 192

tryItOut 193

tryItOut 194
Compiling threw: SyntaxError: invalid decrement operand

tryItOut 195

tryItOut 196
It's an iterator!
Iterating succeeded, iterCount == 1

tryItOut 197
It's an iterator!
Iterating succeeded, iterCount == 1

tryItOut 198
It's an iterator!
Iterating threw!
Iterating threw: ReferenceError: reference to undefined XML name *

tryItOut 199

tryItOut 200
Compiling threw: SyntaxError: invalid for/in left-hand side

tryItOut 201
Compiling threw: SyntaxError: missing variable name

tryItOut 202
Compiling threw: SyntaxError: label not found

tryItOut 203
Compiling threw: SyntaxError: missing ] after element list

tryItOut 204
It's an iterator!
Iterating succeeded, iterCount == 1

tryItOut 205

tryItOut 206

tryItOut 207

tryItOut 208
Compiling threw: SyntaxError: missing ) in parenthetical

tryItOut 209
Compiling threw: SyntaxError: missing ) in parenthetical

tryItOut 210
Compiling threw: SyntaxError: missing ; before statement

tryItOut 211

tryItOut 212
Running threw: [object StopIteration]

tryItOut 213
Running threw: ReferenceError: reference to undefined XML name @foo

tryItOut 214
Running threw: [object StopIteration]

tryItOut 215

tryItOut 216
Running threw: [object StopIteration]

tryItOut 217
It's an iterator!
Iterating succeeded, iterCount == 1

tryItOut 218
Compiling threw: SyntaxError: invalid assignment left-hand side

tryItOut 219

tryItOut 220
Compiling threw: TypeError: redeclaration of const __iterator__

tryItOut 221

tryItOut 222
Running threw: ReferenceError: __iterator__ is not defined

tryItOut 223

tryItOut 224
Running threw: TypeError: this.zzz has no properties

tryItOut 225
Running threw: [object Object]

tryItOut 226
Running threw: TypeError: this.zzz has no properties

tryItOut 227

tryItOut 228
Compiling threw: SyntaxError: illegal XML character

tryItOut 229
Compiling threw: SyntaxError: syntax error

tryItOut 230
Compiling threw: SyntaxError: missing ) in parenthetical

tryItOut 231

tryItOut 232
Compiling threw: SyntaxError: invalid for/in left-hand side

tryItOut 233

tryItOut 234
Running threw: [object StopIteration]

tryItOut 235
Running threw: TypeError: this.zzz has no properties

tryItOut 236
Running threw: TypeError: this.zzz has no properties

tryItOut 237

tryItOut 238

tryItOut 239

tryItOut 240

tryItOut 241

tryItOut 242
Running threw: Error: invalid sharp variable use #1#

tryItOut 243
Running threw: ReferenceError: __iterator__ is not defined

tryItOut 244
Running threw: ReferenceError: reference to undefined XML name *::*

tryItOut 245

tryItOut 246

tryItOut 247

tryItOut 248
Compiling threw: SyntaxError: missing ) in parenthetical

tryItOut 249
It's an iterator!
Iterating succeeded, iterCount == 1

tryItOut 250

tryItOut 251

tryItOut 252
Compiling threw: SyntaxError: missing ; before statement

tryItOut 253

tryItOut 254
Running threw: TypeError: this.zzz has no properties

tryItOut 255

tryItOut 256
Compiling threw: SyntaxError: missing ) in parenthetical

tryItOut 257

tryItOut 258

tryItOut 259
Compiling threw: SyntaxError: invalid break

tryItOut 260
Compiling threw: SyntaxError: invalid for/in left-hand side

tryItOut 261

tryItOut 262

tryItOut 263
Running threw: ReferenceError: reference to undefined XML name *::*

tryItOut 264

tryItOut 265
Running threw: [object StopIteration]

tryItOut 266
Compiling threw: SyntaxError: missing variable name

tryItOut 267

tryItOut 268

tryItOut 269
Compiling threw: SyntaxError: missing { before function body

tryItOut 270

tryItOut 271

tryItOut 272
Compiling threw: SyntaxError: invalid decrement operand

tryItOut 273
Compiling threw: SyntaxError: label not found

tryItOut 274
Compiling threw: SyntaxError: invalid for/in left-hand side

tryItOut 275

tryItOut 276

tryItOut 277
Compiling threw: SyntaxError: invalid assignment left-hand side

tryItOut 278
Compiling threw: SyntaxError: missing ; before statement

tryItOut 279
Running threw: ReferenceError: __iterator__ is not defined

tryItOut 280
Compiling threw: SyntaxError: invalid assignment left-hand side

tryItOut 281

tryItOut 282
Compiling threw: SyntaxError: label not found

tryItOut 283

tryItOut 284
Running threw: ReferenceError: reference to undefined XML name *

tryItOut 285

tryItOut 286

tryItOut 287
Compiling threw: SyntaxError: invalid assignment left-hand side

tryItOut 288

tryItOut 289
Compiling threw: TypeError: redeclaration of const __noSuchMethod__

tryItOut 290
Compiling threw: TypeError: redeclaration of const constructor

tryItOut 291

tryItOut 292
Running threw: ReferenceError: reference to undefined XML name *::*

tryItOut 293

tryItOut 294

tryItOut 295

tryItOut 296

tryItOut 297
Running threw: TypeError: this.zzz has no properties

tryItOut 298

tryItOut 299
Running threw: ReferenceError: __iterator__ is not defined

tryItOut 300
Running threw: ReferenceError: reference to undefined XML name @foo

tryItOut 301
Compiling threw: SyntaxError: invalid break

tryItOut 302
Compiling threw: SyntaxError: syntax error

tryItOut 303
Running threw: ReferenceError: reference to undefined XML name @foo

tryItOut 304
Compiling threw: SyntaxError: missing { before function body

tryItOut 305

tryItOut 306

tryItOut 307
Compiling threw: SyntaxError: invalid continue

tryItOut 308

tryItOut 309

tryItOut 310
Compiling threw: SyntaxError: invalid break

tryItOut 311
Compiling threw: SyntaxError: syntax error

tryItOut 312

tryItOut 313

tryItOut 314

tryItOut 315
Compiling threw: TypeError: redeclaration of const __parent__

tryItOut 316

tryItOut 317
Compiling threw: SyntaxError: label not found

tryItOut 318
Compiling threw: SyntaxError: missing ) in parenthetical

tryItOut 319

tryItOut 320
Compiling threw: SyntaxError: missing name after . operator

tryItOut 321
Running threw: TypeError: redeclaration of const __parent__

tryItOut 322

tryItOut 323

tryItOut 324

tryItOut 325
Compiling threw: SyntaxError: missing { before function body

tryItOut 326

tryItOut 327
Compiling threw: SyntaxError: missing variable name

tryItOut 328

tryItOut 329
Compiling threw: SyntaxError: label not found

tryItOut 330
Running threw: ReferenceError: reference to undefined XML name *::*

tryItOut 331
Compiling threw: SyntaxError: missing } after property list

tryItOut 332
Compiling threw: SyntaxError: invalid assignment left-hand side

tryItOut 333
Running threw: ReferenceError: reference to undefined XML name @foo

tryItOut 334

tryItOut 335
Compiling threw: SyntaxError: missing { before function body

tryItOut 336

tryItOut 337
Compiling threw: SyntaxError: missing ) in parenthetical

tryItOut 338
It's an iterator!
Iterating succeeded, iterCount == 1

tryItOut 339
Compiling threw: SyntaxError: missing ] after element list

tryItOut 340
Running threw: ReferenceError: __iterator__ is not defined

tryItOut 341
Compiling threw: SyntaxError: illegal XML character

tryItOut 342
Running threw: ReferenceError: reference to undefined XML name *

tryItOut 343

tryItOut 344
It's an iterator!
before 244160, after 244160, break 023a8000
Iterating threw!
Iterating threw: ReferenceError: __iterator__ is not defined

tryItOut 345

tryItOut 346
Compiling threw: SyntaxError: invalid increment operand

tryItOut 347
Compiling threw: SyntaxError: illegal XML character

tryItOut 348

tryItOut 349

tryItOut 350
Running threw: ReferenceError: reference to undefined XML name *::*

tryItOut 351
Compiling threw: SyntaxError: missing ) in parenthetical

tryItOut 352
Compiling threw: SyntaxError: syntax error

tryItOut 353

tryItOut 354
Compiling threw: SyntaxError: missing ; before statement

tryItOut 355

tryItOut 356
Compiling threw: SyntaxError: missing ) in parenthetical

tryItOut 357
Compiling threw: SyntaxError: invalid assignment left-hand side

tryItOut 358
Compiling threw: SyntaxError: invalid assignment left-hand side

tryItOut 359

tryItOut 360
It's an iterator!
before 244160, after 244160, break 023bb000
Iterating succeeded, iterCount == 0

tryItOut 361

tryItOut 362
Running threw: [object StopIteration]

tryItOut 363

tryItOut 364
Compiling threw: SyntaxError: invalid increment operand

tryItOut 365
It's an iterator!
Iterating succeeded, iterCount == 1

tryItOut 366
Running threw: ReferenceError: z1 is not defined

tryItOut 367

tryItOut 368

tryItOut 369
Compiling threw: SyntaxError: invalid continue

tryItOut 370
It's an iterator!
Iterating succeeded, iterCount == 0

tryItOut 371
Compiling threw: SyntaxError: label not found

tryItOut 372

tryItOut 373
Compiling threw: SyntaxError: illegal XML character

tryItOut 374
Running threw: null

tryItOut 375
Compiling threw: SyntaxError: missing ] after element list

tryItOut 376
Running threw: ReferenceError: __iterator__ is not defined

tryItOut 377

tryItOut 378

tryItOut 379
Compiling threw: SyntaxError: invalid break

tryItOut 380
Compiling threw: SyntaxError: missing name in export statement

tryItOut 381
Compiling threw: SyntaxError: missing ) in parenthetical

tryItOut 382
Compiling threw: SyntaxError: invalid for/in left-hand side

tryItOut 383
Compiling threw: SyntaxError: label not found

tryItOut 384

tryItOut 385

tryItOut 386
Compiling threw: TypeError: redeclaration of var constructor

tryItOut 387
Compiling threw: SyntaxError: missing { before function body

tryItOut 388
Compiling threw: SyntaxError: missing ) in parenthetical

tryItOut 389
Compiling threw: SyntaxError: missing variable name

tryItOut 390

tryItOut 391
Running threw: TypeError: undefined has no properties

tryItOut 392
Compiling threw: SyntaxError: invalid assignment left-hand side

tryItOut 393

tryItOut 394
Compiling threw: TypeError: redeclaration of variable __iterator__

tryItOut 395
Compiling threw: SyntaxError: missing variable name

tryItOut 396
Running threw: ReferenceError: reference to undefined XML name *

tryItOut 397
Running threw: [object global]

tryItOut 398
Running threw: TypeError: this.zzz has no properties

tryItOut 399

tryItOut 400

tryItOut 401

tryItOut 402
Compiling threw: SyntaxError: missing identifier in catch

tryItOut 403
Compiling threw: SyntaxError: duplicate label

tryItOut 404

tryItOut 405
Compiling threw: SyntaxError: missing ) in parenthetical

tryItOut 406
Compiling threw: SyntaxError: invalid destructuring assignment operator

tryItOut 407

tryItOut 408
Compiling threw: SyntaxError: invalid for/in left-hand side

tryItOut 409

tryItOut 410

tryItOut 411
Running threw: ReferenceError: reference to undefined XML name @foo

tryItOut 412

tryItOut 413
Running threw: ReferenceError: __iterator__ is not defined

tryItOut 414

tryItOut 415
Compiling threw: SyntaxError: missing ) in parenthetical

tryItOut 416

tryItOut 417

tryItOut 418
Compiling threw: SyntaxError: missing { before function body

tryItOut 419

tryItOut 420

tryItOut 421

tryItOut 422
Compiling threw: SyntaxError: duplicate label

tryItOut 423
Running threw: ReferenceError: reference to undefined XML name @foo

tryItOut 424

tryItOut 425

tryItOut 426
Compiling threw: SyntaxError: invalid XML qualified name

tryItOut 427

tryItOut 428

tryItOut 429

tryItOut 430

tryItOut 431

tryItOut 432
Compiling threw: SyntaxError: invalid for/in left-hand side

tryItOut 433
Compiling threw: SyntaxError: missing ) in parenthetical

tryItOut 434

tryItOut 435
Compiling threw: SyntaxError: invalid assignment left-hand side

tryItOut 436

tryItOut 437
Compiling threw: TypeError: redeclaration of var __iterator__

tryItOut 438

tryItOut 439

tryItOut 440
Compiling threw: SyntaxError: syntax error

tryItOut 441
Running threw: TypeError: undefined has no properties

tryItOut 442
Running threw: [object StopIteration]

tryItOut 443
Running threw: ReferenceError: reference to undefined XML name *

tryItOut 444
Compiling threw: SyntaxError: syntax error

tryItOut 445

tryItOut 446
Compiling threw: SyntaxError: label not found

tryItOut 447

tryItOut 448

tryItOut 449
before 244160, after 244160, break 023bb000

tryItOut 450

tryItOut 451
Running threw: TypeError: this.zzz has no properties

tryItOut 452

tryItOut 453

tryItOut 454

tryItOut 455

tryItOut 456

tryItOut 457
It's an iterator!
Iterating succeeded, iterCount == 1

tryItOut 458
Compiling threw: SyntaxError: invalid for/in left-hand side

tryItOut 459

tryItOut 460
Running threw: TypeError: this.zzz has no properties

tryItOut 461
Running threw: ReferenceError: reference to undefined XML name *

tryItOut 462
Running threw: ReferenceError: __iterator__ is not defined

tryItOut 463

tryItOut 464

tryItOut 465

tryItOut 466

tryItOut 467
Running threw: [object StopIteration]

tryItOut 468

tryItOut 469
Compiling threw: SyntaxError: missing ] in index expression

tryItOut 470

tryItOut 471

tryItOut 472
Compiling threw: SyntaxError: syntax error

tryItOut 473
Running threw: undefined

tryItOut 474
Running threw: TypeError: this.zzz has no properties

tryItOut 475

tryItOut 476
Compiling threw: SyntaxError: missing variable name

tryItOut 477

tryItOut 478
Compiling threw: SyntaxError: missing ] after element list

tryItOut 479
Compiling threw: SyntaxError: missing ) in parenthetical

tryItOut 480
Running threw: ReferenceError: reference to undefined XML name @foo

tryItOut 481

tryItOut 482

tryItOut 483
Running threw: [object Object]

tryItOut 484
Compiling threw: SyntaxError: missing ) in parenthetical

tryItOut 485

tryItOut 486

tryItOut 487
Compiling threw: SyntaxError: invalid for/in left-hand side

tryItOut 488

tryItOut 489

tryItOut 490
Compiling threw: SyntaxError: missing ; before statement

tryItOut 491
Running threw: function anonymous() {
}

tryItOut 492
Running threw: ReferenceError: reference to undefined XML name @foo

tryItOut 493

tryItOut 494

tryItOut 495
Compiling threw: SyntaxError: missing ) in parenthetical

tryItOut 496
Compiling threw: SyntaxError: missing ; before statement

tryItOut 497
Compiling threw: SyntaxError: invalid for/in left-hand side

tryItOut 498
Compiling threw: TypeError: redeclaration of var constructor

tryItOut 499
Running threw: TypeError: __parent__ has no properties

tryItOut 500

tryItOut 501

tryItOut 502
Compiling threw: SyntaxError: syntax error

tryItOut 503
Compiling threw: SyntaxError: invalid property id

tryItOut 504

tryItOut 505
Running threw: TypeError: this.zzz has no properties

tryItOut 506

tryItOut 507

tryItOut 508
before 244160, after 244160, break 023bb000

tryItOut 509

tryItOut 510

tryItOut 511
Compiling threw: SyntaxError: missing ) in parenthetical

tryItOut 512

tryItOut 513

tryItOut 514

tryItOut 515

tryItOut 516
Running threw: TypeError: this.zzz has no properties

tryItOut 517

tryItOut 518
Running threw: ReferenceError: reference to undefined XML name @foo

tryItOut 519
Compiling threw: SyntaxError: label not found

tryItOut 520

tryItOut 521
Running threw: ReferenceError: reference to undefined XML name *

tryItOut 522
Compiling threw: SyntaxError: invalid break

tryItOut 523

tryItOut 524

tryItOut 525
Running threw: [object StopIteration]

tryItOut 526
Running threw: TypeError: this.zzz has no properties

tryItOut 527

tryItOut 528

tryItOut 529

tryItOut 530
Compiling threw: SyntaxError: invalid decrement operand

tryItOut 531

tryItOut 532
It's an iterator!
Iterating threw!
Iterating threw: ReferenceError: reference to undefined XML name *::*

tryItOut 533

tryItOut 534
Compiling threw: SyntaxError: missing ) in parenthetical

tryItOut 535

tryItOut 536
Compiling threw: SyntaxError: invalid continue

tryItOut 537

tryItOut 538
Running threw: ReferenceError: reference to undefined XML name @foo

tryItOut 539
Compiling threw: SyntaxError: missing ; before statement

tryItOut 540

tryItOut 541
Compiling threw: SyntaxError: missing ) after argument list

tryItOut 542
Running threw: ReferenceError: reference to undefined XML name *::*

tryItOut 543
Compiling threw: SyntaxError: missing ] after element list

tryItOut 544

tryItOut 545
Compiling threw: SyntaxError: missing = in destructuring declaration

tryItOut 546
Compiling threw: SyntaxError: label not found

tryItOut 547

tryItOut 548
Running threw: TypeError: this.zzz has no properties

tryItOut 549

tryItOut 550

tryItOut 551
Compiling threw: SyntaxError: missing variable name

tryItOut 552
Compiling threw: SyntaxError: missing variable name

tryItOut 553
Compiling threw: SyntaxError: invalid continue

tryItOut 554
Compiling threw: SyntaxError: invalid continue

tryItOut 555
Running threw: TypeError: this.zzz has no properties

tryItOut 556
Running threw: TypeError: this.zzz has no properties

tryItOut 557

tryItOut 558

tryItOut 559

tryItOut 560

tryItOut 561

tryItOut 562

tryItOut 563
Running threw: TypeError: this.zzz has no properties

tryItOut 564

tryItOut 565
Running threw: TypeError: this.zzz has no properties

tryItOut 566
Compiling threw: SyntaxError: invalid destructuring assignment operator

tryItOut 567

tryItOut 568

tryItOut 569
Running threw: TypeError: this.zzz has no properties

tryItOut 570

tryItOut 571
Running threw: SyntaxError: missing ] after element list

tryItOut 572
Compiling threw: SyntaxError: invalid sharp variable definition

tryItOut 573
Compiling threw: SyntaxError: label not found

tryItOut 574

tryItOut 575
It's an iterator!
Iterating threw!
Iterating threw: ReferenceError: reference to undefined XML name *

tryItOut 576

tryItOut 577

tryItOut 578
Running threw: [object StopIteration]

tryItOut 579
Compiling threw: SyntaxError: missing variable name

tryItOut 580

tryItOut 581

tryItOut 582

tryItOut 583

tryItOut 584
Running threw: ReferenceError: reference to undefined XML name @foo

tryItOut 585

tryItOut 586

tryItOut 587
Compiling threw: SyntaxError: missing ; after for-loop condition

tryItOut 588

tryItOut 589
Compiling threw: SyntaxError: invalid break

tryItOut 590
Compiling threw: SyntaxError: missing } after property list

tryItOut 591
Running threw: TypeError: this.__defineGetter__ is not a function

tryItOut 592
Compiling threw: SyntaxError: missing ) after for-loop control

tryItOut 593
Running threw: function anonymous() {
}

tryItOut 594

tryItOut 595
Compiling threw: SyntaxError: invalid assignment left-hand side

tryItOut 596
Compiling threw: SyntaxError: invalid continue

tryItOut 597
Compiling threw: SyntaxError: missing ) in parenthetical

tryItOut 598
before 244160, after 244160, break 023e1000

tryItOut 599
Compiling threw: SyntaxError: invalid property id

tryItOut 600

tryItOut 601
Running threw: TypeError: this.zzz has no properties

tryItOut 602
Running threw: ReferenceError: __iterator__ is not defined

tryItOut 603

tryItOut 604
Compiling threw: SyntaxError: invalid break

tryItOut 605

tryItOut 606
Compiling threw: TypeError: redeclaration of variable __noSuchMethod__

tryItOut 607

tryItOut 608
Compiling threw: SyntaxError: syntax error

tryItOut 609

tryItOut 610

tryItOut 611
before 244160, after 244160, break 023e1000

tryItOut 612
Compiling threw: SyntaxError: missing ) in parenthetical

tryItOut 613
Compiling threw: SyntaxError: missing = in destructuring declaration

tryItOut 614
Compiling threw: SyntaxError: missing ) in parenthetical

tryItOut 615
Running threw: ReferenceError: reference to undefined XML name *::*

tryItOut 616

tryItOut 617
Compiling threw: SyntaxError: label not found

tryItOut 618

tryItOut 619

tryItOut 620

tryItOut 621
Running threw: ReferenceError: __iterator__ is not defined

tryItOut 622
Compiling threw: SyntaxError: invalid continue

tryItOut 623
Compiling threw: SyntaxError: missing ] after element list

tryItOut 624
Compiling threw: SyntaxError: missing : after property id

tryItOut 625
Compiling threw: SyntaxError: missing ] after element list

tryItOut 626
Compiling threw: SyntaxError: label not found

tryItOut 627

tryItOut 628
It's an iterator!
Iterating threw!
Iterating threw: ReferenceError: reference to undefined XML name *::*

tryItOut 629

tryItOut 630
Compiling threw: SyntaxError: missing ) in parenthetical

tryItOut 631
Running threw: TypeError: this.zzz has no properties

tryItOut 632

tryItOut 633
Compiling threw: SyntaxError: syntax error

tryItOut 634

tryItOut 635
Compiling threw: SyntaxError: missing variable name

tryItOut 636

tryItOut 637

tryItOut 638
Compiling threw: SyntaxError: missing ) in parenthetical

tryItOut 639
Running threw: [object StopIteration]

tryItOut 640

tryItOut 641
Compiling threw: SyntaxError: invalid for/in left-hand side

tryItOut 642

tryItOut 643
Running threw: [object StopIteration]

tryItOut 644

tryItOut 645
It's an iterator!
Iterating threw!
Iterating threw: ReferenceError: reference to undefined XML name *

tryItOut 646

tryItOut 647
Compiling threw: SyntaxError: syntax error

tryItOut 648

tryItOut 649
Compiling threw: SyntaxError: missing ) in parenthetical

tryItOut 650

tryItOut 651

tryItOut 652
Compiling threw: SyntaxError: syntax error

tryItOut 653
Running threw: TypeError: window.__defineSetter__("__iterator__", new Function) has no properties

tryItOut 654
Compiling threw: SyntaxError: invalid assignment left-hand side

tryItOut 655

tryItOut 656
Running threw: ReferenceError: reference to undefined XML name *::*

tryItOut 657

tryItOut 658

tryItOut 659

tryItOut 660
Compiling threw: SyntaxError: syntax error

tryItOut 661
Compiling threw: SyntaxError: label not found

tryItOut 662
Running threw: TypeError: window.__defineSetter__("prop", {}.hasOwnProperty) has no properties

tryItOut 663

tryItOut 664
Compiling threw: SyntaxError: invalid destructuring assignment operator

tryItOut 665
before 244160, after 244160, break 023d8000

tryItOut 666
Running threw: TypeError: this.zzz has no properties

tryItOut 667
Running threw: TypeError: this.zzz has no properties

tryItOut 668

tryItOut 669
Running threw: ReferenceError: reference to undefined XML name *

tryItOut 670
Compiling threw: SyntaxError: syntax error

tryItOut 671

tryItOut 672
Compiling threw: SyntaxError: invalid assignment left-hand side

tryItOut 673
Running threw: ReferenceError: __iterator__ is not defined

tryItOut 674

tryItOut 675
Running threw: TypeError: redeclaration of var __count__

tryItOut 676
Running threw: ReferenceError: reference to undefined XML name *::*

tryItOut 677

tryItOut 678

tryItOut 679
Compiling threw: SyntaxError: missing ) in parenthetical

tryItOut 680
Compiling threw: SyntaxError: label not found

tryItOut 681
It's an iterator!
Iterating threw!
Iterating threw: ReferenceError: reference to undefined XML name *::*

tryItOut 682
Compiling threw: SyntaxError: missing ) after condition

tryItOut 683
Compiling threw: SyntaxError: invalid destructuring assignment operator

tryItOut 684

tryItOut 685
Compiling threw: SyntaxError: missing ; before statement

tryItOut 686

tryItOut 687
Running threw: [object StopIteration]

tryItOut 688

tryItOut 689

tryItOut 690

tryItOut 691
Compiling threw: SyntaxError: missing variable name

tryItOut 692
Running threw: ReferenceError: __iterator__ is not defined

tryItOut 693
Running threw: TypeError: this.zzz has no properties

tryItOut 694
Running threw: ReferenceError: reference to undefined XML name *::*

tryItOut 695

tryItOut 696
Compiling threw: SyntaxError: invalid for/in left-hand side

tryItOut 697
Running threw: ReferenceError: __iterator__ is not defined

tryItOut 698

tryItOut 699
It's an iterator!
Iterating threw!
Iterating threw: ReferenceError: reference to undefined XML name @foo

tryItOut 700
Compiling threw: SyntaxError: invalid for/in left-hand side

tryItOut 701
Running threw: function anonymous() {
}

tryItOut 702

tryItOut 703
Compiling threw: SyntaxError: missing } after property list

tryItOut 704
Running threw: ReferenceError: reference to undefined XML name @foo

tryItOut 705
Running threw: ReferenceError: reference to undefined XML name *

tryItOut 706

tryItOut 707

tryItOut 708
Compiling threw: SyntaxError: label not found

tryItOut 709
Compiling threw: SyntaxError: missing ; before statement

tryItOut 710
It's an iterator!
Iterating succeeded, iterCount == 1

tryItOut 711

tryItOut 712
Running threw: ReferenceError: z1 is not defined

tryItOut 713

tryItOut 714
before 244160, after 244160, break 023f6000
Running threw: TypeError: this.__defineGetter__ is not a function

tryItOut 715
Compiling threw: SyntaxError: invalid for/in left-hand side

tryItOut 716
Compiling threw: SyntaxError: missing ) in parenthetical

tryItOut 717
Compiling threw: SyntaxError: missing variable name

tryItOut 718

tryItOut 719
Compiling threw: SyntaxError: invalid break

tryItOut 720
Running threw: ReferenceError: reference to undefined XML name @foo

tryItOut 721
Running threw: ReferenceError: z1 is not defined

tryItOut 722
Running threw: ReferenceError: reference to undefined XML name @foo

tryItOut 723

tryItOut 724
before 244160, after 244160, break 023c7000

tryItOut 725

tryItOut 726
before 244160, after 244160, break 023c7000

tryItOut 727
Compiling threw: SyntaxError: missing ) in parenthetical

tryItOut 728
Compiling threw: SyntaxError: invalid continue

tryItOut 729
Running threw: [object StopIteration]

tryItOut 730

tryItOut 731
Compiling threw: SyntaxError: unterminated regular expression literal

tryItOut 732

tryItOut 733

tryItOut 734
Compiling threw: SyntaxError: missing : after property id

tryItOut 735
Running threw: TypeError: this.zzz has no properties

tryItOut 736

tryItOut 737
Compiling threw: SyntaxError: invalid property id

tryItOut 738
Compiling threw: SyntaxError: missing ) in parenthetical

tryItOut 739
Compiling threw: SyntaxError: missing ) after condition

tryItOut 740
before 244160, after 244160, break 023c7000

tryItOut 741
Compiling threw: SyntaxError: missing = in destructuring declaration

tryItOut 742

tryItOut 743
Compiling threw: SyntaxError: invalid assignment left-hand side

tryItOut 744

tryItOut 745
It's an iterator!
Iterating succeeded, iterCount == 1

tryItOut 746
Compiling threw: SyntaxError: missing ) in parenthetical

tryItOut 747

tryItOut 748

tryItOut 749

tryItOut 750
Compiling threw: SyntaxError: invalid assignment left-hand side

tryItOut 751

tryItOut 752

tryItOut 753

tryItOut 754

tryItOut 755

tryItOut 756

tryItOut 757
Compiling threw: SyntaxError: missing ) in parenthetical

tryItOut 758
Compiling threw: SyntaxError: label not found

tryItOut 759
Compiling threw: SyntaxError: invalid break

tryItOut 760

tryItOut 761
Compiling threw: SyntaxError: missing ] after element list

tryItOut 762
Compiling threw: SyntaxError: missing variable name

tryItOut 763
Compiling threw: SyntaxError: missing ) in parenthetical

tryItOut 764

tryItOut 765

tryItOut 766
Running threw: [object StopIteration]

tryItOut 767
Running threw: function anonymous() {
}

tryItOut 768

tryItOut 769
Compiling threw: SyntaxError: missing ) in parenthetical

tryItOut 770

tryItOut 771

tryItOut 772

tryItOut 773

tryItOut 774

tryItOut 775

tryItOut 776
Compiling threw: SyntaxError: invalid assignment left-hand side

tryItOut 777
Compiling threw: SyntaxError: missing ) in parenthetical

tryItOut 778

tryItOut 779

tryItOut 780

tryItOut 781

tryItOut 782

tryItOut 783

tryItOut 784

tryItOut 785

tryItOut 786

tryItOut 787
Compiling threw: SyntaxError: missing ) in parenthetical

tryItOut 788
It's an iterator!
Iterating threw!
Iterating threw: ReferenceError: reference to undefined XML name @foo

tryItOut 789
Running threw: TypeError: <x>
  <y/>
</x> is not a function

tryItOut 790

tryItOut 791
Running threw: ReferenceError: reference to undefined XML name @foo

tryItOut 792
Running threw: TypeError: __noSuchMethod__ has no properties

tryItOut 793
Compiling threw: SyntaxError: invalid break

tryItOut 794
Compiling threw: SyntaxError: missing ] after element list

tryItOut 795

tryItOut 796

tryItOut 797

tryItOut 798
Compiling threw: SyntaxError: missing ) in parenthetical

tryItOut 799
Compiling threw: SyntaxError: label not found

tryItOut 800
Running threw: [object StopIteration]

tryItOut 801
Compiling threw: TypeError: redeclaration of var __parent__

tryItOut 802

tryItOut 803
Compiling threw: SyntaxError: missing { before function body

tryItOut 804

tryItOut 805

tryItOut 806
Compiling threw: SyntaxError: missing ) in parenthetical

tryItOut 807
Running threw: undefined

tryItOut 808
Running threw: ReferenceError: reference to undefined XML name @foo

tryItOut 809
Running threw: [object StopIteration]

tryItOut 810

tryItOut 811
Running threw: TypeError: this.zzz has no properties

tryItOut 812
Compiling threw: SyntaxError: missing variable name

tryItOut 813
Compiling threw: SyntaxError: illegal XML character

tryItOut 814
Running threw: TypeError: this.__defineSetter__ is not a function

tryItOut 815

tryItOut 816

tryItOut 817

tryItOut 818
Running threw: undefined

tryItOut 819
Compiling threw: SyntaxError: missing { before function body

tryItOut 820

tryItOut 821
Compiling threw: SyntaxError: missing ; after for-loop initializer

tryItOut 822
Running threw: undefined

tryItOut 823
Running threw: undefined

tryItOut 824
Compiling threw: SyntaxError: missing ) in parenthetical

tryItOut 825

tryItOut 826
Compiling threw: SyntaxError: syntax error

tryItOut 827
Compiling threw: SyntaxError: invalid increment operand

tryItOut 828
It's an iterator!
Iterating threw!
Iterating threw: Error: invalid sharp variable use #1#

tryItOut 829
Compiling threw: SyntaxError: syntax error

tryItOut 830
Compiling threw: SyntaxError: invalid property id

tryItOut 831
Compiling threw: SyntaxError: missing ; before statement

tryItOut 832
Compiling threw: SyntaxError: missing variable name

tryItOut 833
Running threw: TypeError: this.zzz has no properties

tryItOut 834

tryItOut 835

tryItOut 836
Compiling threw: SyntaxError: missing { before function body

tryItOut 837
Compiling threw: SyntaxError: missing { before function body

tryItOut 838
Running threw: ReferenceError: reference to undefined XML name *::*

tryItOut 839

tryItOut 840
Running threw: ReferenceError: reference to undefined XML name *

tryItOut 841

tryItOut 842

tryItOut 843
Compiling threw: SyntaxError: missing ) in parenthetical

tryItOut 844

tryItOut 845
Compiling threw: SyntaxError: invalid sharp variable definition

tryItOut 846
Compiling threw: SyntaxError: syntax error

tryItOut 847

tryItOut 848

tryItOut 849

tryItOut 850

tryItOut 851

tryItOut 852
Running threw: TypeError: can't convert this to number

tryItOut 853
Compiling threw: SyntaxError: missing variable name

tryItOut 854
Compiling threw: SyntaxError: invalid sharp variable definition

tryItOut 855
Compiling threw: TypeError: redeclaration of var __noSuchMethod__

tryItOut 856
Compiling threw: SyntaxError: missing ) after condition

tryItOut 857

tryItOut 858
Compiling threw: SyntaxError: missing : after property id

tryItOut 859

tryItOut 860

tryItOut 861
Compiling threw: SyntaxError: illegal XML character

tryItOut 862

tryItOut 863

tryItOut 864

tryItOut 865
Compiling threw: SyntaxError: missing { before function body

tryItOut 866
Compiling threw: SyntaxError: syntax error

tryItOut 867
Compiling threw: SyntaxError: missing ) in parenthetical

tryItOut 868
Compiling threw: SyntaxError: missing ) in parenthetical

tryItOut 869

tryItOut 870

tryItOut 871
Compiling threw: SyntaxError: illegal XML character

tryItOut 872
Compiling threw: SyntaxError: label not found

tryItOut 873

tryItOut 874
Running threw: TypeError: arguments['throw'] is not a function

tryItOut 875

tryItOut 876

tryItOut 877

tryItOut 878

tryItOut 879

tryItOut 880

tryItOut 881
Compiling threw: SyntaxError: missing ) after argument list

tryItOut 882

tryItOut 883

tryItOut 884
Compiling threw: SyntaxError: syntax error

tryItOut 885
before 331360, after 296480, break 02482000
Running threw: undefined

tryItOut 886
Running threw: [object StopIteration]

tryItOut 887
Running threw: ReferenceError: reference to undefined XML name *::*

tryItOut 888

tryItOut 889
Compiling threw: SyntaxError: missing variable name

tryItOut 890

tryItOut 891

tryItOut 892

tryItOut 893
Compiling threw: SyntaxError: missing ) in parenthetical

tryItOut 894

tryItOut 895

tryItOut 896

tryItOut 897

tryItOut 898
It's an iterator!
Iterating succeeded, iterCount == 1

tryItOut 899
Compiling threw: SyntaxError: missing ; before statement

tryItOut 900
Compiling threw: SyntaxError: label not found

tryItOut 901
Compiling threw: SyntaxError: missing variable name

tryItOut 902
Compiling threw: SyntaxError: invalid assignment left-hand side

tryItOut 903
Running threw: ReferenceError: reference to undefined XML name @foo

tryItOut 904
Compiling threw: SyntaxError: missing variable name

tryItOut 905

tryItOut 906

tryItOut 907
Compiling threw: SyntaxError: duplicate label

tryItOut 908
Compiling threw: SyntaxError: missing { before function body

tryItOut 909
Compiling threw: SyntaxError: invalid for/in left-hand side

tryItOut 910
Compiling threw: SyntaxError: invalid continue

tryItOut 911
Running threw: ReferenceError: z1 is not defined

tryItOut 912
Compiling threw: SyntaxError: label not found

tryItOut 913

tryItOut 914
Running threw: ReferenceError: reference to undefined XML name @foo

tryItOut 915

tryItOut 916
Running threw: TypeError: can't convert global to string

tryItOut 917
Compiling threw: SyntaxError: label not found

tryItOut 918
Compiling threw: SyntaxError: invalid for/in left-hand side

tryItOut 919

tryItOut 920

tryItOut 921

tryItOut 922

tryItOut 923

tryItOut 924
Running threw: undefined

tryItOut 925

tryItOut 926
Compiling threw: SyntaxError: illegal XML character

tryItOut 927
Compiling threw: TypeError: redeclaration of const __iterator__

tryItOut 928
Running threw: TypeError: this.zzz has no properties

tryItOut 929
Running threw: TypeError: ({}) is not a constructor

tryItOut 930
Running threw: [object StopIteration]

tryItOut 931

tryItOut 932
Compiling threw: SyntaxError: missing variable name

tryItOut 933

tryItOut 934

tryItOut 935
Compiling threw: SyntaxError: missing ; after for-loop initializer

tryItOut 936

tryItOut 937
Compiling threw: SyntaxError: invalid assignment left-hand side

tryItOut 938

tryItOut 939
Compiling threw: SyntaxError: missing ) in parenthetical

tryItOut 940

tryItOut 941
Compiling threw: SyntaxError: invalid for/in left-hand side

tryItOut 942

tryItOut 943

tryItOut 944
It's an iterator!
Iterating threw!
Iterating threw: ReferenceError: reference to undefined XML name *

tryItOut 945
Compiling threw: SyntaxError: invalid for/in left-hand side

tryItOut 946
Compiling threw: SyntaxError: missing ) in parenthetical

tryItOut 947
Running threw: ReferenceError: a is not defined

tryItOut 948

tryItOut 949
Compiling threw: SyntaxError: invalid property id

tryItOut 950

tryItOut 951

tryItOut 952

tryItOut 953
Compiling threw: SyntaxError: missing ; before statement

tryItOut 954
Compiling threw: SyntaxError: invalid break

tryItOut 955
Compiling threw: SyntaxError: syntax error

tryItOut 956

tryItOut 957
Compiling threw: SyntaxError: syntax error

tryItOut 958
Compiling threw: SyntaxError: invalid property id

tryItOut 959
It's an iterator!
Iterating succeeded, iterCount == 1

tryItOut 960
It's an iterator!
Iterating succeeded, iterCount == 1

tryItOut 961

tryItOut 962
Compiling threw: SyntaxError: duplicate label

tryItOut 963
Running threw: ReferenceError: z1 is not defined

tryItOut 964

tryItOut 965

tryItOut 966
Compiling threw: SyntaxError: missing ) in parenthetical

tryItOut 967
Compiling threw: SyntaxError: invalid for/in left-hand side

tryItOut 968

tryItOut 969

tryItOut 970

tryItOut 971
Compiling threw: SyntaxError: label not found

tryItOut 972

tryItOut 973

tryItOut 974
Running threw: ReferenceError: z1 is not defined

tryItOut 975
It's an iterator!
Iterating succeeded, iterCount == 1

tryItOut 976
Compiling threw: TypeError: redeclaration of var constructor

tryItOut 977
Running threw: ReferenceError: reference to undefined XML name *::*

tryItOut 978
Compiling threw: SyntaxError: missing : after property id

tryItOut 979
Compiling threw: SyntaxError: duplicate label

tryItOut 980

tryItOut 981

tryItOut 982
Compiling threw: SyntaxError: syntax error

tryItOut 983

tryItOut 984
Compiling threw: SyntaxError: invalid for/in left-hand side

tryItOut 985
Running threw: TypeError: __parent__ has no properties

tryItOut 986

tryItOut 987

tryItOut 988
Compiling threw: SyntaxError: syntax error

tryItOut 989

tryItOut 990

tryItOut 991
Compiling threw: SyntaxError: missing ) after argument list

tryItOut 992

tryItOut 993

tryItOut 994

tryItOut 995

tryItOut 996

tryItOut 997

tryItOut 998

tryItOut 999

tryItOut 1000

ALL OK

Script done on Sat 04 May 2013 05:09:34 AM PDT
