Script started on Sat 04 May 2013 05:12:54 AM PDT
***
Targeting SpiderMonkey / Gecko.

tryItOut 1
Running threw: ReferenceError: __noSuchMethod__ is not defined

tryItOut 2
Compiling threw: SyntaxError: illegal XML character

tryItOut 3

tryItOut 4
It's an iterator!
Iterating threw!
Iterating threw: ReferenceError: prototype is not defined

tryItOut 5
Running threw: ReferenceError: z1 is not defined

tryItOut 6
Compiling threw: SyntaxError: missing variable name

tryItOut 7
Compiling threw: SyntaxError: missing formal parameter

tryItOut 8

tryItOut 9

tryItOut 10
Compiling threw: SyntaxError: missing ) in parenthetical

tryItOut 11
Running threw: TypeError: arguments[0] has no properties

tryItOut 12
Compiling threw: SyntaxError: missing ; before statement

tryItOut 13

tryItOut 14

tryItOut 15

tryItOut 16

tryItOut 17

tryItOut 18
Compiling threw: SyntaxError: missing = in destructuring declaration

tryItOut 19
Compiling threw: SyntaxError: syntax error

tryItOut 20
Compiling threw: SyntaxError: missing variable name

tryItOut 21
Compiling threw: SyntaxError: missing ) in parenthetical

tryItOut 22

tryItOut 23
Compiling threw: SyntaxError: missing { before function body

tryItOut 24

tryItOut 25
Running threw: ReferenceError: __noSuchMethod__ is not defined

tryItOut 26
It's an iterator!
Iterating succeeded, iterCount == 1

tryItOut 27
before 87200, after 87200, break 0126a000

tryItOut 28

tryItOut 29
before 87200, after 87200, break 0126a000

tryItOut 30
Compiling threw: SyntaxError: missing { before function body

tryItOut 31
before 87200, after 87200, break 0126a000

tryItOut 32

tryItOut 33
It's an iterator!
Iterating threw!
Iterating threw: ReferenceError: prop is not defined

tryItOut 34

tryItOut 35
Compiling threw: SyntaxError: invalid for each loop

tryItOut 36
Compiling threw: SyntaxError: missing { before function body

tryItOut 37

tryItOut 38

tryItOut 39

tryItOut 40
Compiling threw: SyntaxError: invalid sharp variable definition

tryItOut 41

tryItOut 42
Compiling threw: SyntaxError: missing ; before statement

tryItOut 43

tryItOut 44

tryItOut 45
before 87200, after 87200, break 0126a000

tryItOut 46
Compiling threw: SyntaxError: missing ) in parenthetical

tryItOut 47
Compiling threw: SyntaxError: missing ) after for-loop control

tryItOut 48
Running threw: NaN

tryItOut 49
It's an iterator!
Iterating succeeded, iterCount == 1

tryItOut 50
Compiling threw: SyntaxError: missing { before function body

tryItOut 51

tryItOut 52
Compiling threw: SyntaxError: syntax error

tryItOut 53
Compiling threw: SyntaxError: invalid XML tag syntax

tryItOut 54

tryItOut 55

tryItOut 56
Compiling threw: SyntaxError: invalid for/in left-hand side

tryItOut 57

tryItOut 58
before 87200, after 87200, break 0127b000

tryItOut 59
It's an iterator!
Iterating succeeded, iterCount == 1

tryItOut 60

tryItOut 61

tryItOut 62

tryItOut 63
Running threw: ReferenceError: prototype is not defined

tryItOut 64

tryItOut 65

tryItOut 66
Compiling threw: SyntaxError: invalid for/in left-hand side

tryItOut 67
Compiling threw: SyntaxError: invalid destructuring assignment operator

tryItOut 68
Compiling threw: SyntaxError: invalid for/in left-hand side

tryItOut 69

tryItOut 70
Compiling threw: SyntaxError: missing ) after let head

tryItOut 71
Compiling threw: SyntaxError: missing variable name

tryItOut 72
It's an iterator!
Iterating succeeded, iterCount == 1

tryItOut 73

tryItOut 74
Compiling threw: SyntaxError: missing ) in parenthetical

tryItOut 75

tryItOut 76
Compiling threw: SyntaxError: missing ; before statement

tryItOut 77
It's an iterator!
Iterating succeeded, iterCount == 1

tryItOut 78
Compiling threw: SyntaxError: missing { before function body

tryItOut 79

tryItOut 80
Compiling threw: TypeError: redeclaration of variable __parent__

tryItOut 81
Running threw: ReferenceError: z1 is not defined

tryItOut 82

tryItOut 83

tryItOut 84

tryItOut 85

tryItOut 86

tryItOut 87
Compiling threw: TypeError: redeclaration of const __iterator__

tryItOut 88

tryItOut 89

tryItOut 90

tryItOut 91
It's an iterator!
Iterating succeeded, iterCount == 1

tryItOut 92
before 104640, after 104640, break 0127b000

tryItOut 93
It's an iterator!
Iterating succeeded, iterCount == 1

tryItOut 94

tryItOut 95
It's an iterator!
Iterating threw!
Iterating threw: ReferenceError: z2 is not defined

tryItOut 96
It's an iterator!
Iterating succeeded, iterCount == 1

tryItOut 97
Compiling threw: SyntaxError: syntax error

tryItOut 98

tryItOut 99

tryItOut 100
Compiling threw: SyntaxError: invalid for each loop

tryItOut 101
Compiling threw: SyntaxError: missing ) in parenthetical

tryItOut 102
before 104640, after 104640, break 0127b000

tryItOut 103
Running threw: [object StopIteration]

tryItOut 104
It's an iterator!
Iterating threw!
Iterating threw: ReferenceError: __iterator__ is not defined

tryItOut 105
Compiling threw: SyntaxError: missing ) in parenthetical

tryItOut 106
Compiling threw: SyntaxError: missing ) in parenthetical

tryItOut 107

tryItOut 108

tryItOut 109
Compiling threw: SyntaxError: missing variable name

tryItOut 110
Running threw: ReferenceError: prop is not defined

tryItOut 111
It's an iterator!
Iterating threw!
Iterating threw: ReferenceError: __noSuchMethod__ is not defined

tryItOut 112

tryItOut 113
Compiling threw: SyntaxError: missing variable name

tryItOut 114
Compiling threw: SyntaxError: missing ; before statement

tryItOut 115
Running threw: TypeError: __iterator__ has no properties

tryItOut 116

tryItOut 117
Compiling threw: SyntaxError: invalid for/in left-hand side

tryItOut 118
Compiling threw: SyntaxError: missing ; before statement

tryItOut 119

tryItOut 120

tryItOut 121
Compiling threw: SyntaxError: invalid for/in left-hand side

tryItOut 122
Compiling threw: SyntaxError: missing ; before statement

tryItOut 123
Compiling threw: SyntaxError: missing ) in parenthetical

tryItOut 124
Compiling threw: SyntaxError: missing variable name

tryItOut 125

tryItOut 126

tryItOut 127

tryItOut 128

tryItOut 129

tryItOut 130
Compiling threw: SyntaxError: invalid sharp variable definition

tryItOut 131

tryItOut 132
Running threw: false

tryItOut 133
Compiling threw: SyntaxError: invalid for/in left-hand side

tryItOut 134
Running threw: ReferenceError: prop is not defined

tryItOut 135
It's an iterator!
Iterating threw!
Iterating threw: ReferenceError: __iterator__ is not defined

tryItOut 136
Compiling threw: SyntaxError: unterminated string literal

tryItOut 137
Compiling threw: SyntaxError: missing variable name

tryItOut 138
Running threw: 0

tryItOut 139
It's an iterator!
Iterating succeeded, iterCount == 1

tryItOut 140

tryItOut 141
It's an iterator!
Iterating succeeded, iterCount == 1

tryItOut 142

tryItOut 143
Compiling threw: SyntaxError: missing ; before statement

tryItOut 144

tryItOut 145
It's an iterator!
Iterating succeeded, iterCount == 1

tryItOut 146

tryItOut 147
Running threw: TypeError: eval("let __parent__;", <x><y/></x>) has no properties

tryItOut 148
Compiling threw: SyntaxError: missing { before function body

tryItOut 149

tryItOut 150

tryItOut 151
Running threw: [object StopIteration]

tryItOut 152
It's an iterator!
Iterating succeeded, iterCount == 1

tryItOut 153

tryItOut 154

tryItOut 155
Compiling threw: SyntaxError: invalid assignment left-hand side

tryItOut 156
It's an iterator!
Iterating succeeded, iterCount == 1

tryItOut 157
It's an iterator!
Iterating threw!
Iterating threw: TypeError: arguments[0] has no properties

tryItOut 158
Compiling threw: SyntaxError: invalid assignment left-hand side

tryItOut 159
Running threw: ReferenceError: x is not defined

tryItOut 160
Compiling threw: SyntaxError: missing ; before statement

tryItOut 161

tryItOut 162

tryItOut 163
Compiling threw: SyntaxError: invalid assignment left-hand side

tryItOut 164
Compiling threw: SyntaxError: syntax error

tryItOut 165
Compiling threw: SyntaxError: missing { before function body

tryItOut 166
Compiling threw: SyntaxError: missing = in destructuring declaration

tryItOut 167
Compiling threw: SyntaxError: missing { before function body

tryItOut 168

tryItOut 169

tryItOut 170

tryItOut 171
It's an iterator!
Iterating succeeded, iterCount == 1

tryItOut 172
Running threw: <x>
  <y/>
</x>

tryItOut 173
It's an iterator!
Iterating succeeded, iterCount == 1

tryItOut 174

tryItOut 175

tryItOut 176
Compiling threw: SyntaxError: invalid for/in left-hand side

tryItOut 177
before 139520, after 139520, break 012cb000

tryItOut 178

tryItOut 179

tryItOut 180
Compiling threw: SyntaxError: duplicate label

tryItOut 181

tryItOut 182
It's an iterator!
Iterating succeeded, iterCount == 1

tryItOut 183
before 139520, after 122080, break 012cb000

tryItOut 184

tryItOut 185
Compiling threw: SyntaxError: missing { before function body

tryItOut 186

tryItOut 187

tryItOut 188
Compiling threw: SyntaxError: missing { before function body

tryItOut 189

tryItOut 190
Compiling threw: SyntaxError: missing ; before statement

tryItOut 191
Running threw: [object Object]

tryItOut 192

tryItOut 193
Compiling threw: SyntaxError: missing { before function body

tryItOut 194

tryItOut 195

tryItOut 196
It's an iterator!
Iterating succeeded, iterCount == 1

tryItOut 197

tryItOut 198
It's an iterator!
Iterating succeeded, iterCount == 1

tryItOut 199
Running threw: ReferenceError: __noSuchMethod__ is not defined

tryItOut 200
Running threw: ReferenceError: __noSuchMethod__ is not defined

tryItOut 201

tryItOut 202
Compiling threw: SyntaxError: missing ; before statement

tryItOut 203

tryItOut 204

tryItOut 205
Compiling threw: SyntaxError: missing ; before statement

tryItOut 206
Compiling threw: SyntaxError: invalid for/in left-hand side

tryItOut 207
Compiling threw: SyntaxError: missing = in destructuring declaration

tryItOut 208

tryItOut 209
Compiling threw: SyntaxError: duplicate label

tryItOut 210
Compiling threw: TypeError: redeclaration of var prototype

tryItOut 211

tryItOut 212
Compiling threw: SyntaxError: invalid assignment left-hand side

tryItOut 213
Compiling threw: SyntaxError: missing ; after for-loop initializer

tryItOut 214

tryItOut 215
Compiling threw: SyntaxError: missing ; after for-loop condition

tryItOut 216

tryItOut 217

tryItOut 218
Compiling threw: SyntaxError: missing ; after for-loop initializer

tryItOut 219
It's an iterator!
Iterating succeeded, iterCount == 1

tryItOut 220
Running threw: NaN

tryItOut 221
Compiling threw: SyntaxError: missing { before function body

tryItOut 222
Compiling threw: SyntaxError: syntax error

tryItOut 223

tryItOut 224

tryItOut 225
Running threw: TypeError: undefined.__defineSetter__("__noSuchMethod__", new Function) has no properties

tryItOut 226
It's an iterator!
Iterating succeeded, iterCount == 1

tryItOut 227
It's an iterator!
Iterating succeeded, iterCount == 1

tryItOut 228

tryItOut 229
Running threw: TypeError: <x/>['throw'] is not a function

tryItOut 230
Compiling threw: SyntaxError: yield expression must be parenthesized

tryItOut 231
It's an iterator!
Iterating threw!
Iterating threw: ReferenceError: z1 is not defined

tryItOut 232
Running threw: ReferenceError: z1 is not defined

tryItOut 233

tryItOut 234
Running threw: TypeError: arguments[0] has no properties

tryItOut 235

tryItOut 236
Running threw: 

tryItOut 237

tryItOut 238

tryItOut 239

tryItOut 240
Compiling threw: SyntaxError: missing : after property id

tryItOut 241
before 139520, after 139520, break 012cb000

tryItOut 242
Compiling threw: SyntaxError: missing variable name

tryItOut 243

tryItOut 244
Compiling threw: SyntaxError: missing variable name

tryItOut 245
Running threw: TypeError: invalid 'in' operand false

tryItOut 246
Compiling threw: SyntaxError: missing variable name

tryItOut 247
before 139520, after 139520, break 012dc000

tryItOut 248
Compiling threw: TypeError: redeclaration of variable __parent__

tryItOut 249
Running threw: ReferenceError: z2 is not defined

tryItOut 250

tryItOut 251

tryItOut 252

tryItOut 253
Compiling threw: SyntaxError: missing ; before statement

tryItOut 254

tryItOut 255
Compiling threw: SyntaxError: duplicate label

tryItOut 256
before 139520, after 139520, break 012dc000

tryItOut 257
Compiling threw: SyntaxError: missing variable name

tryItOut 258

tryItOut 259

tryItOut 260

tryItOut 261
Running threw: null

tryItOut 262
Compiling threw: SyntaxError: missing { before function body

tryItOut 263

tryItOut 264

tryItOut 265
Compiling threw: SyntaxError: missing ) after for-loop control

tryItOut 266
Compiling threw: TypeError: redeclaration of const __iterator__

tryItOut 267

tryItOut 268
Running threw: 1

tryItOut 269
Compiling threw: SyntaxError: missing variable name

tryItOut 270

tryItOut 271
Compiling threw: SyntaxError: invalid assignment left-hand side

tryItOut 272
Compiling threw: SyntaxError: invalid assignment left-hand side

tryItOut 273

tryItOut 274

tryItOut 275
It's an iterator!
before 139520, after 139520, break 012dc000
Iterating succeeded, iterCount == 1

tryItOut 276
Compiling threw: SyntaxError: missing { before function body

tryItOut 277
Running threw: <x>
  <y/>
</x>

tryItOut 278
Compiling threw: SyntaxError: missing ) after condition

tryItOut 279
Compiling threw: SyntaxError: syntax error

tryItOut 280
Compiling threw: SyntaxError: missing ; before statement

tryItOut 281

tryItOut 282

tryItOut 283
It's an iterator!
Iterating succeeded, iterCount == 1

tryItOut 284
Compiling threw: TypeError: redeclaration of variable __noSuchMethod__

tryItOut 285
Compiling threw: SyntaxError: invalid increment operand

tryItOut 286

tryItOut 287

tryItOut 288
Compiling threw: TypeError: redeclaration of variable __noSuchMethod__

tryItOut 289
Running threw: TypeError: __parent__ has no properties

tryItOut 290

tryItOut 291
Compiling threw: SyntaxError: invalid for/in left-hand side

tryItOut 292

tryItOut 293
Compiling threw: SyntaxError: invalid assignment left-hand side

tryItOut 294

tryItOut 295
before 139520, after 139520, break 012dc000

tryItOut 296

tryItOut 297

tryItOut 298
Compiling threw: SyntaxError: missing ; before statement

tryItOut 299
Compiling threw: SyntaxError: invalid assignment left-hand side

tryItOut 300
Compiling threw: SyntaxError: invalid assignment left-hand side

tryItOut 301

tryItOut 302
Compiling threw: SyntaxError: missing ; after for-loop initializer

tryItOut 303
Compiling threw: SyntaxError: missing variable name

tryItOut 304
before 139520, after 139520, break 012dc000

tryItOut 305
Running threw: [object Object]

tryItOut 306
Running threw: <x>
  <y/>
</x>

tryItOut 307
Compiling threw: SyntaxError: invalid for/in left-hand side

tryItOut 308
It's an iterator!
Iterating succeeded, iterCount == 1

tryItOut 309

tryItOut 310

tryItOut 311

tryItOut 312

tryItOut 313
Running threw: ReferenceError: __noSuchMethod__ is not defined

tryItOut 314

tryItOut 315
Compiling threw: SyntaxError: missing { before function body

tryItOut 316
Compiling threw: SyntaxError: missing ; before statement

tryItOut 317

tryItOut 318
Compiling threw: SyntaxError: invalid assignment left-hand side

tryItOut 319

tryItOut 320
Running threw: <y>
  <z/>
</y>

tryItOut 321

tryItOut 322

tryItOut 323
Compiling threw: SyntaxError: missing ; after for-loop initializer

tryItOut 324
Compiling threw: SyntaxError: syntax error

tryItOut 325

tryItOut 326

tryItOut 327
Compiling threw: SyntaxError: missing variable name

tryItOut 328

tryItOut 329

tryItOut 330
Compiling threw: SyntaxError: missing { before function body

tryItOut 331

tryItOut 332
Running threw: false

tryItOut 333
Running threw: SyntaxError: invalid getter usage

tryItOut 334
It's an iterator!
Iterating succeeded, iterCount == 1

tryItOut 335

tryItOut 336
Compiling threw: SyntaxError: missing = in destructuring declaration

tryItOut 337
Compiling threw: SyntaxError: syntax error

tryItOut 338
Running threw: [object StopIteration]

tryItOut 339
It's an iterator!
Iterating succeeded, iterCount == 1

tryItOut 340

tryItOut 341

tryItOut 342
Running threw: [object StopIteration]

tryItOut 343

tryItOut 344
Compiling threw: SyntaxError: missing { before function body

tryItOut 345
Running threw: 

tryItOut 346

tryItOut 347
Compiling threw: SyntaxError: missing variable name

tryItOut 348
It's an iterator!
Iterating threw!
Iterating threw: 

tryItOut 349
before 139520, after 139520, break 012dc000

tryItOut 350
Compiling threw: SyntaxError: missing ; before statement

tryItOut 351
Compiling threw: SyntaxError: missing ; before statement

tryItOut 352
Compiling threw: SyntaxError: invalid for/in left-hand side

tryItOut 353
Compiling threw: SyntaxError: missing ) in parenthetical

tryItOut 354
Compiling threw: SyntaxError: missing { before function body

tryItOut 355

tryItOut 356
Compiling threw: SyntaxError: invalid for/in left-hand side

tryItOut 357
Compiling threw: SyntaxError: missing variable name

tryItOut 358
Compiling threw: SyntaxError: missing = in destructuring declaration

tryItOut 359

tryItOut 360
Running threw: Error: invalid sharp variable use #1#

tryItOut 361

tryItOut 362

tryItOut 363
It's an iterator!
Iterating succeeded, iterCount == 1

tryItOut 364

tryItOut 365

tryItOut 366

tryItOut 367
Compiling threw: SyntaxError: missing ) in parenthetical

tryItOut 368
Running threw: [object StopIteration]

tryItOut 369
before 139520, after 139520, break 012ea000

tryItOut 370

tryItOut 371

tryItOut 372
It's an iterator!
before 139520, after 139520, break 012ea000
Iterating succeeded, iterCount == 1

tryItOut 373
Compiling threw: SyntaxError: syntax error

tryItOut 374
It's an iterator!
Iterating succeeded, iterCount == 1

tryItOut 375
before 139520, after 139520, break 012ea000

tryItOut 376

tryItOut 377
It's an iterator!
Iterating succeeded, iterCount == 1

tryItOut 378
It's an iterator!
Iterating succeeded, iterCount == 1

tryItOut 379

tryItOut 380

tryItOut 381
It's an iterator!
Iterating succeeded, iterCount == 1

tryItOut 382

tryItOut 383

tryItOut 384

tryItOut 385
Compiling threw: SyntaxError: yield expression must be parenthesized

tryItOut 386

tryItOut 387

tryItOut 388
Compiling threw: SyntaxError: missing variable name

tryItOut 389
Compiling threw: SyntaxError: invalid destructuring assignment operator

tryItOut 390
Compiling threw: SyntaxError: invalid for/in left-hand side

tryItOut 391

tryItOut 392
Running threw: ReferenceError: reference to undefined property "__noSuchMethod__"

tryItOut 393
Compiling threw: SyntaxError: missing ; before statement

tryItOut 394
Compiling threw: SyntaxError: missing { before function body

tryItOut 395
Compiling threw: TypeError: redeclaration of var __proto__

tryItOut 396
Compiling threw: SyntaxError: invalid increment operand

tryItOut 397

tryItOut 398
It's an iterator!
Iterating succeeded, iterCount == 1

tryItOut 399

tryItOut 400
It's an iterator!
Iterating threw!
Iterating threw: TypeError: <x><y/></x>.__lookupGetter__("__parent__") has no properties

tryItOut 401

tryItOut 402

tryItOut 403
Compiling threw: SyntaxError: invalid assignment left-hand side

tryItOut 404
Compiling threw: SyntaxError: missing { before function body

tryItOut 405
It's an iterator!
Iterating succeeded, iterCount == 1

tryItOut 406

tryItOut 407
Compiling threw: SyntaxError: missing ; before statement

tryItOut 408

tryItOut 409
Compiling threw: SyntaxError: missing ) in parenthetical

tryItOut 410

tryItOut 411
before 156960, after 156960, break 012ea000

tryItOut 412
It's an iterator!
Iterating succeeded, iterCount == 1

tryItOut 413
Compiling threw: SyntaxError: missing = in destructuring declaration

tryItOut 414

tryItOut 415
Running threw: SyntaxError: invalid setter usage

tryItOut 416
Compiling threw: SyntaxError: missing variable name

tryItOut 417
Compiling threw: SyntaxError: syntax error

tryItOut 418

tryItOut 419
Compiling threw: SyntaxError: missing ; before statement

tryItOut 420

tryItOut 421
before 156960, after 156960, break 012ea000

tryItOut 422
Compiling threw: SyntaxError: duplicate label

tryItOut 423
Compiling threw: SyntaxError: missing { before function body

tryItOut 424
Compiling threw: SyntaxError: missing ; before statement

tryItOut 425

tryItOut 426
Compiling threw: SyntaxError: invalid increment operand

tryItOut 427

tryItOut 428

tryItOut 429
Compiling threw: SyntaxError: missing ; before statement

tryItOut 430

tryItOut 431
Compiling threw: SyntaxError: syntax error

tryItOut 432
Running threw: TypeError: XML filtering predicate operator called on incompatible Boolean

tryItOut 433
Compiling threw: SyntaxError: missing { before function body

tryItOut 434
Compiling threw: SyntaxError: illegal XML character

tryItOut 435
uneval returned the string: [<x/>]

tryItOut 436
Running threw: [object StopIteration]

tryItOut 437

tryItOut 438
Compiling threw: SyntaxError: syntax error

tryItOut 439

tryItOut 440

tryItOut 441

tryItOut 442

tryItOut 443

tryItOut 444

tryItOut 445
Compiling threw: SyntaxError: missing = in destructuring declaration

tryItOut 446
It's an iterator!
Iterating succeeded, iterCount == 1

tryItOut 447

tryItOut 448

tryItOut 449

tryItOut 450
Running threw: <x>
  <y/>
</x>

tryItOut 451

tryItOut 452
before 156960, after 156960, break 012fd000

tryItOut 453
Compiling threw: SyntaxError: missing ; before statement

tryItOut 454

tryItOut 455

tryItOut 456
Running threw: [object StopIteration]

tryItOut 457
Compiling threw: SyntaxError: missing variable name

tryItOut 458
Compiling threw: SyntaxError: invalid increment operand

tryItOut 459
Compiling threw: SyntaxError: missing ) in parenthetical

tryItOut 460
Compiling threw: SyntaxError: invalid decrement operand

tryItOut 461
Compiling threw: SyntaxError: duplicate label

tryItOut 462

tryItOut 463
Compiling threw: SyntaxError: missing variable name

tryItOut 464
Compiling threw: SyntaxError: invalid assignment left-hand side

tryItOut 465

tryItOut 466

tryItOut 467
Compiling threw: SyntaxError: missing ; before statement

tryItOut 468
Compiling threw: SyntaxError: missing ) after condition

tryItOut 469
Compiling threw: SyntaxError: missing { before function body

tryItOut 470
Compiling threw: SyntaxError: missing ; before statement

tryItOut 471
Running threw: 109

tryItOut 472
Compiling threw: SyntaxError: missing { before function body

tryItOut 473
Compiling threw: SyntaxError: missing ; before statement

tryItOut 474

tryItOut 475

tryItOut 476
Compiling threw: SyntaxError: missing { before function body

tryItOut 477
Compiling threw: SyntaxError: syntax error

tryItOut 478
Running threw: [object StopIteration]

tryItOut 479
Compiling threw: SyntaxError: missing variable name

tryItOut 480
before 156960, after 156960, break 012fd000

tryItOut 481
Compiling threw: SyntaxError: invalid for each loop

tryItOut 482
Compiling threw: SyntaxError: missing ) after condition

tryItOut 483

tryItOut 484
Running threw: 1

tryItOut 485
Running threw: NaN

tryItOut 486
Compiling threw: SyntaxError: missing ; before statement

tryItOut 487
Compiling threw: SyntaxError: missing ) after argument list

tryItOut 488
Running threw: [object StopIteration]

tryItOut 489
Running threw: <y>
  <z/>
</y>

tryItOut 490
Compiling threw: SyntaxError: missing { before function body

tryItOut 491
Running threw: [object StopIteration]

tryItOut 492

tryItOut 493
It's an iterator!
Iterating succeeded, iterCount == 1

tryItOut 494
Compiling threw: SyntaxError: missing ; before statement

tryItOut 495

tryItOut 496
Compiling threw: SyntaxError: duplicate label

tryItOut 497

tryItOut 498
Compiling threw: TypeError: redeclaration of variable __parent__

tryItOut 499
Compiling threw: SyntaxError: invalid decrement operand

tryItOut 500

tryItOut 501
Running threw: [object StopIteration]

tryItOut 502

tryItOut 503
Running threw: [object StopIteration]

tryItOut 504
Running threw: ReferenceError: x is not defined

tryItOut 505
Compiling threw: SyntaxError: missing variable name

tryItOut 506

tryItOut 507

tryItOut 508

tryItOut 509

tryItOut 510

tryItOut 511
Running threw: [object StopIteration]

tryItOut 512
Running threw: ,

tryItOut 513
Compiling threw: SyntaxError: missing { before function body

tryItOut 514

tryItOut 515
Compiling threw: SyntaxError: invalid for/in left-hand side

tryItOut 516

tryItOut 517

tryItOut 518
Compiling threw: SyntaxError: invalid assignment left-hand side

tryItOut 519

tryItOut 520
Compiling threw: SyntaxError: missing ) after argument list

tryItOut 521
It's an iterator!
Iterating succeeded, iterCount == 1

tryItOut 522
It's an iterator!
Iterating succeeded, iterCount == 1

tryItOut 523
It's an iterator!
Iterating succeeded, iterCount == 1

tryItOut 524

tryItOut 525

tryItOut 526
Running threw: <y>
  <z/>
</y>

tryItOut 527
Running threw: 

tryItOut 528
Compiling threw: SyntaxError: missing ; before statement

tryItOut 529

tryItOut 530
Compiling threw: SyntaxError: missing ; before statement

tryItOut 531
It's an iterator!
Iterating threw!
Iterating threw: TypeError: undefined has no properties

tryItOut 532
It's an iterator!
Iterating succeeded, iterCount == 1

tryItOut 533
Running threw: SyntaxError: invalid setter usage

tryItOut 534
Compiling threw: SyntaxError: invalid destructuring assignment operator

tryItOut 535
Compiling threw: SyntaxError: missing ; before statement

tryItOut 536

tryItOut 537

tryItOut 538

tryItOut 539
Compiling threw: SyntaxError: missing { before function body

tryItOut 540

tryItOut 541
Compiling threw: SyntaxError: invalid assignment left-hand side

tryItOut 542

tryItOut 543
Compiling threw: SyntaxError: syntax error

tryItOut 544
Compiling threw: SyntaxError: missing ; before statement

tryItOut 545

tryItOut 546
Compiling threw: SyntaxError: missing formal parameter

tryItOut 547
Compiling threw: SyntaxError: missing { before function body

tryItOut 548
Compiling threw: TypeError: redeclaration of variable __proto__

tryItOut 549
Running threw: [object StopIteration]

tryItOut 550
Compiling threw: SyntaxError: missing variable name

tryItOut 551
Compiling threw: SyntaxError: duplicate label

tryItOut 552
It's an iterator!
Iterating succeeded, iterCount == 1

tryItOut 553
Running threw: <x>
  <y/>
</x>

tryItOut 554

tryItOut 555
Running threw: TypeError: null has no properties

tryItOut 556

tryItOut 557
Running threw: TypeError: null has no properties

tryItOut 558
Compiling threw: SyntaxError: missing ) in parenthetical

tryItOut 559
It's an iterator!
Iterating succeeded, iterCount == 1

tryItOut 560

tryItOut 561
Compiling threw: SyntaxError: missing ; before statement

tryItOut 562

tryItOut 563
Compiling threw: SyntaxError: invalid for/in left-hand side

tryItOut 564
Compiling threw: SyntaxError: syntax error

tryItOut 565
Compiling threw: SyntaxError: syntax error

tryItOut 566

tryItOut 567
before 191840, after 191840, break 01369000

tryItOut 568
Compiling threw: SyntaxError: missing while after do-loop body

tryItOut 569
It's an iterator!
Iterating succeeded, iterCount == 1

tryItOut 570
Compiling threw: SyntaxError: invalid decrement operand

tryItOut 571
Compiling threw: TypeError: generator function anonymous returns a value

tryItOut 572

tryItOut 573
Running threw: TypeError: prototype has no properties

tryItOut 574
Running threw: [object StopIteration]

tryItOut 575
Compiling threw: SyntaxError: missing = in destructuring declaration

tryItOut 576
Compiling threw: SyntaxError: invalid assignment left-hand side

tryItOut 577
Compiling threw: SyntaxError: missing ) in parenthetical

tryItOut 578
Compiling threw: SyntaxError: missing { before function body

tryItOut 579
Running threw: true

tryItOut 580
Compiling threw: SyntaxError: missing { before function body

tryItOut 581
Compiling threw: SyntaxError: syntax error

tryItOut 582
Compiling threw: SyntaxError: missing ; before statement

tryItOut 583
Running threw: TypeError: prototype has no properties

tryItOut 584

tryItOut 585
Compiling threw: TypeError: redeclaration of var __iterator__

tryItOut 586

tryItOut 587
Compiling threw: SyntaxError: invalid increment operand

tryItOut 588

tryItOut 589
Compiling threw: SyntaxError: missing ) in parenthetical

tryItOut 590
It's an iterator!
Iterating succeeded, iterCount == 1

tryItOut 591
Compiling threw: SyntaxError: syntax error

tryItOut 592
Compiling threw: SyntaxError: syntax error

tryItOut 593
Compiling threw: SyntaxError: invalid assignment left-hand side

tryItOut 594
Running threw: ReferenceError: x is not defined

tryItOut 595

tryItOut 596
before 191840, after 191840, break 01368000

tryItOut 597
Compiling threw: SyntaxError: missing { before function body

tryItOut 598
It's an iterator!
Iterating threw!
Iterating threw: ReferenceError: reference to undefined property "__noSuchMethod__"

tryItOut 599
Compiling threw: SyntaxError: missing variable name

tryItOut 600

tryItOut 601

tryItOut 602
It's an iterator!
Iterating succeeded, iterCount == 1

tryItOut 603

tryItOut 604
Compiling threw: SyntaxError: missing ; before statement

tryItOut 605
Compiling threw: SyntaxError: missing ; before statement

tryItOut 606
It's an iterator!
Iterating succeeded, iterCount == 1

tryItOut 607
Compiling threw: SyntaxError: invalid assignment left-hand side

tryItOut 608

tryItOut 609

tryItOut 610

tryItOut 611
before 191840, after 191840, break 01368000

tryItOut 612
Compiling threw: SyntaxError: missing ) after condition

tryItOut 613

tryItOut 614
Compiling threw: SyntaxError: missing ; before statement

tryItOut 615

tryItOut 616

tryItOut 617

tryItOut 618
Compiling threw: SyntaxError: missing ; before statement

tryItOut 619
Compiling threw: SyntaxError: missing ) in parenthetical

tryItOut 620
It's an iterator!
Iterating succeeded, iterCount == 1

tryItOut 621
Compiling threw: SyntaxError: syntax error

tryItOut 622

tryItOut 623
Compiling threw: SyntaxError: missing ) in parenthetical

tryItOut 624
Compiling threw: SyntaxError: invalid for/in left-hand side

tryItOut 625
Compiling threw: SyntaxError: syntax error

tryItOut 626
Compiling threw: SyntaxError: missing ) after condition

tryItOut 627
Compiling threw: SyntaxError: missing { before function body

tryItOut 628

tryItOut 629
Running threw: ReferenceError: z1 is not defined

tryItOut 630
It's an iterator!
Iterating threw!
Iterating threw: ReferenceError: z1 is not defined

tryItOut 631
before 191840, after 191840, break 01368000

tryItOut 632

tryItOut 633

tryItOut 634
Compiling threw: SyntaxError: missing { before function body

tryItOut 635

tryItOut 636

tryItOut 637

tryItOut 638
Compiling threw: SyntaxError: missing variable name

tryItOut 639
Compiling threw: SyntaxError: invalid destructuring assignment operator

tryItOut 640

tryItOut 641

tryItOut 642
Compiling threw: SyntaxError: syntax error

tryItOut 643

tryItOut 644

tryItOut 645

tryItOut 646
It's an iterator!
Iterating succeeded, iterCount == 1

tryItOut 647
It's an iterator!
Iterating succeeded, iterCount == 1

tryItOut 648

tryItOut 649
Compiling threw: SyntaxError: invalid for/in left-hand side

tryItOut 650
Compiling threw: SyntaxError: invalid for/in left-hand side

tryItOut 651
Running threw: ReferenceError: yyy is not defined

tryItOut 652
before 191840, after 191840, break 01368000

tryItOut 653
Compiling threw: SyntaxError: syntax error

tryItOut 654

tryItOut 655
Compiling threw: SyntaxError: missing ; after for-loop initializer

tryItOut 656
Compiling threw: SyntaxError: missing ; before statement

tryItOut 657

tryItOut 658
Running threw: ReferenceError: z1 is not defined

tryItOut 659
Compiling threw: SyntaxError: invalid for/in left-hand side

tryItOut 660

tryItOut 661

tryItOut 662
Compiling threw: SyntaxError: missing { before function body

tryItOut 663
Compiling threw: SyntaxError: missing { before function body

tryItOut 664

tryItOut 665

tryItOut 666

tryItOut 667
Compiling threw: SyntaxError: invalid increment operand

tryItOut 668

tryItOut 669

tryItOut 670

tryItOut 671
Compiling threw: SyntaxError: invalid for/in left-hand side

tryItOut 672

tryItOut 673
Compiling threw: SyntaxError: missing variable name

tryItOut 674

tryItOut 675

tryItOut 676
Compiling threw: SyntaxError: missing { before function body

tryItOut 677

tryItOut 678
It's an iterator!
Iterating succeeded, iterCount == 2

tryItOut 679

tryItOut 680

tryItOut 681
before 191840, after 191840, break 01368000

tryItOut 682
Running threw: [object StopIteration]

tryItOut 683
Compiling threw: TypeError: redeclaration of const __parent__

tryItOut 684
Compiling threw: SyntaxError: missing { before function body

tryItOut 685

tryItOut 686
before 191840, after 191840, break 01368000

tryItOut 687
It's an iterator!
Iterating succeeded, iterCount == 1

tryItOut 688

tryItOut 689
Compiling threw: SyntaxError: syntax error

tryItOut 690

tryItOut 691

tryItOut 692

tryItOut 693

tryItOut 694
It's an iterator!
Iterating succeeded, iterCount == 1

tryItOut 695
Compiling threw: SyntaxError: missing = in destructuring declaration

tryItOut 696

tryItOut 697
Compiling threw: SyntaxError: invalid for/in left-hand side

tryItOut 698
It's an iterator!
Iterating succeeded, iterCount == 1

tryItOut 699
Running threw: [object StopIteration]

tryItOut 700
Compiling threw: TypeError: redeclaration of var prototype

tryItOut 701
Running threw: null

tryItOut 702
Compiling threw: SyntaxError: missing variable name

tryItOut 703
Compiling threw: SyntaxError: syntax error

tryItOut 704
Compiling threw: SyntaxError: missing ) in parenthetical

tryItOut 705
Compiling threw: SyntaxError: missing ; before statement

tryItOut 706

tryItOut 707

tryItOut 708

tryItOut 709

tryItOut 710
Running threw: [object StopIteration]

tryItOut 711
Compiling threw: SyntaxError: missing ) after argument list

tryItOut 712
Compiling threw: SyntaxError: invalid increment operand

tryItOut 713
Compiling threw: SyntaxError: missing variable name

tryItOut 714
Compiling threw: SyntaxError: missing variable name

tryItOut 715
Compiling threw: SyntaxError: missing ) after argument list

tryItOut 716

tryItOut 717
Running threw: SyntaxError: invalid setter usage

tryItOut 718
It's an iterator!
Iterating succeeded, iterCount == 1

tryItOut 719
Compiling threw: SyntaxError: missing { before function body

tryItOut 720
Running threw: true

tryItOut 721
Compiling threw: SyntaxError: invalid destructuring assignment operator

tryItOut 722

tryItOut 723

tryItOut 724
Compiling threw: SyntaxError: missing name after . operator

tryItOut 725
Compiling threw: SyntaxError: invalid assignment left-hand side

tryItOut 726
Running threw: [object StopIteration]

tryItOut 727

tryItOut 728
Compiling threw: SyntaxError: invalid assignment left-hand side

tryItOut 729
It's an iterator!
Iterating succeeded, iterCount == 1

tryItOut 730

tryItOut 731
before 191840, after 191840, break 01377000

tryItOut 732
Compiling threw: SyntaxError: invalid for/in left-hand side

tryItOut 733
Running threw: [object StopIteration]

tryItOut 734

tryItOut 735

tryItOut 736
Running threw: TypeError: __proto__ has no properties

tryItOut 737
It's an iterator!
before 191840, after 191840, break 01377000
Iterating succeeded, iterCount == 1

tryItOut 738

tryItOut 739

tryItOut 740

tryItOut 741

tryItOut 742

tryItOut 743
Compiling threw: SyntaxError: missing variable name

tryItOut 744

tryItOut 745
before 191840, after 191840, break 01377000

tryItOut 746

tryItOut 747

tryItOut 748
Running threw: ,

tryItOut 749
It's an iterator!
Iterating succeeded, iterCount == 1

tryItOut 750

tryItOut 751
Running threw: ReferenceError: __noSuchMethod__ is not defined

tryItOut 752
before 191840, after 191840, break 01377000

tryItOut 753

tryItOut 754
It's an iterator!
Iterating succeeded, iterCount == 1

tryItOut 755
Compiling threw: SyntaxError: invalid XML tag syntax

tryItOut 756

tryItOut 757
Compiling threw: SyntaxError: missing ; before statement

tryItOut 758

tryItOut 759
Compiling threw: SyntaxError: missing ) after for-loop control

tryItOut 760

tryItOut 761

tryItOut 762

tryItOut 763

tryItOut 764
Compiling threw: SyntaxError: missing = in destructuring declaration

tryItOut 765

tryItOut 766

tryItOut 767
Compiling threw: SyntaxError: invalid assignment left-hand side

tryItOut 768
Compiling threw: SyntaxError: missing = in destructuring declaration

tryItOut 769
Compiling threw: SyntaxError: missing variable name

tryItOut 770

tryItOut 771

tryItOut 772

tryItOut 773
Compiling threw: SyntaxError: invalid for/in left-hand side

tryItOut 774

tryItOut 775

tryItOut 776
It's an iterator!
Iterating succeeded, iterCount == 1

tryItOut 777
Compiling threw: SyntaxError: missing ; before statement

tryItOut 778
Running threw: [object StopIteration]

tryItOut 779

tryItOut 780
Compiling threw: SyntaxError: syntax error

tryItOut 781
Running threw: Error: invalid sharp variable definition #0=

tryItOut 782
It's an iterator!
Iterating succeeded, iterCount == 1

tryItOut 783
Compiling threw: SyntaxError: illegal XML character

tryItOut 784

tryItOut 785
Compiling threw: SyntaxError: invalid for/in left-hand side

tryItOut 786

tryItOut 787

tryItOut 788

tryItOut 789
before 209280, after 209280, break 01377000

tryItOut 790
Compiling threw: SyntaxError: missing { before function body

tryItOut 791

tryItOut 792
Running threw: TypeError: [, ][<x/>] has no properties

tryItOut 793

tryItOut 794
It's an iterator!
Iterating succeeded, iterCount == 1

tryItOut 795

tryItOut 796
Compiling threw: SyntaxError: invalid for/in left-hand side

tryItOut 797

tryItOut 798
Compiling threw: SyntaxError: missing ; before statement

tryItOut 799
Compiling threw: SyntaxError: invalid decrement operand

tryItOut 800
Running threw: Error: invalid sharp variable use #1#

tryItOut 801
It's an iterator!
Iterating threw!
Iterating threw: TypeError: prototype has no properties

tryItOut 802
Compiling threw: SyntaxError: missing variable name

tryItOut 803
Compiling threw: SyntaxError: missing ; after for-loop condition

tryItOut 804
Compiling threw: SyntaxError: missing variable name

tryItOut 805
Compiling threw: SyntaxError: invalid assignment left-hand side

tryItOut 806
Compiling threw: SyntaxError: missing variable name

tryItOut 807
Running threw: [object Object]

tryItOut 808
Compiling threw: SyntaxError: invalid for each loop

tryItOut 809
Compiling threw: SyntaxError: invalid for each loop

tryItOut 810

tryItOut 811

tryItOut 812
Compiling threw: SyntaxError: syntax error

tryItOut 813
before 209280, after 209280, break 01394000
Running threw: [object Object]

tryItOut 814

tryItOut 815
Compiling threw: SyntaxError: missing { before function body

tryItOut 816

tryItOut 817

tryItOut 818
It's an iterator!
Iterating succeeded, iterCount == 1

tryItOut 819
Compiling threw: SyntaxError: missing variable name

tryItOut 820

tryItOut 821

tryItOut 822
Compiling threw: SyntaxError: invalid assignment left-hand side

tryItOut 823
Compiling threw: SyntaxError: missing variable name

tryItOut 824

tryItOut 825
before 209280, after 209280, break 01394000

tryItOut 826

tryItOut 827
Compiling threw: SyntaxError: missing while after do-loop body

tryItOut 828

tryItOut 829

tryItOut 830
Running threw: 1

tryItOut 831
It's an iterator!
Iterating succeeded, iterCount == 1

tryItOut 832

tryItOut 833

tryItOut 834

tryItOut 835
Compiling threw: SyntaxError: missing ) in parenthetical

tryItOut 836
before 209280, after 209280, break 01394000

tryItOut 837

tryItOut 838

tryItOut 839
Running threw: [object Object]

tryItOut 840

tryItOut 841
Compiling threw: SyntaxError: missing ; before statement

tryItOut 842
before 209280, after 209280, break 01394000

tryItOut 843

tryItOut 844

tryItOut 845
Compiling threw: SyntaxError: missing ; before statement

tryItOut 846

tryItOut 847
Running threw: [object StopIteration]

tryItOut 848
Compiling threw: SyntaxError: syntax error

tryItOut 849

tryItOut 850

tryItOut 851

tryItOut 852

tryItOut 853

tryItOut 854
Running threw: [object StopIteration]

tryItOut 855

tryItOut 856

tryItOut 857
Compiling threw: SyntaxError: missing ; before statement

tryItOut 858
Compiling threw: SyntaxError: invalid assignment left-hand side

tryItOut 859

tryItOut 860
Compiling threw: SyntaxError: missing { before function body

tryItOut 861
Compiling threw: SyntaxError: missing ; before statement

tryItOut 862

tryItOut 863
Compiling threw: SyntaxError: missing variable name

tryItOut 864

tryItOut 865
Running threw: [object StopIteration]

tryItOut 866
It's an iterator!
Iterating succeeded, iterCount == 1

tryItOut 867

tryItOut 868

tryItOut 869
Compiling threw: SyntaxError: syntax error

tryItOut 870
Compiling threw: SyntaxError: illegal XML character

tryItOut 871
Compiling threw: SyntaxError: duplicate label

tryItOut 872
Running threw: undefined

tryItOut 873
Compiling threw: SyntaxError: syntax error

tryItOut 874

tryItOut 875
Running threw: 

tryItOut 876
Running threw: TypeError: <x><y/></x>.__lookupGetter__("__proto__") is not a constructor

tryItOut 877
Running threw: TypeError: __iterator__ has no properties

tryItOut 878
Compiling threw: SyntaxError: syntax error

tryItOut 879
It's an iterator!
Iterating succeeded, iterCount == 1

tryItOut 880
Compiling threw: SyntaxError: missing ) in parenthetical

tryItOut 881
Compiling threw: SyntaxError: invalid decrement operand

tryItOut 882

tryItOut 883

tryItOut 884
Compiling threw: SyntaxError: invalid assignment left-hand side

tryItOut 885
Running threw: [object StopIteration]

tryItOut 886
Running threw: [object StopIteration]

tryItOut 887
Compiling threw: SyntaxError: missing variable name

tryItOut 888
Running threw: [object StopIteration]

tryItOut 889
Compiling threw: TypeError: redeclaration of variable __parent__

tryItOut 890
Compiling threw: SyntaxError: missing ; before statement

tryItOut 891
Compiling threw: TypeError: redeclaration of const constructor

tryItOut 892

tryItOut 893
Running threw: true

tryItOut 894

tryItOut 895
Compiling threw: SyntaxError: missing formal parameter

tryItOut 896
It's an iterator!
Iterating succeeded, iterCount == 1

tryItOut 897
Compiling threw: SyntaxError: invalid for each loop

tryItOut 898
Running threw: TypeError: prototype has no properties

tryItOut 899
Compiling threw: SyntaxError: missing ; before statement

tryItOut 900

tryItOut 901
Compiling threw: TypeError: generator function anonymous returns a value

tryItOut 902
Compiling threw: SyntaxError: missing ) in parenthetical

tryItOut 903
Running threw: TypeError: __proto__['throw'] is not a function

tryItOut 904
Compiling threw: SyntaxError: missing { before function body

tryItOut 905
before 226720, after 226720, break 013b2000

tryItOut 906

tryItOut 907
Compiling threw: SyntaxError: missing ; after for-loop initializer

tryItOut 908

tryItOut 909
It's an iterator!
Iterating succeeded, iterCount == 1

tryItOut 910

tryItOut 911
Compiling threw: SyntaxError: syntax error

tryItOut 912
It's an iterator!
Iterating succeeded, iterCount == 1

tryItOut 913
Compiling threw: SyntaxError: missing variable name

tryItOut 914
Compiling threw: SyntaxError: missing = in destructuring declaration

tryItOut 915

tryItOut 916
Compiling threw: SyntaxError: missing { before function body

tryItOut 917
It's an iterator!
Iterating threw!
Iterating threw: true

tryItOut 918

tryItOut 919

tryItOut 920
Compiling threw: SyntaxError: duplicate label

tryItOut 921

tryItOut 922

tryItOut 923

tryItOut 924
Compiling threw: SyntaxError: missing ; before statement

tryItOut 925

tryItOut 926

tryItOut 927
Compiling threw: SyntaxError: invalid for each loop

tryItOut 928
Compiling threw: SyntaxError: missing variable name

tryItOut 929

tryItOut 930
Compiling threw: TypeError: redeclaration of const __parent__

tryItOut 931

tryItOut 932
before 226720, after 226720, break 013c7000

tryItOut 933
before 226720, after 226720, break 013c7000

tryItOut 934

tryItOut 935

tryItOut 936
It's an iterator!
Iterating succeeded, iterCount == 1

tryItOut 937
Compiling threw: SyntaxError: invalid increment operand

tryItOut 938

tryItOut 939

tryItOut 940
Compiling threw: SyntaxError: missing ) in parenthetical

tryItOut 941
Compiling threw: SyntaxError: missing { before function body

tryItOut 942

tryItOut 943

tryItOut 944

tryItOut 945

tryItOut 946
It's an iterator!
Iterating succeeded, iterCount == 1

tryItOut 947
Compiling threw: SyntaxError: missing { before function body

tryItOut 948
Running threw: ReferenceError: __noSuchMethod__ is not defined

tryItOut 949
Running threw: 

tryItOut 950

tryItOut 951
Compiling threw: SyntaxError: syntax error

tryItOut 952
It's an iterator!
Iterating succeeded, iterCount == 1

tryItOut 953
It's an iterator!
Iterating succeeded, iterCount == 1

tryItOut 954

tryItOut 955
Running threw: 

tryItOut 956

tryItOut 957
It's an iterator!
Iterating succeeded, iterCount == 1

tryItOut 958

tryItOut 959
Compiling threw: SyntaxError: invalid for/in left-hand side

tryItOut 960

tryItOut 961

tryItOut 962
Compiling threw: SyntaxError: invalid XML tag syntax

tryItOut 963
Compiling threw: SyntaxError: missing ) in parenthetical

tryItOut 964
before 226720, after 226720, break 013c7000

tryItOut 965

tryItOut 966

tryItOut 967
Running threw: TypeError: [15, 16, 17, 18].sort(<x/>, true) is not a function

tryItOut 968
Compiling threw: SyntaxError: invalid assignment left-hand side

tryItOut 969
before 226720, after 226720, break 013c7000

tryItOut 970
before 226720, after 226720, break 013c7000

tryItOut 971
Compiling threw: SyntaxError: missing variable name

tryItOut 972

tryItOut 973
Compiling threw: SyntaxError: missing ) in parenthetical

tryItOut 974

tryItOut 975
before 226720, after 226720, break 013c7000

tryItOut 976
before 226720, after 226720, break 013c7000
Running threw: null

tryItOut 977
Compiling threw: SyntaxError: invalid assignment left-hand side

tryItOut 978
Compiling threw: SyntaxError: unterminated string literal

tryItOut 979
Compiling threw: SyntaxError: invalid decrement operand

tryItOut 980
Compiling threw: TypeError: redeclaration of variable constructor

tryItOut 981

tryItOut 982

tryItOut 983
Compiling threw: SyntaxError: invalid assignment left-hand side

tryItOut 984
Compiling threw: SyntaxError: missing ) in parenthetical

tryItOut 985
Compiling threw: SyntaxError: missing name after . operator

tryItOut 986

tryItOut 987
It's an iterator!
Iterating threw!
Iterating threw: TypeError: prototype has no properties

tryItOut 988

tryItOut 989

tryItOut 990

tryItOut 991

tryItOut 992
Compiling threw: SyntaxError: missing ; before statement

tryItOut 993
Compiling threw: SyntaxError: missing ; before statement

tryItOut 994
It's an iterator!
Iterating threw!
Iterating threw: TypeError: prop is not a function

tryItOut 995
Compiling threw: SyntaxError: missing ; before statement

tryItOut 996
It's an iterator!
Iterating threw!
Iterating threw: TypeError: null has no properties

tryItOut 997
Compiling threw: SyntaxError: invalid for/in left-hand side

tryItOut 998

tryItOut 999
Running threw: [object StopIteration]

tryItOut 1000

ALL OK

Script done on Sat 04 May 2013 05:12:55 AM PDT
