Script started on Sat 04 May 2013 05:12:44 AM PDT
***
Targeting SpiderMonkey / Gecko.

tryItOut 1

tryItOut 2
Compiling threw: SyntaxError: duplicate label

tryItOut 3
Running threw: ReferenceError: __iterator__ is not defined

tryItOut 4

tryItOut 5
Running threw: ReferenceError: reference to undefined XML name *

tryItOut 6
Compiling threw: SyntaxError: missing ; before statement

tryItOut 7
Compiling threw: SyntaxError: invalid property id

tryItOut 8

tryItOut 9
Running threw: ReferenceError: z1 is not defined

tryItOut 10

tryItOut 11
Compiling threw: SyntaxError: missing ) in parenthetical

tryItOut 12
Compiling threw: SyntaxError: missing ] after element list

tryItOut 13
Compiling threw: SyntaxError: missing { before function body

tryItOut 14
Compiling threw: SyntaxError: invalid property id

tryItOut 15
Compiling threw: SyntaxError: missing ) in parenthetical

tryItOut 16
Compiling threw: SyntaxError: missing { before function body

tryItOut 17
Running threw: ReferenceError: prop is not defined

tryItOut 18
Compiling threw: SyntaxError: invalid destructuring assignment operator

tryItOut 19

tryItOut 20
Running threw: ReferenceError: reference to undefined XML name *

tryItOut 21
Running threw: [object StopIteration]

tryItOut 22
Running threw: ReferenceError: reference to undefined XML name *

tryItOut 23
Compiling threw: TypeError: redeclaration of const constructor

tryItOut 24

tryItOut 25

tryItOut 26
Running threw: TypeError: this.zzz has no properties

tryItOut 27
Compiling threw: TypeError: generator function anonymous returns a value

tryItOut 28
Running threw: ReferenceError: reference to undefined XML name *

tryItOut 29
Running threw: ReferenceError: reference to undefined XML name @foo

tryItOut 30
Running threw: ReferenceError: __iterator__ is not defined

tryItOut 31
Compiling threw: SyntaxError: invalid assignment left-hand side

tryItOut 32
Compiling threw: SyntaxError: invalid for/in left-hand side

tryItOut 33
Compiling threw: SyntaxError: missing ) in parenthetical

tryItOut 34
Running threw: ReferenceError: __noSuchMethod__ is not defined

tryItOut 35
Compiling threw: SyntaxError: missing { before function body

tryItOut 36
Compiling threw: SyntaxError: missing ; after for-loop initializer

tryItOut 37

tryItOut 38
Running threw: ReferenceError: reference to undefined XML name *

tryItOut 39

tryItOut 40
Compiling threw: SyntaxError: missing variable name

tryItOut 41
Running threw: ReferenceError: z1 is not defined

tryItOut 42
Compiling threw: SyntaxError: missing variable name

tryItOut 43

tryItOut 44

tryItOut 45
Compiling threw: SyntaxError: missing ; after for-loop initializer

tryItOut 46

tryItOut 47

tryItOut 48
Running threw: ReferenceError: __iterator__ is not defined

tryItOut 49
Running threw: [object StopIteration]

tryItOut 50
Running threw: ReferenceError: reference to undefined XML name *::*

tryItOut 51
Compiling threw: SyntaxError: missing variable name

tryItOut 52

tryItOut 53

tryItOut 54

tryItOut 55

tryItOut 56

tryItOut 57

tryItOut 58

tryItOut 59
Running threw: ReferenceError: reference to undefined XML name @foo

tryItOut 60
Compiling threw: SyntaxError: missing name in export statement

tryItOut 61

tryItOut 62

tryItOut 63

tryItOut 64
Compiling threw: SyntaxError: invalid assignment left-hand side

tryItOut 65

tryItOut 66

tryItOut 67

tryItOut 68
Running threw: ReferenceError: reference to undefined XML name @foo

tryItOut 69

tryItOut 70

tryItOut 71

tryItOut 72

tryItOut 73
Compiling threw: SyntaxError: missing variable name

tryItOut 74
Compiling threw: SyntaxError: missing ; after for-loop initializer

tryItOut 75

tryItOut 76
Running threw: ReferenceError: __iterator__ is not defined

tryItOut 77

tryItOut 78

tryItOut 79
Compiling threw: SyntaxError: invalid property id

tryItOut 80

tryItOut 81
Compiling threw: SyntaxError: invalid for/in left-hand side

tryItOut 82
Running threw: ReferenceError: __proto__throw is not defined

tryItOut 83

tryItOut 84

tryItOut 85
Running threw: [object Object]

tryItOut 86
Running threw: ReferenceError: setter is not defined

tryItOut 87

tryItOut 88
Running threw: ReferenceError: reference to undefined XML name *::*

tryItOut 89
Running threw: ReferenceError: reference to undefined XML name @foo

tryItOut 90

tryItOut 91

tryItOut 92
Running threw: TypeError: this.zzz has no properties

tryItOut 93
Running threw: ReferenceError: z1 is not defined

tryItOut 94

tryItOut 95
Compiling threw: SyntaxError: missing { before function body

tryItOut 96
Compiling threw: SyntaxError: invalid for/in left-hand side

tryItOut 97

tryItOut 98
Compiling threw: SyntaxError: syntax error

tryItOut 99

tryItOut 100

tryItOut 101
Compiling threw: SyntaxError: invalid assignment left-hand side

tryItOut 102

tryItOut 103

tryItOut 104
Running threw: ReferenceError: reference to undefined XML name *::*

tryItOut 105
Running threw: ReferenceError: __iterator__ is not defined

tryItOut 106
Compiling threw: SyntaxError: invalid for/in left-hand side

tryItOut 107
Running threw: TypeError: [[1]] is not a constructor

tryItOut 108

tryItOut 109
Compiling threw: SyntaxError: invalid for each loop

tryItOut 110

tryItOut 111
Compiling threw: SyntaxError: invalid for/in left-hand side

tryItOut 112

tryItOut 113
Compiling threw: SyntaxError: illegal XML character

tryItOut 114

tryItOut 115

tryItOut 116

tryItOut 117
Running threw: 0

tryItOut 118

tryItOut 119
Compiling threw: SyntaxError: missing ) after condition

tryItOut 120

tryItOut 121
Compiling threw: SyntaxError: invalid assignment left-hand side

tryItOut 122
Compiling threw: SyntaxError: missing : after property id

tryItOut 123
Compiling threw: SyntaxError: syntax error

tryItOut 124
Compiling threw: SyntaxError: missing : after property id

tryItOut 125

tryItOut 126
Compiling threw: SyntaxError: missing ; before statement

tryItOut 127

tryItOut 128

tryItOut 129

tryItOut 130
Compiling threw: SyntaxError: syntax error

tryItOut 131

tryItOut 132

tryItOut 133
Compiling threw: SyntaxError: invalid assignment left-hand side

tryItOut 134
Compiling threw: SyntaxError: invalid for/in left-hand side

tryItOut 135

tryItOut 136

tryItOut 137

tryItOut 138
Compiling threw: SyntaxError: missing : after case label

tryItOut 139
Compiling threw: SyntaxError: syntax error

tryItOut 140
Compiling threw: SyntaxError: missing ) in parenthetical

tryItOut 141

tryItOut 142
Running threw: ReferenceError: reference to undefined XML name *

tryItOut 143

tryItOut 144
Compiling threw: SyntaxError: missing ] after element list

tryItOut 145

tryItOut 146
Compiling threw: SyntaxError: syntax error

tryItOut 147

tryItOut 148
Compiling threw: SyntaxError: syntax error

tryItOut 149
Compiling threw: SyntaxError: invalid assignment left-hand side

tryItOut 150
Running threw: [object Object]

tryItOut 151
Compiling threw: SyntaxError: invalid assignment left-hand side

tryItOut 152

tryItOut 153
Running threw: TypeError: this.zzz has no properties

tryItOut 154
Running threw: ReferenceError: reference to undefined XML name *

tryItOut 155

tryItOut 156

tryItOut 157
Compiling threw: SyntaxError: missing ) in parenthetical

tryItOut 158

tryItOut 159

tryItOut 160
Compiling threw: SyntaxError: invalid assignment left-hand side

tryItOut 161

tryItOut 162
Running threw: 

tryItOut 163

tryItOut 164
Compiling threw: SyntaxError: missing ; after for-loop initializer

tryItOut 165
Compiling threw: SyntaxError: missing } after property list

tryItOut 166

tryItOut 167
Running threw: ReferenceError: reference to undefined XML name @foo

tryItOut 168
Compiling threw: SyntaxError: missing : after property id

tryItOut 169

tryItOut 170

tryItOut 171

tryItOut 172

tryItOut 173
Compiling threw: SyntaxError: invalid assignment left-hand side

tryItOut 174
Compiling threw: SyntaxError: invalid destructuring assignment operator

tryItOut 175

tryItOut 176

tryItOut 177
Compiling threw: SyntaxError: missing formal parameter

tryItOut 178
Running threw: <x>
  <y/>
</x>

tryItOut 179

tryItOut 180
Compiling threw: SyntaxError: missing ] after element list

tryItOut 181

tryItOut 182
Running threw: ReferenceError: __count__ is not defined

tryItOut 183

tryItOut 184
Compiling threw: SyntaxError: syntax error

tryItOut 185
Compiling threw: SyntaxError: invalid for/in left-hand side

tryItOut 186

tryItOut 187

tryItOut 188

tryItOut 189
It's an iterator!
Iterating succeeded, iterCount == 1

tryItOut 190
Running threw: TypeError: this.zzz has no properties

tryItOut 191
Compiling threw: SyntaxError: invalid for/in left-hand side

tryItOut 192
Compiling threw: SyntaxError: illegal XML character

tryItOut 193
Compiling threw: SyntaxError: syntax error

tryItOut 194
Running threw: ReferenceError: __noSuchMethod__ is not defined

tryItOut 195
Compiling threw: SyntaxError: missing ; before statement

tryItOut 196
Running threw: <x>
  <y/>
</x>

tryItOut 197
Compiling threw: SyntaxError: invalid assignment left-hand side

tryItOut 198

tryItOut 199

tryItOut 200
Running threw: ReferenceError: reference to undefined XML name *::*

tryItOut 201
Compiling threw: SyntaxError: syntax error

tryItOut 202

tryItOut 203
Running threw: <y>
  <z/>
</y>

tryItOut 204

tryItOut 205
Compiling threw: SyntaxError: missing ) after switch expression

tryItOut 206
Compiling threw: SyntaxError: missing { before function body

tryItOut 207

tryItOut 208

tryItOut 209

tryItOut 210
Running threw: [object Object]

tryItOut 211
Compiling threw: SyntaxError: missing : after property id

tryItOut 212
Compiling threw: SyntaxError: missing ) in parenthetical

tryItOut 213
Running threw: ReferenceError: __count__ is not defined

tryItOut 214

tryItOut 215

tryItOut 216
Running threw: SyntaxError: invalid setter usage

tryItOut 217
Running threw: false

tryItOut 218

tryItOut 219

tryItOut 220
Compiling threw: SyntaxError: missing ; before statement

tryItOut 221
Compiling threw: SyntaxError: invalid destructuring assignment operator

tryItOut 222
Compiling threw: SyntaxError: missing { before function body

tryItOut 223

tryItOut 224
Compiling threw: SyntaxError: syntax error

tryItOut 225
Compiling threw: SyntaxError: invalid for/in left-hand side

tryItOut 226

tryItOut 227
Running threw: TypeError: arguments[0] has no properties

tryItOut 228

tryItOut 229
Compiling threw: TypeError: redeclaration of variable __count__

tryItOut 230

tryItOut 231
Running threw: ReferenceError: z2 is not defined

tryItOut 232
Running threw: TypeError: this.__defineGetter__ is not a function

tryItOut 233
Compiling threw: SyntaxError: missing ) after condition

tryItOut 234
Compiling threw: SyntaxError: illegal XML character

tryItOut 235

tryItOut 236
Compiling threw: SyntaxError: syntax error

tryItOut 237
Compiling threw: SyntaxError: missing variable name

tryItOut 238

tryItOut 239

tryItOut 240

tryItOut 241

tryItOut 242

tryItOut 243

tryItOut 244
Compiling threw: SyntaxError: invalid for/in left-hand side

tryItOut 245
Running threw: 1e+81

tryItOut 246
Running threw: TypeError: this.__defineGetter__ is not a function

tryItOut 247

tryItOut 248

tryItOut 249
Compiling threw: SyntaxError: invalid assignment left-hand side

tryItOut 250
Compiling threw: SyntaxError: invalid XML name

tryItOut 251
Running threw: ReferenceError: __proto__ is not defined

tryItOut 252

tryItOut 253
Running threw: ReferenceError: __count__ is not defined

tryItOut 254

tryItOut 255

tryItOut 256
Compiling threw: SyntaxError: missing = in destructuring declaration

tryItOut 257

tryItOut 258
Running threw: ReferenceError: reference to undefined XML name *::*

tryItOut 259

tryItOut 260
Compiling threw: TypeError: redeclaration of variable __proto__

tryItOut 261
Compiling threw: SyntaxError: invalid for/in left-hand side

tryItOut 262
Running threw: ReferenceError: reference to undefined XML name *::*

tryItOut 263

tryItOut 264

tryItOut 265
Compiling threw: SyntaxError: invalid assignment left-hand side

tryItOut 266
Running threw: ReferenceError: reference to undefined XML name @foo

tryItOut 267
Running threw: function ([y]) {
}

tryItOut 268

tryItOut 269
Compiling threw: SyntaxError: invalid assignment left-hand side

tryItOut 270
Compiling threw: SyntaxError: missing variable name

tryItOut 271
Running threw: ReferenceError: __parent__ is not defined

tryItOut 272
Running threw: ReferenceError: __count__ is not defined

tryItOut 273
Compiling threw: SyntaxError: missing variable name

tryItOut 274

tryItOut 275
Compiling threw: SyntaxError: missing ] after element list

tryItOut 276

tryItOut 277

tryItOut 278
Running threw: ReferenceError: reference to undefined XML name *::*

tryItOut 279
Compiling threw: SyntaxError: syntax error

tryItOut 280
Compiling threw: SyntaxError: invalid for/in left-hand side

tryItOut 281

tryItOut 282

tryItOut 283

tryItOut 284

tryItOut 285
Compiling threw: SyntaxError: syntax error

tryItOut 286
Compiling threw: SyntaxError: missing ) in parenthetical

tryItOut 287

tryItOut 288

tryItOut 289

tryItOut 290
Running threw: 1e-81

tryItOut 291
Compiling threw: SyntaxError: invalid decrement operand

tryItOut 292

tryItOut 293
Compiling threw: SyntaxError: syntax error

tryItOut 294
Running threw: ReferenceError: reference to undefined XML name *::*

tryItOut 295

tryItOut 296

tryItOut 297
Compiling threw: SyntaxError: invalid for/in left-hand side

tryItOut 298

tryItOut 299

tryItOut 300

tryItOut 301

tryItOut 302
Running threw: 

tryItOut 303

tryItOut 304

tryItOut 305
Running threw: 

tryItOut 306
Running threw: null

tryItOut 307
Running threw: 27

tryItOut 308

tryItOut 309
Running threw: TypeError: prototype is not a function

tryItOut 310
Running threw: 

tryItOut 311
Compiling threw: TypeError: redeclaration of const prototype

tryItOut 312

tryItOut 313
Running threw: ReferenceError: z1 is not defined

tryItOut 314

tryItOut 315
Compiling threw: SyntaxError: invalid for/in left-hand side

tryItOut 316
Compiling threw: SyntaxError: missing { before function body

tryItOut 317
Compiling threw: SyntaxError: syntax error

tryItOut 318

tryItOut 319

tryItOut 320
Compiling threw: SyntaxError: invalid assignment left-hand side

tryItOut 321

tryItOut 322

tryItOut 323
Compiling threw: SyntaxError: missing { before function body

tryItOut 324
Compiling threw: SyntaxError: invalid assignment left-hand side

tryItOut 325
Compiling threw: SyntaxError: missing ] after element list

tryItOut 326
Running threw: TypeError: <x/> is not a constructor

tryItOut 327
Running threw: TypeError: this.__defineGetter__ is not a function

tryItOut 328
Running threw: ReferenceError: reference to undefined XML name @foo

tryItOut 329

tryItOut 330

tryItOut 331
Compiling threw: SyntaxError: missing ] after element list

tryItOut 332

tryItOut 333
Running threw: TypeError: this.zzz has no properties

tryItOut 334

tryItOut 335

tryItOut 336
Compiling threw: SyntaxError: invalid for/in left-hand side

tryItOut 337

tryItOut 338
Compiling threw: SyntaxError: syntax error

tryItOut 339
Compiling threw: SyntaxError: missing ; after for-loop initializer

tryItOut 340
Compiling threw: SyntaxError: invalid assignment left-hand side

tryItOut 341
Compiling threw: SyntaxError: missing ) in parenthetical

tryItOut 342

tryItOut 343

tryItOut 344
Running threw: ReferenceError: reference to undefined XML name *::*

tryItOut 345

tryItOut 346
Compiling threw: SyntaxError: missing { before function body

tryItOut 347
Running threw: ReferenceError: reference to undefined XML name *

tryItOut 348
Running threw: ReferenceError: reference to undefined XML name *

tryItOut 349

tryItOut 350

tryItOut 351

tryItOut 352
Running threw: ReferenceError: reference to undefined XML name @foo

tryItOut 353
Compiling threw: SyntaxError: invalid assignment left-hand side

tryItOut 354
Compiling threw: SyntaxError: syntax error

tryItOut 355

tryItOut 356
Running threw: ReferenceError: __parent__ is not defined

tryItOut 357

tryItOut 358
Compiling threw: SyntaxError: invalid property id

tryItOut 359
Running threw: TypeError: undefined has no properties

tryItOut 360

tryItOut 361
Running threw: ReferenceError: reference to undefined XML name *

tryItOut 362

tryItOut 363

tryItOut 364
Running threw: TypeError: redeclaration of const prop

tryItOut 365
Running threw: TypeError: <y><z/></y>['throw'] is not a function

tryItOut 366
Running threw: TypeError: 1.3 is not a function

tryItOut 367
Compiling threw: SyntaxError: missing variable name

tryItOut 368

tryItOut 369

tryItOut 370
Compiling threw: SyntaxError: syntax error

tryItOut 371

tryItOut 372
Compiling threw: SyntaxError: invalid for/in left-hand side

tryItOut 373

tryItOut 374

tryItOut 375
Running threw: ReferenceError: __count__ is not defined

tryItOut 376
Compiling threw: SyntaxError: syntax error

tryItOut 377
It's an iterator!
Iterating succeeded, iterCount == 0

tryItOut 378
Compiling threw: SyntaxError: invalid for/in left-hand side

tryItOut 379

tryItOut 380
Compiling threw: SyntaxError: missing variable name

tryItOut 381
Compiling threw: SyntaxError: syntax error

tryItOut 382
Compiling threw: SyntaxError: invalid assignment left-hand side

tryItOut 383
Compiling threw: SyntaxError: invalid for each loop

tryItOut 384
Running threw: ReferenceError: __noSuchMethod__ is not defined

tryItOut 385
Compiling threw: SyntaxError: duplicate label

tryItOut 386
Running threw: TypeError: this.zzz has no properties

tryItOut 387
Compiling threw: SyntaxError: invalid for/in left-hand side

tryItOut 388

tryItOut 389
Compiling threw: SyntaxError: missing { before function body

tryItOut 390

tryItOut 391
Compiling threw: SyntaxError: missing ) in parenthetical

tryItOut 392
Running threw: ReferenceError: __parent__ is not defined

tryItOut 393

tryItOut 394
Compiling threw: SyntaxError: missing name after . operator

tryItOut 395

tryItOut 396

tryItOut 397
Compiling threw: SyntaxError: missing ] after element list

tryItOut 398
Compiling threw: SyntaxError: duplicate label

tryItOut 399
Compiling threw: SyntaxError: invalid assignment left-hand side

tryItOut 400
Running threw: TypeError: this.zzz has no properties

tryItOut 401

tryItOut 402

tryItOut 403
Compiling threw: SyntaxError: syntax error

tryItOut 404

tryItOut 405
Compiling threw: SyntaxError: invalid for/in left-hand side

tryItOut 406
Compiling threw: SyntaxError: missing ] after element list

tryItOut 407
Running threw: [object StopIteration]

tryItOut 408

tryItOut 409

tryItOut 410

tryItOut 411

tryItOut 412

tryItOut 413
Compiling threw: SyntaxError: missing ) in parenthetical

tryItOut 414
Running threw: ReferenceError: reference to undefined XML name @foo

tryItOut 415
Compiling threw: SyntaxError: missing ) in parenthetical

tryItOut 416

tryItOut 417

tryItOut 418
Compiling threw: SyntaxError: invalid increment operand

tryItOut 419
Compiling threw: SyntaxError: missing = in destructuring declaration

tryItOut 420
It's an iterator!
Iterating threw!
Iterating threw: ReferenceError: set is not defined

tryItOut 421
Compiling threw: SyntaxError: missing variable name

tryItOut 422
Compiling threw: SyntaxError: invalid destructuring assignment operator

tryItOut 423
Running threw: <y>
  <z/>
</y>

tryItOut 424

tryItOut 425

tryItOut 426

tryItOut 427
Compiling threw: SyntaxError: duplicate label

tryItOut 428

tryItOut 429

tryItOut 430
Compiling threw: SyntaxError: missing { before function body

tryItOut 431
Running threw: ReferenceError: reference to undefined XML name @foo

tryItOut 432
Running threw: [object StopIteration]

tryItOut 433

tryItOut 434
Running threw: ReferenceError: z1 is not defined

tryItOut 435
Compiling threw: SyntaxError: missing ; before statement

tryItOut 436
Compiling threw: SyntaxError: missing variable name

tryItOut 437

tryItOut 438

tryItOut 439

tryItOut 440

tryItOut 441
Running threw: TypeError: this.zzz has no properties

tryItOut 442
Running threw: TypeError: this.zzz has no properties

tryItOut 443
Compiling threw: SyntaxError: missing { before function body

tryItOut 444

tryItOut 445

tryItOut 446
Compiling threw: SyntaxError: invalid for/in left-hand side

tryItOut 447

tryItOut 448

tryItOut 449

tryItOut 450

tryItOut 451
Compiling threw: SyntaxError: syntax error

tryItOut 452
Compiling threw: SyntaxError: missing catch or finally after try

tryItOut 453
Compiling threw: SyntaxError: missing } in XML expression

tryItOut 454
Compiling threw: SyntaxError: missing ) after condition

tryItOut 455

tryItOut 456
Compiling threw: SyntaxError: missing : after property id

tryItOut 457
Compiling threw: SyntaxError: illegal XML character

tryItOut 458

tryItOut 459

tryItOut 460

tryItOut 461
Running threw: ReferenceError: reference to undefined XML name @foo

tryItOut 462

tryItOut 463

tryItOut 464

tryItOut 465
Compiling threw: SyntaxError: missing { before function body

tryItOut 466

tryItOut 467
Compiling threw: SyntaxError: invalid assignment left-hand side

tryItOut 468
Running threw: TypeError: this.zzz has no properties

tryItOut 469
Compiling threw: SyntaxError: missing } after property list

tryItOut 470

tryItOut 471

tryItOut 472

tryItOut 473

tryItOut 474

tryItOut 475

tryItOut 476

tryItOut 477
Running threw: TypeError: this.zzz has no properties

tryItOut 478
Running threw: 0.2

tryItOut 479

tryItOut 480

tryItOut 481

tryItOut 482
Running threw: ReferenceError: reference to undefined XML name @foo

tryItOut 483

tryItOut 484
Compiling threw: SyntaxError: missing ) after condition

tryItOut 485
Running threw: TypeError: this.zzz has no properties

tryItOut 486
Running threw: false

tryItOut 487
Compiling threw: SyntaxError: missing ) in parenthetical

tryItOut 488

tryItOut 489
Running threw: TypeError: (1.3)['throw'] is not a function

tryItOut 490
Compiling threw: SyntaxError: invalid assignment left-hand side

tryItOut 491
Running threw: TypeError: this.zzz has no properties

tryItOut 492

tryItOut 493

tryItOut 494
Compiling threw: SyntaxError: missing ; after for-loop initializer

tryItOut 495

tryItOut 496
Running threw: ReferenceError: reference to undefined XML name *

tryItOut 497

tryItOut 498
Compiling threw: SyntaxError: missing : after property id

tryItOut 499
Compiling threw: SyntaxError: invalid for/in left-hand side

tryItOut 500
Running threw: TypeError: this.zzz has no properties

tryItOut 501
Running threw: [object StopIteration]

tryItOut 502

tryItOut 503

tryItOut 504

tryItOut 505

tryItOut 506

tryItOut 507
Running threw: [object StopIteration]

tryItOut 508
Compiling threw: SyntaxError: missing { before function body

tryItOut 509

tryItOut 510
Compiling threw: SyntaxError: missing ) in parenthetical

tryItOut 511

tryItOut 512

tryItOut 513

tryItOut 514

tryItOut 515

tryItOut 516

tryItOut 517
Compiling threw: SyntaxError: syntax error

tryItOut 518
Compiling threw: SyntaxError: invalid for/in left-hand side

tryItOut 519

tryItOut 520
Compiling threw: SyntaxError: catch without try

tryItOut 521

tryItOut 522

tryItOut 523
Compiling threw: SyntaxError: invalid for/in left-hand side

tryItOut 524
Compiling threw: SyntaxError: syntax error

tryItOut 525
Compiling threw: SyntaxError: invalid for/in left-hand side

tryItOut 526

tryItOut 527
Running threw: -1

tryItOut 528

tryItOut 529
Running threw: ReferenceError: z1 is not defined

tryItOut 530
Compiling threw: SyntaxError: invalid decrement operand

tryItOut 531

tryItOut 532

tryItOut 533

tryItOut 534

tryItOut 535
Compiling threw: SyntaxError: syntax error

tryItOut 536

tryItOut 537

tryItOut 538
Running threw: TypeError: null has no properties

tryItOut 539
Running threw: ReferenceError: reference to undefined XML name @foo

tryItOut 540
Compiling threw: SyntaxError: invalid increment operand

tryItOut 541
Running threw: SyntaxError: invalid assignment left-hand side

tryItOut 542

tryItOut 543

tryItOut 544
Running threw: ReferenceError: reference to undefined XML name *

tryItOut 545
Running threw: ReferenceError: constructor__proto__ is not defined

tryItOut 546
Compiling threw: SyntaxError: missing variable name

tryItOut 547

tryItOut 548

tryItOut 549
Running threw: ReferenceError: z2 is not defined

tryItOut 550

tryItOut 551
It's an iterator!
Iterating threw!
Iterating threw: undefined

tryItOut 552
Running threw: ReferenceError: reference to undefined XML name *

tryItOut 553
Compiling threw: SyntaxError: invalid for each loop

tryItOut 554

tryItOut 555

tryItOut 556
Compiling threw: SyntaxError: missing ( before let head

tryItOut 557

tryItOut 558
Running threw: TypeError: __proto__ has no properties

tryItOut 559
Compiling threw: SyntaxError: missing ; before statement

tryItOut 560

tryItOut 561

tryItOut 562

tryItOut 563
Running threw: ReferenceError: reference to undefined XML name *::*

tryItOut 564

tryItOut 565
Compiling threw: SyntaxError: missing ) in parenthetical

tryItOut 566
Compiling threw: SyntaxError: missing ) in parenthetical

tryItOut 567
Compiling threw: SyntaxError: missing : after property id

tryItOut 568
Running threw: TypeError: this.zzz has no properties

tryItOut 569
Compiling threw: SyntaxError: missing ) in parenthetical

tryItOut 570

tryItOut 571
Compiling threw: SyntaxError: syntax error

tryItOut 572
Running threw: TypeError: this.zzz has no properties

tryItOut 573
Compiling threw: SyntaxError: duplicate label

tryItOut 574

tryItOut 575

tryItOut 576
Compiling threw: TypeError: anonymous generator function returns a value

tryItOut 577

tryItOut 578
Compiling threw: SyntaxError: missing ) in parenthetical

tryItOut 579
Compiling threw: SyntaxError: invalid for/in left-hand side

tryItOut 580
Compiling threw: SyntaxError: missing ) in parenthetical

tryItOut 581
Compiling threw: SyntaxError: syntax error

tryItOut 582

tryItOut 583
Compiling threw: SyntaxError: syntax error

tryItOut 584

tryItOut 585

tryItOut 586
Running threw: ReferenceError: reference to undefined XML name *::*

tryItOut 587
It's an iterator!
Iterating succeeded, iterCount == 1

tryItOut 588

tryItOut 589

tryItOut 590

tryItOut 591
Running threw: ReferenceError: yyy is not defined

tryItOut 592

tryItOut 593
Compiling threw: SyntaxError: missing variable name

tryItOut 594
Running threw: ReferenceError: z1 is not defined

tryItOut 595
Compiling threw: SyntaxError: missing variable name

tryItOut 596

tryItOut 597

tryItOut 598
Compiling threw: SyntaxError: missing variable name

tryItOut 599
Running threw: ReferenceError: reference to undefined XML name *::*

tryItOut 600
Compiling threw: SyntaxError: unterminated regular expression literal

tryItOut 601

tryItOut 602
Running threw: ReferenceError: reference to undefined XML name @foo

tryItOut 603
Running threw: TypeError: <y>
  <z/>
</y>
<x/> is not a function

tryItOut 604

tryItOut 605
Compiling threw: SyntaxError: syntax error

tryItOut 606
Running threw: <x>
  <y/>
</x>

tryItOut 607
Compiling threw: SyntaxError: yield expression must be parenthesized

tryItOut 608
Compiling threw: SyntaxError: missing ; before statement

tryItOut 609
Running threw: ReferenceError: reference to undefined XML name *::*

tryItOut 610
Compiling threw: SyntaxError: invalid assignment left-hand side

tryItOut 611
Running threw: [object StopIteration]

tryItOut 612
Running threw: <y>
  <z/>
</y>

tryItOut 613
Compiling threw: SyntaxError: unterminated parenthetical

tryItOut 614
Compiling threw: SyntaxError: missing variable name

tryItOut 615
Compiling threw: SyntaxError: illegal XML character

tryItOut 616
Running threw: ReferenceError: reference to undefined XML name *::*

tryItOut 617
Running threw: Can't toString the error!!

tryItOut 618
Compiling threw: TypeError: generator function anonymous returns a value

tryItOut 619
Running threw: ReferenceError: z1 is not defined

tryItOut 620
Compiling threw: SyntaxError: invalid assignment left-hand side

tryItOut 621
Compiling threw: SyntaxError: missing ] after element list

tryItOut 622

tryItOut 623
Compiling threw: SyntaxError: missing { before function body

tryItOut 624
Compiling threw: SyntaxError: missing ; after for-loop initializer

tryItOut 625
Running threw: TypeError: this.zzz has no properties

tryItOut 626

tryItOut 627
Running threw: ReferenceError: reference to undefined XML name *

tryItOut 628
Running threw: [object StopIteration]

tryItOut 629
Compiling threw: SyntaxError: invalid assignment left-hand side

tryItOut 630
Compiling threw: SyntaxError: missing { before function body

tryItOut 631

tryItOut 632

tryItOut 633
Compiling threw: SyntaxError: invalid assignment left-hand side

tryItOut 634

tryItOut 635
Compiling threw: SyntaxError: invalid destructuring assignment operator

tryItOut 636
Running threw: [object StopIteration]

tryItOut 637
Running threw: ReferenceError: reference to undefined XML name *::*

tryItOut 638

tryItOut 639
Running threw: TypeError: this.zzz has no properties

tryItOut 640
Running threw: [object StopIteration]

tryItOut 641

tryItOut 642

tryItOut 643
Compiling threw: SyntaxError: missing { before function body

tryItOut 644

tryItOut 645

tryItOut 646
Compiling threw: SyntaxError: missing ; after for-loop initializer

tryItOut 647

tryItOut 648

tryItOut 649

tryItOut 650

tryItOut 651
Running threw: ReferenceError: reference to undefined XML name @foo

tryItOut 652
Compiling threw: SyntaxError: missing ( before let head

tryItOut 653

tryItOut 654

tryItOut 655
Compiling threw: SyntaxError: missing ; after for-loop initializer

tryItOut 656
Compiling threw: SyntaxError: duplicate label

tryItOut 657
Compiling threw: SyntaxError: missing ] after element list

tryItOut 658
Running threw: TypeError: this.zzz has no properties

tryItOut 659
Running threw: false

tryItOut 660
Running threw: ReferenceError: reference to undefined XML name @foo

tryItOut 661

tryItOut 662
Compiling threw: SyntaxError: invalid property id

tryItOut 663
Compiling threw: SyntaxError: missing : after property id

tryItOut 664
Running threw: TypeError: this.zzz has no properties

tryItOut 665

tryItOut 666
Running threw: ReferenceError: reference to undefined XML name @foo

tryItOut 667
Running threw: 4

tryItOut 668

tryItOut 669
Compiling threw: SyntaxError: invalid for/in left-hand side

tryItOut 670

tryItOut 671

tryItOut 672

tryItOut 673

tryItOut 674

tryItOut 675
Compiling threw: TypeError: generator function anonymous returns a value

tryItOut 676
Compiling threw: SyntaxError: missing : after property id

tryItOut 677

tryItOut 678

tryItOut 679

tryItOut 680

tryItOut 681
Compiling threw: SyntaxError: missing ) in parenthetical

tryItOut 682

tryItOut 683
Compiling threw: SyntaxError: syntax error

tryItOut 684
Compiling threw: SyntaxError: missing ) after condition

tryItOut 685
Compiling threw: SyntaxError: invalid destructuring assignment operator

tryItOut 686

tryItOut 687

tryItOut 688

tryItOut 689

tryItOut 690
Compiling threw: SyntaxError: invalid increment operand

tryItOut 691

tryItOut 692

tryItOut 693
Running threw: ReferenceError: reference to undefined XML name *::*

tryItOut 694
Compiling threw: SyntaxError: invalid assignment left-hand side

tryItOut 695
Running threw: TypeError: this.zzz has no properties

tryItOut 696
Compiling threw: SyntaxError: missing variable name

tryItOut 697
Compiling threw: SyntaxError: syntax error

tryItOut 698
Compiling threw: TypeError: anonymous generator function returns a value

tryItOut 699
Running threw: TypeError: <x><y/></x>.(__count__).__lookupGetter__("__iterator__") has no properties

tryItOut 700
Compiling threw: SyntaxError: invalid increment operand

tryItOut 701
Compiling threw: SyntaxError: syntax error

tryItOut 702
Compiling threw: SyntaxError: invalid assignment left-hand side

tryItOut 703
Running threw: true

tryItOut 704
Compiling threw: TypeError: redeclaration of variable prototype

tryItOut 705

tryItOut 706

tryItOut 707
Compiling threw: SyntaxError: missing { before function body

tryItOut 708

tryItOut 709
Running threw: ReferenceError: reference to undefined XML name @foo

tryItOut 710

tryItOut 711

tryItOut 712
Compiling threw: SyntaxError: invalid for each loop

tryItOut 713
Compiling threw: SyntaxError: missing ) after switch expression

tryItOut 714
Compiling threw: SyntaxError: duplicate label

tryItOut 715

tryItOut 716
Compiling threw: SyntaxError: invalid for/in left-hand side

tryItOut 717
Compiling threw: SyntaxError: missing { before function body

tryItOut 718
Compiling threw: SyntaxError: invalid assignment left-hand side

tryItOut 719
Compiling threw: SyntaxError: duplicate label

tryItOut 720

tryItOut 721

tryItOut 722
Compiling threw: SyntaxError: missing ) after condition

tryItOut 723
uneval returned the string: []

tryItOut 724

tryItOut 725

tryItOut 726

tryItOut 727
Compiling threw: SyntaxError: missing ; after for-loop initializer

tryItOut 728
Running threw: TypeError: __noSuchMethod__ has no properties

tryItOut 729

tryItOut 730

tryItOut 731

tryItOut 732
It's an iterator!
Iterating threw!
Iterating threw: ReferenceError: each is not defined

tryItOut 733
Running threw: [object StopIteration]

tryItOut 734
Compiling threw: SyntaxError: missing ; before statement

tryItOut 735
Running threw: <y>
  <z/>
</y>

tryItOut 736

tryItOut 737
Running threw: ReferenceError: reference to undefined XML name *

tryItOut 738

tryItOut 739

tryItOut 740
Running threw: [object StopIteration]

tryItOut 741

tryItOut 742

tryItOut 743

tryItOut 744
Compiling threw: SyntaxError: missing variable name

tryItOut 745
Compiling threw: SyntaxError: missing } after property list

tryItOut 746
Running threw: TypeError: invalid 'in' operand constructor

tryItOut 747
Compiling threw: SyntaxError: invalid for/in left-hand side

tryItOut 748

tryItOut 749

tryItOut 750

tryItOut 751

tryItOut 752
Compiling threw: SyntaxError: missing ( before let head

tryItOut 753

tryItOut 754

tryItOut 755

tryItOut 756
Compiling threw: SyntaxError: missing ) after condition

tryItOut 757

tryItOut 758

tryItOut 759

tryItOut 760

tryItOut 761
Compiling threw: SyntaxError: syntax error

tryItOut 762
Compiling threw: SyntaxError: invalid assignment left-hand side

tryItOut 763

tryItOut 764

tryItOut 765

tryItOut 766

tryItOut 767
Compiling threw: SyntaxError: syntax error

tryItOut 768

tryItOut 769
Running threw: TypeError: [true] is not a constructor

tryItOut 770

tryItOut 771

tryItOut 772
Compiling threw: SyntaxError: syntax error

tryItOut 773

tryItOut 774
Running threw: [object StopIteration]

tryItOut 775
Compiling threw: SyntaxError: syntax error

tryItOut 776

tryItOut 777
Compiling threw: SyntaxError: syntax error

tryItOut 778
Compiling threw: TypeError: redeclaration of var __proto__

tryItOut 779
Compiling threw: SyntaxError: missing ; before statement

tryItOut 780

tryItOut 781

tryItOut 782
Compiling threw: SyntaxError: invalid assignment left-hand side

tryItOut 783

tryItOut 784

tryItOut 785
Compiling threw: SyntaxError: missing variable name

tryItOut 786
Compiling threw: SyntaxError: invalid decrement operand

tryItOut 787

tryItOut 788

tryItOut 789

tryItOut 790
Compiling threw: SyntaxError: syntax error

tryItOut 791

tryItOut 792
Compiling threw: SyntaxError: syntax error

tryItOut 793
Running threw: TypeError: arguments[0] has no properties

tryItOut 794
Compiling threw: SyntaxError: missing ; before statement

tryItOut 795
Compiling threw: SyntaxError: missing ) in parenthetical

tryItOut 796

tryItOut 797
Compiling threw: SyntaxError: missing ) in parenthetical

tryItOut 798

tryItOut 799
Running threw: ReferenceError: reference to undefined XML name *

tryItOut 800
Compiling threw: SyntaxError: missing formal parameter

tryItOut 801

tryItOut 802
Running threw: ReferenceError: reference to undefined XML name *::*

tryItOut 803
Running threw: TypeError: this.__defineGetter__ is not a function

tryItOut 804

tryItOut 805
Running threw: TypeError: this.zzz has no properties

tryItOut 806
Running threw: ReferenceError: reference to undefined XML name *::*

tryItOut 807

tryItOut 808
Compiling threw: SyntaxError: invalid for/in left-hand side

tryItOut 809

tryItOut 810
Running threw: [object StopIteration]

tryItOut 811
Running threw: TypeError: this.zzz has no properties

tryItOut 812

tryItOut 813
Compiling threw: TypeError: generator function anonymous returns a value

tryItOut 814
Running threw: [object StopIteration]

tryItOut 815
Running threw: ReferenceError: reference to undefined XML name *::*

tryItOut 816
Compiling threw: TypeError: redeclaration of variable __parent__

tryItOut 817

tryItOut 818

tryItOut 819

tryItOut 820

tryItOut 821

tryItOut 822
Compiling threw: SyntaxError: missing : after property id

tryItOut 823
Compiling threw: SyntaxError: invalid assignment left-hand side

tryItOut 824

tryItOut 825

tryItOut 826

tryItOut 827
Compiling threw: SyntaxError: invalid for/in left-hand side

tryItOut 828
Compiling threw: SyntaxError: missing ) in parenthetical

tryItOut 829
Compiling threw: SyntaxError: invalid property id

tryItOut 830

tryItOut 831

tryItOut 832

tryItOut 833
Compiling threw: SyntaxError: syntax error

tryItOut 834
Running threw: ReferenceError: reference to undefined XML name *

tryItOut 835
Running threw: Error: invalid sharp variable use #1#

tryItOut 836
Running threw: ReferenceError: reference to undefined XML name *::*

tryItOut 837

tryItOut 838
Compiling threw: SyntaxError: invalid assignment left-hand side

tryItOut 839

tryItOut 840

tryItOut 841

tryItOut 842

tryItOut 843
Compiling threw: SyntaxError: syntax error

tryItOut 844
Compiling threw: SyntaxError: invalid for/in left-hand side

tryItOut 845

tryItOut 846

tryItOut 847
Compiling threw: SyntaxError: missing : after property id

tryItOut 848
Compiling threw: SyntaxError: missing } in compound statement

tryItOut 849

tryItOut 850
Running threw: Error: invalid sharp variable use #1#

tryItOut 851

tryItOut 852

tryItOut 853
Running threw: TypeError: this.zzz has no properties

tryItOut 854
Running threw: [object StopIteration]

tryItOut 855
Running threw: TypeError: this.__defineGetter__ is not a function

tryItOut 856

tryItOut 857
Running threw: ReferenceError: reference to undefined XML name @foo

tryItOut 858

tryItOut 859
Compiling threw: SyntaxError: invalid property id

tryItOut 860

tryItOut 861
Compiling threw: SyntaxError: missing ) after condition

tryItOut 862
Compiling threw: SyntaxError: syntax error

tryItOut 863

tryItOut 864

tryItOut 865

tryItOut 866
It's an iterator!
Iterating succeeded, iterCount == 0

tryItOut 867
Running threw: ReferenceError: reference to undefined XML name @foo

tryItOut 868

tryItOut 869

tryItOut 870
Compiling threw: SyntaxError: missing ] after element list

tryItOut 871

tryItOut 872
Compiling threw: SyntaxError: missing : after property id

tryItOut 873

tryItOut 874
Running threw: ReferenceError: reference to undefined XML name *::*

tryItOut 875
Running threw: ReferenceError: reference to undefined XML name *

tryItOut 876
Compiling threw: SyntaxError: invalid for/in left-hand side

tryItOut 877

tryItOut 878
Compiling threw: SyntaxError: syntax error

tryItOut 879
Compiling threw: SyntaxError: missing ] after element list

tryItOut 880
Running threw: ReferenceError: reference to undefined XML name *

tryItOut 881
Compiling threw: SyntaxError: syntax error

tryItOut 882
Running threw: -Infinity

tryItOut 883

tryItOut 884
Compiling threw: SyntaxError: invalid assignment left-hand side

tryItOut 885
Running threw: ReferenceError: reference to undefined XML name @foo

tryItOut 886
Compiling threw: SyntaxError: missing ; after for-loop initializer

tryItOut 887

tryItOut 888

tryItOut 889
Compiling threw: SyntaxError: syntax error

tryItOut 890
Running threw: TypeError: redeclaration of const __parent__

tryItOut 891
Running threw: TypeError: arguments[0] has no properties

tryItOut 892
Compiling threw: SyntaxError: invalid assignment left-hand side

tryItOut 893
Running threw: [object Object]

tryItOut 894

tryItOut 895

tryItOut 896
Running threw: TypeError: can't set property constructor in XMLList

tryItOut 897

tryItOut 898
Running threw: ReferenceError: reference to undefined XML name *::*

tryItOut 899

tryItOut 900
Compiling threw: SyntaxError: missing ) in parenthetical

tryItOut 901
Compiling threw: SyntaxError: syntax error

tryItOut 902

tryItOut 903
Compiling threw: SyntaxError: unterminated parenthetical

tryItOut 904
Running threw: <y>
  <z/>
</y>

tryItOut 905

tryItOut 906
Running threw: TypeError: this.zzz has no properties

tryItOut 907
Compiling threw: TypeError: redeclaration of variable prop

tryItOut 908

tryItOut 909

tryItOut 910

tryItOut 911
Compiling threw: SyntaxError: invalid assignment left-hand side

tryItOut 912
Running threw: ReferenceError: reference to undefined XML name *

tryItOut 913
Compiling threw: SyntaxError: missing ) in parenthetical

tryItOut 914

tryItOut 915
Compiling threw: SyntaxError: yield expression must be parenthesized

tryItOut 916
Compiling threw: SyntaxError: missing ; after for-loop initializer

tryItOut 917

tryItOut 918
Compiling threw: SyntaxError: invalid for each loop

tryItOut 919

tryItOut 920
Compiling threw: SyntaxError: syntax error

tryItOut 921

tryItOut 922

tryItOut 923
Running threw: TypeError: <y>
  <z/>
</y>
<x/> is not a function

tryItOut 924
Running threw: Error: invalid sharp variable use #1#

tryItOut 925

tryItOut 926
Running threw: SyntaxError: invalid setter usage

tryItOut 927

tryItOut 928

tryItOut 929

tryItOut 930
Compiling threw: SyntaxError: missing { before function body

tryItOut 931
Running threw: TypeError: this.zzz has no properties

tryItOut 932

tryItOut 933
Running threw: false

tryItOut 934
Compiling threw: SyntaxError: invalid assignment left-hand side

tryItOut 935

tryItOut 936
Running threw: true

tryItOut 937

tryItOut 938
Compiling threw: SyntaxError: syntax error

tryItOut 939
Compiling threw: SyntaxError: missing variable name

tryItOut 940
Running threw: TypeError: __noSuchMethod__ has no properties

tryItOut 941
Compiling threw: SyntaxError: syntax error

tryItOut 942
Compiling threw: SyntaxError: invalid decrement operand

tryItOut 943

tryItOut 944
Compiling threw: SyntaxError: invalid for each loop

tryItOut 945
Running threw: null

tryItOut 946

tryItOut 947

tryItOut 948
Compiling threw: SyntaxError: syntax error

tryItOut 949
It's an iterator!
Iterating threw!
Iterating threw: ReferenceError: reference to undefined XML name *::*

tryItOut 950
Compiling threw: SyntaxError: invalid assignment left-hand side

tryItOut 951

tryItOut 952

tryItOut 953

tryItOut 954

tryItOut 955

tryItOut 956

tryItOut 957

tryItOut 958

tryItOut 959
Compiling threw: SyntaxError: syntax error

tryItOut 960
Compiling threw: SyntaxError: invalid destructuring assignment operator

tryItOut 961

tryItOut 962

tryItOut 963
It's an iterator!
Iterating succeeded, iterCount == 0

tryItOut 964

tryItOut 965

tryItOut 966

tryItOut 967
Compiling threw: SyntaxError: missing ; after for-loop initializer

tryItOut 968
Compiling threw: SyntaxError: missing { before function body

tryItOut 969
Compiling threw: SyntaxError: syntax error

tryItOut 970
Compiling threw: SyntaxError: invalid assignment left-hand side

tryItOut 971
Compiling threw: SyntaxError: missing ] after element list

tryItOut 972
Running threw: 

tryItOut 973
Running threw: TypeError: this.zzz has no properties

tryItOut 974

tryItOut 975

tryItOut 976

tryItOut 977

tryItOut 978

tryItOut 979
Compiling threw: SyntaxError: syntax error

tryItOut 980
Running threw: ReferenceError: reference to undefined XML name *::*

tryItOut 981
Compiling threw: SyntaxError: syntax error

tryItOut 982
Compiling threw: SyntaxError: invalid for/in left-hand side

tryItOut 983

tryItOut 984
Compiling threw: SyntaxError: syntax error

tryItOut 985
Compiling threw: SyntaxError: missing formal parameter

tryItOut 986

tryItOut 987
Running threw: TypeError: this.zzz has no properties

tryItOut 988
Running threw: ReferenceError: j is not defined

tryItOut 989

tryItOut 990
Compiling threw: TypeError: generator function anonymous returns a value

tryItOut 991

tryItOut 992

tryItOut 993
Compiling threw: SyntaxError: missing ] after element list

tryItOut 994
Compiling threw: SyntaxError: missing ] after element list

tryItOut 995

tryItOut 996
Running threw: ReferenceError: reference to undefined XML name @foo

tryItOut 997
Compiling threw: SyntaxError: missing ) in parenthetical

tryItOut 998
Running threw: SyntaxError: invalid assignment left-hand side

tryItOut 999

tryItOut 1000

ALL OK

Script done on Sat 04 May 2013 05:12:45 AM PDT
