Script started on Sat 04 May 2013 05:16:09 AM PDT
***
Targeting SpiderMonkey / Gecko.

tryItOut 1
Compiling threw: SyntaxError: illegal XML character

tryItOut 2

tryItOut 3

tryItOut 4

tryItOut 5
Running threw: ReferenceError: window is not defined

tryItOut 6

tryItOut 7
Running threw: ReferenceError: prop is not defined

tryItOut 8

tryItOut 9

tryItOut 10

tryItOut 11

tryItOut 12
Running threw: ReferenceError: z1 is not defined

tryItOut 13
Compiling threw: TypeError: redeclaration of const __proto__

tryItOut 14

tryItOut 15

tryItOut 16
Running threw: [object StopIteration]

tryItOut 17

tryItOut 18
Compiling threw: SyntaxError: missing while after do-loop body

tryItOut 19
Compiling threw: SyntaxError: invalid XML name

tryItOut 20

tryItOut 21

tryItOut 22

tryItOut 23
Compiling threw: SyntaxError: invalid decrement operand

tryItOut 24

tryItOut 25
Compiling threw: SyntaxError: missing { before function body

tryItOut 26
Running threw: [object Object]

tryItOut 27
Compiling threw: SyntaxError: syntax error

tryItOut 28
Running threw: ReferenceError: __noSuchMethod__ is not defined

tryItOut 29
Running threw: TypeError: redeclaration of var __proto__

tryItOut 30
Running threw: null

tryItOut 31

tryItOut 32

tryItOut 33

tryItOut 34

tryItOut 35
Compiling threw: SyntaxError: missing { before function body

tryItOut 36

tryItOut 37
Running threw: [object Object]

tryItOut 38
Running threw: [object StopIteration]

tryItOut 39

tryItOut 40
Compiling threw: TypeError: redeclaration of variable __noSuchMethod__

tryItOut 41
Running threw: function Object() {
    [native code]
}

tryItOut 42
Compiling threw: SyntaxError: missing ; before statement

tryItOut 43

tryItOut 44

tryItOut 45

tryItOut 46

tryItOut 47
Running threw: ReferenceError: l is not defined

tryItOut 48

tryItOut 49
Compiling threw: SyntaxError: invalid assignment left-hand side

tryItOut 50

tryItOut 51

tryItOut 52

tryItOut 53
Compiling threw: SyntaxError: missing ; before statement

tryItOut 54

tryItOut 55

tryItOut 56
Compiling threw: SyntaxError: invalid XML name

tryItOut 57
Running threw: ReferenceError: z1 is not defined

tryItOut 58

tryItOut 59

tryItOut 60
Running threw: TypeError: redeclaration of const __parent__

tryItOut 61
Compiling threw: SyntaxError: missing variable name

tryItOut 62
Compiling threw: SyntaxError: missing = in destructuring declaration

tryItOut 63

tryItOut 64
Running threw: ReferenceError: reference to undefined property "__noSuchMethod__"

tryItOut 65
Running threw: [object StopIteration]

tryItOut 66

tryItOut 67
Compiling threw: SyntaxError: missing { before function body

tryItOut 68
Running threw: ReferenceError: window is not defined

tryItOut 69

tryItOut 70
Compiling threw: SyntaxError: missing variable name

tryItOut 71

tryItOut 72
Compiling threw: SyntaxError: missing ) in parenthetical

tryItOut 73

tryItOut 74
Compiling threw: SyntaxError: missing ) in parenthetical

tryItOut 75
Running threw: ReferenceError: __noSuchMethod__ is not defined

tryItOut 76

tryItOut 77

tryItOut 78

tryItOut 79

tryItOut 80

tryItOut 81

tryItOut 82

tryItOut 83
Compiling threw: SyntaxError: syntax error

tryItOut 84

tryItOut 85
Compiling threw: SyntaxError: invalid assignment left-hand side

tryItOut 86
Compiling threw: SyntaxError: missing ; before statement

tryItOut 87

tryItOut 88

tryItOut 89
Compiling threw: SyntaxError: invalid label

tryItOut 90
Compiling threw: SyntaxError: missing variable name

tryItOut 91

tryItOut 92

tryItOut 93
Running threw: TypeError: __parent__ has no properties

tryItOut 94

tryItOut 95

tryItOut 96
It's an iterator!
Iterating succeeded, iterCount == 1

tryItOut 97
Compiling threw: SyntaxError: missing variable name

tryItOut 98
Running threw: [object StopIteration]

tryItOut 99
Running threw: ReferenceError: window is not defined

tryItOut 100
Compiling threw: SyntaxError: invalid increment operand

tryItOut 101
Compiling threw: SyntaxError: missing ; before statement

tryItOut 102
Compiling threw: SyntaxError: syntax error

tryItOut 103
Running threw: ReferenceError: z2 is not defined

tryItOut 104
Running threw: [object StopIteration]

tryItOut 105
Running threw: ReferenceError: z2 is not defined

tryItOut 106
Compiling threw: SyntaxError: invalid increment operand

tryItOut 107

tryItOut 108

tryItOut 109

tryItOut 110
Compiling threw: SyntaxError: invalid increment operand

tryItOut 111
Compiling threw: SyntaxError: missing { before function body

tryItOut 112

tryItOut 113
Compiling threw: TypeError: redeclaration of variable __noSuchMethod__

tryItOut 114
Compiling threw: SyntaxError: missing : after property id

tryItOut 115
Compiling threw: SyntaxError: invalid XML name

tryItOut 116
Running threw: ReferenceError: window is not defined

tryItOut 117
Compiling threw: SyntaxError: missing } after property list

tryItOut 118

tryItOut 119
Compiling threw: SyntaxError: missing ) in parenthetical

tryItOut 120

tryItOut 121
It's an iterator!
Iterating succeeded, iterCount == 1

tryItOut 122
Compiling threw: SyntaxError: missing ) in parenthetical

tryItOut 123
Compiling threw: SyntaxError: missing = in destructuring declaration

tryItOut 124

tryItOut 125

tryItOut 126
Compiling threw: SyntaxError: invalid assignment left-hand side

tryItOut 127

tryItOut 128

tryItOut 129

tryItOut 130
Compiling threw: SyntaxError: missing { before function body

tryItOut 131

tryItOut 132

tryItOut 133
Compiling threw: SyntaxError: illegal XML character

tryItOut 134
Compiling threw: SyntaxError: syntax error

tryItOut 135

tryItOut 136

tryItOut 137
Compiling threw: SyntaxError: missing ) in parenthetical

tryItOut 138
Running threw: ReferenceError: window is not defined

tryItOut 139
Compiling threw: SyntaxError: missing ; before statement

tryItOut 140
Compiling threw: SyntaxError: invalid for/in left-hand side

tryItOut 141
Running threw: 

tryItOut 142

tryItOut 143

tryItOut 144
Compiling threw: SyntaxError: missing { before function body

tryItOut 145

tryItOut 146
Compiling threw: SyntaxError: syntax error

tryItOut 147
Compiling threw: SyntaxError: missing ) in parenthetical

tryItOut 148
Compiling threw: TypeError: redeclaration of variable __iterator__

tryItOut 149

tryItOut 150

tryItOut 151
Compiling threw: TypeError: redeclaration of var __parent__

tryItOut 152
Compiling threw: SyntaxError: missing variable name

tryItOut 153

tryItOut 154

tryItOut 155
Compiling threw: SyntaxError: syntax error

tryItOut 156

tryItOut 157
Compiling threw: SyntaxError: missing ) in parenthetical

tryItOut 158
Compiling threw: SyntaxError: missing { before function body

tryItOut 159

tryItOut 160
Compiling threw: SyntaxError: missing { before function body

tryItOut 161

tryItOut 162
Running threw: TypeError: __parent__ has no properties

tryItOut 163
Running threw: ReferenceError: prototype is not defined

tryItOut 164

tryItOut 165

tryItOut 166

tryItOut 167

tryItOut 168

tryItOut 169
Running threw: [object global]

tryItOut 170

tryItOut 171
Compiling threw: SyntaxError: missing ; before statement

tryItOut 172

tryItOut 173

tryItOut 174
Compiling threw: SyntaxError: duplicate label

tryItOut 175
Running threw: [object StopIteration]

tryItOut 176

tryItOut 177

tryItOut 178
Compiling threw: SyntaxError: invalid decrement operand

tryItOut 179
Compiling threw: SyntaxError: syntax error

tryItOut 180
Compiling threw: SyntaxError: syntax error

tryItOut 181
Compiling threw: SyntaxError: syntax error

tryItOut 182

tryItOut 183
It's an iterator!
Iterating succeeded, iterCount == 1

tryItOut 184
Running threw: TypeError: redeclaration of const __parent__

tryItOut 185

tryItOut 186
Compiling threw: SyntaxError: syntax error

tryItOut 187

tryItOut 188

tryItOut 189
Running threw: ReferenceError: prototype is not defined

tryItOut 190

tryItOut 191
Compiling threw: SyntaxError: invalid decrement operand

tryItOut 192
Compiling threw: SyntaxError: invalid default XML namespace

tryItOut 193
Compiling threw: SyntaxError: missing name after . operator

tryItOut 194

tryItOut 195

tryItOut 196

tryItOut 197
Compiling threw: SyntaxError: syntax error

tryItOut 198

tryItOut 199
Running threw: ReferenceError: prototype is not defined

tryItOut 200
Compiling threw: SyntaxError: missing variable name

tryItOut 201
Compiling threw: SyntaxError: missing = in destructuring declaration

tryItOut 202

tryItOut 203

tryItOut 204
Compiling threw: SyntaxError: invalid default XML namespace

tryItOut 205
Running threw: [object StopIteration]

tryItOut 206
Compiling threw: SyntaxError: missing variable name

tryItOut 207

tryItOut 208

tryItOut 209
Compiling threw: SyntaxError: invalid for/in left-hand side

tryItOut 210
Running threw: [object StopIteration]

tryItOut 211

tryItOut 212

tryItOut 213

tryItOut 214
Running threw: ReferenceError: window is not defined

tryItOut 215
Compiling threw: SyntaxError: syntax error

tryItOut 216

tryItOut 217

tryItOut 218
Running threw: ReferenceError: window is not defined

tryItOut 219
Running threw: [object StopIteration]

tryItOut 220
Running threw: function gc() {
    [native code]
}

tryItOut 221
Compiling threw: SyntaxError: syntax error

tryItOut 222

tryItOut 223
before 191840, after 191840, break 012cb000
Running threw: undefined

tryItOut 224

tryItOut 225

tryItOut 226

tryItOut 227

tryItOut 228
Compiling threw: SyntaxError: syntax error

tryItOut 229
Compiling threw: SyntaxError: missing ) in parenthetical

tryItOut 230

tryItOut 231

tryItOut 232
Compiling threw: SyntaxError: missing : after property id

tryItOut 233

tryItOut 234

tryItOut 235
Compiling threw: SyntaxError: missing : after property id

tryItOut 236

tryItOut 237
Running threw: ReferenceError: window is not defined

tryItOut 238

tryItOut 239
before 191840, after 191840, break 012cb000
Running threw: TypeError: __noSuchMethod__ has no properties

tryItOut 240
Compiling threw: SyntaxError: invalid XML name

tryItOut 241

tryItOut 242
Compiling threw: SyntaxError: invalid assignment left-hand side

tryItOut 243
Compiling threw: SyntaxError: missing ) in parenthetical

tryItOut 244
Compiling threw: TypeError: redeclaration of variable __iterator__

tryItOut 245

tryItOut 246
Compiling threw: SyntaxError: missing name after . operator

tryItOut 247
Compiling threw: SyntaxError: syntax error

tryItOut 248
Running threw: null

tryItOut 249
Compiling threw: SyntaxError: invalid increment operand

tryItOut 250

tryItOut 251
Compiling threw: SyntaxError: invalid decrement operand

tryItOut 252
Compiling threw: SyntaxError: syntax error

tryItOut 253
before 191840, after 191840, break 012cb000
Running threw: TypeError: __noSuchMethod__ has no properties

tryItOut 254

tryItOut 255

tryItOut 256

tryItOut 257

tryItOut 258
Compiling threw: SyntaxError: missing variable name

tryItOut 259
Compiling threw: SyntaxError: syntax error

tryItOut 260

tryItOut 261

tryItOut 262
Compiling threw: SyntaxError: missing ) in parenthetical

tryItOut 263
Compiling threw: SyntaxError: syntax error

tryItOut 264

tryItOut 265
Compiling threw: SyntaxError: invalid increment operand

tryItOut 266

tryItOut 267

tryItOut 268

tryItOut 269
Compiling threw: SyntaxError: missing variable name

tryItOut 270
Running threw: TypeError: __iterator__ has no properties

tryItOut 271

tryItOut 272
Compiling threw: TypeError: redeclaration of const prototype

tryItOut 273

tryItOut 274
Compiling threw: TypeError: redeclaration of variable prototype

tryItOut 275

tryItOut 276

tryItOut 277
Compiling threw: SyntaxError: missing } after property list

tryItOut 278
Compiling threw: SyntaxError: missing ) in parenthetical

tryItOut 279

tryItOut 280
Running threw: <x>
  <y/>
</x>

tryItOut 281
Compiling threw: SyntaxError: missing { before function body

tryItOut 282

tryItOut 283
Compiling threw: SyntaxError: missing ) after condition

tryItOut 284

tryItOut 285

tryItOut 286

tryItOut 287

tryItOut 288

tryItOut 289
It's an iterator!
Iterating threw!
Iterating threw: /x/g

tryItOut 290
Compiling threw: TypeError: redeclaration of variable __noSuchMethod__

tryItOut 291
Compiling threw: SyntaxError: invalid for/in left-hand side

tryItOut 292

tryItOut 293

tryItOut 294
Running threw: null

tryItOut 295
Running threw: [object StopIteration]

tryItOut 296

tryItOut 297

tryItOut 298
Compiling threw: SyntaxError: syntax error

tryItOut 299
Compiling threw: SyntaxError: missing name in export statement

tryItOut 300

tryItOut 301
Running threw: ReferenceError: window is not defined

tryItOut 302
Compiling threw: SyntaxError: invalid for/in left-hand side

tryItOut 303
Compiling threw: SyntaxError: syntax error

tryItOut 304

tryItOut 305

tryItOut 306
Compiling threw: SyntaxError: syntax error

tryItOut 307
Compiling threw: SyntaxError: missing ) in parenthetical

tryItOut 308

tryItOut 309

tryItOut 310

tryItOut 311
Running threw: ReferenceError: z2 is not defined

tryItOut 312
Compiling threw: SyntaxError: syntax error

tryItOut 313
Running threw: [object StopIteration]

tryItOut 314

tryItOut 315

tryItOut 316
Running threw: 

tryItOut 317
Running threw: [object StopIteration]

tryItOut 318
Running threw: ReferenceError: z1 is not defined

tryItOut 319
Compiling threw: SyntaxError: invalid for/in left-hand side

tryItOut 320

tryItOut 321

tryItOut 322
Compiling threw: TypeError: redeclaration of const __noSuchMethod__

tryItOut 323
Compiling threw: SyntaxError: missing variable name

tryItOut 324

tryItOut 325
It's an iterator!
Iterating threw!
Iterating threw: ReferenceError: z1 is not defined

tryItOut 326

tryItOut 327

tryItOut 328
Running threw: <x>
  <y/>
</x>

tryItOut 329
Compiling threw: SyntaxError: illegal XML character

tryItOut 330
Error while trying to determine whether it's an iterator!
The error was: TypeError: Iterator(rv) has invalid __iterator__ value null
uneval returned the string: #28={ENGINE_UNKNOWN:0, ENGINE_SPIDERMONKEY:1, ENGINE_JAVASCRIPTCORE:2, engine:1, jsshell:true, simpleSource:function simpleSource(s) {
function hexify(c) {var code = c.charCodeAt(0);var hex = code.toString(16);while (hex.length < 4) {hex = "0" + hex;}return "\\u" + hex;}
if (typeof s == "string") {return "\"" + s.replace(/\\/g, "\\\\").replace(/\"/g, "\\\"").replace(/\0/g, "\\0").replace(/\n/g, "\\n").replace(/[^ -~]/g, hexify) + "\"";} else {return "" + s;}}, haveRealUneval:true, printAndStop:function printAndStop(s, n) {printImportant(s);if (jsshell) {quit(n);}}, whatToTestSpidermonkey:#27=function whatToTestSpidermonkey(code) {return {allowDecompile:true && !code.match(/for.*for.*in.*in/), checkRecompiling:true && code.indexOf("#") == -1 && !code.match(/for.*\(.*in.*const/) && !code.match(/arguments.*\:\:/) && !code.match(/\:.*for.*\(.*var.*\)/) && !code.match(/\:.*for.*\(.*let.*\)/) && !code.match(/do.*let.*while/) && !code.match(/for.*let.*\).*function/) && !code.match(/for.*\(.*\(.*in.*;.*;.*\)/) && !code.match(/new.*\.\./) && !code.match(/new.*\.\(/) && !code.match(/while.*for.*in/), checkForMismatch:true && !code.match(/const.*if/) && !code.match(/if.*const/) && !code.match(/const.*arguments/) && !code.match(/var.*arguments/) && !code.match(/let.*,/) && !code.match(/for.*;.*;/) && !code.match(/\[.*\].*=.*\[.*=.*\]/) && !code.match(/with.*try.*function/) && !code.match(/if.*try.*function/) && code.indexOf("-0") == -1 && code.indexOf("-1") == -1 && code.indexOf("default") == -1 && code.indexOf("delete") == -1 && code.indexOf("const") == -1 && code.indexOf("import") == -1 && code.indexOf("export") == -1 && code.indexOf("?") == -1 && code.indexOf("p.z") == -1 && (code.indexOf("\"") == -1 && code.indexOf("'") == -1 || code.indexOf("%") == -1 && code.indexOf("/") == -1 && code.indexOf("*") == -1 && code.indexOf("-") == -1 && code.indexOf(">>") == -1 && code.indexOf("<<") == -1), allowExec:true && code.indexOf("for..in") == -1 && code.indexOf("finally") == -1 && code.indexOf("valueOf") == -1 && code.indexOf("<>") == -1 && (jsshell || code.indexOf("nogeckoex") == -1) && !code.match(/delete.*Function/) && !code.match(/function.*::.*=/), allowIter:true, checkUneval:true && (code.indexOf("<") == -1 || code.indexOf(".") == -1) && code.indexOf("<>") == -1 && code.indexOf("RegExp") == -1};}, whatToTestJavaScriptCore:function whatToTestJavaScriptCore(code) {return {allowDecompile:true, checkRecompiling:true, checkForMismatch:true && !code.match(/new.*\(.*\).*\./) && !code.match(/new.*\(.*\).*\[/), allowExec:true && !code.match(/with.*const/) && !code.match(/catch.*const/) && !code.match(/break.*finally/) && !code.match(/continue.*finally/), allowIter:false, checkUneval:false};}, whatToTestGeneric:function whatToTestGeneric(code) {return {allowDecompile:true, checkRecompiling:true, checkForMismatch:true, allowExec:true, allowIter:"Iterator" in this, checkUneval:haveRealUneval};}, allMakers:[function makeStatement(depth) {if (rnd(TOTALLY_RANDOM) == 2) {return totallyRandom(depth);}var dr = rnd(depth);if (depth < rnd(8)) {return makeLittleStatement(dr);}return rndElt(statementMakers)(dr);}, function makeSwitchBody(depth) {if (rnd(TOTALLY_RANDOM) == 2) {return totallyRandom(depth);}var haveSomething = false;var haveDefault = false;var output = "";do {if (!haveSomething || rnd(2)) {if (!haveDefault && rnd(2)) {output += "default: ";haveDefault = true;} else {output += "case " + (rnd(2) ? rnd(10) : makeExpr(depth)) + ": ";}haveSomething = true;}if (rnd(2)) {output += makeStatement(depth);}if (rnd(2)) {output += "break; ";}if (rnd(2)) {--depth;}} while (depth && rnd(5));return output;}, function makeLittleStatement(depth) {if (rnd(TOTALLY_RANDOM) == 2) {return totallyRandom(depth);}var dr = depth - 1;if (rnd(4) == 1) {return makeStatement(dr);}return rndElt(littleStatementMakers)(dr);}, function makeStatementOrBlock(depth) {if (rnd(TOTALLY_RANDOM) == 2) {return totallyRandom(depth);}var dr = depth - 1;return rndElt(statementBlockMakers)(dr);}, function makeExceptionyStatement(depth) {if (rnd(TOTALLY_RANDOM) == 2) {return totallyRandom(depth);}var dr = depth - 1;if (dr < 1) {return makeLittleStatement(dr);}return rndElt(exceptionyStatementMakers)(dr);}, function makeTryBlock(depth) {if (rnd(TOTALLY_RANDOM) == 2) {return totallyRandom(depth);}var dr = depth - rnd(3);var s = cat(["try", " { ", makeExceptionyStatement(dr), " } "]);var numCatches = 0;while (rnd(3) == 0) {++numCatches;if (rnd(2)) {s += cat(["catch", "(", makeId(dr), " if ", makeExpr(dr), ")", " { ", makeExceptionyStatement(dr), " } "]);} else {s += cat(["catch", "(", makeId(dr), " if ", "(function(){", makeExceptionyStatement(dr), "})())", " { ", makeExceptionyStatement(dr), " } "]);}}if (rnd(2)) {++numCatches;s += cat(["catch", "(", makeId(dr), ")", " { ", makeExceptionyStatement(dr), " } "]);}if (numCatches == 0 || rnd(2) == 1) {s += cat(["finally", " { ", makeExceptionyStatement(dr), " } "]);}return s;}, function makeExpr(depth) {if (rnd(TOTALLY_RANDOM) == 2) {return totallyRandom(depth);}if (depth <= 0 || rnd(7) == 1) {return makeTerm(depth - 1);}var dr = rnd(depth);var expr = rndElt(exprMakers)(dr);if (rnd(4) == 1) {return "(" + expr + ")";} else {return expr;}}, function makeObjLiteralPart(dr) {if (rnd(TOTALLY_RANDOM) == 2) {return totallyRandom(dr);}switch (rnd(8)) {case 0:return cat([makeId(dr), " getter: ", makeFunction(dr)]);case 1:return cat([makeId(dr), " setter: ", makeFunction(dr)]);case 2:return cat([" get ", makeId(dr), maybeName(dr), "(", makeFormalArgList(dr - 1), ")", makeFunctionBody(dr)]);case 3:return cat([" set ", makeId(dr), maybeName(dr), "(", makeFormalArgList(dr - 1), ")", makeFunctionBody(dr)]);default:return cat([makeId(dr), ": ", makeExpr(dr)]);}}, function makeFunction(depth) {if (rnd(TOTALLY_RANDOM) == 2) {return totallyRandom(depth);}var dr = depth - 1;if (rnd(5) == 1) {return makeExpr(dr);}return rndElt(functionMakers)(dr);}, function makeFunPrefix(depth) {if (rnd(TOTALLY_RANDOM) == 2) {return totallyRandom(depth);}switch (rnd(20)) {}}, function makeFunctionBody(depth) {if (rnd(TOTALLY_RANDOM) == 2) {return totallyRandom(depth);}switch (rnd(4)) {case 0:return cat([" { ", makeStatement(depth - 1), " } "]);case 1:return cat([" { ", "return ", makeExpr(depth), " } "]);case 2:return cat([" { ", "yield ", makeExpr(depth), " } "]);case 3:return makeExpr(depth);default:;}}, function makeLetHead(depth) {if (rnd(TOTALLY_RANDOM) == 2) {return totallyRandom(depth);}if (rnd(2) == 1) {return makeLetHeadItem(depth);} else {return makeLetHeadItem(depth) + ", " + makeLetHeadItem(depth - 1);}}, function makeLetHeadItem(depth) {if (rnd(TOTALLY_RANDOM) == 2) {return totallyRandom(depth);}var dr = depth - 1;var lhs = rnd(3) == 1 ? makeDestructuringLValue(dr) : makeId(dr);var rhs = rnd(2) == 1 ? " = " + makeExpr(dr) : "";return lhs + rhs;}, function makeActualArgList(depth) {if (rnd(TOTALLY_RANDOM) == 2) {return totallyRandom(depth);}var nArgs = rnd(3);if (nArgs == 0) {return "";}var argList = makeExpr(depth);for (var i = 1; i < nArgs; ++i) {argList += ", " + makeExpr(depth - i);}return argList;}, function makeFormalArgList(depth) {if (rnd(TOTALLY_RANDOM) == 2) {return totallyRandom(depth);}var nArgs = rnd(3);if (nArgs == 0) {return "";}var argList = makeFormalArg(depth);for (var i = 1; i < nArgs; ++i) {argList += ", " + makeFormalArg(depth - i);}return argList;}, function makeFormalArg(depth) {if (rnd(TOTALLY_RANDOM) == 2) {return totallyRandom(depth);}if (rnd(4) == 1) {return makeDestructuringLValue(depth);}return makeId(depth);}, function makeId(depth) {if (rnd(TOTALLY_RANDOM) == 2) {return totallyRandom(depth);}var dr = depth;switch (rnd(200)) {case 0:return makeTerm(dr);case 1:return makeExpr(dr);case 2:case 3:case 4:case 5:return makeLValue(dr);case 6:case 7:return makeDestructuringLValue(dr);case 8:case 9:case 10:return rndElt(["get", "set", "getter", "setter", "delete", "let", "yield", "each"]);case 11:case 12:case 13:return "function::" + makeId(dr);case 14:return "x::" + makeId(dr);case 15:case 16:return rndElt(specialProperties);default:;}return rndElt(["x", "x", "x", "x", "x", "x", "x", "x", "x1", "x2", "x3", "x4", "x5", "y", "window", "this", "\u3056", "NaN", "functional", " "]);}, function makeComprehension(dr) {if (rnd(TOTALLY_RANDOM) == 2) {return totallyRandom(dr);}if (dr < 0) {return "";}switch (rnd(4)) {case 0:return "";case 1:return cat([" for ", "(", makeForInLHS(dr), " in ", makeExpr(dr - 2), ")"]) + makeComprehension(dr - 1);case 2:return cat([" for ", "each ", "(", makeId(dr), " in ", makeExpr(dr - 2), ")"]) + makeComprehension(dr - 1);case 3:return cat([" if ", "(", makeExpr(dr - 2), ")"]);default:;}}, function makeForInLHS(dr) {if (rnd(TOTALLY_RANDOM) == 2) {return totallyRandom(dr);}return makeLValue(dr);}, function makeLValue(depth) {if (rnd(TOTALLY_RANDOM) == 2) {return totallyRandom(depth);}if (depth <= 0 || rnd(2) == 1) {return makeId(depth - 1);}var dr = rnd(depth);return rndElt(lvalueMakers)(dr);}, function makeDestructuringLValue(depth) {if (rnd(TOTALLY_RANDOM) == 2) {return totallyRandom(depth);}var dr = depth - 1;if (dr < 0 || rnd(4) == 1) {return makeId(dr);}if (rnd(6) == 1) {return makeLValue(dr);}return rndElt(destructuringLValueMakers)(dr);}, function makeTerm(depth) {if (rnd(TOTALLY_RANDOM) == 2) {return totallyRandom(depth);}return rndElt(termMakers)(depth);}, function makeCrazyToken() {if (rnd(2) == 0) {return String.fromCharCode(32 + rnd(96));}return rndElt(["//", UNTERMINATED_COMMENT, UNTERMINATED_COMMENT + "\n", "/*\n*/", "[", "]", "{", "}", "(", ")", "!", "@", "%", "^", "*", "|", ":", "?", "'", "\"", ",", ".", "/", "~", "_", "+", "=", "-", "++", "--", "+=", "%=", "|=", "-=", "#", "#1", "#1=", " in ", " instanceof ", " let ", " new ", " get ", " for ", " if ", " else ", " else if ", " try ", " catch ", " finally ", " export ", " import ", " void ", " with ", " default ", " goto ", " case ", " switch ", " do ", " /*infloop*/while ", " return ", " yield ", " break ", " continue ", " typeof ", " var ", " const ", " enum ", " debugger ", " super ", " this ", " null ", " undefined ", "\n", "\r", "\u2028", "\u2029", "<!--", "-->", "", "\x00", ]);}, function makeE4X(depth) {if (rnd(TOTALLY_RANDOM) == 2) {return totallyRandom(depth);}if (depth <= 0) {return cat(["<", "x", ">", "<", "y", "/", ">", "<", "/", "x", ">"]);}var dr = depth - 1;var y = [function (dr) {return "<employee id=\"1\"><name>Joe</name><age>20</age></employee>";}, function (dr) {return cat(["<", ">", makeSubE4X(dr), "<", "/", ">"]);}, function (dr) {return cat(["<", ">", makeExpr(dr), "<", "/", ">"]);}, function (dr) {return cat(["<", "zzz", ">", makeExpr(dr), "<", "/", "zzz", ">"]);}, function (dr) {var tagId = makeId(dr);return cat(["<", "{", tagId, "}", ">", makeSubE4X(dr), "<", "/", "{", tagId, "}", ">"]);}, function (dr) {var attrId = makeId(dr);var attrValExpr = makeExpr(dr);return cat(["<", "xxx", " ", "{", attrId, "}", "=", "{", attrValExpr, "}", " ", "/", ">"]);}, function (dr) {var contentId = makeId(dr);return cat(["<", "xxx", ">", "{", contentId, "}", "<", "/", "xxx", ">"]);}, function (dr) {var contentId = makeId(dr);return cat(["<", "bbb", " ", "xmlns", "=", "\"", makeExpr(dr), "\"", ">", makeSubE4X(dr), "<", "/", "bbb", ">"]);}, function (dr) {var contentId = makeId(dr);return cat(["<", "bbb", " ", "xmlns", ":", "ccc", "=", "\"", makeExpr(dr), "\"", ">", "<", "ccc", ":", "eee", ">", "<", "/", "ccc", ":", "eee", ">", "<", "/", "bbb", ">"]);}, function (dr) {return makeExpr(dr);}, function (dr) {return makeSubE4X(dr);}, ];return rndElt(y)(dr);}, function makeSubE4X(depth) {if (rnd(TOTALLY_RANDOM) == 2) {return totallyRandom(depth);}if (depth < -2) {return "";}var y = [function (depth) {return cat(["<", "ccc", ":", "ddd", ">", makeSubE4X(depth - 1), "<", "/", "ccc", ":", "ddd", ">"]);}, function (depth) {return makeE4X(depth) + makeSubE4X(depth - 1);}, function (depth) {return "yyy";}, function (depth) {return cat(["<", "!", "--", "yy", "--", ">"]);}, function (depth) {return " ";}, function (depth) {return "";}, ];return rndElt(y)(depth);}], totallyRandom:function totallyRandom(depth) {var dr = depth + (rnd(5) - 2);return rndElt(allMakers)(dr);}, init:function init() {for (var f in this) {if (f.indexOf("make") == 0 && typeof this[f] == "function") {allMakers.push(this[f]);}}}, start:function start() {init();count = 0;if (jsshell) {for (var i = 0; i < 20000; ++i) {testOne();}dumpln("It's looking good!");} else {setTimeout(testStuffForAWhile, 200);}}, testStuffForAWhile:function testStuffForAWhile() {for (var j = 0; j < 100; ++j) {testOne();}if (count % 10000 < 100) {printImportant("Iterations: " + count);}setTimeout(testStuffForAWhile, 30);}, testOne:function testOne() {++count;var code = makeStatement(8);dumpln("count=" + count + "; tryItOut(" + uneval(code) + ");");tryItOut(code);}, tryItOut:function tryItOut(code) {var wtt = whatToTest(code.replace(/\n/g, " ").replace(/\r/g, " "));wtt.allowExec = wtt.allowExec && code.indexOf("infloop") == -1 && !code.match(/const.*for/) && !code.match(/for.*const/) && !code.match(/for.*in.*uneval/) && !code.match(/for.*for.*for.*for.*for/);if (verbose) {dumpln("Verbose, count: " + count);dumpln("allowExec=" + wtt.allowExec + ", allowDecompile=" + wtt.allowDecompile + ", checkRecompiling=" + wtt.checkRecompiling + ", checkForMismatch=" + wtt.checkForMismatch + ", allowIter=" + wtt.allowIter + ", checkUneval=" + wtt.checkUneval);}var f = tryCompiling(code, wtt.allowExec);if (f && wtt.allowDecompile) {tryRoundTripStuff(f, code, wtt.checkRecompiling, wtt.checkForMismatch);}var rv = null;if (wtt.allowExec && f) {rv = tryRunning(f);tryEnsureSanity();if (0 && engine == ENGINE_SPIDERMONKEY) {tryTestDVG(code);tryEnsureSanity();}}if (wtt.allowIter && rv && typeof rv == "object") {tryIteration(rv);tryEnsureSanity();}if (wtt.checkRecompiling && wtt.checkForMismatch && wtt.checkUneval && rv && typeof rv == "object") {testUneval(rv);}if (count % 1000 == 0) {dumpln("Paranoid GC!");dumpln(count);realGC();}if (verbose) {dumpln("Done trying out that function!");}dumpln("");}, tryTestDVG:function tryTestDVG(code) {var fullCode = "(function() { try { \n" + code + "\n; throw 1; } catch(exx) { this.nnn.nnn } })()";try {eval(fullCode);} catch (e) {if (e.message != "this.nnn is undefined") {printAndStop("Wrong error message: " + e, 101);}}}, tryCompiling:function tryCompiling(code, allowExec) {try {if (count % 2 == 0 && allowExec) {if (verbose) {dumpln("About to compile, using eval hack.");}return eval("(function(){" + code + "});");} else {if (verbose) {dumpln("About to compile, using new Function.");}return new Function(code);}} catch (compileError) {dumpln("Compiling threw: " + errorToString(compileError));return null;}}, trySandboxEval:function trySandboxEval(code, isRetry) {if (!sandbox) {sandbox = evalcx("");}var rv = null;try {rv = evalcx("(function(){\n" + code + "\n})();", sandbox);} catch (e) {rv = "Error from sandbox: " + errorToString(e);}try {if (typeof rv != "undefined") {dumpln(rv);}} catch (e) {dumpln("Sandbox error printing: " + errorToString(e));}rv = null;if (1 || count % 100 == 0) {dumpln("Done with this sandbox.");sandbox = null;gc();var currentHeapCount = countHeap();dumpln("countHeap: " + currentHeapCount);if (currentHeapCount > maxHeapCount) {if (maxHeapCount != 0) {dumpln("A new record by " + (currentHeapCount - maxHeapCount) + "!");}if (isRetry) {throw new Error("Found a leak!");}maxHeapCount = currentHeapCount;return true;}}return false;}, tryRoundTripStuff:function tryRoundTripStuff(f, code, checkRecompiling, checkForMismatch) {if (verbose) {dumpln("About to do the 'toString' round-trip test");}checkRoundTripToString(f, code, checkRecompiling, checkForMismatch);if (checkRecompiling && checkForMismatch && engine == ENGINE_SPIDERMONKEY) {try {checkForExtraParens(f, code);} catch (e) {}}if (haveRealUneval) {if (verbose) {dumpln("About to do the 'uneval' round-trip test");}}}, tryRunning:function tryRunning(f) {try {if (verbose) {dumpln("About to run it!");}rv = f();if (verbose) {dumpln("It ran!");}return rv;} catch (runError) {if (verbose) {dumpln("Running threw!  About to toString to error.");}dumpln("Running threw: " + errorToString(runError));return null;}}, realEval:function eval() {[native code]}, realFunction:function Function() {[native code]}, realGC:#29=function gc() {[native code]}, tryEnsureSanity:function tryEnsureSanity() {try {eval("");} catch (e) {dumpln("That really shouldn't have thrown: " + errorToString(e));}if ("unwatch" in this) {this.unwatch("eval");this.unwatch("Function");this.unwatch("gc");}if ("__defineSetter__" in this) {delete eval;delete gc;}eval = realEval;Function = realFunction;gc = realGC;if (!eval) {printImportant("WTF did my |eval| go?");}if (eval != realEval) {printImportant("WTF did my |eval| get replaced by?");}if (Function != realFunction) {printImportant("WTF did my |Function| get replaced by?");}}, tryIteration:function tryIteration(rv) {try {if (!(Iterator(rv) === rv)) {return;}} catch (e) {dumpln("Error while trying to determine whether it's an iterator!");dumpln("The error was: " + e);return;}dumpln("It's an iterator!");try {var iterCount = 0;var iterValue;for (iterValue in rv) {++iterCount;}dumpln("Iterating succeeded, iterCount == " + iterCount);} catch (iterError) {dumpln("Iterating threw!");dumpln("Iterating threw: " + errorToString(iterError));}}, testUneval:function testUneval(o) {var uo, euo, ueuo;try {uo = uneval(o);} catch (e) {if (errorToString(e).indexOf("called on incompatible") != -1) {dumpln("Ignoring bug 379528!".toUpperCase());return;} else {throw e;}}if (uo == "({})") {return;}var uowlb = uo.replace(/\n/g, " ").replace(/\r/g, " ");dumpln("uneval returned the string: " + uo);if (true && uo.indexOf("[native code]") == -1 && uo.indexOf(":<") == -1 && (uo.indexOf("#") == -1 || uo.indexOf("<") == -1) && uo.indexOf("#") == -1 && (uo.indexOf("{") == -1 || uo.indexOf(":") == -1) && uo.indexOf("NaN") == -1 && uo.indexOf("Infinity") == -1 && uo.indexOf("[,") == -1 && uo.indexOf(", ,") == -1 && uo.indexOf(",]") == -1 && uo.indexOf("[function") == -1 && uo.indexOf("[(function") == -1 && uo.indexOf("new Error") == -1 && !uowlb.match(/<.*\/.*>.*<.*\/.*>/) && !(uo == "{}" && !jsshell)) {uo = uo.replace(/\[native code\]/g, "");try {euo = eval(uo);} catch (e) {dumpln("The string returned by uneval failed to eval!");printAndStop(e, 102);return;}ueuo = uneval(euo);if (ueuo != uo) {printAndStop("Mismatch with uneval/eval on the function's return value! " + "\n" + uo + "\n" + ueuo, 103);}} else {dumpln("Skipping re-eval test");}}, tryHalves:function tryHalves(code) {var f, firstHalf, secondHalf;try {firstHalf = code.substr(0, code.length / 2);if (verbose) {dumpln("First half: " + firstHalf);}f = new Function(firstHalf);} catch (e) {if (verbose) {dumpln("First half compilation error: " + e);}}try {secondHalf = code.substr(code.length / 2, code.length);if (verbose) {dumpln("Second half: " + secondHalf);}f = new Function(secondHalf);} catch (e) {if (verbose) {dumpln("Second half compilation error: " + e);}}}, errorToString:function errorToString(e) {try {return "" + e;} catch (e2) {return "Can't toString the error!!";}}, checkRoundTripToString:function checkRoundTripToString(f, code, checkRecompiling, checkForMismatch) {var uf, g;try {uf = "" + f;} catch (e) {reportRoundTripIssue("Round-trip with implicit toString: can't toString", code, null, null, errorToString(e));return;}checkForCookies(uf);if (checkRecompiling) {try {g = eval("(" + uf + ")");if (checkForMismatch && "" + g != "" + f) {reportRoundTripIssue("Round-trip with implicit toString", code, f, g, "mismatch");}} catch (e) {reportRoundTripIssue("Round-trip with implicit toString: error", code, f, g, errorToString(e));}}}, checkRoundTripUneval:function checkRoundTripUneval(f, code, checkRecompiling, checkForMismatch) {var g, uf, ug;try {uf = uneval(f);} catch (e) {reportRoundTripIssue("Round-trip with uneval: can't uneval", code, null, null, errorToString(e));return;}checkForCookies(uf);if (checkRecompiling) {try {g = eval("(" + uf + ")");ug = uneval(g);if (checkForMismatch && ug != uf) {reportRoundTripIssue("Round-trip with uneval: mismatch", code, uf, ug, "mismatch");}} catch (e) {reportRoundTripIssue("Round-trip with uneval: error", code, uf, ug, errorToString(e));}}}, checkForCookies:function checkForCookies(code) {if (code.indexOf("/*EXCEPTION") != -1 || code.indexOf("/*RETSUB") != -1 || code.indexOf("/*FORELEM") != -1 || code.indexOf("/*WITH") != -1) {printAndStop(code, 104);}}, reportRoundTripIssue:function reportRoundTripIssue(issue, code, fs, gs, e) {if (e.indexOf("missing variable name") != -1) {dumpln("Bug 355667 sure is annoying!");return;}var message = issue + "\n\n" + "Code: " + uneval(code) + "\n\n" + "fs: " + fs + "\n\n" + "gs: " + gs + "\n\n" + "error: " + e;}, extractCode:function extractCode(f) {var uf = "" + f;var lines = uf.split("\n");var innerLines = lines.slice(1, -1);return innerLines.join("\n");}, compiles:function compiles(code) {try {new Function(code);return true;} catch (e) {return false;}}, deParen:function deParen(code) {var parenPairs = [];var unmatched = [];var i, c;for (i = 0; i < code.length; ++i) {c = code.charCodeAt(i);if (c == 40) {unmatched.push(parenPairs.length);parenPairs.push({left:i});} else if (c == 41) {if (unmatched.length == 0) {return [];}parenPairs[unmatched.pop()].right = i;}}if (unmatched.length > 0) {return [];}var rs = [];for (i = 0; i < parenPairs.length; ++i) {var left = parenPairs[i].left, right = parenPairs[i].right;rs.push(code.substr(0, left) + code.substr(left + 1, right - (left + 1)) + code.substr(right + 1));}return rs;}, checkForExtraParens:function checkForExtraParens(f, code) {var code = code.replace(/\n/g, " ").replace(/\r/g, " ");var uf = "" + f;if (uf.match(/\(\d/)) {return;}if (uf.indexOf("(<") != -1) {return;}if (uf.indexOf(".(") != -1) {return;}if (uf.indexOf("else if") != -1) {return;}if (code.indexOf("new") != -1) {return;}if (code.indexOf("let") != -1) {return;}if (code.match(/for.*in.*=/)) {return;}if (code.match(/\:.*function/)) {return;}if (uf.indexOf("(function") != -1) {return;}if (code.match(/for.*yield/)) {return;}if (uf.indexOf("= (yield") != -1) {return;}if (uf.indexOf(":(yield") != -1) {return;}if (uf.indexOf(": (yield") != -1) {return;}if (uf.indexOf(", (yield") != -1) {return;}if (uf.indexOf("[(yield") != -1) {return;}if (uf.indexOf("yield") != -1) {return;}var euf = eval("(" + uf + ")");var ueuf = "" + euf;if (ueuf != uf) {var dps = deParen(uf);}for (i = 1; i < dps.length; ++i) {var uf2 = dps[i];try {var euf2 = eval("(" + uf2 + ")");} catch (e) {continue;}var ueuf2 = "" + euf2;if (ueuf2 == ueuf) {print(uf);print("    vs    ");print(uf2);print("Both decompile as:");print(ueuf);}}}, rnd:function rnd(n) {return Math.floor(Math.random() * n);}, rndElt:function rndElt(a) {return a[rnd(a.length)];}, cat:function cat(toks) {if (rnd(170) == 0) {return totallyRandom(2);}var torture = rnd(170) == 57;if (torture) {dumpln("Torture!!!");}var s = maybeLineBreak();for (var i = 0; i < toks.length; ++i) {if (typeof toks[i] != "string") {dumpln("Strange item in the array passed to Tmean: toks[" + i + "] == " + toks[i]);dumpln(Tmean.caller);dumpln(Tmean.caller.caller);printAndStop("yarr", 108);}if (!(torture && rnd(12) == 0)) {s += toks[i];}s += maybeLineBreak();if (torture) {switch (rnd(120)) {case 0:case 1:case 2:case 3:case 4:s += maybeSpace() + totallyRandom(2) + maybeSpace();break;case 5:s = "(" + s + ")";break;case 6:s = "";break;case 7:return s;case 8:s += UNTERMINATED_COMMENT;break;case 9:s += UNTERMINATED_STRING_LITERAL;break;case 10:if (rnd(2)) {s += "(";}s += UNTERMINATED_REGEXP_LITERAL;break;default:;}}}return s;}, UNTERMINATED_COMMENT:"/*", UNTERMINATED_STRING_LITERAL:"'", UNTERMINATED_REGEXP_LITERAL:"/", maybeLineBreak:function maybeLineBreak() {if (rnd(900) == 3) {return rndElt(["\r", "\n", "//h\n", "/*\n*/"]);} else if (rnd(400) == 3) {return rnd(2) ? "\f" : "\t";} else {return "";}}, maybeSpace:function maybeSpace() {if (rnd(2) == 0) {return " ";} else {return "";}}, stripSemicolon:function stripSemicolon(c) {var len = c.length;if (c.charAt(len - 1) == ";") {return c.substr(0, len - 1);} else {return c;}}, TOTALLY_RANDOM:100, makeStatement:#1=function makeStatement(depth) {if (rnd(TOTALLY_RANDOM) == 2) {return totallyRandom(depth);}var dr = rnd(depth);if (depth < rnd(8)) {return makeLittleStatement(dr);}return rndElt(statementMakers)(dr);}, varBinder:["var ", "let ", "const ", ""], statementMakers:[(function (dr) {return cat([makeStatement(dr), " const ", makeId(dr), ";"]);}), (function (dr) {return cat([makeStatement(dr), makeStatement(dr)]);}), (function (dr) {return cat([makeStatement(dr - 1), "\n", makeStatement(dr - 1), "\n"]);}), (function (dr) {return cat([stripSemicolon(makeStatement(dr)), "\n", makeStatement(dr)]);}), (function (dr) {return cat([stripSemicolon(makeStatement(dr)), "\n"]);}), (function (dr) {return stripSemicolon(makeStatement(dr));}), (function (dr) {return cat(["{", makeStatement(dr), " }"]);}), (function (dr) {return cat(["{", makeStatement(dr - 1), makeStatement(dr - 1), " }"]);}), (function (dr) {return cat([maybeLabel(), "with", "(", makeExpr(dr), ")", makeStatementOrBlock(dr)]);}), (function (dr) {return cat([maybeLabel(), "with", "(", "{", makeId(dr), ": ", makeExpr(dr), "}", ")", makeStatementOrBlock(dr)]);}), (function (dr) {return "/*infloop*/" + cat([maybeLabel(), "for", "(", makeExpr(dr), "; ", makeExpr(dr), "; ", makeExpr(dr), ") ", makeStatementOrBlock(dr)]);}), (function (dr) {return "/*infloop*/" + cat([maybeLabel(), "for", "(", rndElt(varBinder), makeId(dr), "; ", makeExpr(dr), "; ", makeExpr(dr), ") ", makeStatementOrBlock(dr)]);}), (function (dr) {return "/*infloop*/" + cat([maybeLabel(), "for", "(", rndElt(varBinder), makeDestructuringLValue(dr), " = ", makeExpr(dr), "; ", makeExpr(dr), "; ", makeExpr(dr), ") ", makeStatementOrBlock(dr)]);}), (function (dr) {return "/*for..in*/" + cat([maybeLabel(), "for", "(", rndElt(varBinder), makeForInLHS(dr), " in ", makeExpr(dr - 2), ") ", makeStatementOrBlock(dr)]);}), (function (dr) {return "/*for..in*/" + cat([maybeLabel(), "for", "(", rndElt(varBinder), makeForInLHS(dr), " in ", "(", "(", makeFunction(dr), ")", "(", makeExpr(dr), ")", ")", ")", makeStatementOrBlock(dr)]);}), (function (dr) {return "/*for..in*/" + "/* nogeckoex bug 349964 */" + cat([maybeLabel(), " for ", " each", "(", rndElt(varBinder), makeLValue(dr), " in ", makeExpr(dr - 2), ") ", makeStatementOrBlock(dr)]);}), (function (dr) {return "/*for..in*/" + cat([maybeLabel(), "for", "(", rndElt(varBinder), makeId(dr), " = ", makeExpr(dr), " in ", makeExpr(dr - 2), ") ", makeStatementOrBlock(dr)]);}), (function (dr) {return "/*for..in*/" + cat([maybeLabel(), "for", "(", rndElt(varBinder), "[", makeId(dr), ", ", makeId(dr), "]", " = ", makeExpr(dr), " in ", makeExpr(dr - 2), ") ", makeStatementOrBlock(dr)]);}), (function (dr) {return cat([maybeLabel(), "while((", makeExpr(dr), ") && 0)", makeStatementOrBlock(dr)]);}), (function (dr) {return "/*infloop*/" + cat([maybeLabel(), "while", "(", makeExpr(dr), ")", makeStatementOrBlock(dr)]);}), (function (dr) {return cat([maybeLabel(), "do ", makeStatementOrBlock(dr), " while((", makeExpr(dr), ") && 0)", ";"]);}), (function (dr) {return "/*infloop*/" + cat([maybeLabel(), "do ", makeStatementOrBlock(dr), " while", "(", makeExpr(dr), ");"]);}), (function (dr) {return cat([maybeLabel(), "switch", "(", makeExpr(dr), ")", " { ", makeSwitchBody(dr), " }"]);}), (function (dr) {return cat(["let ", "(", makeLetHead(dr), ")", " { ", makeStatement(dr), " }"]);}), (function (dr) {return cat([maybeLabel(), "if(", makeExpr(dr), ") ", makeStatementOrBlock(dr)]);}), (function (dr) {return cat([maybeLabel(), "if(", makeExpr(dr), ") ", makeStatementOrBlock(dr - 1), " else ", makeStatementOrBlock(dr - 1)]);}), (function (dr) {return cat([maybeLabel(), "if(", makeExpr(dr), ") ", makeStatementOrBlock(dr - 1), " else ", " if ", "(", makeExpr(dr), ") ", makeStatementOrBlock(dr - 1)]);}), (function (dr) {return cat([maybeLabel(), "if(", makeExpr(dr), ") ", makeStatementOrBlock(dr - 1), " else ", " if ", "(", makeExpr(dr), ") ", makeStatementOrBlock(dr - 1), " else ", makeStatementOrBlock(dr - 1)]);}), (function (dr) {return cat([maybeLabel(), "if(", makeExpr(dr), ") ", "{", " if ", "(", makeExpr(dr), ") ", makeStatementOrBlock(dr - 1), " else ", makeStatementOrBlock(dr - 1), "}"]);}), (function (dr) {return cat([maybeLabel(), "if(", makeExpr(dr), ") ", "{", " if ", "(", makeExpr(dr), ") ", makeStatementOrBlock(dr - 1), "}", " else ", makeStatementOrBlock(dr - 1)]);}), (function (dr) {return makeExceptionyStatement(dr - 1);makeExceptionyStatement(dr - 1);}), (function (dr) {return makeExceptionyStatement(dr - 1);makeExceptionyStatement(dr - 1);}), (function (dr) {return makeExceptionyStatement(dr);}), (function (dr) {return makeExceptionyStatement(dr);}), (function (dr) {return makeExceptionyStatement(dr);}), (function (dr) {return makeExceptionyStatement(dr);}), (function (dr) {return makeExceptionyStatement(dr);}), (function (dr) {return cat(["L", ": ", makeStatementOrBlock(dr)]);})], maybeLabel:function maybeLabel() {if (rnd(4) == 1) {return cat([rndElt(["L", "M"]), ":"]);} else {return "";}}, makeSwitchBody:#2=function makeSwitchBody(depth) {if (rnd(TOTALLY_RANDOM) == 2) {return totallyRandom(depth);}var haveSomething = false;var haveDefault = false;var output = "";do {if (!haveSomething || rnd(2)) {if (!haveDefault && rnd(2)) {output += "default: ";haveDefault = true;} else {output += "case " + (rnd(2) ? rnd(10) : makeExpr(depth)) + ": ";}haveSomething = true;}if (rnd(2)) {output += makeStatement(depth);}if (rnd(2)) {output += "break; ";}if (rnd(2)) {--depth;}} while (depth && rnd(5));return output;}, makeLittleStatement:#3=function makeLittleStatement(depth) {if (rnd(TOTALLY_RANDOM) == 2) {return totallyRandom(depth);}var dr = depth - 1;if (rnd(4) == 1) {return makeStatement(dr);}return rndElt(littleStatementMakers)(dr);}, littleStatementMakers:[(function (dr) {return cat([";"]);}), (function (dr) {return cat(["{", "}"]);}), (function (dr) {return cat([""]);}), (function (dr) {return "gc()";}), (function (dr) {return cat(["throw ", makeExpr(dr), ";"]);}), (function (dr) {return cat([rndElt(["continue", "break"]), " ", rndElt(["L", "M", "", ""]), ";"]);}), (function (dr) {return cat(["export ", makeId(dr), ";"]);}), (function (dr) {return cat(["export ", "*", ";"]);}), (function (dr) {return cat(["import ", makeId(dr), ".", makeId(dr), ";"]);}), (function (dr) {return cat(["import ", makeId(dr), ".", "*", ";"]);}), (function (dr) {return makeFunction(dr);}), (function (dr) {return cat(["return ", makeExpr(dr), ";"]);}), (function (dr) {return "return;";}), (function (dr) {return cat(["yield ", makeExpr(dr), ";"]);}), (function (dr) {return "yield;";}), (function (dr) {return cat([makeExpr(dr), ";"]);}), (function (dr) {return cat(["(", makeExpr(dr), ")", ";"]);}), (function (dr) {return cat([rndElt(varBinder), makeLetHead(dr), ";"]);}), (function (dr) {return cat([rndElt(varBinder), makeLetHead(dr), ";"]);}), (function (dr) {return cat([rndElt(varBinder), makeLetHead(dr), ";"]);})], makeStatementOrBlock:#4=function makeStatementOrBlock(depth) {if (rnd(TOTALLY_RANDOM) == 2) {return totallyRandom(depth);}var dr = depth - 1;return rndElt(statementBlockMakers)(dr);}, statementBlockMakers:[(function (dr) {return makeStatement(dr);}), (function (dr) {return makeStatement(dr);}), (function (dr) {return cat(["{", makeStatement(dr), " }"]);}), (function (dr) {return cat(["{", makeStatement(dr - 1), makeStatement(dr - 1), " }"]);})], makeExceptionyStatement:#5=function makeExceptionyStatement(depth) {if (rnd(TOTALLY_RANDOM) == 2) {return totallyRandom(depth);}var dr = depth - 1;if (dr < 1) {return makeLittleStatement(dr);}return rndElt(exceptionyStatementMakers)(dr);}, exceptionyStatementMakers:[(function (dr) {return makeTryBlock(dr);}), (function (dr) {return makeStatement(dr);}), (function (dr) {return makeLittleStatement(dr);}), (function (dr) {return "return;";}), (function (dr) {return cat(["return ", makeExpr(dr), ";"]);}), (function (dr) {return cat(["yield ", makeExpr(dr), ";"]);}), (function (dr) {return cat(["throw ", makeId(dr), ";"]);}), (function (dr) {return "throw StopIteration;";}), (function (dr) {return "this.zzz.zzz;";}), (function (dr) {return cat([makeId(dr), " = ", makeId(dr), ";"]);}), (function (dr) {return cat([makeLValue(dr), " = ", makeId(dr), ";"]);}), (function (dr) {return "for(let y in []);";}), (function (dr) {return "for(let y in [5,6,7,8]) " + makeExceptionyStatement(dr);}), (function (dr) {return "with({}) " + makeExceptionyStatement(dr);}), (function (dr) {return "with({}) { " + makeExceptionyStatement(dr) + " } ";}), (function (dr) {return "let(" + makeLetHead(dr) + ") { " + makeExceptionyStatement(dr);}), (function (dr) {return "let(" + makeLetHead(dr) + ") ((function(){" + makeExceptionyStatement(dr) + "})());";})], makeTryBlock:#6=function makeTryBlock(depth) {if (rnd(TOTALLY_RANDOM) == 2) {return totallyRandom(depth);}var dr = depth - rnd(3);var s = cat(["try", " { ", makeExceptionyStatement(dr), " } "]);var numCatches = 0;while (rnd(3) == 0) {++numCatches;if (rnd(2)) {s += cat(["catch", "(", makeId(dr), " if ", makeExpr(dr), ")", " { ", makeExceptionyStatement(dr), " } "]);} else {s += cat(["catch", "(", makeId(dr), " if ", "(function(){", makeExceptionyStatement(dr), "})())", " { ", makeExceptionyStatement(dr), " } "]);}}if (rnd(2)) {++numCatches;s += cat(["catch", "(", makeId(dr), ")", " { ", makeExceptionyStatement(dr), " } "]);}if (numCatches == 0 || rnd(2) == 1) {s += cat(["finally", " { ", makeExceptionyStatement(dr), " } "]);}return s;}, makeExpr:#7=function makeExpr(depth) {if (rnd(TOTALLY_RANDOM) == 2) {return totallyRandom(depth);}if (depth <= 0 || rnd(7) == 1) {return makeTerm(depth - 1);}var dr = rnd(depth);var expr = rndElt(exprMakers)(dr);if (rnd(4) == 1) {return "(" + expr + ")";} else {return expr;}}, binaryOps:[" * ", " / ", " % ", " + ", " - ", " << ", " >> ", " >>> ", " < ", " > ", " <= ", " >= ", " instanceof ", " in ", " == ", " != ", " === ", " !== ", " & ", " | ", " ^ ", " && ", " || ", " = ", " *= ", " /= ", " %= ", " += ", " -= ", " <<= ", " >>= ", " >>>=", " &= ", " ^= ", " |= ", " , ", " :: ", " .. ", " @ ", " .@ ", " .@*:: ", " .@x:: "], leftUnaryOps:["--", "++", "!", "+", "-", "~", "void ", "typeof ", "delete ", "new ", "yield "], rightUnaryOps:["++", "--", ".*", ".@foo", ".@*"], specialProperties:["prop", "__iterator__", "__count__", "__noSuchMethod__", "__parent__", "__proto__", "constructor", "prototype"], exprMakers:[(function (dr) {return cat([rndElt(leftUnaryOps), makeExpr(dr)]);}), (function (dr) {return cat([rndElt(leftUnaryOps), makeExpr(dr)]);}), (function (dr) {return cat([rndElt(leftUnaryOps), makeExpr(dr)]);}), (function (dr) {return cat([makeExpr(dr), rndElt(rightUnaryOps)]);}), (function (dr) {return cat([makeExpr(dr), rndElt(rightUnaryOps)]);}), (function (dr) {return cat([makeExpr(dr), rndElt(rightUnaryOps)]);}), (function (dr) {return cat([makeExpr(dr), ".", rndElt(specialProperties)]);}), (function (dr) {return cat([makeExpr(dr), ".", rndElt(specialProperties), " = ", makeExpr(dr)]);}), (function (dr) {return cat([makeId(dr), ".", rndElt(specialProperties), " = ", makeExpr(dr)]);}), (function (dr) {return cat([makeExpr(dr), rndElt(binaryOps), makeExpr(dr)]);}), (function (dr) {return cat([makeExpr(dr), rndElt(binaryOps), makeExpr(dr)]);}), (function (dr) {return cat([makeExpr(dr), rndElt(binaryOps), makeExpr(dr)]);}), (function (dr) {return cat([makeExpr(dr), rndElt(binaryOps), makeExpr(dr)]);}), (function (dr) {return cat([makeExpr(dr), rndElt(binaryOps), makeExpr(dr)]);}), (function (dr) {return cat([makeExpr(dr), rndElt(binaryOps), makeExpr(dr)]);}), (function (dr) {return cat([makeExpr(dr), rndElt(binaryOps), makeExpr(dr)]);}), (function (dr) {return cat([makeExpr(dr), rndElt(binaryOps), makeExpr(dr)]);}), (function (dr) {return cat([makeExpr(dr), rndElt(binaryOps), makeExpr(dr)]);}), (function (dr) {return cat([makeExpr(dr), rndElt(binaryOps), makeExpr(dr)]);}), (function (dr) {return cat([makeExpr(dr), rndElt(binaryOps), makeExpr(dr)]);}), (function (dr) {return cat([makeExpr(dr), rndElt(binaryOps), makeExpr(dr)]);}), (function (dr) {return cat([makeExpr(dr), rndElt(binaryOps), makeExpr(dr)]);}), (function (dr) {return cat([makeExpr(dr), " ? ", makeExpr(dr), " : ", makeExpr(dr)]);}), (function (dr) {return cat([makeExpr(dr), " ? ", makeExpr(dr), " : ", makeExpr(dr)]);}), (function (dr) {return cat(["yield ", makeExpr(dr)]);}), (function (dr) {return cat(["(", "yield ", makeExpr(dr), ")"]);}), (function (dr) {return cat(["[11,12,13,14]", ".", rndElt(["map", "filter", "some", "sort"])]);}), (function (dr) {return cat(["[15,16,17,18]", ".", rndElt(["map", "filter", "some", "sort"]), "(", makeFunction(dr), ", ", makeExpr(dr), ")"]);}), (function (dr) {return cat(["[", makeExpr(dr), "]", ".", rndElt(["map", "filter", "some", "sort"]), "(", makeFunction(dr), ")"]);}), (function (dr) {return cat(["'fafafa'", ".", "replace", "(", "/", "a", "/", "g", ", ", makeFunction(dr), ")"]);}), (function (dr) {return cat([makeId(dr), ".", "(", makeExpr(dr), ")"]);}), (function (dr) {return cat([makeE4X(dr), ".", "(", makeExpr(dr), ")"]);}), (function (dr) {return cat([makeId(dr), ".", makeId(dr)]);}), (function (dr) {return cat([makeExpr(dr), ".", makeId(dr)]);}), (function (dr) {return cat([makeExpr(dr), "[", makeExpr(dr), "]"]);}), (function (dr) {return cat(["(", makeExpr(dr), ")", "[", makeExpr(dr), "]"]);}), (function (dr) {return cat([maybeSharpDecl(), "[", makeExpr(dr), "]"]);}), (function (dr) {return cat([maybeSharpDecl(), "(", "{", makeId(dr), ": ", makeExpr(dr), "}", ")"]);}), (function (dr) {return cat([maybeSharpDecl(), makeExpr(dr)]);}), (function (dr) {return makeFunction(dr);}), (function (dr) {return cat(["(", makeFunction(dr), ")", "(", makeActualArgList(dr), ")"]);}), (function (dr) {return cat([makeExpr(dr), "(", makeActualArgList(dr), ")"]);}), (function (dr) {return cat(["(", makeExpr(dr), ")", "(", makeActualArgList(dr), ")"]);}), (function (dr) {return cat([makeFunction(dr), "(", makeActualArgList(dr), ")"]);}), (function (dr) {return cat(["(", makeFunction(dr), ")", ".", "call", "(", makeExpr(dr), ", ", makeActualArgList(dr), ")"]);}), (function (dr) {return cat(["new ", makeExpr(dr), "(", makeActualArgList(dr), ")"]);}), (function (dr) {return cat(["new ", "(", makeExpr(dr), ")", "(", makeActualArgList(dr), ")"]);}), (function (dr) {return cat(["new ", makeFunction(dr), "(", makeActualArgList(dr), ")"]);}), (function (dr) {return cat(["new ", "(", makeFunction(dr), ")", "(", makeActualArgList(dr), ")"]);}), (function (dr) {return stripSemicolon(makeLittleStatement(dr));}), (function (dr) {return "";}), (function (dr) {return cat(["let ", "(", makeLetHead(dr), ") ", makeExpr(dr)]);}), (function (dr) {return cat(["[", makeExpr(dr), makeComprehension(dr), "]"]);}), (function (dr) {return cat([makeExpr(dr), makeComprehension(dr)]);}), (function (dr) {return cat(["(", makeExpr(dr), makeComprehension(dr), ")"]);}), (function (dr) {return cat([" /* Comment */", makeExpr(dr)]);}), (function (dr) {return cat(["\n", makeExpr(dr)]);}), (function (dr) {return cat([makeExpr(dr), "\n"]);}), (function (dr) {return cat([makeLValue(dr)]);}), (function (dr) {return cat([makeLValue(dr), " = ", makeExpr(dr)]);}), (function (dr) {return cat([makeLValue(dr), " = ", makeExpr(dr)]);}), (function (dr) {return cat([makeLValue(dr), " = ", makeExpr(dr)]);}), (function (dr) {return cat([makeLValue(dr), " = ", makeExpr(dr)]);}), (function (dr) {return cat([makeDestructuringLValue(dr), " = ", makeExpr(dr)]);}), (function (dr) {return cat([makeDestructuringLValue(dr), " = ", makeExpr(dr)]);}), (function (dr) {return cat([makeDestructuringLValue(dr), " = ", makeExpr(dr)]);}), (function (dr) {return cat([makeDestructuringLValue(dr), " = ", makeExpr(dr)]);}), (function (dr) {return cat([makeDestructuringLValue(dr), " = ", makeDestructuringLValue(dr)]);}), (function (dr) {return cat([makeLValue(dr), rndElt(["|=", "%=", "+=", "-="]), makeExpr(dr)]);}), (function (dr) {return cat([makeExpr(dr), ".", "watch", "(", uneval(makeId(dr)), ", ", makeFunction(dr), ")"]);}), (function (dr) {return cat([makeExpr(dr), ".", "unwatch", "(", uneval(makeId(dr)), ")"]);}), (function (dr) {return cat([makeExpr(dr), ".", "__defineGetter__", "(", uneval(makeId(dr)), ", ", makeFunction(dr), ")"]);}), (function (dr) {return cat([makeExpr(dr), ".", "__defineSetter__", "(", uneval(makeId(dr)), ", ", makeFunction(dr), ")"]);}), (function (dr) {return cat(["this", ".", "__defineGetter__", "(", uneval(makeId(dr)), ", ", makeFunction(dr), ")"]);}), (function (dr) {return cat(["this", ".", "__defineSetter__", "(", uneval(makeId(dr)), ", ", makeFunction(dr), ")"]);}), (function (dr) {return cat([makeId(dr), ".", makeId(dr), " ", rndElt(["getter", "setter"]), "= ", makeFunction(dr)]);}), (function (dr) {return cat(["(", "{", makeObjLiteralPart(dr), " }", ")"]);}), (function (dr) {return cat(["(", "{", makeObjLiteralPart(dr), ", ", makeObjLiteralPart(dr), " }", ")"]);}), (function (dr) {return "(p={}, (p.z = " + makeExpr(dr) + ")())";}), (function (dr) {return cat([makeExpr(dr), ".", "throw", "(", makeExpr(dr), ")"]);}), (function (dr) {return cat([makeExpr(dr), ".", "yoyo", "(", makeExpr(dr), ")"]);}), (function (dr) {return "this.zzz.zzz";}), (function (dr) {return makeExpr(dr) + ".eval(" + makeExpr(dr) + ")";}), (function (dr) {return "eval(" + uneval(makeExpr(dr)) + ", " + makeExpr(dr) + ")";}), (function (dr) {return "eval(" + uneval(makeStatement(dr)) + ", " + makeExpr(dr) + ")";}), (function (dr) {return "(uneval(" + makeExpr(dr) + "))";}), (function (dr) {return cat([makeExpr(dr), ".", "hasOwnProperty", "(", uneval(makeId(dr)), ")"]);}), (function (dr) {return cat([makeExpr(dr), ".", "propertyIsEnumerable", "(", uneval(makeId(dr)), ")"]);}), (function (dr) {return cat([makeExpr(dr), ".", "isPrototypeOf", "(", makeExpr(dr), ")"]);}), (function (dr) {return cat([makeExpr(dr), ".", "__lookupGetter__", "(", uneval(makeId(dr)), ")"]);}), (function (dr) {return cat([makeExpr(dr), ".", "__lookupSetter__", "(", uneval(makeId(dr)), ")"]);}), (function (dr) {return cat([makeExpr(dr), ".", "valueOf", "(", uneval("number"), ")"]);}), (function (dr) {return "new " + rndElt(constructors) + "(" + makeActualArgList(dr) + ")";}), (function (dr) {return rndElt(constructors) + "(" + makeActualArgList(dr) + ")";})], constructors:["Error", "RangeError", "Exception", "Function", "Date", "RegExp", "String", "Array", "Object", "Number", "Boolean", "Iterator"], maybeSharpDecl:function maybeSharpDecl() {if (rnd(3) == 0) {return cat(["#", "" + rnd(3), "="]);} else {return "";}}, makeObjLiteralPart:#8=function makeObjLiteralPart(dr) {if (rnd(TOTALLY_RANDOM) == 2) {return totallyRandom(dr);}switch (rnd(8)) {case 0:return cat([makeId(dr), " getter: ", makeFunction(dr)]);case 1:return cat([makeId(dr), " setter: ", makeFunction(dr)]);case 2:return cat([" get ", makeId(dr), maybeName(dr), "(", makeFormalArgList(dr - 1), ")", makeFunctionBody(dr)]);case 3:return cat([" set ", makeId(dr), maybeName(dr), "(", makeFormalArgList(dr - 1), ")", makeFunctionBody(dr)]);default:return cat([makeId(dr), ": ", makeExpr(dr)]);}}, makeFunction:#9=function makeFunction(depth) {if (rnd(TOTALLY_RANDOM) == 2) {return totallyRandom(depth);}var dr = depth - 1;if (rnd(5) == 1) {return makeExpr(dr);}return rndElt(functionMakers)(dr);}, makeFunPrefix:#10=function makeFunPrefix(depth) {if (rnd(TOTALLY_RANDOM) == 2) {return totallyRandom(depth);}switch (rnd(20)) {}}, maybeName:function maybeName(depth) {if (rnd(2) == 0) {return " " + makeId(depth) + " ";} else {return "";}}, makeFunctionBody:#11=function makeFunctionBody(depth) {if (rnd(TOTALLY_RANDOM) == 2) {return totallyRandom(depth);}switch (rnd(4)) {case 0:return cat([" { ", makeStatement(depth - 1), " } "]);case 1:return cat([" { ", "return ", makeExpr(depth), " } "]);case 2:return cat([" { ", "yield ", makeExpr(depth), " } "]);case 3:return makeExpr(depth);default:;}}, functionMakers:[(function (dr) {return cat([makeFunPrefix(dr), "function", " ", maybeName(dr), "(", makeFormalArgList(dr), ")", makeFunctionBody(dr)]);}), (function (dr) {return cat([makeFunPrefix(dr), "function", " ", maybeName(dr), "(", makeFormalArgList(dr), ")", makeFunctionBody(dr)]);}), (function (dr) {return cat([makeFunPrefix(dr), "function", " ", maybeName(dr), "(", makeFormalArgList(dr), ")", makeFunctionBody(dr)]);}), (function (dr) {return cat([makeFunPrefix(dr), "function", " ", maybeName(dr), "(", makeFormalArgList(dr), ")", makeFunctionBody(dr)]);}), (function (dr) {return "function(q) { return q; }";}), (function (dr) {return "function(y) { yield y; " + makeStatement(dr) + "; yield y; }";}), (function (dr) {return "(1 for (x in []))";}), (function (dr) {return "eval";}), (function (dr) {return "new Function";}), (function (dr) {return "(new Function(" + uneval(makeStatement(dr)) + "))";}), (function (dr) {return "Function";}), (function (dr) {return "gc";}), (function (dr) {return "Math.sin";}), (function (dr) {return "Math.pow";}), (function (dr) {return "/a/gi";}), (function (dr) {return "[1,2,3,4].map";}), (function (dr) {return "[1,2,3,4].slice";}), (function (dr) {return "'haha'.split";}), (function (dr) {return "({}).hasOwnProperty";}), (function (dr) {return "({}).__lookupGetter__";}), (function (dr) {return cat(["(", makeFunction(dr), ")", ".", "call"]);}), (function (dr) {return cat(["(", makeFunction(dr), ")", ".", "apply"]);}), (function (dr) {return cat(["(", makeExpr(dr), ")", ".", "watch"]);}), (function (dr) {return cat(["(", makeExpr(dr), ")", ".", "__defineSetter__"]);})], makeLetHead:#12=function makeLetHead(depth) {if (rnd(TOTALLY_RANDOM) == 2) {return totallyRandom(depth);}if (rnd(2) == 1) {return makeLetHeadItem(depth);} else {return makeLetHeadItem(depth) + ", " + makeLetHeadItem(depth - 1);}}, makeLetHeadItem:#13=function makeLetHeadItem(depth) {if (rnd(TOTALLY_RANDOM) == 2) {return totallyRandom(depth);}var dr = depth - 1;var lhs = rnd(3) == 1 ? makeDestructuringLValue(dr) : makeId(dr);var rhs = rnd(2) == 1 ? " = " + makeExpr(dr) : "";return lhs + rhs;}, makeActualArgList:#14=function makeActualArgList(depth) {if (rnd(TOTALLY_RANDOM) == 2) {return totallyRandom(depth);}var nArgs = rnd(3);if (nArgs == 0) {return "";}var argList = makeExpr(depth);for (var i = 1; i < nArgs; ++i) {argList += ", " + makeExpr(depth - i);}return argList;}, makeFormalArgList:#15=function makeFormalArgList(depth) {if (rnd(TOTALLY_RANDOM) == 2) {return totallyRandom(depth);}var nArgs = rnd(3);if (nArgs == 0) {return "";}var argList = makeFormalArg(depth);for (var i = 1; i < nArgs; ++i) {argList += ", " + makeFormalArg(depth - i);}return argList;}, makeFormalArg:#16=function makeFormalArg(depth) {if (rnd(TOTALLY_RANDOM) == 2) {return totallyRandom(depth);}if (rnd(4) == 1) {return makeDestructuringLValue(depth);}return makeId(depth);}, makeId:#17=function makeId(depth) {if (rnd(TOTALLY_RANDOM) == 2) {return totallyRandom(depth);}var dr = depth;switch (rnd(200)) {case 0:return makeTerm(dr);case 1:return makeExpr(dr);case 2:case 3:case 4:case 5:return makeLValue(dr);case 6:case 7:return makeDestructuringLValue(dr);case 8:case 9:case 10:return rndElt(["get", "set", "getter", "setter", "delete", "let", "yield", "each"]);case 11:case 12:case 13:return "function::" + makeId(dr);case 14:return "x::" + makeId(dr);case 15:case 16:return rndElt(specialProperties);default:;}return rndElt(["x", "x", "x", "x", "x", "x", "x", "x", "x1", "x2", "x3", "x4", "x5", "y", "window", "this", "\u3056", "NaN", "functional", " "]);}, makeComprehension:#18=function makeComprehension(dr) {if (rnd(TOTALLY_RANDOM) == 2) {return totallyRandom(dr);}if (dr < 0) {return "";}switch (rnd(4)) {case 0:return "";case 1:return cat([" for ", "(", makeForInLHS(dr), " in ", makeExpr(dr - 2), ")"]) + makeComprehension(dr - 1);case 2:return cat([" for ", "each ", "(", makeId(dr), " in ", makeExpr(dr - 2), ")"]) + makeComprehension(dr - 1);case 3:return cat([" if ", "(", makeExpr(dr - 2), ")"]);default:;}}, makeForInLHS:#19=function makeForInLHS(dr) {if (rnd(TOTALLY_RANDOM) == 2) {return totallyRandom(dr);}return makeLValue(dr);}, makeLValue:#20=function makeLValue(depth) {if (rnd(TOTALLY_RANDOM) == 2) {return totallyRandom(depth);}if (depth <= 0 || rnd(2) == 1) {return makeId(depth - 1);}var dr = rnd(depth);return rndElt(lvalueMakers)(dr);}, lvalueMakers:[(function (dr) {return cat([makeId(dr)]);}), (function (dr) {return makeDestructuringLValue(dr);}), (function (dr) {return makeDestructuringLValue(dr);}), (function (dr) {return cat([makeId(dr), ".", makeId(dr)]);}), (function (dr) {return cat([makeExpr(dr), ".", makeId(dr)]);}), (function (dr) {return cat([makeExpr(dr), "[", "'", makeId(dr), "'", "]"]);}), (function (dr) {return cat([makeId(dr), ".", rndElt(specialProperties)]);}), (function (dr) {return cat([makeId(dr), "(", makeExpr(dr), ")"]);}), (function (dr) {return cat(["(", makeExpr(dr), ")", "(", makeExpr(dr), ")"]);}), (function (dr) {return cat(["(", makeLValue(dr), ")"]);}), (function (dr) {return makeExpr(dr);})], makeDestructuringLValue:#21=function makeDestructuringLValue(depth) {if (rnd(TOTALLY_RANDOM) == 2) {return totallyRandom(depth);}var dr = depth - 1;if (dr < 0 || rnd(4) == 1) {return makeId(dr);}if (rnd(6) == 1) {return makeLValue(dr);}return rndElt(destructuringLValueMakers)(dr);}, destructuringLValueMakers:[(function (dr) {var len = rnd(6);if (len == 0) {return "[]";}var Ti = [];Ti.push("[");Ti.push(maybeMakeDestructuringLValue(dr));for (var i = 1; i < len; ++i) {Ti.push(", ");Ti.push(maybeMakeDestructuringLValue(dr));}Ti.push("]");return cat(Ti);}), (function (dr) {return cat(["(", "{ ", makeId(dr), ": ", makeDestructuringLValue(dr), " }", ")"]);}), (function (dr) {return cat(["(", "{ ", makeId(dr), ": ", makeDestructuringLValue(dr), ", ", makeId(dr), ": ", makeDestructuringLValue(dr), " }", ")"]);})], maybeMakeDestructuringLValue:function maybeMakeDestructuringLValue(depth) {if (rnd(2) == 0) {return "";}return makeDestructuringLValue(depth);}, makeTerm:#22=function makeTerm(depth) {if (rnd(TOTALLY_RANDOM) == 2) {return totallyRandom(depth);}return rndElt(termMakers)(depth);}, termMakers:[(function (dr) {return makeId(dr);}), (function (dr) {return rndElt(["[]", "[1]", "[[]]", "[[1]]", "[,]", "[,,]", "[1,,]", "{}", "({})", "({a1:1})", "[z1]", "[z1,,]", "[,,z1]", "({a2:z2})", "#1#", "#1=[#1#]", "#3={a:#3#}", "function(id) { return id }", "function ([y]) { }", "(function ([y]) { })()", "arguments"]);}), (function (dr) {return rndElt(["0.1", ".2", "3", "1.3", "4.", "5.0000000000000000000000", "1.2e3", "1e81", "1e+81", "1e-81", "1e4", "0", "-0", "(-0)", "-1", "(-1)", "0x99", "033", "" + Math.PI, "3/0", "-3/0", "0/0"]);}), (function (dr) {return rndElt(["true", "false", "undefined", "null"]);}), (function (dr) {return rndElt(["this", "window"]);}), (function (dr) {return rndElt([" \"\" ", " '' ", " /x/ ", " /x/g "]);}), (function (dr) {return rndElt(["<x/>", "<y><z/></y>"]);}), (function (dr) {return rndElt(["@foo", "*", "*::*"]);}), (function (dr) {return makeE4X(dr);}), (function (dr) {return cat(["<", ">", makeE4X(dr), "<", "/", ">"]);})], maybeMakeTerm:function maybeMakeTerm(depth) {if (rnd(2)) {return makeTerm(depth - 1);} else {return "";}}, makeCrazyToken:#23=function makeCrazyToken() {if (rnd(2) == 0) {return String.fromCharCode(32 + rnd(96));}return rndElt(["//", UNTERMINATED_COMMENT, UNTERMINATED_COMMENT + "\n", "/*\n*/", "[", "]", "{", "}", "(", ")", "!", "@", "%", "^", "*", "|", ":", "?", "'", "\"", ",", ".", "/", "~", "_", "+", "=", "-", "++", "--", "+=", "%=", "|=", "-=", "#", "#1", "#1=", " in ", " instanceof ", " let ", " new ", " get ", " for ", " if ", " else ", " else if ", " try ", " catch ", " finally ", " export ", " import ", " void ", " with ", " default ", " goto ", " case ", " switch ", " do ", " /*infloop*/while ", " return ", " yield ", " break ", " continue ", " typeof ", " var ", " const ", " enum ", " debugger ", " super ", " this ", " null ", " undefined ", "\n", "\r", "\u2028", "\u2029", "<!--", "-->", "", "\x00", ]);}, makeE4X:#24=function makeE4X(depth) {if (rnd(TOTALLY_RANDOM) == 2) {return totallyRandom(depth);}if (depth <= 0) {return cat(["<", "x", ">", "<", "y", "/", ">", "<", "/", "x", ">"]);}var dr = depth - 1;var y = [function (dr) {return "<employee id=\"1\"><name>Joe</name><age>20</age></employee>";}, function (dr) {return cat(["<", ">", makeSubE4X(dr), "<", "/", ">"]);}, function (dr) {return cat(["<", ">", makeExpr(dr), "<", "/", ">"]);}, function (dr) {return cat(["<", "zzz", ">", makeExpr(dr), "<", "/", "zzz", ">"]);}, function (dr) {var tagId = makeId(dr);return cat(["<", "{", tagId, "}", ">", makeSubE4X(dr), "<", "/", "{", tagId, "}", ">"]);}, function (dr) {var attrId = makeId(dr);var attrValExpr = makeExpr(dr);return cat(["<", "xxx", " ", "{", attrId, "}", "=", "{", attrValExpr, "}", " ", "/", ">"]);}, function (dr) {var contentId = makeId(dr);return cat(["<", "xxx", ">", "{", contentId, "}", "<", "/", "xxx", ">"]);}, function (dr) {var contentId = makeId(dr);return cat(["<", "bbb", " ", "xmlns", "=", "\"", makeExpr(dr), "\"", ">", makeSubE4X(dr), "<", "/", "bbb", ">"]);}, function (dr) {var contentId = makeId(dr);return cat(["<", "bbb", " ", "xmlns", ":", "ccc", "=", "\"", makeExpr(dr), "\"", ">", "<", "ccc", ":", "eee", ">", "<", "/", "ccc", ":", "eee", ">", "<", "/", "bbb", ">"]);}, function (dr) {return makeExpr(dr);}, function (dr) {return makeSubE4X(dr);}, ];return rndElt(y)(dr);}, makeSubE4X:#25=function makeSubE4X(depth) {if (rnd(TOTALLY_RANDOM) == 2) {return totallyRandom(depth);}if (depth < -2) {return "";}var y = [function (depth) {return cat(["<", "ccc", ":", "ddd", ">", makeSubE4X(depth - 1), "<", "/", "ccc", ":", "ddd", ">"]);}, function (depth) {return makeE4X(depth) + makeSubE4X(depth - 1);}, function (depth) {return "yyy";}, function (depth) {return cat(["<", "!", "--", "yy", "--", ">"]);}, function (depth) {return " ";}, function (depth) {return "";}, ];return rndElt(y)(depth);}, count:undefined, verbose:false, maxHeapCount:0, sandbox:null, dump:#26=function print() {[native code]}, dumpln:#26#, printImportant:(function (s) {dumpln("***");dumpln(s);}), whatToTest:#27#, i:1, rv:#28#, constructor:#30={__noSuchMethod__ getter:#29#}, prop:#30#, __iterator__:null, __count__:110, prototype:#30#, gc:#29#}
Skipping re-eval test

tryItOut 331

tryItOut 332

tryItOut 333

tryItOut 334
Running threw: ReferenceError: window is not defined

tryItOut 335
Compiling threw: SyntaxError: missing variable name

tryItOut 336

tryItOut 337
Running threw: [object StopIteration]

tryItOut 338
Compiling threw: SyntaxError: invalid assignment left-hand side

tryItOut 339

tryItOut 340
before 191840, after 191840, break 012d9000
Running threw: ReferenceError: window is not defined

tryItOut 341

tryItOut 342

tryItOut 343
Compiling threw: SyntaxError: invalid assignment left-hand side

tryItOut 344
Compiling threw: SyntaxError: invalid for each loop

tryItOut 345

tryItOut 346

tryItOut 347
Compiling threw: SyntaxError: invalid assignment left-hand side

tryItOut 348

tryItOut 349

tryItOut 350

tryItOut 351

tryItOut 352
before 191840, after 191840, break 012d9000

tryItOut 353

tryItOut 354
Compiling threw: SyntaxError: invalid XML name

tryItOut 355
Running threw: ReferenceError: window is not defined

tryItOut 356

tryItOut 357

tryItOut 358

tryItOut 359
Running threw: [object Object]

tryItOut 360

tryItOut 361
before 191840, after 191840, break 012d9000
Running threw: TypeError: __noSuchMethod__ has no properties

tryItOut 362
Compiling threw: SyntaxError: invalid increment operand

tryItOut 363

tryItOut 364
Compiling threw: SyntaxError: missing ) after condition

tryItOut 365

tryItOut 366

tryItOut 367
Compiling threw: SyntaxError: missing variable name

tryItOut 368

tryItOut 369
Running threw: null

tryItOut 370
Compiling threw: SyntaxError: invalid XML name

tryItOut 371

tryItOut 372

tryItOut 373
Compiling threw: TypeError: redeclaration of variable constructor

tryItOut 374

tryItOut 375

tryItOut 376
Compiling threw: SyntaxError: missing variable name

tryItOut 377
Compiling threw: SyntaxError: illegal XML character

tryItOut 378

tryItOut 379
Compiling threw: SyntaxError: invalid increment operand

tryItOut 380

tryItOut 381
Compiling threw: SyntaxError: invalid decrement operand

tryItOut 382

tryItOut 383
Compiling threw: SyntaxError: missing = in destructuring declaration

tryItOut 384
before 191840, after 191840, break 012d9000

tryItOut 385

tryItOut 386
Compiling threw: SyntaxError: syntax error

tryItOut 387
Compiling threw: SyntaxError: syntax error

tryItOut 388

tryItOut 389
Compiling threw: SyntaxError: invalid for/in left-hand side

tryItOut 390
Running threw: TypeError: "a" is not a function

tryItOut 391
Compiling threw: SyntaxError: syntax error

tryItOut 392
Running threw: [object StopIteration]

tryItOut 393

tryItOut 394
Compiling threw: SyntaxError: invalid for each loop

tryItOut 395
Running threw: ReferenceError: z2 is not defined

tryItOut 396

tryItOut 397
Running threw: 

tryItOut 398

tryItOut 399

tryItOut 400
Compiling threw: SyntaxError: missing { before function body

tryItOut 401

tryItOut 402

tryItOut 403
Running threw: [object StopIteration]

tryItOut 404

tryItOut 405
Compiling threw: SyntaxError: invalid decrement operand

tryItOut 406
Compiling threw: SyntaxError: missing ; before statement

tryItOut 407
Compiling threw: SyntaxError: missing { before function body

tryItOut 408
Compiling threw: SyntaxError: invalid assignment left-hand side

tryItOut 409

tryItOut 410

tryItOut 411
Compiling threw: SyntaxError: syntax error

tryItOut 412

tryItOut 413
Compiling threw: TypeError: redeclaration of variable prototype

tryItOut 414
Compiling threw: SyntaxError: missing ; before statement

tryItOut 415
Compiling threw: SyntaxError: missing ) in parenthetical

tryItOut 416

tryItOut 417

tryItOut 418
Compiling threw: SyntaxError: syntax error

tryItOut 419
Running threw: TypeError: setting a property that has only a getter

tryItOut 420
Compiling threw: SyntaxError: missing variable name

tryItOut 421
Compiling threw: TypeError: redeclaration of var prop

tryItOut 422

tryItOut 423
Running threw: <x>
  <y/>
</x>

tryItOut 424

tryItOut 425

tryItOut 426
before 191840, after 191840, break 012d9000
Running threw: TypeError: __noSuchMethod__ has no properties

tryItOut 427

tryItOut 428

tryItOut 429
Compiling threw: SyntaxError: missing { before function body

tryItOut 430
Compiling threw: SyntaxError: invalid decrement operand

tryItOut 431
Compiling threw: SyntaxError: missing ; before statement

tryItOut 432

tryItOut 433

tryItOut 434
Compiling threw: SyntaxError: finally without try

tryItOut 435
Compiling threw: SyntaxError: missing ; before statement

tryItOut 436
before 191840, after 191840, break 012d9000
Running threw: ReferenceError: z1 is not defined

tryItOut 437

tryItOut 438
Running threw: ReferenceError: gcreturn is not defined

tryItOut 439

tryItOut 440
Running threw: 

tryItOut 441

tryItOut 442

tryItOut 443
Running threw: [object global]

tryItOut 444
before 191840, after 191840, break 012d9000
Running threw: undefined

tryItOut 445

tryItOut 446

tryItOut 447

tryItOut 448

tryItOut 449
Compiling threw: SyntaxError: missing { before function body

tryItOut 450

tryItOut 451

tryItOut 452

tryItOut 453
Compiling threw: SyntaxError: missing { before function body

tryItOut 454

tryItOut 455
Running threw: <x>
  <y/>
</x>

tryItOut 456
Running threw: 110

tryItOut 457

tryItOut 458
Compiling threw: SyntaxError: invalid XML name

tryItOut 459
Compiling threw: SyntaxError: invalid assignment left-hand side

tryItOut 460
Running threw: [object StopIteration]

tryItOut 461
Compiling threw: SyntaxError: invalid decrement operand

tryItOut 462
Compiling threw: SyntaxError: invalid assignment left-hand side

tryItOut 463
Compiling threw: SyntaxError: missing { before function body

tryItOut 464
Compiling threw: SyntaxError: syntax error

tryItOut 465
It's an iterator!
Iterating threw!
Iterating threw: TypeError: __parent__ has no properties

tryItOut 466
Compiling threw: SyntaxError: missing ) in parenthetical

tryItOut 467

tryItOut 468
Compiling threw: SyntaxError: syntax error

tryItOut 469

tryItOut 470

tryItOut 471

tryItOut 472

tryItOut 473
Compiling threw: SyntaxError: missing = in destructuring declaration

tryItOut 474

tryItOut 475

tryItOut 476
Running threw: ReferenceError: window is not defined

tryItOut 477

tryItOut 478
Compiling threw: SyntaxError: invalid assignment left-hand side

tryItOut 479

tryItOut 480
Running threw: [object StopIteration]

tryItOut 481

tryItOut 482

tryItOut 483

tryItOut 484
Running threw: /x/

tryItOut 485

tryItOut 486

tryItOut 487

tryItOut 488
Compiling threw: SyntaxError: missing { before function body

tryItOut 489

tryItOut 490
Compiling threw: TypeError: redeclaration of variable __parent__

tryItOut 491
Compiling threw: SyntaxError: missing ; before statement

tryItOut 492

tryItOut 493
Running threw: SyntaxError: return not in function

tryItOut 494
Running threw: 

tryItOut 495
Running threw: [object StopIteration]

tryItOut 496
Compiling threw: SyntaxError: syntax error

tryItOut 497

tryItOut 498
Compiling threw: SyntaxError: missing { before function body

tryItOut 499
Compiling threw: SyntaxError: missing ; before statement

tryItOut 500
Compiling threw: SyntaxError: syntax error

tryItOut 501

tryItOut 502

tryItOut 503

tryItOut 504

tryItOut 505
Compiling threw: SyntaxError: missing { before function body

tryItOut 506
Compiling threw: SyntaxError: missing variable name

tryItOut 507
Compiling threw: SyntaxError: invalid assignment left-hand side

tryItOut 508

tryItOut 509
Compiling threw: SyntaxError: syntax error

tryItOut 510

tryItOut 511

tryItOut 512

tryItOut 513

tryItOut 514

tryItOut 515
Compiling threw: SyntaxError: missing variable name

tryItOut 516

tryItOut 517

tryItOut 518

tryItOut 519
Compiling threw: SyntaxError: missing ) in parenthetical

tryItOut 520
Compiling threw: SyntaxError: missing ; before statement

tryItOut 521

tryItOut 522

tryItOut 523

tryItOut 524

tryItOut 525
Running threw: null

tryItOut 526

tryItOut 527

tryItOut 528

tryItOut 529
Compiling threw: SyntaxError: illegal XML character

tryItOut 530

tryItOut 531

tryItOut 532

tryItOut 533
Compiling threw: SyntaxError: invalid decrement operand

tryItOut 534
Compiling threw: SyntaxError: illegal XML character

tryItOut 535

tryItOut 536

tryItOut 537
Compiling threw: SyntaxError: invalid assignment left-hand side

tryItOut 538

tryItOut 539

tryItOut 540
Compiling threw: TypeError: redeclaration of const __noSuchMethod__

tryItOut 541

tryItOut 542
Running threw: ReferenceError: window is not defined

tryItOut 543
Compiling threw: SyntaxError: missing ) in parenthetical

tryItOut 544
before 191840, after 191840, break 012d9000
Running threw: undefined

tryItOut 545

tryItOut 546

tryItOut 547
Compiling threw: SyntaxError: missing ; before statement

tryItOut 548
Compiling threw: SyntaxError: missing ) in parenthetical

tryItOut 549

tryItOut 550

tryItOut 551

tryItOut 552

tryItOut 553
Running threw: [object StopIteration]

tryItOut 554
Compiling threw: SyntaxError: invalid for/in left-hand side

tryItOut 555

tryItOut 556
Compiling threw: SyntaxError: illegal XML character

tryItOut 557
Running threw: <x>
  <y/>
</x>

tryItOut 558

tryItOut 559

tryItOut 560
Compiling threw: SyntaxError: syntax error

tryItOut 561

tryItOut 562

tryItOut 563
Compiling threw: SyntaxError: missing name in export statement

tryItOut 564
Compiling threw: SyntaxError: illegal XML character

tryItOut 565

tryItOut 566
Compiling threw: SyntaxError: invalid for/in left-hand side

tryItOut 567
Compiling threw: SyntaxError: missing { before function body

tryItOut 568

tryItOut 569
Compiling threw: SyntaxError: missing formal parameter

tryItOut 570
Running threw: undefined

tryItOut 571

tryItOut 572
Compiling threw: SyntaxError: illegal XML character

tryItOut 573
Compiling threw: SyntaxError: syntax error

tryItOut 574

tryItOut 575

tryItOut 576
Compiling threw: SyntaxError: missing { before function body

tryItOut 577
Compiling threw: SyntaxError: missing { before function body

tryItOut 578

tryItOut 579
Running threw: [object StopIteration]

tryItOut 580

tryItOut 581

tryItOut 582
Compiling threw: SyntaxError: illegal XML character

tryItOut 583
Compiling threw: SyntaxError: missing ; before statement

tryItOut 584

tryItOut 585

tryItOut 586
Running threw: [object Object]

tryItOut 587
Compiling threw: SyntaxError: missing ; before statement

tryItOut 588
Running threw: Error: invalid sharp variable use #1#

tryItOut 589
Compiling threw: SyntaxError: missing ) in parenthetical

tryItOut 590
Compiling threw: SyntaxError: missing ; before statement

tryItOut 591

tryItOut 592
Compiling threw: SyntaxError: invalid assignment left-hand side

tryItOut 593
Compiling threw: TypeError: redeclaration of variable __noSuchMethod__

tryItOut 594

tryItOut 595

tryItOut 596
Compiling threw: TypeError: redeclaration of variable __noSuchMethod__

tryItOut 597

tryItOut 598
Compiling threw: SyntaxError: missing variable name

tryItOut 599

tryItOut 600
Running threw: ReferenceError: z1 is not defined

tryItOut 601
Running threw: <x>
  <y/>
</x>

tryItOut 602
It's an iterator!
Iterating succeeded, iterCount == 25

tryItOut 603
Compiling threw: SyntaxError: missing ) in parenthetical

tryItOut 604
It's an iterator!
Iterating succeeded, iterCount == 1

tryItOut 605
Compiling threw: SyntaxError: missing { before function body

tryItOut 606

tryItOut 607
Compiling threw: SyntaxError: invalid assignment left-hand side

tryItOut 608
Running threw: ReferenceError: z1 is not defined

tryItOut 609
Compiling threw: SyntaxError: invalid assignment left-hand side

tryItOut 610

tryItOut 611
Compiling threw: SyntaxError: invalid increment operand

tryItOut 612
Compiling threw: SyntaxError: missing ) in parenthetical

tryItOut 613

tryItOut 614

tryItOut 615
Compiling threw: SyntaxError: syntax error

tryItOut 616
It's an iterator!
Iterating threw!
Iterating threw: TypeError: this.__defineSetter__ is not a function

tryItOut 617

tryItOut 618

tryItOut 619
Running threw: <x>
  <y/>
</x>

tryItOut 620

tryItOut 621

tryItOut 622
Compiling threw: SyntaxError: missing variable name

tryItOut 623

tryItOut 624

tryItOut 625
Running threw: TypeError: __iterator__ has no properties

tryItOut 626
Compiling threw: SyntaxError: missing variable name

tryItOut 627
Compiling threw: SyntaxError: missing ; before statement

tryItOut 628
Compiling threw: SyntaxError: invalid for each loop

tryItOut 629
Compiling threw: TypeError: redeclaration of variable __iterator__

tryItOut 630
Running threw: ReferenceError: __parent__ is not defined

tryItOut 631

tryItOut 632

tryItOut 633
Compiling threw: SyntaxError: invalid for/in left-hand side

tryItOut 634

tryItOut 635

tryItOut 636

tryItOut 637
Compiling threw: SyntaxError: syntax error

tryItOut 638
Compiling threw: SyntaxError: missing formal parameter

tryItOut 639

tryItOut 640

tryItOut 641
Running threw: ReferenceError: __noSuchMethod__ is not defined

tryItOut 642

tryItOut 643

tryItOut 644
Compiling threw: SyntaxError: missing variable name

tryItOut 645
Compiling threw: SyntaxError: invalid assignment left-hand side

tryItOut 646

tryItOut 647

tryItOut 648
Compiling threw: SyntaxError: missing variable name

tryItOut 649
Compiling threw: SyntaxError: missing name after . operator

tryItOut 650
Running threw: ReferenceError: window is not defined

tryItOut 651

tryItOut 652
Compiling threw: SyntaxError: missing ) in parenthetical

tryItOut 653
Compiling threw: SyntaxError: missing { before function body

tryItOut 654

tryItOut 655

tryItOut 656
It's an iterator!
Iterating threw!
Iterating threw: TypeError: undefined has no properties

tryItOut 657

tryItOut 658

tryItOut 659

tryItOut 660
Running threw: [object StopIteration]

tryItOut 661
Compiling threw: SyntaxError: syntax error

tryItOut 662

tryItOut 663
Running threw: ReferenceError: window is not defined

tryItOut 664
Running threw: ReferenceError: window is not defined

tryItOut 665

tryItOut 666
Compiling threw: SyntaxError: missing { before function body

tryItOut 667
Running threw: ReferenceError: __noSuchMethod__ is not defined

tryItOut 668
Compiling threw: SyntaxError: missing variable name

tryItOut 669

tryItOut 670
It's an iterator!
Iterating threw!
Iterating threw: ReferenceError: __noSuchMethod__ is not defined

tryItOut 671
Running threw: Can't toString the error!!

tryItOut 672
Compiling threw: SyntaxError: invalid increment operand

tryItOut 673
Compiling threw: SyntaxError: missing name in export statement

tryItOut 674
Compiling threw: SyntaxError: syntax error

tryItOut 675
Compiling threw: SyntaxError: syntax error

tryItOut 676
Error while trying to determine whether it's an iterator!
The error was: TypeError: Iterator(rv) has invalid __iterator__ value <x>\n  <y/>\n</x>
uneval returned the string: null

tryItOut 677
Running threw: undefined

tryItOut 678

tryItOut 679
Running threw: ReferenceError: __noSuchMethod__ is not defined

tryItOut 680
Running threw: <x>
  <y/>
</x>

tryItOut 681

tryItOut 682

tryItOut 683

tryItOut 684

tryItOut 685
Compiling threw: SyntaxError: syntax error

tryItOut 686

tryItOut 687
Running threw: 110

tryItOut 688

tryItOut 689

tryItOut 690
Compiling threw: SyntaxError: syntax error

tryItOut 691

tryItOut 692

tryItOut 693

tryItOut 694
Running threw: ReferenceError: z1 is not defined

tryItOut 695
Compiling threw: SyntaxError: missing ) in parenthetical

tryItOut 696
Compiling threw: SyntaxError: missing ) in parenthetical

tryItOut 697
It's an iterator!
Iterating succeeded, iterCount == 1

tryItOut 698
Compiling threw: TypeError: redeclaration of variable prop

tryItOut 699
Compiling threw: SyntaxError: invalid assignment left-hand side

tryItOut 700

tryItOut 701
Compiling threw: SyntaxError: syntax error

tryItOut 702
Compiling threw: SyntaxError: invalid XML name

tryItOut 703

tryItOut 704
Compiling threw: SyntaxError: missing variable name

tryItOut 705
It's an iterator!
Iterating threw!
Iterating threw: ReferenceError: window is not defined

tryItOut 706
Compiling threw: SyntaxError: missing { before function body

tryItOut 707

tryItOut 708

tryItOut 709
Compiling threw: SyntaxError: syntax error

tryItOut 710

tryItOut 711

tryItOut 712

tryItOut 713

tryItOut 714
Compiling threw: SyntaxError: missing ) in parenthetical

tryItOut 715

tryItOut 716
Compiling threw: SyntaxError: missing { before function body

tryItOut 717

tryItOut 718
Running threw: ReferenceError: Exception is not defined

tryItOut 719

tryItOut 720

tryItOut 721

tryItOut 722

tryItOut 723
Compiling threw: SyntaxError: invalid increment operand

tryItOut 724
Compiling threw: SyntaxError: missing { before function body

tryItOut 725
Compiling threw: SyntaxError: missing ) in parenthetical

tryItOut 726
Compiling threw: SyntaxError: invalid XML list syntax

tryItOut 727
Compiling threw: SyntaxError: missing variable name

tryItOut 728

tryItOut 729

tryItOut 730

tryItOut 731

tryItOut 732
Compiling threw: SyntaxError: invalid XML name

tryItOut 733

tryItOut 734
Compiling threw: SyntaxError: invalid for/in left-hand side

tryItOut 735

tryItOut 736

tryItOut 737

tryItOut 738

tryItOut 739
Compiling threw: SyntaxError: invalid assignment left-hand side

tryItOut 740

tryItOut 741

tryItOut 742

tryItOut 743

tryItOut 744
Compiling threw: SyntaxError: invalid flag after regular expression

tryItOut 745
Compiling threw: SyntaxError: missing { before function body

tryItOut 746
Compiling threw: SyntaxError: invalid for/in left-hand side

tryItOut 747

tryItOut 748
Compiling threw: SyntaxError: missing { before function body

tryItOut 749

tryItOut 750

tryItOut 751

tryItOut 752
Running threw: TypeError: this.__defineGetter__ is not a function

tryItOut 753

tryItOut 754
Running threw: ReferenceError: __noSuchMethod__ is not defined

tryItOut 755

tryItOut 756
Compiling threw: SyntaxError: missing ) in parenthetical

tryItOut 757
Compiling threw: SyntaxError: missing ) after argument list

tryItOut 758

tryItOut 759

tryItOut 760
Compiling threw: SyntaxError: syntax error

tryItOut 761
Running threw: Can't toString the error!!

tryItOut 762
Compiling threw: SyntaxError: missing { before function body

tryItOut 763
Compiling threw: SyntaxError: missing ; before statement

tryItOut 764

tryItOut 765

tryItOut 766

tryItOut 767
Compiling threw: SyntaxError: invalid decrement operand

tryItOut 768

tryItOut 769

tryItOut 770

tryItOut 771
Compiling threw: SyntaxError: syntax error

tryItOut 772
Running threw: <x>
  <y/>
</x>

tryItOut 773

tryItOut 774

tryItOut 775
Compiling threw: SyntaxError: syntax error

tryItOut 776
Compiling threw: SyntaxError: missing { before function body

tryItOut 777
Compiling threw: SyntaxError: missing variable name

tryItOut 778
Compiling threw: SyntaxError: invalid destructuring assignment operator

tryItOut 779
Compiling threw: SyntaxError: missing ) after let head

tryItOut 780
uneval returned the string: [[1]]

tryItOut 781
Running threw: [object StopIteration]

tryItOut 782

tryItOut 783
Running threw: TypeError: undefined has no properties

tryItOut 784
Running threw: undefined

tryItOut 785
Running threw: TypeError: this.__defineGetter__ is not a function

tryItOut 786
Running threw: ReferenceError: z1 is not defined

tryItOut 787
Running threw: Error: invalid sharp variable use #1#

tryItOut 788
Running threw: [object StopIteration]

tryItOut 789

tryItOut 790

tryItOut 791

tryItOut 792

tryItOut 793
Compiling threw: SyntaxError: missing variable name

tryItOut 794
Running threw: ReferenceError: window is not defined

tryItOut 795

tryItOut 796

tryItOut 797

tryItOut 798

tryItOut 799

tryItOut 800

tryItOut 801
Running threw: ReferenceError: __proto__ is not defined

tryItOut 802

tryItOut 803

tryItOut 804

tryItOut 805

tryItOut 806
Compiling threw: SyntaxError: missing variable name

tryItOut 807
Compiling threw: SyntaxError: missing ; before statement

tryItOut 808

tryItOut 809
Compiling threw: SyntaxError: missing variable name

tryItOut 810
Compiling threw: SyntaxError: missing ) in parenthetical

tryItOut 811
Running threw: <x>
  <y/>
</x>

tryItOut 812

tryItOut 813
Running threw: /x/

tryItOut 814
Compiling threw: SyntaxError: missing variable name

tryItOut 815

tryItOut 816
Compiling threw: SyntaxError: invalid assignment left-hand side

tryItOut 817
Running threw: <x>
  <y/>
</x>

tryItOut 818

tryItOut 819
It's an iterator!
Iterating succeeded, iterCount == 1

tryItOut 820

tryItOut 821

tryItOut 822
Compiling threw: SyntaxError: invalid for/in left-hand side

tryItOut 823
Compiling threw: SyntaxError: missing : after property id

tryItOut 824
Compiling threw: SyntaxError: missing = in destructuring declaration

tryItOut 825
Compiling threw: SyntaxError: invalid for/in left-hand side

tryItOut 826

tryItOut 827

tryItOut 828

tryItOut 829
Running threw: ReferenceError: window is not defined

tryItOut 830
Running threw: ReferenceError: window is not defined

tryItOut 831
Compiling threw: SyntaxError: invalid assignment left-hand side

tryItOut 832
It's an iterator!
Iterating succeeded, iterCount == 1

tryItOut 833
Compiling threw: SyntaxError: missing name in export statement

tryItOut 834

tryItOut 835
Compiling threw: SyntaxError: invalid XML name

tryItOut 836
Running threw: TypeError: ({a1:1}) is not a function

tryItOut 837

tryItOut 838
Compiling threw: SyntaxError: missing variable name

tryItOut 839
Compiling threw: SyntaxError: invalid decrement operand

tryItOut 840

tryItOut 841
Compiling threw: SyntaxError: syntax error

tryItOut 842

tryItOut 843
Compiling threw: SyntaxError: syntax error

tryItOut 844

tryItOut 845

tryItOut 846
Running threw: [object StopIteration]

tryItOut 847

tryItOut 848
Running threw: [object Object]

tryItOut 849

tryItOut 850
Compiling threw: SyntaxError: syntax error

tryItOut 851

tryItOut 852

tryItOut 853
Compiling threw: SyntaxError: missing ) in parenthetical

tryItOut 854
Running threw: 1,

tryItOut 855
Running threw: ReferenceError: __proto__ is not defined

tryItOut 856

tryItOut 857

tryItOut 858
Running threw: [object Object]

tryItOut 859
Compiling threw: SyntaxError: missing variable name

tryItOut 860

tryItOut 861
Compiling threw: SyntaxError: missing = in destructuring declaration

tryItOut 862

tryItOut 863

tryItOut 864

tryItOut 865
Running threw: 

tryItOut 866
Compiling threw: SyntaxError: invalid assignment left-hand side

tryItOut 867

tryItOut 868
Compiling threw: SyntaxError: missing ; before statement

tryItOut 869
Compiling threw: SyntaxError: missing } in XML expression

tryItOut 870
Compiling threw: SyntaxError: missing ; before statement

tryItOut 871
Running threw: Error: invalid sharp variable use #1#

tryItOut 872
Compiling threw: SyntaxError: missing ; before statement

tryItOut 873
Compiling threw: SyntaxError: missing ; before statement

tryItOut 874

tryItOut 875
Running threw: 111

tryItOut 876

tryItOut 877
Running threw: TypeError: setting a property that has only a getter

tryItOut 878
Compiling threw: SyntaxError: missing { before function body

tryItOut 879
Compiling threw: SyntaxError: invalid decrement operand

tryItOut 880
Compiling threw: SyntaxError: missing variable name

tryItOut 881
Compiling threw: SyntaxError: invalid assignment left-hand side

tryItOut 882
Compiling threw: SyntaxError: missing variable name

tryItOut 883
Running threw: ReferenceError: __noSuchMethod__ is not defined

tryItOut 884

tryItOut 885

tryItOut 886

tryItOut 887
Running threw: function ([y]) {
}

tryItOut 888

tryItOut 889
Running threw: [object Object]

tryItOut 890

tryItOut 891
Running threw: ReferenceError: window is not defined

tryItOut 892
Compiling threw: SyntaxError: syntax error

tryItOut 893

tryItOut 894

tryItOut 895

tryItOut 896

tryItOut 897

tryItOut 898
Running threw: ReferenceError: window is not defined

tryItOut 899

tryItOut 900
Running threw: NaN

tryItOut 901
Compiling threw: SyntaxError: missing ; before statement

tryItOut 902

tryItOut 903
Compiling threw: SyntaxError: missing { before function body

tryItOut 904

tryItOut 905

tryItOut 906
Compiling threw: SyntaxError: missing { before function body

tryItOut 907
Compiling threw: SyntaxError: invalid increment operand

tryItOut 908
Running threw: [object StopIteration]

tryItOut 909
Running threw: ReferenceError: __proto__ is not defined

tryItOut 910

tryItOut 911

tryItOut 912
Compiling threw: SyntaxError: missing ( after for

tryItOut 913

tryItOut 914

tryItOut 915
Compiling threw: SyntaxError: missing { before function body

tryItOut 916

tryItOut 917
Running threw: [object Object]

tryItOut 918
Compiling threw: SyntaxError: syntax error

tryItOut 919

tryItOut 920
Compiling threw: SyntaxError: invalid assignment left-hand side

tryItOut 921

tryItOut 922
Compiling threw: SyntaxError: syntax error

tryItOut 923

tryItOut 924

tryItOut 925
Running threw: ReferenceError: z1 is not defined

tryItOut 926

tryItOut 927

tryItOut 928

tryItOut 929
Compiling threw: SyntaxError: syntax error

tryItOut 930
Compiling threw: SyntaxError: syntax error

tryItOut 931

tryItOut 932
Compiling threw: TypeError: redeclaration of const constructor

tryItOut 933
Compiling threw: SyntaxError: missing ) in parenthetical

tryItOut 934

tryItOut 935
Compiling threw: SyntaxError: syntax error

tryItOut 936
Compiling threw: SyntaxError: unterminated regular expression literal

tryItOut 937
Compiling threw: SyntaxError: missing ) in parenthetical

tryItOut 938
Compiling threw: SyntaxError: invalid assignment left-hand side

tryItOut 939

tryItOut 940

tryItOut 941
It's an iterator!
Iterating succeeded, iterCount == 1

tryItOut 942

tryItOut 943

tryItOut 944
Compiling threw: SyntaxError: syntax error

tryItOut 945
Compiling threw: TypeError: redeclaration of const __proto__

tryItOut 946
Running threw: ReferenceError: __proto__ is not defined

tryItOut 947
It's an iterator!
Iterating succeeded, iterCount == 1

tryItOut 948

tryItOut 949
Running threw: 112

tryItOut 950
Compiling threw: SyntaxError: missing formal parameter

tryItOut 951
Compiling threw: SyntaxError: missing ) in parenthetical

tryItOut 952

tryItOut 953

tryItOut 954

tryItOut 955
Running threw: TypeError: setting a property that has only a getter

tryItOut 956
Compiling threw: SyntaxError: invalid assignment left-hand side

tryItOut 957

tryItOut 958
Compiling threw: TypeError: redeclaration of variable prototype

tryItOut 959
Compiling threw: SyntaxError: syntax error

tryItOut 960

tryItOut 961

tryItOut 962
Compiling threw: SyntaxError: missing variable name

tryItOut 963

tryItOut 964
Compiling threw: SyntaxError: illegal XML character

tryItOut 965

tryItOut 966

tryItOut 967
Compiling threw: SyntaxError: invalid decrement operand

tryItOut 968
Running threw: <x>
  <y/>
</x>

tryItOut 969

tryItOut 970
Compiling threw: SyntaxError: missing formal parameter

tryItOut 971
Running threw: [object StopIteration]

tryItOut 972

tryItOut 973

tryItOut 974

tryItOut 975
Running threw: NaN

tryItOut 976

tryItOut 977

tryItOut 978
Compiling threw: SyntaxError: missing ; before statement

tryItOut 979
Running threw: Can't toString the error!!

tryItOut 980

tryItOut 981

tryItOut 982
Compiling threw: SyntaxError: missing { before function body

tryItOut 983
Running threw: Can't toString the error!!

tryItOut 984
Compiling threw: SyntaxError: invalid for/in left-hand side

tryItOut 985
Compiling threw: SyntaxError: missing : after property id

tryItOut 986
Compiling threw: SyntaxError: missing { before function body

tryItOut 987

tryItOut 988

tryItOut 989
Compiling threw: SyntaxError: missing variable name

tryItOut 990

tryItOut 991

tryItOut 992
Compiling threw: SyntaxError: duplicate label

tryItOut 993
Running threw: <x>
  <y/>
</x>

tryItOut 994
Compiling threw: SyntaxError: missing variable name

tryItOut 995

tryItOut 996
Running threw: ReferenceError: window is not defined

tryItOut 997
Compiling threw: SyntaxError: missing ) in parenthetical

tryItOut 998

tryItOut 999
Compiling threw: TypeError: redeclaration of variable prop

tryItOut 1000

ALL OK

Script done on Sat 04 May 2013 05:16:10 AM PDT
