Script started on Sat 04 May 2013 05:19:18 AM PDT
***
Targeting SpiderMonkey / Gecko.

tryItOut 1
Compiling threw: SyntaxError: label not found

tryItOut 2

tryItOut 3

tryItOut 4
Compiling threw: SyntaxError: illegal XML character

tryItOut 5
Compiling threw: SyntaxError: missing ) in parenthetical

tryItOut 6
Compiling threw: SyntaxError: invalid for/in left-hand side

tryItOut 7
Compiling threw: TypeError: redeclaration of var prototype

tryItOut 8
Running threw: TypeError: this.zzz has no properties

tryItOut 9
Running threw: TypeError: this.zzz has no properties

tryItOut 10

tryItOut 11
Compiling threw: SyntaxError: illegal XML character

tryItOut 12
Compiling threw: SyntaxError: missing variable name

tryItOut 13

tryItOut 14
Compiling threw: SyntaxError: duplicate label

tryItOut 15

tryItOut 16
Compiling threw: SyntaxError: invalid for/in left-hand side

tryItOut 17
Compiling threw: SyntaxError: missing variable name

tryItOut 18

tryItOut 19
Compiling threw: SyntaxError: invalid for/in left-hand side

tryItOut 20

tryItOut 21
Compiling threw: SyntaxError: missing { before function body

tryItOut 22

tryItOut 23

tryItOut 24
Running threw: ReferenceError: prop is not defined

tryItOut 25
Compiling threw: SyntaxError: invalid decrement operand

tryItOut 26

tryItOut 27
Compiling threw: SyntaxError: invalid assignment left-hand side

tryItOut 28
Compiling threw: SyntaxError: missing = in destructuring declaration

tryItOut 29
before 87200, after 87200, break 012ed000

tryItOut 30
Compiling threw: SyntaxError: invalid for/in left-hand side

tryItOut 31

tryItOut 32
Compiling threw: SyntaxError: missing variable name

tryItOut 33

tryItOut 34
Running threw: ReferenceError: reference to undefined XML name *::*

tryItOut 35
Compiling threw: SyntaxError: syntax error

tryItOut 36
Compiling threw: TypeError: redeclaration of var __iterator__

tryItOut 37

tryItOut 38
Running threw: ReferenceError: prototype is not defined

tryItOut 39
Compiling threw: SyntaxError: illegal XML character

tryItOut 40

tryItOut 41

tryItOut 42
Compiling threw: SyntaxError: invalid XML tag syntax

tryItOut 43
Compiling threw: SyntaxError: invalid destructuring assignment operator

tryItOut 44

tryItOut 45
Compiling threw: SyntaxError: invalid continue

tryItOut 46

tryItOut 47
Compiling threw: SyntaxError: missing variable name

tryItOut 48
Compiling threw: SyntaxError: illegal XML character

tryItOut 49
Running threw: TypeError: this.zzz has no properties

tryItOut 50

tryItOut 51
Compiling threw: SyntaxError: missing ] after element list

tryItOut 52

tryItOut 53
Compiling threw: SyntaxError: syntax error

tryItOut 54
Compiling threw: SyntaxError: missing variable name

tryItOut 55
Running threw: TypeError: arguments[0] has no properties

tryItOut 56

tryItOut 57
Compiling threw: SyntaxError: missing { before function body

tryItOut 58

tryItOut 59

tryItOut 60

tryItOut 61
Compiling threw: SyntaxError: invalid assignment left-hand side

tryItOut 62
Compiling threw: SyntaxError: illegal XML character

tryItOut 63

tryItOut 64
Running threw: ReferenceError: __iterator__ is not defined

tryItOut 65

tryItOut 66

tryItOut 67

tryItOut 68
before 104640, after 104640, break 01300000

tryItOut 69
Running threw: TypeError: this.zzz has no properties

tryItOut 70
Compiling threw: SyntaxError: invalid XML tag syntax

tryItOut 71

tryItOut 72
It's an iterator!
Iterating threw!
Iterating threw: Error: invalid sharp variable use #1#

tryItOut 73
Compiling threw: SyntaxError: invalid assignment left-hand side

tryItOut 74
Compiling threw: SyntaxError: invalid XML name

tryItOut 75
Running threw: ReferenceError: reference to undefined XML name *

tryItOut 76
It's an iterator!
Iterating threw!
Iterating threw: ReferenceError: __iterator__ is not defined

tryItOut 77

tryItOut 78

tryItOut 79

tryItOut 80
Running threw: ReferenceError: reference to undefined XML name *::*

tryItOut 81
Compiling threw: SyntaxError: missing name after . operator

tryItOut 82

tryItOut 83
Compiling threw: SyntaxError: invalid assignment left-hand side

tryItOut 84
Compiling threw: SyntaxError: invalid continue

tryItOut 85
Compiling threw: SyntaxError: missing ) in parenthetical

tryItOut 86
Compiling threw: SyntaxError: missing variable name

tryItOut 87
Compiling threw: SyntaxError: syntax error

tryItOut 88

tryItOut 89

tryItOut 90
Running threw: ReferenceError: __iterator__ is not defined

tryItOut 91
Compiling threw: SyntaxError: missing variable name

tryItOut 92
Compiling threw: SyntaxError: missing ) after let head

tryItOut 93
Compiling threw: SyntaxError: missing ) in parenthetical

tryItOut 94
Compiling threw: SyntaxError: missing ; before statement

tryItOut 95
Compiling threw: SyntaxError: missing variable name

tryItOut 96
Running threw: ReferenceError: reference to undefined XML name *::*

tryItOut 97
Running threw: function Object() {
    [native code]
}

tryItOut 98
Compiling threw: SyntaxError: missing ) in parenthetical

tryItOut 99
Compiling threw: SyntaxError: unterminated comment

tryItOut 100
Compiling threw: SyntaxError: syntax error

tryItOut 101
Running threw: [object StopIteration]

tryItOut 102
Running threw: ReferenceError: __iterator__ is not defined

tryItOut 103
Compiling threw: SyntaxError: missing variable name

tryItOut 104
It's an iterator!
Iterating threw!
Iterating threw: ReferenceError: __iterator__ is not defined

tryItOut 105

tryItOut 106
Compiling threw: SyntaxError: invalid continue

tryItOut 107
Compiling threw: SyntaxError: missing ( before formal parameters

tryItOut 108

tryItOut 109
Compiling threw: TypeError: redeclaration of const prototype

tryItOut 110

tryItOut 111
Compiling threw: SyntaxError: syntax error

tryItOut 112
Compiling threw: SyntaxError: syntax error

tryItOut 113

tryItOut 114

tryItOut 115
Compiling threw: SyntaxError: syntax error

tryItOut 116
Compiling threw: SyntaxError: syntax error

tryItOut 117

tryItOut 118
Running threw: TypeError: this.zzz has no properties

tryItOut 119
Compiling threw: SyntaxError: invalid for/in left-hand side

tryItOut 120
Running threw: ReferenceError: prop is not defined

tryItOut 121
Running threw: TypeError: [[1]] is not a constructor

tryItOut 122
Compiling threw: SyntaxError: invalid for/in left-hand side

tryItOut 123
Compiling threw: SyntaxError: syntax error

tryItOut 124
Compiling threw: SyntaxError: missing = in destructuring declaration

tryItOut 125

tryItOut 126
It's an iterator!
Iterating threw!
Iterating threw: ReferenceError: reference to undefined XML name @foo

tryItOut 127
Compiling threw: SyntaxError: syntax error

tryItOut 128

tryItOut 129

tryItOut 130

tryItOut 131
It's an iterator!
Iterating threw!
Iterating threw: TypeError: this.zzz has no properties

tryItOut 132
Compiling threw: SyntaxError: missing variable name

tryItOut 133
Compiling threw: SyntaxError: missing { before function body

tryItOut 134
Compiling threw: SyntaxError: missing ; after for-loop initializer

tryItOut 135

tryItOut 136
Compiling threw: SyntaxError: label not found

tryItOut 137
Compiling threw: SyntaxError: label not found

tryItOut 138

tryItOut 139

tryItOut 140

tryItOut 141

tryItOut 142
Compiling threw: TypeError: redeclaration of const prop

tryItOut 143
Running threw: ReferenceError: reference to undefined XML name *

tryItOut 144
Compiling threw: SyntaxError: illegal XML character

tryItOut 145
Running threw: ReferenceError: reference to undefined XML name @foo

tryItOut 146

tryItOut 147
It's an iterator!
Iterating succeeded, iterCount == 1

tryItOut 148
Compiling threw: SyntaxError: invalid for/in left-hand side

tryItOut 149

tryItOut 150
Compiling threw: SyntaxError: missing { before function body

tryItOut 151

tryItOut 152
Running threw: [object StopIteration]

tryItOut 153
Compiling threw: SyntaxError: syntax error

tryItOut 154
Running threw: ReferenceError: prototype is not defined

tryItOut 155
Compiling threw: SyntaxError: illegal XML character

tryItOut 156
Compiling threw: SyntaxError: illegal XML character

tryItOut 157

tryItOut 158

tryItOut 159
Compiling threw: TypeError: redeclaration of const constructor

tryItOut 160
Compiling threw: SyntaxError: label not found

tryItOut 161
Running threw: ReferenceError: reference to undefined XML name @foo

tryItOut 162

tryItOut 163
Compiling threw: SyntaxError: missing ) in parenthetical

tryItOut 164
Compiling threw: SyntaxError: invalid break

tryItOut 165
Compiling threw: SyntaxError: syntax error

tryItOut 166
Compiling threw: SyntaxError: missing ) after let head

tryItOut 167
It's an iterator!
Iterating threw!
Iterating threw: ReferenceError: reference to undefined XML name @foo

tryItOut 168
Compiling threw: SyntaxError: unterminated regular expression literal

tryItOut 169

tryItOut 170

tryItOut 171
Compiling threw: SyntaxError: invalid for/in left-hand side

tryItOut 172
Compiling threw: SyntaxError: label not found

tryItOut 173

tryItOut 174
Compiling threw: SyntaxError: invalid assignment left-hand side

tryItOut 175

tryItOut 176
Compiling threw: SyntaxError: label not found

tryItOut 177
Compiling threw: SyntaxError: missing ; before statement

tryItOut 178
Compiling threw: SyntaxError: syntax error

tryItOut 179
Compiling threw: SyntaxError: syntax error

tryItOut 180
Compiling threw: SyntaxError: invalid assignment left-hand side

tryItOut 181
Running threw: ReferenceError: prototype is not defined

tryItOut 182
It's an iterator!
Iterating threw!
Iterating threw: ReferenceError: reference to undefined XML name *::*

tryItOut 183

tryItOut 184

tryItOut 185

tryItOut 186

tryItOut 187
Running threw: ReferenceError: __iterator__ is not defined

tryItOut 188
Compiling threw: SyntaxError: missing { before function body

tryItOut 189
Compiling threw: SyntaxError: missing variable name

tryItOut 190
Compiling threw: SyntaxError: missing variable name

tryItOut 191
Running threw: ReferenceError: reference to undefined XML name @foo

tryItOut 192
Running threw: <x>
  <y/>
</x>

tryItOut 193
Compiling threw: SyntaxError: missing ) in parenthetical

tryItOut 194
Compiling threw: SyntaxError: missing = in destructuring declaration

tryItOut 195
Compiling threw: SyntaxError: invalid assignment left-hand side

tryItOut 196
Running threw: ReferenceError: reference to undefined XML name @foo

tryItOut 197
Compiling threw: SyntaxError: invalid assignment left-hand side

tryItOut 198
Compiling threw: TypeError: redeclaration of variable __parent__

tryItOut 199

tryItOut 200

tryItOut 201

tryItOut 202

tryItOut 203

tryItOut 204
Compiling threw: SyntaxError: missing ; before statement

tryItOut 205
Compiling threw: SyntaxError: missing ) in parenthetical

tryItOut 206
It's an iterator!
Iterating succeeded, iterCount == 1

tryItOut 207
It's an iterator!
Iterating succeeded, iterCount == 1

tryItOut 208
It's an iterator!
Iterating threw!
Iterating threw: ReferenceError: reference to undefined XML name @foo

tryItOut 209

tryItOut 210

tryItOut 211
Running threw: ReferenceError: prototype is not defined

tryItOut 212

tryItOut 213
Compiling threw: SyntaxError: duplicate label

tryItOut 214
Compiling threw: SyntaxError: missing ; before statement

tryItOut 215

tryItOut 216
Compiling threw: SyntaxError: invalid for/in left-hand side

tryItOut 217
Compiling threw: SyntaxError: missing variable name

tryItOut 218
It's an iterator!
Iterating threw!
Iterating threw: TypeError: #1={a:#1#} is not a constructor

tryItOut 219
Compiling threw: TypeError: redeclaration of variable __iterator__

tryItOut 220

tryItOut 221
Compiling threw: SyntaxError: duplicate label

tryItOut 222
Compiling threw: SyntaxError: missing variable name

tryItOut 223

tryItOut 224

tryItOut 225
Compiling threw: SyntaxError: invalid for/in left-hand side

tryItOut 226

tryItOut 227
Compiling threw: SyntaxError: invalid for/in left-hand side

tryItOut 228
Compiling threw: SyntaxError: invalid for/in left-hand side

tryItOut 229

tryItOut 230
Compiling threw: SyntaxError: missing = in destructuring declaration

tryItOut 231
It's an iterator!
Iterating succeeded, iterCount == 1

tryItOut 232
Running threw: ReferenceError: reference to undefined XML name *::*

tryItOut 233
Compiling threw: TypeError: generator function anonymous returns a value

tryItOut 234
Compiling threw: SyntaxError: missing variable name

tryItOut 235

tryItOut 236
Compiling threw: SyntaxError: missing ) in parenthetical

tryItOut 237
Running threw: ReferenceError: reference to undefined XML name *

tryItOut 238
Compiling threw: SyntaxError: invalid for/in left-hand side

tryItOut 239
Compiling threw: SyntaxError: missing = in destructuring declaration

tryItOut 240
Compiling threw: SyntaxError: invalid for/in left-hand side

tryItOut 241
Compiling threw: SyntaxError: invalid for/in left-hand side

tryItOut 242

tryItOut 243
Compiling threw: SyntaxError: invalid destructuring assignment operator

tryItOut 244
Compiling threw: TypeError: redeclaration of const prototype

tryItOut 245
Compiling threw: SyntaxError: invalid continue

tryItOut 246
before 174400, after 174400, break 013c2000

tryItOut 247
Compiling threw: SyntaxError: invalid for/in left-hand side

tryItOut 248
Running threw: TypeError: this.zzz has no properties

tryItOut 249
Compiling threw: TypeError: redeclaration of variable __noSuchMethod__

tryItOut 250
Compiling threw: SyntaxError: missing = in destructuring declaration

tryItOut 251

tryItOut 252
Compiling threw: SyntaxError: invalid for/in left-hand side

tryItOut 253

tryItOut 254
Compiling threw: SyntaxError: syntax error

tryItOut 255

tryItOut 256
Compiling threw: SyntaxError: missing ; after for-loop initializer

tryItOut 257

tryItOut 258

tryItOut 259

tryItOut 260
Running threw: [object Object]

tryItOut 261
Compiling threw: TypeError: anonymous generator function returns a value

tryItOut 262
Running threw: [object StopIteration]

tryItOut 263
Compiling threw: SyntaxError: invalid continue

tryItOut 264
Running threw: ReferenceError: reference to undefined XML name *

tryItOut 265
Running threw: ReferenceError: reference to undefined XML name *::*

tryItOut 266

tryItOut 267

tryItOut 268

tryItOut 269
Running threw: ReferenceError: z1 is not defined

tryItOut 270
Compiling threw: SyntaxError: invalid assignment left-hand side

tryItOut 271
Compiling threw: SyntaxError: syntax error

tryItOut 272

tryItOut 273

tryItOut 274
Compiling threw: SyntaxError: missing { before function body

tryItOut 275

tryItOut 276

tryItOut 277
Compiling threw: SyntaxError: missing ; before statement

tryItOut 278
Compiling threw: SyntaxError: missing { before function body

tryItOut 279
Running threw: 107

tryItOut 280

tryItOut 281

tryItOut 282
Compiling threw: SyntaxError: missing variable name

tryItOut 283
Compiling threw: SyntaxError: syntax error

tryItOut 284

tryItOut 285

tryItOut 286
It's an iterator!
Iterating succeeded, iterCount == 0

tryItOut 287
uneval returned the string: [undefined]

tryItOut 288
Compiling threw: SyntaxError: missing variable name

tryItOut 289
Compiling threw: SyntaxError: missing variable name

tryItOut 290

tryItOut 291
Running threw: TypeError: __parent__ has no properties

tryItOut 292
Compiling threw: SyntaxError: label not found

tryItOut 293

tryItOut 294
Compiling threw: SyntaxError: missing { before function body

tryItOut 295
Compiling threw: TypeError: redeclaration of const constructor

tryItOut 296
Compiling threw: SyntaxError: label not found

tryItOut 297

tryItOut 298

tryItOut 299
Compiling threw: SyntaxError: missing = in destructuring declaration

tryItOut 300

tryItOut 301
Compiling threw: TypeError: generator function anonymous returns a value

tryItOut 302
before 174400, after 174400, break 013c2000

tryItOut 303
Compiling threw: SyntaxError: missing ; before statement

tryItOut 304

tryItOut 305

tryItOut 306
Compiling threw: SyntaxError: invalid for/in left-hand side

tryItOut 307
Compiling threw: SyntaxError: invalid XML markup

tryItOut 308
It's an iterator!
Iterating succeeded, iterCount == 1

tryItOut 309
Compiling threw: SyntaxError: missing ) after for-loop control

tryItOut 310

tryItOut 311
Compiling threw: SyntaxError: syntax error

tryItOut 312
Compiling threw: SyntaxError: invalid break

tryItOut 313

tryItOut 314
Compiling threw: TypeError: redeclaration of var __count__

tryItOut 315
Running threw: TypeError: this.zzz has no properties

tryItOut 316
Compiling threw: SyntaxError: invalid for/in left-hand side

tryItOut 317

tryItOut 318
Running threw: ReferenceError: reference to undefined XML name *::*

tryItOut 319

tryItOut 320
Running threw: ReferenceError: reference to undefined XML name @foo

tryItOut 321

tryItOut 322
Compiling threw: TypeError: generator function anonymous returns a value

tryItOut 323
Compiling threw: SyntaxError: missing ) after argument list

tryItOut 324
Running threw: ReferenceError: reference to undefined XML name *::*

tryItOut 325

tryItOut 326
Compiling threw: SyntaxError: missing variable name

tryItOut 327
Compiling threw: SyntaxError: missing ) in parenthetical

tryItOut 328
Compiling threw: SyntaxError: label not found

tryItOut 329
Compiling threw: SyntaxError: invalid for/in left-hand side

tryItOut 330

tryItOut 331

tryItOut 332
Running threw: ReferenceError: prop is not defined

tryItOut 333
Running threw: ReferenceError: prop is not defined

tryItOut 334
Compiling threw: SyntaxError: missing variable name

tryItOut 335
Compiling threw: SyntaxError: invalid for/in left-hand side

tryItOut 336

tryItOut 337

tryItOut 338
Compiling threw: SyntaxError: invalid for/in left-hand side

tryItOut 339

tryItOut 340
Compiling threw: SyntaxError: syntax error

tryItOut 341
Compiling threw: SyntaxError: missing ; before statement

tryItOut 342

tryItOut 343

tryItOut 344
Compiling threw: SyntaxError: invalid assignment left-hand side

tryItOut 345
Compiling threw: SyntaxError: invalid for/in left-hand side

tryItOut 346

tryItOut 347
Compiling threw: SyntaxError: invalid break

tryItOut 348
Compiling threw: SyntaxError: invalid continue

tryItOut 349

tryItOut 350

tryItOut 351
Compiling threw: SyntaxError: invalid assignment left-hand side

tryItOut 352
Running threw: TypeError: this.zzz has no properties

tryItOut 353

tryItOut 354
Compiling threw: SyntaxError: missing variable name

tryItOut 355
Running threw: ReferenceError: reference to undefined XML name *::*

tryItOut 356
Compiling threw: SyntaxError: missing ; before statement

tryItOut 357
Compiling threw: SyntaxError: missing variable name

tryItOut 358
Compiling threw: TypeError: redeclaration of variable __parent__

tryItOut 359
Compiling threw: TypeError: redeclaration of const prop

tryItOut 360
Compiling threw: SyntaxError: missing ] after element list

tryItOut 361
Compiling threw: SyntaxError: missing ; before statement

tryItOut 362

tryItOut 363
Running threw: TypeError:  is not a function

tryItOut 364
Compiling threw: SyntaxError: invalid for/in left-hand side

tryItOut 365

tryItOut 366
Compiling threw: TypeError: redeclaration of variable __iterator__

tryItOut 367

tryItOut 368
Compiling threw: SyntaxError: invalid for/in left-hand side

tryItOut 369

tryItOut 370
Compiling threw: SyntaxError: invalid destructuring assignment operator

tryItOut 371

tryItOut 372
Compiling threw: SyntaxError: invalid break

tryItOut 373

tryItOut 374

tryItOut 375
Running threw: TypeError:  is not a function

tryItOut 376

tryItOut 377
Compiling threw: SyntaxError: syntax error

tryItOut 378
Compiling threw: SyntaxError: invalid continue

tryItOut 379

tryItOut 380
Compiling threw: TypeError: redeclaration of variable prototype

tryItOut 381

tryItOut 382
Running threw: ReferenceError: reference to undefined XML name *::*

tryItOut 383

tryItOut 384
Compiling threw: TypeError: anonymous generator function returns a value

tryItOut 385
Running threw: ReferenceError: z1 is not defined

tryItOut 386

tryItOut 387

tryItOut 388

tryItOut 389

tryItOut 390
It's an iterator!
Iterating succeeded, iterCount == 1

tryItOut 391
Compiling threw: SyntaxError: invalid for/in left-hand side

tryItOut 392
Compiling threw: SyntaxError: duplicate label

tryItOut 393
Compiling threw: SyntaxError: invalid continue

tryItOut 394

tryItOut 395

tryItOut 396
Compiling threw: SyntaxError: missing variable name

tryItOut 397

tryItOut 398

tryItOut 399
Compiling threw: SyntaxError: invalid for/in left-hand side

tryItOut 400

tryItOut 401

tryItOut 402
before 174400, after 174400, break 013c2000

tryItOut 403
Compiling threw: SyntaxError: syntax error

tryItOut 404
Running threw: ReferenceError: reference to undefined XML name @foo

tryItOut 405

tryItOut 406
Running threw: <x>
  <y/>
</x>

tryItOut 407

tryItOut 408
Compiling threw: SyntaxError: illegal XML character

tryItOut 409

tryItOut 410
before 174400, after 174400, break 013c2000
Running threw: ReferenceError: z2 is not defined

tryItOut 411
It's an iterator!
Iterating succeeded, iterCount == 1

tryItOut 412

tryItOut 413

tryItOut 414
It's an iterator!
Iterating succeeded, iterCount == 1

tryItOut 415
Compiling threw: SyntaxError: missing ; after for-loop initializer

tryItOut 416
Compiling threw: SyntaxError: missing formal parameter

tryItOut 417
Compiling threw: SyntaxError: missing = in destructuring declaration

tryItOut 418

tryItOut 419
Compiling threw: SyntaxError: missing ; after for-loop initializer

tryItOut 420

tryItOut 421
It's an iterator!
Iterating succeeded, iterCount == 1

tryItOut 422

tryItOut 423
Compiling threw: SyntaxError: missing = in destructuring declaration

tryItOut 424
Compiling threw: SyntaxError: syntax error

tryItOut 425

tryItOut 426

tryItOut 427
Compiling threw: SyntaxError: syntax error

tryItOut 428

tryItOut 429
Compiling threw: SyntaxError: missing variable name

tryItOut 430

tryItOut 431
Running threw: [object StopIteration]

tryItOut 432
Compiling threw: SyntaxError: invalid assignment left-hand side

tryItOut 433
Compiling threw: SyntaxError: invalid break

tryItOut 434

tryItOut 435

tryItOut 436
Running threw: ReferenceError: reference to undefined XML name *::*

tryItOut 437
Compiling threw: SyntaxError: invalid continue

tryItOut 438
Compiling threw: SyntaxError: invalid property id

tryItOut 439

tryItOut 440
Compiling threw: SyntaxError: invalid assignment left-hand side

tryItOut 441
It's an iterator!
Iterating succeeded, iterCount == 1

tryItOut 442

tryItOut 443
Compiling threw: SyntaxError: missing ) after argument list

tryItOut 444

tryItOut 445

tryItOut 446
Compiling threw: TypeError: redeclaration of const prototype

tryItOut 447
Compiling threw: SyntaxError: invalid default XML namespace

tryItOut 448
Compiling threw: TypeError: redeclaration of variable __count__

tryItOut 449
Compiling threw: SyntaxError: syntax error

tryItOut 450
It's an iterator!
Iterating succeeded, iterCount == 1

tryItOut 451
Compiling threw: SyntaxError: missing ) after let head

tryItOut 452
Compiling threw: SyntaxError: invalid assignment left-hand side

tryItOut 453
Compiling threw: SyntaxError: label not found

tryItOut 454

tryItOut 455
Compiling threw: SyntaxError: missing ) after condition

tryItOut 456

tryItOut 457

tryItOut 458

tryItOut 459
Compiling threw: SyntaxError: missing variable name

tryItOut 460

tryItOut 461
Compiling threw: SyntaxError: invalid break

tryItOut 462
Compiling threw: SyntaxError: missing ( before let head

tryItOut 463
Compiling threw: SyntaxError: invalid break

tryItOut 464
Compiling threw: SyntaxError: label not found

tryItOut 465
Running threw: ,

tryItOut 466
Running threw: TypeError: __count__.watch(__parent__) is not a function

tryItOut 467
It's an iterator!
Iterating succeeded, iterCount == 1

tryItOut 468

tryItOut 469
Compiling threw: TypeError: redeclaration of var __parent__

tryItOut 470

tryItOut 471
Compiling threw: SyntaxError: invalid assignment left-hand side

tryItOut 472

tryItOut 473

tryItOut 474
Compiling threw: TypeError: generator function anonymous returns a value

tryItOut 475

tryItOut 476
Running threw: TypeError: "a" is not a function

tryItOut 477
Running threw: TypeError: __iterator__ is not a constructor

tryItOut 478

tryItOut 479

tryItOut 480
Compiling threw: SyntaxError: label not found

tryItOut 481

tryItOut 482
Compiling threw: SyntaxError: invalid for/in left-hand side

tryItOut 483
Compiling threw: SyntaxError: invalid default XML namespace

tryItOut 484

tryItOut 485

tryItOut 486

tryItOut 487
Running threw: TypeError: this.__defineSetter__("__count__", [1, 2, 3, 4].map) has no properties

tryItOut 488

tryItOut 489
Compiling threw: TypeError: generator function anonymous returns a value

tryItOut 490
Compiling threw: SyntaxError: missing variable name

tryItOut 491

tryItOut 492
Compiling threw: SyntaxError: invalid for/in left-hand side

tryItOut 493
before 174400, after 174400, break 013d2000

tryItOut 494

tryItOut 495
Compiling threw: SyntaxError: missing ; after for-loop initializer

tryItOut 496
Compiling threw: SyntaxError: missing ) after condition

tryItOut 497
Running threw: <x>
  <y/>
</x>

tryItOut 498
Running threw: ReferenceError: reference to undefined XML name @foo

tryItOut 499
Compiling threw: SyntaxError: missing variable name

tryItOut 500
Compiling threw: SyntaxError: invalid assignment left-hand side

tryItOut 501
Compiling threw: SyntaxError: duplicate label

tryItOut 502
Compiling threw: SyntaxError: invalid assignment left-hand side

tryItOut 503
Running threw: TypeError: this.zzz has no properties

tryItOut 504
Running threw: TypeError: this.zzz has no properties

tryItOut 505
Compiling threw: SyntaxError: invalid assignment left-hand side

tryItOut 506
Compiling threw: SyntaxError: missing } in XML expression

tryItOut 507
Compiling threw: SyntaxError: missing ) in parenthetical

tryItOut 508
Running threw: ReferenceError: reference to undefined XML name *::*

tryItOut 509

tryItOut 510
before 174400, after 174400, break 013d2000

tryItOut 511
Running threw: ReferenceError: reference to undefined XML name *::*

tryItOut 512

tryItOut 513
Compiling threw: SyntaxError: invalid break

tryItOut 514
Running threw: ReferenceError: reference to undefined XML name @foo

tryItOut 515
It's an iterator!
Iterating threw!
Iterating threw: ReferenceError: reference to undefined XML name @foo

tryItOut 516
Compiling threw: SyntaxError: illegal XML character

tryItOut 517
Compiling threw: SyntaxError: duplicate label

tryItOut 518

tryItOut 519
Compiling threw: SyntaxError: invalid for/in left-hand side

tryItOut 520
Running threw: [object StopIteration]

tryItOut 521
Running threw: ReferenceError: prop is not defined

tryItOut 522

tryItOut 523
Running threw: [object Object]

tryItOut 524
It's an iterator!
Iterating threw!
Iterating threw: ReferenceError: reference to undefined XML name @foo

tryItOut 525

tryItOut 526
Running threw: ReferenceError: reference to undefined XML name *::*

tryItOut 527
Compiling threw: SyntaxError: missing ) in parenthetical

tryItOut 528
Running threw: ReferenceError: reference to undefined XML name @foo

tryItOut 529
Compiling threw: SyntaxError: missing variable name

tryItOut 530

tryItOut 531
Compiling threw: TypeError: redeclaration of var __count__

tryItOut 532
Compiling threw: SyntaxError: missing variable name

tryItOut 533

tryItOut 534

tryItOut 535
Compiling threw: SyntaxError: invalid continue

tryItOut 536

tryItOut 537
Compiling threw: TypeError: redeclaration of variable __noSuchMethod__

tryItOut 538
Compiling threw: TypeError: generator function anonymous returns a value

tryItOut 539

tryItOut 540
Compiling threw: SyntaxError: invalid for/in left-hand side

tryItOut 541
Running threw: ReferenceError: reference to undefined XML name *

tryItOut 542
Compiling threw: SyntaxError: label not found

tryItOut 543
Running threw: ,

tryItOut 544

tryItOut 545
Compiling threw: SyntaxError: missing ; before statement

tryItOut 546
Compiling threw: SyntaxError: invalid continue

tryItOut 547
Compiling threw: SyntaxError: invalid assignment left-hand side

tryItOut 548
Compiling threw: SyntaxError: illegal XML character

tryItOut 549
Compiling threw: SyntaxError: missing variable name

tryItOut 550
Compiling threw: SyntaxError: missing ; before statement

tryItOut 551
Compiling threw: SyntaxError: invalid break

tryItOut 552
before 174400, after 174400, break 013d2000

tryItOut 553
Running threw: ReferenceError: reference to undefined XML name *

tryItOut 554

tryItOut 555
Compiling threw: SyntaxError: syntax error

tryItOut 556
before 174400, after 174400, break 013d2000

tryItOut 557

tryItOut 558
Compiling threw: SyntaxError: invalid for/in left-hand side

tryItOut 559
Compiling threw: SyntaxError: invalid default XML namespace

tryItOut 560
Compiling threw: SyntaxError: invalid continue

tryItOut 561
Compiling threw: SyntaxError: invalid for/in left-hand side

tryItOut 562

tryItOut 563

tryItOut 564
Running threw: ReferenceError: reference to undefined XML name *

tryItOut 565
Compiling threw: SyntaxError: missing ) in parenthetical

tryItOut 566

tryItOut 567
Compiling threw: SyntaxError: unterminated comment

tryItOut 568
Compiling threw: SyntaxError: invalid for/in left-hand side

tryItOut 569

tryItOut 570
Compiling threw: SyntaxError: missing ; before statement

tryItOut 571
Compiling threw: SyntaxError: invalid destructuring assignment operator

tryItOut 572
It's an iterator!
Iterating threw!
Iterating threw: ReferenceError: reference to undefined XML name *

tryItOut 573
Compiling threw: SyntaxError: syntax error

tryItOut 574
Compiling threw: SyntaxError: missing variable name

tryItOut 575
Running threw: TypeError: __parent__ has no properties

tryItOut 576
Compiling threw: SyntaxError: invalid for/in left-hand side

tryItOut 577

tryItOut 578
Compiling threw: SyntaxError: invalid continue

tryItOut 579
Compiling threw: SyntaxError: missing ) after argument list

tryItOut 580
Compiling threw: SyntaxError: syntax error

tryItOut 581

tryItOut 582

tryItOut 583
Compiling threw: SyntaxError: missing { before function body

tryItOut 584

tryItOut 585

tryItOut 586

tryItOut 587
Compiling threw: TypeError: generator function anonymous returns a value

tryItOut 588
Compiling threw: SyntaxError: missing variable name

tryItOut 589
Compiling threw: SyntaxError: invalid break

tryItOut 590

tryItOut 591
Running threw: ReferenceError: reference to undefined XML name @foo

tryItOut 592

tryItOut 593

tryItOut 594
before 174400, after 174400, break 013d2000

tryItOut 595

tryItOut 596

tryItOut 597
Compiling threw: SyntaxError: illegal XML character

tryItOut 598

tryItOut 599
Running threw: ReferenceError: reference to undefined XML name @foo

tryItOut 600

tryItOut 601
Compiling threw: SyntaxError: label not found

tryItOut 602
Compiling threw: SyntaxError: invalid continue

tryItOut 603
Compiling threw: SyntaxError: invalid for/in left-hand side

tryItOut 604
Compiling threw: SyntaxError: missing ) in parenthetical

tryItOut 605

tryItOut 606
Compiling threw: SyntaxError: invalid for/in left-hand side

tryItOut 607
Compiling threw: SyntaxError: syntax error

tryItOut 608
before 174400, after 174400, break 013d2000

tryItOut 609
Compiling threw: SyntaxError: invalid assignment left-hand side

tryItOut 610

tryItOut 611
Compiling threw: SyntaxError: missing variable name

tryItOut 612
Compiling threw: SyntaxError: invalid for/in left-hand side

tryItOut 613

tryItOut 614
Compiling threw: SyntaxError: label not found

tryItOut 615
Compiling threw: SyntaxError: label not found

tryItOut 616
Running threw: TypeError: prototype has no properties

tryItOut 617

tryItOut 618

tryItOut 619
Compiling threw: SyntaxError: invalid destructuring assignment operator

tryItOut 620

tryItOut 621
Compiling threw: SyntaxError: illegal XML character

tryItOut 622

tryItOut 623
Compiling threw: SyntaxError: missing variable name

tryItOut 624
before 174400, after 174400, break 013d2000

tryItOut 625

tryItOut 626
It's an iterator!
Iterating succeeded, iterCount == 1

tryItOut 627
Compiling threw: SyntaxError: illegal XML character

tryItOut 628
Compiling threw: SyntaxError: invalid continue

tryItOut 629

tryItOut 630
Compiling threw: SyntaxError: missing ) in parenthetical

tryItOut 631
Compiling threw: SyntaxError: invalid assignment left-hand side

tryItOut 632

tryItOut 633
It's an iterator!
Iterating succeeded, iterCount == 1

tryItOut 634

tryItOut 635

tryItOut 636

tryItOut 637

tryItOut 638

tryItOut 639

tryItOut 640

tryItOut 641

tryItOut 642
Compiling threw: SyntaxError: missing name after . operator

tryItOut 643

tryItOut 644
Compiling threw: SyntaxError: missing variable name

tryItOut 645

tryItOut 646

tryItOut 647
Running threw: ReferenceError: yyy is not defined

tryItOut 648

tryItOut 649
Compiling threw: TypeError: redeclaration of var __proto__

tryItOut 650
Compiling threw: SyntaxError: label not found

tryItOut 651
Running threw: ReferenceError: reference to undefined XML name @foo

tryItOut 652

tryItOut 653
Compiling threw: SyntaxError: invalid for/in left-hand side

tryItOut 654

tryItOut 655
Compiling threw: SyntaxError: missing { before function body

tryItOut 656

tryItOut 657
Compiling threw: SyntaxError: invalid assignment left-hand side

tryItOut 658

tryItOut 659
Compiling threw: SyntaxError: missing ; before statement

tryItOut 660

tryItOut 661
Compiling threw: SyntaxError: missing ; after for-loop initializer

tryItOut 662

tryItOut 663
Compiling threw: SyntaxError: unterminated comment

tryItOut 664
Running threw: ReferenceError: reference to undefined XML name *::*

tryItOut 665
Compiling threw: SyntaxError: missing variable name

tryItOut 666
It's an iterator!
Iterating succeeded, iterCount == 1

tryItOut 667
Running threw: SyntaxError: invalid getter usage

tryItOut 668

tryItOut 669
Compiling threw: SyntaxError: label not found

tryItOut 670
Running threw: ReferenceError: reference to undefined XML name *::*

tryItOut 671
Running threw: <x>
  <y/>
</x>

tryItOut 672

tryItOut 673

tryItOut 674
Running threw: 1

tryItOut 675
It's an iterator!
Iterating threw!
Iterating threw: 

tryItOut 676
Compiling threw: SyntaxError: missing ; before statement

tryItOut 677
Compiling threw: SyntaxError: invalid for/in left-hand side

tryItOut 678

tryItOut 679
Compiling threw: SyntaxError: invalid decrement operand

tryItOut 680

tryItOut 681

tryItOut 682
Compiling threw: SyntaxError: invalid property id

tryItOut 683

tryItOut 684
Compiling threw: SyntaxError: invalid for/in left-hand side

tryItOut 685
Compiling threw: SyntaxError: missing : after property id

tryItOut 686
Compiling threw: SyntaxError: syntax error

tryItOut 687
Compiling threw: SyntaxError: invalid assignment left-hand side

tryItOut 688

tryItOut 689
Running threw: Error: invalid sharp variable use #1#

tryItOut 690
Running threw: TypeError: this.zzz has no properties

tryItOut 691

tryItOut 692

tryItOut 693
Compiling threw: SyntaxError: invalid assignment left-hand side

tryItOut 694
Running threw: TypeError: false is not a function

tryItOut 695
Compiling threw: SyntaxError: syntax error

tryItOut 696

tryItOut 697
Compiling threw: SyntaxError: invalid for/in left-hand side

tryItOut 698
Compiling threw: SyntaxError: missing variable name

tryItOut 699
Compiling threw: SyntaxError: missing ; before statement

tryItOut 700
Compiling threw: SyntaxError: syntax error

tryItOut 701
Running threw: <x>
  <y/>
</x>

tryItOut 702
Compiling threw: SyntaxError: missing ; before statement

tryItOut 703
Compiling threw: SyntaxError: label not found

tryItOut 704

tryItOut 705

tryItOut 706
Compiling threw: SyntaxError: invalid assignment left-hand side

tryItOut 707
It's an iterator!
Iterating succeeded, iterCount == 1

tryItOut 708

tryItOut 709
Running threw: TypeError: this.zzz has no properties

tryItOut 710
Compiling threw: SyntaxError: invalid assignment left-hand side

tryItOut 711
Running threw: ReferenceError: reference to undefined XML name @foo

tryItOut 712
Compiling threw: SyntaxError: missing { before function body

tryItOut 713
Compiling threw: SyntaxError: missing ) in parenthetical

tryItOut 714
Compiling threw: SyntaxError: missing { before function body

tryItOut 715

tryItOut 716
It's an iterator!
Iterating threw!
Iterating threw: ReferenceError: z1 is not defined

tryItOut 717
Compiling threw: SyntaxError: duplicate label

tryItOut 718
Compiling threw: SyntaxError: invalid assignment left-hand side

tryItOut 719

tryItOut 720
Compiling threw: SyntaxError: invalid for/in left-hand side

tryItOut 721
Compiling threw: SyntaxError: missing = in destructuring declaration

tryItOut 722

tryItOut 723

tryItOut 724
Compiling threw: SyntaxError: missing variable name

tryItOut 725
Compiling threw: SyntaxError: missing } in XML expression

tryItOut 726

tryItOut 727
Running threw: ReferenceError: reference to undefined XML name *

tryItOut 728
Compiling threw: SyntaxError: duplicate label

tryItOut 729

tryItOut 730

tryItOut 731
Compiling threw: SyntaxError: invalid XML name

tryItOut 732

tryItOut 733

tryItOut 734
uneval returned the string: [[1]]

tryItOut 735

tryItOut 736
Running threw: ReferenceError: reference to undefined XML name @foo

tryItOut 737
Compiling threw: SyntaxError: missing variable name

tryItOut 738
Compiling threw: SyntaxError: missing variable name

tryItOut 739
Compiling threw: SyntaxError: missing variable name

tryItOut 740
Compiling threw: SyntaxError: missing : after property id

tryItOut 741

tryItOut 742
Compiling threw: SyntaxError: missing { before function body

tryItOut 743
Compiling threw: SyntaxError: invalid assignment left-hand side

tryItOut 744
Running threw: ReferenceError: reference to undefined XML name @foo

tryItOut 745
Running threw: ReferenceError: reference to undefined XML name *

tryItOut 746
Compiling threw: TypeError: redeclaration of var __count__

tryItOut 747

tryItOut 748

tryItOut 749
Compiling threw: SyntaxError: invalid for/in left-hand side

tryItOut 750
Compiling threw: TypeError: redeclaration of variable prototype

tryItOut 751
Compiling threw: SyntaxError: label not found

tryItOut 752

tryItOut 753

tryItOut 754
It's an iterator!
Iterating succeeded, iterCount == 1

tryItOut 755

tryItOut 756

tryItOut 757
Compiling threw: SyntaxError: invalid for/in left-hand side

tryItOut 758
Compiling threw: SyntaxError: missing variable name

tryItOut 759

tryItOut 760

tryItOut 761

tryItOut 762
Compiling threw: SyntaxError: label not found

tryItOut 763
Compiling threw: SyntaxError: invalid assignment left-hand side

tryItOut 764
Running threw: ReferenceError: reference to undefined XML name @foo

tryItOut 765
Compiling threw: SyntaxError: missing while after do-loop body

tryItOut 766

tryItOut 767
Compiling threw: SyntaxError: label not found

tryItOut 768
Compiling threw: SyntaxError: missing ) in parenthetical

tryItOut 769

tryItOut 770
Running threw: [object StopIteration]

tryItOut 771
Compiling threw: SyntaxError: missing variable name

tryItOut 772
Compiling threw: TypeError: redeclaration of const __proto__

tryItOut 773
Compiling threw: SyntaxError: illegal XML character

tryItOut 774
Running threw: [object StopIteration]

tryItOut 775

tryItOut 776

tryItOut 777

tryItOut 778
Compiling threw: SyntaxError: invalid assignment left-hand side

tryItOut 779

tryItOut 780

tryItOut 781
Compiling threw: TypeError: generator function anonymous returns a value

tryItOut 782
Compiling threw: SyntaxError: missing { before function body

tryItOut 783
Running threw: ReferenceError: v is not defined

tryItOut 784
Running threw: <x>
  <y/>
</x>

tryItOut 785
Compiling threw: SyntaxError: invalid for/in left-hand side

tryItOut 786

tryItOut 787
Compiling threw: SyntaxError: invalid for/in left-hand side

tryItOut 788

tryItOut 789
Compiling threw: SyntaxError: missing { before function body

tryItOut 790
Compiling threw: SyntaxError: invalid break

tryItOut 791
Compiling threw: SyntaxError: missing variable name

tryItOut 792
Running threw: ReferenceError: z1 is not defined

tryItOut 793
Compiling threw: SyntaxError: syntax error

tryItOut 794
Compiling threw: SyntaxError: invalid assignment left-hand side

tryItOut 795
Compiling threw: SyntaxError: duplicate label

tryItOut 796
Compiling threw: SyntaxError: invalid XML tag syntax

tryItOut 797

tryItOut 798
Compiling threw: SyntaxError: invalid XML name

tryItOut 799
It's an iterator!
Iterating succeeded, iterCount == 1

tryItOut 800
It's an iterator!
Iterating succeeded, iterCount == 1

tryItOut 801
Compiling threw: SyntaxError: invalid assignment left-hand side

tryItOut 802
Compiling threw: SyntaxError: missing ; before statement

tryItOut 803
Compiling threw: SyntaxError: syntax error

tryItOut 804
Compiling threw: SyntaxError: invalid for/in left-hand side

tryItOut 805
Compiling threw: SyntaxError: invalid for/in left-hand side

tryItOut 806
Compiling threw: SyntaxError: missing ) after let head

tryItOut 807

tryItOut 808

tryItOut 809

tryItOut 810
It's an iterator!
Iterating succeeded, iterCount == 0

tryItOut 811
before 226720, after 226720, break 01442000

tryItOut 812
Compiling threw: SyntaxError: label not found

tryItOut 813

tryItOut 814
Compiling threw: SyntaxError: syntax error

tryItOut 815
Compiling threw: SyntaxError: missing ) in parenthetical

tryItOut 816
It's an iterator!
Iterating succeeded, iterCount == 5

tryItOut 817
Compiling threw: SyntaxError: missing variable name

tryItOut 818
Compiling threw: SyntaxError: invalid break

tryItOut 819

tryItOut 820
Running threw: ReferenceError: reference to undefined XML name @foo

tryItOut 821

tryItOut 822
Compiling threw: SyntaxError: invalid assignment left-hand side

tryItOut 823

tryItOut 824

tryItOut 825

tryItOut 826
Compiling threw: SyntaxError: invalid assignment left-hand side

tryItOut 827
Running threw: ReferenceError: reference to undefined XML name *::*

tryItOut 828

tryItOut 829

tryItOut 830

tryItOut 831

tryItOut 832
Compiling threw: SyntaxError: duplicate label

tryItOut 833
Compiling threw: SyntaxError: syntax error

tryItOut 834
Compiling threw: SyntaxError: missing : after property id

tryItOut 835

tryItOut 836

tryItOut 837

tryItOut 838

tryItOut 839

tryItOut 840
Compiling threw: SyntaxError: missing : after property id

tryItOut 841

tryItOut 842
Compiling threw: SyntaxError: missing ; after for-loop initializer

tryItOut 843
Running threw: ReferenceError: reference to undefined XML name *

tryItOut 844

tryItOut 845

tryItOut 846

tryItOut 847

tryItOut 848
Running threw: Error: invalid sharp variable use #1#

tryItOut 849
Compiling threw: TypeError: redeclaration of var prop

tryItOut 850
Running threw: ReferenceError: reference to undefined XML name @foo

tryItOut 851

tryItOut 852

tryItOut 853

tryItOut 854

tryItOut 855

tryItOut 856

tryItOut 857
It's an iterator!
Iterating threw!
Iterating threw: ReferenceError: prop is not defined

tryItOut 858
Running threw: ReferenceError: prop is not defined

tryItOut 859
Running threw: ReferenceError: reference to undefined XML name *::*

tryItOut 860
Compiling threw: SyntaxError: syntax error

tryItOut 861

tryItOut 862
Compiling threw: SyntaxError: invalid increment operand

tryItOut 863
Compiling threw: SyntaxError: label not found

tryItOut 864
Running threw: TypeError: this.zzz has no properties

tryItOut 865
Compiling threw: SyntaxError: invalid for/in left-hand side

tryItOut 866

tryItOut 867

tryItOut 868
Compiling threw: SyntaxError: label not found

tryItOut 869
Compiling threw: SyntaxError: invalid assignment left-hand side

tryItOut 870
Running threw: ReferenceError: reference to undefined XML name *::*

tryItOut 871

tryItOut 872
Compiling threw: SyntaxError: invalid for/in left-hand side

tryItOut 873

tryItOut 874
Compiling threw: SyntaxError: missing variable name

tryItOut 875

tryItOut 876

tryItOut 877
Running threw: Error: invalid sharp variable use #1#

tryItOut 878
Running threw: 

tryItOut 879
Compiling threw: TypeError: redeclaration of variable constructor

tryItOut 880
Compiling threw: SyntaxError: label not found

tryItOut 881
Compiling threw: SyntaxError: missing { before function body

tryItOut 882
Compiling threw: SyntaxError: missing = in destructuring declaration

tryItOut 883
It's an iterator!
Iterating threw!
Iterating threw: ReferenceError: reference to undefined XML name @foo

tryItOut 884

tryItOut 885
Compiling threw: SyntaxError: syntax error

tryItOut 886
Compiling threw: SyntaxError: missing { before function body

tryItOut 887
Compiling threw: SyntaxError: syntax error

tryItOut 888
Running threw: ReferenceError: reference to undefined XML name *::*

tryItOut 889
Compiling threw: TypeError: generator function anonymous returns a value

tryItOut 890
Running threw: ReferenceError: reference to undefined XML name *

tryItOut 891
Running threw: ReferenceError: reference to undefined XML name @foo

tryItOut 892
before 226720, after 226720, break 01458000

tryItOut 893
Compiling threw: SyntaxError: label not found

tryItOut 894

tryItOut 895
Compiling threw: SyntaxError: invalid for/in left-hand side

tryItOut 896
Compiling threw: SyntaxError: missing ) after let head

tryItOut 897

tryItOut 898
It's an iterator!
Iterating succeeded, iterCount == 1

tryItOut 899
Compiling threw: SyntaxError: illegal XML character

tryItOut 900
Running threw: TypeError: this.zzz has no properties

tryItOut 901
Running threw: TypeError: this.zzz has no properties

tryItOut 902
It's an iterator!
Iterating succeeded, iterCount == 1

tryItOut 903
Compiling threw: SyntaxError: label not found

tryItOut 904

tryItOut 905
Running threw: null

tryItOut 906
Compiling threw: SyntaxError: missing ; before statement

tryItOut 907
Compiling threw: SyntaxError: invalid increment operand

tryItOut 908

tryItOut 909
Compiling threw: SyntaxError: invalid continue

tryItOut 910

tryItOut 911

tryItOut 912
Compiling threw: SyntaxError: missing variable name

tryItOut 913
Compiling threw: SyntaxError: syntax error

tryItOut 914
Running threw: [object Object]

tryItOut 915

tryItOut 916
Compiling threw: TypeError: redeclaration of variable prototype

tryItOut 917
Compiling threw: SyntaxError: missing = in destructuring declaration

tryItOut 918
Compiling threw: SyntaxError: label not found

tryItOut 919
Compiling threw: TypeError: redeclaration of variable prototype

tryItOut 920

tryItOut 921
Compiling threw: SyntaxError: yield expression must be parenthesized

tryItOut 922
Compiling threw: SyntaxError: missing = in destructuring declaration

tryItOut 923
Compiling threw: TypeError: redeclaration of const prototype

tryItOut 924
Compiling threw: SyntaxError: missing variable name

tryItOut 925

tryItOut 926

tryItOut 927
Compiling threw: SyntaxError: syntax error

tryItOut 928

tryItOut 929
Compiling threw: SyntaxError: missing { before function body

tryItOut 930
Compiling threw: SyntaxError: syntax error

tryItOut 931
Compiling threw: SyntaxError: missing ; after for-loop initializer

tryItOut 932
Compiling threw: SyntaxError: missing ) in parenthetical

tryItOut 933
Compiling threw: SyntaxError: missing variable name

tryItOut 934
Compiling threw: SyntaxError: missing ; before statement

tryItOut 935
Compiling threw: SyntaxError: invalid XML name

tryItOut 936
It's an iterator!
Iterating threw!
Iterating threw: ReferenceError: reference to undefined XML name @foo

tryItOut 937
Compiling threw: SyntaxError: label not found

tryItOut 938
Running threw: TypeError: prototype has no properties

tryItOut 939

tryItOut 940
Compiling threw: SyntaxError: illegal XML character

tryItOut 941
Compiling threw: SyntaxError: invalid break

tryItOut 942
Compiling threw: SyntaxError: syntax error

tryItOut 943
Running threw: [object StopIteration]

tryItOut 944
before 226720, after 226720, break 01458000

tryItOut 945
Compiling threw: SyntaxError: invalid break

tryItOut 946
Compiling threw: SyntaxError: missing ; after for-loop initializer

tryItOut 947
Running threw: ReferenceError: prop is not defined

tryItOut 948

tryItOut 949
Running threw: ReferenceError: reference to undefined XML name @foo

tryItOut 950
It's an iterator!
Iterating threw!
Iterating threw: ReferenceError: reference to undefined XML name *

tryItOut 951
It's an iterator!
Iterating succeeded, iterCount == 1

tryItOut 952

tryItOut 953

tryItOut 954
Compiling threw: SyntaxError: invalid for/in left-hand side

tryItOut 955
Compiling threw: SyntaxError: syntax error

tryItOut 956
Compiling threw: SyntaxError: missing name after . operator

tryItOut 957
Compiling threw: SyntaxError: missing { before function body

tryItOut 958
Compiling threw: SyntaxError: missing variable name

tryItOut 959

tryItOut 960
Compiling threw: TypeError: generator function anonymous returns a value

tryItOut 961
before 226720, after 226720, break 01458000

tryItOut 962
Compiling threw: SyntaxError: label not found

tryItOut 963

tryItOut 964
Compiling threw: SyntaxError: missing ) in parenthetical

tryItOut 965

tryItOut 966
Running threw: null

tryItOut 967
Compiling threw: SyntaxError: unterminated regular expression literal

tryItOut 968
Running threw: ReferenceError: z1 is not defined

tryItOut 969

tryItOut 970
Running threw: ReferenceError: reference to undefined XML name @foo

tryItOut 971
Compiling threw: SyntaxError: invalid for/in left-hand side

tryItOut 972

tryItOut 973
Compiling threw: TypeError: redeclaration of const __iterator__

tryItOut 974
It's an iterator!
Iterating threw!
Iterating threw: ReferenceError: reference to undefined XML name *

tryItOut 975
Compiling threw: TypeError: redeclaration of const __parent__

tryItOut 976

tryItOut 977

tryItOut 978
Running threw: TypeError: "fafafa".replace(/a/g, function (y) {yield y;throw [z1, , ];yield y;}).__defineSetter__("prop", Math.pow) has no properties

tryItOut 979

tryItOut 980
Running threw: [object StopIteration]

tryItOut 981

tryItOut 982
Compiling threw: SyntaxError: invalid assignment left-hand side

tryItOut 983
Compiling threw: SyntaxError: illegal XML character

tryItOut 984
Running threw: ReferenceError: z1 is not defined

tryItOut 985

tryItOut 986

tryItOut 987
Compiling threw: SyntaxError: invalid break

tryItOut 988
Compiling threw: SyntaxError: missing variable name

tryItOut 989
Running threw: ReferenceError: reference to undefined XML name @foo

tryItOut 990

tryItOut 991
Compiling threw: SyntaxError: missing ; after for-loop initializer

tryItOut 992

tryItOut 993
Compiling threw: SyntaxError: missing ) in parenthetical

tryItOut 994
Compiling threw: SyntaxError: invalid for/in left-hand side

tryItOut 995
It's an iterator!
Iterating threw!
Iterating threw: ReferenceError: reference to undefined XML name *::*

tryItOut 996
Compiling threw: SyntaxError: invalid for/in left-hand side

tryItOut 997

tryItOut 998
Compiling threw: SyntaxError: missing variable name

tryItOut 999
Running threw: ReferenceError: reference to undefined XML name @foo

tryItOut 1000

ALL OK

Script done on Sat 04 May 2013 05:19:19 AM PDT
