Script started on Sat 04 May 2013 05:22:55 AM PDT
***
Targeting SpiderMonkey / Gecko.

tryItOut 1
Compiling threw: SyntaxError: missing ; before statement

tryItOut 2
It's an iterator!
Iterating threw!
Iterating threw: ReferenceError: z1 is not defined

tryItOut 3
Compiling threw: SyntaxError: missing variable name

tryItOut 4
It's an iterator!
Iterating succeeded, iterCount == 1

tryItOut 5
It's an iterator!
Iterating succeeded, iterCount == 1

tryItOut 6
Compiling threw: SyntaxError: missing ; before statement

tryItOut 7
Compiling threw: SyntaxError: missing { before function body

tryItOut 8
It's an iterator!
Iterating succeeded, iterCount == 1

tryItOut 9
Running threw: ReferenceError: window is not defined

tryItOut 10

tryItOut 11
Compiling threw: SyntaxError: invalid for/in left-hand side

tryItOut 12
It's an iterator!
Iterating succeeded, iterCount == 0

tryItOut 13

tryItOut 14
Compiling threw: SyntaxError: missing name after . operator

tryItOut 15

tryItOut 16
Compiling threw: SyntaxError: invalid for/in left-hand side

tryItOut 17
Running threw: TypeError: this.zzz has no properties

tryItOut 18

tryItOut 19
Compiling threw: SyntaxError: invalid for/in left-hand side

tryItOut 20
It's an iterator!
Iterating succeeded, iterCount == 1

tryItOut 21

tryItOut 22
Compiling threw: TypeError: redeclaration of variable prop

tryItOut 23

tryItOut 24
It's an iterator!
Iterating succeeded, iterCount == 2

tryItOut 25

tryItOut 26
Running threw: TypeError: this.zzz has no properties

tryItOut 27

tryItOut 28

tryItOut 29

tryItOut 30

tryItOut 31
Running threw: ReferenceError: x is not defined

tryItOut 32
Compiling threw: TypeError: redeclaration of var __parent__

tryItOut 33
Compiling threw: SyntaxError: missing } after let block

tryItOut 34
Compiling threw: SyntaxError: missing { before function body

tryItOut 35
Compiling threw: SyntaxError: invalid for/in left-hand side

tryItOut 36
Compiling threw: SyntaxError: invalid decrement operand

tryItOut 37
Compiling threw: SyntaxError: missing variable name

tryItOut 38
Compiling threw: SyntaxError: invalid for/in left-hand side

tryItOut 39
Compiling threw: SyntaxError: missing variable name

tryItOut 40

tryItOut 41

tryItOut 42
Compiling threw: SyntaxError: invalid decrement operand

tryItOut 43

tryItOut 44
Compiling threw: SyntaxError: invalid decrement operand

tryItOut 45

tryItOut 46

tryItOut 47
Compiling threw: SyntaxError: syntax error

tryItOut 48
Compiling threw: SyntaxError: missing ; before statement

tryItOut 49
It's an iterator!
Iterating succeeded, iterCount == 1

tryItOut 50
Compiling threw: SyntaxError: missing ; after for-loop initializer

tryItOut 51
Running threw: TypeError: arguments[0] has no properties

tryItOut 52
Compiling threw: SyntaxError: syntax error

tryItOut 53
Compiling threw: SyntaxError: missing variable name

tryItOut 54

tryItOut 55

tryItOut 56
Running threw: [object StopIteration]

tryItOut 57

tryItOut 58

tryItOut 59
Compiling threw: SyntaxError: invalid for/in left-hand side

tryItOut 60
It's an iterator!
Iterating succeeded, iterCount == 1

tryItOut 61
Compiling threw: SyntaxError: invalid for/in left-hand side

tryItOut 62

tryItOut 63
Compiling threw: SyntaxError: invalid for/in left-hand side

tryItOut 64
It's an iterator!
Iterating succeeded, iterCount == 1

tryItOut 65
Compiling threw: SyntaxError: missing variable name

tryItOut 66
Compiling threw: SyntaxError: invalid decrement operand

tryItOut 67
It's an iterator!
Iterating succeeded, iterCount == 3

tryItOut 68
Compiling threw: SyntaxError: syntax error

tryItOut 69

tryItOut 70

tryItOut 71
It's an iterator!
Iterating threw!
Iterating threw: TypeError: arguments[0] has no properties

tryItOut 72
Running threw: [object StopIteration]

tryItOut 73
It's an iterator!
Iterating succeeded, iterCount == 1

tryItOut 74

tryItOut 75
Compiling threw: SyntaxError: missing ) in parenthetical

tryItOut 76
It's an iterator!
Iterating threw!
Iterating threw: ReferenceError: z1 is not defined

tryItOut 77

tryItOut 78

tryItOut 79

tryItOut 80

tryItOut 81
It's an iterator!
Iterating succeeded, iterCount == 0

tryItOut 82
Running threw: TypeError: this.zzz has no properties

tryItOut 83
Compiling threw: SyntaxError: syntax error

tryItOut 84
Compiling threw: SyntaxError: missing { before function body

tryItOut 85

tryItOut 86
Compiling threw: SyntaxError: invalid for/in left-hand side

tryItOut 87
Compiling threw: SyntaxError: missing } after let block

tryItOut 88
Compiling threw: SyntaxError: syntax error

tryItOut 89
Running threw: TypeError: this.zzz has no properties

tryItOut 90
It's an iterator!
Iterating succeeded, iterCount == 1

tryItOut 91
Compiling threw: SyntaxError: invalid for/in left-hand side

tryItOut 92
Compiling threw: SyntaxError: catch without try

tryItOut 93
Compiling threw: SyntaxError: invalid for/in left-hand side

tryItOut 94
It's an iterator!
Iterating succeeded, iterCount == 1

tryItOut 95

tryItOut 96

tryItOut 97
Compiling threw: SyntaxError: syntax error

tryItOut 98
It's an iterator!
Iterating succeeded, iterCount == 2

tryItOut 99
Running threw: TypeError: this.zzz has no properties

tryItOut 100
It's an iterator!
Iterating threw!
Iterating threw: ReferenceError: window is not defined

tryItOut 101
Compiling threw: SyntaxError: missing { before function body

tryItOut 102
Compiling threw: SyntaxError: missing variable name

tryItOut 103
Compiling threw: SyntaxError: invalid for/in left-hand side

tryItOut 104
Running threw: TypeError: <y>
  <z/>
</y> is not a constructor

tryItOut 105
Compiling threw: SyntaxError: invalid for/in left-hand side

tryItOut 106

tryItOut 107

tryItOut 108
It's an iterator!
Iterating succeeded, iterCount == 1

tryItOut 109
Compiling threw: SyntaxError: invalid assignment left-hand side

tryItOut 110
Compiling threw: SyntaxError: missing { before function body

tryItOut 111
It's an iterator!
Iterating succeeded, iterCount == 2

tryItOut 112
Running threw: ReferenceError: prototype is not defined

tryItOut 113
Running threw: TypeError: __parent__ has no properties

tryItOut 114

tryItOut 115
Compiling threw: SyntaxError: missing } after let block

tryItOut 116
Compiling threw: SyntaxError: syntax error

tryItOut 117

tryItOut 118

tryItOut 119
Compiling threw: SyntaxError: invalid for/in left-hand side

tryItOut 120

tryItOut 121
Running threw: ReferenceError: __iterator__ is not defined

tryItOut 122
It's an iterator!
Iterating threw!
Iterating threw: ReferenceError: window is not defined

tryItOut 123
Running threw: ReferenceError: __iterator__ is not defined

tryItOut 124
It's an iterator!
Iterating succeeded, iterCount == 1

tryItOut 125
Compiling threw: SyntaxError: missing variable name

tryItOut 126
Running threw: [object StopIteration]

tryItOut 127
It's an iterator!
Iterating succeeded, iterCount == 1

tryItOut 128
Compiling threw: SyntaxError: syntax error

tryItOut 129

tryItOut 130
It's an iterator!
Iterating succeeded, iterCount == 1

tryItOut 131
Compiling threw: SyntaxError: syntax error

tryItOut 132
Running threw: ReferenceError: prototype is not defined

tryItOut 133
Compiling threw: SyntaxError: missing ; after for-loop initializer

tryItOut 134
It's an iterator!
Iterating succeeded, iterCount == 1

tryItOut 135
Compiling threw: SyntaxError: missing ) in parenthetical

tryItOut 136
Compiling threw: SyntaxError: invalid for/in left-hand side

tryItOut 137

tryItOut 138

tryItOut 139
Running threw: TypeError: this.zzz has no properties

tryItOut 140
Compiling threw: SyntaxError: missing = in destructuring declaration

tryItOut 141

tryItOut 142
Compiling threw: SyntaxError: syntax error

tryItOut 143
Compiling threw: SyntaxError: missing { before function body

tryItOut 144
Compiling threw: SyntaxError: missing { before function body

tryItOut 145
It's an iterator!
Iterating succeeded, iterCount == 1

tryItOut 146
It's an iterator!
Iterating succeeded, iterCount == 1

tryItOut 147

tryItOut 148
Compiling threw: SyntaxError: invalid for/in left-hand side

tryItOut 149
Compiling threw: SyntaxError: missing variable name

tryItOut 150

tryItOut 151

tryItOut 152
It's an iterator!
Iterating threw!
Iterating threw: TypeError: <x/>.__defineGetter__("__parent__", new Function) has no properties

tryItOut 153
Compiling threw: SyntaxError: invalid for/in left-hand side

tryItOut 154
Running threw: [object StopIteration]

tryItOut 155
Compiling threw: SyntaxError: missing ; before statement

tryItOut 156
It's an iterator!
Iterating succeeded, iterCount == 1

tryItOut 157
It's an iterator!
Iterating threw!
Iterating threw: ReferenceError: reference to undefined property "window"

tryItOut 158
Compiling threw: SyntaxError: invalid increment operand

tryItOut 159

tryItOut 160
Compiling threw: SyntaxError: syntax error

tryItOut 161
Compiling threw: SyntaxError: missing ) in parenthetical

tryItOut 162
Compiling threw: SyntaxError: invalid for/in left-hand side

tryItOut 163
Compiling threw: SyntaxError: missing ; after for-loop initializer

tryItOut 164

tryItOut 165

tryItOut 166
Compiling threw: SyntaxError: missing ) in parenthetical

tryItOut 167

tryItOut 168
Compiling threw: SyntaxError: syntax error

tryItOut 169
Running threw: ReferenceError: prototype is not defined

tryItOut 170
It's an iterator!
Iterating succeeded, iterCount == 0

tryItOut 171
Compiling threw: SyntaxError: syntax error

tryItOut 172

tryItOut 173

tryItOut 174

tryItOut 175
Compiling threw: SyntaxError: syntax error

tryItOut 176
It's an iterator!
Iterating succeeded, iterCount == 1

tryItOut 177
Compiling threw: SyntaxError: invalid for/in left-hand side

tryItOut 178
Compiling threw: SyntaxError: invalid for/in left-hand side

tryItOut 179

tryItOut 180

tryItOut 181
Compiling threw: SyntaxError: invalid for/in left-hand side

tryItOut 182
Compiling threw: SyntaxError: invalid increment operand

tryItOut 183
Compiling threw: SyntaxError: invalid for/in left-hand side

tryItOut 184

tryItOut 185

tryItOut 186

tryItOut 187
Compiling threw: SyntaxError: missing variable name

tryItOut 188
Compiling threw: SyntaxError: missing ; after for-loop initializer

tryItOut 189
Running threw: TypeError: this.zzz has no properties

tryItOut 190
It's an iterator!
Iterating succeeded, iterCount == 1

tryItOut 191

tryItOut 192

tryItOut 193
Compiling threw: SyntaxError: missing variable name

tryItOut 194
Compiling threw: SyntaxError: syntax error

tryItOut 195
It's an iterator!
Iterating succeeded, iterCount == 1

tryItOut 196
Running threw: TypeError: __parent__ has no properties

tryItOut 197
Running threw: TypeError: this.zzz has no properties

tryItOut 198

tryItOut 199

tryItOut 200
Compiling threw: SyntaxError: invalid for/in left-hand side

tryItOut 201
Compiling threw: SyntaxError: invalid for/in left-hand side

tryItOut 202

tryItOut 203

tryItOut 204

tryItOut 205
Compiling threw: SyntaxError: missing ; after for-loop initializer

tryItOut 206
It's an iterator!
Iterating succeeded, iterCount == 1

tryItOut 207
Running threw: TypeError: this.zzz has no properties

tryItOut 208

tryItOut 209

tryItOut 210

tryItOut 211
It's an iterator!
Iterating succeeded, iterCount == 1

tryItOut 212

tryItOut 213
Compiling threw: SyntaxError: missing variable name

tryItOut 214
Compiling threw: SyntaxError: missing { before function body

tryItOut 215
It's an iterator!
Iterating succeeded, iterCount == 1

tryItOut 216
Compiling threw: SyntaxError: missing ; before statement

tryItOut 217
Compiling threw: SyntaxError: duplicate label

tryItOut 218
Compiling threw: SyntaxError: invalid for/in left-hand side

tryItOut 219
Compiling threw: SyntaxError: invalid for/in left-hand side

tryItOut 220
It's an iterator!
Iterating succeeded, iterCount == 1

tryItOut 221
Compiling threw: SyntaxError: invalid for/in left-hand side

tryItOut 222
It's an iterator!
Iterating succeeded, iterCount == 1

tryItOut 223

tryItOut 224
Compiling threw: SyntaxError: invalid for/in left-hand side

tryItOut 225
It's an iterator!
Iterating succeeded, iterCount == 2

tryItOut 226
It's an iterator!
Iterating threw!
Iterating threw: Error: invalid sharp variable use #1#

tryItOut 227
Compiling threw: SyntaxError: syntax error

tryItOut 228
Compiling threw: SyntaxError: invalid for/in left-hand side

tryItOut 229
It's an iterator!
Iterating succeeded, iterCount == 1

tryItOut 230
Compiling threw: SyntaxError: missing } after let block

tryItOut 231
Compiling threw: SyntaxError: yield expression must be parenthesized

tryItOut 232
Compiling threw: SyntaxError: missing variable name

tryItOut 233

tryItOut 234
Compiling threw: SyntaxError: syntax error

tryItOut 235
Compiling threw: SyntaxError: invalid for each loop

tryItOut 236
Compiling threw: SyntaxError: invalid for/in left-hand side

tryItOut 237
Running threw: [object StopIteration]

tryItOut 238
Compiling threw: SyntaxError: missing ; before statement

tryItOut 239
Compiling threw: SyntaxError: syntax error

tryItOut 240

tryItOut 241

tryItOut 242
Compiling threw: SyntaxError: missing ; before statement

tryItOut 243

tryItOut 244
Compiling threw: SyntaxError: invalid for/in left-hand side

tryItOut 245
It's an iterator!
Iterating succeeded, iterCount == 1

tryItOut 246

tryItOut 247

tryItOut 248
Compiling threw: SyntaxError: syntax error

tryItOut 249
Compiling threw: SyntaxError: missing ; before statement

tryItOut 250
It's an iterator!
Iterating threw!
Iterating threw: ReferenceError: window is not defined

tryItOut 251
Compiling threw: SyntaxError: syntax error

tryItOut 252
Compiling threw: SyntaxError: syntax error

tryItOut 253
Running threw: TypeError: this.zzz has no properties

tryItOut 254
It's an iterator!
Iterating threw!
Iterating threw: TypeError: this.zzz has no properties

tryItOut 255

tryItOut 256

tryItOut 257

tryItOut 258

tryItOut 259
Compiling threw: SyntaxError: invalid for each loop

tryItOut 260
Compiling threw: SyntaxError: missing ; before statement

tryItOut 261
Compiling threw: SyntaxError: missing = in destructuring declaration

tryItOut 262

tryItOut 263

tryItOut 264

tryItOut 265

tryItOut 266
It's an iterator!
Iterating succeeded, iterCount == 1

tryItOut 267
Compiling threw: SyntaxError: syntax error

tryItOut 268
It's an iterator!
Iterating succeeded, iterCount == 1

tryItOut 269

tryItOut 270
Compiling threw: SyntaxError: missing ) in parenthetical

tryItOut 271
Compiling threw: SyntaxError: syntax error

tryItOut 272
It's an iterator!
Iterating succeeded, iterCount == 1

tryItOut 273
Compiling threw: SyntaxError: invalid increment operand

tryItOut 274
It's an iterator!
Iterating succeeded, iterCount == 3

tryItOut 275
Compiling threw: SyntaxError: invalid for each loop

tryItOut 276
It's an iterator!
Iterating succeeded, iterCount == 1

tryItOut 277
Compiling threw: SyntaxError: missing ; after for-loop initializer

tryItOut 278

tryItOut 279
Compiling threw: SyntaxError: missing variable name

tryItOut 280

tryItOut 281

tryItOut 282

tryItOut 283
Compiling threw: SyntaxError: missing ) in parenthetical

tryItOut 284

tryItOut 285
Running threw: TypeError: this.zzz has no properties

tryItOut 286
Compiling threw: SyntaxError: invalid XML tag syntax

tryItOut 287
Compiling threw: SyntaxError: missing { before function body

tryItOut 288

tryItOut 289
Running threw: ReferenceError: z1 is not defined

tryItOut 290
Compiling threw: SyntaxError: missing variable name

tryItOut 291
It's an iterator!
Iterating succeeded, iterCount == 1

tryItOut 292
Compiling threw: SyntaxError: missing while after do-loop body

tryItOut 293
Running threw: [object StopIteration]

tryItOut 294

tryItOut 295
Running threw: [object StopIteration]

tryItOut 296
It's an iterator!
Iterating succeeded, iterCount == 1

tryItOut 297
It's an iterator!
Iterating succeeded, iterCount == 1

tryItOut 298
Compiling threw: SyntaxError: syntax error

tryItOut 299
It's an iterator!
Iterating succeeded, iterCount == 1

tryItOut 300

tryItOut 301
Compiling threw: SyntaxError: missing { before function body

tryItOut 302

tryItOut 303
It's an iterator!
Iterating succeeded, iterCount == 1

tryItOut 304
It's an iterator!
Iterating succeeded, iterCount == 0

tryItOut 305

tryItOut 306
Compiling threw: SyntaxError: invalid decrement operand

tryItOut 307

tryItOut 308
Compiling threw: SyntaxError: syntax error

tryItOut 309
It's an iterator!
Iterating succeeded, iterCount == 1

tryItOut 310
Compiling threw: SyntaxError: invalid destructuring assignment operator

tryItOut 311

tryItOut 312
It's an iterator!
Iterating succeeded, iterCount == 1

tryItOut 313

tryItOut 314

tryItOut 315
It's an iterator!
Iterating succeeded, iterCount == 1

tryItOut 316

tryItOut 317
Compiling threw: SyntaxError: syntax error

tryItOut 318
Running threw: Error: cyclic __proto__ value

tryItOut 319
It's an iterator!
Iterating threw!
Iterating threw: TypeError: __count__.__iterator__ has no properties

tryItOut 320
It's an iterator!
Iterating threw!
Iterating threw: Error: cyclic __proto__ value

tryItOut 321

tryItOut 322
Compiling threw: SyntaxError: missing = in destructuring declaration

tryItOut 323
Compiling threw: SyntaxError: missing ; before statement

tryItOut 324
Compiling threw: SyntaxError: invalid for/in left-hand side

tryItOut 325
Running threw: TypeError: this.zzz has no properties

tryItOut 326

tryItOut 327
Running threw: TypeError: this.zzz has no properties

tryItOut 328
Compiling threw: SyntaxError: missing ; after for-loop initializer

tryItOut 329

tryItOut 330
Compiling threw: SyntaxError: missing ; before statement

tryItOut 331
Running threw: ReferenceError: x is not defined

tryItOut 332
Compiling threw: SyntaxError: missing variable name

tryItOut 333

tryItOut 334

tryItOut 335
Compiling threw: SyntaxError: missing ; after for-loop initializer

tryItOut 336
Compiling threw: SyntaxError: missing ; after for-loop initializer

tryItOut 337

tryItOut 338
Compiling threw: SyntaxError: invalid for/in left-hand side

tryItOut 339
Compiling threw: SyntaxError: invalid for/in left-hand side

tryItOut 340

tryItOut 341
It's an iterator!
Iterating succeeded, iterCount == 0

tryItOut 342
Compiling threw: SyntaxError: invalid for/in left-hand side

tryItOut 343
It's an iterator!
Iterating succeeded, iterCount == 1

tryItOut 344

tryItOut 345
It's an iterator!
Iterating threw!
Iterating threw: TypeError: __parent__ has no properties

tryItOut 346
Compiling threw: SyntaxError: missing : after property id

tryItOut 347
Running threw: TypeError: this.zzz has no properties

tryItOut 348
Compiling threw: SyntaxError: missing } after let block

tryItOut 349
Compiling threw: SyntaxError: invalid label

tryItOut 350
Compiling threw: SyntaxError: invalid for/in left-hand side

tryItOut 351

tryItOut 352

tryItOut 353

tryItOut 354
Compiling threw: SyntaxError: missing ; before statement

tryItOut 355
Compiling threw: SyntaxError: syntax error

tryItOut 356
Running threw: [object StopIteration]

tryItOut 357

tryItOut 358

tryItOut 359

tryItOut 360
Compiling threw: SyntaxError: invalid for/in left-hand side

tryItOut 361

tryItOut 362

tryItOut 363
Compiling threw: SyntaxError: invalid increment operand

tryItOut 364

tryItOut 365
It's an iterator!
Iterating succeeded, iterCount == 1

tryItOut 366
It's an iterator!
Iterating threw!
Iterating threw: TypeError: ({}) is not a constructor

tryItOut 367
It's an iterator!
Iterating threw!
Iterating threw: ReferenceError: z2 is not defined

tryItOut 368

tryItOut 369
It's an iterator!
Iterating succeeded, iterCount == 1

tryItOut 370
Compiling threw: SyntaxError: missing ] after element list

tryItOut 371
Compiling threw: SyntaxError: missing } after let block

tryItOut 372
Compiling threw: SyntaxError: invalid for/in left-hand side

tryItOut 373

tryItOut 374
It's an iterator!
Iterating succeeded, iterCount == 1

tryItOut 375
Compiling threw: SyntaxError: invalid decrement operand

tryItOut 376

tryItOut 377
Compiling threw: SyntaxError: missing { before function body

tryItOut 378

tryItOut 379
It's an iterator!
Iterating threw!
Iterating threw: TypeError: [, ].unwatch("__noSuchMethod__") has no properties

tryItOut 380
Compiling threw: SyntaxError: invalid assignment left-hand side

tryItOut 381
Compiling threw: SyntaxError: syntax error

tryItOut 382

tryItOut 383
Compiling threw: SyntaxError: invalid for/in left-hand side

tryItOut 384

tryItOut 385
Compiling threw: SyntaxError: missing { before function body

tryItOut 386
Compiling threw: SyntaxError: missing ) in parenthetical

tryItOut 387
Compiling threw: SyntaxError: syntax error

tryItOut 388

tryItOut 389
Compiling threw: SyntaxError: invalid for each loop

tryItOut 390

tryItOut 391
It's an iterator!
Iterating succeeded, iterCount == 1

tryItOut 392
It's an iterator!
Iterating succeeded, iterCount == 1

tryItOut 393

tryItOut 394
Running threw: ReferenceError: x is not defined

tryItOut 395
Running threw: [object StopIteration]

tryItOut 396
It's an iterator!
Iterating succeeded, iterCount == 1

tryItOut 397

tryItOut 398

tryItOut 399

tryItOut 400

tryItOut 401
Compiling threw: SyntaxError: invalid for/in left-hand side

tryItOut 402
Running threw: TypeError: <x>
  <y/>
</x> is not a function

tryItOut 403
Compiling threw: SyntaxError: missing ; after for-loop initializer

tryItOut 404
Compiling threw: SyntaxError: missing variable name

tryItOut 405

tryItOut 406
Compiling threw: SyntaxError: syntax error

tryItOut 407

tryItOut 408
Compiling threw: TypeError: redeclaration of variable prototype

tryItOut 409
It's an iterator!
Iterating succeeded, iterCount == 1

tryItOut 410
It's an iterator!
Iterating threw!
Iterating threw: ReferenceError: window is not defined

tryItOut 411
Compiling threw: SyntaxError: unterminated regular expression literal

tryItOut 412
Compiling threw: SyntaxError: missing ] after element list

tryItOut 413
It's an iterator!
Iterating succeeded, iterCount == 1

tryItOut 414
Compiling threw: SyntaxError: invalid for/in left-hand side

tryItOut 415

tryItOut 416
Compiling threw: SyntaxError: missing ; after for-loop initializer

tryItOut 417
It's an iterator!
Iterating threw!
Iterating threw: ReferenceError: window is not defined

tryItOut 418

tryItOut 419
Compiling threw: SyntaxError: missing ; before statement

tryItOut 420
Compiling threw: SyntaxError: missing { before function body

tryItOut 421
Compiling threw: SyntaxError: missing ; after for-loop initializer

tryItOut 422
It's an iterator!
Iterating succeeded, iterCount == 1

tryItOut 423

tryItOut 424

tryItOut 425
Compiling threw: SyntaxError: missing } after let block

tryItOut 426

tryItOut 427
Compiling threw: SyntaxError: missing ; before statement

tryItOut 428

tryItOut 429
Running threw: TypeError: this.zzz has no properties

tryItOut 430
Compiling threw: SyntaxError: missing } after let block

tryItOut 431
Compiling threw: SyntaxError: invalid destructuring assignment operator

tryItOut 432
Compiling threw: SyntaxError: invalid for/in left-hand side

tryItOut 433
Compiling threw: SyntaxError: missing ; after for-loop initializer

tryItOut 434
Compiling threw: SyntaxError: missing ; after for-loop initializer

tryItOut 435
Compiling threw: SyntaxError: duplicate label

tryItOut 436

tryItOut 437
Running threw: [object StopIteration]

tryItOut 438

tryItOut 439
Running threw: TypeError: arguments[0] has no properties

tryItOut 440

tryItOut 441
Compiling threw: SyntaxError: invalid for/in left-hand side

tryItOut 442

tryItOut 443

tryItOut 444

tryItOut 445
Running threw: ReferenceError: z2 is not defined

tryItOut 446
Compiling threw: SyntaxError: syntax error

tryItOut 447
It's an iterator!
Iterating succeeded, iterCount == 1

tryItOut 448
Running threw: TypeError: this.zzz has no properties

tryItOut 449
Compiling threw: SyntaxError: missing : after property id

tryItOut 450
Compiling threw: SyntaxError: syntax error

tryItOut 451
It's an iterator!
Iterating succeeded, iterCount == 1

tryItOut 452

tryItOut 453
Compiling threw: SyntaxError: invalid for/in left-hand side

tryItOut 454
It's an iterator!
Iterating succeeded, iterCount == 1

tryItOut 455
It's an iterator!
Iterating succeeded, iterCount == 1

tryItOut 456
It's an iterator!
Iterating succeeded, iterCount == 1

tryItOut 457

tryItOut 458
Compiling threw: SyntaxError: missing variable name

tryItOut 459

tryItOut 460
Running threw: [object StopIteration]

tryItOut 461
It's an iterator!
Iterating succeeded, iterCount == 2

tryItOut 462

tryItOut 463
Compiling threw: SyntaxError: syntax error

tryItOut 464

tryItOut 465

tryItOut 466

tryItOut 467

tryItOut 468
It's an iterator!
Iterating succeeded, iterCount == 1

tryItOut 469
It's an iterator!
Iterating threw!
Iterating threw: ReferenceError: window is not defined

tryItOut 470

tryItOut 471

tryItOut 472
Compiling threw: SyntaxError: invalid for/in left-hand side

tryItOut 473
It's an iterator!
Iterating threw!
Iterating threw: TypeError: arguments[0] has no properties

tryItOut 474

tryItOut 475
Compiling threw: SyntaxError: missing variable name

tryItOut 476
Running threw: TypeError: this.zzz has no properties

tryItOut 477
Compiling threw: SyntaxError: missing { before function body

tryItOut 478
Compiling threw: SyntaxError: missing ; after for-loop initializer

tryItOut 479

tryItOut 480

tryItOut 481

tryItOut 482
Compiling threw: SyntaxError: missing { before function body

tryItOut 483
Running threw: TypeError: this.zzz has no properties

tryItOut 484

tryItOut 485
Compiling threw: SyntaxError: syntax error

tryItOut 486
Compiling threw: SyntaxError: missing ] after element list

tryItOut 487
Compiling threw: SyntaxError: syntax error

tryItOut 488
It's an iterator!
Iterating succeeded, iterCount == 1

tryItOut 489
Compiling threw: SyntaxError: missing ) in parenthetical

tryItOut 490
Compiling threw: SyntaxError: missing ) in parenthetical

tryItOut 491
Compiling threw: SyntaxError: missing ; after for-loop initializer

tryItOut 492
Compiling threw: SyntaxError: invalid for/in left-hand side

tryItOut 493

tryItOut 494
Compiling threw: SyntaxError: missing variable name

tryItOut 495
It's an iterator!
Iterating succeeded, iterCount == 0

tryItOut 496
Compiling threw: SyntaxError: missing { before function body

tryItOut 497
Running threw: Error: cyclic __proto__ value

tryItOut 498

tryItOut 499

tryItOut 500
It's an iterator!
Iterating succeeded, iterCount == 1

tryItOut 501
It's an iterator!
Iterating succeeded, iterCount == 1

tryItOut 502
Compiling threw: SyntaxError: invalid for/in left-hand side

tryItOut 503

tryItOut 504
Compiling threw: TypeError: redeclaration of variable __noSuchMethod__

tryItOut 505

tryItOut 506

tryItOut 507
Compiling threw: SyntaxError: syntax error

tryItOut 508
It's an iterator!
Iterating succeeded, iterCount == 1

tryItOut 509
Compiling threw: SyntaxError: missing ] after element list

tryItOut 510

tryItOut 511

tryItOut 512
Compiling threw: SyntaxError: missing { before function body

tryItOut 513
Compiling threw: SyntaxError: syntax error

tryItOut 514
It's an iterator!
Iterating threw!
Iterating threw: Error: invalid sharp variable use #1#

tryItOut 515

tryItOut 516

tryItOut 517

tryItOut 518
Running threw: ReferenceError: z1 is not defined

tryItOut 519
Compiling threw: SyntaxError: invalid for/in left-hand side

tryItOut 520
Running threw: ReferenceError: get is not defined

tryItOut 521

tryItOut 522
Compiling threw: SyntaxError: illegal XML character

tryItOut 523

tryItOut 524
It's an iterator!
Iterating succeeded, iterCount == 2

tryItOut 525
It's an iterator!
Iterating succeeded, iterCount == 0

tryItOut 526
Compiling threw: SyntaxError: missing while after do-loop body

tryItOut 527
It's an iterator!
Iterating succeeded, iterCount == 1

tryItOut 528
Compiling threw: SyntaxError: invalid for/in left-hand side

tryItOut 529

tryItOut 530
Compiling threw: SyntaxError: missing ; before statement

tryItOut 531

tryItOut 532

tryItOut 533

tryItOut 534

tryItOut 535

tryItOut 536
It's an iterator!
Iterating succeeded, iterCount == 1

tryItOut 537

tryItOut 538
Compiling threw: SyntaxError: syntax error

tryItOut 539

tryItOut 540
It's an iterator!
Iterating succeeded, iterCount == 1

tryItOut 541

tryItOut 542

tryItOut 543

tryItOut 544
Compiling threw: SyntaxError: missing { before function body

tryItOut 545
It's an iterator!
Iterating succeeded, iterCount == 1

tryItOut 546
Compiling threw: SyntaxError: catch without try

tryItOut 547
It's an iterator!
Iterating succeeded, iterCount == 1

tryItOut 548
Compiling threw: SyntaxError: missing ; after for-loop initializer

tryItOut 549
Compiling threw: SyntaxError: missing ] after element list

tryItOut 550
Compiling threw: SyntaxError: invalid assignment left-hand side

tryItOut 551
It's an iterator!
Iterating threw!
Iterating threw: TypeError: <x/>.yoyo is not a function

tryItOut 552

tryItOut 553

tryItOut 554
Compiling threw: SyntaxError: missing variable name

tryItOut 555

tryItOut 556
Running threw: TypeError: <x>
  <y/>
</x> is not a function

tryItOut 557
Compiling threw: SyntaxError: missing ; before statement

tryItOut 558
Compiling threw: TypeError: redeclaration of const prop

tryItOut 559
Compiling threw: SyntaxError: invalid for/in left-hand side

tryItOut 560
Compiling threw: SyntaxError: missing variable name

tryItOut 561
Compiling threw: SyntaxError: missing ; before statement

tryItOut 562
Compiling threw: TypeError: redeclaration of var prop

tryItOut 563

tryItOut 564
Running threw: Error: invalid sharp variable use #1#

tryItOut 565
Compiling threw: SyntaxError: missing variable name

tryItOut 566
It's an iterator!
Iterating succeeded, iterCount == 0

tryItOut 567

tryItOut 568
Compiling threw: SyntaxError: missing ; before statement

tryItOut 569
It's an iterator!
Iterating succeeded, iterCount == 1

tryItOut 570
Compiling threw: SyntaxError: invalid for/in left-hand side

tryItOut 571
Compiling threw: SyntaxError: invalid for/in left-hand side

tryItOut 572
Running threw: TypeError: this.zzz has no properties

tryItOut 573
It's an iterator!
Iterating succeeded, iterCount == 1

tryItOut 574
Compiling threw: SyntaxError: invalid for/in left-hand side

tryItOut 575

tryItOut 576
It's an iterator!
Iterating succeeded, iterCount == 0

tryItOut 577
Running threw: TypeError: this.zzz has no properties

tryItOut 578
Compiling threw: SyntaxError: invalid for/in left-hand side

tryItOut 579

tryItOut 580

tryItOut 581
Compiling threw: SyntaxError: missing ; after for-loop initializer

tryItOut 582
It's an iterator!
Iterating succeeded, iterCount == 1

tryItOut 583
Compiling threw: SyntaxError: syntax error

tryItOut 584

tryItOut 585
Running threw: [object StopIteration]

tryItOut 586
Compiling threw: SyntaxError: syntax error

tryItOut 587

tryItOut 588
It's an iterator!
Iterating succeeded, iterCount == 1

tryItOut 589
Compiling threw: SyntaxError: invalid for/in left-hand side

tryItOut 590
Compiling threw: SyntaxError: invalid for/in left-hand side

tryItOut 591

tryItOut 592
It's an iterator!
Iterating succeeded, iterCount == 1

tryItOut 593

tryItOut 594

tryItOut 595
It's an iterator!
Iterating threw!
Iterating threw: ReferenceError: z1 is not defined

tryItOut 596

tryItOut 597
Compiling threw: SyntaxError: missing ; before statement

tryItOut 598
It's an iterator!
Iterating succeeded, iterCount == 1

tryItOut 599
It's an iterator!
Iterating succeeded, iterCount == 1

tryItOut 600
Compiling threw: SyntaxError: yield expression must be parenthesized

tryItOut 601
Compiling threw: TypeError: redeclaration of variable constructor

tryItOut 602
Compiling threw: SyntaxError: invalid assignment left-hand side

tryItOut 603

tryItOut 604
Running threw: [object StopIteration]

tryItOut 605
Compiling threw: SyntaxError: invalid for/in left-hand side

tryItOut 606
It's an iterator!
Iterating succeeded, iterCount == 0

tryItOut 607
Running threw: TypeError: this.zzz has no properties

tryItOut 608
Running threw: TypeError: __noSuchMethod__ has no properties

tryItOut 609

tryItOut 610
It's an iterator!
Iterating succeeded, iterCount == 1

tryItOut 611

tryItOut 612

tryItOut 613

tryItOut 614
Compiling threw: SyntaxError: invalid for/in left-hand side

tryItOut 615

tryItOut 616
Compiling threw: SyntaxError: missing { before function body

tryItOut 617
Compiling threw: SyntaxError: invalid for/in left-hand side

tryItOut 618
Running threw: [object StopIteration]

tryItOut 619
Compiling threw: SyntaxError: invalid for/in left-hand side

tryItOut 620
Compiling threw: SyntaxError: syntax error

tryItOut 621

tryItOut 622

tryItOut 623
Compiling threw: SyntaxError: invalid assignment left-hand side

tryItOut 624
It's an iterator!
Iterating threw!
Iterating threw: ReferenceError: window is not defined

tryItOut 625

tryItOut 626
It's an iterator!
Iterating succeeded, iterCount == 1

tryItOut 627

tryItOut 628
Running threw: ReferenceError: window is not defined

tryItOut 629
Compiling threw: SyntaxError: missing ; after for-loop initializer

tryItOut 630

tryItOut 631

tryItOut 632
Running threw: [object StopIteration]

tryItOut 633

tryItOut 634

tryItOut 635
It's an iterator!
Iterating threw!
Iterating threw: TypeError: <x>
  <y/>
</x> is not a constructor

tryItOut 636
Compiling threw: SyntaxError: missing ; after for-loop initializer

tryItOut 637
Compiling threw: SyntaxError: missing ) in parenthetical

tryItOut 638

tryItOut 639
Compiling threw: SyntaxError: invalid for/in left-hand side

tryItOut 640

tryItOut 641
Compiling threw: SyntaxError: missing } after let block

tryItOut 642

tryItOut 643

tryItOut 644
Compiling threw: SyntaxError: syntax error

tryItOut 645
Running threw: [object StopIteration]

tryItOut 646
Running threw: [object StopIteration]

tryItOut 647
Compiling threw: TypeError: redeclaration of const __proto__

tryItOut 648

tryItOut 649
Compiling threw: SyntaxError: missing } after let block

tryItOut 650
It's an iterator!
Iterating threw!
Iterating threw: TypeError: <x/>.watch() is not a function

tryItOut 651

tryItOut 652

tryItOut 653

tryItOut 654
Running threw: TypeError: this.zzz has no properties

tryItOut 655
Compiling threw: SyntaxError: syntax error

tryItOut 656
Compiling threw: SyntaxError: missing ; before statement

tryItOut 657
Compiling threw: SyntaxError: missing variable name

tryItOut 658

tryItOut 659
Running threw: SyntaxError: invalid setter usage

tryItOut 660
Compiling threw: SyntaxError: missing ] after element list

tryItOut 661
Compiling threw: SyntaxError: missing variable name

tryItOut 662
Compiling threw: SyntaxError: invalid for/in left-hand side

tryItOut 663

tryItOut 664
It's an iterator!
Iterating threw!
Iterating threw: ReferenceError: window is not defined

tryItOut 665
Compiling threw: SyntaxError: missing { before function body

tryItOut 666

tryItOut 667
Compiling threw: SyntaxError: missing ; before statement

tryItOut 668

tryItOut 669
Compiling threw: SyntaxError: invalid increment operand

tryItOut 670
Compiling threw: SyntaxError: syntax error

tryItOut 671
Compiling threw: SyntaxError: missing ; before statement

tryItOut 672
Compiling threw: SyntaxError: syntax error

tryItOut 673

tryItOut 674

tryItOut 675

tryItOut 676

tryItOut 677
Running threw: Error: invalid sharp variable use #1#

tryItOut 678

tryItOut 679
Compiling threw: SyntaxError: missing ) in parenthetical

tryItOut 680

tryItOut 681

tryItOut 682
Compiling threw: SyntaxError: invalid for/in left-hand side

tryItOut 683

tryItOut 684
Compiling threw: SyntaxError: missing ; before statement

tryItOut 685

tryItOut 686

tryItOut 687
Compiling threw: SyntaxError: invalid label

tryItOut 688
Compiling threw: SyntaxError: invalid for/in left-hand side

tryItOut 689
Compiling threw: SyntaxError: invalid destructuring assignment operator

tryItOut 690
Compiling threw: TypeError: redeclaration of variable __count__

tryItOut 691

tryItOut 692
Running threw: [object StopIteration]

tryItOut 693
Compiling threw: SyntaxError: missing variable name

tryItOut 694

tryItOut 695

tryItOut 696
Compiling threw: SyntaxError: invalid for/in left-hand side

tryItOut 697
Compiling threw: SyntaxError: invalid for/in left-hand side

tryItOut 698
Compiling threw: SyntaxError: invalid for/in left-hand side

tryItOut 699
Compiling threw: SyntaxError: missing variable name

tryItOut 700
Running threw: SyntaxError: invalid getter usage

tryItOut 701

tryItOut 702
Compiling threw: SyntaxError: invalid for/in left-hand side

tryItOut 703
Running threw: TypeError: this.zzz has no properties

tryItOut 704

tryItOut 705

tryItOut 706
Running threw: [object StopIteration]

tryItOut 707
Compiling threw: SyntaxError: missing variable name

tryItOut 708
It's an iterator!
Iterating succeeded, iterCount == 1

tryItOut 709

tryItOut 710
Compiling threw: SyntaxError: missing { before function body

tryItOut 711
Compiling threw: SyntaxError: missing ; before statement

tryItOut 712
It's an iterator!
Iterating succeeded, iterCount == 1

tryItOut 713
It's an iterator!
Iterating succeeded, iterCount == 0

tryItOut 714
Compiling threw: SyntaxError: missing { before function body

tryItOut 715
It's an iterator!
Iterating succeeded, iterCount == 1

tryItOut 716
Compiling threw: SyntaxError: invalid decrement operand

tryItOut 717

tryItOut 718
Compiling threw: SyntaxError: invalid for/in left-hand side

tryItOut 719
Compiling threw: SyntaxError: invalid for/in left-hand side

tryItOut 720
Compiling threw: SyntaxError: missing { before function body

tryItOut 721
Compiling threw: SyntaxError: missing ) in parenthetical

tryItOut 722

tryItOut 723
It's an iterator!
Iterating succeeded, iterCount == 1

tryItOut 724

tryItOut 725
It's an iterator!
Iterating succeeded, iterCount == 2

tryItOut 726
Compiling threw: SyntaxError: invalid increment operand

tryItOut 727
Compiling threw: SyntaxError: missing { before function body

tryItOut 728

tryItOut 729
Running threw: ReferenceError: window is not defined

tryItOut 730
It's an iterator!
Iterating succeeded, iterCount == 1

tryItOut 731

tryItOut 732
It's an iterator!
Iterating succeeded, iterCount == 0

tryItOut 733
It's an iterator!
Iterating succeeded, iterCount == 1

tryItOut 734

tryItOut 735
Compiling threw: SyntaxError: invalid for/in left-hand side

tryItOut 736

tryItOut 737
Compiling threw: SyntaxError: invalid decrement operand

tryItOut 738
Compiling threw: SyntaxError: syntax error

tryItOut 739
Compiling threw: SyntaxError: missing variable name

tryItOut 740
Compiling threw: SyntaxError: missing { before function body

tryItOut 741

tryItOut 742
Compiling threw: SyntaxError: invalid for/in left-hand side

tryItOut 743

tryItOut 744
It's an iterator!
Iterating threw!
Iterating threw: ReferenceError: x is not defined

tryItOut 745

tryItOut 746
Compiling threw: SyntaxError: missing variable name

tryItOut 747
Compiling threw: SyntaxError: syntax error

tryItOut 748

tryItOut 749

tryItOut 750
It's an iterator!
Iterating threw!
Iterating threw: TypeError: __noSuchMethod__ has no properties

tryItOut 751
Compiling threw: SyntaxError: syntax error

tryItOut 752
Compiling threw: SyntaxError: missing } after let block

tryItOut 753

tryItOut 754

tryItOut 755
Compiling threw: TypeError: redeclaration of var prototype

tryItOut 756
Compiling threw: SyntaxError: syntax error

tryItOut 757
Compiling threw: SyntaxError: invalid for/in left-hand side

tryItOut 758
It's an iterator!
Iterating succeeded, iterCount == 1

tryItOut 759

tryItOut 760
Compiling threw: SyntaxError: missing ) in parenthetical

tryItOut 761
Compiling threw: SyntaxError: invalid for each loop

tryItOut 762
Compiling threw: SyntaxError: illegal XML character

tryItOut 763
Compiling threw: SyntaxError: invalid assignment left-hand side

tryItOut 764
Compiling threw: SyntaxError: missing variable name

tryItOut 765

tryItOut 766

tryItOut 767
Compiling threw: SyntaxError: invalid for each loop

tryItOut 768

tryItOut 769
It's an iterator!
Iterating threw!
Iterating threw: ReferenceError: B is not defined

tryItOut 770
It's an iterator!
Iterating succeeded, iterCount == 1

tryItOut 771

tryItOut 772

tryItOut 773
Running threw: [object StopIteration]

tryItOut 774

tryItOut 775

tryItOut 776
It's an iterator!
Iterating succeeded, iterCount == 1

tryItOut 777

tryItOut 778

tryItOut 779
It's an iterator!
Iterating succeeded, iterCount == 1

tryItOut 780

tryItOut 781
It's an iterator!
Iterating succeeded, iterCount == 1

tryItOut 782

tryItOut 783
Compiling threw: TypeError: redeclaration of variable __iterator__

tryItOut 784
It's an iterator!
Iterating succeeded, iterCount == 1

tryItOut 785
It's an iterator!
Iterating threw!
Iterating threw: ReferenceError: z1 is not defined

tryItOut 786
Compiling threw: SyntaxError: invalid for/in left-hand side

tryItOut 787

tryItOut 788
Compiling threw: SyntaxError: missing variable name

tryItOut 789
It's an iterator!
Iterating succeeded, iterCount == 1

tryItOut 790
Running threw: TypeError: <x>
  <y/>
</x> is not a constructor

tryItOut 791
Compiling threw: SyntaxError: missing ; after for-loop initializer

tryItOut 792
Compiling threw: SyntaxError: missing { before function body

tryItOut 793
Compiling threw: SyntaxError: invalid for each loop

tryItOut 794

tryItOut 795

tryItOut 796
It's an iterator!
Iterating succeeded, iterCount == 1

tryItOut 797
Compiling threw: SyntaxError: missing identifier in catch

tryItOut 798
It's an iterator!
Iterating succeeded, iterCount == 0

tryItOut 799

tryItOut 800
Compiling threw: SyntaxError: missing ) in parenthetical

tryItOut 801

tryItOut 802
Compiling threw: SyntaxError: missing ; after for-loop initializer

tryItOut 803
Compiling threw: SyntaxError: invalid for each loop

tryItOut 804

tryItOut 805
Compiling threw: SyntaxError: invalid assignment left-hand side

tryItOut 806

tryItOut 807
Compiling threw: SyntaxError: syntax error

tryItOut 808

tryItOut 809

tryItOut 810

tryItOut 811
Compiling threw: SyntaxError: syntax error

tryItOut 812
Compiling threw: SyntaxError: invalid for/in left-hand side

tryItOut 813
It's an iterator!
Iterating succeeded, iterCount == 1

tryItOut 814

tryItOut 815
Running threw: TypeError: this.zzz has no properties

tryItOut 816

tryItOut 817
Running threw: ReferenceError: window is not defined

tryItOut 818
Compiling threw: SyntaxError: missing variable name

tryItOut 819
Compiling threw: SyntaxError: missing ; before statement

tryItOut 820
Compiling threw: SyntaxError: syntax error

tryItOut 821
Compiling threw: SyntaxError: invalid decrement operand

tryItOut 822

tryItOut 823
Compiling threw: SyntaxError: invalid assignment left-hand side

tryItOut 824
It's an iterator!
Iterating succeeded, iterCount == 1

tryItOut 825
Compiling threw: SyntaxError: missing ) in parenthetical

tryItOut 826
Compiling threw: SyntaxError: invalid for/in left-hand side

tryItOut 827

tryItOut 828
Compiling threw: SyntaxError: missing ; after for-loop initializer

tryItOut 829

tryItOut 830

tryItOut 831

tryItOut 832
Compiling threw: SyntaxError: missing ; after for-loop initializer

tryItOut 833

tryItOut 834
Compiling threw: SyntaxError: invalid for/in left-hand side

tryItOut 835
Compiling threw: SyntaxError: invalid XML tag syntax

tryItOut 836

tryItOut 837
Compiling threw: SyntaxError: missing in after for

tryItOut 838
Compiling threw: SyntaxError: syntax error

tryItOut 839
Compiling threw: SyntaxError: yield expression must be parenthesized

tryItOut 840
Compiling threw: SyntaxError: invalid for/in left-hand side

tryItOut 841
Compiling threw: TypeError: redeclaration of const __proto__

tryItOut 842
Compiling threw: SyntaxError: missing } after let block

tryItOut 843
Compiling threw: SyntaxError: missing ; before statement

tryItOut 844
Compiling threw: SyntaxError: missing ; after for-loop initializer

tryItOut 845

tryItOut 846
It's an iterator!
Iterating succeeded, iterCount == 1

tryItOut 847
Compiling threw: SyntaxError: missing variable name

tryItOut 848
Compiling threw: SyntaxError: invalid for/in left-hand side

tryItOut 849
It's an iterator!
Iterating threw!
Iterating threw: TypeError: prop has no properties

tryItOut 850
Running threw: ReferenceError: z1 is not defined

tryItOut 851
It's an iterator!
Iterating succeeded, iterCount == 1

tryItOut 852
Compiling threw: SyntaxError: missing : after property id

tryItOut 853

tryItOut 854
Compiling threw: SyntaxError: invalid for each loop

tryItOut 855

tryItOut 856

tryItOut 857

tryItOut 858
Compiling threw: SyntaxError: invalid for/in left-hand side

tryItOut 859

tryItOut 860
Compiling threw: SyntaxError: invalid for/in left-hand side

tryItOut 861
Compiling threw: SyntaxError: missing { before function body

tryItOut 862
Compiling threw: SyntaxError: invalid for/in left-hand side

tryItOut 863

tryItOut 864
Compiling threw: SyntaxError: missing { before function body

tryItOut 865
Running threw: TypeError: this.zzz has no properties

tryItOut 866
It's an iterator!
Iterating threw!
Iterating threw: TypeError: arguments[0] has no properties

tryItOut 867

tryItOut 868
Compiling threw: SyntaxError: illegal XML character

tryItOut 869
It's an iterator!
Iterating succeeded, iterCount == 1

tryItOut 870
It's an iterator!
Iterating succeeded, iterCount == 1

tryItOut 871
It's an iterator!
Iterating succeeded, iterCount == 2

tryItOut 872
Compiling threw: SyntaxError: missing ; before statement

tryItOut 873

tryItOut 874
Compiling threw: SyntaxError: invalid for/in left-hand side

tryItOut 875

tryItOut 876
Compiling threw: SyntaxError: missing ] after element list

tryItOut 877
Compiling threw: TypeError: redeclaration of const __parent__

tryItOut 878
It's an iterator!
Iterating succeeded, iterCount == 1

tryItOut 879
Compiling threw: SyntaxError: invalid assignment left-hand side

tryItOut 880
Compiling threw: SyntaxError: invalid for/in left-hand side

tryItOut 881

tryItOut 882

tryItOut 883

tryItOut 884
Compiling threw: SyntaxError: syntax error

tryItOut 885

tryItOut 886
Compiling threw: SyntaxError: missing formal parameter

tryItOut 887

tryItOut 888
Compiling threw: SyntaxError: invalid for/in left-hand side

tryItOut 889
Compiling threw: SyntaxError: invalid for/in left-hand side

tryItOut 890
Compiling threw: SyntaxError: missing ; before statement

tryItOut 891
Compiling threw: SyntaxError: invalid for/in left-hand side

tryItOut 892

tryItOut 893

tryItOut 894
Compiling threw: SyntaxError: missing } after let block

tryItOut 895

tryItOut 896
Compiling threw: SyntaxError: invalid assignment left-hand side

tryItOut 897
Compiling threw: SyntaxError: missing : after property id

tryItOut 898
Compiling threw: TypeError: redeclaration of variable constructor

tryItOut 899
Compiling threw: SyntaxError: invalid for/in left-hand side

tryItOut 900
Compiling threw: SyntaxError: invalid for/in left-hand side

tryItOut 901
Compiling threw: SyntaxError: missing variable name

tryItOut 902

tryItOut 903

tryItOut 904
Running threw: TypeError: XML filtering predicate operator called on incompatible Number

tryItOut 905

tryItOut 906
Compiling threw: SyntaxError: invalid for/in left-hand side

tryItOut 907
Compiling threw: SyntaxError: syntax error

tryItOut 908
It's an iterator!
Iterating succeeded, iterCount == 1

tryItOut 909
Compiling threw: TypeError: redeclaration of variable __noSuchMethod__

tryItOut 910
Compiling threw: SyntaxError: invalid for/in left-hand side

tryItOut 911

tryItOut 912

tryItOut 913
Compiling threw: SyntaxError: missing ) in parenthetical

tryItOut 914
Compiling threw: SyntaxError: invalid for/in left-hand side

tryItOut 915
Compiling threw: SyntaxError: missing : after property id

tryItOut 916
Compiling threw: SyntaxError: syntax error

tryItOut 917
Compiling threw: SyntaxError: missing variable name

tryItOut 918

tryItOut 919
It's an iterator!
Iterating succeeded, iterCount == 2

tryItOut 920
Compiling threw: SyntaxError: invalid assignment left-hand side

tryItOut 921

tryItOut 922
Compiling threw: SyntaxError: missing = in destructuring declaration

tryItOut 923
Compiling threw: SyntaxError: syntax error

tryItOut 924
It's an iterator!
Iterating threw!
Iterating threw: TypeError: <x><y/></x>.@foo is not a constructor

tryItOut 925

tryItOut 926

tryItOut 927

tryItOut 928
Compiling threw: SyntaxError: syntax error

tryItOut 929
Compiling threw: SyntaxError: invalid for/in left-hand side

tryItOut 930
Compiling threw: SyntaxError: invalid for/in left-hand side

tryItOut 931
Compiling threw: SyntaxError: missing : after property id

tryItOut 932
Compiling threw: TypeError: redeclaration of const __parent__

tryItOut 933

tryItOut 934
Compiling threw: SyntaxError: syntax error

tryItOut 935
It's an iterator!
Iterating threw!
Iterating threw: ReferenceError: z1 is not defined

tryItOut 936
It's an iterator!
Iterating threw!
Iterating threw: TypeError: [undefined, undefined] is not a function

tryItOut 937
It's an iterator!
Iterating succeeded, iterCount == 0

tryItOut 938

tryItOut 939

tryItOut 940

tryItOut 941

tryItOut 942
Compiling threw: SyntaxError: missing variable name

tryItOut 943

tryItOut 944

tryItOut 945
Compiling threw: SyntaxError: missing ) in parenthetical

tryItOut 946
It's an iterator!
Iterating succeeded, iterCount == 0

tryItOut 947
Running threw: TypeError: __noSuchMethod__ has no properties

tryItOut 948
Running threw: TypeError: this.zzz has no properties

tryItOut 949
Compiling threw: SyntaxError: syntax error

tryItOut 950
Compiling threw: SyntaxError: invalid for/in left-hand side

tryItOut 951
It's an iterator!
Iterating threw!
Iterating threw: TypeError: <x><y/></x>.yoyo is not a function

tryItOut 952
Compiling threw: SyntaxError: invalid for each loop

tryItOut 953
Compiling threw: SyntaxError: missing ) after for-loop control

tryItOut 954

tryItOut 955
Compiling threw: SyntaxError: syntax error

tryItOut 956
It's an iterator!
Iterating succeeded, iterCount == 1

tryItOut 957

tryItOut 958
Compiling threw: SyntaxError: invalid decrement operand

tryItOut 959
Compiling threw: SyntaxError: missing variable name

tryItOut 960

tryItOut 961
Compiling threw: SyntaxError: invalid assignment left-hand side

tryItOut 962
Compiling threw: SyntaxError: missing ; after for-loop initializer

tryItOut 963
Compiling threw: SyntaxError: invalid for/in left-hand side

tryItOut 964

tryItOut 965

tryItOut 966

tryItOut 967
It's an iterator!
Iterating succeeded, iterCount == 1

tryItOut 968
It's an iterator!
Iterating succeeded, iterCount == 1

tryItOut 969

tryItOut 970

tryItOut 971
Running threw: TypeError: this.zzz has no properties

tryItOut 972
Running threw: ReferenceError: Y is not defined

tryItOut 973

tryItOut 974
Compiling threw: SyntaxError: invalid for/in left-hand side

tryItOut 975

tryItOut 976
Compiling threw: SyntaxError: syntax error

tryItOut 977
Running threw: TypeError: this.zzz has no properties

tryItOut 978

tryItOut 979

tryItOut 980
It's an iterator!
Iterating threw!
Iterating threw: TypeError: __noSuchMethod__ has no properties

tryItOut 981
Running threw: TypeError: this.zzz has no properties

tryItOut 982
It's an iterator!
Iterating threw!
Iterating threw: TypeError: __proto__ is not a function

tryItOut 983
It's an iterator!
Iterating succeeded, iterCount == 1

tryItOut 984

tryItOut 985
It's an iterator!
Iterating threw!
Iterating threw: SyntaxError: invalid setter usage

tryItOut 986

tryItOut 987

tryItOut 988

tryItOut 989

tryItOut 990

tryItOut 991

tryItOut 992

tryItOut 993
Compiling threw: SyntaxError: missing variable name

tryItOut 994
Compiling threw: SyntaxError: invalid property id

tryItOut 995
It's an iterator!
Iterating succeeded, iterCount == 2

tryItOut 996
It's an iterator!
Iterating succeeded, iterCount == 2

tryItOut 997
It's an iterator!
Iterating succeeded, iterCount == 1

tryItOut 998

tryItOut 999
Compiling threw: SyntaxError: syntax error

tryItOut 1000
Compiling threw: SyntaxError: syntax error

ALL OK

Script done on Sat 04 May 2013 05:22:56 AM PDT
