Script started on Sat 04 May 2013 05:23:01 AM PDT
***
Targeting SpiderMonkey / Gecko.

tryItOut 1

tryItOut 2

tryItOut 3

tryItOut 4
before 69760, after 69760, break 0108b000
before 69760, after 69760, break 0108b000
before 69760, after 69760, break 0108b000
before 69760, after 69760, break 0108b000

tryItOut 5
It's an iterator!
Iterating threw!
Iterating threw: ReferenceError: window is not defined

tryItOut 6

tryItOut 7
Compiling threw: SyntaxError: invalid for/in left-hand side

tryItOut 8
Running threw: TypeError: "" is not a constructor

tryItOut 9
Running threw: ReferenceError: reference to undefined XML name *::*

tryItOut 10
Compiling threw: SyntaxError: invalid for/in left-hand side

tryItOut 11
Compiling threw: SyntaxError: invalid XML name

tryItOut 12
Running threw: Error: invalid sharp variable use #1#

tryItOut 13
It's an iterator!
Iterating threw!
Iterating threw: ReferenceError: x is not defined

tryItOut 14

tryItOut 15

tryItOut 16
It's an iterator!
Iterating threw!
Iterating threw: ReferenceError: reference to undefined XML name *::*

tryItOut 17
Compiling threw: SyntaxError: invalid for each loop

tryItOut 18
Compiling threw: SyntaxError: missing ; before statement

tryItOut 19
Compiling threw: TypeError: redeclaration of const __parent__

tryItOut 20
Compiling threw: SyntaxError: invalid assignment left-hand side

tryItOut 21
Compiling threw: SyntaxError: invalid for/in left-hand side

tryItOut 22

tryItOut 23

tryItOut 24
Compiling threw: SyntaxError: missing ) after argument list

tryItOut 25
Compiling threw: SyntaxError: missing variable name

tryItOut 26

tryItOut 27
Running threw: ReferenceError: reference to undefined XML name @foo

tryItOut 28

tryItOut 29
Compiling threw: SyntaxError: missing ; before statement

tryItOut 30
Compiling threw: SyntaxError: missing : after property id

tryItOut 31
Compiling threw: SyntaxError: missing { before function body

tryItOut 32
Compiling threw: SyntaxError: missing { before function body

tryItOut 33
Compiling threw: SyntaxError: invalid assignment left-hand side

tryItOut 34

tryItOut 35
Running threw: ReferenceError: prototype is not defined

tryItOut 36
Running threw: <x>
  <y/>
</x>

tryItOut 37
Compiling threw: SyntaxError: invalid assignment left-hand side

tryItOut 38
Compiling threw: SyntaxError: missing ; after for-loop initializer

tryItOut 39
Running threw: [object StopIteration]

tryItOut 40
Compiling threw: SyntaxError: syntax error

tryItOut 41
Compiling threw: SyntaxError: missing variable name

tryItOut 42
Compiling threw: SyntaxError: invalid continue

tryItOut 43
Compiling threw: SyntaxError: syntax error

tryItOut 44
Running threw: SyntaxError: illegal XML character

tryItOut 45

tryItOut 46
Compiling threw: SyntaxError: missing { before function body

tryItOut 47
Compiling threw: SyntaxError: syntax error

tryItOut 48
Running threw: TypeError: Math.sin.@* has no properties

tryItOut 49
Compiling threw: TypeError: redeclaration of var constructor

tryItOut 50

tryItOut 51
Running threw: ReferenceError: __noSuchMethod__ is not defined

tryItOut 52
Compiling threw: SyntaxError: missing ; before statement

tryItOut 53
Compiling threw: SyntaxError: missing ) in parenthetical

tryItOut 54

tryItOut 55
Compiling threw: SyntaxError: missing variable name

tryItOut 56
Compiling threw: SyntaxError: missing { before function body

tryItOut 57
Compiling threw: TypeError: redeclaration of variable __parent__

tryItOut 58

tryItOut 59
Compiling threw: SyntaxError: syntax error

tryItOut 60
Running threw: ReferenceError: reference to undefined XML name @foo

tryItOut 61

tryItOut 62

tryItOut 63
Running threw: ReferenceError: z1 is not defined

tryItOut 64
Compiling threw: SyntaxError: syntax error

tryItOut 65

tryItOut 66
Running threw: ReferenceError: reference to undefined XML name @foo

tryItOut 67
Compiling threw: SyntaxError: label not found

tryItOut 68

tryItOut 69
Compiling threw: SyntaxError: label not found

tryItOut 70

tryItOut 71
Error while trying to determine whether it's an iterator!
The error was: TypeError: Iterator(rv) has invalid __iterator__ value ({})

tryItOut 72
Compiling threw: SyntaxError: missing { before function body

tryItOut 73
Compiling threw: SyntaxError: invalid for/in left-hand side

tryItOut 74
Compiling threw: SyntaxError: syntax error

tryItOut 75
Compiling threw: SyntaxError: invalid for/in left-hand side

tryItOut 76
Compiling threw: SyntaxError: label not found

tryItOut 77
Compiling threw: SyntaxError: invalid assignment left-hand side

tryItOut 78

tryItOut 79

tryItOut 80
Compiling threw: SyntaxError: invalid for/in left-hand side

tryItOut 81

tryItOut 82

tryItOut 83

tryItOut 84
Compiling threw: TypeError: redeclaration of variable __count__

tryItOut 85

tryItOut 86
Compiling threw: SyntaxError: invalid assignment left-hand side

tryItOut 87
Running threw: ReferenceError: reference to undefined XML name @foo

tryItOut 88
Compiling threw: SyntaxError: invalid for/in left-hand side

tryItOut 89
Compiling threw: SyntaxError: label not found

tryItOut 90
Compiling threw: SyntaxError: syntax error

tryItOut 91
Compiling threw: SyntaxError: syntax error

tryItOut 92

tryItOut 93
Compiling threw: SyntaxError: invalid for/in left-hand side

tryItOut 94
Compiling threw: SyntaxError: missing variable name

tryItOut 95
Running threw: ReferenceError: window is not defined

tryItOut 96

tryItOut 97
Compiling threw: SyntaxError: invalid assignment left-hand side

tryItOut 98
Compiling threw: SyntaxError: invalid assignment left-hand side

tryItOut 99
Running threw: TypeError: this.zzz has no properties

tryItOut 100
Running threw: ReferenceError: __noSuchMethod__ is not defined

tryItOut 101

tryItOut 102

tryItOut 103
Compiling threw: SyntaxError: syntax error

tryItOut 104
Compiling threw: SyntaxError: illegal XML character

tryItOut 105
Running threw: ReferenceError: reference to undefined XML name *::*

tryItOut 106

tryItOut 107

tryItOut 108
Running threw: ReferenceError: reference to undefined XML name *

tryItOut 109

tryItOut 110
Compiling threw: SyntaxError: missing { before function body

tryItOut 111
It's an iterator!
Iterating threw!
Iterating threw: ReferenceError: reference to undefined XML name *

tryItOut 112

tryItOut 113
Compiling threw: SyntaxError: missing variable name

tryItOut 114
Running threw: TypeError: this.zzz has no properties

tryItOut 115
It's an iterator!
Iterating succeeded, iterCount == 0

tryItOut 116
Running threw: TypeError: (1e-81).eval("") has no properties

tryItOut 117
Compiling threw: SyntaxError: invalid assignment left-hand side

tryItOut 118
Compiling threw: SyntaxError: syntax error

tryItOut 119
Compiling threw: SyntaxError: invalid XML tag syntax

tryItOut 120

tryItOut 121
Compiling threw: SyntaxError: invalid continue

tryItOut 122
Running threw: TypeError: this.zzz has no properties

tryItOut 123

tryItOut 124

tryItOut 125

tryItOut 126

tryItOut 127
Compiling threw: SyntaxError: missing exponent

tryItOut 128
Compiling threw: SyntaxError: missing ] after element list

tryItOut 129

tryItOut 130
Compiling threw: SyntaxError: invalid break

tryItOut 131
Running threw: TypeError: this.zzz has no properties

tryItOut 132
Compiling threw: SyntaxError: missing ) in parenthetical

tryItOut 133

tryItOut 134

tryItOut 135
Compiling threw: SyntaxError: syntax error

tryItOut 136
It's an iterator!
Iterating succeeded, iterCount == 1

tryItOut 137
Running threw: TypeError: this.zzz has no properties

tryItOut 138

tryItOut 139
Running threw: ReferenceError: reference to undefined XML name *

tryItOut 140
Running threw: ReferenceError: reference to undefined XML name *

tryItOut 141
Compiling threw: SyntaxError: syntax error

tryItOut 142

tryItOut 143
Running threw: Error: cyclic __proto__ value

tryItOut 144
Running threw: ReferenceError: reference to undefined XML name @foo

tryItOut 145
Compiling threw: SyntaxError: syntax error

tryItOut 146
Running threw: ReferenceError: reference to undefined XML name *

tryItOut 147
Compiling threw: SyntaxError: missing name in export statement

tryItOut 148

tryItOut 149

tryItOut 150
Compiling threw: SyntaxError: missing { before function body

tryItOut 151
Compiling threw: SyntaxError: missing ; after for-loop initializer

tryItOut 152
Compiling threw: SyntaxError: invalid for/in left-hand side

tryItOut 153
Compiling threw: SyntaxError: missing ) in parenthetical

tryItOut 154
Compiling threw: SyntaxError: missing variable name

tryItOut 155
Compiling threw: SyntaxError: syntax error

tryItOut 156
Compiling threw: SyntaxError: missing { before function body

tryItOut 157
Compiling threw: SyntaxError: missing variable name

tryItOut 158
Compiling threw: SyntaxError: syntax error

tryItOut 159

tryItOut 160

tryItOut 161
Compiling threw: SyntaxError: invalid for/in left-hand side

tryItOut 162
Compiling threw: SyntaxError: label not found

tryItOut 163

tryItOut 164
Compiling threw: SyntaxError: invalid assignment left-hand side

tryItOut 165
Compiling threw: SyntaxError: missing { before function body

tryItOut 166
Compiling threw: SyntaxError: label not found

tryItOut 167

tryItOut 168
Compiling threw: SyntaxError: syntax error

tryItOut 169
Compiling threw: SyntaxError: syntax error

tryItOut 170
Running threw: ReferenceError: reference to undefined XML name *

tryItOut 171
It's an iterator!
Iterating succeeded, iterCount == 1

tryItOut 172
Compiling threw: SyntaxError: missing variable name

tryItOut 173

tryItOut 174

tryItOut 175
Compiling threw: SyntaxError: label not found

tryItOut 176
Compiling threw: SyntaxError: invalid switch statement

tryItOut 177

tryItOut 178
Compiling threw: SyntaxError: syntax error

tryItOut 179
Compiling threw: SyntaxError: missing ; before statement

tryItOut 180

tryItOut 181
Compiling threw: SyntaxError: label not found

tryItOut 182
Running threw: TypeError: "" is not a function

tryItOut 183
Compiling threw: SyntaxError: syntax error

tryItOut 184
Compiling threw: SyntaxError: missing ; before statement

tryItOut 185
Compiling threw: SyntaxError: invalid assignment left-hand side

tryItOut 186
Compiling threw: SyntaxError: missing ) in parenthetical

tryItOut 187
Compiling threw: SyntaxError: syntax error

tryItOut 188
Compiling threw: SyntaxError: syntax error

tryItOut 189

tryItOut 190
Compiling threw: SyntaxError: missing } in compound statement

tryItOut 191
Compiling threw: SyntaxError: invalid destructuring assignment operator

tryItOut 192

tryItOut 193

tryItOut 194
Compiling threw: SyntaxError: syntax error

tryItOut 195

tryItOut 196
Compiling threw: SyntaxError: invalid assignment left-hand side

tryItOut 197

tryItOut 198

tryItOut 199
Compiling threw: SyntaxError: invalid for/in left-hand side

tryItOut 200

tryItOut 201
Compiling threw: SyntaxError: syntax error

tryItOut 202
Compiling threw: SyntaxError: missing ) in parenthetical

tryItOut 203
Compiling threw: SyntaxError: missing ; after for-loop condition

tryItOut 204

tryItOut 205

tryItOut 206
Compiling threw: SyntaxError: missing variable name

tryItOut 207
Compiling threw: SyntaxError: label not found

tryItOut 208
Compiling threw: SyntaxError: missing ] after element list

tryItOut 209
Running threw: Error: invalid sharp variable use #1#

tryItOut 210

tryItOut 211
Running threw: ReferenceError: window is not defined

tryItOut 212

tryItOut 213
Compiling threw: SyntaxError: syntax error

tryItOut 214
Compiling threw: SyntaxError: invalid decrement operand

tryItOut 215

tryItOut 216

tryItOut 217
Running threw: ReferenceError: reference to undefined XML name @foo

tryItOut 218

tryItOut 219
Compiling threw: SyntaxError: missing { before function body

tryItOut 220
Compiling threw: SyntaxError: label not found

tryItOut 221
Compiling threw: SyntaxError: missing ) in parenthetical

tryItOut 222

tryItOut 223

tryItOut 224

tryItOut 225
Compiling threw: SyntaxError: syntax error

tryItOut 226
It's an iterator!
Iterating succeeded, iterCount == 1

tryItOut 227

tryItOut 228
Running threw: 108

tryItOut 229

tryItOut 230
Compiling threw: SyntaxError: missing ; after for-loop initializer

tryItOut 231
Running threw: [object StopIteration]

tryItOut 232
Compiling threw: SyntaxError: syntax error

tryItOut 233

tryItOut 234

tryItOut 235
Running threw: ReferenceError: __noSuchMethod__ is not defined

tryItOut 236

tryItOut 237

tryItOut 238
Compiling threw: SyntaxError: syntax error

tryItOut 239

tryItOut 240
Compiling threw: SyntaxError: missing ; after for-loop initializer

tryItOut 241
Compiling threw: SyntaxError: syntax error

tryItOut 242

tryItOut 243
Running threw: 108

tryItOut 244
Running threw: ReferenceError: reference to undefined XML name *::*

tryItOut 245
Compiling threw: SyntaxError: missing : after property id

tryItOut 246
Running threw: ReferenceError: __noSuchMethod__ is not defined

tryItOut 247

tryItOut 248
Running threw: ReferenceError: reference to undefined XML name *

tryItOut 249

tryItOut 250
It's an iterator!
Iterating threw!
Iterating threw: ReferenceError: reference to undefined XML name *::*

tryItOut 251

tryItOut 252
Compiling threw: SyntaxError: missing variable name

tryItOut 253
Compiling threw: SyntaxError: invalid for/in left-hand side

tryItOut 254
Compiling threw: SyntaxError: invalid assignment left-hand side

tryItOut 255
Compiling threw: SyntaxError: invalid for/in left-hand side

tryItOut 256

tryItOut 257
Compiling threw: SyntaxError: label not found

tryItOut 258

tryItOut 259

tryItOut 260

tryItOut 261

tryItOut 262
Compiling threw: SyntaxError: invalid for/in left-hand side

tryItOut 263
Compiling threw: SyntaxError: invalid assignment left-hand side

tryItOut 264
Running threw: TypeError: XML filtering predicate operator called on incompatible Number

tryItOut 265
Compiling threw: TypeError: redeclaration of const __parent__

tryItOut 266
Compiling threw: SyntaxError: invalid for/in left-hand side

tryItOut 267
Compiling threw: SyntaxError: syntax error

tryItOut 268

tryItOut 269
Running threw: ReferenceError: reference to undefined XML name *

tryItOut 270
Compiling threw: SyntaxError: missing ; before statement

tryItOut 271
Compiling threw: SyntaxError: invalid for/in left-hand side

tryItOut 272
Compiling threw: SyntaxError: invalid assignment left-hand side

tryItOut 273
Compiling threw: SyntaxError: invalid assignment left-hand side

tryItOut 274
Compiling threw: SyntaxError: invalid increment operand

tryItOut 275
Compiling threw: SyntaxError: invalid assignment left-hand side

tryItOut 276
Compiling threw: SyntaxError: syntax error

tryItOut 277

tryItOut 278
Compiling threw: SyntaxError: invalid assignment left-hand side

tryItOut 279
Compiling threw: SyntaxError: invalid for/in left-hand side

tryItOut 280
Compiling threw: SyntaxError: missing variable name

tryItOut 281
Compiling threw: SyntaxError: invalid assignment left-hand side

tryItOut 282

tryItOut 283

tryItOut 284
Compiling threw: SyntaxError: invalid for/in left-hand side

tryItOut 285
Compiling threw: SyntaxError: missing ) in parenthetical

tryItOut 286
Compiling threw: SyntaxError: missing variable name

tryItOut 287

tryItOut 288
Compiling threw: SyntaxError: syntax error

tryItOut 289
Compiling threw: SyntaxError: missing variable name

tryItOut 290

tryItOut 291
Compiling threw: SyntaxError: invalid increment operand

tryItOut 292
Compiling threw: SyntaxError: invalid for/in left-hand side

tryItOut 293
Compiling threw: SyntaxError: label not found

tryItOut 294
Compiling threw: SyntaxError: missing ; after for-loop initializer

tryItOut 295
Compiling threw: SyntaxError: missing : in conditional expression

tryItOut 296
Compiling threw: SyntaxError: syntax error

tryItOut 297

tryItOut 298

tryItOut 299
Compiling threw: SyntaxError: invalid continue

tryItOut 300

tryItOut 301
Compiling threw: SyntaxError: syntax error

tryItOut 302
Running threw: ReferenceError: z1 is not defined

tryItOut 303

tryItOut 304

tryItOut 305
Compiling threw: SyntaxError: syntax error

tryItOut 306

tryItOut 307
Running threw: ReferenceError: reference to undefined XML name *

tryItOut 308
Compiling threw: SyntaxError: invalid continue

tryItOut 309
It's an iterator!
Iterating succeeded, iterCount == 1

tryItOut 310
Compiling threw: SyntaxError: invalid for each loop

tryItOut 311
Compiling threw: SyntaxError: invalid assignment left-hand side

tryItOut 312
Compiling threw: SyntaxError: missing variable name

tryItOut 313
Compiling threw: SyntaxError: illegal XML character

tryItOut 314
Compiling threw: SyntaxError: invalid assignment left-hand side

tryItOut 315
Running threw: TypeError: this.zzz has no properties

tryItOut 316

tryItOut 317
Compiling threw: SyntaxError: invalid assignment left-hand side

tryItOut 318
Running threw: TypeError: this.zzz has no properties

tryItOut 319
Compiling threw: SyntaxError: missing ; after for-loop initializer

tryItOut 320

tryItOut 321
Compiling threw: SyntaxError: illegal XML character

tryItOut 322

tryItOut 323

tryItOut 324
It's an iterator!
Iterating succeeded, iterCount == 1

tryItOut 325
Running threw: null

tryItOut 326

tryItOut 327
Compiling threw: SyntaxError: syntax error

tryItOut 328

tryItOut 329

tryItOut 330
Running threw: ReferenceError: window is not defined

tryItOut 331

tryItOut 332
Compiling threw: SyntaxError: missing ) in parenthetical

tryItOut 333

tryItOut 334
Compiling threw: SyntaxError: syntax error

tryItOut 335

tryItOut 336

tryItOut 337
Compiling threw: SyntaxError: missing ) in parenthetical

tryItOut 338
Compiling threw: SyntaxError: syntax error

tryItOut 339
Running threw: function (id) {
    return id;
}

tryItOut 340
Compiling threw: SyntaxError: invalid break

tryItOut 341
Running threw: ReferenceError: reference to undefined XML name @foo

tryItOut 342

tryItOut 343
It's an iterator!
Iterating threw!
Iterating threw: ReferenceError: reference to undefined XML name *

tryItOut 344

tryItOut 345

tryItOut 346
Running threw: TypeError: XML filtering predicate operator called on incompatible Array

tryItOut 347
Compiling threw: SyntaxError: label not found

tryItOut 348
Compiling threw: SyntaxError: invalid for/in left-hand side

tryItOut 349
Running threw: [object StopIteration]

tryItOut 350
Running threw: 

tryItOut 351
Compiling threw: SyntaxError: syntax error

tryItOut 352

tryItOut 353
Compiling threw: SyntaxError: invalid for/in left-hand side

tryItOut 354
It's an iterator!
Iterating threw!
Iterating threw: ReferenceError: window is not defined

tryItOut 355
Compiling threw: SyntaxError: syntax error

tryItOut 356

tryItOut 357
Running threw: TypeError: XML filtering predicate operator called on incompatible Function

tryItOut 358

tryItOut 359

tryItOut 360
Compiling threw: SyntaxError: label not found

tryItOut 361

tryItOut 362
Running threw: [object StopIteration]

tryItOut 363
Compiling threw: SyntaxError: missing ) in parenthetical

tryItOut 364
Compiling threw: SyntaxError: missing ) after for-loop control

tryItOut 365
Compiling threw: SyntaxError: invalid for/in left-hand side

tryItOut 366

tryItOut 367
Running threw: ReferenceError: reference to undefined XML name *::*

tryItOut 368

tryItOut 369
Running threw: ReferenceError: reference to undefined XML name *::*

tryItOut 370

tryItOut 371
Compiling threw: SyntaxError: invalid for/in left-hand side

tryItOut 372
Compiling threw: SyntaxError: syntax error

tryItOut 373

tryItOut 374
Compiling threw: SyntaxError: label not found

tryItOut 375

tryItOut 376

tryItOut 377
Compiling threw: SyntaxError: syntax error

tryItOut 378
Compiling threw: SyntaxError: missing : after property id

tryItOut 379
Compiling threw: SyntaxError: label not found

tryItOut 380
Running threw: ReferenceError: reference to undefined XML name *

tryItOut 381

tryItOut 382
Compiling threw: SyntaxError: invalid for/in left-hand side

tryItOut 383
Compiling threw: SyntaxError: invalid for/in left-hand side

tryItOut 384
Compiling threw: SyntaxError: syntax error

tryItOut 385
Compiling threw: SyntaxError: missing ; before statement

tryItOut 386

tryItOut 387
Compiling threw: SyntaxError: missing { before function body

tryItOut 388

tryItOut 389
Compiling threw: SyntaxError: invalid destructuring assignment operator

tryItOut 390
Running threw: TypeError: <x>
  <y/>
</x> is not a function

tryItOut 391

tryItOut 392

tryItOut 393
Compiling threw: SyntaxError: invalid continue

tryItOut 394

tryItOut 395

tryItOut 396

tryItOut 397
Compiling threw: SyntaxError: missing ; after for-loop condition

tryItOut 398

tryItOut 399

tryItOut 400
Running threw: ReferenceError: __noSuchMethod__ is not defined

tryItOut 401
Compiling threw: SyntaxError: invalid for/in left-hand side

tryItOut 402

tryItOut 403
Compiling threw: SyntaxError: invalid continue

tryItOut 404

tryItOut 405
Compiling threw: SyntaxError: missing { before function body

tryItOut 406
Running threw: ReferenceError: reference to undefined XML name @foo

tryItOut 407
It's an iterator!
Iterating threw!
Iterating threw: ReferenceError: window is not defined

tryItOut 408
Compiling threw: SyntaxError: missing ) after condition

tryItOut 409
Compiling threw: SyntaxError: missing ] after element list

tryItOut 410
Compiling threw: SyntaxError: invalid for/in left-hand side

tryItOut 411
Compiling threw: SyntaxError: syntax error

tryItOut 412
Compiling threw: SyntaxError: missing ; before statement

tryItOut 413
Running threw: TypeError: this.zzz has no properties

tryItOut 414
Compiling threw: SyntaxError: missing ] after element list

tryItOut 415
Compiling threw: SyntaxError: missing ; after for-loop initializer

tryItOut 416

tryItOut 417
It's an iterator!
Iterating threw!
Iterating threw: ReferenceError: reference to undefined XML name *::*

tryItOut 418
Compiling threw: SyntaxError: invalid assignment left-hand side

tryItOut 419
Compiling threw: SyntaxError: syntax error

tryItOut 420
Running threw: TypeError: 4 is not a function

tryItOut 421
Compiling threw: SyntaxError: invalid decrement operand

tryItOut 422

tryItOut 423
Compiling threw: SyntaxError: missing ] after element list

tryItOut 424

tryItOut 425
Compiling threw: SyntaxError: invalid for/in left-hand side

tryItOut 426

tryItOut 427

tryItOut 428

tryItOut 429
Compiling threw: SyntaxError: invalid for/in left-hand side

tryItOut 430
Compiling threw: SyntaxError: missing ) in parenthetical

tryItOut 431
Compiling threw: SyntaxError: label not found

tryItOut 432
Running threw: <x>
  <y/>
</x>

tryItOut 433

tryItOut 434
Compiling threw: TypeError: redeclaration of var __parent__

tryItOut 435
Compiling threw: SyntaxError: missing ; after for-loop initializer

tryItOut 436

tryItOut 437

tryItOut 438
Compiling threw: SyntaxError: syntax error

tryItOut 439

tryItOut 440
Compiling threw: SyntaxError: missing { before function body

tryItOut 441
It's an iterator!
Iterating threw!
Iterating threw: ReferenceError: reference to undefined XML name @foo

tryItOut 442
Compiling threw: SyntaxError: missing { before function body

tryItOut 443
Compiling threw: SyntaxError: syntax error

tryItOut 444

tryItOut 445
It's an iterator!
Iterating threw!
Iterating threw: TypeError: arguments[0] has no properties

tryItOut 446
Compiling threw: SyntaxError: missing ; after for-loop initializer

tryItOut 447
Compiling threw: SyntaxError: missing { before function body

tryItOut 448

tryItOut 449
Compiling threw: SyntaxError: invalid for/in left-hand side

tryItOut 450
Compiling threw: SyntaxError: missing formal parameter

tryItOut 451
Compiling threw: SyntaxError: syntax error

tryItOut 452

tryItOut 453

tryItOut 454
Compiling threw: SyntaxError: missing variable name

tryItOut 455

tryItOut 456

tryItOut 457
Compiling threw: SyntaxError: missing { before function body

tryItOut 458

tryItOut 459
Compiling threw: SyntaxError: invalid continue

tryItOut 460

tryItOut 461
Compiling threw: SyntaxError: label not found

tryItOut 462

tryItOut 463
Compiling threw: SyntaxError: missing { before function body

tryItOut 464

tryItOut 465
Compiling threw: TypeError: redeclaration of const prototype

tryItOut 466
Running threw: TypeError: arguments[0] has no properties

tryItOut 467

tryItOut 468

tryItOut 469
Compiling threw: SyntaxError: missing ; before statement

tryItOut 470
Compiling threw: SyntaxError: illegal XML character

tryItOut 471
Compiling threw: SyntaxError: invalid for/in left-hand side

tryItOut 472

tryItOut 473
Running threw: ReferenceError: window is not defined

tryItOut 474
Compiling threw: SyntaxError: invalid for/in left-hand side

tryItOut 475
Compiling threw: SyntaxError: label not found

tryItOut 476
Compiling threw: SyntaxError: syntax error

tryItOut 477
Compiling threw: SyntaxError: invalid for/in left-hand side

tryItOut 478

tryItOut 479
Compiling threw: SyntaxError: invalid assignment left-hand side

tryItOut 480
Running threw: Error: invalid sharp variable use #1#

tryItOut 481

tryItOut 482

tryItOut 483
Compiling threw: SyntaxError: invalid for/in left-hand side

tryItOut 484
Compiling threw: SyntaxError: missing ; after for-loop initializer

tryItOut 485
Compiling threw: SyntaxError: invalid for/in left-hand side

tryItOut 486
Running threw: TypeError: this.zzz has no properties

tryItOut 487
Compiling threw: SyntaxError: label not found

tryItOut 488

tryItOut 489
Compiling threw: SyntaxError: missing ) in parenthetical

tryItOut 490
Compiling threw: SyntaxError: invalid assignment left-hand side

tryItOut 491

tryItOut 492
It's an iterator!
Iterating succeeded, iterCount == 1

tryItOut 493
Running threw: ReferenceError: __noSuchMethod__ is not defined

tryItOut 494
Compiling threw: SyntaxError: missing variable name

tryItOut 495

tryItOut 496
Compiling threw: SyntaxError: invalid for/in left-hand side

tryItOut 497
Compiling threw: SyntaxError: invalid assignment left-hand side

tryItOut 498
Compiling threw: SyntaxError: invalid for/in left-hand side

tryItOut 499
It's an iterator!
Iterating threw!
Iterating threw: ReferenceError: window is not defined

tryItOut 500

tryItOut 501
Compiling threw: SyntaxError: missing variable name

tryItOut 502
Compiling threw: SyntaxError: missing { before function body

tryItOut 503

tryItOut 504

tryItOut 505

tryItOut 506
Compiling threw: SyntaxError: missing { before function body

tryItOut 507
Running threw: 1e+81

tryItOut 508
Compiling threw: SyntaxError: missing ) after argument list

tryItOut 509
Compiling threw: SyntaxError: syntax error

tryItOut 510

tryItOut 511

tryItOut 512
Running threw: TypeError: arguments[0] has no properties

tryItOut 513
Compiling threw: SyntaxError: missing ; after for-loop initializer

tryItOut 514
Compiling threw: SyntaxError: missing variable name

tryItOut 515

tryItOut 516
Compiling threw: SyntaxError: invalid for/in left-hand side

tryItOut 517
Compiling threw: SyntaxError: invalid for/in left-hand side

tryItOut 518
Compiling threw: SyntaxError: invalid for each loop

tryItOut 519
Compiling threw: SyntaxError: missing { before function body

tryItOut 520
Compiling threw: SyntaxError: syntax error

tryItOut 521
Compiling threw: SyntaxError: syntax error

tryItOut 522
Compiling threw: SyntaxError: missing variable name

tryItOut 523

tryItOut 524
Compiling threw: SyntaxError: invalid for/in left-hand side

tryItOut 525
It's an iterator!
Iterating threw!
Iterating threw: TypeError: undefined is not a function

tryItOut 526
Compiling threw: SyntaxError: syntax error

tryItOut 527
Compiling threw: SyntaxError: invalid for/in left-hand side

tryItOut 528
Running threw: TypeError: this.zzz has no properties

tryItOut 529

tryItOut 530

tryItOut 531

tryItOut 532
Compiling threw: SyntaxError: syntax error

tryItOut 533
Compiling threw: SyntaxError: invalid assignment left-hand side

tryItOut 534
Compiling threw: SyntaxError: invalid assignment left-hand side

tryItOut 535
Running threw: [object StopIteration]

tryItOut 536
Compiling threw: SyntaxError: syntax error

tryItOut 537
It's an iterator!
Iterating threw!
Iterating threw: ReferenceError: window is not defined

tryItOut 538
Compiling threw: SyntaxError: invalid destructuring assignment operator

tryItOut 539
It's an iterator!
Iterating succeeded, iterCount == 1

tryItOut 540
It's an iterator!
Iterating succeeded, iterCount == 0

tryItOut 541

tryItOut 542
Compiling threw: SyntaxError: invalid destructuring assignment operator

tryItOut 543
Compiling threw: SyntaxError: label not found

tryItOut 544
Running threw: Can't toString the error!!

tryItOut 545
Compiling threw: SyntaxError: invalid decrement operand

tryItOut 546
Compiling threw: SyntaxError: missing variable name

tryItOut 547
Running threw: SyntaxError: unexpected end of XML entity

tryItOut 548
Running threw: ReferenceError: reference to undefined XML name *::*

tryItOut 549
Compiling threw: SyntaxError: invalid for/in left-hand side

tryItOut 550

tryItOut 551
Running threw: ,

tryItOut 552
It's an iterator!
Iterating succeeded, iterCount == 1

tryItOut 553
Compiling threw: SyntaxError: syntax error

tryItOut 554

tryItOut 555
Compiling threw: SyntaxError: invalid assignment left-hand side

tryItOut 556
It's an iterator!
Iterating succeeded, iterCount == 4

tryItOut 557

tryItOut 558
Compiling threw: SyntaxError: missing variable name

tryItOut 559
Compiling threw: SyntaxError: syntax error

tryItOut 560
Compiling threw: SyntaxError: syntax error

tryItOut 561
Compiling threw: SyntaxError: syntax error

tryItOut 562

tryItOut 563

tryItOut 564
Compiling threw: SyntaxError: missing variable name

tryItOut 565

tryItOut 566

tryItOut 567
Running threw: ReferenceError: window is not defined

tryItOut 568
Compiling threw: SyntaxError: invalid for/in left-hand side

tryItOut 569
Compiling threw: SyntaxError: invalid for/in left-hand side

tryItOut 570
Compiling threw: SyntaxError: invalid for/in left-hand side

tryItOut 571
Compiling threw: SyntaxError: invalid for/in left-hand side

tryItOut 572
Running threw: TypeError: /x/g is not a constructor

tryItOut 573
Compiling threw: SyntaxError: invalid for each loop

tryItOut 574
Compiling threw: SyntaxError: label not found

tryItOut 575

tryItOut 576
Compiling threw: SyntaxError: missing exponent

tryItOut 577

tryItOut 578
Compiling threw: SyntaxError: missing variable name

tryItOut 579

tryItOut 580
Compiling threw: SyntaxError: syntax error

tryItOut 581

tryItOut 582
Compiling threw: SyntaxError: label not found

tryItOut 583
Running threw: ReferenceError: window is not defined

tryItOut 584

tryItOut 585

tryItOut 586
Compiling threw: SyntaxError: invalid for/in left-hand side

tryItOut 587
Compiling threw: SyntaxError: invalid assignment left-hand side

tryItOut 588
Compiling threw: SyntaxError: missing variable name

tryItOut 589

tryItOut 590

tryItOut 591
Running threw: TypeError: this.zzz has no properties

tryItOut 592
Compiling threw: SyntaxError: invalid for/in left-hand side

tryItOut 593
Compiling threw: TypeError: redeclaration of const constructor

tryItOut 594
Running threw: ReferenceError: reference to undefined XML name @foo

tryItOut 595
Compiling threw: SyntaxError: missing { before function body

tryItOut 596
Compiling threw: SyntaxError: unterminated regular expression literal

tryItOut 597
Compiling threw: SyntaxError: syntax error

tryItOut 598
Compiling threw: SyntaxError: missing ) in parenthetical

tryItOut 599
Running threw: TypeError: XML filtering predicate operator called on incompatible Number

tryItOut 600

tryItOut 601

tryItOut 602
Compiling threw: SyntaxError: syntax error

tryItOut 603

tryItOut 604
Compiling threw: SyntaxError: missing ) in parenthetical

tryItOut 605
Running threw: ReferenceError: reference to undefined XML name *

tryItOut 606

tryItOut 607

tryItOut 608
Running threw: ReferenceError: z1 is not defined

tryItOut 609

tryItOut 610
Compiling threw: SyntaxError: missing variable name

tryItOut 611

tryItOut 612

tryItOut 613
Running threw: ReferenceError: window is not defined

tryItOut 614

tryItOut 615

tryItOut 616

tryItOut 617

tryItOut 618

tryItOut 619
Compiling threw: SyntaxError: illegal XML character

tryItOut 620

tryItOut 621
Compiling threw: SyntaxError: invalid for/in left-hand side

tryItOut 622
It's an iterator!
Iterating succeeded, iterCount == 1

tryItOut 623

tryItOut 624
Compiling threw: SyntaxError: syntax error

tryItOut 625
Compiling threw: SyntaxError: label not found

tryItOut 626

tryItOut 627
Compiling threw: SyntaxError: missing ] after element list

tryItOut 628

tryItOut 629

tryItOut 630
Compiling threw: SyntaxError: syntax error

tryItOut 631
Compiling threw: SyntaxError: invalid assignment left-hand side

tryItOut 632

tryItOut 633
Compiling threw: SyntaxError: missing variable name

tryItOut 634
Compiling threw: SyntaxError: invalid assignment left-hand side

tryItOut 635
Compiling threw: SyntaxError: missing ) after let head

tryItOut 636

tryItOut 637
Compiling threw: SyntaxError: syntax error

tryItOut 638

tryItOut 639
Compiling threw: SyntaxError: invalid for each loop

tryItOut 640
Compiling threw: SyntaxError: missing ( before let head

tryItOut 641

tryItOut 642
Compiling threw: SyntaxError: label not found

tryItOut 643
Compiling threw: SyntaxError: missing variable name

tryItOut 644
Compiling threw: SyntaxError: invalid for/in left-hand side

tryItOut 645

tryItOut 646

tryItOut 647
Running threw: ReferenceError: window is not defined

tryItOut 648
Compiling threw: SyntaxError: missing variable name

tryItOut 649
Running threw: ReferenceError: reference to undefined XML name *::*

tryItOut 650
Running threw: ReferenceError: reference to undefined XML name *::*

tryItOut 651
Compiling threw: SyntaxError: invalid for/in left-hand side

tryItOut 652
Compiling threw: SyntaxError: syntax error

tryItOut 653
Compiling threw: SyntaxError: missing ( before let head

tryItOut 654

tryItOut 655
Compiling threw: SyntaxError: missing ) in parenthetical

tryItOut 656

tryItOut 657

tryItOut 658
Compiling threw: SyntaxError: invalid assignment left-hand side

tryItOut 659
Compiling threw: SyntaxError: missing ; before statement

tryItOut 660

tryItOut 661
It's an iterator!
Iterating threw!
Iterating threw: TypeError: [11, 12, 13, 14].some has no properties

tryItOut 662
Compiling threw: SyntaxError: syntax error

tryItOut 663

tryItOut 664
Compiling threw: SyntaxError: syntax error

tryItOut 665
Compiling threw: SyntaxError: label not found

tryItOut 666
Compiling threw: SyntaxError: invalid for/in left-hand side

tryItOut 667
Compiling threw: SyntaxError: invalid for/in left-hand side

tryItOut 668

tryItOut 669
Compiling threw: SyntaxError: invalid for/in left-hand side

tryItOut 670
Compiling threw: SyntaxError: missing variable name

tryItOut 671

tryItOut 672
Compiling threw: SyntaxError: missing : after property id

tryItOut 673
Compiling threw: SyntaxError: missing ; after for-loop initializer

tryItOut 674
It's an iterator!
Iterating succeeded, iterCount == 0

tryItOut 675
Compiling threw: SyntaxError: syntax error

tryItOut 676
Running threw: TypeError: this.zzz has no properties

tryItOut 677
Compiling threw: SyntaxError: missing ) after for-loop control

tryItOut 678

tryItOut 679
Compiling threw: SyntaxError: invalid decrement operand

tryItOut 680
Compiling threw: SyntaxError: invalid destructuring assignment operator

tryItOut 681

tryItOut 682

tryItOut 683
Compiling threw: SyntaxError: syntax error

tryItOut 684

tryItOut 685
Compiling threw: SyntaxError: syntax error

tryItOut 686

tryItOut 687
Compiling threw: SyntaxError: syntax error

tryItOut 688
Compiling threw: SyntaxError: label not found

tryItOut 689
Compiling threw: SyntaxError: invalid assignment left-hand side

tryItOut 690
Compiling threw: SyntaxError: invalid for/in left-hand side

tryItOut 691
Compiling threw: SyntaxError: invalid continue

tryItOut 692
Running threw: 3

tryItOut 693
Running threw: <x>
  
  <y/>
</x>

tryItOut 694
Compiling threw: SyntaxError: label not found

tryItOut 695
Compiling threw: SyntaxError: invalid assignment left-hand side

tryItOut 696
Compiling threw: SyntaxError: invalid assignment left-hand side

tryItOut 697
Compiling threw: SyntaxError: missing : after property id

tryItOut 698
Compiling threw: SyntaxError: invalid for/in left-hand side

tryItOut 699
Compiling threw: SyntaxError: invalid assignment left-hand side

tryItOut 700
Compiling threw: SyntaxError: unterminated string literal

tryItOut 701
Compiling threw: SyntaxError: invalid assignment left-hand side

tryItOut 702
Compiling threw: SyntaxError: label not found

tryItOut 703

tryItOut 704
Compiling threw: SyntaxError: invalid for/in left-hand side

tryItOut 705
It's an iterator!
Iterating succeeded, iterCount == 1

tryItOut 706
Compiling threw: SyntaxError: syntax error

tryItOut 707

tryItOut 708

tryItOut 709

tryItOut 710
Compiling threw: SyntaxError: invalid for/in left-hand side

tryItOut 711
Compiling threw: SyntaxError: syntax error

tryItOut 712

tryItOut 713

tryItOut 714

tryItOut 715
Compiling threw: SyntaxError: invalid for/in left-hand side

tryItOut 716

tryItOut 717

tryItOut 718
Compiling threw: SyntaxError: invalid assignment left-hand side

tryItOut 719
Compiling threw: SyntaxError: invalid assignment left-hand side

tryItOut 720

tryItOut 721
Compiling threw: SyntaxError: invalid for/in left-hand side

tryItOut 722
It's an iterator!
Iterating threw!
Iterating threw: ReferenceError: z1 is not defined

tryItOut 723
Compiling threw: SyntaxError: invalid increment operand

tryItOut 724
Compiling threw: SyntaxError: invalid assignment left-hand side

tryItOut 725

tryItOut 726
Compiling threw: SyntaxError: missing ; after for-loop initializer

tryItOut 727

tryItOut 728

tryItOut 729

tryItOut 730

tryItOut 731

tryItOut 732

tryItOut 733

tryItOut 734
Compiling threw: SyntaxError: syntax error

tryItOut 735
Compiling threw: SyntaxError: invalid break

tryItOut 736
Compiling threw: SyntaxError: syntax error

tryItOut 737

tryItOut 738

tryItOut 739
Compiling threw: SyntaxError: invalid assignment left-hand side

tryItOut 740
Compiling threw: SyntaxError: syntax error

tryItOut 741

tryItOut 742

tryItOut 743
Compiling threw: SyntaxError: invalid for/in left-hand side

tryItOut 744

tryItOut 745

tryItOut 746
Running threw: ReferenceError: window is not defined

tryItOut 747
Compiling threw: SyntaxError: missing ; before statement

tryItOut 748

tryItOut 749
Compiling threw: SyntaxError: missing ) in parenthetical

tryItOut 750
Compiling threw: SyntaxError: missing ; before statement

tryItOut 751
Compiling threw: SyntaxError: invalid for/in left-hand side

tryItOut 752
Compiling threw: SyntaxError: invalid for/in left-hand side

tryItOut 753
Compiling threw: SyntaxError: invalid for/in left-hand side

tryItOut 754

tryItOut 755
Running threw: ReferenceError: b is not defined

tryItOut 756

tryItOut 757
Compiling threw: SyntaxError: invalid break

tryItOut 758
Compiling threw: SyntaxError: missing ; after for-loop condition

tryItOut 759

tryItOut 760
Compiling threw: SyntaxError: invalid increment operand

tryItOut 761
It's an iterator!
Iterating succeeded, iterCount == 1

tryItOut 762

tryItOut 763
Compiling threw: SyntaxError: invalid assignment left-hand side

tryItOut 764
It's an iterator!
Iterating threw!
Iterating threw: ReferenceError: reference to undefined XML name @foo

tryItOut 765
Running threw: ReferenceError: reference to undefined XML name @foo

tryItOut 766
Compiling threw: SyntaxError: duplicate label

tryItOut 767

tryItOut 768
Compiling threw: SyntaxError: missing variable name

tryItOut 769
Compiling threw: SyntaxError: missing variable name

tryItOut 770

tryItOut 771
Compiling threw: SyntaxError: missing ; after for-loop initializer

tryItOut 772

tryItOut 773

tryItOut 774
Compiling threw: SyntaxError: syntax error

tryItOut 775

tryItOut 776
Compiling threw: SyntaxError: invalid decrement operand

tryItOut 777
Compiling threw: SyntaxError: invalid destructuring assignment operator

tryItOut 778
Compiling threw: SyntaxError: invalid assignment left-hand side

tryItOut 779

tryItOut 780
Compiling threw: SyntaxError: invalid continue

tryItOut 781
Compiling threw: SyntaxError: syntax error

tryItOut 782

tryItOut 783
Compiling threw: SyntaxError: invalid assignment left-hand side

tryItOut 784

tryItOut 785
It's an iterator!
Iterating succeeded, iterCount == 1

tryItOut 786
Compiling threw: SyntaxError: invalid for/in left-hand side

tryItOut 787

tryItOut 788
Running threw: ,

tryItOut 789

tryItOut 790
Running threw: ReferenceError: reference to undefined XML name *

tryItOut 791

tryItOut 792

tryItOut 793

tryItOut 794
Running threw: ReferenceError: reference to undefined XML name *::*

tryItOut 795

tryItOut 796
Compiling threw: SyntaxError: invalid assignment left-hand side

tryItOut 797
Compiling threw: SyntaxError: label not found

tryItOut 798
Running threw: [object StopIteration]

tryItOut 799

tryItOut 800
Compiling threw: SyntaxError: syntax error

tryItOut 801

tryItOut 802
Compiling threw: SyntaxError: invalid for/in left-hand side

tryItOut 803
Compiling threw: SyntaxError: invalid for/in left-hand side

tryItOut 804
Compiling threw: SyntaxError: syntax error

tryItOut 805
Compiling threw: SyntaxError: invalid assignment left-hand side

tryItOut 806
Compiling threw: SyntaxError: invalid assignment left-hand side

tryItOut 807

tryItOut 808
Compiling threw: SyntaxError: missing ) in parenthetical

tryItOut 809

tryItOut 810

tryItOut 811

tryItOut 812
Compiling threw: SyntaxError: invalid assignment left-hand side

tryItOut 813
Compiling threw: SyntaxError: syntax error

tryItOut 814

tryItOut 815
Compiling threw: SyntaxError: label not found

tryItOut 816
Compiling threw: SyntaxError: invalid for/in left-hand side

tryItOut 817

tryItOut 818
Compiling threw: SyntaxError: invalid assignment left-hand side

tryItOut 819
Compiling threw: SyntaxError: invalid for/in left-hand side

tryItOut 820

tryItOut 821
Compiling threw: SyntaxError: duplicate label

tryItOut 822
Compiling threw: SyntaxError: invalid for/in left-hand side

tryItOut 823
Compiling threw: SyntaxError: missing variable name

tryItOut 824
Compiling threw: SyntaxError: missing ( before let head

tryItOut 825

tryItOut 826

tryItOut 827
Compiling threw: SyntaxError: missing variable name

tryItOut 828
Compiling threw: SyntaxError: label not found

tryItOut 829

tryItOut 830
Compiling threw: SyntaxError: invalid break

tryItOut 831
Running threw: 108

tryItOut 832
Compiling threw: SyntaxError: missing ( before let head

tryItOut 833
Running threw: 

tryItOut 834
Compiling threw: SyntaxError: syntax error

tryItOut 835

tryItOut 836
Compiling threw: TypeError: redeclaration of variable __count__

tryItOut 837
Compiling threw: SyntaxError: duplicate label

tryItOut 838
Compiling threw: SyntaxError: missing = in destructuring declaration

tryItOut 839

tryItOut 840
Compiling threw: SyntaxError: invalid for each loop

tryItOut 841

tryItOut 842
It's an iterator!
Iterating threw!
Iterating threw: TypeError: undefined has no properties

tryItOut 843

tryItOut 844

tryItOut 845

tryItOut 846
Compiling threw: SyntaxError: invalid decrement operand

tryItOut 847
Compiling threw: SyntaxError: syntax error

tryItOut 848

tryItOut 849
Compiling threw: SyntaxError: missing variable name

tryItOut 850
Running threw: ReferenceError: __parent__ is not defined

tryItOut 851

tryItOut 852
Compiling threw: SyntaxError: invalid continue

tryItOut 853
Compiling threw: SyntaxError: syntax error

tryItOut 854
Running threw: ReferenceError: window is not defined

tryItOut 855

tryItOut 856
Running threw: ReferenceError: reference to undefined XML name *::*

tryItOut 857
Compiling threw: SyntaxError: invalid increment operand

tryItOut 858
Running threw: ReferenceError: reference to undefined XML name @foo

tryItOut 859
It's an iterator!
Iterating succeeded, iterCount == 1

tryItOut 860
It's an iterator!
Iterating threw!
Iterating threw: TypeError: 1e+81 is not a function

tryItOut 861

tryItOut 862
Running threw: Error: invalid sharp variable use #1#

tryItOut 863

tryItOut 864
Running threw: TypeError: this.zzz has no properties

tryItOut 865

tryItOut 866
Compiling threw: SyntaxError: missing ; after for-loop initializer

tryItOut 867

tryItOut 868

tryItOut 869
Compiling threw: SyntaxError: invalid continue

tryItOut 870
It's an iterator!
Iterating succeeded, iterCount == 1

tryItOut 871
Compiling threw: SyntaxError: invalid for/in left-hand side

tryItOut 872
Running threw: ReferenceError: reference to undefined XML name *

tryItOut 873

tryItOut 874
Compiling threw: SyntaxError: missing ) after with-statement object

tryItOut 875
It's an iterator!
Iterating succeeded, iterCount == 1

tryItOut 876
Compiling threw: SyntaxError: invalid for/in left-hand side

tryItOut 877

tryItOut 878

tryItOut 879
Compiling threw: SyntaxError: missing : after property id

tryItOut 880
Compiling threw: SyntaxError: invalid assignment left-hand side

tryItOut 881
Compiling threw: SyntaxError: syntax error

tryItOut 882

tryItOut 883

tryItOut 884
Compiling threw: SyntaxError: invalid for/in left-hand side

tryItOut 885
Compiling threw: SyntaxError: missing variable name

tryItOut 886
Compiling threw: SyntaxError: invalid assignment left-hand side

tryItOut 887

tryItOut 888
Compiling threw: SyntaxError: missing = in destructuring declaration

tryItOut 889
Running threw: TypeError: <x>
  <y/>
</x> is not a constructor

tryItOut 890
Compiling threw: SyntaxError: invalid for/in left-hand side

tryItOut 891
Compiling threw: SyntaxError: missing ) in parenthetical

tryItOut 892
Compiling threw: SyntaxError: missing ; after for-loop initializer

tryItOut 893
It's an iterator!
Iterating succeeded, iterCount == 1

tryItOut 894

tryItOut 895

tryItOut 896

tryItOut 897
Compiling threw: SyntaxError: invalid assignment left-hand side

tryItOut 898
Running threw: [object StopIteration]

tryItOut 899

tryItOut 900

tryItOut 901
Compiling threw: SyntaxError: missing ; before statement

tryItOut 902
Compiling threw: SyntaxError: invalid for/in left-hand side

tryItOut 903
Compiling threw: SyntaxError: missing variable name

tryItOut 904

tryItOut 905

tryItOut 906

tryItOut 907
Compiling threw: SyntaxError: invalid for each loop

tryItOut 908
Running threw: TypeError: this.zzz has no properties

tryItOut 909

tryItOut 910

tryItOut 911
It's an iterator!
Iterating succeeded, iterCount == 1

tryItOut 912

tryItOut 913
Compiling threw: SyntaxError: invalid for/in left-hand side

tryItOut 914
Compiling threw: SyntaxError: missing ( before formal parameters

tryItOut 915
Compiling threw: SyntaxError: invalid for each loop

tryItOut 916

tryItOut 917
Compiling threw: SyntaxError: missing variable name

tryItOut 918
Compiling threw: SyntaxError: missing ) in parenthetical

tryItOut 919
Compiling threw: TypeError: redeclaration of const constructor

tryItOut 920
Compiling threw: SyntaxError: missing ] after element list

tryItOut 921
Compiling threw: SyntaxError: invalid decrement operand

tryItOut 922
It's an iterator!
Iterating threw!
Iterating threw: TypeError: undefined has no properties

tryItOut 923
Compiling threw: SyntaxError: invalid increment operand

tryItOut 924
Compiling threw: SyntaxError: invalid continue

tryItOut 925

tryItOut 926
Compiling threw: SyntaxError: missing ) after condition

tryItOut 927

tryItOut 928
Compiling threw: SyntaxError: invalid continue

tryItOut 929

tryItOut 930
Running threw: ReferenceError: reference to undefined XML name @foo

tryItOut 931

tryItOut 932
Running threw: ReferenceError: reference to undefined XML name *

tryItOut 933

tryItOut 934
Compiling threw: SyntaxError: missing name after . operator

tryItOut 935

tryItOut 936
Compiling threw: SyntaxError: syntax error

tryItOut 937
Compiling threw: SyntaxError: syntax error

tryItOut 938

tryItOut 939
Compiling threw: SyntaxError: missing = in destructuring declaration

tryItOut 940
Compiling threw: SyntaxError: missing } after property list

tryItOut 941

tryItOut 942
It's an iterator!
Iterating threw!
Iterating threw: TypeError: this.zzz has no properties

tryItOut 943
Compiling threw: SyntaxError: missing ) in parenthetical

tryItOut 944

tryItOut 945
Compiling threw: SyntaxError: missing { before function body

tryItOut 946
Compiling threw: SyntaxError: syntax error

tryItOut 947
Compiling threw: SyntaxError: invalid for/in left-hand side

tryItOut 948
It's an iterator!
Iterating succeeded, iterCount == 1

tryItOut 949

tryItOut 950

tryItOut 951
Running threw: SyntaxError: invalid XML name

tryItOut 952

tryItOut 953

tryItOut 954

tryItOut 955

tryItOut 956
Compiling threw: SyntaxError: missing { before function body

tryItOut 957
Running threw: ReferenceError: Exception is not defined

tryItOut 958
Compiling threw: SyntaxError: missing ] after element list

tryItOut 959
It's an iterator!
Iterating threw!
Iterating threw: ReferenceError: reference to undefined property "window"

tryItOut 960

tryItOut 961
Compiling threw: SyntaxError: missing ] after element list

tryItOut 962
Compiling threw: SyntaxError: missing ; after for-loop initializer

tryItOut 963
Compiling threw: SyntaxError: missing { before function body

tryItOut 964
Compiling threw: SyntaxError: syntax error

tryItOut 965
Compiling threw: SyntaxError: invalid assignment left-hand side

tryItOut 966
Compiling threw: SyntaxError: invalid break

tryItOut 967

tryItOut 968
Compiling threw: SyntaxError: missing variable name

tryItOut 969

tryItOut 970

tryItOut 971
It's an iterator!
Iterating threw!
Iterating threw: ReferenceError: reference to undefined XML name *

tryItOut 972
Running threw: ReferenceError: window is not defined

tryItOut 973

tryItOut 974
Compiling threw: SyntaxError: missing variable name

tryItOut 975

tryItOut 976
Running threw: [object StopIteration]

tryItOut 977
Compiling threw: SyntaxError: invalid assignment left-hand side

tryItOut 978
Compiling threw: SyntaxError: syntax error

tryItOut 979
Compiling threw: SyntaxError: invalid assignment left-hand side

tryItOut 980
Compiling threw: SyntaxError: syntax error

tryItOut 981
Compiling threw: SyntaxError: invalid for/in left-hand side

tryItOut 982
Compiling threw: SyntaxError: invalid for/in left-hand side

tryItOut 983
Running threw: ReferenceError: window is not defined

tryItOut 984
Compiling threw: SyntaxError: missing : after property id

tryItOut 985
Running threw: ReferenceError: window is not defined

tryItOut 986
Compiling threw: SyntaxError: syntax error

tryItOut 987

tryItOut 988
Compiling threw: SyntaxError: invalid assignment left-hand side

tryItOut 989

tryItOut 990

tryItOut 991

tryItOut 992

tryItOut 993
Compiling threw: SyntaxError: missing ) in parenthetical

tryItOut 994

tryItOut 995
Compiling threw: SyntaxError: invalid default XML namespace

tryItOut 996
Compiling threw: SyntaxError: invalid for/in left-hand side

tryItOut 997
Compiling threw: SyntaxError: missing : after property id

tryItOut 998

tryItOut 999
Compiling threw: SyntaxError: syntax error

tryItOut 1000

ALL OK

Script done on Sat 04 May 2013 05:23:02 AM PDT
