Script started on Sat 04 May 2013 05:28:01 AM PDT
***
Targeting SpiderMonkey / Gecko.

tryItOut 1
Compiling threw: SyntaxError: syntax error

tryItOut 2

tryItOut 3
Running threw: ReferenceError: __noSuchMethod__ is not defined

tryItOut 4
Compiling threw: SyntaxError: invalid assignment left-hand side

tryItOut 5
Compiling threw: SyntaxError: missing variable name

tryItOut 6

tryItOut 7
Running threw: TypeError: this.zzz has no properties

tryItOut 8
It's an iterator!
Iterating succeeded, iterCount == 0

tryItOut 9
Running threw: -1

tryItOut 10
It's an iterator!
Iterating threw!
Iterating threw: ReferenceError: prop is not defined

tryItOut 11
Compiling threw: SyntaxError: invalid assignment left-hand side

tryItOut 12

tryItOut 13

tryItOut 14
before 87200, after 87200, break 0260f000

tryItOut 15
Running threw: TypeError: arguments[0] has no properties

tryItOut 16
Compiling threw: SyntaxError: missing { before function body

tryItOut 17
Compiling threw: SyntaxError: syntax error

tryItOut 18

tryItOut 19

tryItOut 20

tryItOut 21

tryItOut 22
Running threw: ReferenceError: __noSuchMethod__ is not defined

tryItOut 23

tryItOut 24
It's an iterator!
Iterating threw!
Iterating threw: TypeError: XML filtering predicate operator called on incompatible Number

tryItOut 25
Compiling threw: SyntaxError: invalid assignment left-hand side

tryItOut 26

tryItOut 27
Running threw: TypeError: (0).unwatch("__count__") is not a constructor

tryItOut 28

tryItOut 29
Compiling threw: SyntaxError: syntax error

tryItOut 30

tryItOut 31
Compiling threw: SyntaxError: syntax error

tryItOut 32

tryItOut 33
Compiling threw: SyntaxError: invalid for/in left-hand side

tryItOut 34
Compiling threw: SyntaxError: missing ; before statement

tryItOut 35
Compiling threw: SyntaxError: invalid for/in left-hand side

tryItOut 36
Compiling threw: SyntaxError: invalid for/in left-hand side

tryItOut 37

tryItOut 38
It's an iterator!
Iterating succeeded, iterCount == 1

tryItOut 39

tryItOut 40

tryItOut 41

tryItOut 42

tryItOut 43

tryItOut 44
Compiling threw: SyntaxError: invalid for/in left-hand side

tryItOut 45

tryItOut 46

tryItOut 47
It's an iterator!
Iterating succeeded, iterCount == 2

tryItOut 48
Running threw: TypeError: this.zzz has no properties

tryItOut 49
Compiling threw: SyntaxError: invalid for/in left-hand side

tryItOut 50
Running threw: ReferenceError: prototype is not defined

tryItOut 51
Running threw: TypeError: this.zzz has no properties

tryItOut 52

tryItOut 53
Compiling threw: SyntaxError: missing variable name

tryItOut 54
Running threw: TypeError: this.zzz has no properties

tryItOut 55
Running threw: ReferenceError: prop is not defined

tryItOut 56
uneval returned the string: [[1]]

tryItOut 57
Compiling threw: SyntaxError: missing ) in parenthetical

tryItOut 58
Running threw: ReferenceError: __iterator__ is not defined

tryItOut 59
It's an iterator!
before 104640, after 104640, break 0262c000
Iterating succeeded, iterCount == 0

tryItOut 60
Compiling threw: SyntaxError: invalid for/in left-hand side

tryItOut 61

tryItOut 62
Running threw: TypeError: uneval(4) is not a constructor

tryItOut 63
Compiling threw: SyntaxError: missing ; before statement

tryItOut 64
Compiling threw: SyntaxError: invalid destructuring assignment operator

tryItOut 65

tryItOut 66

tryItOut 67

tryItOut 68

tryItOut 69
Running threw: TypeError: this.zzz has no properties

tryItOut 70
Compiling threw: SyntaxError: illegal XML character

tryItOut 71
Compiling threw: SyntaxError: missing variable name

tryItOut 72
Compiling threw: TypeError: redeclaration of const __noSuchMethod__

tryItOut 73

tryItOut 74
Compiling threw: SyntaxError: invalid for/in left-hand side

tryItOut 75

tryItOut 76
Compiling threw: SyntaxError: syntax error

tryItOut 77

tryItOut 78
Compiling threw: TypeError: redeclaration of const __parent__

tryItOut 79

tryItOut 80

tryItOut 81
Running threw: ReferenceError: __iterator__ is not defined

tryItOut 82
It's an iterator!
Iterating succeeded, iterCount == 1

tryItOut 83

tryItOut 84
It's an iterator!
Iterating succeeded, iterCount == 0

tryItOut 85
Running threw: ReferenceError: prop is not defined

tryItOut 86

tryItOut 87

tryItOut 88

tryItOut 89
Running threw: function (id) {
    return id;
}

tryItOut 90
Running threw: TypeError: this.zzz has no properties

tryItOut 91
before 104640, after 104640, break 0262c000

tryItOut 92
Running threw: <x>
  <y/>
</x>

tryItOut 93
Running threw: <x>
  <y/>
</x>

tryItOut 94
Compiling threw: SyntaxError: missing variable name

tryItOut 95
Compiling threw: SyntaxError: invalid assignment left-hand side

tryItOut 96
Running threw: <x>
  <y/>
</x>

tryItOut 97
Compiling threw: SyntaxError: invalid for/in left-hand side

tryItOut 98
Compiling threw: SyntaxError: missing = in destructuring declaration

tryItOut 99
before 104640, after 104640, break 0262c000

tryItOut 100

tryItOut 101

tryItOut 102

tryItOut 103
Compiling threw: TypeError: generator function anonymous returns a value

tryItOut 104
Compiling threw: SyntaxError: missing ) in parenthetical

tryItOut 105
Compiling threw: SyntaxError: invalid for/in left-hand side

tryItOut 106
Compiling threw: SyntaxError: missing variable name

tryItOut 107
Compiling threw: SyntaxError: missing variable name

tryItOut 108

tryItOut 109
Running threw: <x>
  <y/>
</x>

tryItOut 110
Compiling threw: SyntaxError: syntax error

tryItOut 111

tryItOut 112
Running threw: TypeError: this.zzz has no properties

tryItOut 113
Compiling threw: SyntaxError: invalid for/in left-hand side

tryItOut 114
Compiling threw: SyntaxError: missing variable name

tryItOut 115
Compiling threw: SyntaxError: invalid for/in left-hand side

tryItOut 116
Running threw: 0

tryItOut 117
Running threw: [object StopIteration]

tryItOut 118
Compiling threw: SyntaxError: missing variable name

tryItOut 119

tryItOut 120
Compiling threw: SyntaxError: invalid for/in left-hand side

tryItOut 121
Compiling threw: SyntaxError: invalid variable initialization

tryItOut 122

tryItOut 123
Compiling threw: SyntaxError: syntax error

tryItOut 124

tryItOut 125
It's an iterator!
Iterating succeeded, iterCount == 1

tryItOut 126
Compiling threw: SyntaxError: syntax error

tryItOut 127
Running threw: TypeError: this.zzz has no properties

tryItOut 128

tryItOut 129

tryItOut 130

tryItOut 131
Compiling threw: SyntaxError: invalid for/in left-hand side

tryItOut 132
Compiling threw: SyntaxError: missing : after property id

tryItOut 133
Compiling threw: SyntaxError: invalid for/in left-hand side

tryItOut 134

tryItOut 135
Running threw: 4

tryItOut 136
Compiling threw: SyntaxError: missing ; before statement

tryItOut 137

tryItOut 138

tryItOut 139
Running threw: TypeError: XML filtering predicate operator called on incompatible Object

tryItOut 140
Compiling threw: SyntaxError: missing ; before statement

tryItOut 141
Compiling threw: SyntaxError: invalid assignment left-hand side

tryItOut 142
It's an iterator!
Iterating succeeded, iterCount == 1

tryItOut 143
Compiling threw: SyntaxError: missing variable name

tryItOut 144
Compiling threw: SyntaxError: missing ; after for-loop condition

tryItOut 145
before 104640, after 104640, break 0263e000

tryItOut 146
Compiling threw: SyntaxError: syntax error

tryItOut 147
Compiling threw: SyntaxError: missing variable name

tryItOut 148

tryItOut 149

tryItOut 150
Compiling threw: SyntaxError: invalid sharp variable definition

tryItOut 151

tryItOut 152
Running threw: ReferenceError: l is not defined

tryItOut 153

tryItOut 154

tryItOut 155

tryItOut 156
Compiling threw: SyntaxError: missing variable name

tryItOut 157
Compiling threw: SyntaxError: invalid for/in left-hand side

tryItOut 158

tryItOut 159
Compiling threw: SyntaxError: invalid for/in left-hand side

tryItOut 160

tryItOut 161

tryItOut 162
Running threw: TypeError: this.zzz has no properties

tryItOut 163
Compiling threw: SyntaxError: syntax error

tryItOut 164
It's an iterator!
Iterating succeeded, iterCount == 1

tryItOut 165
Compiling threw: SyntaxError: syntax error

tryItOut 166

tryItOut 167

tryItOut 168
Running threw: ReferenceError: z1 is not defined

tryItOut 169

tryItOut 170

tryItOut 171
Compiling threw: SyntaxError: invalid assignment left-hand side

tryItOut 172
Compiling threw: TypeError: redeclaration of const constructor

tryItOut 173

tryItOut 174

tryItOut 175

tryItOut 176
Compiling threw: SyntaxError: syntax error

tryItOut 177
Compiling threw: SyntaxError: invalid for/in left-hand side

tryItOut 178
Compiling threw: SyntaxError: invalid for/in left-hand side

tryItOut 179

tryItOut 180

tryItOut 181

tryItOut 182

tryItOut 183

tryItOut 184

tryItOut 185
Compiling threw: SyntaxError: invalid for/in left-hand side

tryItOut 186
Compiling threw: SyntaxError: missing formal parameter

tryItOut 187
Compiling threw: SyntaxError: missing ) in parenthetical

tryItOut 188
Compiling threw: SyntaxError: missing ; before statement

tryItOut 189
Compiling threw: SyntaxError: missing { before function body

tryItOut 190

tryItOut 191

tryItOut 192

tryItOut 193
before 122080, after 122080, break 02654000

tryItOut 194
Running threw: TypeError: this.zzz has no properties

tryItOut 195

tryItOut 196
Compiling threw: SyntaxError: missing variable name

tryItOut 197

tryItOut 198
Running threw: 

tryItOut 199
Compiling threw: SyntaxError: invalid for/in left-hand side

tryItOut 200

tryItOut 201
Compiling threw: SyntaxError: invalid for/in left-hand side

tryItOut 202
It's an iterator!
Iterating succeeded, iterCount == 1

tryItOut 203
Compiling threw: SyntaxError: syntax error

tryItOut 204

tryItOut 205

tryItOut 206
Compiling threw: SyntaxError: missing variable name

tryItOut 207
Compiling threw: SyntaxError: syntax error

tryItOut 208

tryItOut 209
Compiling threw: TypeError: redeclaration of variable __parent__

tryItOut 210

tryItOut 211
Compiling threw: SyntaxError: syntax error

tryItOut 212

tryItOut 213

tryItOut 214
Compiling threw: SyntaxError: missing ) in parenthetical

tryItOut 215

tryItOut 216

tryItOut 217
Compiling threw: SyntaxError: missing ; after for-loop initializer

tryItOut 218
Compiling threw: SyntaxError: syntax error

tryItOut 219
before 122080, after 122080, break 02654000

tryItOut 220

tryItOut 221

tryItOut 222

tryItOut 223

tryItOut 224

tryItOut 225

tryItOut 226
Compiling threw: SyntaxError: missing variable name

tryItOut 227

tryItOut 228
before 122080, after 122080, break 02654000

tryItOut 229

tryItOut 230
It's an iterator!
Iterating succeeded, iterCount == 1

tryItOut 231
Compiling threw: SyntaxError: syntax error

tryItOut 232
It's an iterator!
Iterating succeeded, iterCount == 0

tryItOut 233

tryItOut 234
Compiling threw: SyntaxError: missing variable name

tryItOut 235

tryItOut 236
Compiling threw: SyntaxError: missing variable name

tryItOut 237

tryItOut 238
Running threw: ReferenceError: z2 is not defined

tryItOut 239
Running threw: TypeError: this.zzz has no properties

tryItOut 240

tryItOut 241

tryItOut 242
Compiling threw: SyntaxError: syntax error

tryItOut 243

tryItOut 244

tryItOut 245

tryItOut 246
Running threw: ReferenceError: reference to undefined XML name @mozilla.org/js/function::__count__

tryItOut 247
Compiling threw: SyntaxError: missing variable name

tryItOut 248
Compiling threw: SyntaxError: missing { before function body

tryItOut 249
Compiling threw: SyntaxError: invalid for/in left-hand side

tryItOut 250

tryItOut 251

tryItOut 252
Running threw: ReferenceError: Z is not defined

tryItOut 253
Compiling threw: SyntaxError: syntax error

tryItOut 254

tryItOut 255

tryItOut 256

tryItOut 257
Compiling threw: SyntaxError: missing { before function body

tryItOut 258

tryItOut 259
It's an iterator!
Iterating succeeded, iterCount == 0

tryItOut 260

tryItOut 261
Compiling threw: SyntaxError: missing variable name

tryItOut 262

tryItOut 263

tryItOut 264
Compiling threw: SyntaxError: invalid for/in left-hand side

tryItOut 265

tryItOut 266

tryItOut 267
Compiling threw: SyntaxError: missing variable name

tryItOut 268
It's an iterator!
Iterating threw!
Iterating threw: 111

tryItOut 269

tryItOut 270

tryItOut 271
Compiling threw: TypeError: redeclaration of variable prop

tryItOut 272
Compiling threw: SyntaxError: invalid assignment left-hand side

tryItOut 273
Running threw: TypeError: arguments[0] has no properties

tryItOut 274

tryItOut 275
before 122080, after 122080, break 02654000

tryItOut 276

tryItOut 277

tryItOut 278
It's an iterator!
Iterating succeeded, iterCount == 1

tryItOut 279

tryItOut 280

tryItOut 281
It's an iterator!
Iterating succeeded, iterCount == 0

tryItOut 282
Compiling threw: SyntaxError: missing variable name

tryItOut 283
Compiling threw: SyntaxError: missing ) in parenthetical

tryItOut 284
Compiling threw: TypeError: redeclaration of variable __count__

tryItOut 285

tryItOut 286

tryItOut 287

tryItOut 288
before 122080, after 122080, break 02654000

tryItOut 289

tryItOut 290
Running threw: NaN

tryItOut 291
Running threw: [object StopIteration]

tryItOut 292
Compiling threw: SyntaxError: invalid for/in left-hand side

tryItOut 293

tryItOut 294
Compiling threw: SyntaxError: missing ; before statement

tryItOut 295

tryItOut 296
Compiling threw: SyntaxError: missing ) in parenthetical

tryItOut 297
Compiling threw: SyntaxError: missing ; before statement

tryItOut 298
Running threw: TypeError: this.zzz has no properties

tryItOut 299
Compiling threw: SyntaxError: invalid for/in left-hand side

tryItOut 300

tryItOut 301

tryItOut 302
Running threw: 1.3

tryItOut 303
Compiling threw: SyntaxError: invalid sharp variable definition

tryItOut 304
Running threw: 0

tryItOut 305
Running threw: TypeError: this.zzz has no properties

tryItOut 306
before 122080, after 122080, break 02654000

tryItOut 307
before 122080, after 122080, break 02654000
Running threw: <x>
  <y/>
</x>

tryItOut 308

tryItOut 309

tryItOut 310

tryItOut 311
Compiling threw: SyntaxError: missing ; before statement

tryItOut 312
Running threw: TypeError: this.zzz has no properties

tryItOut 313

tryItOut 314

tryItOut 315

tryItOut 316
Compiling threw: SyntaxError: missing variable name

tryItOut 317
Compiling threw: SyntaxError: missing ( before let head

tryItOut 318

tryItOut 319

tryItOut 320

tryItOut 321

tryItOut 322
Compiling threw: SyntaxError: syntax error

tryItOut 323
Compiling threw: SyntaxError: invalid for/in left-hand side

tryItOut 324

tryItOut 325
Running threw: [object StopIteration]

tryItOut 326

tryItOut 327
Compiling threw: SyntaxError: invalid for each loop

tryItOut 328

tryItOut 329

tryItOut 330

tryItOut 331
Running threw: 0

tryItOut 332

tryItOut 333
Compiling threw: SyntaxError: syntax error

tryItOut 334

tryItOut 335
Compiling threw: SyntaxError: syntax error

tryItOut 336

tryItOut 337
Compiling threw: SyntaxError: syntax error

tryItOut 338
Compiling threw: SyntaxError: invalid for/in left-hand side

tryItOut 339

tryItOut 340
Compiling threw: SyntaxError: invalid for/in left-hand side

tryItOut 341
Running threw: TypeError: this.zzz has no properties

tryItOut 342
before 139520, after 139520, break 0266a000

tryItOut 343

tryItOut 344
Compiling threw: SyntaxError: invalid sharp variable definition

tryItOut 345
Compiling threw: SyntaxError: missing ) in parenthetical

tryItOut 346

tryItOut 347
before 139520, after 139520, break 0266a000

tryItOut 348
Compiling threw: SyntaxError: missing variable name

tryItOut 349

tryItOut 350
before 139520, after 139520, break 0267d000

tryItOut 351

tryItOut 352
Running threw: TypeError: this.zzz has no properties

tryItOut 353
Compiling threw: SyntaxError: missing variable name

tryItOut 354

tryItOut 355

tryItOut 356

tryItOut 357
Compiling threw: SyntaxError: missing ; before statement

tryItOut 358

tryItOut 359

tryItOut 360

tryItOut 361

tryItOut 362
It's an iterator!
Iterating threw!
Iterating threw: undefined

tryItOut 363

tryItOut 364
Running threw: SyntaxError: invalid getter usage

tryItOut 365

tryItOut 366
Running threw: <x>
  <y/>
</x>

tryItOut 367

tryItOut 368

tryItOut 369
Compiling threw: SyntaxError: missing variable name

tryItOut 370

tryItOut 371

tryItOut 372
Running threw: SyntaxError: invalid getter usage

tryItOut 373
Running threw: TypeError: 27 is not a constructor

tryItOut 374

tryItOut 375
Compiling threw: TypeError: redeclaration of const prototype

tryItOut 376

tryItOut 377

tryItOut 378

tryItOut 379
Compiling threw: SyntaxError: missing variable name

tryItOut 380
Running threw: 1

tryItOut 381
Compiling threw: SyntaxError: invalid assignment left-hand side

tryItOut 382
Compiling threw: SyntaxError: invalid for/in left-hand side

tryItOut 383
Compiling threw: SyntaxError: invalid for/in left-hand side

tryItOut 384

tryItOut 385
It's an iterator!
Iterating succeeded, iterCount == 1

tryItOut 386

tryItOut 387
Compiling threw: SyntaxError: invalid for/in left-hand side

tryItOut 388

tryItOut 389
Compiling threw: SyntaxError: invalid for/in left-hand side

tryItOut 390

tryItOut 391

tryItOut 392
before 139520, after 139520, break 0267d000

tryItOut 393

tryItOut 394
Compiling threw: SyntaxError: invalid for/in left-hand side

tryItOut 395
Compiling threw: SyntaxError: missing ) in parenthetical

tryItOut 396

tryItOut 397
Compiling threw: SyntaxError: missing ; before statement

tryItOut 398
Compiling threw: SyntaxError: missing } in XML expression

tryItOut 399
Running threw: SyntaxError: invalid setter usage

tryItOut 400
before 139520, after 139520, break 02695000

tryItOut 401

tryItOut 402
before 139520, after 139520, break 02695000

tryItOut 403
before 139520, after 139520, break 02695000

tryItOut 404
Compiling threw: SyntaxError: missing variable name

tryItOut 405
It's an iterator!
Iterating succeeded, iterCount == 0

tryItOut 406
Compiling threw: SyntaxError: missing variable name

tryItOut 407

tryItOut 408
Compiling threw: SyntaxError: syntax error

tryItOut 409
It's an iterator!
Iterating threw!
Iterating threw: <x>
  <y/>
</x>

tryItOut 410
Compiling threw: SyntaxError: invalid for/in left-hand side

tryItOut 411
Running threw: [object StopIteration]

tryItOut 412
Running threw: TypeError: this.zzz has no properties

tryItOut 413
Compiling threw: SyntaxError: missing variable name

tryItOut 414
Compiling threw: SyntaxError: missing ) after condition

tryItOut 415
Running threw: TypeError: XML filtering predicate operator called on incompatible Object

tryItOut 416

tryItOut 417
Compiling threw: SyntaxError: missing { before function body

tryItOut 418
Compiling threw: SyntaxError: missing ; before statement

tryItOut 419
Compiling threw: SyntaxError: missing variable name

tryItOut 420
It's an iterator!
Iterating succeeded, iterCount == 1

tryItOut 421

tryItOut 422

tryItOut 423

tryItOut 424
Compiling threw: SyntaxError: missing variable name

tryItOut 425

tryItOut 426

tryItOut 427

tryItOut 428

tryItOut 429
Compiling threw: SyntaxError: invalid property id

tryItOut 430
Compiling threw: SyntaxError: missing variable name

tryItOut 431

tryItOut 432
Compiling threw: SyntaxError: syntax error

tryItOut 433
Compiling threw: TypeError: redeclaration of const __proto__

tryItOut 434

tryItOut 435

tryItOut 436
Running threw: [object StopIteration]

tryItOut 437
Compiling threw: SyntaxError: invalid for/in left-hand side

tryItOut 438
Compiling threw: SyntaxError: missing { before function body

tryItOut 439
Compiling threw: SyntaxError: missing ( before let head

tryItOut 440
Compiling threw: SyntaxError: missing ; before statement

tryItOut 441
It's an iterator!
before 156960, after 156960, break 026a2000
Iterating succeeded, iterCount == 1

tryItOut 442
before 156960, after 156960, break 026a2000

tryItOut 443
Compiling threw: SyntaxError: missing variable name

tryItOut 444
It's an iterator!
Iterating succeeded, iterCount == 0

tryItOut 445

tryItOut 446

tryItOut 447
Compiling threw: TypeError: redeclaration of variable __count__

tryItOut 448
Running threw: [object StopIteration]

tryItOut 449

tryItOut 450

tryItOut 451

tryItOut 452

tryItOut 453
Compiling threw: SyntaxError: duplicate label

tryItOut 454
Compiling threw: SyntaxError: missing variable name

tryItOut 455
It's an iterator!
Iterating succeeded, iterCount == 1

tryItOut 456

tryItOut 457
Running threw: TypeError: this.zzz has no properties

tryItOut 458
Compiling threw: SyntaxError: invalid assignment left-hand side

tryItOut 459
Running threw: [object StopIteration]

tryItOut 460

tryItOut 461

tryItOut 462
Running threw: SyntaxError: yield not in function

tryItOut 463
Compiling threw: SyntaxError: invalid for/in left-hand side

tryItOut 464
Compiling threw: SyntaxError: missing ; before statement

tryItOut 465
Compiling threw: SyntaxError: missing variable name

tryItOut 466
Compiling threw: SyntaxError: missing { before function body

tryItOut 467

tryItOut 468
Compiling threw: SyntaxError: missing ) in parenthetical

tryItOut 469
Running threw: TypeError: this.zzz has no properties

tryItOut 470

tryItOut 471

tryItOut 472

tryItOut 473

tryItOut 474
Compiling threw: SyntaxError: invalid assignment left-hand side

tryItOut 475

tryItOut 476

tryItOut 477

tryItOut 478
It's an iterator!
Iterating succeeded, iterCount == 0

tryItOut 479

tryItOut 480

tryItOut 481
Compiling threw: SyntaxError: syntax error

tryItOut 482
Running threw: ReferenceError: z2 is not defined

tryItOut 483

tryItOut 484
Compiling threw: SyntaxError: invalid for/in left-hand side

tryItOut 485

tryItOut 486

tryItOut 487
before 156960, after 156960, break 026a2000

tryItOut 488

tryItOut 489
Compiling threw: SyntaxError: invalid assignment left-hand side

tryItOut 490
Compiling threw: SyntaxError: syntax error

tryItOut 491
Compiling threw: SyntaxError: invalid property id

tryItOut 492
Running threw: [object StopIteration]

tryItOut 493
Compiling threw: SyntaxError: invalid for/in left-hand side

tryItOut 494

tryItOut 495

tryItOut 496
Compiling threw: SyntaxError: missing formal parameter

tryItOut 497

tryItOut 498
Compiling threw: SyntaxError: invalid assignment left-hand side

tryItOut 499

tryItOut 500
Compiling threw: SyntaxError: invalid for/in left-hand side

tryItOut 501
Running threw: TypeError: <x><y/></x>.__defineGetter__("__noSuchMethod__", {}.__lookupGetter__) has no properties

tryItOut 502

tryItOut 503

tryItOut 504
Compiling threw: SyntaxError: missing ) in parenthetical

tryItOut 505
Compiling threw: SyntaxError: missing ( before let head

tryItOut 506
Compiling threw: SyntaxError: missing variable name

tryItOut 507
Running threw: SyntaxError: invalid setter usage

tryItOut 508
Running threw: SyntaxError: return not in function

tryItOut 509

tryItOut 510
Compiling threw: SyntaxError: invalid for each loop

tryItOut 511

tryItOut 512
Compiling threw: SyntaxError: missing ) in parenthetical

tryItOut 513

tryItOut 514
Running threw: ReferenceError: z2 is not defined

tryItOut 515

tryItOut 516

tryItOut 517

tryItOut 518
Compiling threw: SyntaxError: missing while after do-loop body

tryItOut 519
Compiling threw: SyntaxError: invalid assignment left-hand side

tryItOut 520
It's an iterator!
Iterating succeeded, iterCount == 1

tryItOut 521
Compiling threw: SyntaxError: missing variable name

tryItOut 522

tryItOut 523

tryItOut 524
Compiling threw: SyntaxError: missing variable name

tryItOut 525
Running threw: [object Object]

tryItOut 526
before 156960, after 156960, break 026b6000

tryItOut 527

tryItOut 528

tryItOut 529

tryItOut 530
Compiling threw: SyntaxError: invalid for/in left-hand side

tryItOut 531
Compiling threw: SyntaxError: missing ) in parenthetical

tryItOut 532

tryItOut 533
Compiling threw: SyntaxError: missing variable name

tryItOut 534
Compiling threw: SyntaxError: missing ) in parenthetical

tryItOut 535
Compiling threw: SyntaxError: invalid for/in left-hand side

tryItOut 536
It's an iterator!
Iterating succeeded, iterCount == 1

tryItOut 537

tryItOut 538
It's an iterator!
Iterating threw!
Iterating threw: TypeError: redeclaration of var __proto__

tryItOut 539

tryItOut 540
Compiling threw: SyntaxError: missing = in destructuring declaration

tryItOut 541
Compiling threw: SyntaxError: missing variable name

tryItOut 542
Compiling threw: SyntaxError: invalid for/in left-hand side

tryItOut 543
Compiling threw: SyntaxError: syntax error

tryItOut 544
Compiling threw: SyntaxError: missing variable name

tryItOut 545

tryItOut 546

tryItOut 547
Compiling threw: SyntaxError: invalid assignment left-hand side

tryItOut 548
Compiling threw: SyntaxError: syntax error

tryItOut 549
Compiling threw: SyntaxError: syntax error

tryItOut 550
Compiling threw: SyntaxError: missing variable name

tryItOut 551

tryItOut 552
Running threw: ReferenceError: z2 is not defined

tryItOut 553

tryItOut 554
It's an iterator!
Iterating succeeded, iterCount == 1

tryItOut 555
It's an iterator!
Iterating succeeded, iterCount == 1

tryItOut 556

tryItOut 557
It's an iterator!
Iterating succeeded, iterCount == 1

tryItOut 558
before 156960, after 156960, break 026b6000

tryItOut 559

tryItOut 560
Compiling threw: SyntaxError: invalid assignment left-hand side

tryItOut 561
Compiling threw: SyntaxError: missing = in destructuring declaration

tryItOut 562
before 156960, after 156960, break 026b6000

tryItOut 563
Compiling threw: SyntaxError: missing { before function body

tryItOut 564
Running threw: SyntaxError: invalid regular expression flag 1

tryItOut 565
Compiling threw: SyntaxError: syntax error

tryItOut 566
Compiling threw: SyntaxError: invalid for/in left-hand side

tryItOut 567

tryItOut 568
Compiling threw: TypeError: redeclaration of variable __count__

tryItOut 569
Compiling threw: SyntaxError: missing variable name

tryItOut 570
Compiling threw: SyntaxError: missing ) in parenthetical

tryItOut 571

tryItOut 572
Compiling threw: SyntaxError: missing ; before statement

tryItOut 573

tryItOut 574

tryItOut 575
Compiling threw: SyntaxError: invalid assignment left-hand side

tryItOut 576

tryItOut 577
Compiling threw: SyntaxError: missing variable name

tryItOut 578
Compiling threw: SyntaxError: missing variable name

tryItOut 579
Compiling threw: SyntaxError: invalid destructuring assignment operator

tryItOut 580

tryItOut 581

tryItOut 582
Running threw: TypeError: invalid 'in' operand ""

tryItOut 583
Running threw: 1.3

tryItOut 584
Compiling threw: SyntaxError: invalid assignment left-hand side

tryItOut 585

tryItOut 586
Compiling threw: SyntaxError: missing { before function body

tryItOut 587

tryItOut 588

tryItOut 589

tryItOut 590
Compiling threw: SyntaxError: syntax error

tryItOut 591

tryItOut 592

tryItOut 593

tryItOut 594

tryItOut 595
Running threw: Error: invalid sharp variable use #1#

tryItOut 596

tryItOut 597
Compiling threw: SyntaxError: missing ) in parenthetical

tryItOut 598
Running threw: [object StopIteration]

tryItOut 599

tryItOut 600

tryItOut 601
Compiling threw: SyntaxError: syntax error

tryItOut 602

tryItOut 603
It's an iterator!
Iterating succeeded, iterCount == 1

tryItOut 604

tryItOut 605
Compiling threw: SyntaxError: invalid assignment left-hand side

tryItOut 606

tryItOut 607
Compiling threw: SyntaxError: missing ; after for-loop initializer

tryItOut 608

tryItOut 609
Compiling threw: SyntaxError: syntax error

tryItOut 610
Running threw: TypeError: this.zzz has no properties

tryItOut 611

tryItOut 612
Compiling threw: SyntaxError: syntax error

tryItOut 613
It's an iterator!
Iterating threw!
Iterating threw: TypeError: 1e+81 is not a function

tryItOut 614
Compiling threw: SyntaxError: missing ; before statement

tryItOut 615

tryItOut 616

tryItOut 617

tryItOut 618
Compiling threw: SyntaxError: missing ) after formal parameters

tryItOut 619
Compiling threw: SyntaxError: invalid for/in left-hand side

tryItOut 620

tryItOut 621

tryItOut 622
It's an iterator!
Iterating succeeded, iterCount == 1

tryItOut 623

tryItOut 624
Running threw: <x>
  <y/>
</x>

tryItOut 625
Running threw: TypeError: this.zzz has no properties

tryItOut 626

tryItOut 627
Running threw: <x>
  <y/>
</x>

tryItOut 628
Compiling threw: SyntaxError: missing variable name

tryItOut 629
Running threw: <x>
  <y/>
</x>

tryItOut 630
Running threw: [object StopIteration]

tryItOut 631

tryItOut 632

tryItOut 633
before 191840, after 191840, break 026f9000

tryItOut 634
Running threw: TypeError: this.zzz has no properties

tryItOut 635

tryItOut 636
Running threw: null

tryItOut 637
Compiling threw: SyntaxError: syntax error

tryItOut 638
Compiling threw: SyntaxError: missing { before function body

tryItOut 639
Compiling threw: SyntaxError: missing variable name

tryItOut 640

tryItOut 641
Running threw: /

tryItOut 642

tryItOut 643

tryItOut 644
Compiling threw: SyntaxError: invalid assignment left-hand side

tryItOut 645
Running threw: <x>
  <y/>
</x>

tryItOut 646

tryItOut 647
Compiling threw: SyntaxError: missing ) after argument list

tryItOut 648
Compiling threw: SyntaxError: missing variable name

tryItOut 649
Compiling threw: SyntaxError: missing ; before statement

tryItOut 650
Compiling threw: SyntaxError: invalid for/in left-hand side

tryItOut 651

tryItOut 652
Running threw: /x/

tryItOut 653
Compiling threw: SyntaxError: missing variable name

tryItOut 654
before 191840, after 191840, break 026f9000

tryItOut 655

tryItOut 656
Compiling threw: SyntaxError: invalid for/in left-hand side

tryItOut 657

tryItOut 658
Compiling threw: SyntaxError: missing ) in parenthetical

tryItOut 659

tryItOut 660
before 191840, after 191840, break 026f9000
Running threw: TypeError: this.zzz has no properties

tryItOut 661

tryItOut 662
Compiling threw: SyntaxError: missing { before function body

tryItOut 663
It's an iterator!
Iterating succeeded, iterCount == 1

tryItOut 664

tryItOut 665

tryItOut 666
Compiling threw: SyntaxError: missing variable name

tryItOut 667
before 191840, after 191840, break 026f9000

tryItOut 668
Compiling threw: SyntaxError: missing ) after condition

tryItOut 669

tryItOut 670

tryItOut 671
Running threw: TypeError: this.zzz has no properties

tryItOut 672
before 191840, after 191840, break 026f9000

tryItOut 673
It's an iterator!
Iterating succeeded, iterCount == 0

tryItOut 674

tryItOut 675
Compiling threw: SyntaxError: invalid assignment left-hand side

tryItOut 676
Compiling threw: SyntaxError: missing : after property id

tryItOut 677

tryItOut 678
It's an iterator!
Iterating succeeded, iterCount == 1

tryItOut 679
Compiling threw: SyntaxError: missing variable name

tryItOut 680
Compiling threw: SyntaxError: missing while after do-loop body

tryItOut 681

tryItOut 682

tryItOut 683
Compiling threw: SyntaxError: missing variable name

tryItOut 684
Compiling threw: SyntaxError: invalid for/in left-hand side

tryItOut 685
Compiling threw: SyntaxError: missing variable name

tryItOut 686

tryItOut 687

tryItOut 688
Compiling threw: SyntaxError: missing ) after let head

tryItOut 689
Compiling threw: SyntaxError: invalid for/in left-hand side

tryItOut 690

tryItOut 691

tryItOut 692

tryItOut 693

tryItOut 694
before 191840, after 191840, break 026f9000

tryItOut 695
Compiling threw: SyntaxError: invalid for each loop

tryItOut 696
Running threw: [object StopIteration]

tryItOut 697
uneval returned the string: []

tryItOut 698
Compiling threw: SyntaxError: missing ) in parenthetical

tryItOut 699

tryItOut 700

tryItOut 701

tryItOut 702

tryItOut 703
before 191840, after 191840, break 026f9000

tryItOut 704
Compiling threw: SyntaxError: missing variable name

tryItOut 705
Compiling threw: SyntaxError: invalid for/in left-hand side

tryItOut 706
Running threw: SyntaxError: illegal XML character

tryItOut 707

tryItOut 708

tryItOut 709
Compiling threw: SyntaxError: missing ; before statement

tryItOut 710
Compiling threw: SyntaxError: missing variable name

tryItOut 711
Compiling threw: SyntaxError: missing { before function body

tryItOut 712

tryItOut 713

tryItOut 714
It's an iterator!
Iterating threw!
Iterating threw: Error: invalid sharp variable use #1#

tryItOut 715

tryItOut 716
Compiling threw: SyntaxError: missing ) in parenthetical

tryItOut 717

tryItOut 718
Compiling threw: SyntaxError: missing variable name

tryItOut 719

tryItOut 720

tryItOut 721

tryItOut 722

tryItOut 723
Compiling threw: SyntaxError: missing variable name

tryItOut 724
Compiling threw: SyntaxError: missing : after property id

tryItOut 725
Compiling threw: SyntaxError: missing variable name

tryItOut 726

tryItOut 727
Compiling threw: SyntaxError: invalid assignment left-hand side

tryItOut 728
Compiling threw: SyntaxError: missing variable name

tryItOut 729
It's an iterator!
Iterating succeeded, iterCount == 1

tryItOut 730
Compiling threw: SyntaxError: syntax error

tryItOut 731
Compiling threw: SyntaxError: syntax error

tryItOut 732

tryItOut 733
Compiling threw: SyntaxError: missing ; before statement

tryItOut 734
Running threw: [object StopIteration]

tryItOut 735
Compiling threw: SyntaxError: invalid assignment left-hand side

tryItOut 736
Compiling threw: SyntaxError: missing ; before statement

tryItOut 737

tryItOut 738

tryItOut 739
It's an iterator!
Iterating succeeded, iterCount == 1

tryItOut 740
Running threw: [object StopIteration]

tryItOut 741

tryItOut 742

tryItOut 743

tryItOut 744
It's an iterator!
Iterating succeeded, iterCount == 1

tryItOut 745
Compiling threw: SyntaxError: missing variable name

tryItOut 746

tryItOut 747
Running threw: [object StopIteration]

tryItOut 748
Compiling threw: SyntaxError: invalid for/in left-hand side

tryItOut 749

tryItOut 750

tryItOut 751
Compiling threw: SyntaxError: missing variable name

tryItOut 752

tryItOut 753
Compiling threw: SyntaxError: syntax error

tryItOut 754
Compiling threw: SyntaxError: invalid for/in left-hand side

tryItOut 755
Compiling threw: SyntaxError: invalid assignment left-hand side

tryItOut 756
Compiling threw: SyntaxError: invalid for/in left-hand side

tryItOut 757
Compiling threw: SyntaxError: missing { before function body

tryItOut 758
Compiling threw: SyntaxError: syntax error

tryItOut 759
Compiling threw: SyntaxError: invalid assignment left-hand side

tryItOut 760
before 191840, after 191840, break 02709000

tryItOut 761
Compiling threw: SyntaxError: missing variable name

tryItOut 762
Compiling threw: SyntaxError: invalid for/in left-hand side

tryItOut 763

tryItOut 764
Compiling threw: SyntaxError: syntax error

tryItOut 765

tryItOut 766
Compiling threw: SyntaxError: missing variable name

tryItOut 767
Compiling threw: SyntaxError: missing ) in parenthetical

tryItOut 768

tryItOut 769

tryItOut 770
Compiling threw: SyntaxError: missing variable name

tryItOut 771

tryItOut 772
Running threw: TypeError: this.zzz has no properties

tryItOut 773

tryItOut 774
Compiling threw: SyntaxError: missing variable name

tryItOut 775
Compiling threw: SyntaxError: invalid for/in left-hand side

tryItOut 776

tryItOut 777
before 191840, after 191840, break 02709000

tryItOut 778

tryItOut 779

tryItOut 780
It's an iterator!
before 191840, after 191840, break 02709000
Iterating succeeded, iterCount == 1

tryItOut 781

tryItOut 782
Compiling threw: SyntaxError: syntax error

tryItOut 783
Compiling threw: SyntaxError: duplicate label

tryItOut 784
Compiling threw: SyntaxError: invalid for/in left-hand side

tryItOut 785
Compiling threw: SyntaxError: syntax error

tryItOut 786

tryItOut 787
Compiling threw: SyntaxError: invalid for/in left-hand side

tryItOut 788
Compiling threw: SyntaxError: missing ; before statement

tryItOut 789

tryItOut 790

tryItOut 791
Compiling threw: SyntaxError: syntax error

tryItOut 792

tryItOut 793
Running threw: SyntaxError: yield not in function

tryItOut 794

tryItOut 795

tryItOut 796

tryItOut 797
It's an iterator!
Iterating succeeded, iterCount == 0

tryItOut 798
Compiling threw: SyntaxError: missing variable name

tryItOut 799
before 191840, after 191840, break 0271b000

tryItOut 800
Compiling threw: SyntaxError: invalid assignment left-hand side

tryItOut 801
Compiling threw: SyntaxError: missing { before function body

tryItOut 802

tryItOut 803
Compiling threw: SyntaxError: missing ( before let head

tryItOut 804
Running threw: <x>
  <y/>
</x>

tryItOut 805
Running threw: [object StopIteration]

tryItOut 806

tryItOut 807

tryItOut 808
Compiling threw: SyntaxError: syntax error

tryItOut 809
Compiling threw: SyntaxError: missing variable name

tryItOut 810
Running threw: NaN

tryItOut 811

tryItOut 812

tryItOut 813

tryItOut 814
Compiling threw: SyntaxError: missing ) in parenthetical

tryItOut 815
Running threw: [object Object]

tryItOut 816

tryItOut 817

tryItOut 818

tryItOut 819
Running threw: TypeError: this.zzz has no properties

tryItOut 820
Running threw: [object StopIteration]

tryItOut 821

tryItOut 822
Compiling threw: SyntaxError: syntax error

tryItOut 823

tryItOut 824

tryItOut 825
Running threw: [object StopIteration]

tryItOut 826
Compiling threw: SyntaxError: missing ) after argument list

tryItOut 827

tryItOut 828
Compiling threw: SyntaxError: invalid for/in left-hand side

tryItOut 829

tryItOut 830
Compiling threw: SyntaxError: missing variable name

tryItOut 831
Running threw: TypeError: (function ([y]) {}).yoyo is not a function

tryItOut 832

tryItOut 833
Compiling threw: SyntaxError: missing variable name

tryItOut 834
Compiling threw: SyntaxError: missing ; before statement

tryItOut 835

tryItOut 836
Compiling threw: SyntaxError: missing ; after for-loop initializer

tryItOut 837
Compiling threw: SyntaxError: syntax error

tryItOut 838

tryItOut 839

tryItOut 840
Compiling threw: SyntaxError: invalid for/in left-hand side

tryItOut 841
Compiling threw: SyntaxError: missing variable name

tryItOut 842

tryItOut 843
Compiling threw: SyntaxError: syntax error

tryItOut 844

tryItOut 845
Running threw: TypeError: <x>
  <y/>
</x> is not a constructor

tryItOut 846
Compiling threw: SyntaxError: missing variable name

tryItOut 847

tryItOut 848

tryItOut 849

tryItOut 850
Compiling threw: SyntaxError: invalid for/in left-hand side

tryItOut 851
before 209280, after 209280, break 02730000

tryItOut 852
Running threw: ReferenceError: get is not defined

tryItOut 853
It's an iterator!
Iterating succeeded, iterCount == 1

tryItOut 854
It's an iterator!
Iterating succeeded, iterCount == 1

tryItOut 855
Compiling threw: SyntaxError: missing variable name

tryItOut 856

tryItOut 857
Compiling threw: SyntaxError: missing = in destructuring declaration

tryItOut 858

tryItOut 859

tryItOut 860
It's an iterator!
Iterating succeeded, iterCount == 1

tryItOut 861
Compiling threw: SyntaxError: missing variable name

tryItOut 862
It's an iterator!
Iterating threw!
Iterating threw: [object Object]

tryItOut 863
It's an iterator!
Iterating succeeded, iterCount == 1

tryItOut 864
Running threw: -1

tryItOut 865
Running threw: 0

tryItOut 866

tryItOut 867
Running threw: Error: invalid sharp variable use #1#

tryItOut 868
Compiling threw: SyntaxError: invalid for/in left-hand side

tryItOut 869
Compiling threw: SyntaxError: syntax error

tryItOut 870

tryItOut 871

tryItOut 872
Compiling threw: SyntaxError: syntax error

tryItOut 873
Compiling threw: SyntaxError: missing variable name

tryItOut 874
Compiling threw: SyntaxError: syntax error

tryItOut 875
Compiling threw: SyntaxError: syntax error

tryItOut 876
Compiling threw: SyntaxError: invalid for/in left-hand side

tryItOut 877

tryItOut 878

tryItOut 879
Running threw: <x>
  <y/>
</x>

tryItOut 880
Compiling threw: SyntaxError: missing variable name

tryItOut 881
Compiling threw: SyntaxError: invalid assignment left-hand side

tryItOut 882
Running threw: TypeError: /x/g is not a constructor

tryItOut 883

tryItOut 884
Compiling threw: SyntaxError: syntax error

tryItOut 885
It's an iterator!
Iterating succeeded, iterCount == 1

tryItOut 886
Compiling threw: SyntaxError: missing ) in parenthetical

tryItOut 887

tryItOut 888
Compiling threw: SyntaxError: invalid for/in left-hand side

tryItOut 889

tryItOut 890

tryItOut 891

tryItOut 892
Compiling threw: SyntaxError: missing variable name

tryItOut 893

tryItOut 894

tryItOut 895

tryItOut 896

tryItOut 897
Compiling threw: SyntaxError: missing ; before statement

tryItOut 898
It's an iterator!
Iterating succeeded, iterCount == 1

tryItOut 899
Running threw: ReferenceError: setter is not defined

tryItOut 900

tryItOut 901
Running threw: TypeError: this.zzz has no properties

tryItOut 902
Compiling threw: SyntaxError: missing formal parameter

tryItOut 903
It's an iterator!
Iterating succeeded, iterCount == 0

tryItOut 904

tryItOut 905
Compiling threw: SyntaxError: missing variable name

tryItOut 906

tryItOut 907

tryItOut 908
Running threw: TypeError: this.zzz has no properties

tryItOut 909
Compiling threw: SyntaxError: missing variable name

tryItOut 910
Compiling threw: SyntaxError: missing ) in parenthetical

tryItOut 911

tryItOut 912
Running threw: ,

tryItOut 913

tryItOut 914
Compiling threw: SyntaxError: missing variable name

tryItOut 915
It's an iterator!
Iterating succeeded, iterCount == 1

tryItOut 916
It's an iterator!
Iterating threw!
Iterating threw: 112

tryItOut 917

tryItOut 918
Compiling threw: SyntaxError: invalid assignment left-hand side

tryItOut 919
It's an iterator!
Iterating succeeded, iterCount == 1

tryItOut 920

tryItOut 921
before 226720, after 226720, break 0275f000

tryItOut 922

tryItOut 923
It's an iterator!
before 226720, after 226720, break 0275f000
before 226720, after 226720, break 0275f000
Iterating threw!
Iterating threw: ReferenceError: z1 is not defined

tryItOut 924
It's an iterator!
Iterating threw!
Iterating threw: Error: invalid sharp variable use #1#

tryItOut 925
Compiling threw: SyntaxError: invalid for/in left-hand side

tryItOut 926

tryItOut 927

tryItOut 928
Compiling threw: SyntaxError: invalid assignment left-hand side

tryItOut 929
Compiling threw: SyntaxError: missing ) in parenthetical

tryItOut 930

tryItOut 931
Compiling threw: SyntaxError: invalid for/in left-hand side

tryItOut 932
Compiling threw: SyntaxError: missing variable name

tryItOut 933
Compiling threw: SyntaxError: missing ; before statement

tryItOut 934
Compiling threw: SyntaxError: invalid for/in left-hand side

tryItOut 935
Compiling threw: SyntaxError: missing ; before statement

tryItOut 936
Compiling threw: SyntaxError: missing variable name

tryItOut 937
Compiling threw: SyntaxError: missing variable name

tryItOut 938

tryItOut 939
Running threw: TypeError: arguments[0] has no properties

tryItOut 940
Compiling threw: SyntaxError: missing ; before statement

tryItOut 941

tryItOut 942

tryItOut 943
Compiling threw: SyntaxError: missing variable name

tryItOut 944
It's an iterator!
Iterating succeeded, iterCount == 1

tryItOut 945

tryItOut 946
Compiling threw: SyntaxError: missing variable name

tryItOut 947
Running threw: <x>
  <y/>
</x>

tryItOut 948
Compiling threw: TypeError: redeclaration of variable __iterator__

tryItOut 949

tryItOut 950

tryItOut 951

tryItOut 952

tryItOut 953
It's an iterator!
Iterating succeeded, iterCount == 1

tryItOut 954

tryItOut 955
Compiling threw: SyntaxError: missing ; before statement

tryItOut 956

tryItOut 957
Compiling threw: SyntaxError: invalid for/in left-hand side

tryItOut 958
Compiling threw: SyntaxError: missing variable name

tryItOut 959
before 226720, after 226720, break 0275f000

tryItOut 960

tryItOut 961
Running threw: [object StopIteration]

tryItOut 962
Compiling threw: SyntaxError: missing ) in parenthetical

tryItOut 963
Running threw: TypeError: this.zzz has no properties

tryItOut 964
Compiling threw: SyntaxError: missing ) in parenthetical

tryItOut 965
Compiling threw: SyntaxError: syntax error

tryItOut 966

tryItOut 967
Compiling threw: SyntaxError: syntax error

tryItOut 968
Compiling threw: SyntaxError: missing ) in parenthetical

tryItOut 969
Compiling threw: SyntaxError: missing ) after for-loop control

tryItOut 970
Compiling threw: SyntaxError: missing ) in parenthetical

tryItOut 971
Running threw: TypeError: this.zzz has no properties

tryItOut 972
Compiling threw: SyntaxError: missing variable name

tryItOut 973
Compiling threw: SyntaxError: invalid for/in left-hand side

tryItOut 974

tryItOut 975
Compiling threw: SyntaxError: invalid for/in left-hand side

tryItOut 976

tryItOut 977
Compiling threw: SyntaxError: missing ( before let head

tryItOut 978
Compiling threw: SyntaxError: missing variable name

tryItOut 979
Running threw: Error: invalid sharp variable use #1#

tryItOut 980

tryItOut 981
Compiling threw: SyntaxError: missing variable name

tryItOut 982

tryItOut 983
Running threw: Error: invalid sharp variable use #1#

tryItOut 984
Compiling threw: SyntaxError: invalid destructuring assignment operator

tryItOut 985

tryItOut 986
Compiling threw: SyntaxError: invalid for/in left-hand side

tryItOut 987
Running threw: TypeError: this.zzz has no properties

tryItOut 988
Running threw: TypeError: this.zzz has no properties

tryItOut 989
Compiling threw: SyntaxError: missing { before function body

tryItOut 990
Running threw: TypeError: this.zzz has no properties

tryItOut 991
before 226720, after 226720, break 0275f000

tryItOut 992
Compiling threw: SyntaxError: syntax error

tryItOut 993

tryItOut 994
Compiling threw: SyntaxError: missing ; before statement

tryItOut 995

tryItOut 996
Compiling threw: TypeError: generator function anonymous returns a value

tryItOut 997
Compiling threw: SyntaxError: invalid assignment left-hand side

tryItOut 998

tryItOut 999
Compiling threw: SyntaxError: invalid property id

tryItOut 1000
Compiling threw: SyntaxError: missing ) after condition

ALL OK

Script done on Sat 04 May 2013 05:28:02 AM PDT
