Script started on Sat 04 May 2013 05:31:35 AM PDT
***
Targeting SpiderMonkey / Gecko.

tryItOut 1
Compiling threw: SyntaxError: syntax error

tryItOut 2
Compiling threw: SyntaxError: missing variable name

tryItOut 3

tryItOut 4
Running threw: [object Object]

tryItOut 5

tryItOut 6

tryItOut 7
Running threw: ReferenceError: reference to undefined XML name *

tryItOut 8
Running threw: [object global]

tryItOut 9
Compiling threw: SyntaxError: syntax error

tryItOut 10
Compiling threw: TypeError: redeclaration of variable prototype

tryItOut 11
Compiling threw: SyntaxError: invalid for/in left-hand side

tryItOut 12
Compiling threw: SyntaxError: invalid assignment left-hand side

tryItOut 13

tryItOut 14

tryItOut 15
Compiling threw: SyntaxError: missing ) in parenthetical

tryItOut 16
Running threw: 1,

tryItOut 17
Compiling threw: SyntaxError: missing ] after element list

tryItOut 18

tryItOut 19

tryItOut 20
Running threw: null

tryItOut 21
Compiling threw: SyntaxError: missing ) in parenthetical

tryItOut 22

tryItOut 23
Running threw: [object StopIteration]

tryItOut 24
Compiling threw: SyntaxError: missing variable name

tryItOut 25

tryItOut 26
Compiling threw: SyntaxError: syntax error

tryItOut 27
Compiling threw: SyntaxError: invalid for/in left-hand side

tryItOut 28
Compiling threw: SyntaxError: missing ) in parenthetical

tryItOut 29
Compiling threw: SyntaxError: missing ) in parenthetical

tryItOut 30

tryItOut 31

tryItOut 32

tryItOut 33

tryItOut 34
Running threw: 

tryItOut 35
It's an iterator!
Iterating succeeded, iterCount == 1

tryItOut 36
Running threw: [object StopIteration]

tryItOut 37
Running threw: ReferenceError: __noSuchMethod__ is not defined

tryItOut 38
Compiling threw: SyntaxError: missing ; after for-loop initializer

tryItOut 39

tryItOut 40
Compiling threw: SyntaxError: missing variable name

tryItOut 41
Compiling threw: SyntaxError: missing : after property id

tryItOut 42
Running threw: [object StopIteration]

tryItOut 43

tryItOut 44

tryItOut 45
Running threw: TypeError: redeclaration of const __parent__

tryItOut 46
Compiling threw: SyntaxError: missing ) in parenthetical

tryItOut 47
Compiling threw: SyntaxError: invalid for/in left-hand side

tryItOut 48

tryItOut 49
Compiling threw: TypeError: redeclaration of variable prop

tryItOut 50

tryItOut 51

tryItOut 52
Running threw: ReferenceError: reference to undefined XML name *::*

tryItOut 53
Running threw: ReferenceError: __noSuchMethod__ is not defined

tryItOut 54

tryItOut 55

tryItOut 56

tryItOut 57
It's an iterator!
Iterating succeeded, iterCount == 1

tryItOut 58
Compiling threw: SyntaxError: missing ) after let head

tryItOut 59
Compiling threw: SyntaxError: missing ) in parenthetical

tryItOut 60

tryItOut 61
Running threw: ReferenceError: reference to undefined XML name *

tryItOut 62
Compiling threw: SyntaxError: missing ) in parenthetical

tryItOut 63

tryItOut 64

tryItOut 65
Compiling threw: SyntaxError: invalid assignment left-hand side

tryItOut 66

tryItOut 67
Compiling threw: SyntaxError: missing ; before statement

tryItOut 68
It's an iterator!
Iterating threw!
Iterating threw: ReferenceError: z1 is not defined

tryItOut 69

tryItOut 70
It's an iterator!
Iterating threw!
Iterating threw: ReferenceError: window is not defined

tryItOut 71
Running threw: Error: invalid sharp variable use #1#

tryItOut 72

tryItOut 73

tryItOut 74

tryItOut 75
Running threw: [object StopIteration]

tryItOut 76
Compiling threw: SyntaxError: missing ] after element list

tryItOut 77
Running threw: ReferenceError: prototype is not defined

tryItOut 78
Compiling threw: SyntaxError: invalid for/in left-hand side

tryItOut 79

tryItOut 80
Compiling threw: SyntaxError: missing ) in parenthetical

tryItOut 81
Compiling threw: SyntaxError: missing ) in parenthetical

tryItOut 82
Compiling threw: SyntaxError: missing variable name

tryItOut 83
Compiling threw: SyntaxError: missing ) in parenthetical

tryItOut 84

tryItOut 85
Compiling threw: SyntaxError: syntax error

tryItOut 86

tryItOut 87
Compiling threw: SyntaxError: syntax error

tryItOut 88

tryItOut 89
Compiling threw: SyntaxError: missing ) in parenthetical

tryItOut 90
Compiling threw: SyntaxError: syntax error

tryItOut 91
Running threw: undefined

tryItOut 92
It's an iterator!
Iterating threw!
Iterating threw: ReferenceError: reference to undefined XML name *::*

tryItOut 93

tryItOut 94
Running threw: ReferenceError: reference to undefined XML name @foo

tryItOut 95

tryItOut 96
Compiling threw: SyntaxError: invalid for/in left-hand side

tryItOut 97
Compiling threw: SyntaxError: invalid for each loop

tryItOut 98

tryItOut 99
Compiling threw: SyntaxError: missing ] after element list

tryItOut 100
Compiling threw: SyntaxError: missing variable name

tryItOut 101
Compiling threw: SyntaxError: invalid for each loop

tryItOut 102
Compiling threw: SyntaxError: invalid property id

tryItOut 103

tryItOut 104
Compiling threw: SyntaxError: invalid for/in left-hand side

tryItOut 105
It's an iterator!
Iterating threw!
Iterating threw: ReferenceError: window is not defined

tryItOut 106
Compiling threw: SyntaxError: invalid for/in left-hand side

tryItOut 107
Compiling threw: SyntaxError: invalid decrement operand

tryItOut 108
Compiling threw: SyntaxError: missing : after property id

tryItOut 109

tryItOut 110

tryItOut 111

tryItOut 112
Compiling threw: SyntaxError: missing variable name

tryItOut 113

tryItOut 114
Compiling threw: SyntaxError: missing ) after argument list

tryItOut 115
Running threw: ReferenceError: window is not defined

tryItOut 116

tryItOut 117
It's an iterator!
Iterating succeeded, iterCount == 1

tryItOut 118

tryItOut 119

tryItOut 120

tryItOut 121
Compiling threw: SyntaxError: missing ) in parenthetical

tryItOut 122
Compiling threw: SyntaxError: syntax error

tryItOut 123
Running threw: false

tryItOut 124

tryItOut 125
Compiling threw: SyntaxError: syntax error

tryItOut 126
Compiling threw: SyntaxError: invalid for/in left-hand side

tryItOut 127

tryItOut 128
Running threw: Error: invalid sharp variable use #1#

tryItOut 129
Compiling threw: SyntaxError: invalid for/in left-hand side

tryItOut 130

tryItOut 131
It's an iterator!
Iterating threw!
Iterating threw: ReferenceError: reference to undefined XML name *

tryItOut 132
It's an iterator!
Iterating threw!
Iterating threw: ReferenceError: reference to undefined XML name @foo

tryItOut 133

tryItOut 134
Compiling threw: SyntaxError: invalid for/in left-hand side

tryItOut 135
Compiling threw: SyntaxError: missing ) in parenthetical

tryItOut 136
Compiling threw: SyntaxError: missing ] after element list

tryItOut 137
Compiling threw: SyntaxError: missing ] after element list

tryItOut 138
Compiling threw: SyntaxError: missing variable name

tryItOut 139

tryItOut 140

tryItOut 141
Compiling threw: SyntaxError: syntax error

tryItOut 142
Running threw: [object StopIteration]

tryItOut 143
It's an iterator!
Iterating succeeded, iterCount == 1

tryItOut 144

tryItOut 145

tryItOut 146
Running threw: null

tryItOut 147
Compiling threw: SyntaxError: missing ] after element list

tryItOut 148
Compiling threw: SyntaxError: syntax error

tryItOut 149

tryItOut 150
It's an iterator!
Iterating threw!
Iterating threw: TypeError: undefined has no properties

tryItOut 151
Compiling threw: SyntaxError: invalid for each loop

tryItOut 152
Compiling threw: SyntaxError: missing ] after element list

tryItOut 153

tryItOut 154

tryItOut 155
It's an iterator!
Iterating threw!
Iterating threw: ReferenceError: z1 is not defined

tryItOut 156

tryItOut 157
Compiling threw: SyntaxError: missing variable name

tryItOut 158
It's an iterator!
Iterating threw!
Iterating threw: true

tryItOut 159
Running threw: TypeError: #1={a:#1#} is not a constructor

tryItOut 160
It's an iterator!
Iterating succeeded, iterCount == 1

tryItOut 161

tryItOut 162
Running threw: [object StopIteration]

tryItOut 163
Compiling threw: SyntaxError: invalid for/in left-hand side

tryItOut 164
Compiling threw: SyntaxError: missing variable name

tryItOut 165
Running threw: <x>
  <y/>
</x>

tryItOut 166
It's an iterator!
Iterating threw!
Iterating threw: ReferenceError: reference to undefined XML name *

tryItOut 167

tryItOut 168
Running threw: ReferenceError: reference to undefined XML name @foo

tryItOut 169
Compiling threw: SyntaxError: invalid assignment left-hand side

tryItOut 170
It's an iterator!
Iterating threw!
Iterating threw: ReferenceError: reference to undefined XML name *::*

tryItOut 171

tryItOut 172

tryItOut 173

tryItOut 174
Running threw: true

tryItOut 175

tryItOut 176
Running threw: ReferenceError: prop is not defined

tryItOut 177
Compiling threw: SyntaxError: missing ] after element list

tryItOut 178

tryItOut 179
Compiling threw: SyntaxError: missing ; after for-loop initializer

tryItOut 180

tryItOut 181

tryItOut 182
Compiling threw: SyntaxError: invalid assignment left-hand side

tryItOut 183

tryItOut 184
Compiling threw: SyntaxError: missing ] after element list

tryItOut 185
Running threw: ReferenceError: z1 is not defined

tryItOut 186
Compiling threw: SyntaxError: syntax error

tryItOut 187
Running threw: 

tryItOut 188
Compiling threw: SyntaxError: invalid for/in left-hand side

tryItOut 189
Compiling threw: TypeError: redeclaration of const prototype

tryItOut 190

tryItOut 191

tryItOut 192

tryItOut 193
Compiling threw: SyntaxError: missing variable name

tryItOut 194

tryItOut 195
Compiling threw: SyntaxError: invalid decrement operand

tryItOut 196
Compiling threw: SyntaxError: invalid for/in left-hand side

tryItOut 197

tryItOut 198
Compiling threw: SyntaxError: syntax error

tryItOut 199
Compiling threw: SyntaxError: invalid for/in left-hand side

tryItOut 200

tryItOut 201
Compiling threw: SyntaxError: missing : after property id

tryItOut 202

tryItOut 203
Compiling threw: SyntaxError: missing ; after for-loop condition

tryItOut 204

tryItOut 205
It's an iterator!
Iterating succeeded, iterCount == 1

tryItOut 206
Compiling threw: SyntaxError: missing ] after element list

tryItOut 207
Compiling threw: SyntaxError: missing variable name

tryItOut 208
It's an iterator!
before 174400, after 174400, break 016eb000
Iterating succeeded, iterCount == 1

tryItOut 209
Running threw: ReferenceError: __iterator__ is not defined

tryItOut 210

tryItOut 211

tryItOut 212
It's an iterator!
Iterating succeeded, iterCount == 1

tryItOut 213
Compiling threw: SyntaxError: invalid assignment left-hand side

tryItOut 214
Compiling threw: SyntaxError: invalid for/in left-hand side

tryItOut 215

tryItOut 216

tryItOut 217
Compiling threw: SyntaxError: missing ) after let head

tryItOut 218
Compiling threw: SyntaxError: invalid decrement operand

tryItOut 219
Compiling threw: SyntaxError: invalid default XML namespace

tryItOut 220

tryItOut 221
Running threw: ReferenceError: prototype is not defined

tryItOut 222

tryItOut 223
Compiling threw: SyntaxError: missing ) in parenthetical

tryItOut 224

tryItOut 225
It's an iterator!
Iterating succeeded, iterCount == 1

tryItOut 226

tryItOut 227
Compiling threw: SyntaxError: syntax error

tryItOut 228
Compiling threw: SyntaxError: invalid for/in left-hand side

tryItOut 229
Compiling threw: SyntaxError: syntax error

tryItOut 230

tryItOut 231

tryItOut 232
Compiling threw: SyntaxError: missing ) in parenthetical

tryItOut 233

tryItOut 234

tryItOut 235

tryItOut 236
Compiling threw: SyntaxError: invalid assignment left-hand side

tryItOut 237

tryItOut 238
Compiling threw: SyntaxError: syntax error

tryItOut 239
Compiling threw: SyntaxError: missing ) in parenthetical

tryItOut 240
Compiling threw: SyntaxError: missing variable name

tryItOut 241
Compiling threw: TypeError: redeclaration of const __noSuchMethod__

tryItOut 242

tryItOut 243
Compiling threw: SyntaxError: missing variable name

tryItOut 244
Running threw: [object StopIteration]

tryItOut 245

tryItOut 246
Compiling threw: SyntaxError: invalid assignment left-hand side

tryItOut 247
Compiling threw: SyntaxError: invalid assignment left-hand side

tryItOut 248

tryItOut 249
Compiling threw: SyntaxError: syntax error

tryItOut 250

tryItOut 251
Compiling threw: SyntaxError: invalid destructuring assignment operator

tryItOut 252
Compiling threw: SyntaxError: invalid for/in left-hand side

tryItOut 253

tryItOut 254

tryItOut 255
Compiling threw: SyntaxError: invalid for/in left-hand side

tryItOut 256
Compiling threw: SyntaxError: syntax error

tryItOut 257

tryItOut 258
Compiling threw: SyntaxError: invalid for/in left-hand side

tryItOut 259
Compiling threw: SyntaxError: syntax error

tryItOut 260
Compiling threw: SyntaxError: invalid for/in left-hand side

tryItOut 261
Running threw: TypeError: __parent__ has no properties

tryItOut 262
Compiling threw: SyntaxError: invalid assignment left-hand side

tryItOut 263

tryItOut 264
Compiling threw: SyntaxError: invalid property id

tryItOut 265
Compiling threw: SyntaxError: missing variable name

tryItOut 266
Running threw: ReferenceError: __iterator__ is not defined

tryItOut 267
Compiling threw: SyntaxError: invalid for/in left-hand side

tryItOut 268

tryItOut 269
Compiling threw: SyntaxError: missing ) after argument list

tryItOut 270

tryItOut 271
Compiling threw: SyntaxError: missing ) in parenthetical

tryItOut 272
Compiling threw: SyntaxError: syntax error

tryItOut 273

tryItOut 274

tryItOut 275
Compiling threw: SyntaxError: invalid for/in left-hand side

tryItOut 276

tryItOut 277
Compiling threw: SyntaxError: missing : after property id

tryItOut 278
Compiling threw: SyntaxError: invalid for/in left-hand side

tryItOut 279
It's an iterator!
Iterating threw!
Iterating threw: ReferenceError: z1 is not defined

tryItOut 280
Compiling threw: SyntaxError: missing ; before statement

tryItOut 281

tryItOut 282
Running threw: 

tryItOut 283
It's an iterator!
Iterating succeeded, iterCount == 1

tryItOut 284
Compiling threw: SyntaxError: missing ) after formal parameters

tryItOut 285
Compiling threw: SyntaxError: missing variable name

tryItOut 286
Running threw: ReferenceError: reference to undefined XML name @foo

tryItOut 287

tryItOut 288
Compiling threw: SyntaxError: missing ; after for-loop initializer

tryItOut 289
Compiling threw: SyntaxError: missing ; before statement

tryItOut 290
Compiling threw: SyntaxError: missing variable name

tryItOut 291

tryItOut 292
It's an iterator!
Iterating threw!
Iterating threw: ReferenceError: reference to undefined XML name *::*

tryItOut 293
Compiling threw: SyntaxError: missing variable name

tryItOut 294
Compiling threw: SyntaxError: invalid assignment left-hand side

tryItOut 295

tryItOut 296

tryItOut 297

tryItOut 298
Running threw: TypeError: arguments[0] has no properties

tryItOut 299
Compiling threw: SyntaxError: invalid for/in left-hand side

tryItOut 300

tryItOut 301
It's an iterator!
Iterating succeeded, iterCount == 1

tryItOut 302
Compiling threw: SyntaxError: missing ) in parenthetical

tryItOut 303

tryItOut 304
Running threw: ReferenceError: prop is not defined

tryItOut 305

tryItOut 306

tryItOut 307

tryItOut 308
Compiling threw: SyntaxError: syntax error

tryItOut 309
Compiling threw: SyntaxError: invalid for each loop

tryItOut 310
Compiling threw: SyntaxError: missing ] after element list

tryItOut 311

tryItOut 312
Compiling threw: SyntaxError: syntax error

tryItOut 313
Compiling threw: SyntaxError: missing variable name

tryItOut 314

tryItOut 315
It's an iterator!
Iterating succeeded, iterCount == 0

tryItOut 316
Running threw: ReferenceError: window is not defined

tryItOut 317
Compiling threw: SyntaxError: invalid for/in left-hand side

tryItOut 318
Compiling threw: SyntaxError: missing ) after catch

tryItOut 319
It's an iterator!
Iterating succeeded, iterCount == 1

tryItOut 320
Running threw: ReferenceError: z2 is not defined

tryItOut 321
Compiling threw: SyntaxError: invalid for/in left-hand side

tryItOut 322

tryItOut 323

tryItOut 324
Compiling threw: SyntaxError: missing ) in parenthetical

tryItOut 325

tryItOut 326

tryItOut 327
It's an iterator!
Iterating succeeded, iterCount == 1

tryItOut 328

tryItOut 329

tryItOut 330

tryItOut 331
Compiling threw: SyntaxError: invalid assignment left-hand side

tryItOut 332
It's an iterator!
Iterating succeeded, iterCount == 1

tryItOut 333

tryItOut 334
It's an iterator!
Iterating threw!
Iterating threw: ReferenceError: window is not defined

tryItOut 335

tryItOut 336

tryItOut 337
Running threw: 

tryItOut 338
Running threw: [object StopIteration]

tryItOut 339
It's an iterator!
Iterating threw!
Iterating threw: ReferenceError: z1 is not defined

tryItOut 340
It's an iterator!
Iterating threw!
Iterating threw: ReferenceError: window is not defined

tryItOut 341

tryItOut 342
Running threw: ReferenceError: reference to undefined XML name *::*

tryItOut 343

tryItOut 344
Compiling threw: SyntaxError: missing ) in parenthetical

tryItOut 345
Compiling threw: SyntaxError: missing ) in parenthetical

tryItOut 346
Compiling threw: SyntaxError: invalid assignment left-hand side

tryItOut 347
Compiling threw: SyntaxError: missing = in destructuring declaration

tryItOut 348
Compiling threw: SyntaxError: missing variable name

tryItOut 349
Compiling threw: SyntaxError: missing variable name

tryItOut 350
Compiling threw: SyntaxError: missing name in export statement

tryItOut 351

tryItOut 352
It's an iterator!
before 174400, after 174400, break 016fb000
Iterating succeeded, iterCount == 1

tryItOut 353
Running threw: ReferenceError: reference to undefined XML name *::*

tryItOut 354
Compiling threw: SyntaxError: illegal XML character

tryItOut 355
Compiling threw: SyntaxError: missing : after property id

tryItOut 356
Compiling threw: SyntaxError: syntax error

tryItOut 357
Compiling threw: SyntaxError: missing ) in parenthetical

tryItOut 358

tryItOut 359
Compiling threw: SyntaxError: missing variable name

tryItOut 360
Compiling threw: SyntaxError: missing : after property id

tryItOut 361
Compiling threw: SyntaxError: syntax error

tryItOut 362

tryItOut 363
Compiling threw: SyntaxError: missing ] after element list

tryItOut 364
Running threw: ReferenceError: prop is not defined

tryItOut 365

tryItOut 366

tryItOut 367
Compiling threw: SyntaxError: invalid assignment left-hand side

tryItOut 368
Compiling threw: TypeError: redeclaration of variable __noSuchMethod__

tryItOut 369
Running threw: ReferenceError: reference to undefined XML name *

tryItOut 370
Compiling threw: SyntaxError: invalid for/in left-hand side

tryItOut 371

tryItOut 372

tryItOut 373
Running threw: ReferenceError: reference to undefined XML name *::*

tryItOut 374
Compiling threw: SyntaxError: missing : after property id

tryItOut 375
Running threw: ReferenceError: window is not defined

tryItOut 376
Compiling threw: SyntaxError: missing variable name

tryItOut 377
Compiling threw: SyntaxError: missing variable name

tryItOut 378
Running threw: TypeError: undefined has no properties

tryItOut 379
Compiling threw: SyntaxError: syntax error

tryItOut 380

tryItOut 381
Compiling threw: SyntaxError: missing ) after condition

tryItOut 382
Compiling threw: SyntaxError: invalid assignment left-hand side

tryItOut 383

tryItOut 384
Compiling threw: SyntaxError: syntax error

tryItOut 385

tryItOut 386

tryItOut 387

tryItOut 388

tryItOut 389
Compiling threw: SyntaxError: invalid for/in left-hand side

tryItOut 390

tryItOut 391

tryItOut 392
It's an iterator!
Iterating succeeded, iterCount == 1

tryItOut 393

tryItOut 394
Compiling threw: SyntaxError: syntax error

tryItOut 395

tryItOut 396
Running threw: 1.3

tryItOut 397

tryItOut 398
Compiling threw: SyntaxError: missing variable name

tryItOut 399
Running threw: [object StopIteration]

tryItOut 400
Compiling threw: SyntaxError: missing ; before statement

tryItOut 401

tryItOut 402
Compiling threw: SyntaxError: missing : after property id

tryItOut 403

tryItOut 404
Running threw: ReferenceError: z1 is not defined

tryItOut 405
Compiling threw: TypeError: redeclaration of const constructor

tryItOut 406

tryItOut 407
Compiling threw: SyntaxError: missing variable name

tryItOut 408

tryItOut 409
Compiling threw: SyntaxError: missing ] after element list

tryItOut 410

tryItOut 411
Running threw: ReferenceError: prop is not defined

tryItOut 412

tryItOut 413
Running threw: ReferenceError: reference to undefined XML name *::*

tryItOut 414
Compiling threw: SyntaxError: missing ) in parenthetical

tryItOut 415
Running threw: 0

tryItOut 416
Compiling threw: SyntaxError: missing ) after condition

tryItOut 417
Compiling threw: SyntaxError: syntax error

tryItOut 418

tryItOut 419
It's an iterator!
Iterating succeeded, iterCount == 1

tryItOut 420
Compiling threw: SyntaxError: missing ; before statement

tryItOut 421
Compiling threw: SyntaxError: missing variable name

tryItOut 422

tryItOut 423
Compiling threw: SyntaxError: missing ] after element list

tryItOut 424

tryItOut 425
Running threw: <x>
  <y/>
</x>

tryItOut 426

tryItOut 427
Compiling threw: SyntaxError: syntax error

tryItOut 428
Compiling threw: SyntaxError: syntax error

tryItOut 429
Compiling threw: SyntaxError: missing ] after element list

tryItOut 430
Compiling threw: SyntaxError: invalid for/in left-hand side

tryItOut 431
Compiling threw: SyntaxError: invalid for/in left-hand side

tryItOut 432

tryItOut 433

tryItOut 434

tryItOut 435

tryItOut 436
Compiling threw: SyntaxError: missing ] after element list

tryItOut 437
Compiling threw: SyntaxError: missing = in destructuring declaration

tryItOut 438
Compiling threw: SyntaxError: missing ) in parenthetical

tryItOut 439

tryItOut 440
Compiling threw: SyntaxError: invalid for each loop

tryItOut 441
Compiling threw: TypeError: redeclaration of var prototype

tryItOut 442

tryItOut 443
Compiling threw: SyntaxError: invalid assignment left-hand side

tryItOut 444
Running threw: ReferenceError: reference to undefined XML name *::*

tryItOut 445
Running threw: ReferenceError: window is not defined

tryItOut 446

tryItOut 447
Compiling threw: SyntaxError: missing ) in parenthetical

tryItOut 448
Compiling threw: SyntaxError: invalid for/in left-hand side

tryItOut 449
Running threw: TypeError: undefined has no properties

tryItOut 450

tryItOut 451
Compiling threw: SyntaxError: missing ) in parenthetical

tryItOut 452

tryItOut 453

tryItOut 454
Compiling threw: SyntaxError: missing ) in parenthetical

tryItOut 455
Running threw: TypeError: <x><y/></x>.__lookupSetter__("prototype") has no properties

tryItOut 456

tryItOut 457

tryItOut 458

tryItOut 459
Compiling threw: SyntaxError: missing identifier in catch

tryItOut 460
Running threw: ReferenceError: reference to undefined XML name *::*

tryItOut 461
Compiling threw: SyntaxError: missing ] after element list

tryItOut 462
Running threw: <x>
  <y/>
</x>

tryItOut 463

tryItOut 464
Compiling threw: SyntaxError: missing ) in parenthetical

tryItOut 465
Running threw: ReferenceError: prop is not defined

tryItOut 466
Compiling threw: SyntaxError: missing ; after for-loop initializer

tryItOut 467
Compiling threw: SyntaxError: missing ) in parenthetical

tryItOut 468

tryItOut 469
It's an iterator!
Iterating succeeded, iterCount == 1

tryItOut 470

tryItOut 471
Running threw: ReferenceError: window is not defined

tryItOut 472
Compiling threw: SyntaxError: syntax error

tryItOut 473
Running threw: [object StopIteration]

tryItOut 474
Running threw: ReferenceError: prop is not defined

tryItOut 475
Compiling threw: SyntaxError: missing ) in parenthetical

tryItOut 476
Compiling threw: SyntaxError: invalid decrement operand

tryItOut 477
Compiling threw: SyntaxError: syntax error

tryItOut 478
Compiling threw: SyntaxError: missing ; before statement

tryItOut 479

tryItOut 480
Compiling threw: SyntaxError: missing ) after condition

tryItOut 481

tryItOut 482

tryItOut 483

tryItOut 484
It's an iterator!
Iterating succeeded, iterCount == 1

tryItOut 485

tryItOut 486
Running threw: ReferenceError: x is not defined

tryItOut 487
Compiling threw: SyntaxError: syntax error

tryItOut 488

tryItOut 489
Compiling threw: SyntaxError: invalid for/in left-hand side

tryItOut 490
Compiling threw: SyntaxError: syntax error

tryItOut 491
Compiling threw: SyntaxError: missing ) in parenthetical

tryItOut 492

tryItOut 493
Compiling threw: SyntaxError: missing ] after element list

tryItOut 494
Running threw: ReferenceError: window is not defined

tryItOut 495
Compiling threw: SyntaxError: invalid for/in left-hand side

tryItOut 496
Running threw: [object StopIteration]

tryItOut 497
Compiling threw: SyntaxError: missing variable name

tryItOut 498
Compiling threw: SyntaxError: missing variable name

tryItOut 499

tryItOut 500
Compiling threw: SyntaxError: duplicate label

tryItOut 501

tryItOut 502

tryItOut 503
Compiling threw: SyntaxError: invalid for/in left-hand side

tryItOut 504
Running threw: 

tryItOut 505
Running threw: ReferenceError: reference to undefined XML name @foo

tryItOut 506

tryItOut 507
Compiling threw: SyntaxError: invalid for/in left-hand side

tryItOut 508

tryItOut 509
Compiling threw: SyntaxError: invalid for/in left-hand side

tryItOut 510

tryItOut 511
Compiling threw: SyntaxError: invalid for/in left-hand side

tryItOut 512
Running threw: [object StopIteration]

tryItOut 513

tryItOut 514

tryItOut 515

tryItOut 516
Compiling threw: SyntaxError: syntax error

tryItOut 517
Compiling threw: SyntaxError: missing ] after element list

tryItOut 518

tryItOut 519

tryItOut 520
Compiling threw: SyntaxError: invalid for/in left-hand side

tryItOut 521
It's an iterator!
Iterating succeeded, iterCount == 1

tryItOut 522
Compiling threw: SyntaxError: missing : after property id

tryItOut 523
Compiling threw: SyntaxError: invalid for/in left-hand side

tryItOut 524
Compiling threw: SyntaxError: invalid assignment left-hand side

tryItOut 525
Compiling threw: SyntaxError: invalid for each loop

tryItOut 526
Compiling threw: SyntaxError: syntax error

tryItOut 527
It's an iterator!
Iterating succeeded, iterCount == 0

tryItOut 528
Compiling threw: SyntaxError: invalid decrement operand

tryItOut 529
Compiling threw: SyntaxError: invalid increment operand

tryItOut 530

tryItOut 531
Compiling threw: SyntaxError: missing ) in parenthetical

tryItOut 532

tryItOut 533
It's an iterator!
Iterating threw!
Iterating threw: SyntaxError: invalid getter usage

tryItOut 534
Running threw: SyntaxError: invalid assignment left-hand side

tryItOut 535
It's an iterator!
Iterating succeeded, iterCount == 1

tryItOut 536
Compiling threw: SyntaxError: missing ] after element list

tryItOut 537

tryItOut 538
Compiling threw: SyntaxError: missing ) in parenthetical

tryItOut 539
Compiling threw: SyntaxError: missing ; after for-loop initializer

tryItOut 540

tryItOut 541

tryItOut 542

tryItOut 543
Running threw: ReferenceError: reference to undefined XML name @foo

tryItOut 544

tryItOut 545

tryItOut 546

tryItOut 547
Compiling threw: SyntaxError: illegal XML character

tryItOut 548

tryItOut 549
Running threw: ReferenceError: reference to undefined XML name *

tryItOut 550

tryItOut 551

tryItOut 552

tryItOut 553
Running threw: ReferenceError: reference to undefined XML name *

tryItOut 554
Running threw: false

tryItOut 555
Compiling threw: SyntaxError: missing ; after for-loop initializer

tryItOut 556
Compiling threw: TypeError: redeclaration of variable prop

tryItOut 557
Compiling threw: SyntaxError: invalid for/in left-hand side

tryItOut 558
Compiling threw: SyntaxError: invalid for each loop

tryItOut 559

tryItOut 560
Compiling threw: SyntaxError: syntax error

tryItOut 561
Running threw: <x>
  <y/>
</x>

tryItOut 562
Compiling threw: SyntaxError: missing ; after for-loop initializer

tryItOut 563

tryItOut 564
Running threw: ReferenceError: window is not defined

tryItOut 565
Compiling threw: SyntaxError: missing ) in parenthetical

tryItOut 566
It's an iterator!
Iterating threw!
Iterating threw: TypeError: redeclaration of var __count__

tryItOut 567
It's an iterator!
Iterating succeeded, iterCount == 1

tryItOut 568

tryItOut 569

tryItOut 570
Running threw: [object StopIteration]

tryItOut 571
Running threw: [object StopIteration]

tryItOut 572
Compiling threw: SyntaxError: invalid assignment left-hand side

tryItOut 573
Compiling threw: SyntaxError: invalid for/in left-hand side

tryItOut 574
Running threw: SyntaxError: invalid getter usage

tryItOut 575
Compiling threw: SyntaxError: invalid for/in left-hand side

tryItOut 576

tryItOut 577
Compiling threw: SyntaxError: invalid assignment left-hand side

tryItOut 578
Running threw: 

tryItOut 579

tryItOut 580
Compiling threw: SyntaxError: missing variable name

tryItOut 581
It's an iterator!
Iterating succeeded, iterCount == 1

tryItOut 582
Compiling threw: SyntaxError: illegal XML character

tryItOut 583
It's an iterator!
Iterating succeeded, iterCount == 1

tryItOut 584

tryItOut 585
Compiling threw: SyntaxError: syntax error

tryItOut 586
It's an iterator!
Iterating succeeded, iterCount == 1

tryItOut 587
Compiling threw: SyntaxError: missing ) in parenthetical

tryItOut 588
Compiling threw: SyntaxError: invalid for/in left-hand side

tryItOut 589

tryItOut 590
Compiling threw: SyntaxError: invalid for/in left-hand side

tryItOut 591
Compiling threw: SyntaxError: missing variable name

tryItOut 592

tryItOut 593
It's an iterator!
Iterating succeeded, iterCount == 1

tryItOut 594

tryItOut 595
Running threw: ReferenceError: window is not defined

tryItOut 596
Compiling threw: SyntaxError: invalid assignment left-hand side

tryItOut 597
Running threw: ReferenceError: window is not defined

tryItOut 598
Compiling threw: SyntaxError: missing ) in parenthetical

tryItOut 599

tryItOut 600

tryItOut 601
It's an iterator!
Iterating succeeded, iterCount == 0

tryItOut 602
Running threw: ReferenceError: reference to undefined XML name *::*

tryItOut 603
Running threw: [object StopIteration]

tryItOut 604
Compiling threw: SyntaxError: missing variable name

tryItOut 605

tryItOut 606
Compiling threw: SyntaxError: invalid for/in left-hand side

tryItOut 607

tryItOut 608
Compiling threw: SyntaxError: syntax error

tryItOut 609
Compiling threw: SyntaxError: missing ) in parenthetical

tryItOut 610

tryItOut 611

tryItOut 612
Running threw: [object StopIteration]

tryItOut 613

tryItOut 614
Compiling threw: SyntaxError: missing variable name

tryItOut 615
Compiling threw: TypeError: redeclaration of variable __proto__

tryItOut 616
Compiling threw: SyntaxError: missing ) after for-loop control

tryItOut 617

tryItOut 618

tryItOut 619
Compiling threw: SyntaxError: invalid for each loop

tryItOut 620

tryItOut 621
Running threw: ReferenceError: reference to undefined XML name *::*

tryItOut 622
Compiling threw: TypeError: redeclaration of var __parent__

tryItOut 623
Compiling threw: SyntaxError: missing ) in parenthetical

tryItOut 624
Compiling threw: SyntaxError: invalid property id

tryItOut 625

tryItOut 626
Compiling threw: SyntaxError: invalid for/in left-hand side

tryItOut 627
Compiling threw: SyntaxError: missing variable name

tryItOut 628
Compiling threw: SyntaxError: invalid assignment left-hand side

tryItOut 629
It's an iterator!
Iterating succeeded, iterCount == 1

tryItOut 630
Compiling threw: SyntaxError: missing variable name

tryItOut 631
It's an iterator!
Iterating threw!
Iterating threw: ReferenceError: window is not defined

tryItOut 632
Running threw: ReferenceError: reference to undefined XML name *::*

tryItOut 633
Compiling threw: SyntaxError: syntax error

tryItOut 634
Compiling threw: SyntaxError: syntax error

tryItOut 635
Compiling threw: SyntaxError: invalid for/in left-hand side

tryItOut 636
Compiling threw: SyntaxError: missing ) after catch

tryItOut 637
It's an iterator!
Iterating succeeded, iterCount == 1

tryItOut 638
Compiling threw: SyntaxError: missing ) in parenthetical

tryItOut 639

tryItOut 640

tryItOut 641

tryItOut 642
Compiling threw: SyntaxError: invalid assignment left-hand side

tryItOut 643
Compiling threw: SyntaxError: missing ) in parenthetical

tryItOut 644
Compiling threw: SyntaxError: missing ) in parenthetical

tryItOut 645
Compiling threw: SyntaxError: invalid for/in left-hand side

tryItOut 646
Compiling threw: SyntaxError: syntax error

tryItOut 647

tryItOut 648

tryItOut 649
Running threw: ReferenceError: window is not defined

tryItOut 650

tryItOut 651
Compiling threw: SyntaxError: invalid assignment left-hand side

tryItOut 652
Running threw: [object StopIteration]

tryItOut 653
Compiling threw: SyntaxError: invalid for/in left-hand side

tryItOut 654

tryItOut 655

tryItOut 656
Compiling threw: SyntaxError: missing ; before statement

tryItOut 657
Running threw: ReferenceError: reference to undefined XML name *

tryItOut 658

tryItOut 659
It's an iterator!
Iterating succeeded, iterCount == 0

tryItOut 660
Running threw: TypeError: constructor is not a function

tryItOut 661
Compiling threw: SyntaxError: missing = in destructuring declaration

tryItOut 662

tryItOut 663
Running threw: 

tryItOut 664
Running threw: [object StopIteration]

tryItOut 665
Compiling threw: SyntaxError: missing variable name

tryItOut 666

tryItOut 667

tryItOut 668

tryItOut 669

tryItOut 670

tryItOut 671
Compiling threw: SyntaxError: duplicate label

tryItOut 672
Running threw: ReferenceError: reference to undefined XML name *

tryItOut 673
Compiling threw: SyntaxError: missing ) in parenthetical

tryItOut 674
Compiling threw: TypeError: redeclaration of variable __parent__

tryItOut 675
Compiling threw: SyntaxError: syntax error

tryItOut 676

tryItOut 677
Running threw: [object StopIteration]

tryItOut 678
Compiling threw: SyntaxError: missing : after property id

tryItOut 679

tryItOut 680
Running threw: 111

tryItOut 681
Compiling threw: SyntaxError: missing ) in parenthetical

tryItOut 682

tryItOut 683

tryItOut 684
It's an iterator!
Iterating threw!
Iterating threw: ReferenceError: reference to undefined XML name *::*

tryItOut 685
Running threw: ReferenceError: reference to undefined XML name *

tryItOut 686
Compiling threw: SyntaxError: missing variable name

tryItOut 687

tryItOut 688
Running threw: ReferenceError: reference to undefined XML name @foo

tryItOut 689
It's an iterator!
Iterating succeeded, iterCount == 0

tryItOut 690

tryItOut 691
Running threw: null

tryItOut 692
Compiling threw: SyntaxError: syntax error

tryItOut 693
Compiling threw: SyntaxError: missing ) in parenthetical

tryItOut 694

tryItOut 695
Running threw: -3

tryItOut 696

tryItOut 697
Compiling threw: SyntaxError: missing : after property id

tryItOut 698
Compiling threw: SyntaxError: syntax error

tryItOut 699
It's an iterator!
Iterating succeeded, iterCount == 1

tryItOut 700
Compiling threw: SyntaxError: invalid decrement operand

tryItOut 701

tryItOut 702
Compiling threw: SyntaxError: invalid assignment left-hand side

tryItOut 703

tryItOut 704
Compiling threw: SyntaxError: invalid for/in left-hand side

tryItOut 705
Compiling threw: SyntaxError: missing ) in parenthetical

tryItOut 706
Compiling threw: SyntaxError: missing name after . operator

tryItOut 707
Compiling threw: SyntaxError: syntax error

tryItOut 708
Compiling threw: SyntaxError: syntax error

tryItOut 709
It's an iterator!
Iterating succeeded, iterCount == 1

tryItOut 710

tryItOut 711
Compiling threw: SyntaxError: syntax error

tryItOut 712
It's an iterator!
Iterating threw!
Iterating threw: ReferenceError: z1 is not defined

tryItOut 713
Compiling threw: SyntaxError: invalid assignment left-hand side

tryItOut 714

tryItOut 715
Compiling threw: SyntaxError: missing ) in parenthetical

tryItOut 716

tryItOut 717
Compiling threw: SyntaxError: invalid assignment left-hand side

tryItOut 718
Compiling threw: SyntaxError: missing ) after argument list

tryItOut 719
It's an iterator!
Iterating threw!
Iterating threw: TypeError: null has no properties

tryItOut 720
Running threw: ReferenceError: window is not defined

tryItOut 721
Compiling threw: SyntaxError: syntax error

tryItOut 722
Compiling threw: SyntaxError: missing ) in parenthetical

tryItOut 723
Compiling threw: SyntaxError: invalid for/in left-hand side

tryItOut 724
Compiling threw: SyntaxError: missing ) in parenthetical

tryItOut 725

tryItOut 726
Compiling threw: SyntaxError: missing variable name

tryItOut 727
Compiling threw: SyntaxError: invalid assignment left-hand side

tryItOut 728

tryItOut 729
Compiling threw: SyntaxError: invalid for/in left-hand side

tryItOut 730
Compiling threw: SyntaxError: missing ; after for-loop initializer

tryItOut 731
Compiling threw: SyntaxError: syntax error

tryItOut 732
It's an iterator!
Iterating threw!
Iterating threw: SyntaxError: invalid setter usage

tryItOut 733

tryItOut 734
Compiling threw: SyntaxError: missing ] after element list

tryItOut 735
Running threw: ReferenceError: window is not defined

tryItOut 736

tryItOut 737
Compiling threw: SyntaxError: invalid for/in left-hand side

tryItOut 738
Compiling threw: SyntaxError: invalid for/in left-hand side

tryItOut 739
Compiling threw: SyntaxError: invalid for/in left-hand side

tryItOut 740
Running threw: [object StopIteration]

tryItOut 741
Compiling threw: SyntaxError: invalid for/in left-hand side

tryItOut 742
It's an iterator!
Iterating threw!
Iterating threw: SyntaxError: yield not in function

tryItOut 743

tryItOut 744

tryItOut 745
It's an iterator!
Iterating threw!
Iterating threw: TypeError: invalid 'in' operand false

tryItOut 746

tryItOut 747

tryItOut 748

tryItOut 749
Running threw: 

tryItOut 750

tryItOut 751

tryItOut 752
Compiling threw: SyntaxError: syntax error

tryItOut 753
Running threw: ReferenceError: window is not defined

tryItOut 754

tryItOut 755
It's an iterator!
Iterating succeeded, iterCount == 0

tryItOut 756
It's an iterator!
Iterating succeeded, iterCount == 0

tryItOut 757
Compiling threw: SyntaxError: missing name in export statement

tryItOut 758

tryItOut 759
It's an iterator!
Iterating succeeded, iterCount == 1

tryItOut 760

tryItOut 761

tryItOut 762

tryItOut 763
It's an iterator!
Iterating succeeded, iterCount == 1

tryItOut 764

tryItOut 765
It's an iterator!
Iterating threw!
Iterating threw: ReferenceError: z1 is not defined

tryItOut 766
It's an iterator!
Iterating succeeded, iterCount == 1

tryItOut 767
Compiling threw: SyntaxError: invalid increment operand

tryItOut 768

tryItOut 769

tryItOut 770
It's an iterator!
Iterating threw!
Iterating threw: SyntaxError: yield not in function

tryItOut 771
Compiling threw: SyntaxError: missing ] in index expression

tryItOut 772

tryItOut 773
It's an iterator!
Iterating threw!
Iterating threw: ReferenceError: window is not defined

tryItOut 774
Compiling threw: SyntaxError: missing ] after element list

tryItOut 775

tryItOut 776
Compiling threw: SyntaxError: syntax error

tryItOut 777

tryItOut 778
It's an iterator!
Iterating threw!
Iterating threw: ReferenceError: window is not defined

tryItOut 779
Compiling threw: SyntaxError: missing ) in parenthetical

tryItOut 780

tryItOut 781
Compiling threw: SyntaxError: invalid for/in left-hand side

tryItOut 782
Running threw: 

tryItOut 783

tryItOut 784
Compiling threw: SyntaxError: syntax error

tryItOut 785
Compiling threw: SyntaxError: invalid for/in left-hand side

tryItOut 786
Compiling threw: SyntaxError: missing = in destructuring declaration

tryItOut 787
Compiling threw: SyntaxError: missing { before function body

tryItOut 788

tryItOut 789
It's an iterator!
Iterating threw!
Iterating threw: ReferenceError: reference to undefined XML name *::*

tryItOut 790
It's an iterator!
Iterating succeeded, iterCount == 1

tryItOut 791

tryItOut 792

tryItOut 793
Compiling threw: SyntaxError: missing ) in parenthetical

tryItOut 794
Compiling threw: SyntaxError: invalid for/in left-hand side

tryItOut 795

tryItOut 796
Compiling threw: SyntaxError: invalid assignment left-hand side

tryItOut 797
Compiling threw: SyntaxError: missing ) in parenthetical

tryItOut 798
Running threw: [object StopIteration]

tryItOut 799

tryItOut 800

tryItOut 801

tryItOut 802
Compiling threw: SyntaxError: invalid assignment left-hand side

tryItOut 803
Compiling threw: SyntaxError: missing variable name

tryItOut 804
Compiling threw: SyntaxError: syntax error

tryItOut 805
It's an iterator!
Iterating succeeded, iterCount == 1

tryItOut 806
Compiling threw: SyntaxError: missing ) in parenthetical

tryItOut 807

tryItOut 808
Compiling threw: SyntaxError: missing ) after switch expression

tryItOut 809
Compiling threw: SyntaxError: missing ) in parenthetical

tryItOut 810
Compiling threw: SyntaxError: syntax error

tryItOut 811

tryItOut 812
Compiling threw: SyntaxError: missing : after case label

tryItOut 813
Compiling threw: SyntaxError: missing = in destructuring declaration

tryItOut 814
Running threw: ReferenceError: window is not defined

tryItOut 815
Compiling threw: SyntaxError: missing variable name

tryItOut 816
It's an iterator!
Iterating threw!
Iterating threw: ReferenceError: z1 is not defined

tryItOut 817

tryItOut 818
Compiling threw: SyntaxError: syntax error

tryItOut 819
Running threw: [object StopIteration]

tryItOut 820

tryItOut 821

tryItOut 822

tryItOut 823
Running threw: 

tryItOut 824

tryItOut 825
Running threw: [object StopIteration]

tryItOut 826
Compiling threw: SyntaxError: missing ) in parenthetical

tryItOut 827

tryItOut 828
Compiling threw: SyntaxError: missing ) in parenthetical

tryItOut 829
Compiling threw: SyntaxError: yield expression must be parenthesized

tryItOut 830

tryItOut 831

tryItOut 832
Compiling threw: SyntaxError: invalid for/in left-hand side

tryItOut 833
Compiling threw: SyntaxError: invalid for/in left-hand side

tryItOut 834
Running threw: TypeError: __iterator__ has no properties

tryItOut 835
It's an iterator!
Iterating succeeded, iterCount == 1

tryItOut 836
It's an iterator!
Iterating succeeded, iterCount == 1

tryItOut 837
Compiling threw: SyntaxError: missing name in export statement

tryItOut 838
Compiling threw: SyntaxError: invalid for/in left-hand side

tryItOut 839
Compiling threw: SyntaxError: invalid for/in left-hand side

tryItOut 840
Running threw: [object StopIteration]

tryItOut 841
Compiling threw: SyntaxError: invalid decrement operand

tryItOut 842
Compiling threw: SyntaxError: invalid decrement operand

tryItOut 843
Running threw: ReferenceError: reference to undefined XML name *

tryItOut 844

tryItOut 845
Compiling threw: SyntaxError: syntax error

tryItOut 846
Compiling threw: SyntaxError: missing ) in parenthetical

tryItOut 847
Compiling threw: SyntaxError: invalid assignment left-hand side

tryItOut 848
Running threw: Error: invalid sharp variable use #1#

tryItOut 849
Compiling threw: SyntaxError: missing identifier in catch

tryItOut 850
Compiling threw: SyntaxError: invalid for/in left-hand side

tryItOut 851

tryItOut 852

tryItOut 853
Compiling threw: SyntaxError: invalid for/in left-hand side

tryItOut 854

tryItOut 855
It's an iterator!
Iterating succeeded, iterCount == 1

tryItOut 856

tryItOut 857

tryItOut 858

tryItOut 859
It's an iterator!
Iterating succeeded, iterCount == 1

tryItOut 860
Compiling threw: SyntaxError: syntax error

tryItOut 861

tryItOut 862
Compiling threw: SyntaxError: invalid for/in left-hand side

tryItOut 863
Compiling threw: SyntaxError: invalid assignment left-hand side

tryItOut 864
Compiling threw: SyntaxError: invalid for each loop

tryItOut 865
Compiling threw: SyntaxError: missing ) in parenthetical

tryItOut 866
Running threw: ReferenceError: reference to undefined XML name @foo

tryItOut 867
Compiling threw: SyntaxError: invalid assignment left-hand side

tryItOut 868
Compiling threw: SyntaxError: missing variable name

tryItOut 869

tryItOut 870
Running threw: 

tryItOut 871
Running threw: ReferenceError: reference to undefined XML name *::*

tryItOut 872

tryItOut 873
Compiling threw: SyntaxError: syntax error

tryItOut 874
Compiling threw: SyntaxError: invalid decrement operand

tryItOut 875
It's an iterator!
Iterating succeeded, iterCount == 1

tryItOut 876
Compiling threw: SyntaxError: invalid for/in left-hand side

tryItOut 877
Running threw: ReferenceError: yyy is not defined

tryItOut 878
Running threw: ReferenceError: reference to undefined XML name @foo

tryItOut 879
Compiling threw: SyntaxError: invalid decrement operand

tryItOut 880

tryItOut 881

tryItOut 882

tryItOut 883
Running threw: ReferenceError: window is not defined

tryItOut 884

tryItOut 885

tryItOut 886
Compiling threw: SyntaxError: invalid for/in left-hand side

tryItOut 887

tryItOut 888
Running threw: undefined

tryItOut 889
Compiling threw: SyntaxError: invalid assignment left-hand side

tryItOut 890
Compiling threw: SyntaxError: missing ) in parenthetical

tryItOut 891
Compiling threw: SyntaxError: missing ) in parenthetical

tryItOut 892
Running threw: ReferenceError: z1 is not defined

tryItOut 893

tryItOut 894
Compiling threw: SyntaxError: missing ; before statement

tryItOut 895
Compiling threw: SyntaxError: invalid for/in left-hand side

tryItOut 896
Compiling threw: SyntaxError: invalid assignment left-hand side

tryItOut 897
Compiling threw: SyntaxError: missing : after property id

tryItOut 898
Compiling threw: SyntaxError: missing variable name

tryItOut 899
Compiling threw: SyntaxError: missing ] after element list

tryItOut 900

tryItOut 901
Compiling threw: SyntaxError: invalid for/in left-hand side

tryItOut 902
Compiling threw: SyntaxError: missing ) in parenthetical

tryItOut 903
Compiling threw: SyntaxError: invalid assignment left-hand side

tryItOut 904
Compiling threw: SyntaxError: syntax error

tryItOut 905
Compiling threw: TypeError: redeclaration of const constructor

tryItOut 906

tryItOut 907

tryItOut 908
Running threw: ReferenceError: reference to undefined XML name @foo

tryItOut 909
Compiling threw: SyntaxError: missing : after property id

tryItOut 910
Running threw: ReferenceError: reference to undefined XML name *

tryItOut 911

tryItOut 912

tryItOut 913
Compiling threw: SyntaxError: missing ) in parenthetical

tryItOut 914
Compiling threw: SyntaxError: missing variable name

tryItOut 915

tryItOut 916

tryItOut 917

tryItOut 918
Running threw: ReferenceError: window is not defined

tryItOut 919
Compiling threw: SyntaxError: missing ) in parenthetical

tryItOut 920
Compiling threw: SyntaxError: invalid assignment left-hand side

tryItOut 921

tryItOut 922
It's an iterator!
Iterating succeeded, iterCount == 1

tryItOut 923

tryItOut 924

tryItOut 925
Running threw: ReferenceError: reference to undefined XML name *::*

tryItOut 926
Compiling threw: SyntaxError: missing variable name

tryItOut 927

tryItOut 928
Compiling threw: SyntaxError: missing ) after argument list

tryItOut 929
It's an iterator!
Iterating succeeded, iterCount == 1

tryItOut 930

tryItOut 931
Compiling threw: SyntaxError: missing ; after for-loop initializer

tryItOut 932
Compiling threw: SyntaxError: missing ) in parenthetical

tryItOut 933
Compiling threw: SyntaxError: missing ) in parenthetical

tryItOut 934
Compiling threw: SyntaxError: missing ) in parenthetical

tryItOut 935
Running threw: <x>
  <y/>
</x>

tryItOut 936

tryItOut 937

tryItOut 938

tryItOut 939

tryItOut 940
Running threw: ReferenceError: reference to undefined XML name *

tryItOut 941
Compiling threw: SyntaxError: invalid decrement operand

tryItOut 942
Compiling threw: SyntaxError: missing ; before statement

tryItOut 943
Running threw: 

tryItOut 944
Compiling threw: SyntaxError: missing ] after element list

tryItOut 945
Compiling threw: SyntaxError: missing ) in parenthetical

tryItOut 946
Compiling threw: SyntaxError: syntax error

tryItOut 947
Compiling threw: SyntaxError: missing ) in parenthetical

tryItOut 948

tryItOut 949

tryItOut 950

tryItOut 951
Compiling threw: SyntaxError: syntax error

tryItOut 952

tryItOut 953
Compiling threw: SyntaxError: invalid for/in left-hand side

tryItOut 954
Running threw: [object StopIteration]

tryItOut 955
Compiling threw: SyntaxError: syntax error

tryItOut 956
Compiling threw: SyntaxError: invalid destructuring assignment operator

tryItOut 957
Compiling threw: SyntaxError: missing ; after for-loop initializer

tryItOut 958

tryItOut 959

tryItOut 960

tryItOut 961
It's an iterator!
Iterating succeeded, iterCount == 1

tryItOut 962

tryItOut 963
It's an iterator!
Iterating succeeded, iterCount == 0

tryItOut 964
It's an iterator!
Iterating threw!
Iterating threw: TypeError: <x><y/></x>.call is not a function

tryItOut 965
Compiling threw: SyntaxError: missing ) in parenthetical

tryItOut 966

tryItOut 967

tryItOut 968
Compiling threw: SyntaxError: duplicate label

tryItOut 969
Running threw: ReferenceError: yyy is not defined

tryItOut 970

tryItOut 971
Compiling threw: SyntaxError: syntax error

tryItOut 972

tryItOut 973
Running threw: 

tryItOut 974
Compiling threw: SyntaxError: invalid assignment left-hand side

tryItOut 975
It's an iterator!
Iterating succeeded, iterCount == 1

tryItOut 976
Compiling threw: TypeError: redeclaration of var __proto__

tryItOut 977
Compiling threw: SyntaxError: illegal XML character

tryItOut 978
Compiling threw: SyntaxError: missing ; before statement

tryItOut 979
Compiling threw: SyntaxError: missing variable name

tryItOut 980
Compiling threw: SyntaxError: invalid assignment left-hand side

tryItOut 981
Running threw: [object StopIteration]

tryItOut 982

tryItOut 983
Compiling threw: SyntaxError: missing variable name

tryItOut 984
Running threw: 111

tryItOut 985

tryItOut 986
Compiling threw: SyntaxError: missing variable name

tryItOut 987
It's an iterator!
Iterating succeeded, iterCount == 1

tryItOut 988

tryItOut 989
Compiling threw: SyntaxError: missing variable name

tryItOut 990
Running threw: ReferenceError: reference to undefined XML name *::*

tryItOut 991
Compiling threw: SyntaxError: missing ] after element list

tryItOut 992

tryItOut 993

tryItOut 994
Running threw: ReferenceError: reference to undefined XML name @foo

tryItOut 995
Running threw: ReferenceError: reference to undefined XML name @foo

tryItOut 996

tryItOut 997

tryItOut 998

tryItOut 999

tryItOut 1000

ALL OK

Script done on Sat 04 May 2013 05:31:36 AM PDT
