Script started on Sat 04 May 2013 05:34:02 AM PDT
***
Targeting SpiderMonkey / Gecko.

tryItOut 1
Running threw: ReferenceError: __iterator__ is not defined

tryItOut 2
Compiling threw: SyntaxError: missing variable name

tryItOut 3

tryItOut 4

tryItOut 5
Compiling threw: SyntaxError: invalid assignment left-hand side

tryItOut 6

tryItOut 7
Running threw: 

tryItOut 8

tryItOut 9
Compiling threw: SyntaxError: invalid sharp variable definition

tryItOut 10
Compiling threw: SyntaxError: missing ) after for-loop control

tryItOut 11
It's an iterator!
Iterating threw!
Iterating threw: TypeError: false is not a constructor

tryItOut 12
Compiling threw: SyntaxError: syntax error

tryItOut 13
Running threw: TypeError: [1][<x><y/></x>] has no properties

tryItOut 14
Compiling threw: SyntaxError: missing : after property id

tryItOut 15
Compiling threw: SyntaxError: missing { before function body

tryItOut 16
Compiling threw: SyntaxError: syntax error

tryItOut 17
Compiling threw: SyntaxError: missing { before function body

tryItOut 18
Compiling threw: SyntaxError: missing variable name

tryItOut 19
Compiling threw: SyntaxError: missing ) in parenthetical

tryItOut 20

tryItOut 21

tryItOut 22
It's an iterator!
Iterating threw!
Iterating threw: SyntaxError: illegal XML character

tryItOut 23
It's an iterator!
Iterating threw!
Iterating threw: TypeError: invalid 'in' operand true

tryItOut 24
Running threw: ReferenceError: __iterator__ is not defined

tryItOut 25
Running threw: ReferenceError: z2 is not defined

tryItOut 26
Compiling threw: SyntaxError: syntax error

tryItOut 27
Compiling threw: SyntaxError: missing variable name

tryItOut 28
Compiling threw: SyntaxError: syntax error

tryItOut 29

tryItOut 30

tryItOut 31
It's an iterator!
Iterating succeeded, iterCount == 1

tryItOut 32
Compiling threw: SyntaxError: invalid assignment left-hand side

tryItOut 33

tryItOut 34

tryItOut 35
Compiling threw: SyntaxError: invalid for each loop

tryItOut 36
Compiling threw: SyntaxError: missing { before function body

tryItOut 37
Compiling threw: SyntaxError: invalid increment operand

tryItOut 38
Compiling threw: SyntaxError: syntax error

tryItOut 39
Compiling threw: SyntaxError: missing name in export statement

tryItOut 40

tryItOut 41
Compiling threw: TypeError: generator function anonymous returns a value

tryItOut 42
Compiling threw: SyntaxError: missing } after catch block

tryItOut 43
Compiling threw: TypeError: generator function anonymous returns a value

tryItOut 44
Running threw: TypeError: undefined has no properties

tryItOut 45

tryItOut 46

tryItOut 47
Running threw: SyntaxError: malformed formal parameter

tryItOut 48
Compiling threw: SyntaxError: missing variable name

tryItOut 49
Compiling threw: SyntaxError: syntax error

tryItOut 50
Running threw: ReferenceError: __iterator__ is not defined

tryItOut 51

tryItOut 52
It's an iterator!
Iterating succeeded, iterCount == 0

tryItOut 53

tryItOut 54
Compiling threw: TypeError: generator function anonymous returns a value

tryItOut 55
Compiling threw: SyntaxError: syntax error

tryItOut 56
Compiling threw: SyntaxError: missing ; after for-loop condition

tryItOut 57
Running threw: undefined

tryItOut 58
Compiling threw: SyntaxError: syntax error

tryItOut 59
Compiling threw: SyntaxError: invalid for each loop

tryItOut 60
Compiling threw: SyntaxError: missing variable name

tryItOut 61
It's an iterator!
Iterating threw!
Iterating threw: TypeError: "".prototype is not a function

tryItOut 62
Compiling threw: TypeError: redeclaration of const __proto__

tryItOut 63
Compiling threw: SyntaxError: syntax error

tryItOut 64
Compiling threw: TypeError: redeclaration of const prototype

tryItOut 65
Compiling threw: SyntaxError: missing } after let block

tryItOut 66
It's an iterator!
Iterating threw!
Iterating threw: 

tryItOut 67
before 104640, after 104640, break 0116f000

tryItOut 68

tryItOut 69
Compiling threw: SyntaxError: missing ) in parenthetical

tryItOut 70
Compiling threw: SyntaxError: missing ( before let head

tryItOut 71
Compiling threw: SyntaxError: invalid for each loop

tryItOut 72
Compiling threw: SyntaxError: missing ; before statement

tryItOut 73

tryItOut 74

tryItOut 75
Running threw: ReferenceError: prop is not defined

tryItOut 76

tryItOut 77

tryItOut 78
Compiling threw: SyntaxError: invalid for/in left-hand side

tryItOut 79

tryItOut 80
It's an iterator!
Iterating succeeded, iterCount == 0

tryItOut 81
Compiling threw: SyntaxError: syntax error

tryItOut 82

tryItOut 83
Compiling threw: SyntaxError: missing } after let block

tryItOut 84
Running threw: ReferenceError: yyy is not defined

tryItOut 85
Compiling threw: SyntaxError: syntax error

tryItOut 86
Compiling threw: SyntaxError: syntax error

tryItOut 87
Running threw: ReferenceError: yyy is not defined

tryItOut 88
Compiling threw: TypeError: generator function anonymous returns a value

tryItOut 89
Compiling threw: SyntaxError: missing ; before statement

tryItOut 90
Compiling threw: SyntaxError: invalid assignment left-hand side

tryItOut 91
Compiling threw: SyntaxError: missing ; before statement

tryItOut 92

tryItOut 93
Compiling threw: SyntaxError: missing ; after for-loop initializer

tryItOut 94
Compiling threw: SyntaxError: syntax error

tryItOut 95
Running threw: false

tryItOut 96
Compiling threw: SyntaxError: syntax error

tryItOut 97

tryItOut 98

tryItOut 99
Compiling threw: SyntaxError: syntax error

tryItOut 100

tryItOut 101
Running threw: ,

tryItOut 102
Compiling threw: SyntaxError: invalid label

tryItOut 103
It's an iterator!
Iterating succeeded, iterCount == 1

tryItOut 104
Compiling threw: SyntaxError: invalid decrement operand

tryItOut 105

tryItOut 106
It's an iterator!
Iterating succeeded, iterCount == 0

tryItOut 107
Compiling threw: SyntaxError: missing } in XML expression

tryItOut 108
Compiling threw: TypeError: generator function anonymous returns a value

tryItOut 109
Compiling threw: SyntaxError: syntax error

tryItOut 110
It's an iterator!
Iterating succeeded, iterCount == 1

tryItOut 111
Running threw: TypeError: <x>
  <y/>
</x> is not a constructor

tryItOut 112

tryItOut 113
Compiling threw: SyntaxError: invalid decrement operand

tryItOut 114
It's an iterator!
Iterating succeeded, iterCount == 2

tryItOut 115

tryItOut 116
Compiling threw: SyntaxError: syntax error

tryItOut 117

tryItOut 118

tryItOut 119

tryItOut 120
Compiling threw: SyntaxError: missing } in XML expression

tryItOut 121

tryItOut 122

tryItOut 123
Running threw: ReferenceError: z1 is not defined

tryItOut 124
It's an iterator!
Iterating succeeded, iterCount == 0

tryItOut 125
Compiling threw: SyntaxError: missing ) in parenthetical

tryItOut 126

tryItOut 127

tryItOut 128
Compiling threw: SyntaxError: missing ; before statement

tryItOut 129
Compiling threw: SyntaxError: invalid assignment left-hand side

tryItOut 130
Compiling threw: SyntaxError: missing } in compound statement

tryItOut 131

tryItOut 132
Compiling threw: SyntaxError: syntax error

tryItOut 133
Compiling threw: SyntaxError: syntax error

tryItOut 134
Compiling threw: SyntaxError: missing ; before statement

tryItOut 135
Compiling threw: SyntaxError: invalid increment operand

tryItOut 136

tryItOut 137

tryItOut 138

tryItOut 139
Compiling threw: SyntaxError: invalid decrement operand

tryItOut 140
Compiling threw: SyntaxError: syntax error

tryItOut 141
It's an iterator!
Iterating threw!
Iterating threw: ReferenceError: prop is not defined

tryItOut 142
It's an iterator!
Iterating succeeded, iterCount == 0

tryItOut 143

tryItOut 144
Compiling threw: SyntaxError: missing variable name

tryItOut 145
Compiling threw: SyntaxError: syntax error

tryItOut 146

tryItOut 147
Compiling threw: SyntaxError: invalid XML tag syntax

tryItOut 148
Compiling threw: SyntaxError: invalid decrement operand

tryItOut 149

tryItOut 150

tryItOut 151
It's an iterator!
Iterating threw!
Iterating threw: ReferenceError: prop is not defined

tryItOut 152
It's an iterator!
Iterating threw!
Iterating threw: false

tryItOut 153
Compiling threw: SyntaxError: invalid assignment left-hand side

tryItOut 154
It's an iterator!
Iterating succeeded, iterCount == 1

tryItOut 155
Compiling threw: SyntaxError: invalid sharp variable definition

tryItOut 156
Compiling threw: TypeError: generator function anonymous returns a value

tryItOut 157
Running threw: <x>
  <y/>
</x>

tryItOut 158
Compiling threw: SyntaxError: missing ( before formal parameters

tryItOut 159
Running threw: TypeError: false is not a function

tryItOut 160
Compiling threw: SyntaxError: missing = in destructuring declaration

tryItOut 161
Compiling threw: SyntaxError: missing ; before statement

tryItOut 162
Compiling threw: SyntaxError: invalid for/in left-hand side

tryItOut 163
Running threw: 

tryItOut 164
It's an iterator!
Iterating threw!
Iterating threw: <x>
  <y/>
</x>

tryItOut 165
Compiling threw: SyntaxError: invalid for each loop

tryItOut 166
Compiling threw: TypeError: redeclaration of var prototype

tryItOut 167

tryItOut 168
Compiling threw: TypeError: generator function anonymous returns a value

tryItOut 169
Compiling threw: SyntaxError: missing = in destructuring declaration

tryItOut 170

tryItOut 171

tryItOut 172
It's an iterator!
Iterating succeeded, iterCount == 1

tryItOut 173

tryItOut 174
Running threw: TypeError: __parent__ has no properties

tryItOut 175
Compiling threw: SyntaxError: missing variable name

tryItOut 176

tryItOut 177
Running threw: TypeError: arguments[0] has no properties

tryItOut 178

tryItOut 179

tryItOut 180

tryItOut 181
Compiling threw: SyntaxError: syntax error

tryItOut 182
Compiling threw: SyntaxError: syntax error

tryItOut 183
It's an iterator!
Iterating succeeded, iterCount == 1

tryItOut 184
Compiling threw: SyntaxError: syntax error

tryItOut 185

tryItOut 186
Running threw: ReferenceError: z2 is not defined

tryItOut 187
Running threw: undefined

tryItOut 188

tryItOut 189
Compiling threw: SyntaxError: missing ) in parenthetical

tryItOut 190
Compiling threw: SyntaxError: invalid decrement operand

tryItOut 191

tryItOut 192
Compiling threw: SyntaxError: missing } after let block

tryItOut 193
Compiling threw: SyntaxError: invalid XML tag syntax

tryItOut 194

tryItOut 195
It's an iterator!
Iterating succeeded, iterCount == 1

tryItOut 196

tryItOut 197
Running threw: Error: invalid sharp variable use #1#

tryItOut 198
It's an iterator!
Iterating threw!
Iterating threw: SyntaxError: invalid getter usage

tryItOut 199

tryItOut 200

tryItOut 201
Compiling threw: TypeError: generator function anonymous returns a value

tryItOut 202

tryItOut 203
Compiling threw: SyntaxError: missing ; before statement

tryItOut 204
Compiling threw: SyntaxError: syntax error

tryItOut 205

tryItOut 206
Compiling threw: SyntaxError: duplicate label

tryItOut 207

tryItOut 208

tryItOut 209
Compiling threw: SyntaxError: missing ) in parenthetical

tryItOut 210
Running threw: TypeError: null has no properties

tryItOut 211
Compiling threw: SyntaxError: unterminated string literal

tryItOut 212

tryItOut 213
Compiling threw: SyntaxError: missing ; before statement

tryItOut 214
Running threw: TypeError: /x/g.__lookupGetter__("constructor") has no properties

tryItOut 215
Compiling threw: SyntaxError: missing { before function body

tryItOut 216

tryItOut 217
Compiling threw: SyntaxError: missing ; before statement

tryItOut 218

tryItOut 219
Running threw: ReferenceError: z1 is not defined

tryItOut 220
Compiling threw: SyntaxError: invalid for/in left-hand side

tryItOut 221
It's an iterator!
Iterating threw!
Iterating threw: false

tryItOut 222

tryItOut 223
Running threw: 

tryItOut 224
Running threw: 

tryItOut 225

tryItOut 226

tryItOut 227
Compiling threw: SyntaxError: invalid decrement operand

tryItOut 228
Compiling threw: SyntaxError: missing ) after switch expression

tryItOut 229
Compiling threw: SyntaxError: missing variable name

tryItOut 230

tryItOut 231

tryItOut 232
Compiling threw: SyntaxError: invalid increment operand

tryItOut 233
Compiling threw: SyntaxError: illegal character

tryItOut 234
It's an iterator!
before 174400, after 174400, break 0120a000
before 174400, after 174400, break 0120a000
before 174400, after 174400, break 0120a000
before 174400, after 174400, break 0120a000
before 174400, after 174400, break 0120a000
Iterating succeeded, iterCount == 1

tryItOut 235
It's an iterator!
Iterating succeeded, iterCount == 0

tryItOut 236

tryItOut 237
Compiling threw: SyntaxError: missing ; before statement

tryItOut 238

tryItOut 239
Compiling threw: SyntaxError: syntax error

tryItOut 240
It's an iterator!
Iterating succeeded, iterCount == 1

tryItOut 241
Compiling threw: SyntaxError: missing name after . operator

tryItOut 242
Running threw: TypeError: __parent__ has no properties

tryItOut 243
Compiling threw: SyntaxError: missing variable name

tryItOut 244
Compiling threw: SyntaxError: illegal XML character

tryItOut 245
Compiling threw: SyntaxError: syntax error

tryItOut 246
Compiling threw: SyntaxError: missing ; before statement

tryItOut 247

tryItOut 248
Compiling threw: SyntaxError: missing variable name

tryItOut 249
Compiling threw: SyntaxError: invalid decrement operand

tryItOut 250
Running threw: [object Object]

tryItOut 251

tryItOut 252

tryItOut 253
Compiling threw: SyntaxError: missing { before function body

tryItOut 254
It's an iterator!
Iterating succeeded, iterCount == 0

tryItOut 255
Compiling threw: SyntaxError: invalid for/in left-hand side

tryItOut 256
Compiling threw: SyntaxError: missing { before function body

tryItOut 257
Compiling threw: TypeError: generator function anonymous returns a value

tryItOut 258
Compiling threw: TypeError: generator function anonymous returns a value

tryItOut 259

tryItOut 260
Compiling threw: SyntaxError: syntax error

tryItOut 261
Compiling threw: SyntaxError: missing ) in parenthetical

tryItOut 262
Running threw: <x>
  <y/>
</x>

tryItOut 263
Compiling threw: SyntaxError: missing } after property list

tryItOut 264

tryItOut 265

tryItOut 266
Compiling threw: SyntaxError: missing ; before statement

tryItOut 267
Running threw: ReferenceError: prop is not defined

tryItOut 268
Compiling threw: SyntaxError: syntax error

tryItOut 269
Running threw: /x/

tryItOut 270
It's an iterator!
Iterating succeeded, iterCount == 0

tryItOut 271
Compiling threw: SyntaxError: invalid destructuring assignment operator

tryItOut 272
Compiling threw: SyntaxError: missing variable name

tryItOut 273

tryItOut 274

tryItOut 275
It's an iterator!
Iterating threw!
Iterating threw: TypeError: prototype has no properties

tryItOut 276

tryItOut 277
Compiling threw: SyntaxError: syntax error

tryItOut 278
Compiling threw: SyntaxError: missing ) after condition

tryItOut 279

tryItOut 280

tryItOut 281
Compiling threw: SyntaxError: missing { before function body

tryItOut 282

tryItOut 283
Running threw: ReferenceError: z1 is not defined

tryItOut 284
Compiling threw: SyntaxError: missing ) in parenthetical

tryItOut 285

tryItOut 286
Compiling threw: TypeError: generator function anonymous returns a value

tryItOut 287
Compiling threw: TypeError: generator function anonymous returns a value

tryItOut 288
Compiling threw: SyntaxError: invalid assignment left-hand side

tryItOut 289
It's an iterator!
Iterating threw!
Iterating threw: ReferenceError: yyy is not defined

tryItOut 290
Compiling threw: SyntaxError: invalid assignment left-hand side

tryItOut 291
Compiling threw: SyntaxError: invalid destructuring assignment operator

tryItOut 292

tryItOut 293
Compiling threw: SyntaxError: missing } after let block

tryItOut 294
Running threw: true

tryItOut 295
Running threw: TypeError: this.zzz has no properties

tryItOut 296
Compiling threw: SyntaxError: syntax error

tryItOut 297

tryItOut 298
Compiling threw: SyntaxError: invalid for each loop

tryItOut 299
Compiling threw: TypeError: generator function anonymous returns a value

tryItOut 300
Compiling threw: TypeError: redeclaration of variable __proto__

tryItOut 301
Compiling threw: SyntaxError: duplicate label

tryItOut 302
Compiling threw: SyntaxError: missing { before function body

tryItOut 303
Compiling threw: SyntaxError: invalid assignment left-hand side

tryItOut 304
Compiling threw: SyntaxError: missing ; before statement

tryItOut 305
It's an iterator!
Iterating threw!
Iterating threw: TypeError: uneval(/x/) is not a function

tryItOut 306
Compiling threw: SyntaxError: invalid for/in left-hand side

tryItOut 307

tryItOut 308

tryItOut 309
Compiling threw: SyntaxError: invalid increment operand

tryItOut 310
Compiling threw: SyntaxError: syntax error

tryItOut 311

tryItOut 312
Running threw: function ([y]) {
}

tryItOut 313
Compiling threw: SyntaxError: missing { before function body

tryItOut 314

tryItOut 315
Compiling threw: SyntaxError: invalid for each loop

tryItOut 316
Compiling threw: SyntaxError: missing { before function body

tryItOut 317
Running threw: <x>
  <y/>
</x>

tryItOut 318
Compiling threw: SyntaxError: invalid for each loop

tryItOut 319
Compiling threw: SyntaxError: invalid default XML namespace

tryItOut 320
Running threw: ReferenceError: z1 is not defined

tryItOut 321
Compiling threw: SyntaxError: syntax error

tryItOut 322
Compiling threw: SyntaxError: syntax error

tryItOut 323
Compiling threw: SyntaxError: syntax error

tryItOut 324
Compiling threw: SyntaxError: invalid increment operand

tryItOut 325
It's an iterator!
Iterating threw!
Iterating threw: TypeError: [1, undefined] is not a function

tryItOut 326
Compiling threw: TypeError: redeclaration of const __parent__

tryItOut 327
Running threw: TypeError: this.zzz has no properties

tryItOut 328
Compiling threw: SyntaxError: invalid XML name

tryItOut 329

tryItOut 330
It's an iterator!
Iterating succeeded, iterCount == 0

tryItOut 331
Running threw: TypeError: this.zzz has no properties

tryItOut 332
Compiling threw: SyntaxError: missing ) after switch expression

tryItOut 333
Compiling threw: SyntaxError: invalid assignment left-hand side

tryItOut 334
Compiling threw: SyntaxError: missing } after let block

tryItOut 335

tryItOut 336
Compiling threw: SyntaxError: missing ; before statement

tryItOut 337
Compiling threw: SyntaxError: syntax error

tryItOut 338
Compiling threw: SyntaxError: illegal XML character

tryItOut 339

tryItOut 340

tryItOut 341
Compiling threw: TypeError: redeclaration of variable __parent__

tryItOut 342
Compiling threw: SyntaxError: missing = in destructuring declaration

tryItOut 343
Running threw: ReferenceError: z1 is not defined

tryItOut 344
Compiling threw: SyntaxError: missing { before function body

tryItOut 345

tryItOut 346
Compiling threw: SyntaxError: syntax error

tryItOut 347
It's an iterator!
Iterating succeeded, iterCount == 0

tryItOut 348
Compiling threw: SyntaxError: unterminated regular expression literal

tryItOut 349
It's an iterator!
before 174400, after 174400, break 0121c000
before 174400, after 174400, break 0121c000
before 174400, after 174400, break 0121c000
before 174400, after 174400, break 0121c000
Iterating succeeded, iterCount == 1

tryItOut 350
Compiling threw: SyntaxError: invalid assignment left-hand side

tryItOut 351
Compiling threw: SyntaxError: invalid for/in left-hand side

tryItOut 352
Compiling threw: SyntaxError: missing ) after condition

tryItOut 353
Compiling threw: SyntaxError: duplicate label

tryItOut 354
Compiling threw: SyntaxError: invalid assignment left-hand side

tryItOut 355
Compiling threw: SyntaxError: syntax error

tryItOut 356
Compiling threw: SyntaxError: missing } after property list

tryItOut 357
Running threw: TypeError: undefined has no properties

tryItOut 358
Compiling threw: SyntaxError: invalid sharp variable definition

tryItOut 359
Compiling threw: SyntaxError: missing variable name

tryItOut 360
Compiling threw: SyntaxError: missing variable name

tryItOut 361
Compiling threw: SyntaxError: missing } after finally block

tryItOut 362
Running threw: TypeError: true.__lookupGetter__("prototype") has no properties

tryItOut 363

tryItOut 364
It's an iterator!
Iterating threw!
Iterating threw: TypeError: arguments[0] has no properties

tryItOut 365
Compiling threw: SyntaxError: missing variable name

tryItOut 366

tryItOut 367
Compiling threw: SyntaxError: missing = in destructuring declaration

tryItOut 368

tryItOut 369
Compiling threw: SyntaxError: invalid assignment left-hand side

tryItOut 370
Compiling threw: SyntaxError: missing { before function body

tryItOut 371
Compiling threw: SyntaxError: missing variable name

tryItOut 372

tryItOut 373
Compiling threw: SyntaxError: missing variable name

tryItOut 374
Running threw: <x>
  <y/>
</x>

tryItOut 375
It's an iterator!
Iterating succeeded, iterCount == 1

tryItOut 376
Compiling threw: TypeError: redeclaration of const __parent__

tryItOut 377
Compiling threw: SyntaxError: invalid for each loop

tryItOut 378

tryItOut 379
Compiling threw: SyntaxError: invalid assignment left-hand side

tryItOut 380
Compiling threw: SyntaxError: missing ; before statement

tryItOut 381
It's an iterator!
Iterating threw!
Iterating threw: ReferenceError: z1 is not defined

tryItOut 382
Compiling threw: SyntaxError: missing { before function body

tryItOut 383
Compiling threw: SyntaxError: missing ) in parenthetical

tryItOut 384

tryItOut 385
Running threw: ReferenceError: z1 is not defined

tryItOut 386
Compiling threw: SyntaxError: invalid decrement operand

tryItOut 387

tryItOut 388
Compiling threw: TypeError: generator function anonymous returns a value

tryItOut 389
Compiling threw: SyntaxError: missing { before function body

tryItOut 390
Compiling threw: SyntaxError: invalid for/in left-hand side

tryItOut 391
Compiling threw: SyntaxError: invalid assignment left-hand side

tryItOut 392
Compiling threw: SyntaxError: invalid assignment left-hand side

tryItOut 393
Compiling threw: SyntaxError: syntax error

tryItOut 394
Running threw: ReferenceError: z1 is not defined

tryItOut 395
Compiling threw: SyntaxError: yield expression must be parenthesized

tryItOut 396
Compiling threw: SyntaxError: syntax error

tryItOut 397
It's an iterator!
Iterating succeeded, iterCount == 1

tryItOut 398
Compiling threw: TypeError: redeclaration of variable prop

tryItOut 399

tryItOut 400

tryItOut 401
Compiling threw: TypeError: generator function anonymous returns a value

tryItOut 402
Compiling threw: SyntaxError: missing ; before statement

tryItOut 403
Compiling threw: TypeError: generator function anonymous returns a value

tryItOut 404
Compiling threw: SyntaxError: missing ; before statement

tryItOut 405
Compiling threw: TypeError: redeclaration of var prototype

tryItOut 406

tryItOut 407

tryItOut 408
Compiling threw: SyntaxError: missing { before function body

tryItOut 409
Compiling threw: SyntaxError: missing variable name

tryItOut 410
Running threw: TypeError: "" is not a constructor

tryItOut 411

tryItOut 412
Compiling threw: TypeError: redeclaration of var __count__

tryItOut 413
Compiling threw: SyntaxError: syntax error

tryItOut 414
Compiling threw: SyntaxError: missing ; before statement

tryItOut 415
Compiling threw: SyntaxError: missing ; before statement

tryItOut 416
Compiling threw: SyntaxError: missing ) after condition

tryItOut 417
It's an iterator!
Iterating succeeded, iterCount == 1

tryItOut 418

tryItOut 419
Compiling threw: SyntaxError: unterminated regular expression literal

tryItOut 420
It's an iterator!
Iterating succeeded, iterCount == 1

tryItOut 421
Compiling threw: SyntaxError: syntax error

tryItOut 422
Compiling threw: SyntaxError: syntax error

tryItOut 423
Compiling threw: SyntaxError: syntax error

tryItOut 424

tryItOut 425
It's an iterator!
Iterating succeeded, iterCount == 1

tryItOut 426
Compiling threw: SyntaxError: illegal XML character

tryItOut 427
Compiling threw: SyntaxError: missing { before function body

tryItOut 428
Compiling threw: SyntaxError: missing ; before statement

tryItOut 429

tryItOut 430

tryItOut 431
Compiling threw: SyntaxError: missing ; before statement

tryItOut 432
Compiling threw: TypeError: generator function anonymous returns a value

tryItOut 433
It's an iterator!
Iterating threw!
Iterating threw: TypeError: #3={, a:#3#}.__defineGetter__("__iterator__", function (q) {return q;}) has no properties

tryItOut 434
It's an iterator!
Iterating threw!
Iterating threw: ReferenceError: z2 is not defined

tryItOut 435
Compiling threw: SyntaxError: illegal XML character

tryItOut 436
It's an iterator!
Iterating threw!
Iterating threw: TypeError: undefined has no properties

tryItOut 437

tryItOut 438

tryItOut 439
Compiling threw: SyntaxError: missing ; before statement

tryItOut 440
Compiling threw: SyntaxError: invalid sharp variable definition

tryItOut 441

tryItOut 442
Compiling threw: SyntaxError: syntax error

tryItOut 443

tryItOut 444
It's an iterator!
Iterating succeeded, iterCount == 0

tryItOut 445

tryItOut 446

tryItOut 447
Compiling threw: SyntaxError: missing variable name

tryItOut 448
Compiling threw: TypeError: redeclaration of variable prototype

tryItOut 449
Compiling threw: SyntaxError: missing ( before let head

tryItOut 450
Running threw: TypeError: redeclaration of const __parent__

tryItOut 451
It's an iterator!
Iterating threw!
Iterating threw: <x>
  <y/>
</x>

tryItOut 452
Running threw: TypeError: ({}) is not a function

tryItOut 453

tryItOut 454
It's an iterator!
Iterating succeeded, iterCount == 0

tryItOut 455

tryItOut 456
It's an iterator!
Iterating threw!
Iterating threw: ReferenceError: z1 is not defined

tryItOut 457
Compiling threw: SyntaxError: syntax error

tryItOut 458
Running threw: ReferenceError: z1 is not defined

tryItOut 459
Compiling threw: SyntaxError: missing formal parameter

tryItOut 460

tryItOut 461
Compiling threw: SyntaxError: missing = in destructuring declaration

tryItOut 462
Running threw: Error: invalid sharp variable use #1#

tryItOut 463
Compiling threw: SyntaxError: missing ; before statement

tryItOut 464
Compiling threw: SyntaxError: duplicate label

tryItOut 465

tryItOut 466
Compiling threw: SyntaxError: missing ; before statement

tryItOut 467

tryItOut 468
Compiling threw: TypeError: generator function anonymous returns a value

tryItOut 469
Compiling threw: SyntaxError: invalid assignment left-hand side

tryItOut 470
Compiling threw: SyntaxError: syntax error

tryItOut 471
Running threw: Error: invalid sharp variable use #1#

tryItOut 472
Compiling threw: SyntaxError: invalid decrement operand

tryItOut 473
Compiling threw: SyntaxError: missing ) after argument list

tryItOut 474

tryItOut 475

tryItOut 476
Compiling threw: SyntaxError: missing variable name

tryItOut 477

tryItOut 478
Compiling threw: SyntaxError: missing variable name

tryItOut 479
It's an iterator!
Iterating threw!
Iterating threw: TypeError: second argument to Function.prototype.apply must be an array

tryItOut 480
Compiling threw: SyntaxError: missing = in destructuring declaration

tryItOut 481
Compiling threw: SyntaxError: missing { before function body

tryItOut 482
Compiling threw: SyntaxError: syntax error

tryItOut 483
Compiling threw: SyntaxError: missing ) in parenthetical

tryItOut 484

tryItOut 485
Compiling threw: SyntaxError: invalid destructuring assignment operator

tryItOut 486
Compiling threw: SyntaxError: missing variable name

tryItOut 487
It's an iterator!
Iterating succeeded, iterCount == 1

tryItOut 488
Compiling threw: SyntaxError: missing variable name

tryItOut 489

tryItOut 490

tryItOut 491

tryItOut 492

tryItOut 493
Compiling threw: SyntaxError: invalid increment operand

tryItOut 494

tryItOut 495
Compiling threw: TypeError: redeclaration of const __iterator__

tryItOut 496
Compiling threw: SyntaxError: syntax error

tryItOut 497
Compiling threw: SyntaxError: invalid switch statement

tryItOut 498
Compiling threw: SyntaxError: invalid assignment left-hand side

tryItOut 499
Running threw: ReferenceError: z1 is not defined

tryItOut 500
Compiling threw: SyntaxError: missing ) after switch expression

tryItOut 501
Compiling threw: SyntaxError: invalid assignment left-hand side

tryItOut 502

tryItOut 503
It's an iterator!
Iterating succeeded, iterCount == 0

tryItOut 504
Running threw: TypeError: redeclaration of const __parent__

tryItOut 505
Compiling threw: SyntaxError: missing ; before statement

tryItOut 506
Compiling threw: TypeError: generator function anonymous returns a value

tryItOut 507

tryItOut 508
Compiling threw: SyntaxError: missing variable name

tryItOut 509

tryItOut 510
Compiling threw: SyntaxError: syntax error

tryItOut 511
Compiling threw: SyntaxError: invalid XML name

tryItOut 512
It's an iterator!
Iterating succeeded, iterCount == 1

tryItOut 513
Compiling threw: TypeError: generator function anonymous returns a value

tryItOut 514
Compiling threw: TypeError: redeclaration of variable __noSuchMethod__

tryItOut 515
It's an iterator!
Iterating succeeded, iterCount == 2

tryItOut 516
Compiling threw: SyntaxError: missing variable name

tryItOut 517
Compiling threw: TypeError: generator function anonymous returns a value

tryItOut 518
Running threw: true

tryItOut 519
Compiling threw: SyntaxError: missing ) in parenthetical

tryItOut 520

tryItOut 521
Compiling threw: SyntaxError: missing ) after condition

tryItOut 522
Compiling threw: SyntaxError: syntax error

tryItOut 523

tryItOut 524
Compiling threw: TypeError: redeclaration of var __noSuchMethod__

tryItOut 525
It's an iterator!
Iterating succeeded, iterCount == 1

tryItOut 526
It's an iterator!
Iterating succeeded, iterCount == 1

tryItOut 527
Compiling threw: SyntaxError: missing { before function body

tryItOut 528

tryItOut 529

tryItOut 530

tryItOut 531

tryItOut 532

tryItOut 533
Compiling threw: SyntaxError: syntax error

tryItOut 534
It's an iterator!
Iterating succeeded, iterCount == 1

tryItOut 535

tryItOut 536
Compiling threw: SyntaxError: syntax error

tryItOut 537
Running threw: TypeError: undefined has no properties

tryItOut 538
It's an iterator!
Iterating succeeded, iterCount == 2

tryItOut 539
Compiling threw: SyntaxError: syntax error

tryItOut 540

tryItOut 541
It's an iterator!
Iterating threw!
Iterating threw: 

tryItOut 542
It's an iterator!
Iterating threw!
Iterating threw: false

tryItOut 543

tryItOut 544
Running threw: /x/g

tryItOut 545

tryItOut 546
Compiling threw: TypeError: generator function anonymous returns a value

tryItOut 547
It's an iterator!
Iterating succeeded, iterCount == 1

tryItOut 548

tryItOut 549
Compiling threw: SyntaxError: missing { before function body

tryItOut 550

tryItOut 551
Compiling threw: SyntaxError: missing ; after for-loop initializer

tryItOut 552
Running threw: TypeError: <x>
  <y/>
</x> is not a function

tryItOut 553

tryItOut 554
Compiling threw: SyntaxError: missing ; before statement

tryItOut 555
Compiling threw: SyntaxError: syntax error

tryItOut 556
Compiling threw: SyntaxError: invalid increment operand

tryItOut 557
Running threw: TypeError: <x>
  <y/>
</x> is not a constructor

tryItOut 558

tryItOut 559
It's an iterator!
Iterating succeeded, iterCount == 1

tryItOut 560
Compiling threw: SyntaxError: syntax error

tryItOut 561

tryItOut 562

tryItOut 563
Compiling threw: SyntaxError: syntax error

tryItOut 564

tryItOut 565
Running threw: 

tryItOut 566

tryItOut 567

tryItOut 568

tryItOut 569
Running threw: TypeError: p.z = <x><y/></x> is not a function

tryItOut 570
It's an iterator!
Iterating threw!
Iterating threw: /x/g

tryItOut 571
Compiling threw: SyntaxError: missing : after property id

tryItOut 572

tryItOut 573

tryItOut 574
Compiling threw: SyntaxError: missing { before function body

tryItOut 575
Compiling threw: TypeError: generator function anonymous returns a value

tryItOut 576
Compiling threw: SyntaxError: missing ; before statement

tryItOut 577
Compiling threw: TypeError: redeclaration of const __proto__

tryItOut 578

tryItOut 579
It's an iterator!
Iterating threw!
Iterating threw: SyntaxError: illegal XML character

tryItOut 580

tryItOut 581

tryItOut 582
Compiling threw: SyntaxError: missing variable name

tryItOut 583

tryItOut 584
Compiling threw: SyntaxError: syntax error

tryItOut 585

tryItOut 586
Compiling threw: SyntaxError: missing variable name

tryItOut 587

tryItOut 588
Compiling threw: SyntaxError: missing ; after for-loop condition

tryItOut 589

tryItOut 590
Running threw: true

tryItOut 591
Compiling threw: SyntaxError: invalid assignment left-hand side

tryItOut 592

tryItOut 593

tryItOut 594

tryItOut 595
Compiling threw: SyntaxError: syntax error

tryItOut 596
Compiling threw: SyntaxError: invalid for/in left-hand side

tryItOut 597

tryItOut 598

tryItOut 599

tryItOut 600
Compiling threw: SyntaxError: missing variable name

tryItOut 601
Running threw: [object StopIteration]

tryItOut 602
Compiling threw: SyntaxError: invalid increment operand

tryItOut 603
Compiling threw: SyntaxError: invalid assignment left-hand side

tryItOut 604

tryItOut 605
Compiling threw: SyntaxError: missing ; before statement

tryItOut 606
Compiling threw: SyntaxError: missing variable name

tryItOut 607

tryItOut 608
Compiling threw: SyntaxError: syntax error

tryItOut 609

tryItOut 610
Compiling threw: SyntaxError: syntax error

tryItOut 611

tryItOut 612
Compiling threw: SyntaxError: missing formal parameter

tryItOut 613
Compiling threw: SyntaxError: missing variable name

tryItOut 614
Compiling threw: SyntaxError: missing variable name

tryItOut 615
Compiling threw: SyntaxError: invalid assignment left-hand side

tryItOut 616

tryItOut 617
Compiling threw: SyntaxError: syntax error

tryItOut 618

tryItOut 619

tryItOut 620
Compiling threw: SyntaxError: missing ; before statement

tryItOut 621
Compiling threw: SyntaxError: invalid assignment left-hand side

tryItOut 622

tryItOut 623
It's an iterator!
Iterating succeeded, iterCount == 1

tryItOut 624

tryItOut 625
It's an iterator!
Iterating succeeded, iterCount == 0

tryItOut 626
Compiling threw: SyntaxError: missing = in destructuring declaration

tryItOut 627
It's an iterator!
Iterating succeeded, iterCount == 1

tryItOut 628
Running threw: null

tryItOut 629
Compiling threw: SyntaxError: missing ( before formal parameters

tryItOut 630
It's an iterator!
Iterating succeeded, iterCount == 2

tryItOut 631
Running threw: [object StopIteration]

tryItOut 632
Compiling threw: SyntaxError: missing ) after condition

tryItOut 633

tryItOut 634
Compiling threw: SyntaxError: missing = in destructuring declaration

tryItOut 635
Compiling threw: SyntaxError: invalid for each loop

tryItOut 636
Compiling threw: SyntaxError: illegal XML character

tryItOut 637
It's an iterator!
Iterating threw!
Iterating threw: TypeError: __parent__ has no properties

tryItOut 638

tryItOut 639
Running threw: null

tryItOut 640
It's an iterator!
Iterating succeeded, iterCount == 1

tryItOut 641
Compiling threw: SyntaxError: missing { before function body

tryItOut 642
It's an iterator!
Iterating threw!
Iterating threw: ReferenceError: z1 is not defined

tryItOut 643
Running threw: TypeError: <x><y/></x>.__lookupGetter__("__iterator__") has no properties

tryItOut 644
Compiling threw: SyntaxError: invalid for/in left-hand side

tryItOut 645

tryItOut 646

tryItOut 647
Running threw: ReferenceError: x is not defined

tryItOut 648
Compiling threw: SyntaxError: missing ) in parenthetical

tryItOut 649
Compiling threw: TypeError: generator function anonymous returns a value

tryItOut 650

tryItOut 651

tryItOut 652
Compiling threw: SyntaxError: invalid increment operand

tryItOut 653

tryItOut 654
It's an iterator!
Iterating succeeded, iterCount == 1

tryItOut 655

tryItOut 656
Compiling threw: SyntaxError: invalid decrement operand

tryItOut 657
Compiling threw: TypeError: generator function anonymous returns a value

tryItOut 658
Compiling threw: SyntaxError: missing ; before statement

tryItOut 659
Compiling threw: SyntaxError: invalid XML tag syntax

tryItOut 660
Compiling threw: SyntaxError: invalid assignment left-hand side

tryItOut 661
Running threw: /x/

tryItOut 662
It's an iterator!
Iterating succeeded, iterCount == 0

tryItOut 663

tryItOut 664
Compiling threw: SyntaxError: missing { before function body

tryItOut 665
Compiling threw: SyntaxError: missing ; before statement

tryItOut 666

tryItOut 667
Compiling threw: SyntaxError: missing variable name

tryItOut 668
Compiling threw: TypeError: generator function anonymous returns a value

tryItOut 669
It's an iterator!
Iterating succeeded, iterCount == 1

tryItOut 670
Compiling threw: SyntaxError: missing } after let block

tryItOut 671

tryItOut 672
Compiling threw: SyntaxError: syntax error

tryItOut 673

tryItOut 674

tryItOut 675
Compiling threw: SyntaxError: missing : after property id

tryItOut 676

tryItOut 677
Compiling threw: SyntaxError: duplicate label

tryItOut 678
Compiling threw: SyntaxError: syntax error

tryItOut 679
Compiling threw: SyntaxError: syntax error

tryItOut 680
Compiling threw: SyntaxError: missing = in destructuring declaration

tryItOut 681
It's an iterator!
Iterating succeeded, iterCount == 1

tryItOut 682

tryItOut 683
It's an iterator!
Iterating threw!
Iterating threw: TypeError: null has no properties

tryItOut 684

tryItOut 685

tryItOut 686
Compiling threw: SyntaxError: invalid destructuring assignment operator

tryItOut 687
It's an iterator!
Iterating succeeded, iterCount == 0

tryItOut 688
Compiling threw: SyntaxError: syntax error

tryItOut 689
Compiling threw: TypeError: generator function anonymous returns a value

tryItOut 690
Compiling threw: SyntaxError: syntax error

tryItOut 691

tryItOut 692

tryItOut 693

tryItOut 694

tryItOut 695

tryItOut 696

tryItOut 697
Compiling threw: SyntaxError: syntax error

tryItOut 698
Compiling threw: SyntaxError: invalid decrement operand

tryItOut 699

tryItOut 700
Compiling threw: SyntaxError: missing variable name

tryItOut 701
Compiling threw: SyntaxError: missing } after property list

tryItOut 702
Compiling threw: SyntaxError: invalid property id

tryItOut 703
Compiling threw: SyntaxError: syntax error

tryItOut 704

tryItOut 705

tryItOut 706
It's an iterator!
Iterating threw!
Iterating threw: ReferenceError: z1 is not defined

tryItOut 707
Compiling threw: SyntaxError: invalid assignment left-hand side

tryItOut 708

tryItOut 709
Running threw: function anonymous() {
}

tryItOut 710
Compiling threw: SyntaxError: yield expression must be parenthesized

tryItOut 711
Compiling threw: SyntaxError: missing variable name

tryItOut 712
Compiling threw: SyntaxError: invalid assignment left-hand side

tryItOut 713
It's an iterator!
Iterating threw!
Iterating threw: TypeError: arguments[0] has no properties

tryItOut 714
Compiling threw: SyntaxError: invalid destructuring assignment operator

tryItOut 715

tryItOut 716
Compiling threw: SyntaxError: syntax error

tryItOut 717
Compiling threw: SyntaxError: syntax error

tryItOut 718

tryItOut 719
Compiling threw: SyntaxError: invalid for each loop

tryItOut 720
Running threw: ReferenceError: z2 is not defined

tryItOut 721
It's an iterator!
Iterating succeeded, iterCount == 1

tryItOut 722

tryItOut 723
Compiling threw: SyntaxError: invalid decrement operand

tryItOut 724
It's an iterator!
Iterating succeeded, iterCount == 0

tryItOut 725

tryItOut 726

tryItOut 727

tryItOut 728
Compiling threw: SyntaxError: duplicate label

tryItOut 729
Compiling threw: SyntaxError: invalid destructuring assignment operator

tryItOut 730
Compiling threw: SyntaxError: missing } after let block

tryItOut 731
Running threw: TypeError: redeclaration of var __proto__

tryItOut 732
Compiling threw: SyntaxError: missing ; before statement

tryItOut 733
Compiling threw: TypeError: redeclaration of const prototype

tryItOut 734

tryItOut 735

tryItOut 736

tryItOut 737
Compiling threw: SyntaxError: missing { before function body

tryItOut 738
It's an iterator!
Iterating succeeded, iterCount == 1

tryItOut 739
It's an iterator!
Iterating succeeded, iterCount == 1

tryItOut 740

tryItOut 741
Running threw: ReferenceError: z1 is not defined

tryItOut 742
Running threw: ReferenceError: h is not defined

tryItOut 743
It's an iterator!
Iterating succeeded, iterCount == 0

tryItOut 744
Compiling threw: SyntaxError: unterminated regular expression literal

tryItOut 745

tryItOut 746
It's an iterator!
Iterating succeeded, iterCount == 1

tryItOut 747
It's an iterator!
Iterating succeeded, iterCount == 2

tryItOut 748
Compiling threw: SyntaxError: syntax error

tryItOut 749
Compiling threw: SyntaxError: invalid XML tag syntax

tryItOut 750
Compiling threw: SyntaxError: missing { before function body

tryItOut 751

tryItOut 752
It's an iterator!
Iterating threw!
Iterating threw: ReferenceError: gcreturn is not defined

tryItOut 753
Running threw: ReferenceError: z1 is not defined

tryItOut 754
Compiling threw: SyntaxError: missing ; before statement

tryItOut 755

tryItOut 756

tryItOut 757
Compiling threw: SyntaxError: invalid decrement operand

tryItOut 758
Compiling threw: SyntaxError: syntax error

tryItOut 759

tryItOut 760
Compiling threw: SyntaxError: missing : after property id

tryItOut 761
Compiling threw: SyntaxError: missing variable name

tryItOut 762

tryItOut 763
Compiling threw: SyntaxError: missing ; before statement

tryItOut 764
Compiling threw: SyntaxError: missing ; before statement

tryItOut 765

tryItOut 766
Compiling threw: SyntaxError: invalid label

tryItOut 767

tryItOut 768
Compiling threw: SyntaxError: unterminated regular expression literal

tryItOut 769
Compiling threw: SyntaxError: invalid for/in left-hand side

tryItOut 770

tryItOut 771
Compiling threw: TypeError: generator function anonymous returns a value

tryItOut 772
Compiling threw: SyntaxError: duplicate label

tryItOut 773
Compiling threw: SyntaxError: syntax error

tryItOut 774
Running threw: TypeError: invalid 'instanceof' operand ({})

tryItOut 775
Compiling threw: SyntaxError: missing ; before statement

tryItOut 776
Running threw: TypeError: p.z = [[]] is not a function

tryItOut 777
Compiling threw: SyntaxError: missing ) after condition

tryItOut 778
Running threw: TypeError: arguments[0] has no properties

tryItOut 779

tryItOut 780
Running threw: TypeError: undefined has no properties

tryItOut 781
Running threw: true

tryItOut 782
Compiling threw: SyntaxError: missing ) in parenthetical

tryItOut 783
Running threw: Error: invalid sharp variable use #1#

tryItOut 784
Compiling threw: SyntaxError: missing ; before statement

tryItOut 785
Compiling threw: SyntaxError: missing variable name

tryItOut 786
Compiling threw: SyntaxError: missing ; after for-loop initializer

tryItOut 787
Compiling threw: SyntaxError: missing { before function body

tryItOut 788
Compiling threw: SyntaxError: invalid assignment left-hand side

tryItOut 789
Compiling threw: SyntaxError: invalid increment operand

tryItOut 790
Compiling threw: SyntaxError: missing = in destructuring declaration

tryItOut 791

tryItOut 792
Compiling threw: SyntaxError: missing ) after condition

tryItOut 793
Compiling threw: TypeError: generator function anonymous returns a value

tryItOut 794
Compiling threw: SyntaxError: syntax error

tryItOut 795
Compiling threw: SyntaxError: missing ) after formal parameters

tryItOut 796

tryItOut 797
Compiling threw: TypeError: generator function anonymous returns a value

tryItOut 798
Compiling threw: SyntaxError: missing variable name

tryItOut 799
Compiling threw: SyntaxError: syntax error

tryItOut 800
Running threw: ReferenceError: z1 is not defined

tryItOut 801

tryItOut 802

tryItOut 803
Running threw: <x>
  <y/>
</x>

tryItOut 804

tryItOut 805

tryItOut 806
It's an iterator!
Iterating succeeded, iterCount == 1

tryItOut 807
Running threw: ReferenceError: z2 is not defined

tryItOut 808

tryItOut 809
Compiling threw: SyntaxError: missing variable name

tryItOut 810
Compiling threw: SyntaxError: invalid assignment left-hand side

tryItOut 811
Running threw: ReferenceError: yyy is not defined

tryItOut 812
Running threw: TypeError: arguments[0] has no properties

tryItOut 813

tryItOut 814
It's an iterator!
Iterating succeeded, iterCount == 1

tryItOut 815
Compiling threw: SyntaxError: syntax error

tryItOut 816
Compiling threw: SyntaxError: missing { before function body

tryItOut 817
Compiling threw: SyntaxError: syntax error

tryItOut 818
Compiling threw: SyntaxError: unmatched ) in regular expression

tryItOut 819
Compiling threw: SyntaxError: missing ) after let head

tryItOut 820
Compiling threw: SyntaxError: missing ; before statement

tryItOut 821
Compiling threw: SyntaxError: missing variable name

tryItOut 822
It's an iterator!
Iterating succeeded, iterCount == 1

tryItOut 823
Compiling threw: SyntaxError: missing catch or finally after try

tryItOut 824
Compiling threw: SyntaxError: missing ; before statement

tryItOut 825
It's an iterator!
Iterating threw!
Iterating threw: TypeError: undefined has no properties

tryItOut 826

tryItOut 827
Compiling threw: SyntaxError: missing : after property id

tryItOut 828
Compiling threw: SyntaxError: missing ) after argument list

tryItOut 829

tryItOut 830
Running threw: undefined

tryItOut 831

tryItOut 832
Compiling threw: SyntaxError: invalid assignment left-hand side

tryItOut 833

tryItOut 834
Compiling threw: SyntaxError: invalid for/in left-hand side

tryItOut 835
Running threw: TypeError: #1=[, #1#].unwatch("__noSuchMethod__") is not a constructor

tryItOut 836
Running threw: 

tryItOut 837

tryItOut 838
Compiling threw: SyntaxError: missing variable name

tryItOut 839
Compiling threw: SyntaxError: syntax error

tryItOut 840
Compiling threw: SyntaxError: syntax error

tryItOut 841
Compiling threw: SyntaxError: illegal XML character

tryItOut 842
Compiling threw: SyntaxError: missing variable name

tryItOut 843
Compiling threw: SyntaxError: invalid assignment left-hand side

tryItOut 844
Running threw: true

tryItOut 845
It's an iterator!
Iterating succeeded, iterCount == 1

tryItOut 846

tryItOut 847
Compiling threw: SyntaxError: invalid assignment left-hand side

tryItOut 848

tryItOut 849

tryItOut 850
Compiling threw: SyntaxError: missing ; before statement

tryItOut 851
Running threw: <x>
  <y/>
</x>

tryItOut 852
Running threw: TypeError: this.zzz has no properties

tryItOut 853

tryItOut 854
It's an iterator!
Iterating threw!
Iterating threw: TypeError: null has no properties

tryItOut 855

tryItOut 856

tryItOut 857
Compiling threw: TypeError: generator function anonymous returns a value

tryItOut 858
Compiling threw: SyntaxError: duplicate label

tryItOut 859
Compiling threw: TypeError: generator function anonymous returns a value

tryItOut 860

tryItOut 861
Compiling threw: SyntaxError: missing { before function body

tryItOut 862

tryItOut 863
Running threw: ReferenceError: Exception is not defined

tryItOut 864

tryItOut 865

tryItOut 866

tryItOut 867
Compiling threw: TypeError: generator function anonymous returns a value

tryItOut 868
Compiling threw: SyntaxError: missing { before function body

tryItOut 869

tryItOut 870
Compiling threw: TypeError: generator function anonymous returns a value

tryItOut 871

tryItOut 872
Compiling threw: SyntaxError: missing { before function body

tryItOut 873
Compiling threw: SyntaxError: syntax error

tryItOut 874
Compiling threw: SyntaxError: missing variable name

tryItOut 875
Compiling threw: SyntaxError: missing ; before statement

tryItOut 876
Compiling threw: SyntaxError: missing variable name

tryItOut 877
Compiling threw: SyntaxError: invalid assignment left-hand side

tryItOut 878
Running threw: TypeError: eval("<x><y/></x>", function ([y]) {}) is not a function

tryItOut 879
Compiling threw: TypeError: redeclaration of const prop

tryItOut 880
Compiling threw: SyntaxError: missing } in XML expression

tryItOut 881
Compiling threw: SyntaxError: duplicate label

tryItOut 882

tryItOut 883

tryItOut 884

tryItOut 885
Compiling threw: SyntaxError: illegal XML character

tryItOut 886
Compiling threw: SyntaxError: invalid assignment left-hand side

tryItOut 887
It's an iterator!
Iterating succeeded, iterCount == 1

tryItOut 888
It's an iterator!
Iterating threw!
Iterating threw: SyntaxError: illegal XML character

tryItOut 889

tryItOut 890
Compiling threw: SyntaxError: missing ; before statement

tryItOut 891
Compiling threw: SyntaxError: syntax error

tryItOut 892

tryItOut 893
Compiling threw: SyntaxError: missing { before function body

tryItOut 894
Running threw: ReferenceError: z1 is not defined

tryItOut 895

tryItOut 896
It's an iterator!
Iterating threw!
Iterating threw: ReferenceError: z1 is not defined

tryItOut 897
Compiling threw: SyntaxError: missing name in export statement

tryItOut 898

tryItOut 899
Compiling threw: TypeError: generator function anonymous returns a value

tryItOut 900

tryItOut 901
Compiling threw: SyntaxError: missing ) in parenthetical

tryItOut 902
Compiling threw: SyntaxError: syntax error

tryItOut 903

tryItOut 904
Compiling threw: TypeError: generator function anonymous returns a value

tryItOut 905
Compiling threw: SyntaxError: missing ; before statement

tryItOut 906
Compiling threw: SyntaxError: missing : after property id

tryItOut 907

tryItOut 908
Running threw: TypeError: __parent__ has no properties

tryItOut 909
Compiling threw: SyntaxError: syntax error

tryItOut 910
Compiling threw: SyntaxError: missing ; before statement

tryItOut 911
Compiling threw: SyntaxError: missing ) after condition

tryItOut 912
It's an iterator!
Iterating threw!
Iterating threw: TypeError: arguments[0] has no properties

tryItOut 913
Compiling threw: SyntaxError: invalid destructuring assignment operator

tryItOut 914

tryItOut 915
Compiling threw: SyntaxError: missing { before function body

tryItOut 916
It's an iterator!
Iterating threw!
Iterating threw: TypeError: constructor has no properties

tryItOut 917
Compiling threw: SyntaxError: syntax error

tryItOut 918
Compiling threw: SyntaxError: missing : after property id

tryItOut 919
Compiling threw: SyntaxError: missing ; before statement

tryItOut 920
It's an iterator!
Iterating succeeded, iterCount == 1

tryItOut 921
Compiling threw: SyntaxError: syntax error

tryItOut 922
Compiling threw: SyntaxError: invalid for/in left-hand side

tryItOut 923
Compiling threw: TypeError: generator function anonymous returns a value

tryItOut 924
It's an iterator!
Iterating succeeded, iterCount == 1

tryItOut 925
It's an iterator!
Iterating succeeded, iterCount == 0

tryItOut 926
Compiling threw: SyntaxError: invalid decrement operand

tryItOut 927

tryItOut 928
Compiling threw: SyntaxError: invalid switch statement

tryItOut 929
Compiling threw: SyntaxError: missing ) after condition

tryItOut 930
Compiling threw: SyntaxError: missing ; before statement

tryItOut 931
Compiling threw: SyntaxError: missing ) in parenthetical

tryItOut 932
It's an iterator!
Iterating threw!
Iterating threw: ReferenceError: z1 is not defined

tryItOut 933
It's an iterator!
Iterating threw!
Iterating threw: undefined

tryItOut 934
Compiling threw: SyntaxError: invalid assignment left-hand side

tryItOut 935
Compiling threw: SyntaxError: missing ; before statement

tryItOut 936
Compiling threw: SyntaxError: missing ; before statement

tryItOut 937
Compiling threw: SyntaxError: syntax error

tryItOut 938
Compiling threw: SyntaxError: illegal XML character

tryItOut 939

tryItOut 940
Compiling threw: SyntaxError: invalid for/in left-hand side

tryItOut 941
Compiling threw: SyntaxError: missing variable name

tryItOut 942
Running threw: TypeError: new "haha".split(~"".@foo) is not a function

tryItOut 943
Compiling threw: SyntaxError: missing ; before statement

tryItOut 944
It's an iterator!
Iterating threw!
Iterating threw: TypeError: arguments[0] has no properties

tryItOut 945
Compiling threw: SyntaxError: missing { before function body

tryItOut 946

tryItOut 947
It's an iterator!
Iterating threw!
Iterating threw: TypeError: /x/ is not a constructor

tryItOut 948

tryItOut 949
Compiling threw: SyntaxError: missing variable name

tryItOut 950
Compiling threw: SyntaxError: invalid for each loop

tryItOut 951

tryItOut 952

tryItOut 953
Running threw: [object StopIteration]

tryItOut 954
It's an iterator!
Iterating succeeded, iterCount == 1

tryItOut 955
Compiling threw: SyntaxError: missing ) after for-loop control

tryItOut 956
Compiling threw: SyntaxError: missing variable name

tryItOut 957
Compiling threw: SyntaxError: syntax error

tryItOut 958
Compiling threw: SyntaxError: invalid for each loop

tryItOut 959
It's an iterator!
Iterating succeeded, iterCount == 1

tryItOut 960

tryItOut 961
Compiling threw: TypeError: redeclaration of const __iterator__

tryItOut 962

tryItOut 963
Compiling threw: SyntaxError: missing { before function body

tryItOut 964
Running threw: TypeError: prop has no properties

tryItOut 965

tryItOut 966
Compiling threw: SyntaxError: missing ) after argument list

tryItOut 967
It's an iterator!
Iterating threw!
Iterating threw: <x>
  <y/>
</x>

tryItOut 968
Compiling threw: TypeError: redeclaration of variable __noSuchMethod__

tryItOut 969

tryItOut 970

tryItOut 971
Compiling threw: SyntaxError: syntax error

tryItOut 972

tryItOut 973

tryItOut 974
Running threw: [object StopIteration]

tryItOut 975
It's an iterator!
Iterating succeeded, iterCount == 1

tryItOut 976

tryItOut 977
Compiling threw: SyntaxError: invalid assignment left-hand side

tryItOut 978
Compiling threw: SyntaxError: missing ; before statement

tryItOut 979

tryItOut 980

tryItOut 981
Compiling threw: SyntaxError: missing ) after for-loop control

tryItOut 982

tryItOut 983
It's an iterator!
Iterating threw!
Iterating threw: ReferenceError: __count__break is not defined

tryItOut 984
Compiling threw: TypeError: generator function anonymous returns a value

tryItOut 985
Compiling threw: TypeError: generator function anonymous returns a value

tryItOut 986
Running threw: true

tryItOut 987

tryItOut 988
It's an iterator!
Iterating succeeded, iterCount == 1

tryItOut 989
Compiling threw: SyntaxError: missing variable name

tryItOut 990
It's an iterator!
Iterating succeeded, iterCount == 1

tryItOut 991
It's an iterator!
Iterating succeeded, iterCount == 1

tryItOut 992
It's an iterator!
Iterating succeeded, iterCount == 1

tryItOut 993

tryItOut 994
It's an iterator!
Iterating succeeded, iterCount == 0

tryItOut 995
Running threw: [object StopIteration]

tryItOut 996
Compiling threw: SyntaxError: invalid decrement operand

tryItOut 997

tryItOut 998

tryItOut 999
Compiling threw: TypeError: generator function anonymous returns a value

tryItOut 1000

ALL OK

Script done on Sat 04 May 2013 05:34:03 AM PDT
