Script started on Sat 04 May 2013 05:36:03 AM PDT
***
Targeting SpiderMonkey / Gecko.

tryItOut 1

tryItOut 2

tryItOut 3
Running threw: ReferenceError: __noSuchMethod__ is not defined

tryItOut 4
Compiling threw: SyntaxError: missing variable name

tryItOut 5

tryItOut 6

tryItOut 7
Compiling threw: SyntaxError: missing ; before statement

tryItOut 8
Compiling threw: SyntaxError: missing { before function body

tryItOut 9

tryItOut 10
Running threw: ReferenceError: z1 is not defined

tryItOut 11
Compiling threw: TypeError: redeclaration of const constructor

tryItOut 12
It's an iterator!
Iterating succeeded, iterCount == 0

tryItOut 13

tryItOut 14
Compiling threw: SyntaxError: missing variable name

tryItOut 15
It's an iterator!
Iterating succeeded, iterCount == 1

tryItOut 16
It's an iterator!
Iterating succeeded, iterCount == 1

tryItOut 17

tryItOut 18
Compiling threw: SyntaxError: missing ] after element list

tryItOut 19
Compiling threw: SyntaxError: invalid increment operand

tryItOut 20
It's an iterator!
Iterating succeeded, iterCount == 1

tryItOut 21

tryItOut 22

tryItOut 23
Compiling threw: SyntaxError: missing { before function body

tryItOut 24

tryItOut 25
Compiling threw: SyntaxError: missing ; after for-loop initializer

tryItOut 26

tryItOut 27

tryItOut 28

tryItOut 29
It's an iterator!
Iterating succeeded, iterCount == 1

tryItOut 30

tryItOut 31

tryItOut 32
Compiling threw: SyntaxError: missing } after let block

tryItOut 33
It's an iterator!
Iterating succeeded, iterCount == 0

tryItOut 34
It's an iterator!
Iterating succeeded, iterCount == 1

tryItOut 35
Compiling threw: SyntaxError: invalid for/in left-hand side

tryItOut 36

tryItOut 37
It's an iterator!
Iterating threw!
Iterating threw: ReferenceError: window is not defined

tryItOut 38

tryItOut 39
Compiling threw: SyntaxError: invalid for each loop

tryItOut 40

tryItOut 41
Running threw: ReferenceError: __iterator__ is not defined

tryItOut 42
It's an iterator!
Iterating threw!
Iterating threw: ReferenceError: window is not defined

tryItOut 43
It's an iterator!
Iterating threw!
Iterating threw: ReferenceError: window is not defined

tryItOut 44
Compiling threw: SyntaxError: missing variable name

tryItOut 45

tryItOut 46
Running threw: ReferenceError: __iterator__ is not defined

tryItOut 47
Compiling threw: SyntaxError: missing ) in parenthetical

tryItOut 48
Compiling threw: SyntaxError: invalid for/in left-hand side

tryItOut 49
Compiling threw: SyntaxError: invalid XML markup

tryItOut 50
Running threw: [object Object]

tryItOut 51
Compiling threw: SyntaxError: missing = in destructuring declaration

tryItOut 52

tryItOut 53

tryItOut 54

tryItOut 55
Compiling threw: SyntaxError: missing ) in parenthetical

tryItOut 56

tryItOut 57
Compiling threw: TypeError: redeclaration of const prototype

tryItOut 58

tryItOut 59
Compiling threw: SyntaxError: missing ; before statement

tryItOut 60
It's an iterator!
Iterating threw!
Iterating threw: TypeError: (function ([y]) {})['throw'] is not a function

tryItOut 61
Compiling threw: SyntaxError: missing ; before statement

tryItOut 62

tryItOut 63

tryItOut 64

tryItOut 65

tryItOut 66

tryItOut 67
Compiling threw: SyntaxError: missing { before function body

tryItOut 68
Running threw: ReferenceError: prop is not defined

tryItOut 69

tryItOut 70
Compiling threw: SyntaxError: duplicate label

tryItOut 71
It's an iterator!
Iterating threw!
Iterating threw: ReferenceError: prop is not defined

tryItOut 72
Running threw: null

tryItOut 73

tryItOut 74

tryItOut 75

tryItOut 76
Compiling threw: SyntaxError: invalid flag after regular expression

tryItOut 77

tryItOut 78
Compiling threw: SyntaxError: invalid for/in left-hand side

tryItOut 79
Compiling threw: SyntaxError: invalid for/in left-hand side

tryItOut 80
Running threw: ReferenceError: __noSuchMethod__ is not defined

tryItOut 81
Compiling threw: SyntaxError: missing { before function body

tryItOut 82
It's an iterator!
Iterating threw!
Iterating threw: ReferenceError: reference to undefined XML name @mozilla.org/js/function::__count__

tryItOut 83

tryItOut 84
Compiling threw: SyntaxError: invalid for/in left-hand side

tryItOut 85
Compiling threw: SyntaxError: missing : after property id

tryItOut 86

tryItOut 87
Compiling threw: SyntaxError: invalid property id

tryItOut 88
Compiling threw: SyntaxError: syntax error

tryItOut 89

tryItOut 90

tryItOut 91

tryItOut 92

tryItOut 93

tryItOut 94
Compiling threw: SyntaxError: missing variable name

tryItOut 95
Compiling threw: SyntaxError: syntax error

tryItOut 96

tryItOut 97

tryItOut 98
Compiling threw: SyntaxError: invalid for/in left-hand side

tryItOut 99

tryItOut 100
Compiling threw: SyntaxError: missing ) in parenthetical

tryItOut 101
Compiling threw: SyntaxError: missing ] after element list

tryItOut 102

tryItOut 103

tryItOut 104

tryItOut 105

tryItOut 106
Running threw: TypeError: this.zzz has no properties

tryItOut 107
Compiling threw: SyntaxError: invalid increment operand

tryItOut 108
Running threw: ReferenceError: z1 is not defined

tryItOut 109

tryItOut 110
Compiling threw: SyntaxError: missing ) in parenthetical

tryItOut 111
Compiling threw: SyntaxError: invalid for each loop

tryItOut 112
Running threw: ReferenceError: window is not defined

tryItOut 113
Compiling threw: SyntaxError: missing { before function body

tryItOut 114
It's an iterator!
Iterating succeeded, iterCount == 1

tryItOut 115

tryItOut 116
Compiling threw: SyntaxError: missing ; before statement

tryItOut 117
It's an iterator!
Iterating succeeded, iterCount == 1

tryItOut 118
Compiling threw: SyntaxError: missing { before function body

tryItOut 119
Compiling threw: SyntaxError: invalid for/in left-hand side

tryItOut 120
Compiling threw: SyntaxError: syntax error

tryItOut 121
It's an iterator!
Iterating succeeded, iterCount == 1

tryItOut 122
Compiling threw: SyntaxError: missing ; before statement

tryItOut 123
Compiling threw: SyntaxError: missing { before function body

tryItOut 124
It's an iterator!
Iterating succeeded, iterCount == 1

tryItOut 125
Compiling threw: SyntaxError: missing { before function body

tryItOut 126

tryItOut 127
It's an iterator!
Iterating threw!
Iterating threw: ReferenceError: reference to undefined property "window"

tryItOut 128
Compiling threw: SyntaxError: invalid for each loop

tryItOut 129
Compiling threw: SyntaxError: missing name in export statement

tryItOut 130
Compiling threw: SyntaxError: syntax error

tryItOut 131
Compiling threw: SyntaxError: missing ; after for-loop initializer

tryItOut 132
Compiling threw: SyntaxError: syntax error

tryItOut 133

tryItOut 134

tryItOut 135

tryItOut 136
Running threw: null

tryItOut 137
Compiling threw: SyntaxError: invalid assignment left-hand side

tryItOut 138
Compiling threw: SyntaxError: duplicate label

tryItOut 139
Compiling threw: TypeError: redeclaration of variable __noSuchMethod__

tryItOut 140

tryItOut 141
It's an iterator!
Iterating succeeded, iterCount == 2

tryItOut 142

tryItOut 143
Running threw: ReferenceError: window is not defined

tryItOut 144
Compiling threw: SyntaxError: missing name in export statement

tryItOut 145
Compiling threw: SyntaxError: missing { before function body

tryItOut 146

tryItOut 147

tryItOut 148

tryItOut 149
It's an iterator!
Iterating succeeded, iterCount == 0

tryItOut 150

tryItOut 151
Running threw: ReferenceError: window is not defined

tryItOut 152
Compiling threw: SyntaxError: missing : after property id

tryItOut 153
Compiling threw: SyntaxError: missing ) in parenthetical

tryItOut 154

tryItOut 155

tryItOut 156

tryItOut 157

tryItOut 158
Compiling threw: SyntaxError: invalid label

tryItOut 159
Compiling threw: SyntaxError: missing { before function body

tryItOut 160

tryItOut 161
Compiling threw: SyntaxError: missing { before function body

tryItOut 162

tryItOut 163
Running threw: 3

tryItOut 164

tryItOut 165
Compiling threw: SyntaxError: missing ; before statement

tryItOut 166

tryItOut 167
It's an iterator!
Iterating succeeded, iterCount == 0

tryItOut 168

tryItOut 169
It's an iterator!
Iterating succeeded, iterCount == 1

tryItOut 170
Running threw: TypeError: __parent__ has no properties

tryItOut 171

tryItOut 172

tryItOut 173
Compiling threw: SyntaxError: missing ) in parenthetical

tryItOut 174
It's an iterator!
Iterating threw!
Iterating threw: ReferenceError: window is not defined

tryItOut 175
Compiling threw: SyntaxError: syntax error

tryItOut 176

tryItOut 177
Compiling threw: SyntaxError: missing ; before statement

tryItOut 178

tryItOut 179

tryItOut 180
It's an iterator!
Iterating succeeded, iterCount == 1

tryItOut 181
Running threw: TypeError: __parent__ is not a function

tryItOut 182
Compiling threw: SyntaxError: invalid for/in left-hand side

tryItOut 183

tryItOut 184
Compiling threw: SyntaxError: invalid for/in left-hand side

tryItOut 185
Compiling threw: TypeError: redeclaration of variable __parent__

tryItOut 186
It's an iterator!
Iterating succeeded, iterCount == 1

tryItOut 187
Compiling threw: SyntaxError: missing ) in parenthetical

tryItOut 188

tryItOut 189
Compiling threw: SyntaxError: missing { before function body

tryItOut 190
Compiling threw: SyntaxError: syntax error

tryItOut 191
Compiling threw: SyntaxError: missing ( before let head

tryItOut 192
Compiling threw: TypeError: redeclaration of variable prototype

tryItOut 193
Compiling threw: SyntaxError: syntax error

tryItOut 194
Compiling threw: SyntaxError: missing ) after condition

tryItOut 195
Compiling threw: SyntaxError: invalid for/in left-hand side

tryItOut 196

tryItOut 197

tryItOut 198
Compiling threw: SyntaxError: invalid assignment left-hand side

tryItOut 199

tryItOut 200
Compiling threw: SyntaxError: missing variable name

tryItOut 201
It's an iterator!
Iterating succeeded, iterCount == 1

tryItOut 202
Compiling threw: SyntaxError: syntax error

tryItOut 203
Compiling threw: SyntaxError: syntax error

tryItOut 204

tryItOut 205

tryItOut 206
Compiling threw: SyntaxError: invalid for/in left-hand side

tryItOut 207

tryItOut 208

tryItOut 209
Compiling threw: SyntaxError: invalid assignment left-hand side

tryItOut 210
Compiling threw: SyntaxError: missing ) in parenthetical

tryItOut 211

tryItOut 212
It's an iterator!
Iterating succeeded, iterCount == 1

tryItOut 213

tryItOut 214
Compiling threw: SyntaxError: invalid destructuring assignment operator

tryItOut 215
It's an iterator!
Iterating threw!
Iterating threw: TypeError: prop has no properties

tryItOut 216

tryItOut 217
Compiling threw: SyntaxError: invalid for/in left-hand side

tryItOut 218
It's an iterator!
Iterating threw!
Iterating threw: ReferenceError: window is not defined

tryItOut 219
Compiling threw: SyntaxError: invalid for/in left-hand side

tryItOut 220
Compiling threw: SyntaxError: missing } after let block

tryItOut 221
Compiling threw: SyntaxError: missing variable name

tryItOut 222
Running threw: [object StopIteration]

tryItOut 223

tryItOut 224
Compiling threw: SyntaxError: missing ] after element list

tryItOut 225
Running threw: Error: cyclic __proto__ value

tryItOut 226

tryItOut 227
Compiling threw: SyntaxError: missing ) in parenthetical

tryItOut 228
Compiling threw: SyntaxError: missing { before function body

tryItOut 229
Running threw: null

tryItOut 230
It's an iterator!
Iterating threw!
Iterating threw: ReferenceError: window is not defined

tryItOut 231

tryItOut 232
Compiling threw: SyntaxError: duplicate label

tryItOut 233
Running threw: ReferenceError: window is not defined

tryItOut 234

tryItOut 235

tryItOut 236
Running threw: ReferenceError: window is not defined

tryItOut 237
Compiling threw: SyntaxError: invalid assignment left-hand side

tryItOut 238

tryItOut 239
It's an iterator!
Iterating succeeded, iterCount == 1

tryItOut 240

tryItOut 241

tryItOut 242
Compiling threw: SyntaxError: missing name in export statement

tryItOut 243
Compiling threw: SyntaxError: invalid decrement operand

tryItOut 244
Compiling threw: TypeError: redeclaration of var __proto__

tryItOut 245
Compiling threw: SyntaxError: missing variable name

tryItOut 246
Compiling threw: SyntaxError: missing ) in parenthetical

tryItOut 247

tryItOut 248
Compiling threw: SyntaxError: invalid for/in left-hand side

tryItOut 249
Compiling threw: SyntaxError: missing { before function body

tryItOut 250
It's an iterator!
Iterating succeeded, iterCount == 0

tryItOut 251

tryItOut 252

tryItOut 253
Compiling threw: SyntaxError: invalid for/in left-hand side

tryItOut 254
It's an iterator!
Iterating succeeded, iterCount == 1

tryItOut 255
Compiling threw: SyntaxError: syntax error

tryItOut 256
Compiling threw: SyntaxError: missing { before function body

tryItOut 257

tryItOut 258
Running threw: TypeError: {a1:1}.__lookupSetter__("prototype") has no properties

tryItOut 259
Compiling threw: SyntaxError: syntax error

tryItOut 260

tryItOut 261
Compiling threw: TypeError: redeclaration of variable prototype

tryItOut 262
It's an iterator!
Iterating succeeded, iterCount == 1

tryItOut 263

tryItOut 264
It's an iterator!
Iterating succeeded, iterCount == 1

tryItOut 265

tryItOut 266

tryItOut 267
Compiling threw: SyntaxError: missing variable name

tryItOut 268
Compiling threw: SyntaxError: missing { before function body

tryItOut 269

tryItOut 270
Compiling threw: SyntaxError: invalid for/in left-hand side

tryItOut 271
Compiling threw: SyntaxError: missing { before function body

tryItOut 272
Compiling threw: SyntaxError: missing { before function body

tryItOut 273
Compiling threw: SyntaxError: syntax error

tryItOut 274
It's an iterator!
Iterating succeeded, iterCount == 1

tryItOut 275

tryItOut 276

tryItOut 277

tryItOut 278
Compiling threw: SyntaxError: missing { before function body

tryItOut 279

tryItOut 280
Compiling threw: SyntaxError: missing ; before statement

tryItOut 281
It's an iterator!
Iterating succeeded, iterCount == 1

tryItOut 282
Compiling threw: SyntaxError: missing ) in parenthetical

tryItOut 283
Running threw: TypeError: this.zzz has no properties

tryItOut 284

tryItOut 285

tryItOut 286
Compiling threw: SyntaxError: syntax error

tryItOut 287
Compiling threw: SyntaxError: missing { before function body

tryItOut 288
Compiling threw: SyntaxError: missing variable name

tryItOut 289
Compiling threw: SyntaxError: missing { before function body

tryItOut 290
Compiling threw: SyntaxError: invalid for/in left-hand side

tryItOut 291
Compiling threw: SyntaxError: missing ( before let head

tryItOut 292
Compiling threw: SyntaxError: missing ] after element list

tryItOut 293
Compiling threw: SyntaxError: missing : in conditional expression

tryItOut 294

tryItOut 295
Compiling threw: SyntaxError: duplicate label

tryItOut 296
It's an iterator!
Iterating succeeded, iterCount == 1

tryItOut 297
It's an iterator!
Iterating succeeded, iterCount == 1

tryItOut 298

tryItOut 299
Compiling threw: SyntaxError: missing ; before statement

tryItOut 300

tryItOut 301
Compiling threw: SyntaxError: missing variable name

tryItOut 302

tryItOut 303
Compiling threw: SyntaxError: missing { before function body

tryItOut 304
Compiling threw: SyntaxError: invalid assignment left-hand side

tryItOut 305

tryItOut 306

tryItOut 307
It's an iterator!
Iterating succeeded, iterCount == 1

tryItOut 308
Compiling threw: SyntaxError: invalid assignment left-hand side

tryItOut 309

tryItOut 310

tryItOut 311
Running threw: TypeError: this.zzz has no properties

tryItOut 312

tryItOut 313
Running threw: ReferenceError: window is not defined

tryItOut 314
Running threw: [object StopIteration]

tryItOut 315
Compiling threw: SyntaxError: missing ) after condition

tryItOut 316
Compiling threw: SyntaxError: missing ; before statement

tryItOut 317
It's an iterator!
Iterating succeeded, iterCount == 1

tryItOut 318
Compiling threw: SyntaxError: invalid for/in left-hand side

tryItOut 319
Compiling threw: SyntaxError: missing ] after element list

tryItOut 320
It's an iterator!
Iterating threw!
Iterating threw: ReferenceError: __parent__ is not defined

tryItOut 321
Compiling threw: SyntaxError: invalid for/in left-hand side

tryItOut 322
Running threw: ReferenceError: z1 is not defined

tryItOut 323
Compiling threw: SyntaxError: invalid default XML namespace

tryItOut 324
Compiling threw: SyntaxError: missing ) in parenthetical

tryItOut 325
Running threw: TypeError: __iterator__ has no properties

tryItOut 326
Compiling threw: SyntaxError: missing } after let block

tryItOut 327
It's an iterator!
Iterating succeeded, iterCount == 1

tryItOut 328

tryItOut 329
Compiling threw: SyntaxError: invalid destructuring assignment operator

tryItOut 330
Compiling threw: SyntaxError: missing : after property id

tryItOut 331

tryItOut 332

tryItOut 333
Compiling threw: SyntaxError: invalid sharp variable definition

tryItOut 334
Compiling threw: SyntaxError: syntax error

tryItOut 335
Running threw: ReferenceError: reference to undefined XML name @mozilla.org/js/function::constructor

tryItOut 336

tryItOut 337
Compiling threw: TypeError: redeclaration of var prop

tryItOut 338
It's an iterator!
Iterating succeeded, iterCount == 1

tryItOut 339

tryItOut 340
Compiling threw: SyntaxError: syntax error

tryItOut 341
Compiling threw: SyntaxError: missing variable name

tryItOut 342
Compiling threw: SyntaxError: missing { before function body

tryItOut 343
Compiling threw: SyntaxError: missing ; before statement

tryItOut 344
Running threw: ReferenceError: __noSuchMethod__ is not defined

tryItOut 345

tryItOut 346
Running threw: ReferenceError: reference to undefined XML name @mozilla.org/js/function::__noSuchMethod__

tryItOut 347
Compiling threw: SyntaxError: invalid for/in left-hand side

tryItOut 348
Compiling threw: SyntaxError: missing { before function body

tryItOut 349

tryItOut 350
Compiling threw: SyntaxError: missing ; before statement

tryItOut 351
Compiling threw: SyntaxError: invalid assignment left-hand side

tryItOut 352
It's an iterator!
Iterating succeeded, iterCount == 1

tryItOut 353
Compiling threw: SyntaxError: missing { before function body

tryItOut 354
Compiling threw: SyntaxError: missing variable name

tryItOut 355

tryItOut 356

tryItOut 357

tryItOut 358

tryItOut 359
It's an iterator!
Iterating succeeded, iterCount == 1

tryItOut 360
Compiling threw: SyntaxError: invalid assignment left-hand side

tryItOut 361

tryItOut 362

tryItOut 363
Running threw: ReferenceError: z2 is not defined

tryItOut 364
Compiling threw: SyntaxError: missing { before function body

tryItOut 365

tryItOut 366
It's an iterator!
Iterating succeeded, iterCount == 1

tryItOut 367

tryItOut 368
Compiling threw: SyntaxError: invalid for each loop

tryItOut 369
Compiling threw: SyntaxError: invalid assignment left-hand side

tryItOut 370

tryItOut 371

tryItOut 372
Compiling threw: SyntaxError: missing ) in parenthetical

tryItOut 373

tryItOut 374

tryItOut 375

tryItOut 376
Compiling threw: SyntaxError: syntax error

tryItOut 377

tryItOut 378
Running threw: ReferenceError: z1 is not defined

tryItOut 379

tryItOut 380
Compiling threw: SyntaxError: invalid assignment left-hand side

tryItOut 381

tryItOut 382
Running threw: TypeError: this.zzz has no properties

tryItOut 383
It's an iterator!
Iterating succeeded, iterCount == 1

tryItOut 384
Compiling threw: SyntaxError: missing { before function body

tryItOut 385
Compiling threw: SyntaxError: duplicate label

tryItOut 386
Compiling threw: SyntaxError: invalid for each loop

tryItOut 387

tryItOut 388
Compiling threw: SyntaxError: missing ) in parenthetical

tryItOut 389
Compiling threw: SyntaxError: invalid assignment left-hand side

tryItOut 390
Compiling threw: SyntaxError: invalid for/in left-hand side

tryItOut 391

tryItOut 392

tryItOut 393
It's an iterator!
Iterating succeeded, iterCount == 1

tryItOut 394
Compiling threw: SyntaxError: missing ) in parenthetical

tryItOut 395
Compiling threw: SyntaxError: missing { before function body

tryItOut 396

tryItOut 397
Compiling threw: SyntaxError: invalid for/in left-hand side

tryItOut 398
Compiling threw: SyntaxError: invalid assignment left-hand side

tryItOut 399
Compiling threw: SyntaxError: invalid for/in left-hand side

tryItOut 400
Running threw: ReferenceError: __proto__ is not defined

tryItOut 401
It's an iterator!
Iterating threw!
Iterating threw: ReferenceError: window is not defined

tryItOut 402

tryItOut 403
Compiling threw: SyntaxError: invalid for/in left-hand side

tryItOut 404
Running threw: ReferenceError: __proto__ is not defined

tryItOut 405
Running threw: [object StopIteration]

tryItOut 406

tryItOut 407
Compiling threw: SyntaxError: missing { before function body

tryItOut 408
Compiling threw: SyntaxError: invalid for/in left-hand side

tryItOut 409

tryItOut 410
Compiling threw: SyntaxError: invalid assignment left-hand side

tryItOut 411

tryItOut 412

tryItOut 413

tryItOut 414

tryItOut 415
Compiling threw: SyntaxError: invalid for/in left-hand side

tryItOut 416

tryItOut 417
It's an iterator!
Iterating threw!
Iterating threw: ReferenceError: window is not defined

tryItOut 418
Compiling threw: SyntaxError: missing { before function body

tryItOut 419
Compiling threw: SyntaxError: missing variable name

tryItOut 420
Running threw: ReferenceError: z1 is not defined

tryItOut 421
It's an iterator!
Iterating succeeded, iterCount == 1

tryItOut 422
Running threw: TypeError: ({prop:#1=<y>
  <z/>
</y>}) is not a function

tryItOut 423
Compiling threw: SyntaxError: missing variable name

tryItOut 424
Compiling threw: SyntaxError: missing ; before statement

tryItOut 425
Compiling threw: SyntaxError: missing { before function body

tryItOut 426
Compiling threw: SyntaxError: missing variable name

tryItOut 427
Compiling threw: SyntaxError: missing ) in parenthetical

tryItOut 428
Compiling threw: SyntaxError: invalid destructuring assignment operator

tryItOut 429
It's an iterator!
Iterating threw!
Iterating threw: ReferenceError: window is not defined

tryItOut 430
Compiling threw: SyntaxError: missing ; before statement

tryItOut 431
It's an iterator!
Iterating succeeded, iterCount == 1

tryItOut 432

tryItOut 433
It's an iterator!
Iterating threw!
Iterating threw: ReferenceError: window is not defined

tryItOut 434
Compiling threw: SyntaxError: missing { before function body

tryItOut 435
Running threw: Can't toString the error!!

tryItOut 436
Compiling threw: SyntaxError: missing variable name

tryItOut 437

tryItOut 438

tryItOut 439
It's an iterator!
Iterating threw!
Iterating threw: ReferenceError: window is not defined

tryItOut 440

tryItOut 441
It's an iterator!
Iterating succeeded, iterCount == 1

tryItOut 442
It's an iterator!
Iterating threw!
Iterating threw: ReferenceError: window is not defined

tryItOut 443
It's an iterator!
Iterating threw!
Iterating threw: ReferenceError: z2 is not defined

tryItOut 444

tryItOut 445

tryItOut 446
Running threw: Can't toString the error!!

tryItOut 447
Running threw: ReferenceError: window is not defined

tryItOut 448

tryItOut 449
It's an iterator!
Iterating succeeded, iterCount == 1

tryItOut 450

tryItOut 451
Running threw: ReferenceError: z1 is not defined

tryItOut 452
It's an iterator!
Iterating succeeded, iterCount == 1

tryItOut 453
Compiling threw: SyntaxError: missing { before function body

tryItOut 454
It's an iterator!
Iterating succeeded, iterCount == 1

tryItOut 455

tryItOut 456
Compiling threw: SyntaxError: missing name in export statement

tryItOut 457
It's an iterator!
Iterating succeeded, iterCount == 1

tryItOut 458
It's an iterator!
Iterating succeeded, iterCount == 1

tryItOut 459

tryItOut 460

tryItOut 461
Compiling threw: TypeError: redeclaration of const __parent__

tryItOut 462
Compiling threw: SyntaxError: missing ] after element list

tryItOut 463
Running threw: TypeError: null is not a function

tryItOut 464

tryItOut 465
Compiling threw: SyntaxError: invalid for/in left-hand side

tryItOut 466
Compiling threw: SyntaxError: missing { before function body

tryItOut 467
Compiling threw: SyntaxError: missing variable name

tryItOut 468
Compiling threw: TypeError: redeclaration of variable constructor

tryItOut 469
Compiling threw: SyntaxError: syntax error

tryItOut 470
Compiling threw: SyntaxError: missing { before function body

tryItOut 471

tryItOut 472
It's an iterator!
Iterating threw!
Iterating threw: ReferenceError: window is not defined

tryItOut 473
It's an iterator!
Iterating succeeded, iterCount == 0

tryItOut 474
Compiling threw: SyntaxError: syntax error

tryItOut 475
Compiling threw: SyntaxError: missing ; before statement

tryItOut 476
Compiling threw: SyntaxError: invalid for/in left-hand side

tryItOut 477
It's an iterator!
Iterating threw!
Iterating threw: ReferenceError: window is not defined

tryItOut 478
Compiling threw: SyntaxError: syntax error

tryItOut 479
It's an iterator!
Iterating threw!
Iterating threw: TypeError: can't convert this to function

tryItOut 480
Compiling threw: SyntaxError: invalid sharp variable definition

tryItOut 481
Compiling threw: SyntaxError: missing { before function body

tryItOut 482
Running threw: ReferenceError: __proto__ is not defined

tryItOut 483
Compiling threw: SyntaxError: invalid for/in left-hand side

tryItOut 484

tryItOut 485
Compiling threw: SyntaxError: missing { before function body

tryItOut 486
Running threw: TypeError: this.zzz has no properties

tryItOut 487
Compiling threw: SyntaxError: invalid for/in left-hand side

tryItOut 488
Compiling threw: SyntaxError: invalid for/in left-hand side

tryItOut 489
Running threw: null

tryItOut 490
It's an iterator!
Iterating succeeded, iterCount == 1

tryItOut 491

tryItOut 492
It's an iterator!
Iterating threw!
Iterating threw: TypeError: can't convert null to number

tryItOut 493

tryItOut 494

tryItOut 495
Running threw: [object StopIteration]

tryItOut 496

tryItOut 497
It's an iterator!
Iterating threw!
Iterating threw: ReferenceError: window is not defined

tryItOut 498

tryItOut 499
It's an iterator!
Iterating succeeded, iterCount == 1

tryItOut 500
Running threw: ReferenceError: window is not defined

tryItOut 501
Compiling threw: SyntaxError: missing exponent

tryItOut 502
Compiling threw: SyntaxError: syntax error

tryItOut 503
Compiling threw: SyntaxError: missing : after property id

tryItOut 504
Compiling threw: SyntaxError: missing { before function body

tryItOut 505

tryItOut 506
Compiling threw: SyntaxError: invalid for/in left-hand side

tryItOut 507

tryItOut 508
Compiling threw: SyntaxError: missing formal parameter

tryItOut 509
Compiling threw: SyntaxError: missing ] after element list

tryItOut 510

tryItOut 511

tryItOut 512

tryItOut 513
Compiling threw: SyntaxError: invalid for/in left-hand side

tryItOut 514
Compiling threw: SyntaxError: syntax error

tryItOut 515

tryItOut 516
Compiling threw: SyntaxError: invalid assignment left-hand side

tryItOut 517

tryItOut 518

tryItOut 519

tryItOut 520
Compiling threw: SyntaxError: invalid property id

tryItOut 521
It's an iterator!
Iterating succeeded, iterCount == 1

tryItOut 522
Compiling threw: SyntaxError: missing : after property id

tryItOut 523

tryItOut 524
Compiling threw: SyntaxError: missing ; before statement

tryItOut 525
Compiling threw: SyntaxError: missing variable name

tryItOut 526

tryItOut 527
Running threw: Can't toString the error!!

tryItOut 528
Compiling threw: SyntaxError: missing ) after with-statement object

tryItOut 529
Compiling threw: SyntaxError: missing ) after argument list

tryItOut 530

tryItOut 531

tryItOut 532

tryItOut 533
Compiling threw: SyntaxError: missing name in export statement

tryItOut 534
Compiling threw: SyntaxError: missing { before function body

tryItOut 535

tryItOut 536

tryItOut 537

tryItOut 538
Compiling threw: SyntaxError: invalid assignment left-hand side

tryItOut 539
Compiling threw: SyntaxError: invalid for/in left-hand side

tryItOut 540
Compiling threw: SyntaxError: missing ] after element list

tryItOut 541
It's an iterator!
Iterating succeeded, iterCount == 1

tryItOut 542
Running threw: TypeError: undefined has no properties

tryItOut 543
Running threw: TypeError: this.zzz has no properties

tryItOut 544
Compiling threw: SyntaxError: missing ] after element list

tryItOut 545
It's an iterator!
Iterating succeeded, iterCount == 1

tryItOut 546
Compiling threw: SyntaxError: invalid for each loop

tryItOut 547

tryItOut 548

tryItOut 549
Compiling threw: SyntaxError: invalid for/in left-hand side

tryItOut 550

tryItOut 551

tryItOut 552

tryItOut 553

tryItOut 554
It's an iterator!
Iterating succeeded, iterCount == 1

tryItOut 555
Compiling threw: SyntaxError: missing ] after element list

tryItOut 556
Compiling threw: SyntaxError: syntax error

tryItOut 557

tryItOut 558
Compiling threw: SyntaxError: invalid for/in left-hand side

tryItOut 559
Running threw: TypeError: #1=[#1#] is not a function

tryItOut 560
Compiling threw: TypeError: redeclaration of const __proto__

tryItOut 561
Running threw: ReferenceError: window is not defined

tryItOut 562

tryItOut 563
Compiling threw: SyntaxError: missing ] after element list

tryItOut 564

tryItOut 565
It's an iterator!
Iterating succeeded, iterCount == 1

tryItOut 566
Compiling threw: SyntaxError: invalid label

tryItOut 567
Compiling threw: SyntaxError: missing variable name

tryItOut 568
Compiling threw: SyntaxError: missing ) after condition

tryItOut 569
Compiling threw: SyntaxError: missing { before function body

tryItOut 570
Compiling threw: SyntaxError: syntax error

tryItOut 571
Compiling threw: SyntaxError: missing variable name

tryItOut 572

tryItOut 573

tryItOut 574

tryItOut 575
It's an iterator!
Iterating succeeded, iterCount == 1

tryItOut 576
It's an iterator!
Iterating succeeded, iterCount == 1

tryItOut 577

tryItOut 578

tryItOut 579
Compiling threw: SyntaxError: missing { before function body

tryItOut 580
Compiling threw: SyntaxError: invalid for/in left-hand side

tryItOut 581

tryItOut 582
Compiling threw: SyntaxError: missing } in compound statement

tryItOut 583

tryItOut 584
Compiling threw: SyntaxError: missing variable name

tryItOut 585
Compiling threw: SyntaxError: missing { before function body

tryItOut 586

tryItOut 587
Compiling threw: SyntaxError: invalid for/in left-hand side

tryItOut 588
It's an iterator!
Iterating threw!
Iterating threw: ReferenceError: window is not defined

tryItOut 589
Compiling threw: SyntaxError: missing : after property id

tryItOut 590
Compiling threw: SyntaxError: invalid assignment left-hand side

tryItOut 591

tryItOut 592

tryItOut 593
Compiling threw: SyntaxError: missing ] after element list

tryItOut 594
Compiling threw: SyntaxError: missing ( before let head

tryItOut 595
Compiling threw: SyntaxError: invalid assignment left-hand side

tryItOut 596
Compiling threw: SyntaxError: missing { before function body

tryItOut 597

tryItOut 598
Compiling threw: SyntaxError: missing variable name

tryItOut 599

tryItOut 600

tryItOut 601

tryItOut 602

tryItOut 603
Compiling threw: SyntaxError: invalid assignment left-hand side

tryItOut 604
It's an iterator!
Iterating succeeded, iterCount == 1

tryItOut 605
Compiling threw: SyntaxError: missing ) after condition

tryItOut 606
Compiling threw: SyntaxError: yield expression must be parenthesized

tryItOut 607

tryItOut 608

tryItOut 609
Compiling threw: SyntaxError: missing { before function body

tryItOut 610
Compiling threw: SyntaxError: missing { before function body

tryItOut 611

tryItOut 612
Running threw: TypeError: this.zzz has no properties

tryItOut 613
Compiling threw: SyntaxError: missing ; before statement

tryItOut 614
Compiling threw: SyntaxError: missing variable name

tryItOut 615

tryItOut 616
Compiling threw: SyntaxError: missing ] after element list

tryItOut 617
It's an iterator!
Iterating threw!
Iterating threw: ReferenceError: window is not defined

tryItOut 618

tryItOut 619

tryItOut 620
It's an iterator!
Iterating succeeded, iterCount == 1

tryItOut 621
Compiling threw: SyntaxError: invalid for each loop

tryItOut 622
Compiling threw: SyntaxError: missing ; after for-loop initializer

tryItOut 623

tryItOut 624

tryItOut 625
Compiling threw: SyntaxError: syntax error

tryItOut 626
Running threw: TypeError: XML descendants internal method called on incompatible global

tryItOut 627
It's an iterator!
Iterating threw!
Iterating threw: SyntaxError: invalid getter usage

tryItOut 628
It's an iterator!
Iterating succeeded, iterCount == 1

tryItOut 629
Compiling threw: SyntaxError: invalid for/in left-hand side

tryItOut 630
Compiling threw: SyntaxError: missing variable name

tryItOut 631
Compiling threw: SyntaxError: missing variable name

tryItOut 632
Running threw: ReferenceError: z1 is not defined

tryItOut 633
Compiling threw: SyntaxError: missing ) in parenthetical

tryItOut 634

tryItOut 635
It's an iterator!
Iterating succeeded, iterCount == 1

tryItOut 636
It's an iterator!
Iterating succeeded, iterCount == 1

tryItOut 637

tryItOut 638

tryItOut 639

tryItOut 640
Compiling threw: SyntaxError: missing ; after for-loop initializer

tryItOut 641

tryItOut 642
Running threw: ReferenceError: window is not defined

tryItOut 643
Running threw: [object StopIteration]

tryItOut 644
It's an iterator!
Iterating succeeded, iterCount == 1

tryItOut 645

tryItOut 646
It's an iterator!
Iterating succeeded, iterCount == 1

tryItOut 647
Running threw: [object StopIteration]

tryItOut 648
It's an iterator!
Iterating succeeded, iterCount == 1

tryItOut 649
Compiling threw: SyntaxError: missing ; before statement

tryItOut 650

tryItOut 651
Compiling threw: SyntaxError: invalid increment operand

tryItOut 652
Compiling threw: SyntaxError: unterminated regular expression literal

tryItOut 653
Compiling threw: SyntaxError: missing ; after for-loop initializer

tryItOut 654

tryItOut 655

tryItOut 656

tryItOut 657
Running threw: ReferenceError: window is not defined

tryItOut 658
It's an iterator!
Iterating succeeded, iterCount == 1

tryItOut 659
Compiling threw: SyntaxError: invalid sharp variable definition

tryItOut 660
Compiling threw: SyntaxError: missing ; before statement

tryItOut 661

tryItOut 662
Running threw: TypeError: this.zzz has no properties

tryItOut 663

tryItOut 664
Compiling threw: SyntaxError: missing { before function body

tryItOut 665
Compiling threw: TypeError: redeclaration of variable __count__

tryItOut 666
Compiling threw: SyntaxError: missing variable name

tryItOut 667
Compiling threw: SyntaxError: missing ) after condition

tryItOut 668
It's an iterator!
Iterating succeeded, iterCount == 1

tryItOut 669
Compiling threw: SyntaxError: missing ; after for-loop initializer

tryItOut 670
Compiling threw: SyntaxError: missing ; after for-loop condition

tryItOut 671
Compiling threw: SyntaxError: missing ] after element list

tryItOut 672

tryItOut 673

tryItOut 674
Compiling threw: SyntaxError: invalid for/in left-hand side

tryItOut 675
Compiling threw: SyntaxError: missing ; after for-loop initializer

tryItOut 676
It's an iterator!
Iterating succeeded, iterCount == 1

tryItOut 677
It's an iterator!
Iterating succeeded, iterCount == 1

tryItOut 678

tryItOut 679
Compiling threw: SyntaxError: syntax error

tryItOut 680
Running threw: [object Object]

tryItOut 681

tryItOut 682
It's an iterator!
Iterating succeeded, iterCount == 1

tryItOut 683
Compiling threw: SyntaxError: invalid for/in left-hand side

tryItOut 684
It's an iterator!
Iterating succeeded, iterCount == 1

tryItOut 685

tryItOut 686
It's an iterator!
Iterating succeeded, iterCount == 1

tryItOut 687
Compiling threw: SyntaxError: missing { before function body

tryItOut 688

tryItOut 689
Compiling threw: SyntaxError: syntax error

tryItOut 690
Compiling threw: SyntaxError: invalid assignment left-hand side

tryItOut 691

tryItOut 692
Compiling threw: SyntaxError: invalid for/in left-hand side

tryItOut 693

tryItOut 694
Compiling threw: SyntaxError: missing ] after element list

tryItOut 695

tryItOut 696

tryItOut 697
Compiling threw: SyntaxError: syntax error

tryItOut 698
Compiling threw: SyntaxError: invalid for/in left-hand side

tryItOut 699
Compiling threw: SyntaxError: syntax error

tryItOut 700
Compiling threw: SyntaxError: syntax error

tryItOut 701

tryItOut 702

tryItOut 703
Compiling threw: SyntaxError: missing ] after element list

tryItOut 704

tryItOut 705
Compiling threw: SyntaxError: missing ; before statement

tryItOut 706
Compiling threw: SyntaxError: missing formal parameter

tryItOut 707
Compiling threw: SyntaxError: missing variable name

tryItOut 708

tryItOut 709
Compiling threw: SyntaxError: invalid for each loop

tryItOut 710
Compiling threw: SyntaxError: missing { before function body

tryItOut 711
Compiling threw: SyntaxError: invalid decrement operand

tryItOut 712
It's an iterator!
Iterating threw!
Iterating threw: TypeError: prototype has no properties

tryItOut 713

tryItOut 714
Compiling threw: SyntaxError: invalid for/in left-hand side

tryItOut 715
Compiling threw: SyntaxError: invalid default XML namespace

tryItOut 716

tryItOut 717
Compiling threw: SyntaxError: missing { before function body

tryItOut 718

tryItOut 719
Compiling threw: SyntaxError: missing { before function body

tryItOut 720
It's an iterator!
Iterating succeeded, iterCount == 1

tryItOut 721

tryItOut 722

tryItOut 723
Compiling threw: SyntaxError: missing ] after element list

tryItOut 724
Compiling threw: SyntaxError: invalid for/in left-hand side

tryItOut 725
Compiling threw: SyntaxError: missing ; before statement

tryItOut 726
It's an iterator!
Iterating threw!
Iterating threw: TypeError: arguments.@* has no properties

tryItOut 727
Compiling threw: SyntaxError: invalid for/in left-hand side

tryItOut 728
Compiling threw: SyntaxError: missing ) after argument list

tryItOut 729
Running threw: TypeError: redeclaration of var __proto__

tryItOut 730

tryItOut 731

tryItOut 732

tryItOut 733

tryItOut 734
Compiling threw: SyntaxError: invalid for/in left-hand side

tryItOut 735
Running threw: TypeError: __iterator__ has no properties

tryItOut 736
Compiling threw: SyntaxError: missing ; before statement

tryItOut 737
Compiling threw: SyntaxError: missing ] after element list

tryItOut 738
It's an iterator!
Iterating threw!
Iterating threw: TypeError: this.zzz has no properties

tryItOut 739
It's an iterator!
Iterating succeeded, iterCount == 1

tryItOut 740
Compiling threw: SyntaxError: invalid sharp variable definition

tryItOut 741

tryItOut 742
Compiling threw: SyntaxError: missing ] after element list

tryItOut 743

tryItOut 744

tryItOut 745
Compiling threw: SyntaxError: invalid assignment left-hand side

tryItOut 746

tryItOut 747
Compiling threw: SyntaxError: invalid decrement operand

tryItOut 748
Compiling threw: SyntaxError: syntax error

tryItOut 749
Running threw: TypeError: this.zzz has no properties

tryItOut 750
Compiling threw: SyntaxError: missing { before function body

tryItOut 751
Running threw: TypeError: this.zzz has no properties

tryItOut 752
It's an iterator!
Iterating succeeded, iterCount == 1

tryItOut 753
Compiling threw: SyntaxError: missing variable name

tryItOut 754
Compiling threw: TypeError: redeclaration of variable __proto__

tryItOut 755
It's an iterator!
Iterating threw!
Iterating threw: ReferenceError: window is not defined

tryItOut 756
Compiling threw: SyntaxError: invalid for/in left-hand side

tryItOut 757
Compiling threw: SyntaxError: invalid for/in left-hand side

tryItOut 758
Compiling threw: SyntaxError: missing variable name

tryItOut 759
Compiling threw: SyntaxError: syntax error

tryItOut 760
Compiling threw: SyntaxError: missing ; before statement

tryItOut 761
It's an iterator!
Iterating succeeded, iterCount == 1

tryItOut 762
Compiling threw: SyntaxError: missing { before function body

tryItOut 763
Compiling threw: SyntaxError: invalid destructuring assignment operator

tryItOut 764

tryItOut 765

tryItOut 766
Compiling threw: SyntaxError: missing ) in parenthetical

tryItOut 767
It's an iterator!
Iterating succeeded, iterCount == 1

tryItOut 768

tryItOut 769

tryItOut 770

tryItOut 771
Running threw: ReferenceError: window is not defined

tryItOut 772

tryItOut 773
Compiling threw: SyntaxError: invalid label

tryItOut 774

tryItOut 775

tryItOut 776

tryItOut 777
Compiling threw: SyntaxError: syntax error

tryItOut 778
Compiling threw: SyntaxError: syntax error

tryItOut 779

tryItOut 780
Compiling threw: SyntaxError: invalid for/in left-hand side

tryItOut 781
It's an iterator!
Iterating succeeded, iterCount == 1

tryItOut 782

tryItOut 783
Running threw: ReferenceError: window is not defined

tryItOut 784
Running threw: TypeError: this.zzz has no properties

tryItOut 785
It's an iterator!
Iterating succeeded, iterCount == 1

tryItOut 786
It's an iterator!
Iterating threw!
Iterating threw: SyntaxError: invalid setter usage

tryItOut 787
Compiling threw: SyntaxError: invalid for/in left-hand side

tryItOut 788
It's an iterator!
Iterating succeeded, iterCount == 1

tryItOut 789

tryItOut 790

tryItOut 791

tryItOut 792
It's an iterator!
Iterating threw!
Iterating threw: TypeError: arguments[0] has no properties

tryItOut 793
Compiling threw: SyntaxError: missing ; before statement

tryItOut 794

tryItOut 795

tryItOut 796

tryItOut 797
Compiling threw: SyntaxError: missing ; after for-loop initializer

tryItOut 798
Running threw: [object StopIteration]

tryItOut 799

tryItOut 800
Compiling threw: SyntaxError: missing ] after element list

tryItOut 801
It's an iterator!
Iterating succeeded, iterCount == 1

tryItOut 802

tryItOut 803
Compiling threw: SyntaxError: missing { before function body

tryItOut 804

tryItOut 805
Compiling threw: SyntaxError: invalid for/in left-hand side

tryItOut 806
It's an iterator!
Iterating succeeded, iterCount == 2

tryItOut 807
It's an iterator!
Iterating threw!
Iterating threw: ReferenceError: window is not defined

tryItOut 808
Compiling threw: SyntaxError: missing : after property id

tryItOut 809
Compiling threw: SyntaxError: missing variable name

tryItOut 810
Compiling threw: SyntaxError: missing { before function body

tryItOut 811
Compiling threw: SyntaxError: invalid for/in left-hand side

tryItOut 812
Compiling threw: SyntaxError: missing ; after for-loop initializer

tryItOut 813
Compiling threw: SyntaxError: missing } after let block

tryItOut 814
Compiling threw: SyntaxError: syntax error

tryItOut 815

tryItOut 816
It's an iterator!
Iterating succeeded, iterCount == 1

tryItOut 817
Compiling threw: SyntaxError: missing : after property id

tryItOut 818
Compiling threw: SyntaxError: invalid flag after regular expression

tryItOut 819
Compiling threw: SyntaxError: invalid sharp variable definition

tryItOut 820

tryItOut 821
Compiling threw: SyntaxError: missing variable name

tryItOut 822
Compiling threw: SyntaxError: missing } after let block

tryItOut 823
Compiling threw: SyntaxError: missing ) in parenthetical

tryItOut 824

tryItOut 825

tryItOut 826
Compiling threw: SyntaxError: missing { before function body

tryItOut 827
Compiling threw: SyntaxError: syntax error

tryItOut 828
Compiling threw: TypeError: redeclaration of variable constructor

tryItOut 829

tryItOut 830
Compiling threw: TypeError: redeclaration of variable prototype

tryItOut 831
Running threw: 0

tryItOut 832
It's an iterator!
Iterating succeeded, iterCount == 1

tryItOut 833

tryItOut 834

tryItOut 835
Compiling threw: TypeError: redeclaration of variable __noSuchMethod__

tryItOut 836
Compiling threw: SyntaxError: invalid for/in left-hand side

tryItOut 837

tryItOut 838

tryItOut 839
Compiling threw: SyntaxError: syntax error

tryItOut 840

tryItOut 841
It's an iterator!
Iterating succeeded, iterCount == 0

tryItOut 842
Compiling threw: SyntaxError: missing } after let block

tryItOut 843
Compiling threw: SyntaxError: syntax error

tryItOut 844
It's an iterator!
Iterating threw!
Iterating threw: ReferenceError: window is not defined

tryItOut 845

tryItOut 846

tryItOut 847

tryItOut 848
Running threw: TypeError: this.zzz has no properties

tryItOut 849
Compiling threw: SyntaxError: invalid for/in left-hand side

tryItOut 850
Running threw: null

tryItOut 851
Compiling threw: SyntaxError: syntax error

tryItOut 852
Running threw: TypeError: redeclaration of const __parent__

tryItOut 853

tryItOut 854
Compiling threw: SyntaxError: invalid for each loop

tryItOut 855

tryItOut 856
Compiling threw: SyntaxError: invalid for/in left-hand side

tryItOut 857
Compiling threw: SyntaxError: missing { before function body

tryItOut 858
Compiling threw: SyntaxError: syntax error

tryItOut 859
Compiling threw: SyntaxError: invalid for each loop

tryItOut 860

tryItOut 861

tryItOut 862

tryItOut 863
Compiling threw: SyntaxError: missing ) in parenthetical

tryItOut 864
before 1133600, after 470880, break 02109000
before 470880, after 470880, break 02109000
before 470880, after 470880, break 02109000
before 470880, after 470880, break 02109000

tryItOut 865
Compiling threw: SyntaxError: missing variable name

tryItOut 866
Compiling threw: SyntaxError: missing { before function body

tryItOut 867
Running threw: TypeError: __parent__ is not a function

tryItOut 868
Compiling threw: SyntaxError: invalid for/in left-hand side

tryItOut 869
Compiling threw: SyntaxError: missing variable name

tryItOut 870
Compiling threw: SyntaxError: invalid for/in left-hand side

tryItOut 871

tryItOut 872

tryItOut 873

tryItOut 874
Compiling threw: SyntaxError: invalid for each loop

tryItOut 875
Running threw: ReferenceError: window is not defined

tryItOut 876
Compiling threw: SyntaxError: invalid for/in left-hand side

tryItOut 877

tryItOut 878
Compiling threw: SyntaxError: invalid for/in left-hand side

tryItOut 879
Compiling threw: SyntaxError: missing ) in parenthetical

tryItOut 880
Compiling threw: SyntaxError: invalid for/in left-hand side

tryItOut 881
It's an iterator!
Iterating succeeded, iterCount == 1

tryItOut 882
Running threw: TypeError: prototype has no properties

tryItOut 883
It's an iterator!
Iterating succeeded, iterCount == 1

tryItOut 884
Compiling threw: SyntaxError: missing variable name

tryItOut 885

tryItOut 886

tryItOut 887
Running threw: TypeError: [1] is not a function

tryItOut 888
Compiling threw: SyntaxError: missing ) in parenthetical

tryItOut 889

tryItOut 890
It's an iterator!
Iterating succeeded, iterCount == 1

tryItOut 891
Compiling threw: SyntaxError: missing { before function body

tryItOut 892
Compiling threw: SyntaxError: missing variable name

tryItOut 893
Compiling threw: SyntaxError: missing variable name

tryItOut 894

tryItOut 895

tryItOut 896
It's an iterator!
Iterating succeeded, iterCount == 1

tryItOut 897
Compiling threw: SyntaxError: missing { before function body

tryItOut 898
Compiling threw: SyntaxError: syntax error

tryItOut 899
Compiling threw: SyntaxError: syntax error

tryItOut 900

tryItOut 901
It's an iterator!
Iterating succeeded, iterCount == 1

tryItOut 902
It's an iterator!
Iterating succeeded, iterCount == 2

tryItOut 903

tryItOut 904
Compiling threw: SyntaxError: missing variable name

tryItOut 905
Running threw: [object StopIteration]

tryItOut 906

tryItOut 907
Compiling threw: SyntaxError: missing formal parameter

tryItOut 908
Compiling threw: SyntaxError: missing ; after for-loop condition

tryItOut 909
Compiling threw: SyntaxError: invalid for/in left-hand side

tryItOut 910
Running threw: ReferenceError: window is not defined

tryItOut 911

tryItOut 912
Compiling threw: SyntaxError: missing variable name

tryItOut 913
Running threw: ReferenceError: window is not defined

tryItOut 914

tryItOut 915

tryItOut 916
Compiling threw: SyntaxError: syntax error

tryItOut 917
Compiling threw: SyntaxError: syntax error

tryItOut 918

tryItOut 919
Compiling threw: SyntaxError: missing variable name

tryItOut 920
It's an iterator!
Iterating threw!
Iterating threw: TypeError: RangeError(prototype, <x/>).yoyo is not a function

tryItOut 921

tryItOut 922
It's an iterator!
Iterating succeeded, iterCount == 1

tryItOut 923

tryItOut 924
Compiling threw: SyntaxError: missing ) in parenthetical

tryItOut 925
Compiling threw: SyntaxError: invalid for/in left-hand side

tryItOut 926
Compiling threw: SyntaxError: missing } after let block

tryItOut 927
Compiling threw: SyntaxError: missing { before function body

tryItOut 928
Compiling threw: SyntaxError: missing ) after for-loop control

tryItOut 929
It's an iterator!
Iterating succeeded, iterCount == 1

tryItOut 930
Compiling threw: SyntaxError: invalid for/in left-hand side

tryItOut 931
Compiling threw: SyntaxError: missing variable name

tryItOut 932
Running threw: SyntaxError: yield not in function

tryItOut 933
Compiling threw: SyntaxError: missing { before function body

tryItOut 934
Compiling threw: SyntaxError: syntax error

tryItOut 935

tryItOut 936
Running threw: SyntaxError: invalid getter usage

tryItOut 937

tryItOut 938
Compiling threw: SyntaxError: invalid for/in left-hand side

tryItOut 939
Compiling threw: SyntaxError: invalid for/in left-hand side

tryItOut 940

tryItOut 941

tryItOut 942

tryItOut 943
Running threw: TypeError: redeclaration of const __parent__

tryItOut 944
Compiling threw: SyntaxError: syntax error

tryItOut 945
It's an iterator!
Iterating threw!
Iterating threw: TypeError: p.z = __parent__ is not a function

tryItOut 946

tryItOut 947
Compiling threw: SyntaxError: duplicate label

tryItOut 948
Compiling threw: SyntaxError: syntax error

tryItOut 949

tryItOut 950

tryItOut 951
It's an iterator!
Iterating succeeded, iterCount == 0

tryItOut 952
Compiling threw: SyntaxError: invalid assignment left-hand side

tryItOut 953
Running threw: [object StopIteration]

tryItOut 954

tryItOut 955

tryItOut 956
Compiling threw: SyntaxError: missing variable name

tryItOut 957
Compiling threw: SyntaxError: invalid for/in left-hand side

tryItOut 958

tryItOut 959
It's an iterator!
Iterating succeeded, iterCount == 1

tryItOut 960
It's an iterator!
Iterating succeeded, iterCount == 0

tryItOut 961
Compiling threw: SyntaxError: missing variable name

tryItOut 962
Compiling threw: SyntaxError: missing { before function body

tryItOut 963

tryItOut 964

tryItOut 965
Compiling threw: SyntaxError: missing ] after element list

tryItOut 966
It's an iterator!
Iterating succeeded, iterCount == 1

tryItOut 967
Compiling threw: SyntaxError: missing { before function body

tryItOut 968

tryItOut 969

tryItOut 970
Running threw: TypeError: this.zzz has no properties

tryItOut 971
Running threw: TypeError: this.zzz has no properties

tryItOut 972
Running threw: [object StopIteration]

tryItOut 973
It's an iterator!
Iterating succeeded, iterCount == 1

tryItOut 974
Compiling threw: SyntaxError: invalid for/in left-hand side

tryItOut 975
It's an iterator!
Iterating succeeded, iterCount == 1

tryItOut 976

tryItOut 977

tryItOut 978
Compiling threw: SyntaxError: invalid decrement operand

tryItOut 979
Running threw: ReferenceError: getter is not defined

tryItOut 980
Running threw: ReferenceError: z2 is not defined

tryItOut 981

tryItOut 982

tryItOut 983
It's an iterator!
Iterating threw!
Iterating threw: TypeError: p.z = __proto__ is not a function

tryItOut 984
Compiling threw: SyntaxError: syntax error

tryItOut 985

tryItOut 986
Compiling threw: SyntaxError: missing ( before formal parameters

tryItOut 987

tryItOut 988

tryItOut 989

tryItOut 990
Compiling threw: SyntaxError: missing variable name

tryItOut 991
Compiling threw: SyntaxError: duplicate label

tryItOut 992

tryItOut 993

tryItOut 994
Compiling threw: SyntaxError: syntax error

tryItOut 995

tryItOut 996

tryItOut 997

tryItOut 998
Compiling threw: SyntaxError: missing { before function body

tryItOut 999
Running threw: 1

tryItOut 1000

ALL OK

Script done on Sat 04 May 2013 05:36:04 AM PDT
