Script started on Sat 04 May 2013 05:36:34 AM PDT
***
Targeting SpiderMonkey / Gecko.

tryItOut 1

tryItOut 2
Compiling threw: SyntaxError: illegal character

tryItOut 3

tryItOut 4

tryItOut 5

tryItOut 6

tryItOut 7

tryItOut 8

tryItOut 9

tryItOut 10
Compiling threw: SyntaxError: missing } in XML expression

tryItOut 11
Compiling threw: SyntaxError: syntax error

tryItOut 12
Compiling threw: SyntaxError: missing : after property id

tryItOut 13
before 87200, after 87200, break 008da000

tryItOut 14

tryItOut 15
Running threw: ReferenceError: __iterator__ is not defined

tryItOut 16
Compiling threw: SyntaxError: missing ; after for-loop initializer

tryItOut 17
Compiling threw: SyntaxError: syntax error

tryItOut 18
Running threw: TypeError: this.zzz has no properties

tryItOut 19

tryItOut 20

tryItOut 21
Compiling threw: SyntaxError: invalid for/in left-hand side

tryItOut 22

tryItOut 23
Compiling threw: SyntaxError: syntax error

tryItOut 24

tryItOut 25
Compiling threw: SyntaxError: label not found

tryItOut 26
Compiling threw: SyntaxError: invalid for/in left-hand side

tryItOut 27

tryItOut 28
before 87200, after 87200, break 008da000

tryItOut 29
Compiling threw: SyntaxError: label not found

tryItOut 30
Compiling threw: SyntaxError: missing ) after with-statement object

tryItOut 31
before 87200, after 87200, break 008da000

tryItOut 32

tryItOut 33

tryItOut 34
Running threw: SyntaxError: invalid setter usage

tryItOut 35
Compiling threw: SyntaxError: syntax error

tryItOut 36
before 87200, after 87200, break 008da000

tryItOut 37
Running threw: ReferenceError: reference to undefined XML name @foo

tryItOut 38
Compiling threw: SyntaxError: missing ) in parenthetical

tryItOut 39
Compiling threw: SyntaxError: syntax error

tryItOut 40

tryItOut 41

tryItOut 42
Compiling threw: SyntaxError: missing ; before statement

tryItOut 43
Running threw: TypeError: this.zzz has no properties

tryItOut 44
Compiling threw: SyntaxError: missing ; before statement

tryItOut 45
before 87200, after 87200, break 008da000

tryItOut 46

tryItOut 47

tryItOut 48
before 87200, after 87200, break 008da000
before 87200, after 87200, break 008da000
before 87200, after 87200, break 008da000
before 87200, after 87200, break 008da000

tryItOut 49
Compiling threw: SyntaxError: missing variable name

tryItOut 50

tryItOut 51

tryItOut 52
Compiling threw: SyntaxError: missing ; before statement

tryItOut 53
before 87200, after 87200, break 008da000

tryItOut 54
Compiling threw: SyntaxError: invalid XML tag syntax

tryItOut 55

tryItOut 56

tryItOut 57
Compiling threw: SyntaxError: syntax error

tryItOut 58

tryItOut 59
Running threw: 

tryItOut 60
It's an iterator!
Iterating threw!
Iterating threw: SyntaxError: invalid setter usage

tryItOut 61
Compiling threw: SyntaxError: invalid property id

tryItOut 62
Compiling threw: SyntaxError: label not found

tryItOut 63

tryItOut 64
Compiling threw: SyntaxError: missing ; before statement

tryItOut 65

tryItOut 66
Compiling threw: TypeError: redeclaration of const __count__

tryItOut 67
Running threw: ReferenceError: z1 is not defined

tryItOut 68

tryItOut 69
Compiling threw: SyntaxError: missing ; before statement

tryItOut 70

tryItOut 71
Running threw: undefined

tryItOut 72
Compiling threw: SyntaxError: unterminated regular expression literal

tryItOut 73

tryItOut 74
Compiling threw: SyntaxError: label not found

tryItOut 75

tryItOut 76
Compiling threw: SyntaxError: invalid for/in left-hand side

tryItOut 77

tryItOut 78
Compiling threw: SyntaxError: invalid continue

tryItOut 79

tryItOut 80
Compiling threw: TypeError: redeclaration of const constructor

tryItOut 81

tryItOut 82

tryItOut 83
Running threw: SyntaxError: invalid setter usage

tryItOut 84
Running threw: ReferenceError: reference to undefined XML name @foo

tryItOut 85
Compiling threw: SyntaxError: invalid continue

tryItOut 86
Running threw: ReferenceError: prop is not defined

tryItOut 87
Compiling threw: SyntaxError: missing ; before statement

tryItOut 88
Compiling threw: SyntaxError: missing ) in parenthetical

tryItOut 89

tryItOut 90
Compiling threw: SyntaxError: missing ; before statement

tryItOut 91
Compiling threw: TypeError: redeclaration of const __noSuchMethod__

tryItOut 92
Compiling threw: SyntaxError: invalid continue

tryItOut 93

tryItOut 94
Running threw: ReferenceError: reference to undefined XML name *::*

tryItOut 95
Compiling threw: SyntaxError: invalid for/in left-hand side

tryItOut 96
Running threw: ReferenceError: z1 is not defined

tryItOut 97
Running threw: ReferenceError: prototype is not defined

tryItOut 98
Running threw: TypeError: this.zzz has no properties

tryItOut 99

tryItOut 100
Running threw: 

tryItOut 101
Compiling threw: TypeError: generator function anonymous returns a value

tryItOut 102
Compiling threw: SyntaxError: missing ) in parenthetical

tryItOut 103

tryItOut 104
Compiling threw: SyntaxError: label not found

tryItOut 105
Compiling threw: SyntaxError: label not found

tryItOut 106
Compiling threw: SyntaxError: missing { before function body

tryItOut 107
Running threw: ReferenceError: z1 is not defined

tryItOut 108

tryItOut 109

tryItOut 110
Compiling threw: SyntaxError: missing variable name

tryItOut 111
Compiling threw: SyntaxError: missing ] after element list

tryItOut 112
Compiling threw: SyntaxError: invalid sharp variable definition

tryItOut 113

tryItOut 114
Running threw: 

tryItOut 115

tryItOut 116
Compiling threw: SyntaxError: invalid assignment left-hand side

tryItOut 117

tryItOut 118

tryItOut 119
Running threw: ReferenceError: reference to undefined XML name *

tryItOut 120
Compiling threw: SyntaxError: missing ; before statement

tryItOut 121
Compiling threw: SyntaxError: label not found

tryItOut 122
Running threw: ReferenceError: reference to undefined XML name @foo

tryItOut 123
Compiling threw: SyntaxError: invalid assignment left-hand side

tryItOut 124

tryItOut 125

tryItOut 126
Compiling threw: SyntaxError: label not found

tryItOut 127
Compiling threw: SyntaxError: invalid assignment left-hand side

tryItOut 128
Running threw: TypeError: arguments[0] has no properties

tryItOut 129
Running threw: SyntaxError: invalid setter usage

tryItOut 130

tryItOut 131
Compiling threw: SyntaxError: invalid assignment left-hand side

tryItOut 132

tryItOut 133
Compiling threw: SyntaxError: illegal XML character

tryItOut 134

tryItOut 135
Compiling threw: SyntaxError: syntax error

tryItOut 136
Compiling threw: SyntaxError: missing ; before statement

tryItOut 137
Compiling threw: SyntaxError: invalid default XML namespace

tryItOut 138

tryItOut 139
Compiling threw: SyntaxError: missing variable name

tryItOut 140
Compiling threw: SyntaxError: invalid break

tryItOut 141

tryItOut 142

tryItOut 143
Compiling threw: SyntaxError: invalid XML name

tryItOut 144

tryItOut 145
Compiling threw: SyntaxError: missing ; before statement

tryItOut 146

tryItOut 147

tryItOut 148

tryItOut 149
Compiling threw: SyntaxError: missing ) after for-loop control

tryItOut 150

tryItOut 151
Compiling threw: SyntaxError: invalid for/in left-hand side

tryItOut 152
Compiling threw: SyntaxError: syntax error

tryItOut 153

tryItOut 154

tryItOut 155

tryItOut 156

tryItOut 157
Compiling threw: SyntaxError: label not found

tryItOut 158

tryItOut 159

tryItOut 160

tryItOut 161
Compiling threw: SyntaxError: missing : after property id

tryItOut 162

tryItOut 163
Compiling threw: SyntaxError: invalid assignment left-hand side

tryItOut 164
Compiling threw: SyntaxError: missing ) in parenthetical

tryItOut 165

tryItOut 166
Running threw: ReferenceError: z1 is not defined

tryItOut 167

tryItOut 168
Running threw: ReferenceError: x is not defined

tryItOut 169
Compiling threw: SyntaxError: invalid decrement operand

tryItOut 170
Compiling threw: SyntaxError: missing ; before statement

tryItOut 171
Compiling threw: SyntaxError: invalid assignment left-hand side

tryItOut 172

tryItOut 173

tryItOut 174
Compiling threw: SyntaxError: invalid continue

tryItOut 175
Compiling threw: SyntaxError: missing variable name

tryItOut 176

tryItOut 177

tryItOut 178
Running threw: TypeError: __parent__ has no properties

tryItOut 179

tryItOut 180

tryItOut 181
Compiling threw: SyntaxError: invalid assignment left-hand side

tryItOut 182
Compiling threw: SyntaxError: missing formal parameter

tryItOut 183
Compiling threw: SyntaxError: missing variable name

tryItOut 184
Compiling threw: SyntaxError: invalid continue

tryItOut 185
Compiling threw: SyntaxError: missing name after . operator

tryItOut 186
It's an iterator!
Iterating threw!
Iterating threw: ReferenceError: reference to undefined XML name @foo

tryItOut 187

tryItOut 188
Compiling threw: SyntaxError: label not found

tryItOut 189

tryItOut 190
Compiling threw: SyntaxError: syntax error

tryItOut 191
Running threw: ReferenceError: reference to undefined XML name *

tryItOut 192
Compiling threw: SyntaxError: missing ; before statement

tryItOut 193

tryItOut 194

tryItOut 195
Running threw: TypeError: this.zzz has no properties

tryItOut 196
Compiling threw: SyntaxError: missing ( before formal parameters

tryItOut 197

tryItOut 198

tryItOut 199
Compiling threw: SyntaxError: invalid break

tryItOut 200

tryItOut 201

tryItOut 202
Compiling threw: SyntaxError: missing in after for

tryItOut 203
Compiling threw: SyntaxError: label not found

tryItOut 204

tryItOut 205
Compiling threw: SyntaxError: missing : after property id

tryItOut 206

tryItOut 207

tryItOut 208
Compiling threw: SyntaxError: missing = in destructuring declaration

tryItOut 209
Compiling threw: SyntaxError: missing variable name

tryItOut 210

tryItOut 211
Compiling threw: SyntaxError: syntax error

tryItOut 212
Running threw: 

tryItOut 213

tryItOut 214

tryItOut 215
Compiling threw: SyntaxError: syntax error

tryItOut 216

tryItOut 217
before 156960, after 156960, break 0097f000

tryItOut 218
Compiling threw: SyntaxError: label not found

tryItOut 219
Compiling threw: SyntaxError: missing variable name

tryItOut 220
Running threw: ReferenceError: reference to undefined XML name @foo

tryItOut 221
Compiling threw: SyntaxError: syntax error

tryItOut 222
before 156960, after 156960, break 0097f000

tryItOut 223
Compiling threw: SyntaxError: invalid sharp variable definition

tryItOut 224

tryItOut 225

tryItOut 226
Compiling threw: SyntaxError: invalid assignment left-hand side

tryItOut 227

tryItOut 228

tryItOut 229
Compiling threw: SyntaxError: invalid for/in left-hand side

tryItOut 230

tryItOut 231
Running threw: ReferenceError: __noSuchMethod__ is not defined

tryItOut 232
Running threw: ReferenceError: reference to undefined XML name *::*

tryItOut 233
Compiling threw: SyntaxError: invalid break

tryItOut 234

tryItOut 235

tryItOut 236

tryItOut 237

tryItOut 238

tryItOut 239

tryItOut 240

tryItOut 241
before 156960, after 156960, break 0097f000

tryItOut 242
Compiling threw: SyntaxError: missing variable name

tryItOut 243
Compiling threw: SyntaxError: missing : after property id

tryItOut 244

tryItOut 245
before 156960, after 156960, break 0097f000

tryItOut 246
Compiling threw: SyntaxError: missing ; before statement

tryItOut 247

tryItOut 248
Compiling threw: SyntaxError: missing ; before statement

tryItOut 249
Compiling threw: SyntaxError: duplicate label

tryItOut 250
Running threw: SyntaxError: invalid setter usage

tryItOut 251
Compiling threw: SyntaxError: invalid assignment left-hand side

tryItOut 252
Running threw: ReferenceError: reference to undefined XML name *

tryItOut 253
Running threw: ReferenceError: reference to undefined XML name *::*

tryItOut 254

tryItOut 255
Compiling threw: SyntaxError: missing ) in parenthetical

tryItOut 256

tryItOut 257
Running threw: ReferenceError: __iterator__ is not defined

tryItOut 258
Compiling threw: SyntaxError: yield expression must be parenthesized

tryItOut 259
Running threw: TypeError: this.zzz has no properties

tryItOut 260
Running threw: 

tryItOut 261
Running threw: <y>
  <z/>
</y>

tryItOut 262
Compiling threw: SyntaxError: invalid continue

tryItOut 263
Compiling threw: SyntaxError: invalid assignment left-hand side

tryItOut 264
Compiling threw: SyntaxError: missing identifier in catch

tryItOut 265

tryItOut 266

tryItOut 267

tryItOut 268

tryItOut 269
Running threw: 

tryItOut 270
before 156960, after 156960, break 0097f000
before 156960, after 156960, break 0097f000
before 156960, after 156960, break 0097f000
before 156960, after 156960, break 0097f000

tryItOut 271

tryItOut 272
Running threw: TypeError: this.zzz has no properties

tryItOut 273
Compiling threw: SyntaxError: invalid continue

tryItOut 274
Compiling threw: SyntaxError: invalid break

tryItOut 275
Compiling threw: TypeError: redeclaration of const constructor

tryItOut 276

tryItOut 277

tryItOut 278
Compiling threw: SyntaxError: missing } in XML expression

tryItOut 279
Running threw: TypeError: this.zzz has no properties

tryItOut 280
Compiling threw: SyntaxError: invalid assignment left-hand side

tryItOut 281

tryItOut 282
Compiling threw: SyntaxError: invalid break

tryItOut 283
Running threw: TypeError: this.zzz has no properties

tryItOut 284

tryItOut 285
Compiling threw: SyntaxError: missing formal parameter

tryItOut 286

tryItOut 287
Compiling threw: SyntaxError: invalid for/in left-hand side

tryItOut 288

tryItOut 289
Running threw: undefined

tryItOut 290
Compiling threw: SyntaxError: invalid increment operand

tryItOut 291
Compiling threw: SyntaxError: syntax error

tryItOut 292

tryItOut 293

tryItOut 294

tryItOut 295
Running threw: ReferenceError: reference to undefined XML name *

tryItOut 296
Compiling threw: SyntaxError: invalid XML name

tryItOut 297
It's an iterator!
Iterating threw!
Iterating threw: undefined

tryItOut 298
Running threw: ReferenceError: reference to undefined XML name *

tryItOut 299

tryItOut 300
Running threw: 

tryItOut 301
Compiling threw: SyntaxError: missing ; before statement

tryItOut 302
Compiling threw: SyntaxError: label not found

tryItOut 303
Running threw: ReferenceError: reference to undefined XML name *::*

tryItOut 304

tryItOut 305
Compiling threw: SyntaxError: label not found

tryItOut 306

tryItOut 307
Compiling threw: SyntaxError: syntax error

tryItOut 308

tryItOut 309
Compiling threw: SyntaxError: syntax error

tryItOut 310
Compiling threw: SyntaxError: syntax error

tryItOut 311
Compiling threw: SyntaxError: syntax error

tryItOut 312
Compiling threw: SyntaxError: missing variable name

tryItOut 313
Running threw: ReferenceError: reference to undefined XML name *

tryItOut 314

tryItOut 315

tryItOut 316

tryItOut 317
Compiling threw: SyntaxError: invalid continue

tryItOut 318
Running threw: ReferenceError: __noSuchMethod__ is not defined

tryItOut 319
Compiling threw: SyntaxError: missing ; before statement

tryItOut 320

tryItOut 321
Compiling threw: SyntaxError: syntax error

tryItOut 322
Compiling threw: SyntaxError: invalid break

tryItOut 323
Compiling threw: SyntaxError: missing variable name

tryItOut 324
Compiling threw: SyntaxError: syntax error

tryItOut 325
Running threw: ReferenceError: reference to undefined property "prototype"

tryItOut 326
Running threw: TypeError: this.zzz has no properties

tryItOut 327
Compiling threw: SyntaxError: invalid assignment left-hand side

tryItOut 328
Compiling threw: SyntaxError: syntax error

tryItOut 329
Compiling threw: SyntaxError: missing { before function body

tryItOut 330

tryItOut 331
Compiling threw: SyntaxError: label not found

tryItOut 332
Compiling threw: SyntaxError: invalid break

tryItOut 333
Compiling threw: SyntaxError: label not found

tryItOut 334
Compiling threw: SyntaxError: missing ; before statement

tryItOut 335
Running threw: TypeError: this.zzz has no properties

tryItOut 336
Compiling threw: SyntaxError: invalid continue

tryItOut 337
Compiling threw: SyntaxError: missing ; after for-loop initializer

tryItOut 338
Running threw: ReferenceError: reference to undefined XML name *

tryItOut 339

tryItOut 340
Compiling threw: SyntaxError: invalid continue

tryItOut 341
Compiling threw: SyntaxError: invalid decrement operand

tryItOut 342

tryItOut 343

tryItOut 344

tryItOut 345
Running threw: ReferenceError: reference to undefined XML name *::*

tryItOut 346
Compiling threw: SyntaxError: invalid continue

tryItOut 347
Running threw: ReferenceError: reference to undefined XML name *::*

tryItOut 348

tryItOut 349

tryItOut 350
before 156960, after 156960, break 0098b000

tryItOut 351

tryItOut 352
Compiling threw: SyntaxError: missing { before function body

tryItOut 353

tryItOut 354

tryItOut 355
Compiling threw: SyntaxError: missing ; before statement

tryItOut 356
Compiling threw: SyntaxError: missing ( before formal parameters

tryItOut 357
Compiling threw: SyntaxError: invalid continue

tryItOut 358
Compiling threw: SyntaxError: label not found

tryItOut 359

tryItOut 360
Running threw: 

tryItOut 361
Compiling threw: SyntaxError: invalid increment operand

tryItOut 362
Running threw: ReferenceError: reference to undefined XML name *

tryItOut 363
Compiling threw: SyntaxError: syntax error

tryItOut 364

tryItOut 365
Compiling threw: SyntaxError: syntax error

tryItOut 366

tryItOut 367

tryItOut 368

tryItOut 369
Compiling threw: SyntaxError: invalid assignment left-hand side

tryItOut 370
Compiling threw: SyntaxError: label not found

tryItOut 371
Running threw: ReferenceError: prop is not defined

tryItOut 372

tryItOut 373

tryItOut 374
before 156960, after 156960, break 0098b000

tryItOut 375
Compiling threw: SyntaxError: invalid continue

tryItOut 376
Compiling threw: SyntaxError: syntax error

tryItOut 377

tryItOut 378

tryItOut 379

tryItOut 380
Compiling threw: SyntaxError: invalid assignment left-hand side

tryItOut 381

tryItOut 382
Running threw: /x/

tryItOut 383

tryItOut 384
Compiling threw: SyntaxError: missing ; before statement

tryItOut 385
Compiling threw: SyntaxError: missing ) after condition

tryItOut 386
Compiling threw: SyntaxError: missing ; before statement

tryItOut 387
Running threw: ReferenceError: prototype is not defined

tryItOut 388
Compiling threw: SyntaxError: invalid continue

tryItOut 389

tryItOut 390
Compiling threw: SyntaxError: missing ; before statement

tryItOut 391
Compiling threw: SyntaxError: syntax error

tryItOut 392
Running threw: TypeError: this.zzz has no properties

tryItOut 393
Running threw: TypeError: (p.z = /x/g)() is not a function

tryItOut 394

tryItOut 395
Compiling threw: SyntaxError: invalid continue

tryItOut 396
Running threw: ReferenceError: reference to undefined XML name *

tryItOut 397
Compiling threw: SyntaxError: missing variable name

tryItOut 398

tryItOut 399
Compiling threw: SyntaxError: syntax error

tryItOut 400

tryItOut 401
Compiling threw: SyntaxError: missing ) after condition

tryItOut 402
Compiling threw: SyntaxError: missing ; before statement

tryItOut 403
Compiling threw: SyntaxError: syntax error

tryItOut 404
Running threw: TypeError: this.zzz has no properties

tryItOut 405
Compiling threw: SyntaxError: syntax error

tryItOut 406
Compiling threw: SyntaxError: missing variable name

tryItOut 407

tryItOut 408
Compiling threw: SyntaxError: invalid continue

tryItOut 409
Running threw: ReferenceError: reference to undefined XML name *

tryItOut 410
Compiling threw: SyntaxError: missing { before function body

tryItOut 411

tryItOut 412
Compiling threw: SyntaxError: syntax error

tryItOut 413

tryItOut 414
Running threw: ReferenceError: reference to undefined XML name *

tryItOut 415

tryItOut 416
Compiling threw: SyntaxError: missing variable name

tryItOut 417
Compiling threw: SyntaxError: syntax error

tryItOut 418
Compiling threw: SyntaxError: missing ; before statement

tryItOut 419
Running threw: ReferenceError: reference to undefined XML name @foo

tryItOut 420

tryItOut 421

tryItOut 422

tryItOut 423
Compiling threw: SyntaxError: invalid assignment left-hand side

tryItOut 424

tryItOut 425
Running threw: ReferenceError: z2 is not defined

tryItOut 426
Compiling threw: SyntaxError: syntax error

tryItOut 427
Compiling threw: SyntaxError: duplicate label

tryItOut 428
Compiling threw: SyntaxError: invalid continue

tryItOut 429
before 156960, after 156960, break 0098b000

tryItOut 430
Running threw: TypeError: this.zzz has no properties

tryItOut 431
It's an iterator!
Iterating threw!
Iterating threw: TypeError: "" is not a function

tryItOut 432

tryItOut 433
Compiling threw: SyntaxError: missing ; before statement

tryItOut 434

tryItOut 435

tryItOut 436
before 156960, after 156960, break 0098b000

tryItOut 437
Compiling threw: SyntaxError: missing : after property id

tryItOut 438

tryItOut 439
Compiling threw: SyntaxError: missing ) in parenthetical

tryItOut 440

tryItOut 441
Compiling threw: SyntaxError: unterminated comment

tryItOut 442
Running threw: ReferenceError: z1 is not defined

tryItOut 443

tryItOut 444
Compiling threw: SyntaxError: syntax error

tryItOut 445

tryItOut 446

tryItOut 447
Compiling threw: SyntaxError: invalid assignment left-hand side

tryItOut 448

tryItOut 449

tryItOut 450

tryItOut 451
before 156960, after 156960, break 0098b000

tryItOut 452

tryItOut 453

tryItOut 454
Running threw: TypeError: arguments[0] has no properties

tryItOut 455
Compiling threw: SyntaxError: missing variable name

tryItOut 456
Compiling threw: SyntaxError: missing variable name

tryItOut 457

tryItOut 458
Compiling threw: TypeError: redeclaration of variable __proto__

tryItOut 459
Running threw: /x/g

tryItOut 460

tryItOut 461

tryItOut 462

tryItOut 463
Compiling threw: TypeError: generator function anonymous returns a value

tryItOut 464

tryItOut 465
Compiling threw: SyntaxError: illegal XML character

tryItOut 466
Compiling threw: SyntaxError: syntax error

tryItOut 467

tryItOut 468
Compiling threw: SyntaxError: invalid assignment left-hand side

tryItOut 469
Compiling threw: SyntaxError: missing variable name

tryItOut 470
Compiling threw: TypeError: anonymous generator function returns a value

tryItOut 471

tryItOut 472

tryItOut 473

tryItOut 474

tryItOut 475

tryItOut 476
Compiling threw: SyntaxError: invalid continue

tryItOut 477
Running threw: ReferenceError: reference to undefined XML name *::*

tryItOut 478
before 156960, after 156960, break 0098b000
before 156960, after 156960, break 0098b000
before 156960, after 156960, break 0098b000
before 156960, after 156960, break 0098b000

tryItOut 479

tryItOut 480

tryItOut 481
Compiling threw: SyntaxError: missing variable name

tryItOut 482
Running threw: TypeError: arguments[0] has no properties

tryItOut 483
Compiling threw: SyntaxError: label not found

tryItOut 484
Compiling threw: SyntaxError: illegal XML character

tryItOut 485

tryItOut 486
Compiling threw: SyntaxError: missing ) in parenthetical

tryItOut 487

tryItOut 488
Compiling threw: SyntaxError: missing : after property id

tryItOut 489

tryItOut 490
Compiling threw: SyntaxError: invalid break

tryItOut 491
Compiling threw: SyntaxError: invalid for each loop

tryItOut 492

tryItOut 493
before 156960, after 156960, break 0098b000

tryItOut 494
Compiling threw: SyntaxError: missing ) after with-statement object

tryItOut 495

tryItOut 496
Running threw: TypeError: prop has no properties

tryItOut 497
Compiling threw: TypeError: generator function anonymous returns a value

tryItOut 498

tryItOut 499
Running threw: ReferenceError: reference to undefined XML name *::*

tryItOut 500
Running threw: ReferenceError: reference to undefined XML name *::*

tryItOut 501
Compiling threw: SyntaxError: missing ; before statement

tryItOut 502
Compiling threw: SyntaxError: invalid assignment left-hand side

tryItOut 503
Compiling threw: SyntaxError: syntax error

tryItOut 504

tryItOut 505
Compiling threw: SyntaxError: label not found

tryItOut 506
Compiling threw: SyntaxError: missing variable name

tryItOut 507

tryItOut 508
Compiling threw: SyntaxError: syntax error

tryItOut 509
Compiling threw: SyntaxError: syntax error

tryItOut 510
Running threw: <y>
  <z/>
</y>

tryItOut 511
Running threw: ReferenceError: __noSuchMethod__ is not defined

tryItOut 512

tryItOut 513
Compiling threw: SyntaxError: invalid assignment left-hand side

tryItOut 514
Running threw: ReferenceError: reference to undefined XML name *

tryItOut 515

tryItOut 516
Compiling threw: SyntaxError: invalid for/in left-hand side

tryItOut 517

tryItOut 518

tryItOut 519
Running threw: ReferenceError: reference to undefined XML name *::*

tryItOut 520
Compiling threw: SyntaxError: invalid switch statement

tryItOut 521

tryItOut 522

tryItOut 523
Compiling threw: SyntaxError: invalid continue

tryItOut 524

tryItOut 525
Running threw: TypeError: this.zzz has no properties

tryItOut 526
Compiling threw: SyntaxError: syntax error

tryItOut 527
Compiling threw: SyntaxError: label not found

tryItOut 528

tryItOut 529

tryItOut 530

tryItOut 531

tryItOut 532

tryItOut 533

tryItOut 534

tryItOut 535
Running threw: ReferenceError: reference to undefined XML name *

tryItOut 536

tryItOut 537

tryItOut 538

tryItOut 539
Compiling threw: SyntaxError: invalid increment operand

tryItOut 540
Compiling threw: SyntaxError: missing ; before statement

tryItOut 541

tryItOut 542
Compiling threw: SyntaxError: invalid assignment left-hand side

tryItOut 543

tryItOut 544

tryItOut 545
Compiling threw: SyntaxError: syntax error

tryItOut 546

tryItOut 547

tryItOut 548
Compiling threw: SyntaxError: missing ) in parenthetical

tryItOut 549

tryItOut 550
Running threw: TypeError: this.zzz has no properties

tryItOut 551
Running threw: ReferenceError: reference to undefined XML name *

tryItOut 552
Compiling threw: SyntaxError: syntax error

tryItOut 553

tryItOut 554
Compiling threw: SyntaxError: syntax error

tryItOut 555
Compiling threw: SyntaxError: invalid assignment left-hand side

tryItOut 556
before 156960, after 156960, break 009a4000

tryItOut 557
Compiling threw: TypeError: generator function anonymous returns a value

tryItOut 558
Running threw: ReferenceError: __noSuchMethod__ is not defined

tryItOut 559
Compiling threw: SyntaxError: syntax error

tryItOut 560
Compiling threw: SyntaxError: invalid destructuring assignment operator

tryItOut 561

tryItOut 562

tryItOut 563

tryItOut 564
Compiling threw: SyntaxError: missing : after property id

tryItOut 565
Compiling threw: SyntaxError: invalid break

tryItOut 566

tryItOut 567
Compiling threw: SyntaxError: label not found

tryItOut 568
It's an iterator!
Iterating threw!
Iterating threw: TypeError: prop is not a function

tryItOut 569
Compiling threw: SyntaxError: missing = in destructuring declaration

tryItOut 570
Compiling threw: SyntaxError: invalid assignment left-hand side

tryItOut 571
Compiling threw: SyntaxError: syntax error

tryItOut 572

tryItOut 573

tryItOut 574
Running threw: ReferenceError: z1 is not defined

tryItOut 575
Compiling threw: SyntaxError: invalid decrement operand

tryItOut 576
Compiling threw: SyntaxError: invalid property id

tryItOut 577
Compiling threw: SyntaxError: missing : after property id

tryItOut 578
Compiling threw: SyntaxError: missing ; before statement

tryItOut 579

tryItOut 580

tryItOut 581

tryItOut 582

tryItOut 583

tryItOut 584
Compiling threw: SyntaxError: label not found

tryItOut 585
Compiling threw: SyntaxError: invalid assignment left-hand side

tryItOut 586
Running threw: TypeError: this.zzz has no properties

tryItOut 587
Compiling threw: SyntaxError: label not found

tryItOut 588
Compiling threw: SyntaxError: duplicate label

tryItOut 589
Compiling threw: SyntaxError: missing ( before switch expression

tryItOut 590

tryItOut 591

tryItOut 592
Compiling threw: SyntaxError: label not found

tryItOut 593

tryItOut 594
Running threw: TypeError: this.zzz has no properties

tryItOut 595
Compiling threw: SyntaxError: invalid XML name

tryItOut 596
It's an iterator!
Iterating succeeded, iterCount == 1

tryItOut 597
Compiling threw: SyntaxError: syntax error

tryItOut 598

tryItOut 599
Compiling threw: SyntaxError: missing ) in parenthetical

tryItOut 600
Compiling threw: SyntaxError: syntax error

tryItOut 601
Compiling threw: SyntaxError: label not found

tryItOut 602

tryItOut 603

tryItOut 604

tryItOut 605
Compiling threw: SyntaxError: invalid break

tryItOut 606
Running threw: ReferenceError: reference to undefined XML name *

tryItOut 607
Compiling threw: SyntaxError: invalid for/in left-hand side

tryItOut 608

tryItOut 609

tryItOut 610
before 156960, after 156960, break 009b5000

tryItOut 611
Compiling threw: SyntaxError: missing ; before statement

tryItOut 612
Compiling threw: SyntaxError: missing ; before statement

tryItOut 613
Running threw: TypeError: this.zzz has no properties

tryItOut 614
Compiling threw: SyntaxError: invalid decrement operand

tryItOut 615
Compiling threw: SyntaxError: missing ; before statement

tryItOut 616

tryItOut 617
Compiling threw: TypeError: redeclaration of var __noSuchMethod__

tryItOut 618
Compiling threw: SyntaxError: invalid assignment left-hand side

tryItOut 619

tryItOut 620

tryItOut 621
Compiling threw: SyntaxError: invalid continue

tryItOut 622
Compiling threw: SyntaxError: label not found

tryItOut 623
Compiling threw: SyntaxError: missing ; before statement

tryItOut 624

tryItOut 625
before 156960, after 156960, break 009b5000

tryItOut 626
Compiling threw: SyntaxError: invalid decrement operand

tryItOut 627
It's an iterator!
Iterating threw!
Iterating threw: ReferenceError: reference to undefined XML name *::*

tryItOut 628

tryItOut 629

tryItOut 630
Running threw: ReferenceError: reference to undefined XML name *::*

tryItOut 631
Running threw: ReferenceError: reference to undefined XML name *::*

tryItOut 632
Running threw: ReferenceError: reference to undefined XML name @foo

tryItOut 633
Compiling threw: SyntaxError: label not found

tryItOut 634
Compiling threw: SyntaxError: invalid continue

tryItOut 635

tryItOut 636

tryItOut 637
Compiling threw: SyntaxError: missing variable name

tryItOut 638

tryItOut 639
Running threw: ReferenceError: reference to undefined XML name *::*

tryItOut 640
Running threw: TypeError: this.zzz has no properties

tryItOut 641
Running threw: TypeError: null has no properties

tryItOut 642

tryItOut 643

tryItOut 644

tryItOut 645
Compiling threw: TypeError: redeclaration of const __proto__

tryItOut 646
Running threw: ReferenceError: reference to undefined XML name *

tryItOut 647
Compiling threw: SyntaxError: syntax error

tryItOut 648
Compiling threw: SyntaxError: missing = in destructuring declaration

tryItOut 649
Compiling threw: SyntaxError: syntax error

tryItOut 650
Running threw: [object Object]

tryItOut 651
Compiling threw: SyntaxError: missing while after do-loop body

tryItOut 652

tryItOut 653

tryItOut 654
Compiling threw: SyntaxError: invalid assignment left-hand side

tryItOut 655
It's an iterator!
Iterating succeeded, iterCount == 1

tryItOut 656

tryItOut 657
Compiling threw: SyntaxError: syntax error

tryItOut 658

tryItOut 659
Compiling threw: SyntaxError: missing ; before statement

tryItOut 660
Compiling threw: SyntaxError: syntax error

tryItOut 661
Compiling threw: SyntaxError: invalid assignment left-hand side

tryItOut 662
Compiling threw: SyntaxError: illegal XML character

tryItOut 663
Running threw: ReferenceError: reference to undefined XML name @foo

tryItOut 664
Compiling threw: SyntaxError: syntax error

tryItOut 665

tryItOut 666
Compiling threw: SyntaxError: invalid continue

tryItOut 667
Compiling threw: SyntaxError: missing ; before statement

tryItOut 668
Running threw: TypeError: this.zzz has no properties

tryItOut 669
Running threw: TypeError: p.z = __count__ = <y><z/></y> is not a function

tryItOut 670

tryItOut 671
Compiling threw: SyntaxError: invalid for each loop

tryItOut 672

tryItOut 673
Compiling threw: SyntaxError: invalid property id

tryItOut 674

tryItOut 675

tryItOut 676
Compiling threw: SyntaxError: invalid decrement operand

tryItOut 677

tryItOut 678
Compiling threw: SyntaxError: illegal XML character

tryItOut 679
Compiling threw: SyntaxError: invalid break

tryItOut 680
Compiling threw: SyntaxError: missing ; before statement

tryItOut 681

tryItOut 682

tryItOut 683
Compiling threw: SyntaxError: missing ; before statement

tryItOut 684

tryItOut 685
Compiling threw: SyntaxError: invalid destructuring assignment operator

tryItOut 686
Compiling threw: SyntaxError: invalid sharp variable definition

tryItOut 687
Compiling threw: SyntaxError: missing variable name

tryItOut 688
Compiling threw: SyntaxError: illegal XML character

tryItOut 689
Running threw: TypeError: this.zzz has no properties

tryItOut 690
Compiling threw: SyntaxError: syntax error

tryItOut 691
Compiling threw: SyntaxError: invalid break

tryItOut 692
Compiling threw: SyntaxError: invalid assignment left-hand side

tryItOut 693

tryItOut 694

tryItOut 695

tryItOut 696
Running threw: TypeError: this.zzz has no properties

tryItOut 697
Compiling threw: SyntaxError: label not found

tryItOut 698

tryItOut 699

tryItOut 700
Compiling threw: SyntaxError: missing : after property id

tryItOut 701

tryItOut 702
Compiling threw: SyntaxError: missing ) after condition

tryItOut 703

tryItOut 704
Compiling threw: SyntaxError: missing ; before statement

tryItOut 705
Compiling threw: SyntaxError: invalid assignment left-hand side

tryItOut 706
Compiling threw: SyntaxError: label not found

tryItOut 707

tryItOut 708
before 191840, after 191840, break 009ce000

tryItOut 709
Running threw: ReferenceError: z1 is not defined

tryItOut 710
Compiling threw: SyntaxError: missing ) in parenthetical

tryItOut 711
Compiling threw: SyntaxError: invalid for/in left-hand side

tryItOut 712

tryItOut 713
Compiling threw: SyntaxError: invalid break

tryItOut 714

tryItOut 715

tryItOut 716
Running threw: ReferenceError: z2 is not defined

tryItOut 717

tryItOut 718
Compiling threw: SyntaxError: invalid for/in left-hand side

tryItOut 719
Compiling threw: SyntaxError: invalid continue

tryItOut 720
Compiling threw: SyntaxError: missing ; before statement

tryItOut 721

tryItOut 722
Running threw: ReferenceError: z1 is not defined

tryItOut 723

tryItOut 724
Compiling threw: SyntaxError: syntax error

tryItOut 725

tryItOut 726

tryItOut 727
Running threw: ReferenceError: z1 is not defined

tryItOut 728

tryItOut 729
before 191840, after 191840, break 009ce000

tryItOut 730
Compiling threw: SyntaxError: missing { before function body

tryItOut 731

tryItOut 732
Compiling threw: SyntaxError: syntax error

tryItOut 733

tryItOut 734
Running threw: ReferenceError: reference to undefined XML name *::*

tryItOut 735

tryItOut 736
Compiling threw: SyntaxError: syntax error

tryItOut 737
Running threw: 1

tryItOut 738
Compiling threw: SyntaxError: missing ) after switch expression

tryItOut 739
Compiling threw: SyntaxError: invalid break

tryItOut 740
Running threw: true

tryItOut 741
Compiling threw: SyntaxError: missing ; before statement

tryItOut 742
Compiling threw: SyntaxError: syntax error

tryItOut 743
Compiling threw: SyntaxError: invalid break

tryItOut 744
Compiling threw: SyntaxError: label not found

tryItOut 745

tryItOut 746
Running threw: ReferenceError: reference to undefined XML name @foo

tryItOut 747

tryItOut 748

tryItOut 749

tryItOut 750

tryItOut 751
Compiling threw: SyntaxError: syntax error

tryItOut 752

tryItOut 753
Running threw: 

tryItOut 754

tryItOut 755

tryItOut 756

tryItOut 757
Compiling threw: SyntaxError: label not found

tryItOut 758
Compiling threw: SyntaxError: duplicate label

tryItOut 759

tryItOut 760
Running threw: TypeError: this.zzz has no properties

tryItOut 761

tryItOut 762
Compiling threw: SyntaxError: missing in after for

tryItOut 763

tryItOut 764
It's an iterator!
Iterating threw!
Iterating threw: ReferenceError: reference to undefined XML name *::*

tryItOut 765

tryItOut 766
It's an iterator!
Iterating threw!
Iterating threw: SyntaxError: invalid setter usage

tryItOut 767
Compiling threw: SyntaxError: missing ; before statement

tryItOut 768
Running threw: ReferenceError: reference to undefined XML name *::*

tryItOut 769
Running threw: TypeError: arguments[0] has no properties

tryItOut 770
Running threw: ReferenceError: reference to undefined XML name *

tryItOut 771
Running threw: ReferenceError: reference to undefined XML name @foo

tryItOut 772

tryItOut 773
before 191840, after 191840, break 009ce000

tryItOut 774

tryItOut 775
Compiling threw: SyntaxError: missing variable name

tryItOut 776

tryItOut 777

tryItOut 778

tryItOut 779
Compiling threw: SyntaxError: syntax error

tryItOut 780
Compiling threw: SyntaxError: missing ) in parenthetical

tryItOut 781
Compiling threw: SyntaxError: invalid assignment left-hand side

tryItOut 782

tryItOut 783

tryItOut 784

tryItOut 785
Compiling threw: SyntaxError: missing variable name

tryItOut 786
Compiling threw: SyntaxError: invalid assignment left-hand side

tryItOut 787
Running threw: TypeError: this.zzz has no properties

tryItOut 788
It's an iterator!
Iterating threw!
Iterating threw: /x/

tryItOut 789
Compiling threw: TypeError: generator function anonymous returns a value

tryItOut 790

tryItOut 791
Running threw: true

tryItOut 792

tryItOut 793
Compiling threw: SyntaxError: invalid assignment left-hand side

tryItOut 794
Running threw: ReferenceError: reference to undefined XML name *::*

tryItOut 795
Compiling threw: SyntaxError: invalid for/in left-hand side

tryItOut 796

tryItOut 797
Compiling threw: SyntaxError: syntax error

tryItOut 798
Compiling threw: SyntaxError: duplicate label

tryItOut 799
Compiling threw: SyntaxError: missing variable name

tryItOut 800
Compiling threw: SyntaxError: invalid for each loop

tryItOut 801

tryItOut 802

tryItOut 803
Compiling threw: SyntaxError: invalid for/in left-hand side

tryItOut 804

tryItOut 805

tryItOut 806
Running threw: TypeError: this.zzz has no properties

tryItOut 807
before 191840, after 191840, break 009ce000

tryItOut 808
Compiling threw: SyntaxError: invalid assignment left-hand side

tryItOut 809
Compiling threw: SyntaxError: label not found

tryItOut 810

tryItOut 811

tryItOut 812

tryItOut 813
Compiling threw: SyntaxError: duplicate label

tryItOut 814
Compiling threw: TypeError: generator function anonymous returns a value

tryItOut 815

tryItOut 816
Running threw: TypeError: this.zzz has no properties

tryItOut 817

tryItOut 818
Compiling threw: SyntaxError: invalid assignment left-hand side

tryItOut 819

tryItOut 820

tryItOut 821
Compiling threw: SyntaxError: invalid for/in left-hand side

tryItOut 822

tryItOut 823
Compiling threw: SyntaxError: syntax error

tryItOut 824

tryItOut 825
Compiling threw: SyntaxError: missing ) in parenthetical

tryItOut 826
Running threw: ReferenceError: reference to undefined XML name @foo

tryItOut 827
Compiling threw: SyntaxError: missing ) after let head

tryItOut 828

tryItOut 829

tryItOut 830

tryItOut 831
Running threw: ReferenceError: reference to undefined XML name @foo

tryItOut 832
Compiling threw: SyntaxError: invalid increment operand

tryItOut 833
before 191840, after 191840, break 009ce000

tryItOut 834

tryItOut 835
Compiling threw: SyntaxError: syntax error

tryItOut 836

tryItOut 837
It's an iterator!
Iterating succeeded, iterCount == 1

tryItOut 838
Running threw: TypeError: this.zzz has no properties

tryItOut 839
Running threw: ReferenceError: z2 is not defined

tryItOut 840

tryItOut 841
Compiling threw: SyntaxError: missing variable name

tryItOut 842

tryItOut 843

tryItOut 844
It's an iterator!
Iterating threw!
Iterating threw: ReferenceError: reference to undefined XML name *::*

tryItOut 845
Compiling threw: SyntaxError: invalid XML name

tryItOut 846

tryItOut 847
Compiling threw: SyntaxError: duplicate label

tryItOut 848

tryItOut 849
Compiling threw: SyntaxError: missing ; before statement

tryItOut 850

tryItOut 851

tryItOut 852

tryItOut 853

tryItOut 854
Compiling threw: SyntaxError: missing name after . operator

tryItOut 855
Compiling threw: TypeError: generator function anonymous returns a value

tryItOut 856
Compiling threw: SyntaxError: invalid continue

tryItOut 857

tryItOut 858

tryItOut 859

tryItOut 860

tryItOut 861
before 191840, after 191840, break 009ce000

tryItOut 862

tryItOut 863
Compiling threw: SyntaxError: missing ) after condition

tryItOut 864

tryItOut 865

tryItOut 866
Compiling threw: SyntaxError: missing ) in parenthetical

tryItOut 867

tryItOut 868
Compiling threw: SyntaxError: invalid continue

tryItOut 869

tryItOut 870
Running threw: TypeError: this.zzz has no properties

tryItOut 871
Compiling threw: SyntaxError: label not found

tryItOut 872
Running threw: 112

tryItOut 873

tryItOut 874
before 191840, after 191840, break 009e7000

tryItOut 875
Running threw: ReferenceError: reference to undefined XML name *::*

tryItOut 876

tryItOut 877

tryItOut 878
Compiling threw: SyntaxError: missing ; before statement

tryItOut 879
Compiling threw: SyntaxError: invalid continue

tryItOut 880
Compiling threw: SyntaxError: syntax error

tryItOut 881

tryItOut 882
Compiling threw: SyntaxError: invalid continue

tryItOut 883

tryItOut 884
Compiling threw: SyntaxError: syntax error

tryItOut 885
before 191840, after 191840, break 009e7000

tryItOut 886
Compiling threw: SyntaxError: invalid break

tryItOut 887
Running threw: ReferenceError: reference to undefined XML name *

tryItOut 888
Compiling threw: SyntaxError: label not found

tryItOut 889
Compiling threw: SyntaxError: missing : after property id

tryItOut 890

tryItOut 891
Compiling threw: SyntaxError: syntax error

tryItOut 892
Running threw: ReferenceError: reference to undefined XML name @foo

tryItOut 893
Compiling threw: SyntaxError: invalid destructuring assignment operator

tryItOut 894
Compiling threw: SyntaxError: syntax error

tryItOut 895
Compiling threw: SyntaxError: syntax error

tryItOut 896
Compiling threw: SyntaxError: invalid default XML namespace

tryItOut 897
Running threw: TypeError: this.zzz has no properties

tryItOut 898
before 191840, after 191840, break 009e7000

tryItOut 899
before 191840, after 191840, break 009e7000

tryItOut 900
Running threw: TypeError: this.zzz has no properties

tryItOut 901
Compiling threw: SyntaxError: invalid decrement operand

tryItOut 902

tryItOut 903

tryItOut 904
Compiling threw: SyntaxError: invalid sharp variable definition

tryItOut 905
It's an iterator!
Iterating threw!
Iterating threw: TypeError: __noSuchMethod__ has no properties

tryItOut 906
Compiling threw: SyntaxError: missing ; before statement

tryItOut 907
Compiling threw: SyntaxError: label not found

tryItOut 908
Compiling threw: SyntaxError: invalid for/in left-hand side

tryItOut 909
Compiling threw: SyntaxError: invalid increment operand

tryItOut 910
Running threw: SyntaxError: invalid getter usage

tryItOut 911
Running threw: ReferenceError: reference to undefined XML name @foo

tryItOut 912
Running threw: <y>
  <z/>
</y>

tryItOut 913
Compiling threw: SyntaxError: label not found

tryItOut 914

tryItOut 915
Running threw: ReferenceError: reference to undefined XML name *::*

tryItOut 916

tryItOut 917

tryItOut 918
Compiling threw: SyntaxError: label not found

tryItOut 919
Compiling threw: SyntaxError: syntax error

tryItOut 920

tryItOut 921
Running threw: undefined

tryItOut 922

tryItOut 923
Compiling threw: SyntaxError: missing identifier in catch

tryItOut 924

tryItOut 925
Compiling threw: SyntaxError: missing : after property id

tryItOut 926

tryItOut 927
Compiling threw: SyntaxError: missing ; before statement

tryItOut 928
before 191840, after 191840, break 009e7000

tryItOut 929
Running threw: function ([y]) {
}

tryItOut 930

tryItOut 931
Compiling threw: SyntaxError: invalid break

tryItOut 932

tryItOut 933
Running threw: ReferenceError: reference to undefined XML name @foo

tryItOut 934

tryItOut 935

tryItOut 936
Running threw: TypeError: this.zzz has no properties

tryItOut 937
Running threw: ReferenceError: z2 is not defined

tryItOut 938

tryItOut 939

tryItOut 940

tryItOut 941
Compiling threw: SyntaxError: invalid decrement operand

tryItOut 942

tryItOut 943
Compiling threw: SyntaxError: syntax error

tryItOut 944
It's an iterator!
Iterating threw!
Iterating threw: TypeError: second argument to Function.prototype.apply must be an array

tryItOut 945
Compiling threw: SyntaxError: syntax error

tryItOut 946

tryItOut 947
Compiling threw: SyntaxError: invalid decrement operand

tryItOut 948
Running threw: ReferenceError: reference to undefined XML name *::*

tryItOut 949

tryItOut 950
Compiling threw: SyntaxError: duplicate label

tryItOut 951

tryItOut 952
Compiling threw: SyntaxError: syntax error

tryItOut 953

tryItOut 954

tryItOut 955
Compiling threw: TypeError: redeclaration of const __proto__

tryItOut 956
before 191840, after 191840, break 009e7000

tryItOut 957

tryItOut 958
Compiling threw: SyntaxError: missing ; before statement

tryItOut 959
Compiling threw: SyntaxError: missing : after property id

tryItOut 960
before 191840, after 191840, break 009e7000

tryItOut 961
Running threw: TypeError: this.zzz has no properties

tryItOut 962

tryItOut 963
Running threw: ReferenceError: reference to undefined XML name *::*

tryItOut 964
Compiling threw: SyntaxError: invalid increment operand

tryItOut 965

tryItOut 966
Running threw: ReferenceError: reference to undefined XML name *::*

tryItOut 967

tryItOut 968
Compiling threw: SyntaxError: missing ) in parenthetical

tryItOut 969

tryItOut 970
Running threw: /x/g

tryItOut 971
Compiling threw: SyntaxError: invalid increment operand

tryItOut 972
Compiling threw: SyntaxError: syntax error

tryItOut 973
It's an iterator!
Iterating succeeded, iterCount == 1

tryItOut 974

tryItOut 975

tryItOut 976
Running threw: TypeError: this.zzz has no properties

tryItOut 977
Compiling threw: SyntaxError: syntax error

tryItOut 978
Compiling threw: SyntaxError: missing ; before statement

tryItOut 979

tryItOut 980

tryItOut 981
Compiling threw: SyntaxError: label not found

tryItOut 982

tryItOut 983

tryItOut 984
Compiling threw: SyntaxError: missing ) in parenthetical

tryItOut 985

tryItOut 986
Running threw: TypeError: this.zzz has no properties

tryItOut 987

tryItOut 988
Compiling threw: SyntaxError: invalid for/in left-hand side

tryItOut 989
before 209280, after 209280, break 00a01000

tryItOut 990
Compiling threw: SyntaxError: missing { before function body

tryItOut 991
Compiling threw: SyntaxError: missing ; before statement

tryItOut 992

tryItOut 993
Compiling threw: SyntaxError: syntax error

tryItOut 994
Running threw: TypeError: __iterator__ has no properties

tryItOut 995
Running threw: TypeError: this.zzz has no properties

tryItOut 996
Compiling threw: SyntaxError: syntax error

tryItOut 997

tryItOut 998
Compiling threw: SyntaxError: invalid for/in left-hand side

tryItOut 999

tryItOut 1000
Compiling threw: SyntaxError: illegal XML character

ALL OK

Script done on Sat 04 May 2013 05:36:35 AM PDT
