Script started on Sat 04 May 2013 05:36:20 AM PDT
***
Targeting SpiderMonkey / Gecko.

tryItOut 1
Compiling threw: SyntaxError: missing ; before statement

tryItOut 2
Compiling threw: SyntaxError: missing variable name

tryItOut 3
Compiling threw: SyntaxError: syntax error

tryItOut 4

tryItOut 5
Compiling threw: SyntaxError: invalid for/in left-hand side

tryItOut 6
Compiling threw: SyntaxError: missing ) in parenthetical

tryItOut 7
Compiling threw: SyntaxError: syntax error

tryItOut 8
Compiling threw: SyntaxError: invalid assignment left-hand side

tryItOut 9
Compiling threw: SyntaxError: syntax error

tryItOut 10

tryItOut 11

tryItOut 12
Compiling threw: SyntaxError: label not found

tryItOut 13
Compiling threw: SyntaxError: syntax error

tryItOut 14

tryItOut 15
Compiling threw: SyntaxError: invalid for/in left-hand side

tryItOut 16
Compiling threw: TypeError: redeclaration of variable __count__

tryItOut 17

tryItOut 18
Compiling threw: SyntaxError: label not found

tryItOut 19

tryItOut 20

tryItOut 21
Compiling threw: SyntaxError: missing ) in parenthetical

tryItOut 22
Compiling threw: SyntaxError: missing ; before statement

tryItOut 23
Running threw: ReferenceError: prototype is not defined

tryItOut 24
Compiling threw: SyntaxError: missing : after property id

tryItOut 25

tryItOut 26
Compiling threw: SyntaxError: missing ) in parenthetical

tryItOut 27
Compiling threw: SyntaxError: duplicate label

tryItOut 28
Compiling threw: SyntaxError: missing ; before statement

tryItOut 29
Compiling threw: SyntaxError: missing variable name

tryItOut 30
Running threw: 

tryItOut 31

tryItOut 32
Compiling threw: SyntaxError: duplicate label

tryItOut 33
It's an iterator!
Iterating succeeded, iterCount == 1

tryItOut 34
Compiling threw: SyntaxError: syntax error

tryItOut 35

tryItOut 36
Compiling threw: SyntaxError: invalid for/in left-hand side

tryItOut 37
Compiling threw: SyntaxError: missing ) in parenthetical

tryItOut 38

tryItOut 39

tryItOut 40

tryItOut 41

tryItOut 42
Compiling threw: SyntaxError: missing = in destructuring declaration

tryItOut 43

tryItOut 44
Compiling threw: SyntaxError: missing ; before statement

tryItOut 45

tryItOut 46
Running threw: ReferenceError: z1 is not defined

tryItOut 47

tryItOut 48
Compiling threw: SyntaxError: invalid continue

tryItOut 49
Running threw: TypeError: this.zzz has no properties

tryItOut 50
Compiling threw: SyntaxError: missing variable name

tryItOut 51

tryItOut 52
Compiling threw: SyntaxError: missing { before function body

tryItOut 53
Compiling threw: SyntaxError: invalid for/in left-hand side

tryItOut 54

tryItOut 55
Compiling threw: SyntaxError: invalid assignment left-hand side

tryItOut 56
Compiling threw: SyntaxError: missing ; before statement

tryItOut 57
Compiling threw: SyntaxError: label not found

tryItOut 58

tryItOut 59

tryItOut 60
Running threw: [object Object]

tryItOut 61
Compiling threw: SyntaxError: invalid for/in left-hand side

tryItOut 62
Compiling threw: SyntaxError: invalid for/in left-hand side

tryItOut 63
Compiling threw: SyntaxError: invalid for/in left-hand side

tryItOut 64
Running threw: /x/g

tryItOut 65
Compiling threw: TypeError: redeclaration of var constructor

tryItOut 66

tryItOut 67
Compiling threw: SyntaxError: missing { before function body

tryItOut 68

tryItOut 69
Compiling threw: SyntaxError: invalid for/in left-hand side

tryItOut 70
Compiling threw: SyntaxError: missing ) after for-loop control

tryItOut 71

tryItOut 72
Compiling threw: SyntaxError: invalid for/in left-hand side

tryItOut 73
Compiling threw: SyntaxError: syntax error

tryItOut 74

tryItOut 75
Compiling threw: SyntaxError: syntax error

tryItOut 76

tryItOut 77

tryItOut 78
Compiling threw: SyntaxError: missing { before function body

tryItOut 79
Compiling threw: SyntaxError: invalid XML name

tryItOut 80

tryItOut 81

tryItOut 82
Compiling threw: SyntaxError: invalid for/in left-hand side

tryItOut 83
Compiling threw: SyntaxError: syntax error

tryItOut 84
Compiling threw: SyntaxError: missing { before function body

tryItOut 85
Compiling threw: SyntaxError: missing ) in parenthetical

tryItOut 86
Compiling threw: SyntaxError: invalid for/in left-hand side

tryItOut 87

tryItOut 88
Compiling threw: SyntaxError: duplicate label

tryItOut 89
Compiling threw: SyntaxError: invalid destructuring assignment operator

tryItOut 90
Compiling threw: SyntaxError: invalid for/in left-hand side

tryItOut 91

tryItOut 92

tryItOut 93
Compiling threw: SyntaxError: invalid for/in left-hand side

tryItOut 94
Compiling threw: SyntaxError: invalid increment operand

tryItOut 95
Compiling threw: SyntaxError: missing variable name

tryItOut 96

tryItOut 97
Compiling threw: SyntaxError: invalid break

tryItOut 98
Running threw: [object StopIteration]

tryItOut 99
Compiling threw: SyntaxError: missing { before function body

tryItOut 100

tryItOut 101

tryItOut 102

tryItOut 103

tryItOut 104
Compiling threw: SyntaxError: invalid break

tryItOut 105
Compiling threw: SyntaxError: invalid for/in left-hand side

tryItOut 106
Compiling threw: SyntaxError: syntax error

tryItOut 107
Compiling threw: SyntaxError: missing formal parameter

tryItOut 108

tryItOut 109
Compiling threw: SyntaxError: invalid decrement operand

tryItOut 110
Compiling threw: SyntaxError: invalid for/in left-hand side

tryItOut 111

tryItOut 112
Compiling threw: SyntaxError: missing ) in parenthetical

tryItOut 113
Compiling threw: SyntaxError: invalid continue

tryItOut 114
Compiling threw: SyntaxError: invalid for/in left-hand side

tryItOut 115
Running threw: ReferenceError: prototype is not defined

tryItOut 116

tryItOut 117
Compiling threw: SyntaxError: invalid for/in left-hand side

tryItOut 118
Compiling threw: SyntaxError: label not found

tryItOut 119
Compiling threw: SyntaxError: invalid assignment left-hand side

tryItOut 120
Compiling threw: SyntaxError: missing ) after condition

tryItOut 121

tryItOut 122
Compiling threw: SyntaxError: invalid assignment left-hand side

tryItOut 123
Compiling threw: TypeError: redeclaration of const __proto__

tryItOut 124
Compiling threw: SyntaxError: syntax error

tryItOut 125
Compiling threw: SyntaxError: missing ] after element list

tryItOut 126

tryItOut 127
Compiling threw: SyntaxError: missing variable name

tryItOut 128
Compiling threw: SyntaxError: syntax error

tryItOut 129
Compiling threw: SyntaxError: label not found

tryItOut 130
Compiling threw: SyntaxError: missing ; before statement

tryItOut 131

tryItOut 132
Compiling threw: SyntaxError: invalid assignment left-hand side

tryItOut 133

tryItOut 134

tryItOut 135
Compiling threw: SyntaxError: syntax error

tryItOut 136

tryItOut 137
Compiling threw: SyntaxError: missing ; before statement

tryItOut 138

tryItOut 139
Compiling threw: SyntaxError: label not found

tryItOut 140

tryItOut 141

tryItOut 142
Compiling threw: SyntaxError: invalid break

tryItOut 143
Compiling threw: SyntaxError: syntax error

tryItOut 144

tryItOut 145
Compiling threw: SyntaxError: missing { before function body

tryItOut 146
Compiling threw: SyntaxError: missing ; before statement

tryItOut 147
Compiling threw: SyntaxError: missing { before function body

tryItOut 148
Compiling threw: SyntaxError: syntax error

tryItOut 149
Compiling threw: SyntaxError: missing name after . operator

tryItOut 150
uneval returned the string: [[1]]

tryItOut 151
Compiling threw: SyntaxError: missing { before function body

tryItOut 152
Compiling threw: TypeError: generator function anonymous returns a value

tryItOut 153
Compiling threw: SyntaxError: syntax error

tryItOut 154
Compiling threw: SyntaxError: syntax error

tryItOut 155
Compiling threw: SyntaxError: invalid for/in left-hand side

tryItOut 156
Compiling threw: SyntaxError: missing ) in parenthetical

tryItOut 157
Compiling threw: SyntaxError: unterminated comment

tryItOut 158
Compiling threw: SyntaxError: invalid assignment left-hand side

tryItOut 159
Running threw: [object StopIteration]

tryItOut 160
Compiling threw: SyntaxError: invalid assignment left-hand side

tryItOut 161

tryItOut 162
Compiling threw: SyntaxError: invalid XML name

tryItOut 163
Compiling threw: SyntaxError: invalid assignment left-hand side

tryItOut 164

tryItOut 165
Running threw: TypeError: this.zzz has no properties

tryItOut 166
Running threw: TypeError: "" is not a function

tryItOut 167
Compiling threw: SyntaxError: missing = in destructuring declaration

tryItOut 168
Compiling threw: SyntaxError: missing ) in parenthetical

tryItOut 169
Compiling threw: SyntaxError: missing ; before statement

tryItOut 170

tryItOut 171
Compiling threw: SyntaxError: invalid break

tryItOut 172
Compiling threw: SyntaxError: missing variable name

tryItOut 173
Compiling threw: SyntaxError: invalid assignment left-hand side

tryItOut 174
Compiling threw: SyntaxError: invalid for/in left-hand side

tryItOut 175
Compiling threw: SyntaxError: label not found

tryItOut 176

tryItOut 177

tryItOut 178
Compiling threw: SyntaxError: invalid for/in left-hand side

tryItOut 179
Compiling threw: SyntaxError: syntax error

tryItOut 180

tryItOut 181

tryItOut 182

tryItOut 183
Compiling threw: SyntaxError: invalid break

tryItOut 184

tryItOut 185
Compiling threw: SyntaxError: missing ) in parenthetical

tryItOut 186
Running threw: ReferenceError: prop is not defined

tryItOut 187
Running threw: [object Object]

tryItOut 188
Compiling threw: SyntaxError: invalid for/in left-hand side

tryItOut 189

tryItOut 190
Compiling threw: SyntaxError: syntax error

tryItOut 191
Compiling threw: SyntaxError: syntax error

tryItOut 192
Compiling threw: SyntaxError: invalid for/in left-hand side

tryItOut 193
Compiling threw: SyntaxError: label not found

tryItOut 194

tryItOut 195

tryItOut 196
Compiling threw: SyntaxError: invalid assignment left-hand side

tryItOut 197
Compiling threw: SyntaxError: syntax error

tryItOut 198

tryItOut 199
Compiling threw: SyntaxError: invalid continue

tryItOut 200
Compiling threw: SyntaxError: invalid XML name

tryItOut 201
Compiling threw: SyntaxError: invalid continue

tryItOut 202

tryItOut 203
Compiling threw: SyntaxError: invalid break

tryItOut 204
Compiling threw: SyntaxError: missing { before function body

tryItOut 205
Compiling threw: SyntaxError: missing ; before statement

tryItOut 206
Compiling threw: SyntaxError: invalid destructuring assignment operator

tryItOut 207
Compiling threw: SyntaxError: syntax error

tryItOut 208

tryItOut 209
Compiling threw: SyntaxError: syntax error

tryItOut 210
Compiling threw: SyntaxError: unterminated comment

tryItOut 211

tryItOut 212

tryItOut 213
Compiling threw: SyntaxError: syntax error

tryItOut 214
Compiling threw: SyntaxError: invalid for/in left-hand side

tryItOut 215
Compiling threw: SyntaxError: label not found

tryItOut 216
Compiling threw: SyntaxError: missing { before function body

tryItOut 217
Compiling threw: SyntaxError: syntax error

tryItOut 218
Compiling threw: SyntaxError: syntax error

tryItOut 219
Compiling threw: SyntaxError: invalid continue

tryItOut 220
Compiling threw: SyntaxError: missing formal parameter

tryItOut 221

tryItOut 222

tryItOut 223
Running threw: 

tryItOut 224
Compiling threw: SyntaxError: missing ; before statement

tryItOut 225
Compiling threw: SyntaxError: syntax error

tryItOut 226

tryItOut 227

tryItOut 228
Compiling threw: SyntaxError: missing ) in parenthetical

tryItOut 229

tryItOut 230
Compiling threw: SyntaxError: invalid increment operand

tryItOut 231
Running threw: ReferenceError: x is not defined

tryItOut 232

tryItOut 233
Compiling threw: SyntaxError: invalid break

tryItOut 234

tryItOut 235
Compiling threw: SyntaxError: missing ) in parenthetical

tryItOut 236
Compiling threw: SyntaxError: syntax error

tryItOut 237
Compiling threw: SyntaxError: invalid for/in left-hand side

tryItOut 238

tryItOut 239
Compiling threw: SyntaxError: duplicate label

tryItOut 240
Compiling threw: SyntaxError: illegal XML character

tryItOut 241

tryItOut 242
Compiling threw: SyntaxError: syntax error

tryItOut 243
Compiling threw: SyntaxError: invalid for/in left-hand side

tryItOut 244
Compiling threw: SyntaxError: syntax error

tryItOut 245
Compiling threw: TypeError: redeclaration of variable __noSuchMethod__

tryItOut 246
Compiling threw: SyntaxError: invalid assignment left-hand side

tryItOut 247
Compiling threw: SyntaxError: label not found

tryItOut 248
Compiling threw: SyntaxError: invalid for/in left-hand side

tryItOut 249

tryItOut 250
Compiling threw: SyntaxError: syntax error

tryItOut 251

tryItOut 252
Compiling threw: SyntaxError: missing variable name

tryItOut 253
Running threw: 1e+81

tryItOut 254
Compiling threw: SyntaxError: illegal XML character

tryItOut 255

tryItOut 256
Compiling threw: SyntaxError: invalid XML name

tryItOut 257

tryItOut 258
Running threw: Error: invalid sharp variable use #1#

tryItOut 259
Compiling threw: SyntaxError: illegal XML character

tryItOut 260
Compiling threw: SyntaxError: invalid for/in left-hand side

tryItOut 261
Compiling threw: SyntaxError: missing ) in parenthetical

tryItOut 262
Compiling threw: SyntaxError: syntax error

tryItOut 263
Compiling threw: SyntaxError: syntax error

tryItOut 264
Compiling threw: SyntaxError: syntax error

tryItOut 265

tryItOut 266
Compiling threw: SyntaxError: syntax error

tryItOut 267
Compiling threw: SyntaxError: syntax error

tryItOut 268
Running threw: TypeError: this.__defineGetter__("prop", [1, 2, 3, 4].slice) has no properties

tryItOut 269
Compiling threw: SyntaxError: missing { before function body

tryItOut 270
Compiling threw: SyntaxError: duplicate label

tryItOut 271
Compiling threw: SyntaxError: missing ) after condition

tryItOut 272

tryItOut 273

tryItOut 274
Compiling threw: SyntaxError: invalid for/in left-hand side

tryItOut 275
Compiling threw: SyntaxError: invalid assignment left-hand side

tryItOut 276

tryItOut 277
Compiling threw: SyntaxError: illegal XML character

tryItOut 278

tryItOut 279
Compiling threw: SyntaxError: invalid for/in left-hand side

tryItOut 280
Compiling threw: SyntaxError: invalid assignment left-hand side

tryItOut 281
Compiling threw: SyntaxError: invalid for/in left-hand side

tryItOut 282
Compiling threw: SyntaxError: invalid for/in left-hand side

tryItOut 283
Running threw: [object StopIteration]

tryItOut 284

tryItOut 285
Compiling threw: SyntaxError: syntax error

tryItOut 286
Compiling threw: SyntaxError: syntax error

tryItOut 287
Compiling threw: SyntaxError: invalid for/in left-hand side

tryItOut 288
Compiling threw: SyntaxError: label not found

tryItOut 289
Compiling threw: SyntaxError: missing ; before statement

tryItOut 290
Compiling threw: SyntaxError: syntax error

tryItOut 291
Compiling threw: SyntaxError: invalid break

tryItOut 292

tryItOut 293

tryItOut 294

tryItOut 295
Compiling threw: SyntaxError: missing ; before statement

tryItOut 296

tryItOut 297

tryItOut 298
Compiling threw: SyntaxError: syntax error

tryItOut 299

tryItOut 300
Compiling threw: SyntaxError: syntax error

tryItOut 301

tryItOut 302
Compiling threw: SyntaxError: syntax error

tryItOut 303

tryItOut 304
Compiling threw: SyntaxError: missing ( before formal parameters

tryItOut 305

tryItOut 306

tryItOut 307
Compiling threw: SyntaxError: invalid assignment left-hand side

tryItOut 308
Compiling threw: SyntaxError: invalid assignment left-hand side

tryItOut 309

tryItOut 310
Compiling threw: SyntaxError: label not found

tryItOut 311
Compiling threw: SyntaxError: invalid break

tryItOut 312
Compiling threw: SyntaxError: missing ; after for-loop initializer

tryItOut 313
Compiling threw: SyntaxError: syntax error

tryItOut 314

tryItOut 315
Compiling threw: SyntaxError: invalid break

tryItOut 316
Compiling threw: SyntaxError: invalid assignment left-hand side

tryItOut 317
Running threw: TypeError: this.zzz has no properties

tryItOut 318
Compiling threw: SyntaxError: missing ; before statement

tryItOut 319
Compiling threw: SyntaxError: label not found

tryItOut 320
Running threw: ReferenceError: __noSuchMethod__ is not defined

tryItOut 321
Compiling threw: SyntaxError: missing variable name

tryItOut 322
Compiling threw: SyntaxError: label not found

tryItOut 323
Compiling threw: SyntaxError: missing ) after condition

tryItOut 324
Compiling threw: SyntaxError: missing { before function body

tryItOut 325

tryItOut 326

tryItOut 327
Compiling threw: SyntaxError: invalid for/in left-hand side

tryItOut 328
Compiling threw: SyntaxError: invalid increment operand

tryItOut 329
Compiling threw: SyntaxError: invalid decrement operand

tryItOut 330
Compiling threw: SyntaxError: invalid for/in left-hand side

tryItOut 331
Compiling threw: SyntaxError: invalid assignment left-hand side

tryItOut 332
Compiling threw: SyntaxError: invalid assignment left-hand side

tryItOut 333
Compiling threw: SyntaxError: invalid XML name

tryItOut 334

tryItOut 335
Compiling threw: SyntaxError: missing variable name

tryItOut 336

tryItOut 337
Compiling threw: SyntaxError: invalid property id

tryItOut 338
Compiling threw: SyntaxError: label not found

tryItOut 339

tryItOut 340
Compiling threw: SyntaxError: invalid continue

tryItOut 341

tryItOut 342

tryItOut 343

tryItOut 344

tryItOut 345
Compiling threw: SyntaxError: missing ( before formal parameters

tryItOut 346

tryItOut 347

tryItOut 348

tryItOut 349

tryItOut 350
Compiling threw: SyntaxError: label not found

tryItOut 351
Compiling threw: SyntaxError: invalid property id

tryItOut 352

tryItOut 353
Compiling threw: SyntaxError: syntax error

tryItOut 354
Compiling threw: SyntaxError: invalid XML name

tryItOut 355
Compiling threw: SyntaxError: missing { before function body

tryItOut 356
Compiling threw: SyntaxError: invalid increment operand

tryItOut 357
Compiling threw: SyntaxError: syntax error

tryItOut 358
Compiling threw: SyntaxError: syntax error

tryItOut 359
Compiling threw: SyntaxError: missing { before function body

tryItOut 360
Compiling threw: SyntaxError: missing ; before statement

tryItOut 361
Compiling threw: SyntaxError: label not found

tryItOut 362
Compiling threw: SyntaxError: syntax error

tryItOut 363
Running threw: function (id) {
    return id;
}

tryItOut 364

tryItOut 365

tryItOut 366
Compiling threw: SyntaxError: missing ) in parenthetical

tryItOut 367
Compiling threw: SyntaxError: label not found

tryItOut 368
Compiling threw: SyntaxError: illegal XML character

tryItOut 369
Compiling threw: SyntaxError: invalid assignment left-hand side

tryItOut 370
Compiling threw: SyntaxError: syntax error

tryItOut 371
Running threw: 0

tryItOut 372
Compiling threw: SyntaxError: missing { before function body

tryItOut 373
Compiling threw: SyntaxError: syntax error

tryItOut 374
Compiling threw: SyntaxError: syntax error

tryItOut 375
Compiling threw: SyntaxError: invalid increment operand

tryItOut 376
Compiling threw: TypeError: anonymous generator function returns a value

tryItOut 377
Compiling threw: SyntaxError: syntax error

tryItOut 378
Compiling threw: SyntaxError: missing { before function body

tryItOut 379

tryItOut 380
Compiling threw: SyntaxError: syntax error

tryItOut 381
Compiling threw: SyntaxError: invalid for/in left-hand side

tryItOut 382
Compiling threw: SyntaxError: missing ) in parenthetical

tryItOut 383
Compiling threw: SyntaxError: invalid for/in left-hand side

tryItOut 384
Compiling threw: SyntaxError: syntax error

tryItOut 385

tryItOut 386
Compiling threw: SyntaxError: syntax error

tryItOut 387
Compiling threw: SyntaxError: missing { before function body

tryItOut 388

tryItOut 389
Compiling threw: SyntaxError: missing { before function body

tryItOut 390
Compiling threw: SyntaxError: missing variable name

tryItOut 391

tryItOut 392
Compiling threw: SyntaxError: missing ) in parenthetical

tryItOut 393

tryItOut 394

tryItOut 395
Compiling threw: SyntaxError: missing ) in parenthetical

tryItOut 396

tryItOut 397
Compiling threw: SyntaxError: invalid assignment left-hand side

tryItOut 398
Compiling threw: SyntaxError: invalid for/in left-hand side

tryItOut 399
Compiling threw: SyntaxError: label not found

tryItOut 400

tryItOut 401
Compiling threw: SyntaxError: label not found

tryItOut 402
Running threw: [object StopIteration]

tryItOut 403

tryItOut 404
Compiling threw: SyntaxError: syntax error

tryItOut 405

tryItOut 406
Compiling threw: TypeError: redeclaration of variable prop

tryItOut 407

tryItOut 408
Compiling threw: SyntaxError: syntax error

tryItOut 409

tryItOut 410

tryItOut 411
Compiling threw: SyntaxError: syntax error

tryItOut 412
Compiling threw: SyntaxError: missing ) in parenthetical

tryItOut 413

tryItOut 414
Compiling threw: SyntaxError: label not found

tryItOut 415
Compiling threw: SyntaxError: invalid for/in left-hand side

tryItOut 416

tryItOut 417
Running threw: [object StopIteration]

tryItOut 418
Compiling threw: SyntaxError: syntax error

tryItOut 419
Compiling threw: SyntaxError: invalid property id

tryItOut 420

tryItOut 421

tryItOut 422

tryItOut 423
Compiling threw: SyntaxError: invalid assignment left-hand side

tryItOut 424
Compiling threw: SyntaxError: invalid XML name

tryItOut 425
Compiling threw: SyntaxError: duplicate label

tryItOut 426
Compiling threw: SyntaxError: syntax error

tryItOut 427
Compiling threw: SyntaxError: invalid assignment left-hand side

tryItOut 428
Compiling threw: SyntaxError: syntax error

tryItOut 429

tryItOut 430

tryItOut 431
Compiling threw: SyntaxError: missing ) in parenthetical

tryItOut 432
Compiling threw: TypeError: redeclaration of variable __parent__

tryItOut 433

tryItOut 434

tryItOut 435
Compiling threw: SyntaxError: label not found

tryItOut 436
Compiling threw: SyntaxError: label not found

tryItOut 437
Compiling threw: SyntaxError: syntax error

tryItOut 438
Compiling threw: SyntaxError: syntax error

tryItOut 439
Compiling threw: SyntaxError: label not found

tryItOut 440

tryItOut 441

tryItOut 442
Compiling threw: SyntaxError: invalid for/in left-hand side

tryItOut 443
Compiling threw: SyntaxError: invalid for/in left-hand side

tryItOut 444

tryItOut 445

tryItOut 446
Compiling threw: TypeError: redeclaration of const __noSuchMethod__

tryItOut 447

tryItOut 448
Compiling threw: SyntaxError: syntax error

tryItOut 449

tryItOut 450
Compiling threw: SyntaxError: label not found

tryItOut 451
Compiling threw: SyntaxError: invalid sharp variable definition

tryItOut 452
Compiling threw: SyntaxError: invalid for/in left-hand side

tryItOut 453

tryItOut 454
Compiling threw: SyntaxError: missing variable name

tryItOut 455
Compiling threw: SyntaxError: label not found

tryItOut 456
Compiling threw: SyntaxError: missing ) in parenthetical

tryItOut 457
Compiling threw: SyntaxError: syntax error

tryItOut 458
Compiling threw: SyntaxError: missing ; before statement

tryItOut 459

tryItOut 460
Compiling threw: SyntaxError: invalid for/in left-hand side

tryItOut 461
Compiling threw: SyntaxError: missing { before function body

tryItOut 462

tryItOut 463
Compiling threw: SyntaxError: missing } in XML expression

tryItOut 464

tryItOut 465
Compiling threw: SyntaxError: invalid continue

tryItOut 466

tryItOut 467

tryItOut 468
Compiling threw: SyntaxError: missing { before function body

tryItOut 469
Compiling threw: SyntaxError: invalid decrement operand

tryItOut 470
Compiling threw: SyntaxError: invalid XML name

tryItOut 471

tryItOut 472

tryItOut 473
Compiling threw: SyntaxError: invalid break

tryItOut 474
Running threw: 1e+81

tryItOut 475

tryItOut 476
Compiling threw: SyntaxError: missing } after let block

tryItOut 477

tryItOut 478
It's an iterator!
Iterating succeeded, iterCount == 1

tryItOut 479

tryItOut 480
Compiling threw: SyntaxError: syntax error

tryItOut 481

tryItOut 482
Compiling threw: SyntaxError: label not found

tryItOut 483
Compiling threw: SyntaxError: missing variable name

tryItOut 484
Compiling threw: SyntaxError: missing variable name

tryItOut 485
Compiling threw: SyntaxError: syntax error

tryItOut 486
Compiling threw: SyntaxError: invalid for/in left-hand side

tryItOut 487

tryItOut 488
Running threw: Error: invalid sharp variable use #1#

tryItOut 489
It's an iterator!
Iterating succeeded, iterCount == 1

tryItOut 490
Compiling threw: SyntaxError: syntax error

tryItOut 491

tryItOut 492
Compiling threw: SyntaxError: missing ; before statement

tryItOut 493

tryItOut 494
Compiling threw: SyntaxError: invalid for/in left-hand side

tryItOut 495

tryItOut 496
Compiling threw: SyntaxError: syntax error

tryItOut 497
Running threw: 

tryItOut 498
Compiling threw: SyntaxError: label not found

tryItOut 499
Compiling threw: SyntaxError: syntax error

tryItOut 500
Compiling threw: SyntaxError: invalid continue

tryItOut 501
Compiling threw: SyntaxError: invalid XML name

tryItOut 502
Compiling threw: SyntaxError: invalid for/in left-hand side

tryItOut 503
Compiling threw: SyntaxError: missing ) in parenthetical

tryItOut 504
Compiling threw: SyntaxError: label not found

tryItOut 505
Compiling threw: SyntaxError: missing : after property id

tryItOut 506

tryItOut 507
Compiling threw: SyntaxError: syntax error

tryItOut 508
Compiling threw: SyntaxError: missing { before function body

tryItOut 509
Compiling threw: SyntaxError: missing ) after condition

tryItOut 510

tryItOut 511

tryItOut 512
Compiling threw: SyntaxError: illegal XML character

tryItOut 513

tryItOut 514
Compiling threw: SyntaxError: missing ) after for-loop control

tryItOut 515
Compiling threw: SyntaxError: missing ) after condition

tryItOut 516
Compiling threw: SyntaxError: invalid for/in left-hand side

tryItOut 517

tryItOut 518
Compiling threw: SyntaxError: missing ) in parenthetical

tryItOut 519
Compiling threw: SyntaxError: invalid for/in left-hand side

tryItOut 520

tryItOut 521

tryItOut 522
Compiling threw: SyntaxError: invalid break

tryItOut 523
Compiling threw: SyntaxError: missing variable name

tryItOut 524
Compiling threw: SyntaxError: syntax error

tryItOut 525
Compiling threw: SyntaxError: syntax error

tryItOut 526
Compiling threw: SyntaxError: invalid assignment left-hand side

tryItOut 527
Compiling threw: SyntaxError: missing ) in parenthetical

tryItOut 528

tryItOut 529
Compiling threw: SyntaxError: invalid assignment left-hand side

tryItOut 530

tryItOut 531
Running threw: 

tryItOut 532
Compiling threw: SyntaxError: missing { before function body

tryItOut 533
Compiling threw: SyntaxError: missing ; before statement

tryItOut 534

tryItOut 535
Compiling threw: SyntaxError: missing ; after for-loop condition

tryItOut 536
Compiling threw: SyntaxError: invalid for/in left-hand side

tryItOut 537
Compiling threw: SyntaxError: invalid XML name

tryItOut 538
Compiling threw: SyntaxError: invalid for/in left-hand side

tryItOut 539
Compiling threw: SyntaxError: invalid assignment left-hand side

tryItOut 540
Compiling threw: SyntaxError: syntax error

tryItOut 541
Compiling threw: SyntaxError: syntax error

tryItOut 542
Compiling threw: SyntaxError: missing variable name

tryItOut 543
Compiling threw: SyntaxError: invalid break

tryItOut 544
Compiling threw: TypeError: redeclaration of const constructor

tryItOut 545

tryItOut 546
Compiling threw: SyntaxError: missing variable name

tryItOut 547

tryItOut 548
Compiling threw: SyntaxError: invalid destructuring assignment operator

tryItOut 549

tryItOut 550

tryItOut 551

tryItOut 552
Compiling threw: SyntaxError: syntax error

tryItOut 553

tryItOut 554
Compiling threw: SyntaxError: label not found

tryItOut 555
Compiling threw: SyntaxError: invalid assignment left-hand side

tryItOut 556

tryItOut 557
Running threw: TypeError: this.zzz has no properties

tryItOut 558
Compiling threw: SyntaxError: invalid increment operand

tryItOut 559
Compiling threw: SyntaxError: missing variable name

tryItOut 560
Running threw: [object StopIteration]

tryItOut 561
Compiling threw: SyntaxError: missing variable name

tryItOut 562
Compiling threw: SyntaxError: missing = in destructuring declaration

tryItOut 563

tryItOut 564
Compiling threw: SyntaxError: missing ; before statement

tryItOut 565
Compiling threw: SyntaxError: invalid for/in left-hand side

tryItOut 566

tryItOut 567
Compiling threw: SyntaxError: syntax error

tryItOut 568

tryItOut 569
Compiling threw: SyntaxError: label not found

tryItOut 570
Compiling threw: SyntaxError: syntax error

tryItOut 571
Compiling threw: SyntaxError: invalid increment operand

tryItOut 572
Compiling threw: SyntaxError: missing ; before statement

tryItOut 573
Compiling threw: SyntaxError: missing = in destructuring declaration

tryItOut 574
Compiling threw: SyntaxError: missing ) in parenthetical

tryItOut 575
Compiling threw: SyntaxError: syntax error

tryItOut 576
Compiling threw: SyntaxError: missing formal parameter

tryItOut 577
Compiling threw: SyntaxError: missing { before function body

tryItOut 578

tryItOut 579

tryItOut 580
Compiling threw: SyntaxError: syntax error

tryItOut 581
Compiling threw: SyntaxError: syntax error

tryItOut 582
Compiling threw: SyntaxError: missing ) in parenthetical

tryItOut 583
Compiling threw: SyntaxError: illegal XML character

tryItOut 584

tryItOut 585

tryItOut 586
Compiling threw: SyntaxError: missing formal parameter

tryItOut 587

tryItOut 588

tryItOut 589
Compiling threw: SyntaxError: invalid for/in left-hand side

tryItOut 590
Compiling threw: SyntaxError: missing variable name

tryItOut 591

tryItOut 592
Compiling threw: SyntaxError: syntax error

tryItOut 593

tryItOut 594

tryItOut 595
Compiling threw: SyntaxError: missing variable name

tryItOut 596

tryItOut 597

tryItOut 598

tryItOut 599

tryItOut 600
Compiling threw: SyntaxError: missing variable name

tryItOut 601

tryItOut 602
Compiling threw: SyntaxError: syntax error

tryItOut 603
Compiling threw: SyntaxError: invalid for/in left-hand side

tryItOut 604
Running threw: 

tryItOut 605
Compiling threw: SyntaxError: missing name after . operator

tryItOut 606
Compiling threw: SyntaxError: invalid for/in left-hand side

tryItOut 607

tryItOut 608
Compiling threw: SyntaxError: missing ) after condition

tryItOut 609
Compiling threw: TypeError: redeclaration of var __parent__

tryItOut 610
Running threw: ReferenceError: z2 is not defined

tryItOut 611

tryItOut 612

tryItOut 613

tryItOut 614

tryItOut 615
Compiling threw: SyntaxError: label not found

tryItOut 616
Compiling threw: SyntaxError: invalid destructuring assignment operator

tryItOut 617
Running threw: -Infinity

tryItOut 618
Compiling threw: SyntaxError: label not found

tryItOut 619

tryItOut 620

tryItOut 621

tryItOut 622
Compiling threw: SyntaxError: missing ) after for-loop control

tryItOut 623
Running threw: SyntaxError: label not found

tryItOut 624

tryItOut 625
Running threw: function ([y]) {
}

tryItOut 626

tryItOut 627
Compiling threw: SyntaxError: syntax error

tryItOut 628

tryItOut 629

tryItOut 630

tryItOut 631
Running threw: TypeError: this.zzz has no properties

tryItOut 632
Compiling threw: SyntaxError: invalid increment operand

tryItOut 633
Compiling threw: SyntaxError: missing variable name

tryItOut 634

tryItOut 635
Running threw: [object Object]

tryItOut 636
Compiling threw: SyntaxError: invalid XML name

tryItOut 637
Compiling threw: SyntaxError: label not found

tryItOut 638

tryItOut 639
Compiling threw: SyntaxError: missing ; before statement

tryItOut 640

tryItOut 641

tryItOut 642

tryItOut 643
Running threw: ReferenceError: z1 is not defined

tryItOut 644
Compiling threw: SyntaxError: missing ) in parenthetical

tryItOut 645

tryItOut 646

tryItOut 647

tryItOut 648

tryItOut 649
Compiling threw: SyntaxError: invalid XML list syntax

tryItOut 650
Compiling threw: SyntaxError: syntax error

tryItOut 651

tryItOut 652
Compiling threw: SyntaxError: invalid continue

tryItOut 653
Compiling threw: SyntaxError: missing ) in parenthetical

tryItOut 654

tryItOut 655

tryItOut 656
Compiling threw: SyntaxError: missing ; after for-loop condition

tryItOut 657
Compiling threw: SyntaxError: syntax error

tryItOut 658

tryItOut 659
Compiling threw: SyntaxError: invalid for/in left-hand side

tryItOut 660
Running threw: TypeError: this.zzz has no properties

tryItOut 661

tryItOut 662
Compiling threw: SyntaxError: label not found

tryItOut 663

tryItOut 664
Compiling threw: SyntaxError: invalid assignment left-hand side

tryItOut 665
Compiling threw: SyntaxError: invalid decrement operand

tryItOut 666
Compiling threw: SyntaxError: missing ; before statement

tryItOut 667
Compiling threw: SyntaxError: invalid increment operand

tryItOut 668
Compiling threw: SyntaxError: invalid for/in left-hand side

tryItOut 669
Compiling threw: SyntaxError: missing ; before statement

tryItOut 670
Compiling threw: SyntaxError: missing ; after for-loop initializer

tryItOut 671
Compiling threw: SyntaxError: missing { before function body

tryItOut 672
Compiling threw: SyntaxError: invalid decrement operand

tryItOut 673
Running threw: -1

tryItOut 674
Compiling threw: TypeError: redeclaration of variable __proto__

tryItOut 675

tryItOut 676

tryItOut 677

tryItOut 678
Compiling threw: SyntaxError: invalid XML name

tryItOut 679
Compiling threw: SyntaxError: syntax error

tryItOut 680

tryItOut 681

tryItOut 682
Compiling threw: SyntaxError: syntax error

tryItOut 683
It's an iterator!
Iterating threw!
Iterating threw: TypeError: __parent__ has no properties

tryItOut 684
Compiling threw: SyntaxError: missing ) in parenthetical

tryItOut 685
Compiling threw: SyntaxError: missing ; after for-loop condition

tryItOut 686
Compiling threw: SyntaxError: label not found

tryItOut 687
Compiling threw: SyntaxError: missing ; before statement

tryItOut 688

tryItOut 689
Compiling threw: SyntaxError: invalid XML name

tryItOut 690
Compiling threw: SyntaxError: missing ; before statement

tryItOut 691
Compiling threw: SyntaxError: missing ) in parenthetical

tryItOut 692
Compiling threw: SyntaxError: missing ; before statement

tryItOut 693
Compiling threw: SyntaxError: invalid for/in left-hand side

tryItOut 694
Compiling threw: SyntaxError: invalid for/in left-hand side

tryItOut 695
Compiling threw: SyntaxError: syntax error

tryItOut 696

tryItOut 697
Compiling threw: SyntaxError: illegal XML character

tryItOut 698

tryItOut 699

tryItOut 700
Running threw: TypeError: this.zzz has no properties

tryItOut 701

tryItOut 702

tryItOut 703
Compiling threw: SyntaxError: invalid XML name

tryItOut 704
Compiling threw: SyntaxError: missing ; before statement

tryItOut 705
Compiling threw: SyntaxError: invalid assignment left-hand side

tryItOut 706

tryItOut 707
Compiling threw: SyntaxError: missing ; before statement

tryItOut 708

tryItOut 709
Running threw: [object StopIteration]

tryItOut 710

tryItOut 711
Compiling threw: SyntaxError: syntax error

tryItOut 712

tryItOut 713
Compiling threw: SyntaxError: syntax error

tryItOut 714

tryItOut 715

tryItOut 716

tryItOut 717

tryItOut 718
Compiling threw: SyntaxError: syntax error

tryItOut 719
Compiling threw: SyntaxError: syntax error

tryItOut 720

tryItOut 721
Compiling threw: SyntaxError: missing ) in parenthetical

tryItOut 722
Compiling threw: SyntaxError: missing { before function body

tryItOut 723

tryItOut 724
Compiling threw: SyntaxError: syntax error

tryItOut 725

tryItOut 726

tryItOut 727
Running threw: [object StopIteration]

tryItOut 728
Compiling threw: SyntaxError: invalid assignment left-hand side

tryItOut 729
Compiling threw: SyntaxError: missing variable name

tryItOut 730

tryItOut 731
Compiling threw: SyntaxError: syntax error

tryItOut 732
Compiling threw: SyntaxError: missing variable name

tryItOut 733
Compiling threw: SyntaxError: missing ; after for-loop initializer

tryItOut 734
Compiling threw: SyntaxError: syntax error

tryItOut 735

tryItOut 736
Compiling threw: SyntaxError: label not found

tryItOut 737
Compiling threw: SyntaxError: missing { before function body

tryItOut 738

tryItOut 739
Compiling threw: SyntaxError: invalid default XML namespace

tryItOut 740
Compiling threw: SyntaxError: invalid decrement operand

tryItOut 741
Compiling threw: SyntaxError: missing ( before let head

tryItOut 742
Compiling threw: SyntaxError: missing { before function body

tryItOut 743
Compiling threw: SyntaxError: missing ; before statement

tryItOut 744

tryItOut 745
Compiling threw: SyntaxError: syntax error

tryItOut 746
Compiling threw: SyntaxError: missing ) after for-loop control

tryItOut 747
Compiling threw: SyntaxError: missing } after property list

tryItOut 748
Compiling threw: SyntaxError: invalid sharp variable definition

tryItOut 749
Compiling threw: SyntaxError: label not found

tryItOut 750
Compiling threw: SyntaxError: invalid break

tryItOut 751

tryItOut 752

tryItOut 753
Compiling threw: SyntaxError: invalid XML name

tryItOut 754
Compiling threw: SyntaxError: missing ; before statement

tryItOut 755

tryItOut 756
Compiling threw: SyntaxError: missing { before function body

tryItOut 757
Compiling threw: SyntaxError: missing variable name

tryItOut 758
Compiling threw: TypeError: redeclaration of variable __proto__

tryItOut 759
Compiling threw: SyntaxError: syntax error

tryItOut 760
Compiling threw: SyntaxError: syntax error

tryItOut 761
Running threw: ReferenceError: x is not defined

tryItOut 762

tryItOut 763
Compiling threw: SyntaxError: label not found

tryItOut 764
Compiling threw: SyntaxError: missing ; before statement

tryItOut 765

tryItOut 766

tryItOut 767

tryItOut 768

tryItOut 769
Compiling threw: SyntaxError: invalid continue

tryItOut 770
Compiling threw: SyntaxError: invalid for/in left-hand side

tryItOut 771
Compiling threw: SyntaxError: invalid decrement operand

tryItOut 772
Compiling threw: SyntaxError: invalid XML name

tryItOut 773
Compiling threw: SyntaxError: syntax error

tryItOut 774

tryItOut 775

tryItOut 776
Compiling threw: SyntaxError: syntax error

tryItOut 777
Running threw: [object StopIteration]

tryItOut 778

tryItOut 779
Compiling threw: SyntaxError: missing { before function body

tryItOut 780
Compiling threw: SyntaxError: missing : after property id

tryItOut 781
Running threw: 3

tryItOut 782
Compiling threw: SyntaxError: missing ; before statement

tryItOut 783

tryItOut 784

tryItOut 785
Compiling threw: SyntaxError: missing ; before statement

tryItOut 786
Compiling threw: SyntaxError: invalid for/in left-hand side

tryItOut 787
Compiling threw: SyntaxError: invalid for/in left-hand side

tryItOut 788
Compiling threw: SyntaxError: invalid assignment left-hand side

tryItOut 789
Compiling threw: SyntaxError: missing variable name

tryItOut 790
Compiling threw: SyntaxError: syntax error

tryItOut 791
Compiling threw: SyntaxError: invalid default XML namespace

tryItOut 792
Compiling threw: SyntaxError: syntax error

tryItOut 793

tryItOut 794
Compiling threw: SyntaxError: syntax error

tryItOut 795
Compiling threw: SyntaxError: invalid continue

tryItOut 796

tryItOut 797
Running threw: TypeError: this.zzz has no properties

tryItOut 798

tryItOut 799

tryItOut 800

tryItOut 801
Compiling threw: SyntaxError: syntax error

tryItOut 802
Compiling threw: SyntaxError: invalid continue

tryItOut 803
Compiling threw: SyntaxError: missing : after property id

tryItOut 804
Compiling threw: SyntaxError: missing variable name

tryItOut 805

tryItOut 806
Compiling threw: SyntaxError: missing ) in parenthetical

tryItOut 807
Compiling threw: SyntaxError: missing ; before statement

tryItOut 808
Compiling threw: SyntaxError: missing variable name

tryItOut 809
Compiling threw: SyntaxError: label not found

tryItOut 810

tryItOut 811
Compiling threw: SyntaxError: invalid for/in left-hand side

tryItOut 812

tryItOut 813
Compiling threw: TypeError: redeclaration of const constructor

tryItOut 814
Compiling threw: SyntaxError: syntax error

tryItOut 815
Compiling threw: SyntaxError: missing variable name

tryItOut 816
Compiling threw: SyntaxError: invalid assignment left-hand side

tryItOut 817
Compiling threw: SyntaxError: missing { before function body

tryItOut 818
Compiling threw: SyntaxError: syntax error

tryItOut 819
Compiling threw: SyntaxError: missing ) in parenthetical

tryItOut 820
Compiling threw: SyntaxError: invalid destructuring assignment operator

tryItOut 821
Compiling threw: TypeError: redeclaration of variable __count__

tryItOut 822
Compiling threw: SyntaxError: syntax error

tryItOut 823
Compiling threw: SyntaxError: illegal XML character

tryItOut 824
Compiling threw: SyntaxError: syntax error

tryItOut 825
Compiling threw: SyntaxError: missing ) after argument list

tryItOut 826

tryItOut 827

tryItOut 828

tryItOut 829
Compiling threw: SyntaxError: syntax error

tryItOut 830
Running threw: ReferenceError: z1 is not defined

tryItOut 831

tryItOut 832
Compiling threw: SyntaxError: missing ; before statement

tryItOut 833
Compiling threw: SyntaxError: label not found

tryItOut 834
Compiling threw: SyntaxError: invalid for/in left-hand side

tryItOut 835
Compiling threw: SyntaxError: invalid break

tryItOut 836
Compiling threw: SyntaxError: duplicate label

tryItOut 837
Compiling threw: SyntaxError: missing ; before statement

tryItOut 838
Compiling threw: SyntaxError: missing variable name

tryItOut 839
Compiling threw: SyntaxError: invalid continue

tryItOut 840
Compiling threw: SyntaxError: syntax error

tryItOut 841
Compiling threw: SyntaxError: syntax error

tryItOut 842

tryItOut 843
Compiling threw: SyntaxError: missing ; after for-loop initializer

tryItOut 844

tryItOut 845
Compiling threw: SyntaxError: invalid property id

tryItOut 846
Compiling threw: SyntaxError: syntax error

tryItOut 847
Compiling threw: SyntaxError: invalid destructuring assignment operator

tryItOut 848
Compiling threw: SyntaxError: syntax error

tryItOut 849
Compiling threw: SyntaxError: invalid for/in left-hand side

tryItOut 850

tryItOut 851
Compiling threw: SyntaxError: syntax error

tryItOut 852

tryItOut 853

tryItOut 854

tryItOut 855

tryItOut 856

tryItOut 857

tryItOut 858

tryItOut 859

tryItOut 860
Running threw: 0

tryItOut 861

tryItOut 862
Compiling threw: SyntaxError: label not found

tryItOut 863
Compiling threw: SyntaxError: invalid for/in left-hand side

tryItOut 864

tryItOut 865
Compiling threw: SyntaxError: missing ) in parenthetical

tryItOut 866
Compiling threw: SyntaxError: syntax error

tryItOut 867

tryItOut 868
Compiling threw: SyntaxError: invalid for/in left-hand side

tryItOut 869
Compiling threw: SyntaxError: invalid decrement operand

tryItOut 870
Compiling threw: SyntaxError: missing ; after for-loop initializer

tryItOut 871
Compiling threw: SyntaxError: missing ) in parenthetical

tryItOut 872
Compiling threw: SyntaxError: syntax error

tryItOut 873
Compiling threw: SyntaxError: missing formal parameter

tryItOut 874
Compiling threw: SyntaxError: label not found

tryItOut 875
Compiling threw: SyntaxError: label not found

tryItOut 876
Running threw: TypeError: this.zzz has no properties

tryItOut 877
Compiling threw: SyntaxError: invalid assignment left-hand side

tryItOut 878
Compiling threw: SyntaxError: invalid for/in left-hand side

tryItOut 879

tryItOut 880

tryItOut 881

tryItOut 882
Compiling threw: SyntaxError: syntax error

tryItOut 883
Compiling threw: SyntaxError: invalid decrement operand

tryItOut 884
Compiling threw: SyntaxError: syntax error

tryItOut 885

tryItOut 886

tryItOut 887
Compiling threw: SyntaxError: invalid for/in left-hand side

tryItOut 888
Compiling threw: SyntaxError: missing } after let block

tryItOut 889

tryItOut 890
Compiling threw: SyntaxError: invalid for/in left-hand side

tryItOut 891

tryItOut 892

tryItOut 893
Compiling threw: SyntaxError: invalid for/in left-hand side

tryItOut 894
Compiling threw: SyntaxError: invalid for/in left-hand side

tryItOut 895
Compiling threw: SyntaxError: missing ) in parenthetical

tryItOut 896
Compiling threw: SyntaxError: syntax error

tryItOut 897

tryItOut 898
Compiling threw: SyntaxError: missing ) after condition

tryItOut 899
Compiling threw: SyntaxError: missing variable name

tryItOut 900
Compiling threw: SyntaxError: label not found

tryItOut 901
Compiling threw: SyntaxError: syntax error

tryItOut 902
Compiling threw: SyntaxError: label not found

tryItOut 903

tryItOut 904
Compiling threw: SyntaxError: invalid assignment left-hand side

tryItOut 905
Compiling threw: SyntaxError: missing ) in parenthetical

tryItOut 906
Compiling threw: SyntaxError: missing ; after for-loop initializer

tryItOut 907
Compiling threw: SyntaxError: missing ) after condition

tryItOut 908
Compiling threw: SyntaxError: invalid assignment left-hand side

tryItOut 909
Compiling threw: SyntaxError: missing ) after condition

tryItOut 910
It's an iterator!
Iterating succeeded, iterCount == 1

tryItOut 911
Compiling threw: SyntaxError: invalid continue

tryItOut 912

tryItOut 913
Compiling threw: SyntaxError: syntax error

tryItOut 914
Compiling threw: SyntaxError: label not found

tryItOut 915
Compiling threw: SyntaxError: invalid XML name

tryItOut 916

tryItOut 917
Compiling threw: SyntaxError: missing ; before statement

tryItOut 918
Compiling threw: SyntaxError: invalid sharp variable definition

tryItOut 919

tryItOut 920

tryItOut 921
Compiling threw: SyntaxError: missing ) after condition

tryItOut 922
Compiling threw: SyntaxError: invalid for/in left-hand side

tryItOut 923
Compiling threw: SyntaxError: missing ) in parenthetical

tryItOut 924

tryItOut 925

tryItOut 926
Compiling threw: SyntaxError: missing variable name

tryItOut 927

tryItOut 928
Compiling threw: SyntaxError: missing ; before statement

tryItOut 929
Compiling threw: SyntaxError: missing variable name

tryItOut 930
Compiling threw: SyntaxError: missing ) in parenthetical

tryItOut 931

tryItOut 932
Compiling threw: SyntaxError: missing ; before statement

tryItOut 933
Compiling threw: SyntaxError: syntax error

tryItOut 934
Compiling threw: SyntaxError: invalid continue

tryItOut 935
Compiling threw: SyntaxError: missing ) in parenthetical

tryItOut 936

tryItOut 937
Compiling threw: SyntaxError: missing ; before statement

tryItOut 938
Running threw: TypeError: undefined has no properties

tryItOut 939

tryItOut 940
Compiling threw: SyntaxError: invalid XML list syntax

tryItOut 941
Compiling threw: SyntaxError: missing ) in parenthetical

tryItOut 942

tryItOut 943
Compiling threw: SyntaxError: syntax error

tryItOut 944

tryItOut 945

tryItOut 946

tryItOut 947
Compiling threw: SyntaxError: missing variable name

tryItOut 948
Compiling threw: SyntaxError: invalid assignment left-hand side

tryItOut 949
Compiling threw: SyntaxError: invalid for/in left-hand side

tryItOut 950
Compiling threw: SyntaxError: invalid decrement operand

tryItOut 951

tryItOut 952
Compiling threw: SyntaxError: label not found

tryItOut 953
Compiling threw: SyntaxError: invalid for/in left-hand side

tryItOut 954
Compiling threw: SyntaxError: syntax error

tryItOut 955

tryItOut 956

tryItOut 957
Compiling threw: TypeError: redeclaration of const __parent__

tryItOut 958

tryItOut 959

tryItOut 960

tryItOut 961
Compiling threw: SyntaxError: invalid for/in left-hand side

tryItOut 962
Compiling threw: SyntaxError: missing variable name

tryItOut 963

tryItOut 964
Compiling threw: SyntaxError: invalid for/in left-hand side

tryItOut 965

tryItOut 966
uneval returned the string: ({a1:1})
Skipping re-eval test

tryItOut 967
Compiling threw: SyntaxError: invalid for/in left-hand side

tryItOut 968
Compiling threw: SyntaxError: missing variable name

tryItOut 969

tryItOut 970
Compiling threw: SyntaxError: invalid assignment left-hand side

tryItOut 971

tryItOut 972
Compiling threw: SyntaxError: invalid continue

tryItOut 973
Compiling threw: SyntaxError: syntax error

tryItOut 974
Compiling threw: SyntaxError: invalid break

tryItOut 975
Compiling threw: SyntaxError: invalid for/in left-hand side

tryItOut 976
Compiling threw: SyntaxError: syntax error

tryItOut 977
Compiling threw: SyntaxError: syntax error

tryItOut 978

tryItOut 979
Compiling threw: SyntaxError: missing ) in parenthetical

tryItOut 980
Running threw: TypeError: arguments[0] has no properties

tryItOut 981

tryItOut 982
Compiling threw: SyntaxError: invalid for/in left-hand side

tryItOut 983
Compiling threw: SyntaxError: syntax error

tryItOut 984
Compiling threw: SyntaxError: syntax error

tryItOut 985

tryItOut 986
Compiling threw: SyntaxError: syntax error

tryItOut 987

tryItOut 988
Compiling threw: SyntaxError: syntax error

tryItOut 989
Compiling threw: SyntaxError: syntax error

tryItOut 990

tryItOut 991
Compiling threw: SyntaxError: syntax error

tryItOut 992

tryItOut 993

tryItOut 994

tryItOut 995

tryItOut 996

tryItOut 997
Compiling threw: SyntaxError: invalid break

tryItOut 998
Compiling threw: SyntaxError: label not found

tryItOut 999
Compiling threw: SyntaxError: missing ; before statement

tryItOut 1000
Compiling threw: SyntaxError: missing ; before statement

ALL OK

Script done on Sat 04 May 2013 05:36:21 AM PDT
