Script started on Sat 04 May 2013 05:37:31 AM PDT
***
Targeting SpiderMonkey / Gecko.

tryItOut 1
It's an iterator!
Iterating succeeded, iterCount == 1

tryItOut 2
It's an iterator!
Iterating succeeded, iterCount == 1

tryItOut 3
Compiling threw: SyntaxError: invalid for/in left-hand side

tryItOut 4

tryItOut 5
Compiling threw: SyntaxError: missing variable name

tryItOut 6
Compiling threw: SyntaxError: label not found

tryItOut 7

tryItOut 8
Compiling threw: SyntaxError: missing ; after for-loop initializer

tryItOut 9
Compiling threw: SyntaxError: missing ; after for-loop initializer

tryItOut 10
Compiling threw: SyntaxError: missing variable name

tryItOut 11

tryItOut 12

tryItOut 13
Compiling threw: TypeError: generator function anonymous returns a value

tryItOut 14
before 87200, after 87200, break 00f1b000

tryItOut 15
before 87200, after 69760, break 00f1b000

tryItOut 16

tryItOut 17
Compiling threw: SyntaxError: missing ) in parenthetical

tryItOut 18

tryItOut 19
Running threw: TypeError: this.zzz has no properties

tryItOut 20
Compiling threw: SyntaxError: missing ; before statement

tryItOut 21

tryItOut 22
It's an iterator!
Iterating threw!
Iterating threw: TypeError: __parent__ has no properties

tryItOut 23
Compiling threw: SyntaxError: missing ; before statement

tryItOut 24
Compiling threw: SyntaxError: missing ) after argument list

tryItOut 25
Compiling threw: SyntaxError: missing { before function body

tryItOut 26
Compiling threw: SyntaxError: missing variable name

tryItOut 27
Compiling threw: TypeError: generator function anonymous returns a value

tryItOut 28
Compiling threw: SyntaxError: missing ; before statement

tryItOut 29
Compiling threw: SyntaxError: missing ; before statement

tryItOut 30
Compiling threw: SyntaxError: missing ; after for-loop initializer

tryItOut 31
Compiling threw: SyntaxError: missing ) in parenthetical

tryItOut 32
Compiling threw: SyntaxError: syntax error

tryItOut 33
Running threw: TypeError: this.zzz has no properties

tryItOut 34
It's an iterator!
Iterating succeeded, iterCount == 1

tryItOut 35

tryItOut 36
Compiling threw: SyntaxError: label not found

tryItOut 37
Compiling threw: SyntaxError: missing ; before statement

tryItOut 38

tryItOut 39
Compiling threw: SyntaxError: invalid for/in left-hand side

tryItOut 40
Compiling threw: TypeError: generator function anonymous returns a value

tryItOut 41

tryItOut 42
Compiling threw: SyntaxError: label not found

tryItOut 43

tryItOut 44
Compiling threw: TypeError: generator function anonymous returns a value

tryItOut 45
Compiling threw: SyntaxError: missing variable name

tryItOut 46
Compiling threw: SyntaxError: missing ; before statement

tryItOut 47
Compiling threw: SyntaxError: missing ; before statement

tryItOut 48

tryItOut 49
Compiling threw: SyntaxError: invalid continue

tryItOut 50
It's an iterator!
Iterating succeeded, iterCount == 1

tryItOut 51
Compiling threw: SyntaxError: invalid for/in left-hand side

tryItOut 52
Compiling threw: SyntaxError: syntax error

tryItOut 53
Compiling threw: SyntaxError: syntax error

tryItOut 54
Compiling threw: SyntaxError: missing ) after argument list

tryItOut 55
Compiling threw: SyntaxError: invalid increment operand

tryItOut 56
Compiling threw: SyntaxError: missing ; before statement

tryItOut 57

tryItOut 58
Compiling threw: SyntaxError: missing ) in parenthetical

tryItOut 59

tryItOut 60

tryItOut 61
Compiling threw: SyntaxError: invalid for/in left-hand side

tryItOut 62
Running threw: ReferenceError: reference to undefined XML name @foo

tryItOut 63
Compiling threw: SyntaxError: missing variable name

tryItOut 64
Compiling threw: SyntaxError: syntax error

tryItOut 65
Running threw: ReferenceError: z1 is not defined

tryItOut 66
Compiling threw: SyntaxError: missing ; before statement

tryItOut 67
Compiling threw: SyntaxError: missing ) in parenthetical

tryItOut 68
Running threw: TypeError: constructor has no properties

tryItOut 69
It's an iterator!
Iterating threw!
Iterating threw: ReferenceError: __iterator__ is not defined

tryItOut 70

tryItOut 71
Compiling threw: SyntaxError: missing = in destructuring declaration

tryItOut 72
Running threw: ReferenceError: O is not defined

tryItOut 73
Running threw: ReferenceError: reference to undefined XML name *::*

tryItOut 74
Compiling threw: SyntaxError: label not found

tryItOut 75

tryItOut 76

tryItOut 77
It's an iterator!
Iterating succeeded, iterCount == 1

tryItOut 78
before 104640, after 104640, break 00f30000

tryItOut 79
Compiling threw: SyntaxError: missing variable name

tryItOut 80
Compiling threw: SyntaxError: missing ; before statement

tryItOut 81
Compiling threw: SyntaxError: missing variable name

tryItOut 82
Compiling threw: SyntaxError: syntax error

tryItOut 83

tryItOut 84
Compiling threw: SyntaxError: invalid assignment left-hand side

tryItOut 85

tryItOut 86

tryItOut 87
Running threw: TypeError: this.zzz has no properties

tryItOut 88
Compiling threw: SyntaxError: missing ; before statement

tryItOut 89

tryItOut 90
Compiling threw: SyntaxError: invalid for/in left-hand side

tryItOut 91
It's an iterator!
Iterating succeeded, iterCount == 1

tryItOut 92

tryItOut 93

tryItOut 94
Compiling threw: SyntaxError: missing variable name

tryItOut 95
Compiling threw: SyntaxError: label not found

tryItOut 96
Compiling threw: SyntaxError: missing ; after for-loop initializer

tryItOut 97
Compiling threw: SyntaxError: missing ; before statement

tryItOut 98
Compiling threw: SyntaxError: missing ; after for-loop initializer

tryItOut 99

tryItOut 100
Compiling threw: SyntaxError: invalid for/in left-hand side

tryItOut 101
Compiling threw: SyntaxError: invalid for/in left-hand side

tryItOut 102
Compiling threw: SyntaxError: invalid for/in left-hand side

tryItOut 103
Compiling threw: SyntaxError: invalid continue

tryItOut 104
before 104640, after 104640, break 00f30000

tryItOut 105
Compiling threw: SyntaxError: missing { before function body

tryItOut 106
Compiling threw: TypeError: anonymous generator function returns a value

tryItOut 107
Compiling threw: SyntaxError: missing ) in parenthetical

tryItOut 108

tryItOut 109
Compiling threw: SyntaxError: duplicate label

tryItOut 110
Compiling threw: SyntaxError: syntax error

tryItOut 111
Compiling threw: SyntaxError: label not found

tryItOut 112
Compiling threw: SyntaxError: missing ) after condition

tryItOut 113
Compiling threw: TypeError: redeclaration of const prop

tryItOut 114

tryItOut 115

tryItOut 116
Compiling threw: SyntaxError: missing ; before statement

tryItOut 117
Compiling threw: SyntaxError: missing variable name

tryItOut 118
Compiling threw: SyntaxError: invalid for/in left-hand side

tryItOut 119
Compiling threw: SyntaxError: label not found

tryItOut 120
Compiling threw: SyntaxError: invalid continue

tryItOut 121

tryItOut 122
Compiling threw: SyntaxError: missing ; before statement

tryItOut 123
It's an iterator!
Iterating succeeded, iterCount == 0

tryItOut 124
Compiling threw: SyntaxError: missing ; before statement

tryItOut 125

tryItOut 126
Compiling threw: SyntaxError: missing variable name

tryItOut 127

tryItOut 128
Running threw: ReferenceError: __iterator__ is not defined

tryItOut 129

tryItOut 130
It's an iterator!
Iterating succeeded, iterCount == 1

tryItOut 131
before 104640, after 104640, break 00f30000

tryItOut 132
Compiling threw: SyntaxError: missing : after property id

tryItOut 133
Compiling threw: SyntaxError: missing ; before statement

tryItOut 134

tryItOut 135
Compiling threw: SyntaxError: missing variable name

tryItOut 136
Compiling threw: SyntaxError: label not found

tryItOut 137
Compiling threw: SyntaxError: missing variable name

tryItOut 138
Compiling threw: SyntaxError: invalid for/in left-hand side

tryItOut 139

tryItOut 140
Compiling threw: SyntaxError: invalid assignment left-hand side

tryItOut 141
It's an iterator!
Iterating threw!
Iterating threw: ReferenceError: __iterator__ is not defined

tryItOut 142
Compiling threw: SyntaxError: missing ) in parenthetical

tryItOut 143
Compiling threw: SyntaxError: invalid destructuring assignment operator

tryItOut 144
Compiling threw: SyntaxError: invalid assignment left-hand side

tryItOut 145

tryItOut 146
Compiling threw: SyntaxError: invalid break

tryItOut 147
Compiling threw: SyntaxError: invalid for/in left-hand side

tryItOut 148
Compiling threw: SyntaxError: missing ; before statement

tryItOut 149
before 104640, after 104640, break 00f30000

tryItOut 150
Compiling threw: TypeError: anonymous generator function returns a value

tryItOut 151
Compiling threw: TypeError: generator function anonymous returns a value

tryItOut 152
Compiling threw: SyntaxError: missing ; after for-loop initializer

tryItOut 153
Compiling threw: SyntaxError: syntax error

tryItOut 154
Compiling threw: SyntaxError: invalid assignment left-hand side

tryItOut 155
Compiling threw: SyntaxError: missing { before function body

tryItOut 156
Compiling threw: SyntaxError: syntax error

tryItOut 157
Compiling threw: SyntaxError: invalid for/in left-hand side

tryItOut 158

tryItOut 159
Compiling threw: SyntaxError: syntax error

tryItOut 160
Compiling threw: SyntaxError: missing ) after condition

tryItOut 161

tryItOut 162
Compiling threw: SyntaxError: label not found

tryItOut 163

tryItOut 164
Compiling threw: SyntaxError: invalid for/in left-hand side

tryItOut 165

tryItOut 166

tryItOut 167
It's an iterator!
Iterating succeeded, iterCount == 1

tryItOut 168
Compiling threw: SyntaxError: invalid for/in left-hand side

tryItOut 169
Compiling threw: SyntaxError: invalid for/in left-hand side

tryItOut 170
Compiling threw: SyntaxError: missing ; after for-loop initializer

tryItOut 171
Compiling threw: SyntaxError: invalid assignment left-hand side

tryItOut 172
It's an iterator!
Iterating succeeded, iterCount == 1

tryItOut 173
It's an iterator!
Iterating threw!
Iterating threw: ReferenceError: reference to undefined XML name *

tryItOut 174

tryItOut 175
Compiling threw: SyntaxError: missing ; before statement

tryItOut 176
Compiling threw: SyntaxError: missing variable name

tryItOut 177
Running threw: ReferenceError: reference to undefined XML name *::*

tryItOut 178

tryItOut 179
Compiling threw: SyntaxError: label not found

tryItOut 180
Compiling threw: SyntaxError: syntax error

tryItOut 181

tryItOut 182
Compiling threw: SyntaxError: missing name in export statement

tryItOut 183
Compiling threw: SyntaxError: label not found

tryItOut 184
Compiling threw: SyntaxError: missing ) in parenthetical

tryItOut 185

tryItOut 186

tryItOut 187

tryItOut 188
Compiling threw: SyntaxError: invalid increment operand

tryItOut 189
Compiling threw: SyntaxError: invalid for/in left-hand side

tryItOut 190
Compiling threw: SyntaxError: syntax error

tryItOut 191
It's an iterator!
Iterating threw!
Iterating threw: TypeError: new <x><y/></x>.__lookupSetter__("__proto__") is not a function

tryItOut 192
Compiling threw: SyntaxError: missing name after . operator

tryItOut 193
Compiling threw: SyntaxError: invalid for/in left-hand side

tryItOut 194
Running threw: ReferenceError: prop is not defined

tryItOut 195
Compiling threw: SyntaxError: label not found

tryItOut 196
Compiling threw: SyntaxError: missing ) in parenthetical

tryItOut 197
Compiling threw: SyntaxError: missing ) after condition

tryItOut 198
Running threw: ReferenceError: reference to undefined XML name *

tryItOut 199
Compiling threw: SyntaxError: invalid for/in left-hand side

tryItOut 200
Compiling threw: SyntaxError: invalid break

tryItOut 201
It's an iterator!
Iterating threw!
Iterating threw: ReferenceError: reference to undefined XML name @foo

tryItOut 202
Compiling threw: SyntaxError: missing variable name

tryItOut 203
Compiling threw: SyntaxError: syntax error

tryItOut 204
Compiling threw: SyntaxError: missing ) in parenthetical

tryItOut 205
Running threw: ReferenceError: prop is not defined

tryItOut 206

tryItOut 207

tryItOut 208

tryItOut 209

tryItOut 210
Compiling threw: SyntaxError: missing variable name

tryItOut 211
Compiling threw: TypeError: generator function anonymous returns a value

tryItOut 212

tryItOut 213
Running threw: TypeError: arguments[0] has no properties

tryItOut 214

tryItOut 215

tryItOut 216

tryItOut 217

tryItOut 218
Compiling threw: TypeError: generator function anonymous returns a value

tryItOut 219
Compiling threw: SyntaxError: missing ) after argument list

tryItOut 220
Compiling threw: SyntaxError: missing variable name

tryItOut 221

tryItOut 222
Compiling threw: SyntaxError: label not found

tryItOut 223
Compiling threw: SyntaxError: label not found

tryItOut 224
before 122080, after 122080, break 00f5c000

tryItOut 225
Compiling threw: SyntaxError: label not found

tryItOut 226
Compiling threw: TypeError: redeclaration of variable __iterator__

tryItOut 227
Compiling threw: SyntaxError: invalid break

tryItOut 228
Running threw: TypeError: this.zzz has no properties

tryItOut 229

tryItOut 230
Compiling threw: SyntaxError: label not found

tryItOut 231
Compiling threw: SyntaxError: missing : after property id

tryItOut 232

tryItOut 233
Compiling threw: SyntaxError: label not found

tryItOut 234
Compiling threw: SyntaxError: missing variable name

tryItOut 235
Compiling threw: SyntaxError: missing ) in parenthetical

tryItOut 236

tryItOut 237
It's an iterator!
Iterating succeeded, iterCount == 1

tryItOut 238
Compiling threw: SyntaxError: missing { before function body

tryItOut 239

tryItOut 240

tryItOut 241
It's an iterator!
Iterating succeeded, iterCount == 1

tryItOut 242
Compiling threw: TypeError: generator function anonymous returns a value

tryItOut 243

tryItOut 244
Compiling threw: SyntaxError: missing ; before statement

tryItOut 245
Compiling threw: SyntaxError: invalid for/in left-hand side

tryItOut 246
Compiling threw: SyntaxError: invalid break

tryItOut 247

tryItOut 248
Compiling threw: TypeError: anonymous generator function returns a value

tryItOut 249

tryItOut 250
Compiling threw: SyntaxError: invalid break

tryItOut 251
It's an iterator!
Iterating succeeded, iterCount == 1

tryItOut 252
Compiling threw: SyntaxError: invalid break

tryItOut 253
Running threw: TypeError: this.zzz has no properties

tryItOut 254
Compiling threw: SyntaxError: invalid for/in left-hand side

tryItOut 255
It's an iterator!
Iterating succeeded, iterCount == 1

tryItOut 256
Compiling threw: SyntaxError: syntax error

tryItOut 257

tryItOut 258

tryItOut 259
Compiling threw: SyntaxError: illegal XML character

tryItOut 260
Compiling threw: SyntaxError: missing ; before statement

tryItOut 261

tryItOut 262
Compiling threw: SyntaxError: missing ; before statement

tryItOut 263
before 122080, after 122080, break 00f6f000

tryItOut 264
Compiling threw: SyntaxError: missing { before function body

tryItOut 265

tryItOut 266
before 122080, after 122080, break 00f6a000

tryItOut 267

tryItOut 268
Compiling threw: SyntaxError: missing : after property id

tryItOut 269
Compiling threw: SyntaxError: missing ) after condition

tryItOut 270
Compiling threw: SyntaxError: label not found

tryItOut 271
Compiling threw: SyntaxError: invalid increment operand

tryItOut 272
Compiling threw: SyntaxError: missing ) in parenthetical

tryItOut 273

tryItOut 274
It's an iterator!
before 122080, after 122080, break 00f6a000
Iterating succeeded, iterCount == 1

tryItOut 275
Compiling threw: SyntaxError: missing ; after for-loop initializer

tryItOut 276
Compiling threw: SyntaxError: missing : after property id

tryItOut 277

tryItOut 278
Compiling threw: SyntaxError: invalid break

tryItOut 279
before 122080, after 122080, break 00f6a000

tryItOut 280

tryItOut 281
Compiling threw: SyntaxError: invalid for/in left-hand side

tryItOut 282
Running threw: TypeError: this.zzz has no properties

tryItOut 283

tryItOut 284
Compiling threw: SyntaxError: syntax error

tryItOut 285
Compiling threw: SyntaxError: missing ; before statement

tryItOut 286
Compiling threw: SyntaxError: missing ) after argument list

tryItOut 287
Compiling threw: SyntaxError: missing ; before statement

tryItOut 288
Compiling threw: SyntaxError: missing variable name

tryItOut 289

tryItOut 290
Compiling threw: SyntaxError: invalid for/in left-hand side

tryItOut 291

tryItOut 292

tryItOut 293
Compiling threw: SyntaxError: missing ) in parenthetical

tryItOut 294
Compiling threw: SyntaxError: missing ) after for-loop control

tryItOut 295
Compiling threw: SyntaxError: syntax error

tryItOut 296

tryItOut 297
Running threw: ReferenceError: reference to undefined XML name *::*

tryItOut 298
Running threw: TypeError: this.zzz has no properties

tryItOut 299
Compiling threw: SyntaxError: syntax error

tryItOut 300
Compiling threw: SyntaxError: invalid for/in left-hand side

tryItOut 301

tryItOut 302

tryItOut 303
before 122080, after 122080, break 00f6a000

tryItOut 304
before 122080, after 122080, break 00f6a000

tryItOut 305
Compiling threw: SyntaxError: invalid decrement operand

tryItOut 306

tryItOut 307
Compiling threw: SyntaxError: missing ( before let head

tryItOut 308
Compiling threw: SyntaxError: invalid break

tryItOut 309

tryItOut 310

tryItOut 311

tryItOut 312

tryItOut 313

tryItOut 314

tryItOut 315
before 122080, after 122080, break 00f6a000

tryItOut 316

tryItOut 317

tryItOut 318
Running threw: TypeError: this.zzz has no properties

tryItOut 319

tryItOut 320
Running threw: ReferenceError: reference to undefined XML name *

tryItOut 321

tryItOut 322
Running threw: TypeError: this.zzz has no properties

tryItOut 323

tryItOut 324
Compiling threw: SyntaxError: invalid for/in left-hand side

tryItOut 325
Compiling threw: SyntaxError: invalid default XML namespace

tryItOut 326
Compiling threw: SyntaxError: syntax error

tryItOut 327
Running threw: ReferenceError: reference to undefined XML name *

tryItOut 328
Compiling threw: SyntaxError: label not found

tryItOut 329

tryItOut 330
Compiling threw: SyntaxError: invalid break

tryItOut 331
It's an iterator!
Iterating threw!
Iterating threw: ReferenceError: reference to undefined XML name *

tryItOut 332
Compiling threw: SyntaxError: missing variable name

tryItOut 333

tryItOut 334
Running threw: ReferenceError: reference to undefined XML name @foo

tryItOut 335
It's an iterator!
Iterating threw!
Iterating threw: TypeError: redeclaration of var __count__

tryItOut 336
Running threw: ReferenceError: prop is not defined

tryItOut 337
Compiling threw: SyntaxError: missing { before function body

tryItOut 338

tryItOut 339

tryItOut 340
It's an iterator!
Iterating threw!
Iterating threw: ReferenceError: reference to undefined XML name *::*

tryItOut 341

tryItOut 342
Compiling threw: SyntaxError: missing ; before statement

tryItOut 343
Compiling threw: SyntaxError: missing variable name

tryItOut 344
Compiling threw: SyntaxError: invalid assignment left-hand side

tryItOut 345

tryItOut 346
Compiling threw: SyntaxError: missing ; before statement

tryItOut 347
Compiling threw: SyntaxError: label not found

tryItOut 348
Compiling threw: SyntaxError: missing ; after for-loop initializer

tryItOut 349
Compiling threw: SyntaxError: invalid sharp variable definition

tryItOut 350
Compiling threw: SyntaxError: missing ; after for-loop initializer

tryItOut 351
Running threw: TypeError: <x>
  <y/>
</x> is not a function

tryItOut 352

tryItOut 353
Compiling threw: SyntaxError: invalid decrement operand

tryItOut 354
Compiling threw: SyntaxError: illegal XML character

tryItOut 355
Compiling threw: SyntaxError: syntax error

tryItOut 356
Compiling threw: SyntaxError: invalid for/in left-hand side

tryItOut 357
Compiling threw: SyntaxError: label not found

tryItOut 358
Compiling threw: SyntaxError: syntax error

tryItOut 359
Compiling threw: SyntaxError: missing ) after condition

tryItOut 360

tryItOut 361

tryItOut 362

tryItOut 363
before 122080, after 122080, break 00f6a000

tryItOut 364
Compiling threw: SyntaxError: label not found

tryItOut 365
Running threw: TypeError: this.zzz has no properties

tryItOut 366
before 122080, after 122080, break 00f6a000

tryItOut 367
Compiling threw: SyntaxError: invalid for/in left-hand side

tryItOut 368
Compiling threw: SyntaxError: missing name in export statement

tryItOut 369
Compiling threw: SyntaxError: invalid break

tryItOut 370

tryItOut 371

tryItOut 372

tryItOut 373
Running threw: ReferenceError: reference to undefined XML name *::*

tryItOut 374
Compiling threw: SyntaxError: missing ) in parenthetical

tryItOut 375
Compiling threw: SyntaxError: missing = in destructuring declaration

tryItOut 376

tryItOut 377
Compiling threw: SyntaxError: invalid for/in left-hand side

tryItOut 378
Compiling threw: TypeError: generator function anonymous returns a value

tryItOut 379
Compiling threw: SyntaxError: label not found

tryItOut 380

tryItOut 381
Compiling threw: SyntaxError: missing { before function body

tryItOut 382
Compiling threw: TypeError: generator function anonymous returns a value

tryItOut 383
Running threw: ReferenceError: reference to undefined XML name *

tryItOut 384
It's an iterator!
Iterating succeeded, iterCount == 1

tryItOut 385

tryItOut 386
Compiling threw: SyntaxError: invalid assignment left-hand side

tryItOut 387
uneval returned the string: ({a1:1})
Skipping re-eval test

tryItOut 388

tryItOut 389
It's an iterator!
Iterating succeeded, iterCount == 1

tryItOut 390
Compiling threw: SyntaxError: missing name in export statement

tryItOut 391
It's an iterator!
Iterating succeeded, iterCount == 1

tryItOut 392
Compiling threw: SyntaxError: syntax error

tryItOut 393

tryItOut 394

tryItOut 395

tryItOut 396

tryItOut 397
Compiling threw: SyntaxError: missing ; before statement

tryItOut 398
Compiling threw: SyntaxError: missing ; after for-loop initializer

tryItOut 399
Compiling threw: SyntaxError: invalid break

tryItOut 400

tryItOut 401

tryItOut 402
Compiling threw: SyntaxError: invalid for/in left-hand side

tryItOut 403
Running threw: ReferenceError: reference to undefined XML name @foo

tryItOut 404

tryItOut 405

tryItOut 406
Compiling threw: SyntaxError: missing ; after for-loop initializer

tryItOut 407

tryItOut 408
Compiling threw: SyntaxError: invalid break

tryItOut 409
Compiling threw: SyntaxError: missing ) in parenthetical

tryItOut 410

tryItOut 411

tryItOut 412

tryItOut 413
Compiling threw: SyntaxError: missing ; after for-loop initializer

tryItOut 414
Compiling threw: SyntaxError: missing ; before statement

tryItOut 415

tryItOut 416
Compiling threw: SyntaxError: invalid for/in left-hand side

tryItOut 417
Compiling threw: SyntaxError: invalid for/in left-hand side

tryItOut 418
Compiling threw: SyntaxError: missing : after property id

tryItOut 419
Compiling threw: SyntaxError: yield expression must be parenthesized

tryItOut 420
Compiling threw: SyntaxError: invalid for/in left-hand side

tryItOut 421
Compiling threw: SyntaxError: missing ( before let head

tryItOut 422
Compiling threw: TypeError: generator function anonymous returns a value

tryItOut 423

tryItOut 424
Compiling threw: SyntaxError: illegal XML character

tryItOut 425

tryItOut 426
It's an iterator!
Iterating succeeded, iterCount == 1

tryItOut 427
Compiling threw: SyntaxError: invalid for/in left-hand side

tryItOut 428
Compiling threw: SyntaxError: invalid assignment left-hand side

tryItOut 429
It's an iterator!
Iterating succeeded, iterCount == 1

tryItOut 430
Compiling threw: TypeError: generator function anonymous returns a value

tryItOut 431

tryItOut 432
It's an iterator!
Iterating threw!
Iterating threw: ReferenceError: reference to undefined XML name *::*

tryItOut 433
Compiling threw: SyntaxError: missing ; before statement

tryItOut 434
Compiling threw: SyntaxError: invalid assignment left-hand side

tryItOut 435
Compiling threw: SyntaxError: invalid increment operand

tryItOut 436
Compiling threw: SyntaxError: invalid for/in left-hand side

tryItOut 437

tryItOut 438

tryItOut 439
It's an iterator!
Iterating threw!
Iterating threw: ReferenceError: z2 is not defined

tryItOut 440
It's an iterator!
Iterating succeeded, iterCount == 1

tryItOut 441

tryItOut 442
Compiling threw: SyntaxError: invalid for/in left-hand side

tryItOut 443
Compiling threw: SyntaxError: syntax error

tryItOut 444

tryItOut 445

tryItOut 446
It's an iterator!
Iterating succeeded, iterCount == 1

tryItOut 447
Compiling threw: SyntaxError: missing variable name

tryItOut 448
Compiling threw: SyntaxError: missing ) in parenthetical

tryItOut 449

tryItOut 450
It's an iterator!
Iterating succeeded, iterCount == 1

tryItOut 451
Compiling threw: SyntaxError: missing variable name

tryItOut 452
It's an iterator!
Iterating succeeded, iterCount == 1

tryItOut 453

tryItOut 454
Compiling threw: SyntaxError: missing ; after for-loop initializer

tryItOut 455
Compiling threw: SyntaxError: syntax error

tryItOut 456

tryItOut 457

tryItOut 458
before 156960, after 156960, break 00fc1000

tryItOut 459
Running threw: TypeError: "" is not a constructor

tryItOut 460
Compiling threw: SyntaxError: missing { before function body

tryItOut 461
Compiling threw: SyntaxError: yield expression must be parenthesized

tryItOut 462
Compiling threw: SyntaxError: syntax error

tryItOut 463

tryItOut 464
Compiling threw: SyntaxError: missing ; before statement

tryItOut 465
Compiling threw: SyntaxError: invalid for/in left-hand side

tryItOut 466

tryItOut 467

tryItOut 468
It's an iterator!
Iterating succeeded, iterCount == 1

tryItOut 469

tryItOut 470

tryItOut 471
It's an iterator!
Iterating succeeded, iterCount == 0

tryItOut 472
Compiling threw: SyntaxError: invalid assignment left-hand side

tryItOut 473
Compiling threw: SyntaxError: label not found

tryItOut 474
Compiling threw: SyntaxError: invalid assignment left-hand side

tryItOut 475
It's an iterator!
Iterating threw!
Iterating threw: ReferenceError: z1 is not defined

tryItOut 476

tryItOut 477
Compiling threw: SyntaxError: missing variable name

tryItOut 478

tryItOut 479
Compiling threw: SyntaxError: label not found

tryItOut 480
Compiling threw: SyntaxError: invalid assignment left-hand side

tryItOut 481
Running threw: TypeError: this.zzz has no properties

tryItOut 482
Compiling threw: SyntaxError: missing { before function body

tryItOut 483
before 156960, after 156960, break 00fc1000

tryItOut 484

tryItOut 485
Compiling threw: SyntaxError: missing ) after condition

tryItOut 486

tryItOut 487
Compiling threw: SyntaxError: missing { before function body

tryItOut 488
Compiling threw: SyntaxError: invalid for/in left-hand side

tryItOut 489
Compiling threw: SyntaxError: invalid assignment left-hand side

tryItOut 490
Compiling threw: SyntaxError: label not found

tryItOut 491
Compiling threw: SyntaxError: missing ; before statement

tryItOut 492
Running threw: TypeError: __parent__ has no properties

tryItOut 493

tryItOut 494
Compiling threw: SyntaxError: invalid continue

tryItOut 495
Compiling threw: SyntaxError: missing = in destructuring declaration

tryItOut 496
Compiling threw: SyntaxError: invalid break

tryItOut 497

tryItOut 498
Compiling threw: SyntaxError: syntax error

tryItOut 499
Running threw: ReferenceError: prop is not defined

tryItOut 500
Compiling threw: SyntaxError: missing ( before formal parameters

tryItOut 501

tryItOut 502
Compiling threw: SyntaxError: missing ) in parenthetical

tryItOut 503

tryItOut 504
It's an iterator!
Iterating succeeded, iterCount == 1

tryItOut 505
It's an iterator!
Iterating succeeded, iterCount == 1

tryItOut 506

tryItOut 507
Compiling threw: SyntaxError: syntax error

tryItOut 508

tryItOut 509
Compiling threw: SyntaxError: invalid continue

tryItOut 510
Compiling threw: SyntaxError: missing ; before statement

tryItOut 511
Compiling threw: SyntaxError: missing variable name

tryItOut 512
Compiling threw: SyntaxError: missing ) after let head

tryItOut 513
It's an iterator!
Iterating threw!
Iterating threw: ReferenceError: reference to undefined XML name @foo

tryItOut 514
It's an iterator!
Iterating succeeded, iterCount == 0

tryItOut 515
Compiling threw: SyntaxError: missing ; before statement

tryItOut 516
Compiling threw: SyntaxError: yield expression must be parenthesized

tryItOut 517
Compiling threw: SyntaxError: invalid sharp variable definition

tryItOut 518
It's an iterator!
Iterating succeeded, iterCount == 1

tryItOut 519
Compiling threw: SyntaxError: invalid for/in left-hand side

tryItOut 520

tryItOut 521

tryItOut 522
Compiling threw: SyntaxError: missing ) in parenthetical

tryItOut 523

tryItOut 524
Running threw: SyntaxError: illegal XML character

tryItOut 525
Compiling threw: SyntaxError: missing ) in parenthetical

tryItOut 526
Compiling threw: SyntaxError: invalid for/in left-hand side

tryItOut 527

tryItOut 528

tryItOut 529
Compiling threw: SyntaxError: missing ] after element list

tryItOut 530

tryItOut 531

tryItOut 532
It's an iterator!
Iterating succeeded, iterCount == 1

tryItOut 533
Compiling threw: TypeError: generator function anonymous returns a value

tryItOut 534
Compiling threw: SyntaxError: invalid continue

tryItOut 535

tryItOut 536
It's an iterator!
Iterating succeeded, iterCount == 1

tryItOut 537
Compiling threw: SyntaxError: missing variable name

tryItOut 538
Compiling threw: SyntaxError: syntax error

tryItOut 539
Compiling threw: SyntaxError: invalid increment operand

tryItOut 540
Compiling threw: SyntaxError: missing { before function body

tryItOut 541
Running threw: TypeError: this.zzz has no properties

tryItOut 542
Running threw: TypeError: this.zzz has no properties

tryItOut 543
Compiling threw: SyntaxError: label not found

tryItOut 544

tryItOut 545
It's an iterator!
Iterating threw!
Iterating threw: ReferenceError: reference to undefined XML name *::*

tryItOut 546
Compiling threw: SyntaxError: missing ; after for-loop initializer

tryItOut 547
Compiling threw: SyntaxError: missing ) after condition

tryItOut 548
Compiling threw: SyntaxError: label not found

tryItOut 549
before 156960, after 156960, break 00fc1000

tryItOut 550
Compiling threw: SyntaxError: invalid for/in left-hand side

tryItOut 551

tryItOut 552
Compiling threw: TypeError: redeclaration of const __parent__

tryItOut 553

tryItOut 554
Compiling threw: SyntaxError: invalid assignment left-hand side

tryItOut 555

tryItOut 556
Compiling threw: SyntaxError: missing ) in parenthetical

tryItOut 557
Compiling threw: SyntaxError: missing ] after element list

tryItOut 558

tryItOut 559
Compiling threw: SyntaxError: missing ; after for-loop initializer

tryItOut 560
Compiling threw: SyntaxError: missing ; after for-loop initializer

tryItOut 561
Compiling threw: SyntaxError: invalid for/in left-hand side

tryItOut 562

tryItOut 563
Compiling threw: SyntaxError: invalid for/in left-hand side

tryItOut 564

tryItOut 565
Compiling threw: SyntaxError: missing ; before statement

tryItOut 566

tryItOut 567
Compiling threw: SyntaxError: missing variable name

tryItOut 568
Compiling threw: TypeError: generator function anonymous returns a value

tryItOut 569

tryItOut 570
Compiling threw: SyntaxError: missing variable name

tryItOut 571
Compiling threw: SyntaxError: label not found

tryItOut 572
Compiling threw: SyntaxError: missing variable name

tryItOut 573
Running threw: ReferenceError: prop is not defined

tryItOut 574
Compiling threw: SyntaxError: invalid for/in left-hand side

tryItOut 575
Compiling threw: SyntaxError: missing variable name

tryItOut 576
Compiling threw: SyntaxError: missing ) after condition

tryItOut 577
Compiling threw: SyntaxError: invalid for/in left-hand side

tryItOut 578
Compiling threw: SyntaxError: missing variable name

tryItOut 579
Compiling threw: SyntaxError: invalid for/in left-hand side

tryItOut 580
before 156960, after 156960, break 00fc1000

tryItOut 581

tryItOut 582

tryItOut 583

tryItOut 584
Compiling threw: SyntaxError: missing { before function body

tryItOut 585

tryItOut 586
Compiling threw: SyntaxError: missing : after property id

tryItOut 587

tryItOut 588
Running threw: TypeError: this.zzz has no properties

tryItOut 589
Compiling threw: SyntaxError: invalid decrement operand

tryItOut 590
Compiling threw: SyntaxError: invalid for/in left-hand side

tryItOut 591

tryItOut 592
Compiling threw: SyntaxError: missing ) in parenthetical

tryItOut 593

tryItOut 594
Compiling threw: SyntaxError: missing ) after argument list

tryItOut 595
Running threw: ReferenceError: z1 is not defined

tryItOut 596
Compiling threw: SyntaxError: missing variable name

tryItOut 597
It's an iterator!
Iterating succeeded, iterCount == 2

tryItOut 598
It's an iterator!
Iterating succeeded, iterCount == 1

tryItOut 599
Compiling threw: SyntaxError: missing variable name

tryItOut 600
Compiling threw: SyntaxError: missing { before function body

tryItOut 601
It's an iterator!
Iterating succeeded, iterCount == 1

tryItOut 602
Running threw: TypeError: redeclaration of const __parent__

tryItOut 603
It's an iterator!
Iterating succeeded, iterCount == 1

tryItOut 604
Compiling threw: SyntaxError: missing ; after for-loop initializer

tryItOut 605
Compiling threw: SyntaxError: missing ( before formal parameters

tryItOut 606
Running threw: ReferenceError: prop is not defined

tryItOut 607
Running threw: ReferenceError: prop is not defined

tryItOut 608

tryItOut 609
Compiling threw: SyntaxError: label not found

tryItOut 610
It's an iterator!
before 156960, after 156960, break 00fc1000
Iterating succeeded, iterCount == 1

tryItOut 611

tryItOut 612
Compiling threw: SyntaxError: missing ( before let head

tryItOut 613

tryItOut 614

tryItOut 615

tryItOut 616

tryItOut 617

tryItOut 618
Compiling threw: TypeError: generator function anonymous returns a value

tryItOut 619
Compiling threw: TypeError: generator function anonymous returns a value

tryItOut 620
Compiling threw: SyntaxError: missing ; before statement

tryItOut 621
Compiling threw: SyntaxError: label not found

tryItOut 622
Compiling threw: SyntaxError: missing ; before statement

tryItOut 623

tryItOut 624
Running threw: TypeError: this.zzz has no properties

tryItOut 625
Compiling threw: SyntaxError: syntax error

tryItOut 626

tryItOut 627
Compiling threw: SyntaxError: missing ; before statement

tryItOut 628
Compiling threw: SyntaxError: invalid for/in left-hand side

tryItOut 629
Compiling threw: SyntaxError: missing ) in parenthetical

tryItOut 630

tryItOut 631
It's an iterator!
Iterating threw!
Iterating threw: ReferenceError: prop is not defined

tryItOut 632
Compiling threw: SyntaxError: invalid sharp variable definition

tryItOut 633
Compiling threw: TypeError: generator function anonymous returns a value

tryItOut 634

tryItOut 635
Compiling threw: SyntaxError: invalid break

tryItOut 636
Compiling threw: SyntaxError: missing variable name

tryItOut 637
Compiling threw: SyntaxError: invalid break

tryItOut 638
Compiling threw: SyntaxError: missing ; before statement

tryItOut 639
Compiling threw: SyntaxError: missing ) after condition

tryItOut 640
It's an iterator!
Iterating succeeded, iterCount == 0

tryItOut 641
Running threw: ReferenceError: prop is not defined

tryItOut 642

tryItOut 643
Compiling threw: SyntaxError: invalid for/in left-hand side

tryItOut 644
It's an iterator!
Iterating succeeded, iterCount == 1

tryItOut 645
It's an iterator!
Iterating threw!
Iterating threw: ReferenceError: reference to undefined XML name *::*

tryItOut 646
Compiling threw: SyntaxError: invalid for/in left-hand side

tryItOut 647

tryItOut 648

tryItOut 649

tryItOut 650
Compiling threw: TypeError: redeclaration of var __iterator__

tryItOut 651
Compiling threw: SyntaxError: missing variable name

tryItOut 652
Compiling threw: SyntaxError: missing ; before statement

tryItOut 653
Compiling threw: SyntaxError: invalid for/in left-hand side

tryItOut 654
Compiling threw: SyntaxError: missing ; before statement

tryItOut 655

tryItOut 656

tryItOut 657
Compiling threw: SyntaxError: missing ; after for-loop initializer

tryItOut 658
Compiling threw: SyntaxError: missing ; before statement

tryItOut 659

tryItOut 660
Compiling threw: SyntaxError: label not found

tryItOut 661
Compiling threw: SyntaxError: label not found

tryItOut 662

tryItOut 663
Compiling threw: SyntaxError: invalid for/in left-hand side

tryItOut 664
It's an iterator!
Iterating threw!
Iterating threw: TypeError: <x><y/></x>['throw'] is not a function

tryItOut 665

tryItOut 666

tryItOut 667

tryItOut 668
Compiling threw: SyntaxError: syntax error

tryItOut 669
Compiling threw: SyntaxError: missing { before function body

tryItOut 670

tryItOut 671
Compiling threw: SyntaxError: label not found

tryItOut 672

tryItOut 673
Compiling threw: SyntaxError: missing { before function body

tryItOut 674
Running threw: TypeError: arguments[0] has no properties

tryItOut 675
Compiling threw: SyntaxError: missing ) in parenthetical

tryItOut 676
Compiling threw: SyntaxError: invalid for/in left-hand side

tryItOut 677

tryItOut 678
Compiling threw: SyntaxError: missing while after do-loop body

tryItOut 679
before 174400, after 174400, break 00fe3000

tryItOut 680
Compiling threw: SyntaxError: missing name after . operator

tryItOut 681

tryItOut 682
Compiling threw: SyntaxError: missing ) in parenthetical

tryItOut 683
Compiling threw: SyntaxError: missing variable name

tryItOut 684

tryItOut 685
Compiling threw: SyntaxError: invalid decrement operand

tryItOut 686
Compiling threw: SyntaxError: label not found

tryItOut 687

tryItOut 688
Compiling threw: SyntaxError: missing variable name

tryItOut 689
before 174400, after 174400, break 00fe3000

tryItOut 690

tryItOut 691
Compiling threw: SyntaxError: invalid for/in left-hand side

tryItOut 692
It's an iterator!
Iterating succeeded, iterCount == 1

tryItOut 693

tryItOut 694
Running threw: TypeError: XML filtering predicate operator called on incompatible RegExp

tryItOut 695

tryItOut 696

tryItOut 697
Compiling threw: SyntaxError: missing { before function body

tryItOut 698
Compiling threw: SyntaxError: missing variable name

tryItOut 699
Compiling threw: SyntaxError: invalid for/in left-hand side

tryItOut 700
Compiling threw: SyntaxError: missing ) after condition

tryItOut 701
Compiling threw: SyntaxError: missing variable name

tryItOut 702

tryItOut 703

tryItOut 704

tryItOut 705
Compiling threw: SyntaxError: invalid break

tryItOut 706
Compiling threw: SyntaxError: missing variable name

tryItOut 707
Compiling threw: SyntaxError: invalid break

tryItOut 708
It's an iterator!
Iterating threw!
Iterating threw: TypeError: prototype is not a constructor

tryItOut 709
Compiling threw: SyntaxError: missing { before function body

tryItOut 710

tryItOut 711

tryItOut 712
Running threw: ReferenceError: reference to undefined XML name @foo

tryItOut 713
Running threw: ReferenceError: yyy is not defined

tryItOut 714
Running threw: TypeError: XML descendants internal method called on incompatible RegExp

tryItOut 715
Compiling threw: SyntaxError: invalid for/in left-hand side

tryItOut 716
Compiling threw: SyntaxError: invalid for/in left-hand side

tryItOut 717

tryItOut 718
Compiling threw: SyntaxError: invalid default XML namespace

tryItOut 719

tryItOut 720

tryItOut 721
Compiling threw: SyntaxError: illegal XML character

tryItOut 722
Compiling threw: SyntaxError: syntax error

tryItOut 723
Compiling threw: SyntaxError: invalid for/in left-hand side

tryItOut 724
It's an iterator!
Iterating threw!
Iterating threw: ReferenceError: reference to undefined XML name @foo

tryItOut 725
Compiling threw: SyntaxError: missing { before function body

tryItOut 726

tryItOut 727
Compiling threw: SyntaxError: missing ; before statement

tryItOut 728
Compiling threw: SyntaxError: invalid assignment left-hand side

tryItOut 729
Compiling threw: SyntaxError: missing variable name

tryItOut 730
Compiling threw: SyntaxError: invalid assignment left-hand side

tryItOut 731
Compiling threw: SyntaxError: invalid continue

tryItOut 732
Compiling threw: SyntaxError: invalid for/in left-hand side

tryItOut 733
It's an iterator!
Iterating succeeded, iterCount == 1

tryItOut 734
It's an iterator!
Iterating succeeded, iterCount == 1

tryItOut 735

tryItOut 736
before 174400, after 174400, break 00fe3000

tryItOut 737
Compiling threw: SyntaxError: invalid continue

tryItOut 738
Compiling threw: SyntaxError: missing { before function body

tryItOut 739

tryItOut 740
Running threw: ReferenceError: reference to undefined XML name @foo

tryItOut 741
Compiling threw: SyntaxError: invalid for/in left-hand side

tryItOut 742
Compiling threw: SyntaxError: missing { before function body

tryItOut 743
before 174400, after 174400, break 00fe3000

tryItOut 744

tryItOut 745
It's an iterator!
Iterating succeeded, iterCount == 1

tryItOut 746

tryItOut 747
Compiling threw: SyntaxError: missing formal parameter

tryItOut 748
Compiling threw: SyntaxError: invalid for/in left-hand side

tryItOut 749
Compiling threw: SyntaxError: invalid break

tryItOut 750
Compiling threw: SyntaxError: missing ) after condition

tryItOut 751
Compiling threw: SyntaxError: invalid assignment left-hand side

tryItOut 752
Compiling threw: SyntaxError: invalid increment operand

tryItOut 753
It's an iterator!
Iterating succeeded, iterCount == 1

tryItOut 754
Compiling threw: TypeError: redeclaration of const __parent__

tryItOut 755

tryItOut 756
Compiling threw: SyntaxError: missing ; before statement

tryItOut 757
It's an iterator!
Iterating succeeded, iterCount == 1

tryItOut 758
Compiling threw: SyntaxError: missing { before function body

tryItOut 759

tryItOut 760
before 174400, after 174400, break 00fe3000

tryItOut 761

tryItOut 762
It's an iterator!
Iterating threw!
Iterating threw: TypeError: /x/g[''] has no properties

tryItOut 763
Compiling threw: SyntaxError: invalid for/in left-hand side

tryItOut 764
It's an iterator!
Iterating threw!
Iterating threw: TypeError: 1200 is not a function

tryItOut 765
Compiling threw: SyntaxError: missing ) after condition

tryItOut 766
Compiling threw: SyntaxError: missing variable name

tryItOut 767
It's an iterator!
Iterating succeeded, iterCount == 2

tryItOut 768
Compiling threw: SyntaxError: label not found

tryItOut 769
Compiling threw: SyntaxError: invalid property id

tryItOut 770
Compiling threw: SyntaxError: invalid for/in left-hand side

tryItOut 771
Compiling threw: SyntaxError: invalid increment operand

tryItOut 772
Compiling threw: SyntaxError: missing variable name

tryItOut 773
Compiling threw: TypeError: generator function anonymous returns a value

tryItOut 774

tryItOut 775
Compiling threw: TypeError: generator function anonymous returns a value

tryItOut 776

tryItOut 777
Compiling threw: SyntaxError: missing variable name

tryItOut 778
Compiling threw: TypeError: generator function anonymous returns a value

tryItOut 779
Compiling threw: SyntaxError: label not found

tryItOut 780

tryItOut 781
It's an iterator!
Iterating succeeded, iterCount == 0

tryItOut 782
Compiling threw: SyntaxError: missing { before function body

tryItOut 783

tryItOut 784
Compiling threw: SyntaxError: missing ) after condition

tryItOut 785
Running threw: TypeError: this.zzz has no properties

tryItOut 786
Compiling threw: SyntaxError: missing { before function body

tryItOut 787
Compiling threw: SyntaxError: invalid break

tryItOut 788

tryItOut 789

tryItOut 790
Compiling threw: SyntaxError: invalid for/in left-hand side

tryItOut 791
Compiling threw: SyntaxError: missing ) in parenthetical

tryItOut 792

tryItOut 793

tryItOut 794

tryItOut 795

tryItOut 796

tryItOut 797
Compiling threw: SyntaxError: missing ; after for-loop initializer

tryItOut 798

tryItOut 799
It's an iterator!
Iterating succeeded, iterCount == 1

tryItOut 800
Compiling threw: SyntaxError: missing ; before statement

tryItOut 801

tryItOut 802

tryItOut 803

tryItOut 804
Compiling threw: SyntaxError: invalid assignment left-hand side

tryItOut 805
Compiling threw: TypeError: generator function anonymous returns a value

tryItOut 806

tryItOut 807
Compiling threw: SyntaxError: label not found

tryItOut 808
Compiling threw: SyntaxError: label not found

tryItOut 809
Compiling threw: SyntaxError: missing { before function body

tryItOut 810
Compiling threw: SyntaxError: missing ; before statement

tryItOut 811
Running threw: TypeError: this.zzz has no properties

tryItOut 812
Running threw: TypeError: this.zzz has no properties

tryItOut 813

tryItOut 814
Running threw: TypeError: undefined has no properties

tryItOut 815
It's an iterator!
Iterating threw!
Iterating threw: ReferenceError: x is not defined

tryItOut 816
Compiling threw: SyntaxError: invalid for/in left-hand side

tryItOut 817

tryItOut 818
Compiling threw: SyntaxError: syntax error

tryItOut 819
Compiling threw: SyntaxError: missing ) after condition

tryItOut 820
Compiling threw: SyntaxError: missing ) after condition

tryItOut 821

tryItOut 822
It's an iterator!
Iterating threw!
Iterating threw: ReferenceError: prop is not defined

tryItOut 823
Compiling threw: SyntaxError: syntax error

tryItOut 824
Compiling threw: SyntaxError: invalid for/in left-hand side

tryItOut 825
Compiling threw: SyntaxError: invalid assignment left-hand side

tryItOut 826

tryItOut 827
Compiling threw: SyntaxError: invalid assignment left-hand side

tryItOut 828
Compiling threw: SyntaxError: invalid continue

tryItOut 829
It's an iterator!
Iterating threw!
Iterating threw: ReferenceError: z1 is not defined

tryItOut 830
Compiling threw: SyntaxError: invalid for/in left-hand side

tryItOut 831

tryItOut 832
Compiling threw: SyntaxError: label not found

tryItOut 833
Compiling threw: SyntaxError: invalid for/in left-hand side

tryItOut 834
Compiling threw: SyntaxError: missing ; after for-loop initializer

tryItOut 835

tryItOut 836
Compiling threw: SyntaxError: label not found

tryItOut 837
Compiling threw: SyntaxError: missing ; before statement

tryItOut 838
Compiling threw: SyntaxError: unterminated string literal

tryItOut 839
It's an iterator!
Iterating succeeded, iterCount == 1

tryItOut 840
Compiling threw: SyntaxError: missing ; after for-loop initializer

tryItOut 841
Compiling threw: SyntaxError: missing { before function body

tryItOut 842
Compiling threw: SyntaxError: invalid for/in left-hand side

tryItOut 843
Compiling threw: SyntaxError: syntax error

tryItOut 844
Compiling threw: SyntaxError: label not found

tryItOut 845
Compiling threw: TypeError: generator function anonymous returns a value

tryItOut 846
Compiling threw: SyntaxError: illegal XML character

tryItOut 847
It's an iterator!
Iterating succeeded, iterCount == 1

tryItOut 848
Compiling threw: SyntaxError: missing ) in parenthetical

tryItOut 849

tryItOut 850

tryItOut 851

tryItOut 852
It's an iterator!
Iterating succeeded, iterCount == 1

tryItOut 853
It's an iterator!
Iterating succeeded, iterCount == 1

tryItOut 854
Compiling threw: SyntaxError: missing ) in parenthetical

tryItOut 855
Compiling threw: SyntaxError: invalid decrement operand

tryItOut 856
Compiling threw: SyntaxError: missing ; after for-loop initializer

tryItOut 857
Compiling threw: SyntaxError: missing = in XML attribute

tryItOut 858

tryItOut 859

tryItOut 860

tryItOut 861
Compiling threw: SyntaxError: invalid for/in left-hand side

tryItOut 862

tryItOut 863
Compiling threw: SyntaxError: missing ; before statement

tryItOut 864
Compiling threw: SyntaxError: invalid assignment left-hand side

tryItOut 865
Compiling threw: SyntaxError: missing formal parameter

tryItOut 866

tryItOut 867

tryItOut 868

tryItOut 869
Compiling threw: SyntaxError: invalid increment operand

tryItOut 870
Compiling threw: SyntaxError: invalid for/in left-hand side

tryItOut 871

tryItOut 872

tryItOut 873
Compiling threw: SyntaxError: missing ; after for-loop initializer

tryItOut 874

tryItOut 875
It's an iterator!
before 209280, after 209280, break 01054000
before 209280, after 209280, break 01051000
before 209280, after 209280, break 01051000
Iterating threw!
Iterating threw: ReferenceError: reference to undefined XML name *::*

tryItOut 876
Compiling threw: SyntaxError: missing ) after condition

tryItOut 877
Compiling threw: SyntaxError: label not found

tryItOut 878
Compiling threw: SyntaxError: missing { before function body

tryItOut 879

tryItOut 880
Compiling threw: SyntaxError: missing ) in parenthetical

tryItOut 881

tryItOut 882
Compiling threw: SyntaxError: invalid destructuring assignment operator

tryItOut 883
Compiling threw: SyntaxError: missing ) after for-loop control

tryItOut 884

tryItOut 885
Compiling threw: SyntaxError: duplicate label

tryItOut 886
Compiling threw: SyntaxError: invalid decrement operand

tryItOut 887
Running threw: TypeError: this.zzz has no properties

tryItOut 888
Compiling threw: SyntaxError: invalid for/in left-hand side

tryItOut 889
Compiling threw: SyntaxError: missing ) in parenthetical

tryItOut 890
Compiling threw: SyntaxError: invalid assignment left-hand side

tryItOut 891

tryItOut 892
It's an iterator!
Iterating succeeded, iterCount == 0

tryItOut 893

tryItOut 894
before 209280, after 209280, break 01051000

tryItOut 895
Compiling threw: SyntaxError: missing variable name

tryItOut 896
Running threw: TypeError: XML filtering predicate operator called on incompatible Number

tryItOut 897
Compiling threw: SyntaxError: missing ; before statement

tryItOut 898
Compiling threw: SyntaxError: missing ; after for-loop initializer

tryItOut 899
Compiling threw: SyntaxError: invalid continue

tryItOut 900
before 209280, after 209280, break 01051000

tryItOut 901
Compiling threw: SyntaxError: missing ; after for-loop initializer

tryItOut 902

tryItOut 903
Compiling threw: TypeError: redeclaration of var prototype

tryItOut 904

tryItOut 905
Compiling threw: SyntaxError: missing ) after argument list

tryItOut 906
Running threw: ReferenceError: reference to undefined XML name *::*

tryItOut 907
Compiling threw: SyntaxError: missing variable name

tryItOut 908
Running threw: ReferenceError: z2 is not defined

tryItOut 909
It's an iterator!
Iterating succeeded, iterCount == 1

tryItOut 910
Compiling threw: SyntaxError: missing ; before statement

tryItOut 911

tryItOut 912

tryItOut 913
It's an iterator!
before 209280, after 209280, break 01051000
Iterating succeeded, iterCount == 0

tryItOut 914
It's an iterator!
Iterating threw!
Iterating threw: TypeError: __iterator__ has no properties

tryItOut 915
Compiling threw: SyntaxError: label not found

tryItOut 916
before 209280, after 209280, break 01051000

tryItOut 917
Compiling threw: SyntaxError: invalid for/in left-hand side

tryItOut 918
Compiling threw: SyntaxError: missing { before function body

tryItOut 919
Compiling threw: SyntaxError: invalid for/in left-hand side

tryItOut 920
Compiling threw: SyntaxError: missing ; after for-loop initializer

tryItOut 921
Compiling threw: SyntaxError: label not found

tryItOut 922
It's an iterator!
Iterating succeeded, iterCount == 1

tryItOut 923

tryItOut 924
Compiling threw: SyntaxError: missing { before function body

tryItOut 925

tryItOut 926
Compiling threw: SyntaxError: missing ; after for-loop initializer

tryItOut 927

tryItOut 928
Compiling threw: TypeError: anonymous generator function returns a value

tryItOut 929
Compiling threw: SyntaxError: missing { before function body

tryItOut 930
Running threw: ReferenceError: reference to undefined XML name *

tryItOut 931
Running threw: TypeError: this.zzz has no properties

tryItOut 932
Compiling threw: SyntaxError: label not found

tryItOut 933

tryItOut 934
Compiling threw: SyntaxError: missing ) after condition

tryItOut 935

tryItOut 936
before 209280, after 209280, break 01051000

tryItOut 937
Compiling threw: SyntaxError: invalid for/in left-hand side

tryItOut 938

tryItOut 939
Compiling threw: SyntaxError: missing { before function body

tryItOut 940
Compiling threw: SyntaxError: label not found

tryItOut 941

tryItOut 942
It's an iterator!
Iterating succeeded, iterCount == 1

tryItOut 943
Compiling threw: SyntaxError: invalid for/in left-hand side

tryItOut 944
Compiling threw: SyntaxError: missing { before function body

tryItOut 945
Compiling threw: SyntaxError: label not found

tryItOut 946
Compiling threw: SyntaxError: invalid for/in left-hand side

tryItOut 947
Running threw: TypeError: this.zzz has no properties

tryItOut 948
Compiling threw: SyntaxError: invalid for/in left-hand side

tryItOut 949
Compiling threw: SyntaxError: missing ) after condition

tryItOut 950
Compiling threw: SyntaxError: label not found

tryItOut 951
It's an iterator!
Iterating succeeded, iterCount == 1

tryItOut 952
Compiling threw: SyntaxError: invalid break

tryItOut 953
Compiling threw: SyntaxError: missing formal parameter

tryItOut 954

tryItOut 955

tryItOut 956

tryItOut 957
Compiling threw: SyntaxError: invalid for/in left-hand side

tryItOut 958
Compiling threw: SyntaxError: missing ; after for-loop initializer

tryItOut 959
Running threw: TypeError: __iterator__ has no properties

tryItOut 960

tryItOut 961
Compiling threw: SyntaxError: invalid for/in left-hand side

tryItOut 962
Compiling threw: SyntaxError: missing ) in parenthetical

tryItOut 963
It's an iterator!
Iterating succeeded, iterCount == 1

tryItOut 964
Compiling threw: SyntaxError: label not found

tryItOut 965
It's an iterator!
Iterating threw!
Iterating threw: ReferenceError: reference to undefined XML name *::*

tryItOut 966

tryItOut 967
Compiling threw: SyntaxError: missing ; before statement

tryItOut 968
Compiling threw: SyntaxError: invalid for/in left-hand side

tryItOut 969
Compiling threw: SyntaxError: invalid for/in left-hand side

tryItOut 970
Compiling threw: SyntaxError: missing { before function body

tryItOut 971
Compiling threw: SyntaxError: label not found

tryItOut 972
Compiling threw: SyntaxError: invalid break

tryItOut 973
It's an iterator!
Iterating threw!
Iterating threw: ReferenceError: reference to undefined XML name *::*

tryItOut 974
Compiling threw: SyntaxError: invalid for/in left-hand side

tryItOut 975
Running threw: TypeError: undefined has no properties

tryItOut 976
Compiling threw: SyntaxError: invalid for/in left-hand side

tryItOut 977
Compiling threw: SyntaxError: missing ; before statement

tryItOut 978
Compiling threw: SyntaxError: invalid for/in left-hand side

tryItOut 979
Compiling threw: SyntaxError: missing ; before statement

tryItOut 980
Compiling threw: SyntaxError: invalid for/in left-hand side

tryItOut 981
It's an iterator!
Iterating threw!
Iterating threw: ReferenceError: reference to undefined XML name *

tryItOut 982

tryItOut 983
Compiling threw: SyntaxError: invalid break

tryItOut 984
Compiling threw: SyntaxError: syntax error

tryItOut 985
It's an iterator!
Iterating succeeded, iterCount == 1

tryItOut 986
Compiling threw: SyntaxError: invalid assignment left-hand side

tryItOut 987

tryItOut 988

tryItOut 989

tryItOut 990

tryItOut 991
Compiling threw: SyntaxError: missing ) in parenthetical

tryItOut 992
Compiling threw: SyntaxError: invalid assignment left-hand side

tryItOut 993
Compiling threw: SyntaxError: missing variable name

tryItOut 994
Compiling threw: SyntaxError: invalid decrement operand

tryItOut 995
Compiling threw: SyntaxError: invalid for/in left-hand side

tryItOut 996
Compiling threw: SyntaxError: invalid for/in left-hand side

tryItOut 997

tryItOut 998
It's an iterator!
Iterating succeeded, iterCount == 1

tryItOut 999
It's an iterator!
Iterating succeeded, iterCount == 1

tryItOut 1000
Compiling threw: SyntaxError: invalid property id

ALL OK

Script done on Sat 04 May 2013 05:37:32 AM PDT
