Script started on Sat 04 May 2013 05:37:36 AM PDT
***
Targeting SpiderMonkey / Gecko.

tryItOut 1
Compiling threw: SyntaxError: invalid increment operand

tryItOut 2

tryItOut 3
Running threw: ReferenceError: reference to undefined XML name *::*

tryItOut 4
Running threw: ReferenceError: window is not defined

tryItOut 5
Compiling threw: SyntaxError: syntax error

tryItOut 6

tryItOut 7
Compiling threw: SyntaxError: syntax error

tryItOut 8
Compiling threw: SyntaxError: missing variable name

tryItOut 9
Running threw: ReferenceError: prototype is not defined

tryItOut 10
Compiling threw: SyntaxError: syntax error

tryItOut 11
Compiling threw: SyntaxError: syntax error

tryItOut 12
Running threw: [object Object]

tryItOut 13

tryItOut 14
Compiling threw: SyntaxError: syntax error

tryItOut 15

tryItOut 16
Compiling threw: SyntaxError: missing ] after element list

tryItOut 17

tryItOut 18

tryItOut 19
It's an iterator!
Iterating succeeded, iterCount == 1

tryItOut 20
Compiling threw: SyntaxError: missing ) in parenthetical

tryItOut 21
Compiling threw: SyntaxError: missing = in destructuring declaration

tryItOut 22
Compiling threw: SyntaxError: missing variable name

tryItOut 23
Running threw: ReferenceError: __iterator__ is not defined

tryItOut 24

tryItOut 25
Compiling threw: SyntaxError: syntax error

tryItOut 26
Compiling threw: SyntaxError: missing ) after condition

tryItOut 27
Compiling threw: TypeError: redeclaration of const __iterator__

tryItOut 28
Compiling threw: SyntaxError: missing variable name

tryItOut 29

tryItOut 30

tryItOut 31

tryItOut 32
Compiling threw: SyntaxError: syntax error

tryItOut 33
Compiling threw: SyntaxError: syntax error

tryItOut 34
Compiling threw: SyntaxError: syntax error

tryItOut 35
Compiling threw: SyntaxError: syntax error

tryItOut 36
Running threw: [object Object]

tryItOut 37
Running threw: ReferenceError: window is not defined

tryItOut 38
Running threw: ReferenceError: window is not defined

tryItOut 39

tryItOut 40
Compiling threw: SyntaxError: syntax error

tryItOut 41

tryItOut 42

tryItOut 43
Compiling threw: SyntaxError: invalid sharp variable definition

tryItOut 44

tryItOut 45
Compiling threw: SyntaxError: syntax error

tryItOut 46
Compiling threw: SyntaxError: illegal XML character

tryItOut 47
Compiling threw: SyntaxError: missing while after do-loop body

tryItOut 48
Compiling threw: SyntaxError: syntax error

tryItOut 49
Compiling threw: SyntaxError: missing while after do-loop body

tryItOut 50

tryItOut 51

tryItOut 52

tryItOut 53

tryItOut 54
Running threw: ReferenceError: reference to undefined XML name *::*

tryItOut 55

tryItOut 56

tryItOut 57
Running threw: 105

tryItOut 58
Compiling threw: SyntaxError: syntax error

tryItOut 59

tryItOut 60
Compiling threw: SyntaxError: syntax error

tryItOut 61
Compiling threw: SyntaxError: syntax error

tryItOut 62
Compiling threw: SyntaxError: missing variable name

tryItOut 63
Compiling threw: SyntaxError: missing ( before let head

tryItOut 64
Compiling threw: SyntaxError: missing ] after element list

tryItOut 65
Running threw: ReferenceError: reference to undefined XML name @foo

tryItOut 66

tryItOut 67
Compiling threw: SyntaxError: missing ; before statement

tryItOut 68
Running threw: TypeError: this.zzz has no properties

tryItOut 69
Running threw: ReferenceError: window is not defined

tryItOut 70
Compiling threw: SyntaxError: syntax error

tryItOut 71
Compiling threw: TypeError: redeclaration of variable __iterator__

tryItOut 72
Compiling threw: SyntaxError: syntax error

tryItOut 73
Compiling threw: SyntaxError: syntax error

tryItOut 74

tryItOut 75
Compiling threw: SyntaxError: missing ] after element list

tryItOut 76
Compiling threw: SyntaxError: invalid for/in left-hand side

tryItOut 77
Compiling threw: SyntaxError: missing ] after element list

tryItOut 78
Running threw: ReferenceError: __noSuchMethod__ is not defined

tryItOut 79
Compiling threw: SyntaxError: syntax error

tryItOut 80

tryItOut 81

tryItOut 82
Compiling threw: SyntaxError: missing variable name

tryItOut 83

tryItOut 84
Compiling threw: SyntaxError: invalid assignment left-hand side

tryItOut 85
Compiling threw: SyntaxError: syntax error

tryItOut 86
Compiling threw: SyntaxError: missing variable name

tryItOut 87
Compiling threw: SyntaxError: missing while after do-loop body

tryItOut 88

tryItOut 89

tryItOut 90

tryItOut 91
Compiling threw: SyntaxError: missing ; before statement

tryItOut 92
Compiling threw: SyntaxError: invalid property id

tryItOut 93
Compiling threw: SyntaxError: missing while after do-loop body

tryItOut 94
Running threw: ReferenceError: window is not defined

tryItOut 95
Running threw: ReferenceError: prototype is not defined

tryItOut 96
Compiling threw: SyntaxError: missing { before function body

tryItOut 97
Running threw: ReferenceError: __iterator__ is not defined

tryItOut 98

tryItOut 99
Compiling threw: SyntaxError: syntax error

tryItOut 100
Compiling threw: SyntaxError: missing { before function body

tryItOut 101

tryItOut 102
Compiling threw: SyntaxError: syntax error

tryItOut 103
Compiling threw: SyntaxError: syntax error

tryItOut 104
Compiling threw: SyntaxError: syntax error

tryItOut 105
Running threw: TypeError: <x/> is not a function

tryItOut 106

tryItOut 107
Running threw: function Object() {
    [native code]
}

tryItOut 108
Compiling threw: SyntaxError: missing ) in parenthetical

tryItOut 109
Running threw: [object StopIteration]

tryItOut 110
Compiling threw: SyntaxError: missing ) in parenthetical

tryItOut 111

tryItOut 112
Compiling threw: SyntaxError: invalid for/in left-hand side

tryItOut 113

tryItOut 114
Compiling threw: SyntaxError: invalid assignment left-hand side

tryItOut 115

tryItOut 116
Compiling threw: SyntaxError: syntax error

tryItOut 117
Compiling threw: SyntaxError: missing ; before statement

tryItOut 118
Running threw: 105

tryItOut 119
Compiling threw: SyntaxError: missing ; before statement

tryItOut 120
Compiling threw: SyntaxError: syntax error

tryItOut 121

tryItOut 122

tryItOut 123

tryItOut 124
Running threw: ReferenceError: window is not defined

tryItOut 125
Compiling threw: TypeError: redeclaration of variable prototype

tryItOut 126
Compiling threw: SyntaxError: syntax error

tryItOut 127
Compiling threw: SyntaxError: missing variable name

tryItOut 128
Compiling threw: SyntaxError: missing ; before statement

tryItOut 129

tryItOut 130
Compiling threw: SyntaxError: invalid increment operand

tryItOut 131
Compiling threw: SyntaxError: syntax error

tryItOut 132

tryItOut 133
Compiling threw: TypeError: redeclaration of variable __count__

tryItOut 134
Compiling threw: SyntaxError: missing variable name

tryItOut 135
Compiling threw: SyntaxError: missing ] after element list

tryItOut 136
Compiling threw: SyntaxError: syntax error

tryItOut 137

tryItOut 138
Compiling threw: SyntaxError: syntax error

tryItOut 139

tryItOut 140

tryItOut 141
Compiling threw: SyntaxError: syntax error

tryItOut 142

tryItOut 143
Running threw: ReferenceError: prototype is not defined

tryItOut 144
Compiling threw: SyntaxError: syntax error

tryItOut 145

tryItOut 146
Compiling threw: SyntaxError: missing ) in parenthetical

tryItOut 147
Running threw: ReferenceError: reference to undefined XML name *

tryItOut 148

tryItOut 149
Compiling threw: SyntaxError: syntax error

tryItOut 150
Compiling threw: SyntaxError: missing variable name

tryItOut 151
Running threw: ReferenceError: prop is not defined

tryItOut 152
Compiling threw: TypeError: redeclaration of variable __noSuchMethod__

tryItOut 153

tryItOut 154
Compiling threw: SyntaxError: missing ) after condition

tryItOut 155
Compiling threw: SyntaxError: syntax error

tryItOut 156
Compiling threw: SyntaxError: missing variable name

tryItOut 157

tryItOut 158
Compiling threw: SyntaxError: syntax error

tryItOut 159
Compiling threw: SyntaxError: syntax error

tryItOut 160

tryItOut 161
Compiling threw: SyntaxError: invalid sharp variable definition

tryItOut 162

tryItOut 163
Compiling threw: SyntaxError: syntax error

tryItOut 164
Compiling threw: SyntaxError: missing ; after for-loop initializer

tryItOut 165
Compiling threw: SyntaxError: invalid destructuring assignment operator

tryItOut 166
Compiling threw: SyntaxError: illegal XML character

tryItOut 167
It's an iterator!
Iterating threw!
Iterating threw: ReferenceError: z1 is not defined

tryItOut 168

tryItOut 169

tryItOut 170
Compiling threw: SyntaxError: missing { before function body

tryItOut 171
Compiling threw: SyntaxError: missing : in conditional expression

tryItOut 172
Compiling threw: SyntaxError: syntax error

tryItOut 173
Compiling threw: SyntaxError: syntax error

tryItOut 174
Running threw: TypeError: p.z = [1] is not a function

tryItOut 175
Compiling threw: SyntaxError: syntax error

tryItOut 176
Compiling threw: SyntaxError: syntax error

tryItOut 177

tryItOut 178
Compiling threw: SyntaxError: syntax error

tryItOut 179
Compiling threw: SyntaxError: missing { before function body

tryItOut 180
Compiling threw: SyntaxError: missing { before function body

tryItOut 181

tryItOut 182
Compiling threw: SyntaxError: missing { before function body

tryItOut 183

tryItOut 184

tryItOut 185

tryItOut 186

tryItOut 187
Running threw: TypeError: (new Function)[uneval(<y><z/></y>)] has no properties

tryItOut 188
Compiling threw: SyntaxError: missing ; before statement

tryItOut 189

tryItOut 190
Compiling threw: SyntaxError: syntax error

tryItOut 191
Compiling threw: SyntaxError: syntax error

tryItOut 192
Running threw: TypeError: this.zzz has no properties

tryItOut 193

tryItOut 194
Running threw: ReferenceError: reference to undefined XML name *::*

tryItOut 195
Compiling threw: SyntaxError: invalid assignment left-hand side

tryItOut 196

tryItOut 197
Compiling threw: SyntaxError: missing ] after element list

tryItOut 198

tryItOut 199
Compiling threw: SyntaxError: syntax error

tryItOut 200

tryItOut 201
Running threw: ReferenceError: window is not defined

tryItOut 202
Running threw: ReferenceError: prop is not defined

tryItOut 203

tryItOut 204

tryItOut 205

tryItOut 206

tryItOut 207
Compiling threw: SyntaxError: syntax error

tryItOut 208

tryItOut 209
Compiling threw: SyntaxError: missing { before function body

tryItOut 210
Compiling threw: SyntaxError: syntax error

tryItOut 211

tryItOut 212

tryItOut 213
Compiling threw: SyntaxError: invalid XML name

tryItOut 214
Running threw: ReferenceError: window is not defined

tryItOut 215
Running threw: [object StopIteration]

tryItOut 216

tryItOut 217

tryItOut 218
Compiling threw: SyntaxError: syntax error

tryItOut 219
Compiling threw: SyntaxError: missing : after property id

tryItOut 220
Compiling threw: SyntaxError: missing variable name

tryItOut 221

tryItOut 222

tryItOut 223

tryItOut 224

tryItOut 225

tryItOut 226
Compiling threw: SyntaxError: syntax error

tryItOut 227
Compiling threw: SyntaxError: syntax error

tryItOut 228
Compiling threw: SyntaxError: syntax error

tryItOut 229
Running threw: TypeError: this.zzz has no properties

tryItOut 230
Compiling threw: SyntaxError: syntax error

tryItOut 231
Compiling threw: SyntaxError: missing { before function body

tryItOut 232
Compiling threw: SyntaxError: missing while after do-loop body

tryItOut 233
Compiling threw: SyntaxError: missing ; before statement

tryItOut 234

tryItOut 235

tryItOut 236

tryItOut 237

tryItOut 238
Running threw: TypeError: this.zzz has no properties

tryItOut 239
Compiling threw: SyntaxError: missing { before function body

tryItOut 240

tryItOut 241
Compiling threw: SyntaxError: invalid for/in left-hand side

tryItOut 242
Compiling threw: SyntaxError: syntax error

tryItOut 243
Running threw: [object StopIteration]

tryItOut 244
Compiling threw: SyntaxError: invalid assignment left-hand side

tryItOut 245
Compiling threw: SyntaxError: missing variable name

tryItOut 246
Running threw: [object global]

tryItOut 247

tryItOut 248
Compiling threw: SyntaxError: missing ] after element list

tryItOut 249

tryItOut 250
Compiling threw: SyntaxError: illegal XML character

tryItOut 251
Running threw: ReferenceError: reference to undefined XML name @foo

tryItOut 252

tryItOut 253
Compiling threw: SyntaxError: invalid for/in left-hand side

tryItOut 254
Compiling threw: SyntaxError: syntax error

tryItOut 255
Compiling threw: SyntaxError: invalid sharp variable definition

tryItOut 256

tryItOut 257
Compiling threw: SyntaxError: syntax error

tryItOut 258
Running threw: [object StopIteration]

tryItOut 259

tryItOut 260
Running threw: null

tryItOut 261

tryItOut 262

tryItOut 263
Compiling threw: SyntaxError: missing { before function body

tryItOut 264
Compiling threw: SyntaxError: missing variable name

tryItOut 265
Compiling threw: SyntaxError: missing = in destructuring declaration

tryItOut 266
Compiling threw: SyntaxError: duplicate label

tryItOut 267

tryItOut 268
Compiling threw: SyntaxError: missing ] after element list

tryItOut 269
Compiling threw: SyntaxError: invalid decrement operand

tryItOut 270
Running threw: ReferenceError: reference to undefined XML name *

tryItOut 271

tryItOut 272
Compiling threw: SyntaxError: invalid decrement operand

tryItOut 273
Compiling threw: SyntaxError: missing ) after argument list

tryItOut 274
Compiling threw: SyntaxError: syntax error

tryItOut 275
Compiling threw: TypeError: redeclaration of const __proto__

tryItOut 276
Compiling threw: SyntaxError: invalid sharp variable definition

tryItOut 277

tryItOut 278
Compiling threw: TypeError: redeclaration of const __count__

tryItOut 279
Running threw: ReferenceError: window is not defined

tryItOut 280
Running threw: [object Object]

tryItOut 281
Compiling threw: SyntaxError: missing ] after element list

tryItOut 282
Compiling threw: SyntaxError: missing variable name

tryItOut 283
Compiling threw: SyntaxError: syntax error

tryItOut 284
Compiling threw: SyntaxError: invalid assignment left-hand side

tryItOut 285
Compiling threw: SyntaxError: syntax error

tryItOut 286
Running threw: ReferenceError: reference to undefined XML name *

tryItOut 287
Compiling threw: SyntaxError: syntax error

tryItOut 288

tryItOut 289
Running threw: [object global]

tryItOut 290
Compiling threw: SyntaxError: missing ; after for-loop initializer

tryItOut 291
Compiling threw: SyntaxError: syntax error

tryItOut 292
Compiling threw: SyntaxError: syntax error

tryItOut 293
Compiling threw: SyntaxError: syntax error

tryItOut 294

tryItOut 295
Running threw: [object global]

tryItOut 296

tryItOut 297

tryItOut 298
Compiling threw: SyntaxError: missing ( before let head

tryItOut 299
Compiling threw: SyntaxError: syntax error

tryItOut 300

tryItOut 301
It's an iterator!
Iterating threw!
Iterating threw: TypeError: this.zzz has no properties

tryItOut 302

tryItOut 303

tryItOut 304

tryItOut 305
Compiling threw: SyntaxError: missing = in destructuring declaration

tryItOut 306
uneval returned the string: ({a1:1})
Skipping re-eval test

tryItOut 307

tryItOut 308
Running threw: SyntaxError: missing ] after element list

tryItOut 309
Compiling threw: SyntaxError: syntax error

tryItOut 310

tryItOut 311
Compiling threw: SyntaxError: duplicate label

tryItOut 312
Compiling threw: TypeError: redeclaration of const __proto__

tryItOut 313

tryItOut 314

tryItOut 315
Compiling threw: SyntaxError: syntax error

tryItOut 316

tryItOut 317
Compiling threw: SyntaxError: syntax error

tryItOut 318
Running threw: TypeError: this.zzz has no properties

tryItOut 319
Compiling threw: SyntaxError: missing variable name

tryItOut 320
Compiling threw: SyntaxError: missing variable name

tryItOut 321

tryItOut 322
Compiling threw: SyntaxError: invalid assignment left-hand side

tryItOut 323

tryItOut 324

tryItOut 325
Compiling threw: SyntaxError: missing while after do-loop body

tryItOut 326
Compiling threw: SyntaxError: invalid assignment left-hand side

tryItOut 327
Compiling threw: SyntaxError: syntax error

tryItOut 328
Compiling threw: SyntaxError: syntax error

tryItOut 329
Compiling threw: SyntaxError: missing { before function body

tryItOut 330
Running threw: 

tryItOut 331
Compiling threw: SyntaxError: syntax error

tryItOut 332
Compiling threw: SyntaxError: missing name after . operator

tryItOut 333
Compiling threw: SyntaxError: syntax error

tryItOut 334
Running threw: TypeError: p.z = <x/>.@foo is not a function

tryItOut 335
Compiling threw: SyntaxError: missing while after do-loop body

tryItOut 336
Running threw: 

tryItOut 337
Compiling threw: SyntaxError: invalid destructuring assignment operator

tryItOut 338
Compiling threw: SyntaxError: invalid assignment left-hand side

tryItOut 339

tryItOut 340
Compiling threw: SyntaxError: missing variable name

tryItOut 341
Compiling threw: SyntaxError: syntax error

tryItOut 342
Compiling threw: SyntaxError: missing while after do-loop body

tryItOut 343

tryItOut 344
Compiling threw: SyntaxError: missing variable name

tryItOut 345
Running threw: ReferenceError: window is not defined

tryItOut 346
Running threw: [object StopIteration]

tryItOut 347
Compiling threw: SyntaxError: syntax error

tryItOut 348

tryItOut 349
Compiling threw: TypeError: redeclaration of variable constructor

tryItOut 350
Compiling threw: SyntaxError: invalid sharp variable definition

tryItOut 351
Compiling threw: SyntaxError: missing ) in parenthetical

tryItOut 352

tryItOut 353

tryItOut 354
Running threw: [object StopIteration]

tryItOut 355

tryItOut 356
Compiling threw: SyntaxError: syntax error

tryItOut 357

tryItOut 358

tryItOut 359

tryItOut 360
Running threw: ReferenceError: z1 is not defined

tryItOut 361
Compiling threw: SyntaxError: missing { before function body

tryItOut 362

tryItOut 363
Compiling threw: SyntaxError: syntax error

tryItOut 364
Running threw: TypeError: (let (prototype) arguments) is not a function

tryItOut 365
Compiling threw: SyntaxError: invalid assignment left-hand side

tryItOut 366

tryItOut 367

tryItOut 368
Compiling threw: SyntaxError: missing while after do-loop body

tryItOut 369
Running threw: TypeError: this.zzz has no properties

tryItOut 370
Running threw: TypeError: this.zzz has no properties

tryItOut 371

tryItOut 372
Compiling threw: SyntaxError: missing variable name

tryItOut 373
Compiling threw: SyntaxError: missing variable name

tryItOut 374
Compiling threw: TypeError: redeclaration of variable prop

tryItOut 375
Compiling threw: TypeError: redeclaration of const prototype

tryItOut 376

tryItOut 377
Compiling threw: SyntaxError: duplicate label

tryItOut 378
Running threw: ReferenceError: window is not defined

tryItOut 379
Compiling threw: SyntaxError: missing variable name

tryItOut 380

tryItOut 381
Compiling threw: SyntaxError: syntax error

tryItOut 382

tryItOut 383

tryItOut 384
Compiling threw: SyntaxError: syntax error

tryItOut 385

tryItOut 386
Compiling threw: SyntaxError: invalid assignment left-hand side

tryItOut 387
Compiling threw: SyntaxError: invalid for/in left-hand side

tryItOut 388

tryItOut 389

tryItOut 390
Compiling threw: SyntaxError: invalid assignment left-hand side

tryItOut 391
Running threw: ReferenceError: reference to undefined XML name @foo

tryItOut 392

tryItOut 393
Compiling threw: SyntaxError: missing { before function body

tryItOut 394

tryItOut 395
Compiling threw: SyntaxError: duplicate label

tryItOut 396
Compiling threw: SyntaxError: unterminated regular expression literal

tryItOut 397
Compiling threw: SyntaxError: missing variable name

tryItOut 398

tryItOut 399
Compiling threw: SyntaxError: invalid for/in left-hand side

tryItOut 400

tryItOut 401
Compiling threw: SyntaxError: missing ( after for

tryItOut 402

tryItOut 403
Compiling threw: SyntaxError: missing ] after element list

tryItOut 404
Compiling threw: SyntaxError: missing variable name

tryItOut 405
Compiling threw: TypeError: redeclaration of variable prop

tryItOut 406
Compiling threw: SyntaxError: invalid XML list syntax

tryItOut 407
Compiling threw: SyntaxError: invalid assignment left-hand side

tryItOut 408

tryItOut 409

tryItOut 410
Compiling threw: SyntaxError: missing ) in parenthetical

tryItOut 411

tryItOut 412
Compiling threw: SyntaxError: invalid XML list syntax

tryItOut 413
Compiling threw: SyntaxError: duplicate label

tryItOut 414

tryItOut 415
Compiling threw: SyntaxError: invalid sharp variable definition

tryItOut 416

tryItOut 417
Compiling threw: SyntaxError: syntax error

tryItOut 418

tryItOut 419
Compiling threw: SyntaxError: syntax error

tryItOut 420
Running threw: ReferenceError: reference to undefined XML name *::*

tryItOut 421
Compiling threw: SyntaxError: invalid increment operand

tryItOut 422
Compiling threw: SyntaxError: missing { before function body

tryItOut 423

tryItOut 424
Compiling threw: SyntaxError: invalid decrement operand

tryItOut 425
Running threw: TypeError: __parent__ has no properties

tryItOut 426
Compiling threw: SyntaxError: missing ; before statement

tryItOut 427
Compiling threw: SyntaxError: invalid assignment left-hand side

tryItOut 428

tryItOut 429

tryItOut 430

tryItOut 431
Running threw: ReferenceError: reference to undefined XML name *::*

tryItOut 432

tryItOut 433
Compiling threw: SyntaxError: syntax error

tryItOut 434
Compiling threw: SyntaxError: missing ; after for-loop initializer

tryItOut 435
Compiling threw: SyntaxError: missing ; after for-loop initializer

tryItOut 436

tryItOut 437

tryItOut 438
Compiling threw: SyntaxError: missing variable name

tryItOut 439
Running threw: ReferenceError: window is not defined

tryItOut 440
Running threw: ReferenceError: prototype is not defined

tryItOut 441
Compiling threw: TypeError: redeclaration of const __noSuchMethod__

tryItOut 442
Compiling threw: SyntaxError: missing ] after element list

tryItOut 443
Compiling threw: SyntaxError: syntax error

tryItOut 444
Compiling threw: SyntaxError: invalid assignment left-hand side

tryItOut 445

tryItOut 446
Compiling threw: SyntaxError: missing name after . operator

tryItOut 447

tryItOut 448

tryItOut 449
Compiling threw: SyntaxError: missing variable name

tryItOut 450
Compiling threw: SyntaxError: missing ( before let head

tryItOut 451
Compiling threw: SyntaxError: missing ] after element list

tryItOut 452
Compiling threw: SyntaxError: syntax error

tryItOut 453
Compiling threw: SyntaxError: missing : after property id

tryItOut 454
Compiling threw: SyntaxError: syntax error

tryItOut 455
Compiling threw: SyntaxError: missing ] after element list

tryItOut 456
Compiling threw: SyntaxError: illegal XML character

tryItOut 457
Compiling threw: SyntaxError: syntax error

tryItOut 458
Compiling threw: SyntaxError: syntax error

tryItOut 459

tryItOut 460

tryItOut 461
Compiling threw: SyntaxError: syntax error

tryItOut 462

tryItOut 463
Compiling threw: SyntaxError: missing ) after condition

tryItOut 464
Running threw: ReferenceError: prop is not defined

tryItOut 465

tryItOut 466
Running threw: ReferenceError: window is not defined

tryItOut 467
Compiling threw: SyntaxError: missing ) in parenthetical

tryItOut 468

tryItOut 469

tryItOut 470

tryItOut 471
Running threw: 

tryItOut 472
Running threw: ReferenceError: reference to undefined XML name @foo

tryItOut 473

tryItOut 474
Compiling threw: SyntaxError: missing while after do-loop body

tryItOut 475
Running threw: [object StopIteration]

tryItOut 476

tryItOut 477
Running threw: TypeError: this.zzz has no properties

tryItOut 478
Compiling threw: SyntaxError: syntax error

tryItOut 479

tryItOut 480
Running threw: ReferenceError: reference to undefined XML name *::*

tryItOut 481
Compiling threw: SyntaxError: invalid assignment left-hand side

tryItOut 482
Compiling threw: SyntaxError: missing ) in parenthetical

tryItOut 483
Running threw: ReferenceError: reference to undefined XML name *

tryItOut 484
Compiling threw: SyntaxError: syntax error

tryItOut 485

tryItOut 486
Compiling threw: SyntaxError: missing { before function body

tryItOut 487

tryItOut 488

tryItOut 489
Compiling threw: SyntaxError: invalid assignment left-hand side

tryItOut 490
Running threw: [object StopIteration]

tryItOut 491
Running threw: ReferenceError: z1 is not defined

tryItOut 492
Compiling threw: SyntaxError: missing ( before let head

tryItOut 493

tryItOut 494
Running threw: ReferenceError: window is not defined

tryItOut 495
Compiling threw: SyntaxError: missing = in destructuring declaration

tryItOut 496

tryItOut 497
Running threw: ReferenceError: reference to undefined XML name *::*

tryItOut 498

tryItOut 499
Compiling threw: SyntaxError: missing variable name

tryItOut 500

tryItOut 501
Compiling threw: SyntaxError: missing ] after element list

tryItOut 502

tryItOut 503
Compiling threw: SyntaxError: syntax error

tryItOut 504
Compiling threw: SyntaxError: syntax error

tryItOut 505
Compiling threw: SyntaxError: missing while after do-loop body

tryItOut 506

tryItOut 507
Compiling threw: SyntaxError: missing { before function body

tryItOut 508
Compiling threw: SyntaxError: invalid assignment left-hand side

tryItOut 509

tryItOut 510
Running threw: TypeError: this.zzz has no properties

tryItOut 511
Compiling threw: SyntaxError: invalid for/in left-hand side

tryItOut 512

tryItOut 513

tryItOut 514
Compiling threw: SyntaxError: syntax error

tryItOut 515
Compiling threw: SyntaxError: missing ; after for-loop initializer

tryItOut 516

tryItOut 517

tryItOut 518

tryItOut 519

tryItOut 520

tryItOut 521

tryItOut 522
Compiling threw: SyntaxError: missing while after do-loop body

tryItOut 523

tryItOut 524
Compiling threw: SyntaxError: invalid for/in left-hand side

tryItOut 525

tryItOut 526

tryItOut 527
Compiling threw: SyntaxError: missing exponent

tryItOut 528
Compiling threw: SyntaxError: syntax error

tryItOut 529
Compiling threw: SyntaxError: missing while after do-loop body

tryItOut 530

tryItOut 531
Compiling threw: SyntaxError: missing = in destructuring declaration

tryItOut 532
Compiling threw: SyntaxError: missing variable name

tryItOut 533

tryItOut 534
Compiling threw: SyntaxError: invalid default XML namespace

tryItOut 535
Compiling threw: SyntaxError: syntax error

tryItOut 536

tryItOut 537
Compiling threw: TypeError: redeclaration of variable __noSuchMethod__

tryItOut 538

tryItOut 539
Compiling threw: SyntaxError: missing ) in parenthetical

tryItOut 540

tryItOut 541
Compiling threw: SyntaxError: missing variable name

tryItOut 542
Compiling threw: SyntaxError: missing { before function body

tryItOut 543
Compiling threw: SyntaxError: invalid assignment left-hand side

tryItOut 544

tryItOut 545
Running threw: ReferenceError: window is not defined

tryItOut 546
Compiling threw: SyntaxError: syntax error

tryItOut 547
Running threw: TypeError: this.zzz has no properties

tryItOut 548
Compiling threw: SyntaxError: missing ) after condition

tryItOut 549
Compiling threw: SyntaxError: syntax error

tryItOut 550

tryItOut 551

tryItOut 552
Running threw: ReferenceError: z2 is not defined

tryItOut 553

tryItOut 554
Compiling threw: SyntaxError: missing ] after element list

tryItOut 555
Running threw: 

tryItOut 556

tryItOut 557
Running threw: TypeError: this.zzz has no properties

tryItOut 558

tryItOut 559
Compiling threw: SyntaxError: syntax error

tryItOut 560

tryItOut 561
Compiling threw: SyntaxError: syntax error

tryItOut 562

tryItOut 563
Compiling threw: SyntaxError: duplicate label

tryItOut 564
Compiling threw: SyntaxError: invalid for/in left-hand side

tryItOut 565

tryItOut 566
Compiling threw: SyntaxError: missing ; before statement

tryItOut 567

tryItOut 568

tryItOut 569
Compiling threw: SyntaxError: invalid increment operand

tryItOut 570
Running threw: TypeError: uneval(Array()) is not a function

tryItOut 571
Running threw: TypeError: this.zzz has no properties

tryItOut 572

tryItOut 573
Compiling threw: SyntaxError: missing ; after for-loop condition

tryItOut 574
Running threw: ReferenceError: z2 is not defined

tryItOut 575

tryItOut 576
Compiling threw: SyntaxError: invalid property id

tryItOut 577
Compiling threw: SyntaxError: invalid increment operand

tryItOut 578

tryItOut 579

tryItOut 580

tryItOut 581
Compiling threw: SyntaxError: syntax error

tryItOut 582
Compiling threw: SyntaxError: missing variable name

tryItOut 583
Compiling threw: SyntaxError: syntax error

tryItOut 584
Running threw: ReferenceError: reference to undefined XML name *

tryItOut 585
Compiling threw: SyntaxError: invalid for/in left-hand side

tryItOut 586

tryItOut 587

tryItOut 588

tryItOut 589

tryItOut 590
Compiling threw: SyntaxError: invalid assignment left-hand side

tryItOut 591
Compiling threw: SyntaxError: syntax error

tryItOut 592
Running threw: [object StopIteration]

tryItOut 593

tryItOut 594
Compiling threw: SyntaxError: syntax error

tryItOut 595
Compiling threw: SyntaxError: missing ; before statement

tryItOut 596
Compiling threw: SyntaxError: missing { before function body

tryItOut 597
Running threw: TypeError: #1={a:#1#} is not a function

tryItOut 598

tryItOut 599

tryItOut 600
Running threw: TypeError: this.zzz has no properties

tryItOut 601
Compiling threw: SyntaxError: missing variable name

tryItOut 602
Running threw: ReferenceError: window is not defined

tryItOut 603
Compiling threw: SyntaxError: missing ] after element list

tryItOut 604
Compiling threw: SyntaxError: missing } in XML expression

tryItOut 605
Compiling threw: SyntaxError: missing ] after element list

tryItOut 606

tryItOut 607

tryItOut 608

tryItOut 609

tryItOut 610

tryItOut 611
Running threw: TypeError: __count__ has no properties

tryItOut 612

tryItOut 613
Compiling threw: SyntaxError: invalid assignment left-hand side

tryItOut 614
Running threw: ReferenceError: z2 is not defined

tryItOut 615
Compiling threw: SyntaxError: missing ] after element list

tryItOut 616
Running threw: ReferenceError: reference to undefined XML name @foo

tryItOut 617

tryItOut 618
Compiling threw: SyntaxError: invalid sharp variable definition

tryItOut 619

tryItOut 620
Compiling threw: SyntaxError: invalid for/in left-hand side

tryItOut 621

tryItOut 622

tryItOut 623
Running threw: TypeError: ({}) is not a function

tryItOut 624

tryItOut 625

tryItOut 626

tryItOut 627
Compiling threw: SyntaxError: invalid XML tag syntax

tryItOut 628
Running threw: ReferenceError: window is not defined

tryItOut 629
Compiling threw: SyntaxError: missing ) after condition

tryItOut 630

tryItOut 631
Compiling threw: SyntaxError: missing while after do-loop body

tryItOut 632
Compiling threw: SyntaxError: invalid sharp variable definition

tryItOut 633
Compiling threw: SyntaxError: missing ; before statement

tryItOut 634
Compiling threw: SyntaxError: missing { before function body

tryItOut 635
Compiling threw: SyntaxError: missing ; before statement

tryItOut 636
Compiling threw: SyntaxError: missing ( before let head

tryItOut 637

tryItOut 638

tryItOut 639
Compiling threw: SyntaxError: missing ] after element list

tryItOut 640
Compiling threw: SyntaxError: syntax error

tryItOut 641

tryItOut 642

tryItOut 643
Running threw: ReferenceError: reference to undefined XML name @foo

tryItOut 644
Compiling threw: SyntaxError: missing variable name

tryItOut 645
Compiling threw: SyntaxError: syntax error

tryItOut 646

tryItOut 647
Running threw: 112

tryItOut 648

tryItOut 649
Running threw: ReferenceError: window is not defined

tryItOut 650

tryItOut 651

tryItOut 652

tryItOut 653

tryItOut 654

tryItOut 655
Compiling threw: SyntaxError: syntax error

tryItOut 656
Compiling threw: SyntaxError: syntax error

tryItOut 657
Compiling threw: SyntaxError: syntax error

tryItOut 658

tryItOut 659

tryItOut 660

tryItOut 661

tryItOut 662

tryItOut 663
Compiling threw: SyntaxError: syntax error

tryItOut 664
Compiling threw: SyntaxError: syntax error

tryItOut 665
Compiling threw: SyntaxError: invalid increment operand

tryItOut 666
Compiling threw: SyntaxError: missing ) after argument list

tryItOut 667
Compiling threw: SyntaxError: syntax error

tryItOut 668

tryItOut 669

tryItOut 670
Running threw: TypeError: p.z = this is not a function

tryItOut 671

tryItOut 672

tryItOut 673
Compiling threw: SyntaxError: invalid XML name

tryItOut 674

tryItOut 675

tryItOut 676
Compiling threw: SyntaxError: missing ) after condition

tryItOut 677

tryItOut 678
Compiling threw: SyntaxError: syntax error

tryItOut 679

tryItOut 680
Compiling threw: SyntaxError: missing ] after element list

tryItOut 681

tryItOut 682

tryItOut 683

tryItOut 684

tryItOut 685
Compiling threw: SyntaxError: missing = in destructuring declaration

tryItOut 686

tryItOut 687
Compiling threw: SyntaxError: invalid property id

tryItOut 688
Compiling threw: SyntaxError: missing { before function body

tryItOut 689
Compiling threw: TypeError: redeclaration of const prop

tryItOut 690
Compiling threw: SyntaxError: invalid sharp variable definition

tryItOut 691
Compiling threw: SyntaxError: missing { before function body

tryItOut 692
Compiling threw: SyntaxError: syntax error

tryItOut 693
Running threw: ReferenceError: window is not defined

tryItOut 694
Running threw: [object StopIteration]

tryItOut 695

tryItOut 696
Compiling threw: SyntaxError: missing ; after for-loop initializer

tryItOut 697
Compiling threw: SyntaxError: syntax error

tryItOut 698

tryItOut 699
Compiling threw: SyntaxError: illegal XML character

tryItOut 700
Running threw: [object StopIteration]

tryItOut 701
Running threw: TypeError: this.zzz has no properties

tryItOut 702

tryItOut 703
Running threw: TypeError: can't set property prototype in XMLList

tryItOut 704
Running threw: 

tryItOut 705

tryItOut 706
Compiling threw: SyntaxError: invalid assignment left-hand side

tryItOut 707
Compiling threw: SyntaxError: syntax error

tryItOut 708
Running threw: ReferenceError: __parent__ is not defined

tryItOut 709
Running threw: TypeError: this.zzz has no properties

tryItOut 710
Compiling threw: SyntaxError: invalid assignment left-hand side

tryItOut 711
Compiling threw: SyntaxError: missing while after do-loop body

tryItOut 712

tryItOut 713

tryItOut 714
Compiling threw: SyntaxError: syntax error

tryItOut 715

tryItOut 716
Compiling threw: SyntaxError: syntax error

tryItOut 717

tryItOut 718
Running threw: ReferenceError: window is not defined

tryItOut 719
Compiling threw: SyntaxError: missing while after do-loop body

tryItOut 720

tryItOut 721

tryItOut 722
Running threw: ReferenceError: reference to undefined XML name @foo

tryItOut 723
Compiling threw: SyntaxError: invalid decrement operand

tryItOut 724
Compiling threw: SyntaxError: syntax error

tryItOut 725

tryItOut 726

tryItOut 727
Running threw: TypeError: this.zzz has no properties

tryItOut 728
Compiling threw: SyntaxError: invalid XML list syntax

tryItOut 729

tryItOut 730
Compiling threw: SyntaxError: missing ] after element list

tryItOut 731
Running threw: TypeError: arguments[0] has no properties

tryItOut 732

tryItOut 733
Compiling threw: SyntaxError: missing ; before statement

tryItOut 734
Compiling threw: SyntaxError: syntax error

tryItOut 735

tryItOut 736
Compiling threw: SyntaxError: illegal XML character

tryItOut 737
Compiling threw: SyntaxError: invalid property id

tryItOut 738
Compiling threw: SyntaxError: invalid assignment left-hand side

tryItOut 739
Compiling threw: SyntaxError: syntax error

tryItOut 740

tryItOut 741
Running threw: ReferenceError: reference to undefined XML name @foo

tryItOut 742
Running threw: ReferenceError: window is not defined

tryItOut 743
Running threw: 

tryItOut 744
Compiling threw: SyntaxError: syntax error

tryItOut 745
Running threw: TypeError: this.zzz has no properties

tryItOut 746
Running threw: ReferenceError: reference to undefined XML name @foo

tryItOut 747
Compiling threw: SyntaxError: syntax error

tryItOut 748
Compiling threw: SyntaxError: syntax error

tryItOut 749
Compiling threw: SyntaxError: syntax error

tryItOut 750

tryItOut 751
Compiling threw: SyntaxError: syntax error

tryItOut 752
Compiling threw: SyntaxError: syntax error

tryItOut 753
Running threw: ReferenceError: __parent__ is not defined

tryItOut 754
Compiling threw: SyntaxError: missing ) after with-statement object

tryItOut 755
Running threw: ReferenceError: reference to undefined XML name @foo

tryItOut 756
Compiling threw: TypeError: redeclaration of variable prototype

tryItOut 757
Compiling threw: SyntaxError: syntax error

tryItOut 758

tryItOut 759
Compiling threw: SyntaxError: syntax error

tryItOut 760
Compiling threw: SyntaxError: missing variable name

tryItOut 761

tryItOut 762
Compiling threw: SyntaxError: syntax error

tryItOut 763
Running threw: TypeError: this.zzz has no properties

tryItOut 764
Compiling threw: SyntaxError: missing variable name

tryItOut 765
Compiling threw: SyntaxError: missing ] after element list

tryItOut 766

tryItOut 767
Compiling threw: SyntaxError: invalid for/in left-hand side

tryItOut 768
Compiling threw: SyntaxError: missing ) after argument list

tryItOut 769

tryItOut 770
Running threw: ReferenceError: window is not defined

tryItOut 771
Compiling threw: SyntaxError: invalid sharp variable definition

tryItOut 772
Compiling threw: SyntaxError: syntax error

tryItOut 773

tryItOut 774

tryItOut 775
Compiling threw: SyntaxError: invalid assignment left-hand side

tryItOut 776

tryItOut 777
Compiling threw: SyntaxError: syntax error

tryItOut 778

tryItOut 779

tryItOut 780
Compiling threw: SyntaxError: missing variable name

tryItOut 781

tryItOut 782
Compiling threw: SyntaxError: invalid for/in left-hand side

tryItOut 783
Compiling threw: SyntaxError: invalid property id

tryItOut 784
It's an iterator!
Iterating threw!
Iterating threw: Error: invalid sharp variable definition #0=

tryItOut 785
Compiling threw: SyntaxError: missing ; after for-loop initializer

tryItOut 786
Running threw: TypeError: this.zzz has no properties

tryItOut 787

tryItOut 788

tryItOut 789
Compiling threw: SyntaxError: illegal XML character

tryItOut 790
Running threw: ReferenceError: z2 is not defined

tryItOut 791
Compiling threw: SyntaxError: missing while after do-loop body

tryItOut 792
Compiling threw: SyntaxError: missing : after property id

tryItOut 793
Compiling threw: TypeError: redeclaration of variable __parent__

tryItOut 794
Compiling threw: SyntaxError: syntax error

tryItOut 795
Compiling threw: SyntaxError: syntax error

tryItOut 796
Compiling threw: SyntaxError: illegal XML character

tryItOut 797
It's an iterator!
Iterating threw!
Iterating threw: ReferenceError: reference to undefined XML name *

tryItOut 798

tryItOut 799
Compiling threw: SyntaxError: syntax error

tryItOut 800

tryItOut 801
Compiling threw: SyntaxError: missing ] after element list

tryItOut 802
Compiling threw: SyntaxError: syntax error

tryItOut 803

tryItOut 804

tryItOut 805
Compiling threw: SyntaxError: missing while after do-loop body

tryItOut 806
Compiling threw: SyntaxError: syntax error

tryItOut 807
Compiling threw: SyntaxError: invalid sharp variable definition

tryItOut 808

tryItOut 809

tryItOut 810
Compiling threw: SyntaxError: missing variable name

tryItOut 811

tryItOut 812
Running threw: TypeError: arguments[0] has no properties

tryItOut 813
Running threw: TypeError: this.zzz has no properties

tryItOut 814
Running threw: [object StopIteration]

tryItOut 815
Compiling threw: SyntaxError: syntax error

tryItOut 816

tryItOut 817

tryItOut 818
Compiling threw: SyntaxError: invalid assignment left-hand side

tryItOut 819
Running threw: TypeError: XML filtering predicate operator called on incompatible Number

tryItOut 820

tryItOut 821
Compiling threw: SyntaxError: missing variable name

tryItOut 822

tryItOut 823

tryItOut 824
Compiling threw: SyntaxError: syntax error

tryItOut 825
Compiling threw: SyntaxError: missing : after property id

tryItOut 826
Running threw: ReferenceError: reference to undefined XML name @foo

tryItOut 827
Compiling threw: SyntaxError: missing = in destructuring declaration

tryItOut 828
Compiling threw: SyntaxError: syntax error

tryItOut 829
Running threw: ReferenceError: reference to undefined property "window"

tryItOut 830

tryItOut 831

tryItOut 832

tryItOut 833
Compiling threw: SyntaxError: missing variable name

tryItOut 834
Compiling threw: SyntaxError: syntax error

tryItOut 835
Compiling threw: SyntaxError: syntax error

tryItOut 836
Compiling threw: SyntaxError: missing variable name

tryItOut 837
Compiling threw: SyntaxError: missing ; after for-loop initializer

tryItOut 838
Compiling threw: SyntaxError: invalid assignment left-hand side

tryItOut 839
It's an iterator!
Iterating succeeded, iterCount == 1

tryItOut 840
Compiling threw: TypeError: redeclaration of const __parent__

tryItOut 841

tryItOut 842
Compiling threw: SyntaxError: syntax error

tryItOut 843

tryItOut 844
Compiling threw: SyntaxError: invalid assignment left-hand side

tryItOut 845
Compiling threw: SyntaxError: syntax error

tryItOut 846
Compiling threw: SyntaxError: missing ( before let head

tryItOut 847
Compiling threw: SyntaxError: invalid assignment left-hand side

tryItOut 848
Compiling threw: SyntaxError: missing ; before statement

tryItOut 849
Running threw: ReferenceError: window is not defined

tryItOut 850
Running threw: ReferenceError: reference to undefined XML name *::*

tryItOut 851
Running threw: ReferenceError: reference to undefined XML name *::*

tryItOut 852
Compiling threw: SyntaxError: syntax error

tryItOut 853

tryItOut 854

tryItOut 855
Compiling threw: SyntaxError: syntax error

tryItOut 856

tryItOut 857

tryItOut 858
Compiling threw: SyntaxError: invalid for/in left-hand side

tryItOut 859

tryItOut 860
Compiling threw: SyntaxError: syntax error

tryItOut 861
Compiling threw: SyntaxError: syntax error

tryItOut 862
Compiling threw: SyntaxError: syntax error

tryItOut 863
Compiling threw: SyntaxError: duplicate label

tryItOut 864
It's an iterator!
Iterating succeeded, iterCount == 1

tryItOut 865
Compiling threw: SyntaxError: syntax error

tryItOut 866
Compiling threw: SyntaxError: missing ; after for-loop initializer

tryItOut 867
Compiling threw: SyntaxError: syntax error

tryItOut 868
Compiling threw: SyntaxError: invalid for/in left-hand side

tryItOut 869
Compiling threw: SyntaxError: syntax error

tryItOut 870

tryItOut 871
Compiling threw: SyntaxError: syntax error

tryItOut 872
Compiling threw: SyntaxError: syntax error

tryItOut 873
Compiling threw: SyntaxError: invalid assignment left-hand side

tryItOut 874
Running threw: 3.141592653589793

tryItOut 875
Running threw: ReferenceError: reference to undefined XML name @foo

tryItOut 876

tryItOut 877
Running threw: ReferenceError: reference to undefined XML name @foo

tryItOut 878

tryItOut 879
Compiling threw: SyntaxError: missing ; after for-loop initializer

tryItOut 880

tryItOut 881
Running threw: ReferenceError: __parent__ is not defined

tryItOut 882
Compiling threw: SyntaxError: syntax error

tryItOut 883
Compiling threw: SyntaxError: missing ) after condition

tryItOut 884
Running threw: 3.141592653589793

tryItOut 885

tryItOut 886
Compiling threw: SyntaxError: missing ] after element list

tryItOut 887
Compiling threw: SyntaxError: missing ; after for-loop initializer

tryItOut 888

tryItOut 889
Running threw: ReferenceError: Exception is not defined

tryItOut 890

tryItOut 891
Compiling threw: SyntaxError: invalid sharp variable definition

tryItOut 892
Running threw: [object StopIteration]

tryItOut 893

tryItOut 894
Compiling threw: SyntaxError: missing variable name

tryItOut 895
Compiling threw: SyntaxError: missing variable name

tryItOut 896
Running threw: TypeError: this[function (id) {return id;}] has no properties

tryItOut 897
Compiling threw: SyntaxError: missing while after do-loop body

tryItOut 898

tryItOut 899
Running threw: TypeError: this.zzz has no properties

tryItOut 900

tryItOut 901
Compiling threw: SyntaxError: missing variable name

tryItOut 902
Running threw: null

tryItOut 903
Running threw: ReferenceError: z1 is not defined

tryItOut 904

tryItOut 905
Compiling threw: SyntaxError: missing exponent

tryItOut 906
Running threw: TypeError: this.zzz has no properties

tryItOut 907
Compiling threw: SyntaxError: missing ] after element list

tryItOut 908

tryItOut 909

tryItOut 910
Compiling threw: SyntaxError: missing variable name

tryItOut 911
Compiling threw: SyntaxError: invalid for/in left-hand side

tryItOut 912
Compiling threw: SyntaxError: syntax error

tryItOut 913
It's an iterator!
Iterating threw!
Iterating threw: TypeError: this.zzz has no properties

tryItOut 914

tryItOut 915

tryItOut 916
Running threw: TypeError: prototype has no properties

tryItOut 917

tryItOut 918

tryItOut 919
Running threw: TypeError: can't set property constructor in XMLList

tryItOut 920
Compiling threw: SyntaxError: missing variable name

tryItOut 921

tryItOut 922

tryItOut 923

tryItOut 924

tryItOut 925
Running threw: TypeError: this.zzz has no properties

tryItOut 926
Compiling threw: SyntaxError: missing ] after element list

tryItOut 927
Compiling threw: SyntaxError: syntax error

tryItOut 928
Running threw: TypeError: this is not a function

tryItOut 929
Compiling threw: SyntaxError: syntax error

tryItOut 930

tryItOut 931
Compiling threw: SyntaxError: syntax error

tryItOut 932
Running threw: TypeError: can't set property __iterator__ in XMLList

tryItOut 933
Compiling threw: SyntaxError: syntax error

tryItOut 934

tryItOut 935
Running threw: ReferenceError: reference to undefined XML name *

tryItOut 936
Compiling threw: SyntaxError: missing ] after element list

tryItOut 937
Compiling threw: SyntaxError: missing ) in parenthetical

tryItOut 938
Compiling threw: SyntaxError: missing { before function body

tryItOut 939
Compiling threw: SyntaxError: missing ; before statement

tryItOut 940
Compiling threw: SyntaxError: missing { before function body

tryItOut 941

tryItOut 942

tryItOut 943

tryItOut 944

tryItOut 945

tryItOut 946

tryItOut 947
Compiling threw: SyntaxError: invalid assignment left-hand side

tryItOut 948

tryItOut 949

tryItOut 950

tryItOut 951

tryItOut 952
Compiling threw: SyntaxError: invalid for/in left-hand side

tryItOut 953

tryItOut 954
Compiling threw: SyntaxError: invalid sharp variable definition

tryItOut 955
Compiling threw: SyntaxError: missing formal parameter

tryItOut 956
It's an iterator!
Iterating succeeded, iterCount == 1

tryItOut 957
Compiling threw: TypeError: redeclaration of variable __parent__

tryItOut 958
Compiling threw: SyntaxError: missing ; after for-loop initializer

tryItOut 959
Running threw: [object StopIteration]

tryItOut 960
Compiling threw: SyntaxError: missing ; after for-loop initializer

tryItOut 961
Compiling threw: SyntaxError: syntax error

tryItOut 962
Running threw: ReferenceError: z1 is not defined

tryItOut 963

tryItOut 964
Compiling threw: SyntaxError: syntax error

tryItOut 965
Running threw: Error: invalid sharp variable use #1#

tryItOut 966
Compiling threw: SyntaxError: syntax error

tryItOut 967
Compiling threw: SyntaxError: syntax error

tryItOut 968
Compiling threw: SyntaxError: invalid assignment left-hand side

tryItOut 969
Compiling threw: SyntaxError: missing variable name

tryItOut 970
Compiling threw: SyntaxError: missing ] after element list

tryItOut 971

tryItOut 972

tryItOut 973

tryItOut 974
Compiling threw: SyntaxError: syntax error

tryItOut 975

tryItOut 976

tryItOut 977
Compiling threw: SyntaxError: syntax error

tryItOut 978

tryItOut 979
Compiling threw: SyntaxError: syntax error

tryItOut 980
Compiling threw: SyntaxError: syntax error

tryItOut 981

tryItOut 982
Compiling threw: SyntaxError: syntax error

tryItOut 983
Compiling threw: SyntaxError: invalid assignment left-hand side

tryItOut 984

tryItOut 985
Compiling threw: SyntaxError: missing { before function body

tryItOut 986
Compiling threw: SyntaxError: syntax error

tryItOut 987

tryItOut 988
Running threw: ReferenceError: window is not defined

tryItOut 989
Running threw: [object StopIteration]

tryItOut 990
Compiling threw: SyntaxError: invalid assignment left-hand side

tryItOut 991

tryItOut 992
Compiling threw: SyntaxError: syntax error

tryItOut 993

tryItOut 994
Compiling threw: SyntaxError: invalid sharp variable definition

tryItOut 995
Compiling threw: SyntaxError: invalid assignment left-hand side

tryItOut 996
Compiling threw: SyntaxError: syntax error

tryItOut 997

tryItOut 998

tryItOut 999
Running threw: ReferenceError: __parent__ is not defined

tryItOut 1000

ALL OK

Script done on Sat 04 May 2013 05:37:37 AM PDT
