Script started on Sat 04 May 2013 05:39:54 AM PDT
***
Targeting SpiderMonkey / Gecko.

tryItOut 1
Compiling threw: SyntaxError: missing ) in parenthetical

tryItOut 2

tryItOut 3

tryItOut 4

tryItOut 5
Compiling threw: SyntaxError: label not found

tryItOut 6
Running threw: [object Object]

tryItOut 7

tryItOut 8

tryItOut 9
Compiling threw: SyntaxError: missing ; before statement

tryItOut 10

tryItOut 11

tryItOut 12
Compiling threw: SyntaxError: missing ) in parenthetical

tryItOut 13

tryItOut 14
Running threw: ReferenceError: reference to undefined XML name *::*

tryItOut 15
Compiling threw: SyntaxError: missing ; before statement

tryItOut 16

tryItOut 17
Compiling threw: SyntaxError: invalid default XML namespace

tryItOut 18
Compiling threw: SyntaxError: missing ; before statement

tryItOut 19

tryItOut 20
Running threw: null

tryItOut 21
Running threw: ReferenceError: reference to undefined XML name *::*

tryItOut 22
Running threw: ReferenceError: __noSuchMethod__ is not defined

tryItOut 23

tryItOut 24
Running threw: null

tryItOut 25
Compiling threw: SyntaxError: missing { before function body

tryItOut 26
Compiling threw: SyntaxError: missing : after property id

tryItOut 27
Compiling threw: TypeError: generator function anonymous returns a value

tryItOut 28
Compiling threw: SyntaxError: missing variable name

tryItOut 29
Compiling threw: SyntaxError: missing ; before statement

tryItOut 30
Compiling threw: SyntaxError: syntax error

tryItOut 31
Compiling threw: SyntaxError: missing ) in parenthetical

tryItOut 32
Compiling threw: SyntaxError: missing : after property id

tryItOut 33
Compiling threw: SyntaxError: syntax error

tryItOut 34

tryItOut 35
Compiling threw: SyntaxError: missing variable name

tryItOut 36
Compiling threw: SyntaxError: syntax error

tryItOut 37
Compiling threw: SyntaxError: label not found

tryItOut 38

tryItOut 39

tryItOut 40

tryItOut 41
Running threw: ReferenceError: reference to undefined XML name *

tryItOut 42

tryItOut 43
Running threw: ReferenceError: reference to undefined XML name *

tryItOut 44
Compiling threw: SyntaxError: missing variable name

tryItOut 45
Running threw: ReferenceError: reference to undefined XML name @foo

tryItOut 46

tryItOut 47

tryItOut 48
Compiling threw: SyntaxError: syntax error

tryItOut 49

tryItOut 50
Compiling threw: SyntaxError: finally without try

tryItOut 51
It's an iterator!
Iterating succeeded, iterCount == 0

tryItOut 52
Compiling threw: TypeError: generator function anonymous returns a value

tryItOut 53

tryItOut 54
Compiling threw: SyntaxError: syntax error

tryItOut 55
Compiling threw: SyntaxError: missing variable name

tryItOut 56
Compiling threw: SyntaxError: syntax error

tryItOut 57

tryItOut 58
Compiling threw: SyntaxError: invalid continue

tryItOut 59

tryItOut 60

tryItOut 61
Compiling threw: SyntaxError: missing ; before statement

tryItOut 62
Compiling threw: SyntaxError: missing } after let block

tryItOut 63

tryItOut 64
Compiling threw: SyntaxError: missing ; after for-loop initializer

tryItOut 65

tryItOut 66
Compiling threw: SyntaxError: missing variable name

tryItOut 67
Running threw: 105

tryItOut 68
Compiling threw: SyntaxError: invalid continue

tryItOut 69
Compiling threw: SyntaxError: syntax error

tryItOut 70
It's an iterator!
Iterating succeeded, iterCount == 1

tryItOut 71
It's an iterator!
Iterating succeeded, iterCount == 1

tryItOut 72
It's an iterator!
Iterating succeeded, iterCount == 1

tryItOut 73

tryItOut 74
Compiling threw: SyntaxError: label not found

tryItOut 75
Compiling threw: SyntaxError: yield expression must be parenthesized

tryItOut 76
Compiling threw: TypeError: redeclaration of const prop

tryItOut 77
Compiling threw: SyntaxError: missing { before function body

tryItOut 78
Compiling threw: SyntaxError: missing ) in parenthetical

tryItOut 79
Compiling threw: SyntaxError: missing ) in parenthetical

tryItOut 80
Compiling threw: SyntaxError: invalid break

tryItOut 81
It's an iterator!
Iterating succeeded, iterCount == 1

tryItOut 82

tryItOut 83
It's an iterator!
Iterating succeeded, iterCount == 1

tryItOut 84
Running threw: ReferenceError: reference to undefined XML name *::*

tryItOut 85

tryItOut 86
Compiling threw: SyntaxError: missing variable name

tryItOut 87

tryItOut 88
Compiling threw: SyntaxError: missing variable name

tryItOut 89
Compiling threw: SyntaxError: missing catch or finally after try

tryItOut 90
Compiling threw: SyntaxError: missing { before function body

tryItOut 91
It's an iterator!
Iterating threw!
Iterating threw: ReferenceError: reference to undefined XML name @foo

tryItOut 92

tryItOut 93

tryItOut 94

tryItOut 95
Compiling threw: SyntaxError: missing : after property id

tryItOut 96

tryItOut 97
Compiling threw: SyntaxError: syntax error

tryItOut 98
Compiling threw: SyntaxError: syntax error

tryItOut 99
Compiling threw: SyntaxError: invalid for/in left-hand side

tryItOut 100
Compiling threw: SyntaxError: invalid continue

tryItOut 101
Running threw: ReferenceError: prototype is not defined

tryItOut 102
Compiling threw: SyntaxError: missing formal parameter

tryItOut 103
Running threw: null

tryItOut 104

tryItOut 105
Compiling threw: TypeError: generator function anonymous returns a value

tryItOut 106

tryItOut 107

tryItOut 108

tryItOut 109
Running threw: ReferenceError: reference to undefined XML name *

tryItOut 110
Compiling threw: SyntaxError: invalid for/in left-hand side

tryItOut 111
Compiling threw: SyntaxError: invalid continue

tryItOut 112
Compiling threw: SyntaxError: label not found

tryItOut 113
Compiling threw: SyntaxError: invalid for/in left-hand side

tryItOut 114
It's an iterator!
Iterating threw!
Iterating threw: Error: invalid sharp variable use #1#

tryItOut 115
Compiling threw: SyntaxError: missing : after case label

tryItOut 116

tryItOut 117

tryItOut 118
Running threw: undefined

tryItOut 119

tryItOut 120
Compiling threw: SyntaxError: missing ; before statement

tryItOut 121
Running threw: ReferenceError: z1 is not defined

tryItOut 122

tryItOut 123
Compiling threw: SyntaxError: label not found

tryItOut 124
Compiling threw: TypeError: redeclaration of const __noSuchMethod__

tryItOut 125
Compiling threw: SyntaxError: duplicate label

tryItOut 126

tryItOut 127
Compiling threw: SyntaxError: syntax error

tryItOut 128

tryItOut 129
Compiling threw: SyntaxError: illegal XML character

tryItOut 130
Compiling threw: SyntaxError: missing } after let block

tryItOut 131

tryItOut 132

tryItOut 133

tryItOut 134

tryItOut 135

tryItOut 136
Compiling threw: SyntaxError: syntax error

tryItOut 137
Compiling threw: SyntaxError: missing { before function body

tryItOut 138
Compiling threw: SyntaxError: missing variable name

tryItOut 139
Compiling threw: SyntaxError: missing variable name

tryItOut 140
Compiling threw: SyntaxError: syntax error

tryItOut 141

tryItOut 142
Compiling threw: SyntaxError: missing ) in parenthetical

tryItOut 143

tryItOut 144

tryItOut 145
Running threw: ReferenceError: __noSuchMethod__ is not defined

tryItOut 146

tryItOut 147

tryItOut 148
Compiling threw: SyntaxError: invalid for/in left-hand side

tryItOut 149
Compiling threw: SyntaxError: missing = in destructuring declaration

tryItOut 150

tryItOut 151
Compiling threw: SyntaxError: invalid continue

tryItOut 152
Compiling threw: SyntaxError: invalid break

tryItOut 153

tryItOut 154
Compiling threw: SyntaxError: invalid break

tryItOut 155
Compiling threw: SyntaxError: missing { before function body

tryItOut 156
Compiling threw: SyntaxError: invalid continue

tryItOut 157

tryItOut 158
Compiling threw: SyntaxError: missing ; before statement

tryItOut 159
Compiling threw: SyntaxError: finally without try

tryItOut 160
Running threw: ReferenceError: reference to undefined XML name @foo

tryItOut 161
Compiling threw: SyntaxError: missing variable name

tryItOut 162
Compiling threw: SyntaxError: label not found

tryItOut 163

tryItOut 164
Compiling threw: SyntaxError: missing ) in parenthetical

tryItOut 165
Compiling threw: SyntaxError: missing { before function body

tryItOut 166

tryItOut 167
Compiling threw: TypeError: generator function anonymous returns a value

tryItOut 168
Compiling threw: SyntaxError: missing ) in parenthetical

tryItOut 169
It's an iterator!
Iterating succeeded, iterCount == 1

tryItOut 170

tryItOut 171
Compiling threw: SyntaxError: label not found

tryItOut 172

tryItOut 173

tryItOut 174
Compiling threw: SyntaxError: illegal XML character

tryItOut 175
Compiling threw: SyntaxError: invalid continue

tryItOut 176
It's an iterator!
Iterating threw!
Iterating threw: ReferenceError: reference to undefined XML name *::*

tryItOut 177
Compiling threw: SyntaxError: syntax error

tryItOut 178
Compiling threw: SyntaxError: missing variable name

tryItOut 179
Compiling threw: SyntaxError: missing ; before statement

tryItOut 180

tryItOut 181
Running threw: ReferenceError: v is not defined

tryItOut 182
Compiling threw: SyntaxError: illegal XML character

tryItOut 183

tryItOut 184
It's an iterator!
Iterating threw!
Iterating threw: ReferenceError: reference to undefined XML name *

tryItOut 185
Compiling threw: SyntaxError: syntax error

tryItOut 186
Compiling threw: TypeError: redeclaration of const __iterator__

tryItOut 187
Compiling threw: SyntaxError: invalid assignment left-hand side

tryItOut 188
Running threw: ReferenceError: __noSuchMethod__ is not defined

tryItOut 189
Compiling threw: SyntaxError: illegal XML character

tryItOut 190
Compiling threw: SyntaxError: duplicate label

tryItOut 191
Compiling threw: SyntaxError: syntax error

tryItOut 192
Compiling threw: SyntaxError: missing variable name

tryItOut 193
Compiling threw: SyntaxError: invalid break

tryItOut 194

tryItOut 195

tryItOut 196

tryItOut 197

tryItOut 198
Compiling threw: SyntaxError: label not found

tryItOut 199

tryItOut 200

tryItOut 201
Compiling threw: TypeError: generator function anonymous returns a value

tryItOut 202
Compiling threw: SyntaxError: label not found

tryItOut 203

tryItOut 204
Compiling threw: SyntaxError: syntax error

tryItOut 205
Running threw: 

tryItOut 206
Compiling threw: SyntaxError: illegal XML character

tryItOut 207
Compiling threw: SyntaxError: invalid for/in left-hand side

tryItOut 208
Compiling threw: TypeError: generator function anonymous returns a value

tryItOut 209
Compiling threw: SyntaxError: syntax error

tryItOut 210

tryItOut 211
Compiling threw: SyntaxError: label not found

tryItOut 212
Compiling threw: SyntaxError: missing { before function body

tryItOut 213
Compiling threw: SyntaxError: syntax error

tryItOut 214
It's an iterator!
Iterating succeeded, iterCount == 3

tryItOut 215
Compiling threw: SyntaxError: missing variable name

tryItOut 216
Compiling threw: SyntaxError: missing ) in parenthetical

tryItOut 217
Compiling threw: SyntaxError: syntax error

tryItOut 218
Compiling threw: SyntaxError: missing : after property id

tryItOut 219
Compiling threw: SyntaxError: invalid continue

tryItOut 220
It's an iterator!
Iterating succeeded, iterCount == 1

tryItOut 221

tryItOut 222
Compiling threw: SyntaxError: missing variable name

tryItOut 223
Compiling threw: SyntaxError: label not found

tryItOut 224

tryItOut 225
Compiling threw: SyntaxError: invalid continue

tryItOut 226
Compiling threw: SyntaxError: syntax error

tryItOut 227
Compiling threw: SyntaxError: invalid for/in left-hand side

tryItOut 228
Compiling threw: SyntaxError: missing ; before statement

tryItOut 229
Running threw: ReferenceError: reference to undefined XML name @foo

tryItOut 230
Compiling threw: TypeError: redeclaration of variable __count__

tryItOut 231
Compiling threw: SyntaxError: missing ) after argument list

tryItOut 232
Compiling threw: SyntaxError: invalid for/in left-hand side

tryItOut 233

tryItOut 234
Compiling threw: SyntaxError: missing ) in parenthetical

tryItOut 235

tryItOut 236
Compiling threw: SyntaxError: syntax error

tryItOut 237
Compiling threw: SyntaxError: duplicate label

tryItOut 238

tryItOut 239
Compiling threw: SyntaxError: syntax error

tryItOut 240
Running threw: ReferenceError: prop is not defined

tryItOut 241

tryItOut 242
Compiling threw: SyntaxError: invalid continue

tryItOut 243

tryItOut 244

tryItOut 245
Compiling threw: SyntaxError: syntax error

tryItOut 246
Compiling threw: SyntaxError: illegal XML character

tryItOut 247
Compiling threw: SyntaxError: duplicate label

tryItOut 248
It's an iterator!
Iterating succeeded, iterCount == 1

tryItOut 249
Compiling threw: SyntaxError: syntax error

tryItOut 250
Compiling threw: SyntaxError: invalid for/in left-hand side

tryItOut 251
Compiling threw: SyntaxError: missing variable name

tryItOut 252
Compiling threw: SyntaxError: label not found

tryItOut 253
Running threw: null

tryItOut 254

tryItOut 255
Compiling threw: SyntaxError: missing { before function body

tryItOut 256
Running threw: [object Object]

tryItOut 257
It's an iterator!
Iterating threw!
Iterating threw: ReferenceError: z1 is not defined

tryItOut 258
Running threw: ReferenceError: reference to undefined XML name @foo

tryItOut 259
Compiling threw: SyntaxError: missing ) in parenthetical

tryItOut 260

tryItOut 261
Running threw: ReferenceError: reference to undefined XML name @foo

tryItOut 262
Compiling threw: SyntaxError: invalid assignment left-hand side

tryItOut 263
Compiling threw: SyntaxError: syntax error

tryItOut 264
Compiling threw: SyntaxError: missing ; after for-loop initializer

tryItOut 265
Compiling threw: TypeError: generator function anonymous returns a value

tryItOut 266
Compiling threw: SyntaxError: invalid continue

tryItOut 267
Compiling threw: SyntaxError: invalid destructuring assignment operator

tryItOut 268
Compiling threw: TypeError: generator function anonymous returns a value

tryItOut 269
Compiling threw: SyntaxError: syntax error

tryItOut 270
Compiling threw: TypeError: redeclaration of variable prop

tryItOut 271

tryItOut 272

tryItOut 273
Running threw: ReferenceError: reference to undefined XML name *::*

tryItOut 274

tryItOut 275
It's an iterator!
Iterating threw!
Iterating threw: ReferenceError: reference to undefined XML name @foo

tryItOut 276
Compiling threw: SyntaxError: invalid break

tryItOut 277

tryItOut 278
Compiling threw: SyntaxError: invalid for/in left-hand side

tryItOut 279
Compiling threw: SyntaxError: invalid for/in left-hand side

tryItOut 280

tryItOut 281
Compiling threw: SyntaxError: missing ; before statement

tryItOut 282
It's an iterator!
Iterating succeeded, iterCount == 2

tryItOut 283
Compiling threw: SyntaxError: invalid for/in left-hand side

tryItOut 284

tryItOut 285
Compiling threw: SyntaxError: missing ) in parenthetical

tryItOut 286
Running threw: false

tryItOut 287
Compiling threw: SyntaxError: invalid assignment left-hand side

tryItOut 288
Compiling threw: SyntaxError: missing ) in parenthetical

tryItOut 289

tryItOut 290

tryItOut 291

tryItOut 292
Compiling threw: SyntaxError: invalid for/in left-hand side

tryItOut 293
Compiling threw: TypeError: redeclaration of variable __proto__

tryItOut 294
Compiling threw: TypeError: generator function anonymous returns a value

tryItOut 295
Compiling threw: SyntaxError: unterminated comment

tryItOut 296

tryItOut 297

tryItOut 298
Running threw: [object Object]

tryItOut 299
Running threw: ReferenceError: z1 is not defined

tryItOut 300
Running threw: ReferenceError: __iterator__ is not defined

tryItOut 301

tryItOut 302
Compiling threw: SyntaxError: missing ) in parenthetical

tryItOut 303
Running threw: ReferenceError: prop is not defined

tryItOut 304
Running threw: ReferenceError: reference to undefined XML name *::*

tryItOut 305
It's an iterator!
Iterating succeeded, iterCount == 0

tryItOut 306
Running threw: ReferenceError: reference to undefined XML name @foo

tryItOut 307
Compiling threw: SyntaxError: yield expression must be parenthesized

tryItOut 308
Compiling threw: SyntaxError: syntax error

tryItOut 309
Compiling threw: SyntaxError: syntax error

tryItOut 310
Compiling threw: SyntaxError: missing variable name

tryItOut 311
Compiling threw: SyntaxError: missing { before function body

tryItOut 312

tryItOut 313
Compiling threw: SyntaxError: missing ; before statement

tryItOut 314
Compiling threw: SyntaxError: syntax error

tryItOut 315
Compiling threw: SyntaxError: syntax error

tryItOut 316
Compiling threw: SyntaxError: missing ) in parenthetical

tryItOut 317

tryItOut 318

tryItOut 319
Compiling threw: SyntaxError: syntax error

tryItOut 320
Compiling threw: SyntaxError: invalid assignment left-hand side

tryItOut 321
Running threw: ReferenceError: reference to undefined XML name *

tryItOut 322
Compiling threw: TypeError: redeclaration of variable __noSuchMethod__

tryItOut 323
Running threw: ReferenceError: __noSuchMethod__ is not defined

tryItOut 324

tryItOut 325

tryItOut 326
Compiling threw: SyntaxError: label not found

tryItOut 327
Compiling threw: SyntaxError: label not found

tryItOut 328
Compiling threw: SyntaxError: invalid continue

tryItOut 329
Compiling threw: SyntaxError: missing variable name

tryItOut 330

tryItOut 331
Compiling threw: SyntaxError: invalid continue

tryItOut 332

tryItOut 333
Running threw: [object Object]

tryItOut 334
It's an iterator!
Iterating succeeded, iterCount == 1

tryItOut 335

tryItOut 336
Compiling threw: SyntaxError: missing ) after condition

tryItOut 337

tryItOut 338

tryItOut 339
Compiling threw: TypeError: generator function anonymous returns a value

tryItOut 340

tryItOut 341
Running threw: null

tryItOut 342
Running threw: ReferenceError: reference to undefined XML name *::*

tryItOut 343
Compiling threw: SyntaxError: invalid for/in left-hand side

tryItOut 344
Running threw: function Object() {
    [native code]
}

tryItOut 345
Compiling threw: SyntaxError: syntax error

tryItOut 346
Compiling threw: SyntaxError: syntax error

tryItOut 347
Running threw: <y>
  <z/>
</y>

tryItOut 348
Compiling threw: SyntaxError: missing ; before statement

tryItOut 349
Compiling threw: SyntaxError: duplicate label

tryItOut 350
Compiling threw: SyntaxError: missing variable name

tryItOut 351
Compiling threw: SyntaxError: invalid break

tryItOut 352
It's an iterator!
Iterating succeeded, iterCount == 1

tryItOut 353
It's an iterator!
Iterating threw!
Iterating threw: ReferenceError: __noSuchMethod__ is not defined

tryItOut 354

tryItOut 355

tryItOut 356

tryItOut 357
Compiling threw: SyntaxError: missing ) in parenthetical

tryItOut 358
Compiling threw: SyntaxError: syntax error

tryItOut 359
Compiling threw: SyntaxError: missing ) in parenthetical

tryItOut 360
Running threw: 106

tryItOut 361

tryItOut 362
Compiling threw: SyntaxError: label not found

tryItOut 363
Compiling threw: SyntaxError: missing { before function body

tryItOut 364
Compiling threw: SyntaxError: invalid break

tryItOut 365
Compiling threw: SyntaxError: invalid for/in left-hand side

tryItOut 366
Compiling threw: SyntaxError: missing ) after condition

tryItOut 367
Compiling threw: SyntaxError: missing variable name

tryItOut 368

tryItOut 369
Running threw: ReferenceError: reference to undefined XML name *

tryItOut 370
Compiling threw: SyntaxError: syntax error

tryItOut 371
Compiling threw: SyntaxError: syntax error

tryItOut 372
Compiling threw: TypeError: generator function anonymous returns a value

tryItOut 373

tryItOut 374

tryItOut 375
Compiling threw: SyntaxError: syntax error

tryItOut 376
It's an iterator!
Iterating succeeded, iterCount == 1

tryItOut 377

tryItOut 378
Running threw: ReferenceError: reference to undefined XML name *::*

tryItOut 379
Compiling threw: SyntaxError: missing ) in parenthetical

tryItOut 380

tryItOut 381
Compiling threw: SyntaxError: illegal XML character

tryItOut 382
Compiling threw: SyntaxError: missing ) in parenthetical

tryItOut 383
Compiling threw: SyntaxError: missing ; before statement

tryItOut 384
Running threw: null

tryItOut 385

tryItOut 386
Compiling threw: SyntaxError: missing ; before statement

tryItOut 387

tryItOut 388
Compiling threw: SyntaxError: invalid default XML namespace

tryItOut 389

tryItOut 390
Running threw: ReferenceError: prototype is not defined

tryItOut 391

tryItOut 392

tryItOut 393
Compiling threw: SyntaxError: missing ) in parenthetical

tryItOut 394

tryItOut 395

tryItOut 396
Compiling threw: SyntaxError: syntax error

tryItOut 397

tryItOut 398
Compiling threw: SyntaxError: invalid break

tryItOut 399

tryItOut 400
Compiling threw: TypeError: redeclaration of variable constructor

tryItOut 401
Running threw: TypeError: undefined has no properties

tryItOut 402
It's an iterator!
Iterating succeeded, iterCount == 1

tryItOut 403
Compiling threw: SyntaxError: syntax error

tryItOut 404
Compiling threw: SyntaxError: invalid XML name

tryItOut 405

tryItOut 406
Compiling threw: SyntaxError: missing ; after for-loop initializer

tryItOut 407
Compiling threw: SyntaxError: syntax error

tryItOut 408
Compiling threw: SyntaxError: missing ) in parenthetical

tryItOut 409

tryItOut 410
Compiling threw: SyntaxError: syntax error

tryItOut 411
Running threw: 

tryItOut 412
Compiling threw: SyntaxError: missing variable name

tryItOut 413
Compiling threw: SyntaxError: missing variable name

tryItOut 414

tryItOut 415
Compiling threw: SyntaxError: invalid for/in left-hand side

tryItOut 416
Compiling threw: TypeError: generator function anonymous returns a value

tryItOut 417

tryItOut 418
Compiling threw: SyntaxError: missing ) in parenthetical

tryItOut 419

tryItOut 420
Compiling threw: TypeError: generator function anonymous returns a value

tryItOut 421
Compiling threw: SyntaxError: invalid assignment left-hand side

tryItOut 422
Compiling threw: SyntaxError: invalid XML name

tryItOut 423

tryItOut 424

tryItOut 425

tryItOut 426

tryItOut 427
Compiling threw: SyntaxError: missing { before function body

tryItOut 428

tryItOut 429

tryItOut 430
Compiling threw: SyntaxError: label not found

tryItOut 431

tryItOut 432

tryItOut 433

tryItOut 434
Compiling threw: SyntaxError: missing variable name

tryItOut 435
It's an iterator!
Iterating succeeded, iterCount == 1

tryItOut 436
Running threw: null

tryItOut 437

tryItOut 438

tryItOut 439
Compiling threw: SyntaxError: label not found

tryItOut 440
Compiling threw: SyntaxError: syntax error

tryItOut 441

tryItOut 442
Compiling threw: SyntaxError: label not found

tryItOut 443
Compiling threw: SyntaxError: missing variable name

tryItOut 444

tryItOut 445
Compiling threw: SyntaxError: syntax error

tryItOut 446
Compiling threw: TypeError: generator function anonymous returns a value

tryItOut 447

tryItOut 448
Compiling threw: TypeError: generator function anonymous returns a value

tryItOut 449
Compiling threw: SyntaxError: syntax error

tryItOut 450

tryItOut 451
Compiling threw: SyntaxError: missing { before function body

tryItOut 452

tryItOut 453

tryItOut 454

tryItOut 455
Compiling threw: SyntaxError: invalid break

tryItOut 456

tryItOut 457
It's an iterator!
Iterating succeeded, iterCount == 1

tryItOut 458
It's an iterator!
Iterating succeeded, iterCount == 1

tryItOut 459
Compiling threw: SyntaxError: invalid break

tryItOut 460
Running threw: 

tryItOut 461

tryItOut 462
Compiling threw: TypeError: redeclaration of variable __noSuchMethod__

tryItOut 463
Compiling threw: SyntaxError: invalid for/in left-hand side

tryItOut 464

tryItOut 465
It's an iterator!
Iterating succeeded, iterCount == 1

tryItOut 466

tryItOut 467
Compiling threw: SyntaxError: invalid break

tryItOut 468

tryItOut 469

tryItOut 470
Compiling threw: SyntaxError: syntax error

tryItOut 471
Compiling threw: SyntaxError: invalid default XML namespace

tryItOut 472
Running threw: ReferenceError: __iterator__ is not defined

tryItOut 473

tryItOut 474
Compiling threw: TypeError: generator function anonymous returns a value

tryItOut 475
Compiling threw: SyntaxError: invalid continue

tryItOut 476
Running threw: ReferenceError: prototype is not defined

tryItOut 477

tryItOut 478
Running threw: ReferenceError: reference to undefined XML name @foo

tryItOut 479
Compiling threw: SyntaxError: invalid switch statement

tryItOut 480

tryItOut 481
Running threw: ReferenceError: reference to undefined XML name *::*

tryItOut 482
Compiling threw: SyntaxError: invalid break

tryItOut 483
Compiling threw: SyntaxError: syntax error

tryItOut 484
uneval returned the string: [<y>
  <z/>
</y>]
Skipping re-eval test

tryItOut 485

tryItOut 486
It's an iterator!
Iterating succeeded, iterCount == 1

tryItOut 487

tryItOut 488
Compiling threw: SyntaxError: invalid assignment left-hand side

tryItOut 489

tryItOut 490
Compiling threw: SyntaxError: label not found

tryItOut 491
It's an iterator!
Iterating threw!
Iterating threw: TypeError: null has no properties

tryItOut 492
Running threw: ReferenceError: prototype is not defined

tryItOut 493
Compiling threw: SyntaxError: invalid for/in left-hand side

tryItOut 494
Compiling threw: SyntaxError: label not found

tryItOut 495
It's an iterator!
Iterating threw!
Iterating threw: TypeError: #1=[#1#] is not a constructor

tryItOut 496

tryItOut 497
Compiling threw: SyntaxError: illegal XML character

tryItOut 498
Compiling threw: SyntaxError: missing { before function body

tryItOut 499

tryItOut 500
Compiling threw: SyntaxError: missing ) in parenthetical

tryItOut 501

tryItOut 502
Compiling threw: SyntaxError: syntax error

tryItOut 503

tryItOut 504
It's an iterator!
Iterating threw!
Iterating threw: TypeError: invalid XML namespace ccc

tryItOut 505
Compiling threw: SyntaxError: syntax error

tryItOut 506

tryItOut 507
Compiling threw: SyntaxError: syntax error

tryItOut 508

tryItOut 509
Running threw: ReferenceError: set is not defined

tryItOut 510
It's an iterator!
Iterating succeeded, iterCount == 1

tryItOut 511

tryItOut 512

tryItOut 513

tryItOut 514
It's an iterator!
Iterating succeeded, iterCount == 1

tryItOut 515
Running threw: ReferenceError: __iterator__ is not defined

tryItOut 516

tryItOut 517
Compiling threw: SyntaxError: invalid for/in left-hand side

tryItOut 518
Compiling threw: SyntaxError: missing } after let block

tryItOut 519

tryItOut 520

tryItOut 521

tryItOut 522
Compiling threw: SyntaxError: missing name after . operator

tryItOut 523
It's an iterator!
Iterating threw!
Iterating threw: ReferenceError: d is not defined

tryItOut 524

tryItOut 525
Compiling threw: SyntaxError: label not found

tryItOut 526

tryItOut 527
Compiling threw: SyntaxError: syntax error

tryItOut 528
Compiling threw: SyntaxError: invalid for/in left-hand side

tryItOut 529
Compiling threw: SyntaxError: label not found

tryItOut 530

tryItOut 531
It's an iterator!
Iterating succeeded, iterCount == 1

tryItOut 532
Compiling threw: SyntaxError: missing ; before statement

tryItOut 533

tryItOut 534
Compiling threw: SyntaxError: missing { before function body

tryItOut 535
It's an iterator!
Iterating threw!
Iterating threw: ReferenceError: reference to undefined XML name *::*

tryItOut 536

tryItOut 537
Compiling threw: SyntaxError: label not found

tryItOut 538

tryItOut 539
Compiling threw: SyntaxError: illegal XML character

tryItOut 540
Running threw: ReferenceError: reference to undefined XML name @foo

tryItOut 541
Compiling threw: SyntaxError: syntax error

tryItOut 542

tryItOut 543

tryItOut 544
Compiling threw: SyntaxError: missing variable name

tryItOut 545
Compiling threw: SyntaxError: missing } after let block

tryItOut 546
Compiling threw: SyntaxError: syntax error

tryItOut 547
It's an iterator!
Iterating succeeded, iterCount == 1

tryItOut 548
Compiling threw: SyntaxError: invalid assignment left-hand side

tryItOut 549

tryItOut 550

tryItOut 551

tryItOut 552
Compiling threw: SyntaxError: missing variable name

tryItOut 553
Compiling threw: SyntaxError: missing ) in parenthetical

tryItOut 554
Compiling threw: SyntaxError: missing } after let block

tryItOut 555

tryItOut 556

tryItOut 557
Compiling threw: SyntaxError: missing variable name

tryItOut 558

tryItOut 559
It's an iterator!
Iterating succeeded, iterCount == 1

tryItOut 560
Compiling threw: SyntaxError: syntax error

tryItOut 561
It's an iterator!
Iterating succeeded, iterCount == 1

tryItOut 562
Compiling threw: SyntaxError: syntax error

tryItOut 563
Compiling threw: SyntaxError: missing ) in parenthetical

tryItOut 564

tryItOut 565
Compiling threw: TypeError: generator function anonymous returns a value

tryItOut 566
Compiling threw: SyntaxError: syntax error

tryItOut 567
Compiling threw: SyntaxError: invalid continue

tryItOut 568

tryItOut 569

tryItOut 570
Compiling threw: SyntaxError: missing } after let block

tryItOut 571
Compiling threw: TypeError: generator function anonymous returns a value

tryItOut 572
Compiling threw: SyntaxError: invalid destructuring assignment operator

tryItOut 573
It's an iterator!
Iterating succeeded, iterCount == 1

tryItOut 574
Compiling threw: TypeError: generator function anonymous returns a value

tryItOut 575

tryItOut 576
Running threw: [object Object]

tryItOut 577
Compiling threw: SyntaxError: missing { before function body

tryItOut 578

tryItOut 579

tryItOut 580
Compiling threw: SyntaxError: invalid continue

tryItOut 581
Compiling threw: SyntaxError: invalid XML name

tryItOut 582
Compiling threw: SyntaxError: invalid continue

tryItOut 583
Running threw: ReferenceError: yyy is not defined

tryItOut 584

tryItOut 585

tryItOut 586
Compiling threw: SyntaxError: syntax error

tryItOut 587
It's an iterator!
Iterating succeeded, iterCount == 1

tryItOut 588
Compiling threw: TypeError: generator function anonymous returns a value

tryItOut 589

tryItOut 590
Compiling threw: SyntaxError: invalid for/in left-hand side

tryItOut 591
Compiling threw: SyntaxError: invalid XML name

tryItOut 592

tryItOut 593
It's an iterator!
Iterating succeeded, iterCount == 1

tryItOut 594
It's an iterator!
Iterating succeeded, iterCount == 1

tryItOut 595

tryItOut 596
Compiling threw: SyntaxError: missing name after . operator

tryItOut 597

tryItOut 598
Compiling threw: SyntaxError: syntax error

tryItOut 599
It's an iterator!
Iterating succeeded, iterCount == 1

tryItOut 600
Compiling threw: SyntaxError: invalid continue

tryItOut 601
Compiling threw: SyntaxError: missing ) in parenthetical

tryItOut 602
Running threw: TypeError: undefined has no properties

tryItOut 603

tryItOut 604

tryItOut 605
Compiling threw: SyntaxError: missing : after property id

tryItOut 606

tryItOut 607

tryItOut 608
Compiling threw: SyntaxError: label not found

tryItOut 609

tryItOut 610
Compiling threw: SyntaxError: missing ) in parenthetical

tryItOut 611
Compiling threw: SyntaxError: syntax error

tryItOut 612
Running threw: TypeError: null has no properties

tryItOut 613
Running threw: 

tryItOut 614
Compiling threw: SyntaxError: missing { before function body

tryItOut 615

tryItOut 616
Compiling threw: SyntaxError: invalid increment operand

tryItOut 617

tryItOut 618

tryItOut 619
Compiling threw: SyntaxError: syntax error

tryItOut 620
Compiling threw: SyntaxError: missing ) in parenthetical

tryItOut 621
Running threw: null

tryItOut 622
It's an iterator!
Iterating succeeded, iterCount == 1

tryItOut 623
Running threw: ReferenceError: __iterator__ is not defined

tryItOut 624

tryItOut 625
Compiling threw: SyntaxError: missing } in compound statement

tryItOut 626

tryItOut 627
Running threw: ReferenceError: reference to undefined XML name *::*

tryItOut 628

tryItOut 629
Running threw: TypeError: this.zzz has no properties

tryItOut 630
It's an iterator!
Iterating succeeded, iterCount == 1

tryItOut 631
Compiling threw: SyntaxError: invalid assignment left-hand side

tryItOut 632

tryItOut 633
It's an iterator!
Iterating succeeded, iterCount == 1

tryItOut 634
Compiling threw: SyntaxError: missing ; before statement

tryItOut 635

tryItOut 636
Compiling threw: SyntaxError: missing ( before let head

tryItOut 637

tryItOut 638

tryItOut 639
Compiling threw: SyntaxError: invalid XML name

tryItOut 640
Compiling threw: TypeError: generator function anonymous returns a value

tryItOut 641
Compiling threw: SyntaxError: illegal XML character

tryItOut 642

tryItOut 643

tryItOut 644
Compiling threw: SyntaxError: illegal XML character

tryItOut 645

tryItOut 646

tryItOut 647
Compiling threw: SyntaxError: missing : after property id

tryItOut 648

tryItOut 649
Compiling threw: SyntaxError: invalid for/in left-hand side

tryItOut 650

tryItOut 651
Compiling threw: SyntaxError: missing } after let block

tryItOut 652
Running threw: ReferenceError: reference to undefined XML name @foo

tryItOut 653
Compiling threw: SyntaxError: missing ) in parenthetical

tryItOut 654
Compiling threw: SyntaxError: invalid for/in left-hand side

tryItOut 655
Compiling threw: SyntaxError: invalid default XML namespace

tryItOut 656

tryItOut 657
Compiling threw: SyntaxError: missing variable name

tryItOut 658
Running threw: TypeError: this.zzz has no properties

tryItOut 659
It's an iterator!
Iterating succeeded, iterCount == 1

tryItOut 660

tryItOut 661

tryItOut 662
Compiling threw: SyntaxError: label not found

tryItOut 663
Compiling threw: SyntaxError: label not found

tryItOut 664
Compiling threw: SyntaxError: syntax error

tryItOut 665
Compiling threw: SyntaxError: syntax error

tryItOut 666
Compiling threw: SyntaxError: syntax error

tryItOut 667
Compiling threw: SyntaxError: invalid break

tryItOut 668
Compiling threw: SyntaxError: invalid continue

tryItOut 669
Compiling threw: SyntaxError: label not found

tryItOut 670

tryItOut 671

tryItOut 672

tryItOut 673
Compiling threw: SyntaxError: syntax error

tryItOut 674
Running threw: 108

tryItOut 675
Compiling threw: TypeError: generator function anonymous returns a value

tryItOut 676
Compiling threw: SyntaxError: label not found

tryItOut 677
Compiling threw: SyntaxError: syntax error

tryItOut 678
Compiling threw: SyntaxError: syntax error

tryItOut 679

tryItOut 680
Compiling threw: TypeError: generator function anonymous returns a value

tryItOut 681

tryItOut 682

tryItOut 683
Compiling threw: TypeError: generator function anonymous returns a value

tryItOut 684
Compiling threw: SyntaxError: invalid for/in left-hand side

tryItOut 685
Compiling threw: SyntaxError: syntax error

tryItOut 686
It's an iterator!
Iterating succeeded, iterCount == 1

tryItOut 687
Compiling threw: SyntaxError: invalid continue

tryItOut 688
Compiling threw: SyntaxError: invalid assignment left-hand side

tryItOut 689
Compiling threw: SyntaxError: missing ) in parenthetical

tryItOut 690
Compiling threw: SyntaxError: missing variable name

tryItOut 691
Running threw: <constructor>
  <prototype>null</prototype>
</constructor>

tryItOut 692

tryItOut 693
Compiling threw: SyntaxError: missing variable name

tryItOut 694
Compiling threw: SyntaxError: missing ) in parenthetical

tryItOut 695
Compiling threw: TypeError: redeclaration of variable __count__

tryItOut 696

tryItOut 697
Compiling threw: SyntaxError: syntax error

tryItOut 698

tryItOut 699

tryItOut 700

tryItOut 701

tryItOut 702
Compiling threw: SyntaxError: invalid continue

tryItOut 703

tryItOut 704
Compiling threw: SyntaxError: missing ; after for-loop initializer

tryItOut 705
It's an iterator!
Iterating succeeded, iterCount == 0

tryItOut 706
It's an iterator!
Iterating threw!
Iterating threw: ReferenceError: reference to undefined XML name @foo

tryItOut 707
Running threw: ReferenceError: reference to undefined XML name *

tryItOut 708
Compiling threw: SyntaxError: label not found

tryItOut 709
Compiling threw: SyntaxError: invalid for/in left-hand side

tryItOut 710
It's an iterator!
Iterating succeeded, iterCount == 1

tryItOut 711
Compiling threw: SyntaxError: invalid for/in left-hand side

tryItOut 712
Running threw: TypeError: arguments[0] has no properties

tryItOut 713
Running threw: SyntaxError: invalid setter usage

tryItOut 714
Compiling threw: SyntaxError: syntax error

tryItOut 715
Compiling threw: SyntaxError: invalid for/in left-hand side

tryItOut 716

tryItOut 717
Compiling threw: SyntaxError: duplicate label

tryItOut 718

tryItOut 719

tryItOut 720
Compiling threw: SyntaxError: invalid break

tryItOut 721
Compiling threw: SyntaxError: invalid XML name

tryItOut 722

tryItOut 723
Compiling threw: SyntaxError: invalid break

tryItOut 724
Compiling threw: SyntaxError: invalid decrement operand

tryItOut 725
Compiling threw: SyntaxError: syntax error

tryItOut 726
Compiling threw: SyntaxError: missing ; after for-loop initializer

tryItOut 727

tryItOut 728

tryItOut 729
Compiling threw: SyntaxError: missing = in destructuring declaration

tryItOut 730

tryItOut 731
Compiling threw: SyntaxError: invalid for/in left-hand side

tryItOut 732

tryItOut 733
Compiling threw: SyntaxError: syntax error

tryItOut 734
Compiling threw: SyntaxError: missing variable name

tryItOut 735
Compiling threw: SyntaxError: syntax error

tryItOut 736

tryItOut 737
Compiling threw: TypeError: generator function anonymous returns a value

tryItOut 738
It's an iterator!
Iterating succeeded, iterCount == 1

tryItOut 739
Compiling threw: SyntaxError: missing variable name

tryItOut 740
Compiling threw: SyntaxError: invalid assignment left-hand side

tryItOut 741

tryItOut 742
Compiling threw: TypeError: redeclaration of variable constructor

tryItOut 743
Compiling threw: SyntaxError: invalid break

tryItOut 744
Compiling threw: SyntaxError: label not found

tryItOut 745

tryItOut 746
Compiling threw: SyntaxError: invalid for/in left-hand side

tryItOut 747
Compiling threw: SyntaxError: label not found

tryItOut 748

tryItOut 749
Compiling threw: SyntaxError: missing ) in parenthetical

tryItOut 750

tryItOut 751

tryItOut 752
Running threw: ReferenceError: prop is not defined

tryItOut 753

tryItOut 754
Compiling threw: SyntaxError: syntax error

tryItOut 755

tryItOut 756
uneval returned the string: [undefined, undefined]

tryItOut 757
Compiling threw: SyntaxError: label not found

tryItOut 758
Compiling threw: SyntaxError: missing { before function body

tryItOut 759
Compiling threw: SyntaxError: label not found

tryItOut 760
Compiling threw: SyntaxError: invalid for/in left-hand side

tryItOut 761
Compiling threw: SyntaxError: syntax error

tryItOut 762

tryItOut 763
Compiling threw: SyntaxError: syntax error

tryItOut 764

tryItOut 765

tryItOut 766
Compiling threw: SyntaxError: invalid continue

tryItOut 767
Compiling threw: SyntaxError: syntax error

tryItOut 768
Running threw: ReferenceError: reference to undefined XML name @foo

tryItOut 769
Compiling threw: SyntaxError: missing } after let block

tryItOut 770

tryItOut 771

tryItOut 772
Compiling threw: TypeError: generator function anonymous returns a value

tryItOut 773
Running threw: ReferenceError: reference to undefined XML name *::*

tryItOut 774
Compiling threw: SyntaxError: missing variable name

tryItOut 775

tryItOut 776

tryItOut 777
Compiling threw: SyntaxError: syntax error

tryItOut 778

tryItOut 779
Compiling threw: TypeError: generator function anonymous returns a value

tryItOut 780
Running threw: 

tryItOut 781
Compiling threw: SyntaxError: syntax error

tryItOut 782
Compiling threw: SyntaxError: missing variable name

tryItOut 783
Compiling threw: SyntaxError: syntax error

tryItOut 784
Compiling threw: SyntaxError: illegal XML character

tryItOut 785

tryItOut 786
Compiling threw: TypeError: generator function anonymous returns a value

tryItOut 787

tryItOut 788

tryItOut 789
Compiling threw: SyntaxError: syntax error

tryItOut 790

tryItOut 791
Running threw: ReferenceError: reference to undefined XML name @foo

tryItOut 792
Compiling threw: SyntaxError: invalid assignment left-hand side

tryItOut 793
Compiling threw: SyntaxError: missing variable name

tryItOut 794

tryItOut 795

tryItOut 796
Compiling threw: SyntaxError: missing = in destructuring declaration

tryItOut 797
It's an iterator!
Iterating succeeded, iterCount == 1

tryItOut 798
Compiling threw: SyntaxError: label not found

tryItOut 799
Compiling threw: SyntaxError: invalid break

tryItOut 800
Compiling threw: SyntaxError: invalid continue

tryItOut 801
Compiling threw: SyntaxError: missing { before function body

tryItOut 802

tryItOut 803
It's an iterator!
Iterating succeeded, iterCount == 1

tryItOut 804
Running threw: ReferenceError: __noSuchMethod__ is not defined

tryItOut 805

tryItOut 806
Compiling threw: SyntaxError: missing variable name

tryItOut 807
Compiling threw: SyntaxError: missing } after let block

tryItOut 808
Compiling threw: SyntaxError: missing ) in parenthetical

tryItOut 809
Running threw: SyntaxError: label not found

tryItOut 810
Compiling threw: TypeError: redeclaration of var __count__

tryItOut 811
Compiling threw: TypeError: generator function anonymous returns a value

tryItOut 812
Compiling threw: SyntaxError: invalid XML name

tryItOut 813

tryItOut 814
Compiling threw: SyntaxError: missing { before function body

tryItOut 815
Compiling threw: SyntaxError: invalid break

tryItOut 816

tryItOut 817
Running threw: undefined

tryItOut 818
Compiling threw: SyntaxError: invalid for/in left-hand side

tryItOut 819
Compiling threw: SyntaxError: missing ) in parenthetical

tryItOut 820

tryItOut 821

tryItOut 822

tryItOut 823

tryItOut 824
Running threw: ReferenceError: reference to undefined XML name @foo

tryItOut 825
It's an iterator!
Iterating threw!
Iterating threw: ReferenceError: reference to undefined XML name *::*

tryItOut 826
Compiling threw: SyntaxError: yield expression must be parenthesized

tryItOut 827
Compiling threw: SyntaxError: invalid for/in left-hand side

tryItOut 828
Compiling threw: SyntaxError: missing } after let block

tryItOut 829
Compiling threw: SyntaxError: syntax error

tryItOut 830
Compiling threw: SyntaxError: missing ) in parenthetical

tryItOut 831
Compiling threw: SyntaxError: invalid continue

tryItOut 832
Compiling threw: SyntaxError: invalid assignment left-hand side

tryItOut 833
It's an iterator!
Iterating succeeded, iterCount == 1

tryItOut 834

tryItOut 835
Compiling threw: SyntaxError: missing { before function body

tryItOut 836
Compiling threw: SyntaxError: invalid break

tryItOut 837
Compiling threw: SyntaxError: syntax error

tryItOut 838

tryItOut 839

tryItOut 840

tryItOut 841
It's an iterator!
Iterating succeeded, iterCount == 1

tryItOut 842
It's an iterator!
Iterating threw!
Iterating threw: TypeError: arguments[0] has no properties

tryItOut 843
Compiling threw: TypeError: generator function anonymous returns a value

tryItOut 844

tryItOut 845
Compiling threw: SyntaxError: label not found

tryItOut 846
Compiling threw: TypeError: redeclaration of variable prop

tryItOut 847

tryItOut 848
Compiling threw: TypeError: generator function anonymous returns a value

tryItOut 849
Running threw: undefined

tryItOut 850
It's an iterator!
Iterating succeeded, iterCount == 1

tryItOut 851

tryItOut 852
Compiling threw: SyntaxError: syntax error

tryItOut 853
Compiling threw: SyntaxError: missing ) in parenthetical

tryItOut 854
Compiling threw: SyntaxError: invalid increment operand

tryItOut 855

tryItOut 856
It's an iterator!
Iterating threw!
Iterating threw: TypeError: arguments[0] has no properties

tryItOut 857

tryItOut 858
Running threw: ReferenceError: z1 is not defined

tryItOut 859

tryItOut 860
Compiling threw: SyntaxError: label not found

tryItOut 861
Compiling threw: SyntaxError: missing } after let block

tryItOut 862

tryItOut 863
Compiling threw: TypeError: generator function anonymous returns a value

tryItOut 864

tryItOut 865
Compiling threw: SyntaxError: missing ; before statement

tryItOut 866
Compiling threw: SyntaxError: syntax error

tryItOut 867

tryItOut 868
Running threw: 109

tryItOut 869

tryItOut 870

tryItOut 871
Compiling threw: TypeError: redeclaration of variable __parent__

tryItOut 872
Compiling threw: SyntaxError: illegal XML character

tryItOut 873

tryItOut 874

tryItOut 875
Running threw: ReferenceError: z2 is not defined

tryItOut 876

tryItOut 877
Compiling threw: SyntaxError: missing { before function body

tryItOut 878

tryItOut 879
Compiling threw: SyntaxError: label not found

tryItOut 880
Compiling threw: SyntaxError: syntax error

tryItOut 881

tryItOut 882
Compiling threw: SyntaxError: label not found

tryItOut 883
Running threw: ReferenceError: reference to undefined XML name *::*

tryItOut 884
Running threw: ReferenceError: reference to undefined XML name @foo

tryItOut 885

tryItOut 886
It's an iterator!
Iterating succeeded, iterCount == 1

tryItOut 887
Compiling threw: SyntaxError: syntax error

tryItOut 888

tryItOut 889
Compiling threw: SyntaxError: invalid assignment left-hand side

tryItOut 890
Running threw: TypeError: arguments[0] has no properties

tryItOut 891
Running threw: 109

tryItOut 892
Compiling threw: TypeError: generator function anonymous returns a value

tryItOut 893
Compiling threw: SyntaxError: syntax error

tryItOut 894
Compiling threw: TypeError: generator function anonymous returns a value

tryItOut 895
Compiling threw: SyntaxError: invalid for/in left-hand side

tryItOut 896
Running threw: SyntaxError: invalid setter usage

tryItOut 897

tryItOut 898
Compiling threw: SyntaxError: syntax error

tryItOut 899
Compiling threw: TypeError: generator function anonymous returns a value

tryItOut 900

tryItOut 901
Compiling threw: SyntaxError: syntax error

tryItOut 902
It's an iterator!
Iterating succeeded, iterCount == 1

tryItOut 903

tryItOut 904
Compiling threw: SyntaxError: invalid for/in left-hand side

tryItOut 905
Compiling threw: SyntaxError: missing } after let block

tryItOut 906
Compiling threw: SyntaxError: illegal XML character

tryItOut 907

tryItOut 908
Compiling threw: SyntaxError: invalid for/in left-hand side

tryItOut 909

tryItOut 910

tryItOut 911
Compiling threw: TypeError: redeclaration of variable __count__

tryItOut 912
Compiling threw: SyntaxError: syntax error

tryItOut 913
Compiling threw: SyntaxError: missing { before function body

tryItOut 914
Compiling threw: SyntaxError: missing variable name

tryItOut 915
Compiling threw: SyntaxError: missing ) in parenthetical

tryItOut 916
Compiling threw: SyntaxError: syntax error

tryItOut 917
Compiling threw: SyntaxError: invalid for/in left-hand side

tryItOut 918
Compiling threw: SyntaxError: missing variable name

tryItOut 919
Compiling threw: SyntaxError: missing ; before statement

tryItOut 920

tryItOut 921

tryItOut 922

tryItOut 923
Compiling threw: SyntaxError: label not found

tryItOut 924
Compiling threw: SyntaxError: label not found

tryItOut 925

tryItOut 926
Compiling threw: SyntaxError: invalid XML name

tryItOut 927
Compiling threw: SyntaxError: invalid for/in left-hand side

tryItOut 928
Compiling threw: SyntaxError: syntax error

tryItOut 929

tryItOut 930

tryItOut 931

tryItOut 932
Compiling threw: SyntaxError: missing ) in parenthetical

tryItOut 933
Compiling threw: SyntaxError: missing } after let block

tryItOut 934

tryItOut 935

tryItOut 936

tryItOut 937
Compiling threw: SyntaxError: invalid break

tryItOut 938

tryItOut 939
Compiling threw: SyntaxError: invalid switch statement

tryItOut 940
Compiling threw: SyntaxError: missing variable name

tryItOut 941

tryItOut 942

tryItOut 943

tryItOut 944

tryItOut 945
Compiling threw: SyntaxError: missing ; after for-loop initializer

tryItOut 946
Compiling threw: TypeError: redeclaration of variable __iterator__

tryItOut 947
Compiling threw: SyntaxError: illegal XML character

tryItOut 948

tryItOut 949

tryItOut 950
Running threw: ReferenceError: z1 is not defined

tryItOut 951
Compiling threw: SyntaxError: invalid for/in left-hand side

tryItOut 952
It's an iterator!
Iterating succeeded, iterCount == 1

tryItOut 953

tryItOut 954
Compiling threw: SyntaxError: invalid for/in left-hand side

tryItOut 955
Compiling threw: SyntaxError: label not found

tryItOut 956
Compiling threw: SyntaxError: missing : after property id

tryItOut 957

tryItOut 958

tryItOut 959
It's an iterator!
Iterating threw!
Iterating threw: ReferenceError: reference to undefined XML name *::*

tryItOut 960
Compiling threw: SyntaxError: missing ) in parenthetical

tryItOut 961
Compiling threw: SyntaxError: invalid for/in left-hand side

tryItOut 962

tryItOut 963
Running threw: ReferenceError: z1 is not defined

tryItOut 964

tryItOut 965
Compiling threw: SyntaxError: missing ) in parenthetical

tryItOut 966
Compiling threw: TypeError: redeclaration of const __count__

tryItOut 967

tryItOut 968

tryItOut 969
Running threw: 0

tryItOut 970

tryItOut 971

tryItOut 972
Compiling threw: SyntaxError: syntax error

tryItOut 973
It's an iterator!
Iterating threw!
Iterating threw: ReferenceError: z2 is not defined

tryItOut 974
Compiling threw: SyntaxError: invalid for/in left-hand side

tryItOut 975

tryItOut 976
Compiling threw: SyntaxError: invalid for/in left-hand side

tryItOut 977
Compiling threw: SyntaxError: missing ) in parenthetical

tryItOut 978
Compiling threw: SyntaxError: invalid continue

tryItOut 979
Compiling threw: SyntaxError: duplicate label

tryItOut 980
Running threw: ReferenceError: reference to undefined XML name @foo

tryItOut 981

tryItOut 982
Compiling threw: SyntaxError: missing ; after for-loop initializer

tryItOut 983
Compiling threw: SyntaxError: invalid continue

tryItOut 984
Compiling threw: TypeError: anonymous generator function returns a value

tryItOut 985
Compiling threw: SyntaxError: invalid decrement operand

tryItOut 986
Compiling threw: SyntaxError: syntax error

tryItOut 987

tryItOut 988
Compiling threw: SyntaxError: invalid for/in left-hand side

tryItOut 989
Compiling threw: SyntaxError: invalid for/in left-hand side

tryItOut 990
Running threw: 0

tryItOut 991
Running threw: Error: invalid sharp variable use #1#

tryItOut 992

tryItOut 993

tryItOut 994
Compiling threw: SyntaxError: missing ; after for-loop initializer

tryItOut 995

tryItOut 996

tryItOut 997
Compiling threw: SyntaxError: missing ) in parenthetical

tryItOut 998

tryItOut 999
Running threw: ReferenceError: z1 is not defined

tryItOut 1000

ALL OK

Script done on Sat 04 May 2013 05:39:55 AM PDT
