Script started on Sat 04 May 2013 05:42:50 AM PDT
***
Targeting SpiderMonkey / Gecko.

tryItOut 1

tryItOut 2

tryItOut 3
Compiling threw: SyntaxError: illegal XML character

tryItOut 4
Compiling threw: SyntaxError: missing ; before statement

tryItOut 5

tryItOut 6

tryItOut 7
Running threw: ReferenceError: reference to undefined XML name *::*

tryItOut 8
Compiling threw: SyntaxError: missing = in destructuring declaration

tryItOut 9

tryItOut 10

tryItOut 11
Compiling threw: TypeError: redeclaration of const prototype

tryItOut 12
before 87200, after 87200, break 01497000

tryItOut 13

tryItOut 14
Compiling threw: SyntaxError: missing ) in parenthetical

tryItOut 15
Compiling threw: SyntaxError: syntax error

tryItOut 16
Compiling threw: SyntaxError: missing ) in parenthetical

tryItOut 17
Running threw: ReferenceError: prototype is not defined

tryItOut 18
Running threw: [object Object]

tryItOut 19

tryItOut 20

tryItOut 21
Running threw: 105

tryItOut 22

tryItOut 23
Compiling threw: SyntaxError: missing ; before statement

tryItOut 24
Compiling threw: SyntaxError: invalid continue

tryItOut 25
Compiling threw: SyntaxError: missing ) after argument list

tryItOut 26
Compiling threw: SyntaxError: invalid break

tryItOut 27
Compiling threw: SyntaxError: missing variable name

tryItOut 28
Running threw: ReferenceError: reference to undefined XML name *::*

tryItOut 29
Compiling threw: SyntaxError: syntax error

tryItOut 30
Compiling threw: SyntaxError: label not found

tryItOut 31

tryItOut 32
Compiling threw: SyntaxError: invalid assignment left-hand side

tryItOut 33
Running threw: ReferenceError: reference to undefined XML name @foo

tryItOut 34
Compiling threw: SyntaxError: syntax error

tryItOut 35
Compiling threw: SyntaxError: missing ; after for-loop initializer

tryItOut 36
Compiling threw: SyntaxError: missing variable name

tryItOut 37
Compiling threw: SyntaxError: invalid continue

tryItOut 38
Running threw: ReferenceError: __iterator__ is not defined

tryItOut 39
Compiling threw: SyntaxError: missing ) in parenthetical

tryItOut 40
Running threw: ReferenceError: z1 is not defined

tryItOut 41
Running threw: Error: invalid sharp variable use #1#

tryItOut 42

tryItOut 43

tryItOut 44

tryItOut 45

tryItOut 46
Compiling threw: SyntaxError: missing { before function body

tryItOut 47
Compiling threw: SyntaxError: label not found

tryItOut 48
Compiling threw: SyntaxError: invalid assignment left-hand side

tryItOut 49
Compiling threw: SyntaxError: invalid for/in left-hand side

tryItOut 50

tryItOut 51

tryItOut 52
Compiling threw: SyntaxError: syntax error

tryItOut 53
Running threw: TypeError: this.zzz has no properties

tryItOut 54

tryItOut 55
Running threw: [object Object]

tryItOut 56

tryItOut 57
Running threw: ReferenceError: z1 is not defined

tryItOut 58
Compiling threw: SyntaxError: invalid assignment left-hand side

tryItOut 59
Compiling threw: SyntaxError: syntax error

tryItOut 60
Compiling threw: SyntaxError: invalid break

tryItOut 61

tryItOut 62
Running threw: ReferenceError: __iterator__ is not defined

tryItOut 63
Compiling threw: SyntaxError: missing = in destructuring declaration

tryItOut 64
Compiling threw: SyntaxError: illegal XML character

tryItOut 65
Compiling threw: SyntaxError: syntax error

tryItOut 66
Compiling threw: SyntaxError: missing ; before statement

tryItOut 67

tryItOut 68
Compiling threw: TypeError: redeclaration of variable __proto__

tryItOut 69

tryItOut 70

tryItOut 71
Compiling threw: SyntaxError: syntax error

tryItOut 72
Compiling threw: SyntaxError: invalid assignment left-hand side

tryItOut 73
Compiling threw: SyntaxError: missing = in destructuring declaration

tryItOut 74

tryItOut 75
Compiling threw: SyntaxError: missing { before function body

tryItOut 76

tryItOut 77

tryItOut 78
Compiling threw: SyntaxError: invalid for/in left-hand side

tryItOut 79
Compiling threw: SyntaxError: syntax error

tryItOut 80
Compiling threw: SyntaxError: invalid assignment left-hand side

tryItOut 81
Running threw: ReferenceError: reference to undefined XML name @foo

tryItOut 82

tryItOut 83
Running threw: TypeError: (new Number).watch("prop", "fafafa".replace(/a/g, (function prototype() {return *;}).call).__defineSetter__) has no properties

tryItOut 84
Compiling threw: SyntaxError: missing variable name

tryItOut 85
Compiling threw: SyntaxError: label not found

tryItOut 86
Compiling threw: SyntaxError: missing = in destructuring declaration

tryItOut 87
Running threw: ReferenceError: prop is not defined

tryItOut 88
Compiling threw: TypeError: redeclaration of variable __noSuchMethod__

tryItOut 89

tryItOut 90
Compiling threw: SyntaxError: invalid break

tryItOut 91
Compiling threw: SyntaxError: missing ] after element list

tryItOut 92

tryItOut 93
Running threw: TypeError: invalid XML namespace ccc

tryItOut 94
Compiling threw: SyntaxError: invalid decrement operand

tryItOut 95
Compiling threw: SyntaxError: invalid assignment left-hand side

tryItOut 96
Compiling threw: SyntaxError: invalid for/in left-hand side

tryItOut 97
Running threw: ReferenceError: window is not defined

tryItOut 98
Compiling threw: SyntaxError: syntax error

tryItOut 99
Compiling threw: SyntaxError: unterminated comment

tryItOut 100

tryItOut 101
Compiling threw: SyntaxError: syntax error

tryItOut 102
Compiling threw: SyntaxError: invalid break

tryItOut 103
Compiling threw: SyntaxError: label not found

tryItOut 104
Running threw: TypeError: invalid 'instanceof' operand this

tryItOut 105
Compiling threw: SyntaxError: missing ) in parenthetical

tryItOut 106

tryItOut 107
Compiling threw: SyntaxError: invalid for/in left-hand side

tryItOut 108

tryItOut 109
Compiling threw: SyntaxError: missing ) after condition

tryItOut 110

tryItOut 111
Compiling threw: SyntaxError: missing ; before statement

tryItOut 112

tryItOut 113
Compiling threw: SyntaxError: missing ; before statement

tryItOut 114
Running threw: SyntaxError: invalid setter usage

tryItOut 115
Running threw: ReferenceError: window is not defined

tryItOut 116
Compiling threw: SyntaxError: missing { before function body

tryItOut 117

tryItOut 118

tryItOut 119

tryItOut 120
Compiling threw: SyntaxError: missing ) in parenthetical

tryItOut 121

tryItOut 122
Running threw: ReferenceError: __noSuchMethod__ is not defined

tryItOut 123
Compiling threw: SyntaxError: label not found

tryItOut 124

tryItOut 125
Running threw: ReferenceError: reference to undefined XML name *

tryItOut 126
Compiling threw: SyntaxError: missing ) after condition

tryItOut 127
Compiling threw: SyntaxError: missing { before function body

tryItOut 128
Running threw: null

tryItOut 129
Compiling threw: SyntaxError: missing ) in parenthetical

tryItOut 130
Compiling threw: SyntaxError: label not found

tryItOut 131

tryItOut 132
Compiling threw: SyntaxError: invalid assignment left-hand side

tryItOut 133

tryItOut 134
Compiling threw: SyntaxError: invalid assignment left-hand side

tryItOut 135

tryItOut 136
Running threw: ReferenceError: z2 is not defined

tryItOut 137
Compiling threw: SyntaxError: missing ; before statement

tryItOut 138

tryItOut 139
Running threw: ReferenceError: z1 is not defined

tryItOut 140
Compiling threw: SyntaxError: missing } after let block

tryItOut 141
Compiling threw: SyntaxError: invalid assignment left-hand side

tryItOut 142
Running threw: ReferenceError: prototype is not defined

tryItOut 143
Compiling threw: SyntaxError: missing { before function body

tryItOut 144
Compiling threw: SyntaxError: invalid break

tryItOut 145
Compiling threw: SyntaxError: invalid for/in left-hand side

tryItOut 146
Compiling threw: SyntaxError: missing ; after for-loop initializer

tryItOut 147

tryItOut 148
Compiling threw: TypeError: redeclaration of variable constructor

tryItOut 149

tryItOut 150
Running threw: <y>
  <z/>
</y>

tryItOut 151

tryItOut 152
Compiling threw: SyntaxError: missing name after . operator

tryItOut 153

tryItOut 154
Compiling threw: TypeError: redeclaration of variable prop

tryItOut 155

tryItOut 156
Compiling threw: SyntaxError: missing ; before statement

tryItOut 157

tryItOut 158
Compiling threw: SyntaxError: missing variable name

tryItOut 159
Compiling threw: SyntaxError: missing { before function body

tryItOut 160

tryItOut 161
Compiling threw: SyntaxError: label not found

tryItOut 162

tryItOut 163
Running threw: ReferenceError: reference to undefined XML name @foo

tryItOut 164
Compiling threw: SyntaxError: missing ; before statement

tryItOut 165
Compiling threw: SyntaxError: invalid assignment left-hand side

tryItOut 166
before 139520, after 139520, break 0153a000
Running threw: SyntaxError: invalid setter usage

tryItOut 167
Compiling threw: SyntaxError: invalid continue

tryItOut 168

tryItOut 169

tryItOut 170
Running threw: ReferenceError: window is not defined

tryItOut 171
Compiling threw: SyntaxError: missing while after do-loop body

tryItOut 172
Compiling threw: SyntaxError: invalid switch statement

tryItOut 173

tryItOut 174
Compiling threw: SyntaxError: invalid for/in left-hand side

tryItOut 175

tryItOut 176
Compiling threw: SyntaxError: invalid for/in left-hand side

tryItOut 177
Compiling threw: SyntaxError: catch without try

tryItOut 178
Compiling threw: SyntaxError: missing ) in parenthetical

tryItOut 179
Compiling threw: SyntaxError: missing ; before statement

tryItOut 180

tryItOut 181

tryItOut 182
Compiling threw: SyntaxError: missing { before function body

tryItOut 183
Compiling threw: SyntaxError: missing ) in parenthetical

tryItOut 184
Running threw: ReferenceError: __noSuchMethod__ is not defined

tryItOut 185
Compiling threw: SyntaxError: invalid for/in left-hand side

tryItOut 186

tryItOut 187
Compiling threw: SyntaxError: missing ; before statement

tryItOut 188
Compiling threw: SyntaxError: missing ) in parenthetical

tryItOut 189
Compiling threw: SyntaxError: invalid sharp variable definition

tryItOut 190
Compiling threw: TypeError: redeclaration of variable __proto__

tryItOut 191
Compiling threw: SyntaxError: invalid break

tryItOut 192
Compiling threw: SyntaxError: syntax error

tryItOut 193
Compiling threw: SyntaxError: missing variable name

tryItOut 194
Running threw: ReferenceError: __noSuchMethod__ is not defined

tryItOut 195
Compiling threw: SyntaxError: invalid assignment left-hand side

tryItOut 196
Running threw: ReferenceError: reference to undefined XML name @foo

tryItOut 197

tryItOut 198
Compiling threw: SyntaxError: missing ] after element list

tryItOut 199

tryItOut 200

tryItOut 201

tryItOut 202
Compiling threw: SyntaxError: missing ; before statement

tryItOut 203
before 139520, after 139520, break 0153a000
Running threw: <x>
  <y/>
</x>

tryItOut 204
Compiling threw: SyntaxError: invalid continue

tryItOut 205
Compiling threw: SyntaxError: syntax error

tryItOut 206
Running threw: TypeError: <y>
  <z/>
</y> is not a function

tryItOut 207
Running threw: ReferenceError: reference to undefined XML name *::*

tryItOut 208
Compiling threw: SyntaxError: missing { before function body

tryItOut 209
Running threw: ReferenceError: __noSuchMethod__ is not defined

tryItOut 210

tryItOut 211

tryItOut 212

tryItOut 213

tryItOut 214
Compiling threw: SyntaxError: missing ) after condition

tryItOut 215
Running threw: TypeError: this.zzz has no properties

tryItOut 216
Compiling threw: SyntaxError: missing } after let block

tryItOut 217

tryItOut 218
Compiling threw: SyntaxError: missing } after let block

tryItOut 219

tryItOut 220
Compiling threw: SyntaxError: invalid sharp variable definition

tryItOut 221
Compiling threw: SyntaxError: syntax error

tryItOut 222
Running threw: TypeError: Function.prototype.call called on incompatible [object Object]

tryItOut 223
Compiling threw: SyntaxError: missing ; before statement

tryItOut 224

tryItOut 225

tryItOut 226
Compiling threw: SyntaxError: syntax error

tryItOut 227
Compiling threw: SyntaxError: syntax error

tryItOut 228
Compiling threw: SyntaxError: missing ; after for-loop initializer

tryItOut 229
Running threw: TypeError: this.zzz has no properties

tryItOut 230

tryItOut 231
Compiling threw: SyntaxError: missing ) in parenthetical

tryItOut 232
Compiling threw: SyntaxError: invalid for/in left-hand side

tryItOut 233

tryItOut 234

tryItOut 235
Running threw: ReferenceError: __iterator__ is not defined

tryItOut 236
Compiling threw: SyntaxError: missing { before function body

tryItOut 237
Compiling threw: SyntaxError: label not found

tryItOut 238
Compiling threw: SyntaxError: missing ) in parenthetical

tryItOut 239
Compiling threw: SyntaxError: missing ; before statement

tryItOut 240
Compiling threw: SyntaxError: missing ) after condition

tryItOut 241
before 139520, after 139520, break 0153a000

tryItOut 242
Running threw: ReferenceError: reference to undefined XML name @foo

tryItOut 243
Compiling threw: SyntaxError: missing { before function body

tryItOut 244
Compiling threw: SyntaxError: missing { before function body

tryItOut 245
Compiling threw: SyntaxError: invalid for/in left-hand side

tryItOut 246

tryItOut 247
Running threw: TypeError: this.zzz has no properties

tryItOut 248
Running threw: [object global]

tryItOut 249
Compiling threw: SyntaxError: label not found

tryItOut 250
Compiling threw: SyntaxError: missing ] after element list

tryItOut 251
Compiling threw: SyntaxError: missing ) in parenthetical

tryItOut 252
Compiling threw: SyntaxError: unterminated comment

tryItOut 253
Running threw: ReferenceError: reference to undefined XML name *

tryItOut 254

tryItOut 255
Compiling threw: SyntaxError: missing ) in parenthetical

tryItOut 256
Compiling threw: SyntaxError: invalid for/in left-hand side

tryItOut 257
Compiling threw: SyntaxError: invalid continue

tryItOut 258
Compiling threw: SyntaxError: missing { before function body

tryItOut 259
before 139520, after 139520, break 0153a000

tryItOut 260

tryItOut 261

tryItOut 262
Compiling threw: SyntaxError: missing variable name

tryItOut 263
Compiling threw: SyntaxError: syntax error

tryItOut 264

tryItOut 265
Running threw: TypeError: [1].unwatch("__iterator__") has no properties

tryItOut 266
It's an iterator!
before 139520, after 139520, break 0153a000
before 139520, after 139520, break 0153a000
before 139520, after 139520, break 0153a000
Iterating threw!
Iterating threw: TypeError: undefined has no properties

tryItOut 267

tryItOut 268

tryItOut 269
Compiling threw: SyntaxError: invalid assignment left-hand side

tryItOut 270

tryItOut 271
Running threw: TypeError: this.zzz has no properties

tryItOut 272

tryItOut 273
before 139520, after 139520, break 0153a000

tryItOut 274

tryItOut 275
Compiling threw: TypeError: redeclaration of variable prop

tryItOut 276
Compiling threw: SyntaxError: missing variable name

tryItOut 277

tryItOut 278
Running threw: ReferenceError: window is not defined

tryItOut 279
Compiling threw: SyntaxError: invalid continue

tryItOut 280

tryItOut 281
Compiling threw: SyntaxError: missing ; before statement

tryItOut 282
Compiling threw: SyntaxError: missing } after let block

tryItOut 283
Compiling threw: SyntaxError: invalid XML tag syntax

tryItOut 284

tryItOut 285
Compiling threw: SyntaxError: label not found

tryItOut 286
Compiling threw: SyntaxError: missing { before function body

tryItOut 287
Compiling threw: SyntaxError: missing ] after element list

tryItOut 288
Compiling threw: SyntaxError: invalid for/in left-hand side

tryItOut 289
It's an iterator!
Iterating threw!
Iterating threw: SyntaxError: invalid assignment left-hand side

tryItOut 290

tryItOut 291
Compiling threw: SyntaxError: invalid decrement operand

tryItOut 292

tryItOut 293

tryItOut 294

tryItOut 295
Compiling threw: SyntaxError: invalid continue

tryItOut 296
Compiling threw: SyntaxError: missing ; before statement

tryItOut 297
Compiling threw: SyntaxError: yield expression must be parenthesized

tryItOut 298

tryItOut 299
Running threw: TypeError: this.zzz has no properties

tryItOut 300
Compiling threw: SyntaxError: invalid continue

tryItOut 301

tryItOut 302
Compiling threw: SyntaxError: missing = in destructuring declaration

tryItOut 303
Compiling threw: SyntaxError: missing ; after for-loop initializer

tryItOut 304

tryItOut 305

tryItOut 306

tryItOut 307

tryItOut 308
Compiling threw: TypeError: redeclaration of variable __parent__

tryItOut 309

tryItOut 310
Compiling threw: SyntaxError: syntax error

tryItOut 311

tryItOut 312
Compiling threw: SyntaxError: missing ) in parenthetical

tryItOut 313
Compiling threw: SyntaxError: invalid for/in left-hand side

tryItOut 314
Compiling threw: SyntaxError: syntax error

tryItOut 315
Compiling threw: SyntaxError: invalid for/in left-hand side

tryItOut 316

tryItOut 317

tryItOut 318
Compiling threw: SyntaxError: missing } after let block

tryItOut 319

tryItOut 320

tryItOut 321
Compiling threw: SyntaxError: syntax error

tryItOut 322
Compiling threw: SyntaxError: invalid for/in left-hand side

tryItOut 323

tryItOut 324
Compiling threw: SyntaxError: missing ; before statement

tryItOut 325
Compiling threw: SyntaxError: syntax error

tryItOut 326
Compiling threw: SyntaxError: missing ] after element list

tryItOut 327
before 139520, after 139520, break 0153a000

tryItOut 328
Running threw: ReferenceError: prototype is not defined

tryItOut 329
before 139520, after 139520, break 0153a000
before 139520, after 139520, break 0153a000
before 139520, after 139520, break 0153a000
before 139520, after 139520, break 0153a000

tryItOut 330
Running threw: ReferenceError: reference to undefined XML name *

tryItOut 331
Compiling threw: SyntaxError: invalid for/in left-hand side

tryItOut 332
Compiling threw: SyntaxError: syntax error

tryItOut 333

tryItOut 334
Compiling threw: SyntaxError: invalid break

tryItOut 335
Compiling threw: SyntaxError: missing variable name

tryItOut 336
before 139520, after 139520, break 0153a000

tryItOut 337

tryItOut 338

tryItOut 339
Compiling threw: SyntaxError: label not found

tryItOut 340
Compiling threw: SyntaxError: label not found

tryItOut 341
before 139520, after 139520, break 0153a000

tryItOut 342
Compiling threw: SyntaxError: missing name in export statement

tryItOut 343

tryItOut 344
Compiling threw: SyntaxError: invalid break

tryItOut 345

tryItOut 346
before 139520, after 139520, break 0153a000

tryItOut 347
Compiling threw: SyntaxError: syntax error

tryItOut 348
Compiling threw: SyntaxError: missing = in destructuring declaration

tryItOut 349
Compiling threw: SyntaxError: invalid for/in left-hand side

tryItOut 350
Compiling threw: SyntaxError: invalid assignment left-hand side

tryItOut 351
Compiling threw: SyntaxError: invalid continue

tryItOut 352
Compiling threw: SyntaxError: syntax error

tryItOut 353
Compiling threw: SyntaxError: invalid assignment left-hand side

tryItOut 354
Compiling threw: SyntaxError: missing ; before statement

tryItOut 355
Compiling threw: SyntaxError: missing ; before statement

tryItOut 356
Compiling threw: SyntaxError: missing ] after element list

tryItOut 357
Compiling threw: SyntaxError: syntax error

tryItOut 358
Compiling threw: SyntaxError: missing ) after condition

tryItOut 359

tryItOut 360
Compiling threw: SyntaxError: missing ; before statement

tryItOut 361

tryItOut 362

tryItOut 363
Compiling threw: SyntaxError: missing : after case label

tryItOut 364
Compiling threw: SyntaxError: missing } after let block

tryItOut 365
Running threw: ReferenceError: window is not defined

tryItOut 366

tryItOut 367
Running threw: ReferenceError: reference to undefined XML name *::*

tryItOut 368

tryItOut 369
Compiling threw: SyntaxError: missing ) in parenthetical

tryItOut 370
Compiling threw: TypeError: redeclaration of variable __noSuchMethod__

tryItOut 371
Compiling threw: SyntaxError: missing ] after element list

tryItOut 372
Running threw: [object Object]

tryItOut 373
before 139520, after 139520, break 0153a000

tryItOut 374
Compiling threw: SyntaxError: invalid assignment left-hand side

tryItOut 375
Compiling threw: SyntaxError: invalid continue

tryItOut 376

tryItOut 377
Compiling threw: SyntaxError: missing ; before statement

tryItOut 378
Running threw: ReferenceError: reference to undefined XML name *

tryItOut 379
Compiling threw: SyntaxError: missing name after . operator

tryItOut 380

tryItOut 381
Compiling threw: SyntaxError: missing ] after attribute expression

tryItOut 382

tryItOut 383

tryItOut 384
Compiling threw: SyntaxError: missing ; before statement

tryItOut 385
Running threw: ReferenceError: reference to undefined XML name *::*

tryItOut 386

tryItOut 387
Compiling threw: SyntaxError: syntax error

tryItOut 388
Compiling threw: SyntaxError: syntax error

tryItOut 389

tryItOut 390
Compiling threw: SyntaxError: invalid assignment left-hand side

tryItOut 391
Compiling threw: SyntaxError: missing ] after element list

tryItOut 392

tryItOut 393

tryItOut 394

tryItOut 395
Compiling threw: SyntaxError: missing = in destructuring declaration

tryItOut 396
Compiling threw: SyntaxError: invalid sharp variable definition

tryItOut 397

tryItOut 398
Compiling threw: SyntaxError: missing ) in parenthetical

tryItOut 399
Running threw: ReferenceError: reference to undefined XML name *

tryItOut 400

tryItOut 401

tryItOut 402
Running threw: null

tryItOut 403
Compiling threw: SyntaxError: missing = in destructuring declaration

tryItOut 404
It's an iterator!
Iterating succeeded, iterCount == 0

tryItOut 405
Compiling threw: SyntaxError: missing = in destructuring declaration

tryItOut 406
Compiling threw: SyntaxError: missing ] after element list

tryItOut 407
Compiling threw: SyntaxError: missing } after let block

tryItOut 408
Running threw: TypeError: this.zzz has no properties

tryItOut 409
Running threw: <y>
  <z/>
</y>

tryItOut 410
Compiling threw: SyntaxError: missing ; before statement

tryItOut 411

tryItOut 412
Compiling threw: SyntaxError: missing ; after for-loop initializer

tryItOut 413
Compiling threw: SyntaxError: syntax error

tryItOut 414
Compiling threw: SyntaxError: invalid assignment left-hand side

tryItOut 415

tryItOut 416
Running threw: ReferenceError: reference to undefined XML name @foo

tryItOut 417

tryItOut 418
Running threw: ReferenceError: reference to undefined XML name @foo

tryItOut 419
Compiling threw: SyntaxError: missing ) in parenthetical

tryItOut 420
Running threw: function Object() {
    [native code]
}

tryItOut 421

tryItOut 422

tryItOut 423
Running threw: ReferenceError: reference to undefined XML name *::*

tryItOut 424
Compiling threw: SyntaxError: missing ; before statement

tryItOut 425
Compiling threw: SyntaxError: syntax error

tryItOut 426
Compiling threw: SyntaxError: missing variable name

tryItOut 427
before 139520, after 139520, break 0153a000

tryItOut 428
Compiling threw: TypeError: redeclaration of const __count__

tryItOut 429

tryItOut 430
Running threw: ReferenceError: reference to undefined XML name *

tryItOut 431
Compiling threw: SyntaxError: label not found

tryItOut 432

tryItOut 433

tryItOut 434

tryItOut 435

tryItOut 436
Running threw: 

tryItOut 437

tryItOut 438
Compiling threw: SyntaxError: missing { before function body

tryItOut 439
Compiling threw: SyntaxError: invalid for/in left-hand side

tryItOut 440
Compiling threw: SyntaxError: invalid for/in left-hand side

tryItOut 441
Compiling threw: SyntaxError: missing variable name

tryItOut 442

tryItOut 443
Compiling threw: SyntaxError: label not found

tryItOut 444
Compiling threw: SyntaxError: missing ; before statement

tryItOut 445
Compiling threw: SyntaxError: missing ; before statement

tryItOut 446
Compiling threw: SyntaxError: invalid break

tryItOut 447

tryItOut 448

tryItOut 449
Compiling threw: SyntaxError: missing variable name

tryItOut 450

tryItOut 451
Compiling threw: SyntaxError: syntax error

tryItOut 452
Compiling threw: SyntaxError: missing ; before statement

tryItOut 453
Running threw: ReferenceError: prop is not defined

tryItOut 454
Compiling threw: SyntaxError: invalid assignment left-hand side

tryItOut 455
Compiling threw: SyntaxError: syntax error

tryItOut 456

tryItOut 457
Compiling threw: SyntaxError: missing ) in parenthetical

tryItOut 458
Compiling threw: SyntaxError: missing ; before statement

tryItOut 459
Compiling threw: SyntaxError: missing { before function body

tryItOut 460
Compiling threw: SyntaxError: label not found

tryItOut 461

tryItOut 462

tryItOut 463

tryItOut 464
Compiling threw: SyntaxError: missing ) after condition

tryItOut 465
Compiling threw: SyntaxError: missing formal parameter

tryItOut 466
Running threw: TypeError: arguments[0] has no properties

tryItOut 467
Running threw: TypeError: <x/>.yoyo is not a function

tryItOut 468

tryItOut 469

tryItOut 470

tryItOut 471
Compiling threw: SyntaxError: missing variable name

tryItOut 472
Compiling threw: SyntaxError: missing variable name

tryItOut 473
Running threw: ReferenceError: z1 is not defined

tryItOut 474
before 139520, after 139520, break 0153a000
Running threw: ReferenceError: prototype is not defined

tryItOut 475
Compiling threw: SyntaxError: missing ; before statement

tryItOut 476
Compiling threw: SyntaxError: missing ] after element list

tryItOut 477
Running threw: ReferenceError: reference to undefined XML name @foo

tryItOut 478
before 139520, after 139520, break 0153a000

tryItOut 479
Compiling threw: SyntaxError: invalid XML tag syntax

tryItOut 480
Compiling threw: SyntaxError: syntax error

tryItOut 481
Compiling threw: SyntaxError: missing variable name

tryItOut 482

tryItOut 483
Compiling threw: SyntaxError: invalid default XML namespace

tryItOut 484
Compiling threw: SyntaxError: invalid for/in left-hand side

tryItOut 485
Compiling threw: SyntaxError: invalid for/in left-hand side

tryItOut 486
Compiling threw: SyntaxError: label not found

tryItOut 487
Compiling threw: SyntaxError: label not found

tryItOut 488

tryItOut 489

tryItOut 490

tryItOut 491
Compiling threw: SyntaxError: syntax error

tryItOut 492
It's an iterator!
Iterating threw!
Iterating threw: ReferenceError: reference to undefined XML name @foo

tryItOut 493
Compiling threw: SyntaxError: invalid assignment left-hand side

tryItOut 494
Compiling threw: TypeError: redeclaration of variable prop

tryItOut 495
Compiling threw: SyntaxError: missing ] after element list

tryItOut 496
Compiling threw: SyntaxError: invalid for/in left-hand side

tryItOut 497

tryItOut 498
Compiling threw: SyntaxError: missing ] after element list

tryItOut 499

tryItOut 500
Compiling threw: SyntaxError: invalid destructuring assignment operator

tryItOut 501
Compiling threw: SyntaxError: missing ; before statement

tryItOut 502
Compiling threw: SyntaxError: missing variable name

tryItOut 503
Compiling threw: SyntaxError: invalid assignment left-hand side

tryItOut 504
Compiling threw: SyntaxError: invalid for/in left-hand side

tryItOut 505
Running threw: 108

tryItOut 506
Running threw: ReferenceError: reference to undefined XML name *::*

tryItOut 507
Compiling threw: SyntaxError: invalid for/in left-hand side

tryItOut 508
Running threw: ReferenceError: reference to undefined XML name *::*

tryItOut 509

tryItOut 510
Compiling threw: SyntaxError: invalid assignment left-hand side

tryItOut 511
It's an iterator!
Iterating succeeded, iterCount == 1

tryItOut 512
Compiling threw: SyntaxError: missing while after do-loop body

tryItOut 513

tryItOut 514
Running threw: ReferenceError: z2 is not defined

tryItOut 515
Compiling threw: SyntaxError: label not found

tryItOut 516
Compiling threw: SyntaxError: missing } after let block

tryItOut 517

tryItOut 518
Compiling threw: SyntaxError: invalid for/in left-hand side

tryItOut 519
Running threw: ReferenceError: window is not defined

tryItOut 520
Compiling threw: SyntaxError: missing ; before statement

tryItOut 521

tryItOut 522
Compiling threw: SyntaxError: syntax error

tryItOut 523
Compiling threw: SyntaxError: invalid sharp variable definition

tryItOut 524
Compiling threw: SyntaxError: invalid XML tag syntax

tryItOut 525
Compiling threw: SyntaxError: invalid assignment left-hand side

tryItOut 526

tryItOut 527
Compiling threw: SyntaxError: label not found

tryItOut 528
Running threw: ReferenceError: reference to undefined XML name *

tryItOut 529
Compiling threw: SyntaxError: missing { before function body

tryItOut 530
Compiling threw: SyntaxError: invalid for/in left-hand side

tryItOut 531
Running threw: TypeError: arguments[0] has no properties

tryItOut 532

tryItOut 533
It's an iterator!
Iterating threw!
Iterating threw: ReferenceError: reference to undefined XML name @foo

tryItOut 534
Compiling threw: SyntaxError: yield expression must be parenthesized

tryItOut 535
Compiling threw: SyntaxError: missing variable name

tryItOut 536
Running threw: [object global]

tryItOut 537
Compiling threw: SyntaxError: missing ; before statement

tryItOut 538
Running threw: ReferenceError: window is not defined

tryItOut 539
Compiling threw: SyntaxError: missing { before function body

tryItOut 540

tryItOut 541
Compiling threw: SyntaxError: invalid continue

tryItOut 542
Running threw: null

tryItOut 543
Compiling threw: SyntaxError: missing ; before statement

tryItOut 544

tryItOut 545
Running threw: TypeError: (function (__count__) {/x/(<x><y/></x>);}).applygc is not a function

tryItOut 546
Compiling threw: SyntaxError: invalid assignment left-hand side

tryItOut 547
Compiling threw: SyntaxError: missing { before function body

tryItOut 548
Compiling threw: SyntaxError: invalid property id

tryItOut 549
Compiling threw: SyntaxError: syntax error

tryItOut 550

tryItOut 551
Compiling threw: SyntaxError: label not found

tryItOut 552
Running threw: ReferenceError: prototype is not defined

tryItOut 553

tryItOut 554

tryItOut 555
It's an iterator!
Iterating threw!
Iterating threw: TypeError: undefined has no properties

tryItOut 556

tryItOut 557
Running threw: ReferenceError: window is not defined

tryItOut 558
Compiling threw: SyntaxError: invalid break

tryItOut 559
Compiling threw: SyntaxError: invalid assignment left-hand side

tryItOut 560

tryItOut 561
Compiling threw: SyntaxError: invalid destructuring assignment operator

tryItOut 562
Compiling threw: SyntaxError: label not found

tryItOut 563
Compiling threw: SyntaxError: missing ; before statement

tryItOut 564

tryItOut 565
Compiling threw: SyntaxError: missing ) in parenthetical

tryItOut 566
Running threw: [object global]

tryItOut 567

tryItOut 568

tryItOut 569
Running threw: TypeError: this.__lookupSetter__("__iterator__") has no properties

tryItOut 570
before 156960, after 156960, break 0155c000

tryItOut 571

tryItOut 572

tryItOut 573
Compiling threw: SyntaxError: label not found

tryItOut 574
Compiling threw: SyntaxError: missing { before function body

tryItOut 575

tryItOut 576

tryItOut 577

tryItOut 578

tryItOut 579
Running threw: <x>
  <y/>
</x>

tryItOut 580

tryItOut 581

tryItOut 582
Compiling threw: SyntaxError: missing ) in parenthetical

tryItOut 583
Compiling threw: SyntaxError: missing ; before statement

tryItOut 584
Running threw: ReferenceError: window is not defined

tryItOut 585
Running threw: ReferenceError: window is not defined

tryItOut 586

tryItOut 587
Compiling threw: SyntaxError: invalid continue

tryItOut 588
before 156960, after 156960, break 0155c000

tryItOut 589

tryItOut 590
Compiling threw: SyntaxError: missing variable name

tryItOut 591
Running threw: ReferenceError: window is not defined

tryItOut 592
before 156960, after 156960, break 0155c000

tryItOut 593

tryItOut 594

tryItOut 595

tryItOut 596
Compiling threw: SyntaxError: missing ] after element list

tryItOut 597
Compiling threw: SyntaxError: syntax error

tryItOut 598
Compiling threw: SyntaxError: unterminated comment

tryItOut 599
before 156960, after 156960, break 0155c000

tryItOut 600
Running threw: ReferenceError: reference to undefined XML name *::*

tryItOut 601
Compiling threw: SyntaxError: unterminated comment

tryItOut 602
Running threw: <y>
  <z/>
</y>

tryItOut 603
Compiling threw: SyntaxError: syntax error

tryItOut 604
Compiling threw: SyntaxError: missing variable name

tryItOut 605
Running threw: ReferenceError: window is not defined

tryItOut 606
Compiling threw: SyntaxError: syntax error

tryItOut 607
Compiling threw: SyntaxError: missing ; before statement

tryItOut 608
Running threw: ReferenceError: window is not defined

tryItOut 609
Compiling threw: SyntaxError: label not found

tryItOut 610

tryItOut 611
Compiling threw: TypeError: redeclaration of variable prototype

tryItOut 612
Compiling threw: SyntaxError: invalid for/in left-hand side

tryItOut 613
Compiling threw: SyntaxError: missing ] after element list

tryItOut 614
Running threw: ReferenceError: z2 is not defined

tryItOut 615
Compiling threw: SyntaxError: missing variable name

tryItOut 616

tryItOut 617
Compiling threw: SyntaxError: missing ; before statement

tryItOut 618
Running threw: function ([y]) {
}

tryItOut 619
Running threw: Error: invalid sharp variable use #1#

tryItOut 620

tryItOut 621
Compiling threw: SyntaxError: syntax error

tryItOut 622

tryItOut 623

tryItOut 624
Compiling threw: SyntaxError: yield expression must be parenthesized

tryItOut 625

tryItOut 626
Compiling threw: SyntaxError: label not found

tryItOut 627
Compiling threw: SyntaxError: label not found

tryItOut 628

tryItOut 629
Compiling threw: SyntaxError: label not found

tryItOut 630
Compiling threw: SyntaxError: duplicate label

tryItOut 631
Compiling threw: SyntaxError: missing { before function body

tryItOut 632
Compiling threw: SyntaxError: syntax error

tryItOut 633
Compiling threw: SyntaxError: missing ; before statement

tryItOut 634

tryItOut 635
Running threw: SyntaxError: invalid assignment left-hand side

tryItOut 636

tryItOut 637

tryItOut 638
Compiling threw: SyntaxError: missing ; before statement

tryItOut 639
Compiling threw: SyntaxError: invalid assignment left-hand side

tryItOut 640
Compiling threw: SyntaxError: invalid for/in left-hand side

tryItOut 641
Compiling threw: SyntaxError: syntax error

tryItOut 642

tryItOut 643
Compiling threw: SyntaxError: missing ; after for-loop initializer

tryItOut 644

tryItOut 645
It's an iterator!
before 156960, after 156960, break 0155c000
Iterating succeeded, iterCount == 1

tryItOut 646
Compiling threw: SyntaxError: missing { before function body

tryItOut 647
Compiling threw: SyntaxError: missing variable name

tryItOut 648
Running threw: <y>
  <z/>
</y>

tryItOut 649
Compiling threw: SyntaxError: missing ; before statement

tryItOut 650

tryItOut 651
before 156960, after 156960, break 0155c000

tryItOut 652
Running threw: ReferenceError: prototype is not defined

tryItOut 653
Compiling threw: SyntaxError: invalid sharp variable definition

tryItOut 654

tryItOut 655
Compiling threw: SyntaxError: invalid for/in left-hand side

tryItOut 656
Compiling threw: SyntaxError: missing ; before statement

tryItOut 657

tryItOut 658

tryItOut 659
Compiling threw: SyntaxError: label not found

tryItOut 660

tryItOut 661
Compiling threw: SyntaxError: missing = in destructuring declaration

tryItOut 662
Running threw: ReferenceError: window is not defined

tryItOut 663

tryItOut 664
Compiling threw: SyntaxError: illegal XML character

tryItOut 665
Compiling threw: SyntaxError: invalid destructuring assignment operator

tryItOut 666

tryItOut 667
Compiling threw: SyntaxError: missing { before function body

tryItOut 668
Compiling threw: SyntaxError: invalid for/in left-hand side

tryItOut 669
Compiling threw: SyntaxError: invalid for/in left-hand side

tryItOut 670
Running threw: ReferenceError: prototype is not defined

tryItOut 671
Compiling threw: SyntaxError: missing variable name

tryItOut 672

tryItOut 673
Compiling threw: SyntaxError: syntax error

tryItOut 674
Compiling threw: SyntaxError: missing ; before statement

tryItOut 675

tryItOut 676

tryItOut 677
Compiling threw: SyntaxError: invalid continue

tryItOut 678

tryItOut 679

tryItOut 680

tryItOut 681

tryItOut 682

tryItOut 683
Running threw: ReferenceError: window is not defined

tryItOut 684
Compiling threw: SyntaxError: missing ; after for-loop initializer

tryItOut 685
Compiling threw: SyntaxError: invalid for/in left-hand side

tryItOut 686
Running threw: ReferenceError: window is not defined

tryItOut 687
Compiling threw: SyntaxError: invalid sharp variable definition

tryItOut 688

tryItOut 689

tryItOut 690
Compiling threw: SyntaxError: invalid for/in left-hand side

tryItOut 691
Compiling threw: SyntaxError: missing ; before statement

tryItOut 692
It's an iterator!
Iterating threw!
Iterating threw: ReferenceError: reference to undefined XML name @foo

tryItOut 693

tryItOut 694

tryItOut 695
Compiling threw: SyntaxError: missing ) in parenthetical

tryItOut 696
Compiling threw: SyntaxError: missing ( before let head

tryItOut 697
Compiling threw: SyntaxError: label not found

tryItOut 698
before 156960, after 156960, break 0156d000
Running threw: TypeError: <y><z/></y>.yoyo is not a function

tryItOut 699

tryItOut 700
Compiling threw: SyntaxError: missing variable name

tryItOut 701

tryItOut 702

tryItOut 703
Running threw: /x/g

tryItOut 704
Running threw: ReferenceError: reference to undefined XML name @foo

tryItOut 705

tryItOut 706
Compiling threw: SyntaxError: invalid for/in left-hand side

tryItOut 707
Running threw: 

tryItOut 708
Compiling threw: SyntaxError: missing ) in parenthetical

tryItOut 709
before 156960, after 156960, break 0156d000

tryItOut 710

tryItOut 711
Running threw: ReferenceError: reference to undefined XML name @foo

tryItOut 712

tryItOut 713

tryItOut 714

tryItOut 715

tryItOut 716

tryItOut 717
Compiling threw: SyntaxError: missing } after let block

tryItOut 718
Compiling threw: SyntaxError: missing } after let block

tryItOut 719
before 156960, after 156960, break 0156d000

tryItOut 720
Compiling threw: SyntaxError: missing { before function body

tryItOut 721
Compiling threw: SyntaxError: invalid assignment left-hand side

tryItOut 722
Compiling threw: SyntaxError: syntax error

tryItOut 723
Running threw: ReferenceError: reference to undefined XML name @foo

tryItOut 724

tryItOut 725

tryItOut 726
Running threw: TypeError: this.zzz has no properties

tryItOut 727

tryItOut 728

tryItOut 729
Running threw: [object Object]

tryItOut 730

tryItOut 731
Compiling threw: SyntaxError: missing variable name

tryItOut 732

tryItOut 733
Compiling threw: SyntaxError: label not found

tryItOut 734
Compiling threw: SyntaxError: invalid for/in left-hand side

tryItOut 735

tryItOut 736

tryItOut 737

tryItOut 738

tryItOut 739
Compiling threw: SyntaxError: invalid break

tryItOut 740
Compiling threw: SyntaxError: missing { before function body

tryItOut 741
Compiling threw: SyntaxError: invalid assignment left-hand side

tryItOut 742
Compiling threw: SyntaxError: missing { before function body

tryItOut 743
Running threw: TypeError: this.zzz has no properties

tryItOut 744
Compiling threw: SyntaxError: missing } after let block

tryItOut 745

tryItOut 746
Running threw: ReferenceError: z1 is not defined

tryItOut 747
Compiling threw: SyntaxError: missing } after let block

tryItOut 748
Compiling threw: SyntaxError: yield expression must be parenthesized

tryItOut 749
Running threw: ReferenceError: window is not defined

tryItOut 750
Compiling threw: TypeError: redeclaration of variable prop

tryItOut 751
Compiling threw: SyntaxError: invalid assignment left-hand side

tryItOut 752
Compiling threw: SyntaxError: missing ; after for-loop initializer

tryItOut 753

tryItOut 754
Compiling threw: SyntaxError: missing variable name

tryItOut 755
Compiling threw: SyntaxError: missing ; before statement

tryItOut 756
Compiling threw: SyntaxError: syntax error

tryItOut 757

tryItOut 758

tryItOut 759
Running threw: ReferenceError: prototype is not defined

tryItOut 760
Compiling threw: SyntaxError: missing ] after element list

tryItOut 761
Compiling threw: SyntaxError: syntax error

tryItOut 762
Running threw: TypeError: this.zzz has no properties

tryItOut 763

tryItOut 764

tryItOut 765

tryItOut 766

tryItOut 767
Compiling threw: SyntaxError: missing ) in parenthetical

tryItOut 768
Running threw: [object global]

tryItOut 769

tryItOut 770
Running threw: TypeError: this.zzz has no properties

tryItOut 771
Running threw: ReferenceError: window is not defined

tryItOut 772
Running threw: ReferenceError: prototype is not defined

tryItOut 773
Compiling threw: SyntaxError: missing ) in parenthetical

tryItOut 774
Compiling threw: SyntaxError: illegal XML character

tryItOut 775
Compiling threw: SyntaxError: label not found

tryItOut 776

tryItOut 777
Running threw: <y>
  <z/>
</y>

tryItOut 778
Compiling threw: SyntaxError: missing ; before statement

tryItOut 779
Compiling threw: SyntaxError: missing name in export statement

tryItOut 780
Compiling threw: SyntaxError: missing ) in parenthetical

tryItOut 781
before 191840, after 191840, break 01582000

tryItOut 782

tryItOut 783
Compiling threw: SyntaxError: missing { before function body

tryItOut 784

tryItOut 785
Compiling threw: SyntaxError: syntax error

tryItOut 786
Running threw: ReferenceError: reference to undefined XML name *

tryItOut 787

tryItOut 788
Compiling threw: SyntaxError: label not found

tryItOut 789

tryItOut 790

tryItOut 791
Compiling threw: SyntaxError: syntax error

tryItOut 792

tryItOut 793
Compiling threw: SyntaxError: invalid assignment left-hand side

tryItOut 794
Compiling threw: SyntaxError: label not found

tryItOut 795

tryItOut 796
Compiling threw: SyntaxError: missing variable name

tryItOut 797
Compiling threw: TypeError: redeclaration of variable __proto__

tryItOut 798
Compiling threw: SyntaxError: syntax error

tryItOut 799

tryItOut 800
Compiling threw: SyntaxError: missing ) after condition

tryItOut 801
Running threw: ReferenceError: prototype is not defined

tryItOut 802
Running threw: 0

tryItOut 803

tryItOut 804

tryItOut 805
Compiling threw: SyntaxError: missing } after let block

tryItOut 806

tryItOut 807

tryItOut 808
Running threw: ReferenceError: reference to undefined XML name *::*

tryItOut 809

tryItOut 810

tryItOut 811
Running threw: ReferenceError: z2 is not defined

tryItOut 812

tryItOut 813

tryItOut 814
Compiling threw: SyntaxError: invalid for/in left-hand side

tryItOut 815
Compiling threw: SyntaxError: invalid continue

tryItOut 816

tryItOut 817
Compiling threw: SyntaxError: unterminated parenthetical

tryItOut 818
Compiling threw: SyntaxError: missing variable name

tryItOut 819

tryItOut 820
Compiling threw: SyntaxError: missing { before function body

tryItOut 821
Running threw: ReferenceError: window is not defined

tryItOut 822

tryItOut 823
Running threw: TypeError: this.zzz has no properties

tryItOut 824
Compiling threw: SyntaxError: missing ] after element list

tryItOut 825
Compiling threw: SyntaxError: invalid for/in left-hand side

tryItOut 826

tryItOut 827
Compiling threw: SyntaxError: syntax error

tryItOut 828
Compiling threw: SyntaxError: invalid for/in left-hand side

tryItOut 829
Compiling threw: SyntaxError: syntax error

tryItOut 830
Running threw: 

tryItOut 831
Compiling threw: SyntaxError: invalid break

tryItOut 832
Compiling threw: SyntaxError: missing ) in parenthetical

tryItOut 833
Compiling threw: SyntaxError: invalid for/in left-hand side

tryItOut 834

tryItOut 835

tryItOut 836

tryItOut 837

tryItOut 838
Compiling threw: SyntaxError: missing ; before statement

tryItOut 839
Compiling threw: SyntaxError: invalid assignment left-hand side

tryItOut 840
before 191840, after 191840, break 01582000

tryItOut 841
Compiling threw: SyntaxError: invalid break

tryItOut 842

tryItOut 843
Compiling threw: SyntaxError: invalid break

tryItOut 844
Compiling threw: SyntaxError: missing variable name

tryItOut 845
before 191840, after 191840, break 01582000

tryItOut 846
Compiling threw: SyntaxError: syntax error

tryItOut 847
Compiling threw: SyntaxError: invalid assignment left-hand side

tryItOut 848

tryItOut 849
Running threw: TypeError: this.zzz has no properties

tryItOut 850
Compiling threw: SyntaxError: missing ) in parenthetical

tryItOut 851

tryItOut 852

tryItOut 853
Compiling threw: SyntaxError: invalid decrement operand

tryItOut 854
Compiling threw: TypeError: redeclaration of variable __parent__

tryItOut 855
Compiling threw: SyntaxError: missing ) in parenthetical

tryItOut 856
Compiling threw: SyntaxError: invalid for/in left-hand side

tryItOut 857
Compiling threw: SyntaxError: missing ) in parenthetical

tryItOut 858
Compiling threw: SyntaxError: missing while after do-loop body

tryItOut 859

tryItOut 860

tryItOut 861

tryItOut 862
Running threw: ReferenceError: prototype is not defined

tryItOut 863

tryItOut 864
Compiling threw: SyntaxError: label not found

tryItOut 865
Compiling threw: SyntaxError: missing variable name

tryItOut 866
before 191840, after 191840, break 01582000

tryItOut 867
Compiling threw: SyntaxError: invalid assignment left-hand side

tryItOut 868
Compiling threw: SyntaxError: invalid for/in left-hand side

tryItOut 869
Compiling threw: SyntaxError: invalid for/in left-hand side

tryItOut 870
Compiling threw: SyntaxError: syntax error

tryItOut 871

tryItOut 872
Running threw: ReferenceError: reference to undefined XML name @foo

tryItOut 873
Compiling threw: SyntaxError: syntax error

tryItOut 874
Compiling threw: SyntaxError: missing ; before statement

tryItOut 875
Compiling threw: SyntaxError: invalid property id

tryItOut 876
Compiling threw: SyntaxError: invalid decrement operand

tryItOut 877

tryItOut 878
Running threw: ReferenceError: reference to undefined XML name @foo

tryItOut 879

tryItOut 880
Compiling threw: SyntaxError: invalid switch statement

tryItOut 881

tryItOut 882
Running threw: ReferenceError: reference to undefined XML name @foo

tryItOut 883

tryItOut 884

tryItOut 885
Compiling threw: SyntaxError: syntax error

tryItOut 886
Compiling threw: SyntaxError: missing ) after for-loop control

tryItOut 887

tryItOut 888

tryItOut 889
Running threw: SyntaxError: invalid setter usage

tryItOut 890
Compiling threw: SyntaxError: invalid assignment left-hand side

tryItOut 891

tryItOut 892
Compiling threw: SyntaxError: invalid continue

tryItOut 893
Running threw: ReferenceError: window is not defined

tryItOut 894
Compiling threw: SyntaxError: missing ) after condition

tryItOut 895
Compiling threw: SyntaxError: invalid for/in left-hand side

tryItOut 896
Compiling threw: SyntaxError: missing ) in parenthetical

tryItOut 897
Compiling threw: SyntaxError: missing variable name

tryItOut 898

tryItOut 899
Compiling threw: SyntaxError: missing = in destructuring declaration

tryItOut 900
Running threw: ReferenceError: Exception is not defined

tryItOut 901

tryItOut 902
Compiling threw: SyntaxError: missing ) in parenthetical

tryItOut 903
Running threw: 110

tryItOut 904
Running threw: TypeError: uneval("")[gc] has no properties

tryItOut 905

tryItOut 906

tryItOut 907
Running threw: 0

tryItOut 908

tryItOut 909
Running threw: TypeError: this.zzz has no properties

tryItOut 910
Compiling threw: SyntaxError: invalid for/in left-hand side

tryItOut 911

tryItOut 912

tryItOut 913
Compiling threw: SyntaxError: invalid for/in left-hand side

tryItOut 914
Running threw: TypeError: this.zzz has no properties

tryItOut 915
Compiling threw: SyntaxError: missing { before function body

tryItOut 916
Running threw: ReferenceError: window is not defined

tryItOut 917
Compiling threw: SyntaxError: missing = in destructuring declaration

tryItOut 918
Compiling threw: SyntaxError: missing ) after with-statement object

tryItOut 919

tryItOut 920
Compiling threw: TypeError: redeclaration of variable __iterator__

tryItOut 921
Compiling threw: SyntaxError: missing ; before statement

tryItOut 922

tryItOut 923
Compiling threw: SyntaxError: missing ; before statement

tryItOut 924
Compiling threw: SyntaxError: syntax error

tryItOut 925
Running threw: ReferenceError: window is not defined

tryItOut 926

tryItOut 927

tryItOut 928
Running threw: ReferenceError: window is not defined

tryItOut 929
Compiling threw: SyntaxError: syntax error

tryItOut 930
Compiling threw: SyntaxError: invalid for/in left-hand side

tryItOut 931
before 191840, after 191840, break 01593000

tryItOut 932
Compiling threw: SyntaxError: unterminated string literal

tryItOut 933

tryItOut 934
Running threw: 

tryItOut 935
Running threw: TypeError: NaN is not a constructor

tryItOut 936

tryItOut 937

tryItOut 938
Compiling threw: SyntaxError: label not found

tryItOut 939
Compiling threw: SyntaxError: invalid for/in left-hand side

tryItOut 940
Running threw: ReferenceError: window is not defined

tryItOut 941
Compiling threw: SyntaxError: invalid for/in left-hand side

tryItOut 942
Compiling threw: SyntaxError: missing ] after element list

tryItOut 943
Compiling threw: SyntaxError: syntax error

tryItOut 944

tryItOut 945

tryItOut 946
Running threw: Error: invalid sharp variable use #1#

tryItOut 947

tryItOut 948
Compiling threw: SyntaxError: missing ; after for-loop initializer

tryItOut 949
Compiling threw: SyntaxError: invalid for/in left-hand side

tryItOut 950
Compiling threw: SyntaxError: invalid continue

tryItOut 951
Running threw: 

tryItOut 952

tryItOut 953
before 191840, after 191840, break 015a3000
before 191840, after 191840, break 015a3000
before 191840, after 191840, break 015a3000
before 191840, after 191840, break 015a3000

tryItOut 954
Compiling threw: SyntaxError: invalid break

tryItOut 955
Compiling threw: SyntaxError: invalid break

tryItOut 956
Compiling threw: TypeError: redeclaration of const constructor

tryItOut 957
Compiling threw: SyntaxError: missing ; before statement

tryItOut 958
Compiling threw: SyntaxError: missing } after let block

tryItOut 959
Compiling threw: SyntaxError: missing ) in parenthetical

tryItOut 960
Compiling threw: SyntaxError: invalid assignment left-hand side

tryItOut 961
Compiling threw: SyntaxError: invalid assignment left-hand side

tryItOut 962

tryItOut 963
Compiling threw: SyntaxError: missing { before function body

tryItOut 964
Running threw: ReferenceError: reference to undefined XML name *

tryItOut 965
Compiling threw: SyntaxError: label not found

tryItOut 966
Compiling threw: SyntaxError: invalid for/in left-hand side

tryItOut 967
Running threw: 

tryItOut 968
Compiling threw: SyntaxError: missing name after . operator

tryItOut 969
Compiling threw: SyntaxError: syntax error

tryItOut 970

tryItOut 971
Compiling threw: SyntaxError: syntax error

tryItOut 972
Compiling threw: SyntaxError: missing ) after condition

tryItOut 973

tryItOut 974
Compiling threw: SyntaxError: missing ( before let head

tryItOut 975

tryItOut 976
Compiling threw: SyntaxError: invalid for/in left-hand side

tryItOut 977

tryItOut 978
Compiling threw: SyntaxError: missing ; after for-loop initializer

tryItOut 979

tryItOut 980
Compiling threw: SyntaxError: invalid assignment left-hand side

tryItOut 981

tryItOut 982

tryItOut 983
Running threw: ReferenceError: window is not defined

tryItOut 984
Compiling threw: SyntaxError: invalid for/in left-hand side

tryItOut 985

tryItOut 986

tryItOut 987
Compiling threw: SyntaxError: missing ) after condition

tryItOut 988
Compiling threw: SyntaxError: syntax error

tryItOut 989
Running threw: 

tryItOut 990

tryItOut 991
Compiling threw: SyntaxError: missing variable name

tryItOut 992
Running threw: ReferenceError: reference to undefined XML name *

tryItOut 993
Compiling threw: SyntaxError: missing ; before statement

tryItOut 994
Compiling threw: SyntaxError: syntax error

tryItOut 995

tryItOut 996
Compiling threw: SyntaxError: invalid for/in left-hand side

tryItOut 997

tryItOut 998

tryItOut 999
Compiling threw: SyntaxError: invalid break

tryItOut 1000
Compiling threw: SyntaxError: missing ; after for-loop initializer

ALL OK

Script done on Sat 04 May 2013 05:42:50 AM PDT
