Script started on Sat 04 May 2013 05:49:03 AM PDT
***
Targeting SpiderMonkey / Gecko.

tryItOut 1
Compiling threw: SyntaxError: missing variable name

tryItOut 2
Compiling threw: SyntaxError: invalid break

tryItOut 3
Compiling threw: SyntaxError: missing ; after for-loop initializer

tryItOut 4
Compiling threw: SyntaxError: missing ( before let head

tryItOut 5

tryItOut 6
Compiling threw: SyntaxError: invalid for/in left-hand side

tryItOut 7

tryItOut 8
Compiling threw: SyntaxError: missing ; before statement

tryItOut 9

tryItOut 10

tryItOut 11

tryItOut 12
Compiling threw: SyntaxError: missing { before function body

tryItOut 13

tryItOut 14
Compiling threw: SyntaxError: invalid assignment left-hand side

tryItOut 15
Compiling threw: SyntaxError: syntax error

tryItOut 16
Compiling threw: SyntaxError: label not found

tryItOut 17

tryItOut 18
Running threw: 1.3

tryItOut 19
Compiling threw: SyntaxError: invalid assignment left-hand side

tryItOut 20
Compiling threw: SyntaxError: missing { before function body

tryItOut 21
Compiling threw: SyntaxError: invalid break

tryItOut 22
Compiling threw: SyntaxError: syntax error

tryItOut 23
Compiling threw: SyntaxError: invalid break

tryItOut 24

tryItOut 25
Running threw: 

tryItOut 26

tryItOut 27

tryItOut 28

tryItOut 29
Compiling threw: SyntaxError: invalid XML name

tryItOut 30

tryItOut 31

tryItOut 32
Running threw: ReferenceError: z1 is not defined

tryItOut 33
Compiling threw: SyntaxError: invalid destructuring assignment operator

tryItOut 34
Compiling threw: SyntaxError: missing ; before statement

tryItOut 35
Running threw: ReferenceError: reference to undefined XML name *::*

tryItOut 36
Compiling threw: SyntaxError: missing = in destructuring declaration

tryItOut 37
Compiling threw: SyntaxError: label not found

tryItOut 38
Running threw: [object StopIteration]

tryItOut 39
Compiling threw: SyntaxError: syntax error

tryItOut 40

tryItOut 41

tryItOut 42
Running threw: ReferenceError: __iterator__ is not defined

tryItOut 43
Running threw: ReferenceError: __iterator__ is not defined

tryItOut 44
Running threw: [object StopIteration]

tryItOut 45

tryItOut 46

tryItOut 47

tryItOut 48
Running threw: ReferenceError: prototype is not defined

tryItOut 49

tryItOut 50

tryItOut 51

tryItOut 52

tryItOut 53

tryItOut 54
Compiling threw: SyntaxError: missing ] after element list

tryItOut 55
Compiling threw: SyntaxError: invalid assignment left-hand side

tryItOut 56
Compiling threw: SyntaxError: missing ; before statement

tryItOut 57
Compiling threw: SyntaxError: syntax error

tryItOut 58
Compiling threw: SyntaxError: syntax error

tryItOut 59
Compiling threw: SyntaxError: missing } after let block

tryItOut 60
Compiling threw: SyntaxError: invalid assignment left-hand side

tryItOut 61
Compiling threw: SyntaxError: invalid continue

tryItOut 62
Compiling threw: SyntaxError: missing ) in parenthetical

tryItOut 63

tryItOut 64

tryItOut 65

tryItOut 66
Compiling threw: SyntaxError: invalid break

tryItOut 67

tryItOut 68

tryItOut 69
Compiling threw: SyntaxError: missing = in destructuring declaration

tryItOut 70
Compiling threw: SyntaxError: missing variable name

tryItOut 71

tryItOut 72
Running threw: TypeError: p.z = 3.141592653589793 is not a function

tryItOut 73
Compiling threw: SyntaxError: syntax error

tryItOut 74
Compiling threw: SyntaxError: label not found

tryItOut 75
Compiling threw: SyntaxError: invalid assignment left-hand side

tryItOut 76

tryItOut 77
Compiling threw: SyntaxError: invalid for/in left-hand side

tryItOut 78

tryItOut 79
Compiling threw: SyntaxError: invalid for/in left-hand side

tryItOut 80

tryItOut 81

tryItOut 82
Compiling threw: SyntaxError: invalid for/in left-hand side

tryItOut 83
Compiling threw: SyntaxError: invalid for/in left-hand side

tryItOut 84
Compiling threw: SyntaxError: missing variable name

tryItOut 85
Compiling threw: SyntaxError: label not found

tryItOut 86
Compiling threw: SyntaxError: invalid for/in left-hand side

tryItOut 87
Compiling threw: SyntaxError: missing { before function body

tryItOut 88

tryItOut 89
Compiling threw: SyntaxError: invalid for/in left-hand side

tryItOut 90
Compiling threw: SyntaxError: invalid assignment left-hand side

tryItOut 91

tryItOut 92
Compiling threw: SyntaxError: missing ] after element list

tryItOut 93

tryItOut 94
Compiling threw: SyntaxError: missing { before function body

tryItOut 95
Compiling threw: SyntaxError: missing ; before statement

tryItOut 96
Compiling threw: SyntaxError: invalid assignment left-hand side

tryItOut 97

tryItOut 98
Compiling threw: SyntaxError: invalid for/in left-hand side

tryItOut 99
Compiling threw: SyntaxError: invalid XML name

tryItOut 100

tryItOut 101

tryItOut 102

tryItOut 103
Compiling threw: SyntaxError: missing { before function body

tryItOut 104
Compiling threw: SyntaxError: syntax error

tryItOut 105
Running threw: ReferenceError: reference to undefined XML name @foo

tryItOut 106

tryItOut 107
Compiling threw: SyntaxError: syntax error

tryItOut 108
Compiling threw: SyntaxError: syntax error

tryItOut 109
Running threw: ReferenceError: z1 is not defined

tryItOut 110
Running threw: ReferenceError: z1 is not defined

tryItOut 111
Compiling threw: SyntaxError: illegal XML character

tryItOut 112
Compiling threw: SyntaxError: missing ; before statement

tryItOut 113

tryItOut 114
Compiling threw: SyntaxError: invalid for/in left-hand side

tryItOut 115
Compiling threw: SyntaxError: syntax error

tryItOut 116
Compiling threw: SyntaxError: label not found

tryItOut 117
Running threw: -1

tryItOut 118
Compiling threw: SyntaxError: invalid continue

tryItOut 119
Running threw: ReferenceError: prototype is not defined

tryItOut 120

tryItOut 121
Running threw: ReferenceError: reference to undefined XML name @foo

tryItOut 122
uneval returned the string: ({prototype:(new Number(0))})
Skipping re-eval test

tryItOut 123

tryItOut 124
Compiling threw: SyntaxError: invalid for/in left-hand side

tryItOut 125

tryItOut 126
Compiling threw: SyntaxError: syntax error

tryItOut 127

tryItOut 128
Compiling threw: SyntaxError: invalid continue

tryItOut 129

tryItOut 130
Compiling threw: SyntaxError: syntax error

tryItOut 131
Compiling threw: SyntaxError: invalid continue

tryItOut 132

tryItOut 133

tryItOut 134
Compiling threw: SyntaxError: missing { before function body

tryItOut 135
Running threw: [object StopIteration]

tryItOut 136
Compiling threw: SyntaxError: syntax error

tryItOut 137
Compiling threw: SyntaxError: label not found

tryItOut 138
Running threw: ReferenceError: reference to undefined XML name @foo

tryItOut 139
Compiling threw: SyntaxError: syntax error

tryItOut 140
Compiling threw: SyntaxError: missing ; before statement

tryItOut 141
Compiling threw: SyntaxError: syntax error

tryItOut 142

tryItOut 143

tryItOut 144
Compiling threw: SyntaxError: syntax error

tryItOut 145
Compiling threw: SyntaxError: missing variable name

tryItOut 146
Compiling threw: SyntaxError: missing ; after for-loop initializer

tryItOut 147
Compiling threw: SyntaxError: invalid for/in left-hand side

tryItOut 148

tryItOut 149

tryItOut 150

tryItOut 151
Compiling threw: SyntaxError: missing = in destructuring declaration

tryItOut 152
Compiling threw: SyntaxError: missing ) after for-loop control

tryItOut 153
Compiling threw: SyntaxError: invalid for/in left-hand side

tryItOut 154
Running threw: [object StopIteration]

tryItOut 155
Compiling threw: SyntaxError: label not found

tryItOut 156
Running threw: SyntaxError: invalid getter usage

tryItOut 157
Compiling threw: SyntaxError: invalid continue

tryItOut 158
Running threw: ReferenceError: prototype is not defined

tryItOut 159

tryItOut 160
Compiling threw: SyntaxError: missing { before function body

tryItOut 161

tryItOut 162
Compiling threw: SyntaxError: missing = in destructuring declaration

tryItOut 163
Running threw: ReferenceError: reference to undefined XML name *::*

tryItOut 164
Running threw: [object StopIteration]

tryItOut 165

tryItOut 166
Compiling threw: SyntaxError: missing { before function body

tryItOut 167
Compiling threw: SyntaxError: invalid break

tryItOut 168
Compiling threw: SyntaxError: invalid assignment left-hand side

tryItOut 169

tryItOut 170

tryItOut 171
Compiling threw: SyntaxError: missing = in destructuring declaration

tryItOut 172

tryItOut 173
Running threw: TypeError: arguments[0] has no properties

tryItOut 174

tryItOut 175
Compiling threw: SyntaxError: invalid property id

tryItOut 176
Compiling threw: SyntaxError: syntax error

tryItOut 177
Compiling threw: SyntaxError: invalid for/in left-hand side

tryItOut 178
Compiling threw: SyntaxError: missing variable name

tryItOut 179

tryItOut 180

tryItOut 181
Compiling threw: SyntaxError: syntax error

tryItOut 182

tryItOut 183
Compiling threw: SyntaxError: invalid continue

tryItOut 184

tryItOut 185
Compiling threw: SyntaxError: missing = in destructuring declaration

tryItOut 186
Compiling threw: SyntaxError: invalid break

tryItOut 187
Running threw: ReferenceError: reference to undefined XML name *::*

tryItOut 188

tryItOut 189
Compiling threw: SyntaxError: syntax error

tryItOut 190

tryItOut 191
Compiling threw: SyntaxError: missing variable name

tryItOut 192
Compiling threw: SyntaxError: missing } in compound statement

tryItOut 193

tryItOut 194
Compiling threw: SyntaxError: invalid assignment left-hand side

tryItOut 195
Compiling threw: SyntaxError: missing name after . operator

tryItOut 196
Compiling threw: SyntaxError: missing name after . operator

tryItOut 197
Compiling threw: SyntaxError: duplicate label

tryItOut 198
Compiling threw: SyntaxError: missing variable name

tryItOut 199
Compiling threw: SyntaxError: syntax error

tryItOut 200
Running threw: ReferenceError: __noSuchMethod__ is not defined

tryItOut 201
Compiling threw: SyntaxError: missing ; before statement

tryItOut 202
Running threw: ReferenceError: reference to undefined XML name @foo

tryItOut 203
Running threw: ReferenceError: reference to undefined XML name *

tryItOut 204

tryItOut 205

tryItOut 206
Compiling threw: SyntaxError: invalid assignment left-hand side

tryItOut 207

tryItOut 208

tryItOut 209
Compiling threw: SyntaxError: invalid assignment left-hand side

tryItOut 210

tryItOut 211

tryItOut 212
Compiling threw: SyntaxError: invalid assignment left-hand side

tryItOut 213

tryItOut 214

tryItOut 215
Compiling threw: SyntaxError: syntax error

tryItOut 216
Compiling threw: SyntaxError: label not found

tryItOut 217
Compiling threw: SyntaxError: invalid for/in left-hand side

tryItOut 218
Running threw: [object StopIteration]

tryItOut 219

tryItOut 220
Compiling threw: SyntaxError: missing variable name

tryItOut 221
Compiling threw: TypeError: redeclaration of variable __count__

tryItOut 222
It's an iterator!
Iterating succeeded, iterCount == 1

tryItOut 223

tryItOut 224
Running threw: TypeError: this.zzz has no properties

tryItOut 225

tryItOut 226
Compiling threw: SyntaxError: missing variable name

tryItOut 227
Running threw: [object StopIteration]

tryItOut 228
Compiling threw: SyntaxError: illegal XML character

tryItOut 229

tryItOut 230

tryItOut 231
Compiling threw: SyntaxError: invalid XML name

tryItOut 232
Running threw: ReferenceError: z2 is not defined

tryItOut 233
Compiling threw: SyntaxError: invalid XML tag syntax

tryItOut 234

tryItOut 235

tryItOut 236
Compiling threw: SyntaxError: syntax error

tryItOut 237
Compiling threw: SyntaxError: invalid for/in left-hand side

tryItOut 238
Compiling threw: SyntaxError: syntax error

tryItOut 239

tryItOut 240

tryItOut 241
Compiling threw: SyntaxError: invalid for each loop

tryItOut 242
Compiling threw: SyntaxError: label not found

tryItOut 243
Compiling threw: SyntaxError: missing variable name

tryItOut 244
Compiling threw: SyntaxError: invalid assignment left-hand side

tryItOut 245

tryItOut 246
Running threw: null

tryItOut 247

tryItOut 248
Compiling threw: SyntaxError: label not found

tryItOut 249
Running threw: ReferenceError: reference to undefined XML name *::*

tryItOut 250
Compiling threw: SyntaxError: invalid continue

tryItOut 251
Compiling threw: SyntaxError: missing variable name

tryItOut 252
Compiling threw: SyntaxError: syntax error

tryItOut 253
Running threw: TypeError: 27 is not a function

tryItOut 254

tryItOut 255
Compiling threw: SyntaxError: label not found

tryItOut 256

tryItOut 257
Compiling threw: SyntaxError: syntax error

tryItOut 258
Compiling threw: SyntaxError: invalid destructuring assignment operator

tryItOut 259
Compiling threw: SyntaxError: label not found

tryItOut 260

tryItOut 261
Compiling threw: SyntaxError: invalid for/in left-hand side

tryItOut 262
Compiling threw: SyntaxError: invalid for/in left-hand side

tryItOut 263

tryItOut 264

tryItOut 265
Compiling threw: SyntaxError: invalid break

tryItOut 266

tryItOut 267
Compiling threw: SyntaxError: invalid break

tryItOut 268

tryItOut 269
Compiling threw: SyntaxError: missing } in XML expression

tryItOut 270
Compiling threw: SyntaxError: missing { before function body

tryItOut 271

tryItOut 272

tryItOut 273
Compiling threw: SyntaxError: missing } after let block

tryItOut 274

tryItOut 275

tryItOut 276
Running threw: TypeError: /x/g.__lookupGetter__("prototype") has no properties

tryItOut 277
Compiling threw: SyntaxError: missing ( before formal parameters

tryItOut 278

tryItOut 279
Compiling threw: SyntaxError: invalid for each loop

tryItOut 280
Compiling threw: SyntaxError: missing } after property list

tryItOut 281

tryItOut 282
Compiling threw: SyntaxError: missing ; before statement

tryItOut 283
Compiling threw: SyntaxError: syntax error

tryItOut 284

tryItOut 285
Compiling threw: SyntaxError: illegal XML character

tryItOut 286
Compiling threw: SyntaxError: invalid continue

tryItOut 287
Compiling threw: SyntaxError: invalid assignment left-hand side

tryItOut 288

tryItOut 289

tryItOut 290
It's an iterator!
Iterating succeeded, iterCount == 1

tryItOut 291
Compiling threw: TypeError: generator function anonymous returns a value

tryItOut 292

tryItOut 293
Compiling threw: SyntaxError: syntax error

tryItOut 294

tryItOut 295

tryItOut 296

tryItOut 297

tryItOut 298
Running threw: ReferenceError: reference to undefined XML name *::*

tryItOut 299

tryItOut 300

tryItOut 301
Compiling threw: SyntaxError: syntax error

tryItOut 302
Compiling threw: SyntaxError: invalid assignment left-hand side

tryItOut 303
Running threw: ReferenceError: prop is not defined

tryItOut 304

tryItOut 305

tryItOut 306
Running threw: [object StopIteration]

tryItOut 307
Running threw: ReferenceError: reference to undefined XML name *::*

tryItOut 308
Compiling threw: SyntaxError: missing variable name

tryItOut 309
Compiling threw: SyntaxError: label not found

tryItOut 310
Compiling threw: SyntaxError: missing ) in parenthetical

tryItOut 311
Compiling threw: SyntaxError: invalid assignment left-hand side

tryItOut 312

tryItOut 313

tryItOut 314

tryItOut 315
Compiling threw: SyntaxError: invalid assignment left-hand side

tryItOut 316

tryItOut 317

tryItOut 318
Compiling threw: SyntaxError: missing ) after condition

tryItOut 319

tryItOut 320

tryItOut 321

tryItOut 322

tryItOut 323
Compiling threw: SyntaxError: missing variable name

tryItOut 324
Compiling threw: SyntaxError: missing variable name

tryItOut 325
Compiling threw: SyntaxError: invalid XML name

tryItOut 326

tryItOut 327
Compiling threw: SyntaxError: missing name after . operator

tryItOut 328
Compiling threw: SyntaxError: missing ; before statement

tryItOut 329
Compiling threw: SyntaxError: invalid XML list syntax

tryItOut 330

tryItOut 331
Compiling threw: SyntaxError: invalid for/in left-hand side

tryItOut 332
Compiling threw: SyntaxError: syntax error

tryItOut 333
Compiling threw: SyntaxError: invalid for/in left-hand side

tryItOut 334
Compiling threw: SyntaxError: missing } after let block

tryItOut 335

tryItOut 336

tryItOut 337

tryItOut 338

tryItOut 339

tryItOut 340

tryItOut 341

tryItOut 342
Compiling threw: SyntaxError: missing ) after with-statement object

tryItOut 343

tryItOut 344
Compiling threw: SyntaxError: invalid for each loop

tryItOut 345
Compiling threw: SyntaxError: invalid for/in left-hand side

tryItOut 346
Running threw: ReferenceError: z1 is not defined

tryItOut 347
Running threw: 4

tryItOut 348

tryItOut 349
Compiling threw: SyntaxError: invalid destructuring assignment operator

tryItOut 350
Compiling threw: SyntaxError: invalid assignment left-hand side

tryItOut 351

tryItOut 352

tryItOut 353
Compiling threw: SyntaxError: invalid assignment left-hand side

tryItOut 354

tryItOut 355
Running threw: [object StopIteration]

tryItOut 356
Compiling threw: SyntaxError: invalid continue

tryItOut 357
Compiling threw: SyntaxError: missing ; after for-loop initializer

tryItOut 358

tryItOut 359

tryItOut 360
Running threw: ReferenceError: z1 is not defined

tryItOut 361

tryItOut 362

tryItOut 363
Compiling threw: SyntaxError: illegal XML character

tryItOut 364

tryItOut 365
Compiling threw: SyntaxError: invalid continue

tryItOut 366
Compiling threw: SyntaxError: syntax error

tryItOut 367
Compiling threw: SyntaxError: syntax error

tryItOut 368
Running threw: /x/g

tryItOut 369
Compiling threw: SyntaxError: syntax error

tryItOut 370
Compiling threw: SyntaxError: missing variable name

tryItOut 371
Compiling threw: SyntaxError: label not found

tryItOut 372
Compiling threw: SyntaxError: missing name after . operator

tryItOut 373

tryItOut 374

tryItOut 375

tryItOut 376
Running threw: ReferenceError: reference to undefined XML name @foo

tryItOut 377

tryItOut 378

tryItOut 379
Compiling threw: SyntaxError: invalid destructuring assignment operator

tryItOut 380
Compiling threw: SyntaxError: invalid assignment left-hand side

tryItOut 381
Compiling threw: TypeError: redeclaration of variable prop

tryItOut 382
Compiling threw: SyntaxError: missing = in destructuring declaration

tryItOut 383
Compiling threw: SyntaxError: label not found

tryItOut 384
Compiling threw: SyntaxError: invalid assignment left-hand side

tryItOut 385
Compiling threw: SyntaxError: invalid break

tryItOut 386

tryItOut 387
Compiling threw: SyntaxError: invalid for each loop

tryItOut 388

tryItOut 389
Compiling threw: SyntaxError: label not found

tryItOut 390
Compiling threw: SyntaxError: invalid assignment left-hand side

tryItOut 391
Running threw: 1e+81

tryItOut 392
Compiling threw: SyntaxError: missing variable name

tryItOut 393

tryItOut 394

tryItOut 395
Compiling threw: SyntaxError: invalid XML name

tryItOut 396

tryItOut 397

tryItOut 398

tryItOut 399

tryItOut 400
Compiling threw: SyntaxError: missing { before function body

tryItOut 401

tryItOut 402
Compiling threw: SyntaxError: invalid break

tryItOut 403
Compiling threw: SyntaxError: invalid continue

tryItOut 404
Compiling threw: SyntaxError: missing ) after with-statement object

tryItOut 405
Running threw: ReferenceError: reference to undefined XML name *::*

tryItOut 406

tryItOut 407

tryItOut 408
Compiling threw: SyntaxError: syntax error

tryItOut 409
Compiling threw: SyntaxError: syntax error

tryItOut 410
Compiling threw: SyntaxError: syntax error

tryItOut 411
Compiling threw: SyntaxError: missing ] after element list

tryItOut 412

tryItOut 413

tryItOut 414

tryItOut 415
Running threw: ReferenceError: reference to undefined XML name @foo

tryItOut 416
Compiling threw: SyntaxError: invalid for/in left-hand side

tryItOut 417

tryItOut 418

tryItOut 419
Compiling threw: SyntaxError: syntax error

tryItOut 420
Compiling threw: SyntaxError: invalid assignment left-hand side

tryItOut 421
Compiling threw: SyntaxError: invalid assignment left-hand side

tryItOut 422

tryItOut 423

tryItOut 424

tryItOut 425

tryItOut 426
Compiling threw: SyntaxError: invalid continue

tryItOut 427

tryItOut 428

tryItOut 429

tryItOut 430
Running threw: ReferenceError: reference to undefined XML name *

tryItOut 431
Compiling threw: SyntaxError: missing } after let block

tryItOut 432

tryItOut 433
Compiling threw: SyntaxError: label not found

tryItOut 434

tryItOut 435
Running threw: ReferenceError: reference to undefined XML name *::*

tryItOut 436

tryItOut 437
Compiling threw: SyntaxError: missing variable name

tryItOut 438
Compiling threw: SyntaxError: missing variable name

tryItOut 439
Compiling threw: SyntaxError: missing ] after element list

tryItOut 440

tryItOut 441
Compiling threw: SyntaxError: invalid for/in left-hand side

tryItOut 442
Compiling threw: SyntaxError: label not found

tryItOut 443
Compiling threw: SyntaxError: invalid assignment left-hand side

tryItOut 444
Compiling threw: SyntaxError: illegal XML character

tryItOut 445
Running threw: ReferenceError: reference to undefined XML name @foo

tryItOut 446

tryItOut 447
Compiling threw: SyntaxError: syntax error

tryItOut 448
Compiling threw: SyntaxError: invalid assignment left-hand side

tryItOut 449
Compiling threw: SyntaxError: label not found

tryItOut 450
Compiling threw: SyntaxError: syntax error

tryItOut 451
Running threw: ReferenceError: reference to undefined XML name *::*

tryItOut 452

tryItOut 453

tryItOut 454

tryItOut 455
Compiling threw: SyntaxError: invalid destructuring assignment operator

tryItOut 456

tryItOut 457

tryItOut 458
Compiling threw: SyntaxError: invalid break

tryItOut 459

tryItOut 460
Compiling threw: SyntaxError: invalid for/in left-hand side

tryItOut 461
Compiling threw: SyntaxError: invalid increment operand

tryItOut 462

tryItOut 463
Compiling threw: SyntaxError: invalid break

tryItOut 464

tryItOut 465
Compiling threw: SyntaxError: invalid continue

tryItOut 466

tryItOut 467
Compiling threw: SyntaxError: syntax error

tryItOut 468
Compiling threw: SyntaxError: invalid break

tryItOut 469
Compiling threw: SyntaxError: invalid increment operand

tryItOut 470

tryItOut 471

tryItOut 472
Compiling threw: SyntaxError: missing name after . operator

tryItOut 473

tryItOut 474
Compiling threw: SyntaxError: missing variable name

tryItOut 475

tryItOut 476

tryItOut 477

tryItOut 478

tryItOut 479
Compiling threw: SyntaxError: missing variable name

tryItOut 480
Running threw: ReferenceError: reference to undefined XML name @foo

tryItOut 481
Compiling threw: SyntaxError: label not found

tryItOut 482
Running threw: [object StopIteration]

tryItOut 483

tryItOut 484
Compiling threw: SyntaxError: illegal XML character

tryItOut 485

tryItOut 486
Compiling threw: SyntaxError: syntax error

tryItOut 487
Compiling threw: SyntaxError: missing ; before statement

tryItOut 488
Compiling threw: SyntaxError: invalid break

tryItOut 489

tryItOut 490

tryItOut 491

tryItOut 492
Compiling threw: SyntaxError: syntax error

tryItOut 493

tryItOut 494
Compiling threw: SyntaxError: invalid XML name

tryItOut 495
Running threw: ReferenceError: reference to undefined XML name @foo

tryItOut 496

tryItOut 497
Compiling threw: SyntaxError: missing variable name

tryItOut 498
Compiling threw: SyntaxError: missing { before function body

tryItOut 499
Compiling threw: SyntaxError: invalid for/in left-hand side

tryItOut 500
Compiling threw: TypeError: redeclaration of const __count__

tryItOut 501

tryItOut 502
Compiling threw: SyntaxError: syntax error

tryItOut 503
Compiling threw: SyntaxError: missing variable name

tryItOut 504
Running threw: ReferenceError: reference to undefined XML name *::*

tryItOut 505
Compiling threw: SyntaxError: missing ; before statement

tryItOut 506

tryItOut 507

tryItOut 508
Compiling threw: SyntaxError: missing ] after element list

tryItOut 509

tryItOut 510

tryItOut 511
Compiling threw: SyntaxError: missing { before function body

tryItOut 512

tryItOut 513

tryItOut 514
Compiling threw: SyntaxError: missing ; before statement

tryItOut 515

tryItOut 516
Compiling threw: TypeError: redeclaration of variable __proto__

tryItOut 517

tryItOut 518
Compiling threw: TypeError: redeclaration of variable prop

tryItOut 519

tryItOut 520

tryItOut 521

tryItOut 522

tryItOut 523
Compiling threw: SyntaxError: invalid assignment left-hand side

tryItOut 524

tryItOut 525
Compiling threw: SyntaxError: missing ) in parenthetical

tryItOut 526
Compiling threw: SyntaxError: label not found

tryItOut 527
Compiling threw: SyntaxError: label not found

tryItOut 528
Running threw: [object StopIteration]

tryItOut 529
Compiling threw: SyntaxError: missing ) after condition

tryItOut 530
Compiling threw: SyntaxError: missing { before function body

tryItOut 531

tryItOut 532

tryItOut 533
Compiling threw: SyntaxError: invalid for/in left-hand side

tryItOut 534

tryItOut 535
Compiling threw: SyntaxError: syntax error

tryItOut 536

tryItOut 537

tryItOut 538

tryItOut 539
Compiling threw: SyntaxError: missing variable name

tryItOut 540
Compiling threw: SyntaxError: invalid for/in left-hand side

tryItOut 541
Running threw: -1

tryItOut 542

tryItOut 543
Compiling threw: SyntaxError: invalid assignment left-hand side

tryItOut 544

tryItOut 545
Compiling threw: SyntaxError: invalid continue

tryItOut 546
Compiling threw: SyntaxError: missing ) after catch

tryItOut 547
Compiling threw: SyntaxError: syntax error

tryItOut 548
Running threw: 108

tryItOut 549
Compiling threw: SyntaxError: invalid break

tryItOut 550
Compiling threw: SyntaxError: missing variable name

tryItOut 551
Compiling threw: SyntaxError: missing ) after condition

tryItOut 552
Running threw: ReferenceError: __noSuchMethod__ is not defined

tryItOut 553
Compiling threw: SyntaxError: invalid assignment left-hand side

tryItOut 554
Running threw: ReferenceError: __noSuchMethod__ is not defined

tryItOut 555
Compiling threw: SyntaxError: label not found

tryItOut 556

tryItOut 557

tryItOut 558

tryItOut 559

tryItOut 560
Compiling threw: SyntaxError: illegal XML character

tryItOut 561
Compiling threw: SyntaxError: syntax error

tryItOut 562
Compiling threw: SyntaxError: syntax error

tryItOut 563
Compiling threw: SyntaxError: missing = in destructuring declaration

tryItOut 564
Running threw: ReferenceError: reference to undefined XML name @foo

tryItOut 565
Compiling threw: SyntaxError: missing { before function body

tryItOut 566
Compiling threw: SyntaxError: invalid continue

tryItOut 567

tryItOut 568

tryItOut 569
Compiling threw: SyntaxError: label not found

tryItOut 570

tryItOut 571
Compiling threw: SyntaxError: missing = in destructuring declaration

tryItOut 572
Compiling threw: SyntaxError: invalid break

tryItOut 573

tryItOut 574
Compiling threw: SyntaxError: missing variable name

tryItOut 575
Compiling threw: SyntaxError: missing variable name

tryItOut 576
Compiling threw: SyntaxError: missing variable name

tryItOut 577

tryItOut 578
Compiling threw: SyntaxError: missing ; after for-loop initializer

tryItOut 579

tryItOut 580

tryItOut 581
Compiling threw: SyntaxError: missing ; before statement

tryItOut 582
Compiling threw: SyntaxError: missing { before function body

tryItOut 583
Compiling threw: SyntaxError: missing ) after for-loop control

tryItOut 584
Compiling threw: SyntaxError: missing ) in parenthetical

tryItOut 585
Compiling threw: SyntaxError: invalid assignment left-hand side

tryItOut 586
Running threw: ReferenceError: reference to undefined XML name @foo

tryItOut 587

tryItOut 588

tryItOut 589
Running threw: 1e+81

tryItOut 590
Compiling threw: SyntaxError: missing { before function body

tryItOut 591

tryItOut 592
Compiling threw: SyntaxError: invalid continue

tryItOut 593

tryItOut 594

tryItOut 595

tryItOut 596

tryItOut 597
Compiling threw: SyntaxError: label not found

tryItOut 598

tryItOut 599

tryItOut 600
Compiling threw: SyntaxError: missing variable name

tryItOut 601
Compiling threw: SyntaxError: label not found

tryItOut 602
Compiling threw: SyntaxError: syntax error

tryItOut 603

tryItOut 604
Compiling threw: SyntaxError: missing ; before statement

tryItOut 605

tryItOut 606
Compiling threw: SyntaxError: missing variable name

tryItOut 607
It's an iterator!
Iterating threw!
Iterating threw: TypeError: undefined has no properties

tryItOut 608

tryItOut 609
Running threw: /x/g

tryItOut 610
Compiling threw: SyntaxError: missing variable name

tryItOut 611
Compiling threw: SyntaxError: invalid break

tryItOut 612

tryItOut 613

tryItOut 614
Compiling threw: SyntaxError: missing } in XML expression

tryItOut 615

tryItOut 616
Compiling threw: SyntaxError: illegal XML character

tryItOut 617

tryItOut 618
Compiling threw: SyntaxError: invalid assignment left-hand side

tryItOut 619
Compiling threw: SyntaxError: invalid for/in left-hand side

tryItOut 620

tryItOut 621

tryItOut 622
Compiling threw: SyntaxError: syntax error

tryItOut 623

tryItOut 624
Compiling threw: SyntaxError: invalid for/in left-hand side

tryItOut 625

tryItOut 626
Compiling threw: SyntaxError: missing { before function body

tryItOut 627
Compiling threw: SyntaxError: syntax error

tryItOut 628
Compiling threw: SyntaxError: illegal XML character

tryItOut 629
Compiling threw: SyntaxError: missing variable name

tryItOut 630
Compiling threw: SyntaxError: illegal XML character

tryItOut 631
Running threw: TypeError: undefined has no properties

tryItOut 632

tryItOut 633

tryItOut 634
Compiling threw: SyntaxError: label not found

tryItOut 635

tryItOut 636

tryItOut 637
Running threw: ReferenceError: reference to undefined XML name *

tryItOut 638

tryItOut 639
Compiling threw: SyntaxError: invalid break

tryItOut 640
Running threw: 3.141592653589793

tryItOut 641
Compiling threw: SyntaxError: missing variable name

tryItOut 642
Compiling threw: SyntaxError: invalid for/in left-hand side

tryItOut 643
Running threw: ReferenceError: z2 is not defined

tryItOut 644
Compiling threw: SyntaxError: invalid assignment left-hand side

tryItOut 645
Compiling threw: SyntaxError: invalid assignment left-hand side

tryItOut 646
Compiling threw: SyntaxError: missing ) in parenthetical

tryItOut 647

tryItOut 648
Compiling threw: SyntaxError: missing variable name

tryItOut 649
Compiling threw: SyntaxError: missing ] after element list

tryItOut 650
Compiling threw: SyntaxError: syntax error

tryItOut 651
Compiling threw: SyntaxError: missing { before function body

tryItOut 652
Compiling threw: SyntaxError: missing = in destructuring declaration

tryItOut 653
Compiling threw: SyntaxError: invalid assignment left-hand side

tryItOut 654
Compiling threw: SyntaxError: missing = in destructuring declaration

tryItOut 655

tryItOut 656
Compiling threw: SyntaxError: label not found

tryItOut 657
It's an iterator!
Iterating succeeded, iterCount == 1

tryItOut 658
Running threw: ReferenceError: reference to undefined XML name *::*

tryItOut 659

tryItOut 660

tryItOut 661

tryItOut 662
Compiling threw: SyntaxError: syntax error

tryItOut 663
Compiling threw: SyntaxError: invalid for each loop

tryItOut 664

tryItOut 665

tryItOut 666

tryItOut 667

tryItOut 668

tryItOut 669

tryItOut 670

tryItOut 671

tryItOut 672

tryItOut 673

tryItOut 674
Running threw: ReferenceError: reference to undefined XML name @foo

tryItOut 675

tryItOut 676

tryItOut 677
Compiling threw: SyntaxError: invalid destructuring assignment operator

tryItOut 678
Compiling threw: SyntaxError: invalid for/in left-hand side

tryItOut 679

tryItOut 680
Compiling threw: SyntaxError: invalid continue

tryItOut 681

tryItOut 682
Compiling threw: SyntaxError: invalid assignment left-hand side

tryItOut 683
Compiling threw: SyntaxError: invalid decrement operand

tryItOut 684

tryItOut 685
Compiling threw: SyntaxError: invalid assignment left-hand side

tryItOut 686

tryItOut 687

tryItOut 688
Running threw: 153

tryItOut 689
Running threw: 

tryItOut 690
Running threw: ReferenceError: reference to undefined XML name *

tryItOut 691
Compiling threw: SyntaxError: invalid assignment left-hand side

tryItOut 692
Running threw: 1.3

tryItOut 693
Compiling threw: SyntaxError: invalid assignment left-hand side

tryItOut 694

tryItOut 695
Compiling threw: SyntaxError: missing variable name

tryItOut 696

tryItOut 697
Running threw: 1.3

tryItOut 698
Compiling threw: SyntaxError: invalid assignment left-hand side

tryItOut 699
Compiling threw: SyntaxError: label not found

tryItOut 700
Compiling threw: SyntaxError: invalid decrement operand

tryItOut 701
Compiling threw: SyntaxError: invalid continue

tryItOut 702
Compiling threw: SyntaxError: syntax error

tryItOut 703
Compiling threw: SyntaxError: missing variable name

tryItOut 704
Compiling threw: SyntaxError: label not found

tryItOut 705
Compiling threw: SyntaxError: syntax error

tryItOut 706

tryItOut 707
Compiling threw: SyntaxError: missing variable name

tryItOut 708
Compiling threw: SyntaxError: invalid for/in left-hand side

tryItOut 709
Compiling threw: SyntaxError: illegal XML character

tryItOut 710

tryItOut 711

tryItOut 712
Compiling threw: SyntaxError: invalid continue

tryItOut 713

tryItOut 714
Compiling threw: SyntaxError: yield expression must be parenthesized

tryItOut 715
Running threw: null

tryItOut 716
Compiling threw: SyntaxError: invalid for/in left-hand side

tryItOut 717
uneval returned the string: []

tryItOut 718

tryItOut 719

tryItOut 720

tryItOut 721

tryItOut 722

tryItOut 723

tryItOut 724

tryItOut 725

tryItOut 726

tryItOut 727
Compiling threw: SyntaxError: missing { before function body

tryItOut 728

tryItOut 729
Compiling threw: SyntaxError: label not found

tryItOut 730
Compiling threw: SyntaxError: label not found

tryItOut 731
Compiling threw: SyntaxError: invalid XML name

tryItOut 732
Compiling threw: SyntaxError: invalid break

tryItOut 733
Compiling threw: SyntaxError: invalid assignment left-hand side

tryItOut 734
Compiling threw: SyntaxError: syntax error

tryItOut 735

tryItOut 736
Compiling threw: SyntaxError: syntax error

tryItOut 737
Running threw: 112

tryItOut 738
Compiling threw: SyntaxError: label not found

tryItOut 739
Compiling threw: SyntaxError: syntax error

tryItOut 740
Compiling threw: SyntaxError: label not found

tryItOut 741

tryItOut 742
Compiling threw: SyntaxError: invalid for/in left-hand side

tryItOut 743

tryItOut 744

tryItOut 745
Compiling threw: SyntaxError: missing ; before statement

tryItOut 746

tryItOut 747
Compiling threw: SyntaxError: missing { before function body

tryItOut 748

tryItOut 749

tryItOut 750

tryItOut 751

tryItOut 752
Compiling threw: SyntaxError: missing variable name

tryItOut 753
Compiling threw: SyntaxError: illegal XML character

tryItOut 754
Compiling threw: SyntaxError: missing ) after for-loop control

tryItOut 755
Compiling threw: SyntaxError: invalid destructuring assignment operator

tryItOut 756

tryItOut 757

tryItOut 758
Compiling threw: SyntaxError: invalid break

tryItOut 759
Compiling threw: SyntaxError: invalid continue

tryItOut 760
Compiling threw: SyntaxError: missing = in destructuring declaration

tryItOut 761
Compiling threw: SyntaxError: missing variable name

tryItOut 762
Compiling threw: SyntaxError: missing ) in parenthetical

tryItOut 763

tryItOut 764
Running threw: TypeError: (10000).yoyo is not a function

tryItOut 765

tryItOut 766
Compiling threw: SyntaxError: invalid assignment left-hand side

tryItOut 767
Running threw: 153

tryItOut 768
Compiling threw: SyntaxError: syntax error

tryItOut 769

tryItOut 770
Compiling threw: SyntaxError: invalid for/in left-hand side

tryItOut 771

tryItOut 772

tryItOut 773
Compiling threw: TypeError: redeclaration of variable __proto__

tryItOut 774

tryItOut 775
Running threw: ReferenceError: z1 is not defined

tryItOut 776

tryItOut 777

tryItOut 778
Compiling threw: TypeError: redeclaration of const __count__

tryItOut 779
Running threw: ReferenceError: reference to undefined XML name @foo

tryItOut 780

tryItOut 781
Running threw: ReferenceError: z1 is not defined

tryItOut 782
It's an iterator!
Iterating threw!
Iterating threw: ReferenceError: Exception is not defined

tryItOut 783

tryItOut 784

tryItOut 785
Compiling threw: SyntaxError: missing name after . operator

tryItOut 786
Compiling threw: SyntaxError: invalid for each loop

tryItOut 787
Running threw: ReferenceError: reference to undefined XML name @foo

tryItOut 788
Compiling threw: SyntaxError: syntax error

tryItOut 789
Running threw: [object StopIteration]

tryItOut 790
Compiling threw: SyntaxError: invalid XML name

tryItOut 791
Compiling threw: TypeError: redeclaration of const __parent__

tryItOut 792
Compiling threw: SyntaxError: syntax error

tryItOut 793

tryItOut 794

tryItOut 795

tryItOut 796
Compiling threw: SyntaxError: missing ) in parenthetical

tryItOut 797

tryItOut 798

tryItOut 799
Compiling threw: SyntaxError: label not found

tryItOut 800
Running threw: [object StopIteration]

tryItOut 801
Compiling threw: SyntaxError: invalid continue

tryItOut 802

tryItOut 803

tryItOut 804

tryItOut 805
Compiling threw: SyntaxError: missing { before function body

tryItOut 806
Compiling threw: SyntaxError: syntax error

tryItOut 807
Compiling threw: SyntaxError: syntax error

tryItOut 808
Compiling threw: SyntaxError: missing name after . operator

tryItOut 809
Running threw: ReferenceError: z2 is not defined

tryItOut 810
Compiling threw: SyntaxError: missing variable name

tryItOut 811

tryItOut 812
Compiling threw: SyntaxError: label not found

tryItOut 813

tryItOut 814

tryItOut 815
Compiling threw: SyntaxError: missing ; before statement

tryItOut 816
Compiling threw: SyntaxError: invalid assignment left-hand side

tryItOut 817

tryItOut 818

tryItOut 819
Running threw: 

tryItOut 820

tryItOut 821
Running threw: 

tryItOut 822
Compiling threw: SyntaxError: syntax error

tryItOut 823
Compiling threw: SyntaxError: missing variable name

tryItOut 824

tryItOut 825
Compiling threw: SyntaxError: syntax error

tryItOut 826
Running threw: ReferenceError: reference to undefined XML name *::*

tryItOut 827
Running threw: TypeError: /x/g.yoyo is not a function

tryItOut 828

tryItOut 829
Compiling threw: SyntaxError: missing variable name

tryItOut 830
Compiling threw: SyntaxError: invalid break

tryItOut 831
Compiling threw: SyntaxError: missing ] after element list

tryItOut 832

tryItOut 833
Compiling threw: SyntaxError: invalid for/in left-hand side

tryItOut 834
Compiling threw: SyntaxError: syntax error

tryItOut 835

tryItOut 836
Compiling threw: SyntaxError: illegal XML character

tryItOut 837

tryItOut 838

tryItOut 839

tryItOut 840
Running threw: SyntaxError: invalid getter usage

tryItOut 841

tryItOut 842

tryItOut 843

tryItOut 844
Compiling threw: SyntaxError: missing ( before let head

tryItOut 845
Compiling threw: SyntaxError: invalid assignment left-hand side

tryItOut 846
Compiling threw: SyntaxError: invalid break

tryItOut 847

tryItOut 848

tryItOut 849

tryItOut 850
Compiling threw: SyntaxError: invalid assignment left-hand side

tryItOut 851

tryItOut 852

tryItOut 853

tryItOut 854

tryItOut 855
Running threw: TypeError: constructor has no properties

tryItOut 856
Compiling threw: SyntaxError: missing { before function body

tryItOut 857

tryItOut 858

tryItOut 859

tryItOut 860

tryItOut 861
Compiling threw: SyntaxError: missing ) after condition

tryItOut 862

tryItOut 863
Compiling threw: SyntaxError: missing { before function body

tryItOut 864

tryItOut 865
Compiling threw: SyntaxError: label not found

tryItOut 866
Compiling threw: SyntaxError: label not found

tryItOut 867
Compiling threw: SyntaxError: syntax error

tryItOut 868

tryItOut 869
Compiling threw: SyntaxError: invalid break

tryItOut 870
Compiling threw: SyntaxError: missing ) in parenthetical

tryItOut 871

tryItOut 872
Compiling threw: SyntaxError: missing variable name

tryItOut 873
Compiling threw: SyntaxError: invalid for each loop

tryItOut 874
Compiling threw: SyntaxError: invalid continue

tryItOut 875
Compiling threw: SyntaxError: label not found

tryItOut 876
Compiling threw: SyntaxError: syntax error

tryItOut 877
Compiling threw: SyntaxError: syntax error

tryItOut 878

tryItOut 879
Compiling threw: SyntaxError: invalid assignment left-hand side

tryItOut 880
Running threw: ReferenceError: reference to undefined XML name *::*

tryItOut 881

tryItOut 882
Compiling threw: SyntaxError: invalid XML name

tryItOut 883
Compiling threw: SyntaxError: missing ) after condition

tryItOut 884

tryItOut 885
Compiling threw: SyntaxError: missing ; before statement

tryItOut 886
Running threw: [object StopIteration]

tryItOut 887

tryItOut 888

tryItOut 889

tryItOut 890
Running threw: 1e+81

tryItOut 891
Compiling threw: SyntaxError: missing } after property list

tryItOut 892
Compiling threw: SyntaxError: invalid continue

tryItOut 893
Compiling threw: SyntaxError: invalid assignment left-hand side

tryItOut 894
Compiling threw: SyntaxError: invalid continue

tryItOut 895
Compiling threw: SyntaxError: invalid for/in left-hand side

tryItOut 896

tryItOut 897

tryItOut 898
Running threw: TypeError: [[]].__proto__ = __parent__ has no properties

tryItOut 899

tryItOut 900

tryItOut 901
Compiling threw: SyntaxError: invalid XML name

tryItOut 902
Compiling threw: SyntaxError: missing in after for

tryItOut 903
Compiling threw: SyntaxError: missing { before function body

tryItOut 904

tryItOut 905
Compiling threw: SyntaxError: syntax error

tryItOut 906
Compiling threw: SyntaxError: label not found

tryItOut 907

tryItOut 908
Running threw: TypeError: XML filtering predicate operator called on incompatible Number

tryItOut 909
Compiling threw: SyntaxError: syntax error

tryItOut 910

tryItOut 911

tryItOut 912

tryItOut 913
Compiling threw: SyntaxError: illegal XML character

tryItOut 914
Compiling threw: SyntaxError: invalid assignment left-hand side

tryItOut 915
Compiling threw: SyntaxError: missing ( before let head

tryItOut 916

tryItOut 917

tryItOut 918

tryItOut 919
Compiling threw: SyntaxError: missing ; before statement

tryItOut 920

tryItOut 921
Compiling threw: SyntaxError: yield expression must be parenthesized

tryItOut 922

tryItOut 923
Compiling threw: SyntaxError: syntax error

tryItOut 924

tryItOut 925
Compiling threw: SyntaxError: invalid break

tryItOut 926

tryItOut 927
Compiling threw: SyntaxError: invalid XML name

tryItOut 928
Compiling threw: SyntaxError: invalid for/in left-hand side

tryItOut 929
Compiling threw: SyntaxError: missing name after . operator

tryItOut 930
Compiling threw: SyntaxError: invalid for each loop

tryItOut 931
Compiling threw: SyntaxError: invalid for/in left-hand side

tryItOut 932

tryItOut 933
Compiling threw: TypeError: redeclaration of const prototype

tryItOut 934

tryItOut 935
Compiling threw: SyntaxError: missing : in conditional expression

tryItOut 936

tryItOut 937

tryItOut 938

tryItOut 939

tryItOut 940

tryItOut 941
Compiling threw: SyntaxError: invalid XML name

tryItOut 942
Compiling threw: SyntaxError: missing ; after for-loop initializer

tryItOut 943
Compiling threw: SyntaxError: label not found

tryItOut 944
Running threw: ReferenceError: z1 is not defined

tryItOut 945

tryItOut 946

tryItOut 947
It's an iterator!
Iterating succeeded, iterCount == 1

tryItOut 948

tryItOut 949
Compiling threw: SyntaxError: invalid for/in left-hand side

tryItOut 950
Compiling threw: SyntaxError: missing variable name

tryItOut 951

tryItOut 952
Compiling threw: SyntaxError: missing name after . operator

tryItOut 953
Running threw: ReferenceError: reference to undefined XML name *::*

tryItOut 954

tryItOut 955
Running threw: ReferenceError: z2 is not defined

tryItOut 956
Compiling threw: SyntaxError: invalid continue

tryItOut 957

tryItOut 958

tryItOut 959
Compiling threw: TypeError: redeclaration of var constructor

tryItOut 960
Running threw: ReferenceError: reference to undefined XML name @foo

tryItOut 961
Compiling threw: SyntaxError: missing variable name

tryItOut 962
Compiling threw: SyntaxError: label not found

tryItOut 963
Running threw: 1.3

tryItOut 964

tryItOut 965
It's an iterator!
Iterating threw!
Iterating threw: ReferenceError: reference to undefined XML name *::*

tryItOut 966

tryItOut 967
Compiling threw: SyntaxError: missing variable name

tryItOut 968
Compiling threw: SyntaxError: syntax error

tryItOut 969

tryItOut 970

tryItOut 971
Compiling threw: SyntaxError: missing = in destructuring declaration

tryItOut 972

tryItOut 973
Compiling threw: SyntaxError: missing ) in parenthetical

tryItOut 974

tryItOut 975
Compiling threw: SyntaxError: invalid continue

tryItOut 976

tryItOut 977
Compiling threw: SyntaxError: invalid XML name

tryItOut 978

tryItOut 979
Compiling threw: SyntaxError: syntax error

tryItOut 980

tryItOut 981

tryItOut 982
Running threw: ReferenceError: reference to undefined XML name *::*

tryItOut 983
Compiling threw: SyntaxError: missing ) in parenthetical

tryItOut 984
Compiling threw: SyntaxError: invalid assignment left-hand side

tryItOut 985

tryItOut 986
Compiling threw: SyntaxError: invalid assignment left-hand side

tryItOut 987
Compiling threw: SyntaxError: invalid assignment left-hand side

tryItOut 988
Compiling threw: SyntaxError: label not found

tryItOut 989
Compiling threw: SyntaxError: missing ; before statement

tryItOut 990

tryItOut 991
Compiling threw: SyntaxError: syntax error

tryItOut 992
Compiling threw: SyntaxError: invalid continue

tryItOut 993
Compiling threw: SyntaxError: missing { before function body

tryItOut 994
Compiling threw: SyntaxError: label not found

tryItOut 995

tryItOut 996
Compiling threw: SyntaxError: invalid for/in left-hand side

tryItOut 997
Compiling threw: SyntaxError: missing ) after let head

tryItOut 998

tryItOut 999
Compiling threw: SyntaxError: missing { before function body

tryItOut 1000

ALL OK

Script done on Sat 04 May 2013 05:49:04 AM PDT
