Script started on Sat 04 May 2013 05:49:21 AM PDT
***
Targeting SpiderMonkey / Gecko.

tryItOut 1

tryItOut 2
Compiling threw: SyntaxError: label not found

ALL OK

Script done on Sat 04 May 2013 05:49:21 AM PDT
