Script started on Sat 04 May 2013 05:52:10 AM PDT
***
Targeting SpiderMonkey / Gecko.

tryItOut 1
Compiling threw: SyntaxError: invalid increment operand

tryItOut 2
Compiling threw: SyntaxError: missing { before function body

tryItOut 3

tryItOut 4
Compiling threw: SyntaxError: invalid assignment left-hand side

tryItOut 5

tryItOut 6
Compiling threw: TypeError: generator function anonymous returns a value

tryItOut 7
Compiling threw: SyntaxError: invalid assignment left-hand side

tryItOut 8
It's an iterator!
Iterating succeeded, iterCount == 0

tryItOut 9
Compiling threw: SyntaxError: invalid label

tryItOut 10
Compiling threw: SyntaxError: syntax error

tryItOut 11

tryItOut 12
Compiling threw: SyntaxError: syntax error

tryItOut 13
It's an iterator!
Iterating succeeded, iterCount == 1

tryItOut 14
It's an iterator!
Iterating succeeded, iterCount == 1

tryItOut 15

tryItOut 16
Compiling threw: SyntaxError: invalid for/in left-hand side

tryItOut 17

tryItOut 18
Compiling threw: SyntaxError: syntax error

tryItOut 19
Compiling threw: SyntaxError: syntax error

tryItOut 20
Compiling threw: SyntaxError: syntax error

tryItOut 21
Running threw: [object StopIteration]

tryItOut 22
Compiling threw: SyntaxError: syntax error

tryItOut 23
Compiling threw: SyntaxError: invalid destructuring assignment operator

tryItOut 24

tryItOut 25
It's an iterator!
Iterating succeeded, iterCount == 0

tryItOut 26
Compiling threw: SyntaxError: syntax error

tryItOut 27
Compiling threw: SyntaxError: missing = in destructuring declaration

tryItOut 28
Compiling threw: SyntaxError: syntax error

tryItOut 29

tryItOut 30

tryItOut 31

tryItOut 32
Compiling threw: SyntaxError: invalid assignment left-hand side

tryItOut 33

tryItOut 34

tryItOut 35
Compiling threw: SyntaxError: invalid for/in left-hand side

tryItOut 36

tryItOut 37
It's an iterator!
Iterating succeeded, iterCount == 1

tryItOut 38
Compiling threw: SyntaxError: missing variable name

tryItOut 39
Compiling threw: SyntaxError: invalid destructuring assignment operator

tryItOut 40
Compiling threw: SyntaxError: unterminated regular expression literal

tryItOut 41
Compiling threw: SyntaxError: invalid sharp variable definition

tryItOut 42
Compiling threw: SyntaxError: missing ; before statement

tryItOut 43

tryItOut 44
Compiling threw: SyntaxError: invalid for/in left-hand side

tryItOut 45
Compiling threw: SyntaxError: syntax error

tryItOut 46

tryItOut 47
Compiling threw: SyntaxError: missing name after . operator

tryItOut 48
It's an iterator!
Iterating threw!
Iterating threw: TypeError: undefined is not a function

tryItOut 49
It's an iterator!
Iterating succeeded, iterCount == 1

tryItOut 50
Compiling threw: SyntaxError: missing { before function body

tryItOut 51
Compiling threw: SyntaxError: invalid destructuring assignment operator

tryItOut 52

tryItOut 53

tryItOut 54
Compiling threw: SyntaxError: missing ) in parenthetical

tryItOut 55

tryItOut 56

tryItOut 57

tryItOut 58

tryItOut 59
Compiling threw: SyntaxError: missing { before function body

tryItOut 60
Compiling threw: SyntaxError: missing ) in parenthetical

tryItOut 61

tryItOut 62

tryItOut 63

tryItOut 64

tryItOut 65
Compiling threw: SyntaxError: invalid assignment left-hand side

tryItOut 66

tryItOut 67
Compiling threw: SyntaxError: syntax error

tryItOut 68
Compiling threw: SyntaxError: invalid sharp variable definition

tryItOut 69

tryItOut 70

tryItOut 71

tryItOut 72
Compiling threw: SyntaxError: invalid for/in left-hand side

tryItOut 73
Compiling threw: SyntaxError: missing { before function body

tryItOut 74

tryItOut 75
Compiling threw: SyntaxError: invalid destructuring assignment operator

tryItOut 76

tryItOut 77

tryItOut 78
It's an iterator!
Iterating succeeded, iterCount == 1

tryItOut 79
Compiling threw: SyntaxError: syntax error

tryItOut 80
Compiling threw: SyntaxError: missing { before function body

tryItOut 81
It's an iterator!
Iterating threw!
Iterating threw: TypeError: __parent__ has no properties

tryItOut 82
Compiling threw: SyntaxError: syntax error

tryItOut 83

tryItOut 84

tryItOut 85

tryItOut 86
Compiling threw: SyntaxError: invalid assignment left-hand side

tryItOut 87

tryItOut 88

tryItOut 89

tryItOut 90
It's an iterator!
Iterating succeeded, iterCount == 1

tryItOut 91

tryItOut 92

tryItOut 93
Compiling threw: SyntaxError: invalid sharp variable definition

tryItOut 94

tryItOut 95
Compiling threw: SyntaxError: invalid for each loop

tryItOut 96
Compiling threw: SyntaxError: syntax error

tryItOut 97
Compiling threw: SyntaxError: syntax error

tryItOut 98
Compiling threw: SyntaxError: missing ) in parenthetical

tryItOut 99

tryItOut 100

tryItOut 101
Compiling threw: SyntaxError: missing ) in parenthetical

tryItOut 102

tryItOut 103

tryItOut 104
Compiling threw: SyntaxError: invalid for/in left-hand side

tryItOut 105
Compiling threw: SyntaxError: invalid assignment left-hand side

tryItOut 106

tryItOut 107

tryItOut 108

tryItOut 109

tryItOut 110

tryItOut 111
Compiling threw: SyntaxError: syntax error

tryItOut 112
Running threw: [object StopIteration]

tryItOut 113
Compiling threw: SyntaxError: syntax error

tryItOut 114
Compiling threw: SyntaxError: invalid for/in left-hand side

tryItOut 115

tryItOut 116
Compiling threw: SyntaxError: missing ) in parenthetical

tryItOut 117

tryItOut 118

tryItOut 119

tryItOut 120

tryItOut 121

tryItOut 122
Compiling threw: SyntaxError: missing ) after condition

tryItOut 123
Compiling threw: SyntaxError: missing { before function body

tryItOut 124
Compiling threw: SyntaxError: invalid assignment left-hand side

tryItOut 125

tryItOut 126

tryItOut 127

tryItOut 128
It's an iterator!
Iterating succeeded, iterCount == 1

tryItOut 129
Compiling threw: SyntaxError: missing ) in parenthetical

tryItOut 130

tryItOut 131

tryItOut 132

tryItOut 133

tryItOut 134
Compiling threw: SyntaxError: invalid for/in left-hand side

tryItOut 135
It's an iterator!
Iterating succeeded, iterCount == 2

tryItOut 136

tryItOut 137
Compiling threw: SyntaxError: syntax error

tryItOut 138

tryItOut 139
Compiling threw: SyntaxError: missing ; after for-loop initializer

tryItOut 140
Compiling threw: SyntaxError: invalid for/in left-hand side

tryItOut 141
Compiling threw: SyntaxError: syntax error

tryItOut 142
Compiling threw: SyntaxError: missing ) in parenthetical

tryItOut 143

tryItOut 144

tryItOut 145
Compiling threw: SyntaxError: invalid assignment left-hand side

tryItOut 146
It's an iterator!
Iterating threw!
Iterating threw: ReferenceError: z1 is not defined

tryItOut 147

tryItOut 148

tryItOut 149
It's an iterator!
Iterating succeeded, iterCount == 0

tryItOut 150

tryItOut 151

tryItOut 152

tryItOut 153
Compiling threw: SyntaxError: missing ) after argument list

tryItOut 154

tryItOut 155

tryItOut 156
It's an iterator!
Iterating succeeded, iterCount == 2

tryItOut 157

tryItOut 158
Compiling threw: SyntaxError: missing { before function body

tryItOut 159

tryItOut 160
Compiling threw: SyntaxError: missing ) in parenthetical

tryItOut 161
Compiling threw: SyntaxError: syntax error

tryItOut 162
Compiling threw: SyntaxError: missing { before function body

tryItOut 163

tryItOut 164

tryItOut 165
It's an iterator!
Iterating threw!
Iterating threw: TypeError: [undefined] is not a function

tryItOut 166

tryItOut 167

tryItOut 168
Compiling threw: SyntaxError: missing ) after argument list

tryItOut 169
Compiling threw: SyntaxError: syntax error

tryItOut 170

tryItOut 171

tryItOut 172

tryItOut 173
Compiling threw: SyntaxError: invalid default XML namespace

tryItOut 174

tryItOut 175

tryItOut 176
Compiling threw: SyntaxError: missing ) in parenthetical

tryItOut 177

tryItOut 178
Compiling threw: SyntaxError: syntax error

tryItOut 179

tryItOut 180

tryItOut 181

tryItOut 182

tryItOut 183
Compiling threw: SyntaxError: invalid assignment left-hand side

tryItOut 184
Compiling threw: SyntaxError: invalid for/in left-hand side

tryItOut 185
It's an iterator!
Iterating threw!
Iterating threw: ReferenceError: z1 is not defined

tryItOut 186
Compiling threw: SyntaxError: syntax error

tryItOut 187
Running threw: [object StopIteration]

tryItOut 188

tryItOut 189

tryItOut 190

tryItOut 191
It's an iterator!
Iterating succeeded, iterCount == 1

tryItOut 192

tryItOut 193
Compiling threw: SyntaxError: syntax error

tryItOut 194
Compiling threw: SyntaxError: syntax error

tryItOut 195
Compiling threw: SyntaxError: illegal XML character

tryItOut 196
Compiling threw: SyntaxError: invalid for each loop

tryItOut 197
Running threw: ReferenceError: __iterator__ is not defined

tryItOut 198
Running threw: SyntaxError: invalid setter usage

tryItOut 199
Compiling threw: SyntaxError: syntax error

tryItOut 200

tryItOut 201
Compiling threw: SyntaxError: invalid assignment left-hand side

tryItOut 202

tryItOut 203
Compiling threw: SyntaxError: invalid for/in left-hand side

tryItOut 204
Compiling threw: SyntaxError: syntax error

tryItOut 205
Compiling threw: SyntaxError: invalid for/in left-hand side

tryItOut 206
Compiling threw: SyntaxError: syntax error

tryItOut 207

tryItOut 208
Compiling threw: SyntaxError: invalid assignment left-hand side

tryItOut 209
It's an iterator!
Iterating succeeded, iterCount == 1

tryItOut 210

tryItOut 211

tryItOut 212
Compiling threw: SyntaxError: missing { before function body

tryItOut 213
Compiling threw: SyntaxError: missing { before function body

tryItOut 214

tryItOut 215
Compiling threw: SyntaxError: syntax error

tryItOut 216
Compiling threw: SyntaxError: syntax error

tryItOut 217

tryItOut 218
Compiling threw: SyntaxError: syntax error

tryItOut 219

tryItOut 220
Compiling threw: SyntaxError: missing ) after argument list

tryItOut 221
Compiling threw: SyntaxError: invalid for/in left-hand side

tryItOut 222
It's an iterator!
Iterating succeeded, iterCount == 1

tryItOut 223
It's an iterator!
Iterating succeeded, iterCount == 1

tryItOut 224

tryItOut 225

tryItOut 226
Compiling threw: SyntaxError: missing ) in parenthetical

tryItOut 227
Compiling threw: SyntaxError: syntax error

tryItOut 228
Compiling threw: SyntaxError: missing { before function body

tryItOut 229
Compiling threw: SyntaxError: syntax error

tryItOut 230
Compiling threw: SyntaxError: invalid for/in left-hand side

tryItOut 231
It's an iterator!
Iterating succeeded, iterCount == 1

tryItOut 232

tryItOut 233
Running threw: TypeError: p.z = "" is not a function

tryItOut 234
Compiling threw: SyntaxError: missing ) after argument list

tryItOut 235
Compiling threw: SyntaxError: syntax error

tryItOut 236

tryItOut 237

tryItOut 238
Compiling threw: SyntaxError: syntax error

tryItOut 239
Compiling threw: SyntaxError: invalid assignment left-hand side

tryItOut 240
Compiling threw: SyntaxError: invalid decrement operand

tryItOut 241

tryItOut 242

tryItOut 243
Compiling threw: SyntaxError: syntax error

tryItOut 244

tryItOut 245
Compiling threw: TypeError: redeclaration of const __proto__

tryItOut 246

tryItOut 247
Compiling threw: SyntaxError: invalid for/in left-hand side

tryItOut 248

tryItOut 249
Compiling threw: SyntaxError: invalid for/in left-hand side

tryItOut 250
It's an iterator!
Iterating succeeded, iterCount == 1

tryItOut 251
Compiling threw: TypeError: redeclaration of const constructor

tryItOut 252

tryItOut 253
Compiling threw: SyntaxError: invalid assignment left-hand side

tryItOut 254

tryItOut 255

tryItOut 256
It's an iterator!
Iterating succeeded, iterCount == 1

tryItOut 257
Compiling threw: SyntaxError: syntax error

tryItOut 258
Compiling threw: SyntaxError: missing = in destructuring declaration

tryItOut 259

tryItOut 260
Compiling threw: SyntaxError: invalid for/in left-hand side

tryItOut 261
Compiling threw: SyntaxError: syntax error

tryItOut 262
Running threw: [object StopIteration]

tryItOut 263
Running threw: [object StopIteration]

tryItOut 264
Compiling threw: SyntaxError: invalid assignment left-hand side

tryItOut 265

tryItOut 266
Compiling threw: SyntaxError: missing { before function body

tryItOut 267

tryItOut 268
Compiling threw: SyntaxError: missing variable name

tryItOut 269
Compiling threw: SyntaxError: missing ) after argument list

tryItOut 270

tryItOut 271

tryItOut 272

tryItOut 273
It's an iterator!
Iterating threw!
Iterating threw: ReferenceError: __iterator__ is not defined

tryItOut 274

tryItOut 275

tryItOut 276
Compiling threw: SyntaxError: invalid destructuring assignment operator

tryItOut 277
It's an iterator!
Iterating succeeded, iterCount == 0

tryItOut 278

tryItOut 279

tryItOut 280

tryItOut 281

tryItOut 282

tryItOut 283
Compiling threw: SyntaxError: missing ) in parenthetical

tryItOut 284

tryItOut 285
Compiling threw: SyntaxError: invalid for/in left-hand side

tryItOut 286
Compiling threw: SyntaxError: missing ; before statement

tryItOut 287
It's an iterator!
Iterating succeeded, iterCount == 0

tryItOut 288

tryItOut 289
Compiling threw: SyntaxError: missing { before function body

tryItOut 290

tryItOut 291
Compiling threw: SyntaxError: missing ) in parenthetical

tryItOut 292
Compiling threw: SyntaxError: invalid for each loop

tryItOut 293
Compiling threw: SyntaxError: missing { before function body

tryItOut 294
It's an iterator!
Iterating succeeded, iterCount == 1

tryItOut 295
Compiling threw: SyntaxError: missing } after property list

tryItOut 296

tryItOut 297

tryItOut 298

tryItOut 299
Compiling threw: TypeError: redeclaration of variable prop

tryItOut 300
It's an iterator!
Iterating succeeded, iterCount == 1

tryItOut 301
Running threw: [object StopIteration]

tryItOut 302
Running threw: ReferenceError: __noSuchMethod__ is not defined

tryItOut 303

tryItOut 304
It's an iterator!
Iterating succeeded, iterCount == 1

tryItOut 305
Compiling threw: SyntaxError: invalid for/in left-hand side

tryItOut 306
Compiling threw: SyntaxError: invalid assignment left-hand side

tryItOut 307
Compiling threw: SyntaxError: syntax error

tryItOut 308

tryItOut 309

tryItOut 310

tryItOut 311

tryItOut 312

tryItOut 313
It's an iterator!
Iterating succeeded, iterCount == 1

tryItOut 314

tryItOut 315
Compiling threw: SyntaxError: invalid for/in left-hand side

tryItOut 316
Compiling threw: SyntaxError: syntax error

tryItOut 317

tryItOut 318
It's an iterator!
Iterating succeeded, iterCount == 1

tryItOut 319

tryItOut 320

tryItOut 321

tryItOut 322
It's an iterator!
Iterating succeeded, iterCount == 1

tryItOut 323

tryItOut 324
It's an iterator!
Iterating threw!
Iterating threw: ReferenceError: z1 is not defined

tryItOut 325

tryItOut 326

tryItOut 327
It's an iterator!
Iterating succeeded, iterCount == 1

tryItOut 328
Compiling threw: SyntaxError: invalid assignment left-hand side

tryItOut 329
It's an iterator!
Iterating succeeded, iterCount == 1

tryItOut 330

tryItOut 331

tryItOut 332
It's an iterator!
Iterating threw!
Iterating threw: ReferenceError: z2 is not defined

tryItOut 333

tryItOut 334
Compiling threw: SyntaxError: missing ) in parenthetical

tryItOut 335

tryItOut 336
Compiling threw: SyntaxError: invalid assignment left-hand side

tryItOut 337
Compiling threw: SyntaxError: syntax error

tryItOut 338
Compiling threw: TypeError: redeclaration of const __iterator__

tryItOut 339
It's an iterator!
Iterating threw!
Iterating threw: TypeError: (4).yoyo is not a function

tryItOut 340
Compiling threw: TypeError: redeclaration of const __parent__

tryItOut 341
Compiling threw: SyntaxError: invalid for/in left-hand side

tryItOut 342
Compiling threw: SyntaxError: missing ; after for-loop initializer

tryItOut 343
It's an iterator!
Iterating succeeded, iterCount == 1

tryItOut 344
Compiling threw: SyntaxError: syntax error

tryItOut 345

tryItOut 346
Compiling threw: SyntaxError: invalid assignment left-hand side

tryItOut 347

tryItOut 348

tryItOut 349
Compiling threw: SyntaxError: missing ) after argument list

tryItOut 350
Compiling threw: SyntaxError: syntax error

tryItOut 351

tryItOut 352

tryItOut 353

tryItOut 354
Compiling threw: SyntaxError: missing { before function body

tryItOut 355
Compiling threw: SyntaxError: missing { before function body

tryItOut 356
Compiling threw: SyntaxError: syntax error

tryItOut 357
Compiling threw: SyntaxError: invalid for/in left-hand side

tryItOut 358

tryItOut 359
Running threw: Error: invalid sharp variable use #1#

tryItOut 360
It's an iterator!
Iterating succeeded, iterCount == 1

tryItOut 361

tryItOut 362
Compiling threw: SyntaxError: syntax error

tryItOut 363
Compiling threw: SyntaxError: syntax error

tryItOut 364
Compiling threw: SyntaxError: missing { before function body

tryItOut 365

tryItOut 366
Compiling threw: SyntaxError: syntax error

tryItOut 367
Compiling threw: SyntaxError: syntax error

tryItOut 368

tryItOut 369
Compiling threw: SyntaxError: missing ) in parenthetical

tryItOut 370
It's an iterator!
Iterating succeeded, iterCount == 2

tryItOut 371
Compiling threw: SyntaxError: missing ; before statement

tryItOut 372

tryItOut 373

tryItOut 374
Compiling threw: SyntaxError: invalid for/in left-hand side

tryItOut 375
It's an iterator!
Iterating succeeded, iterCount == 2

tryItOut 376

tryItOut 377

tryItOut 378
Compiling threw: SyntaxError: missing { before function body

tryItOut 379
It's an iterator!
Iterating threw!
Iterating threw: TypeError: this.zzz has no properties

tryItOut 380
It's an iterator!
Iterating succeeded, iterCount == 1

tryItOut 381

tryItOut 382
Compiling threw: SyntaxError: missing ) after formal parameters

tryItOut 383
Compiling threw: SyntaxError: syntax error

tryItOut 384
Compiling threw: SyntaxError: syntax error

tryItOut 385

tryItOut 386
Running threw: [object StopIteration]

tryItOut 387

tryItOut 388

tryItOut 389

tryItOut 390

tryItOut 391
Compiling threw: SyntaxError: missing ) in parenthetical

tryItOut 392
Compiling threw: TypeError: redeclaration of variable __proto__

tryItOut 393

tryItOut 394

tryItOut 395

tryItOut 396
Compiling threw: SyntaxError: invalid for/in left-hand side

tryItOut 397
Compiling threw: SyntaxError: syntax error

tryItOut 398
Compiling threw: SyntaxError: syntax error

tryItOut 399

tryItOut 400
Running threw: ReferenceError: __iterator__ is not defined

tryItOut 401
Compiling threw: SyntaxError: missing { before function body

tryItOut 402
Compiling threw: SyntaxError: invalid XML name

tryItOut 403

tryItOut 404

tryItOut 405

tryItOut 406

tryItOut 407

tryItOut 408

tryItOut 409
Compiling threw: SyntaxError: missing name after . operator

tryItOut 410
Compiling threw: SyntaxError: syntax error

tryItOut 411

tryItOut 412
Compiling threw: SyntaxError: syntax error

tryItOut 413
Compiling threw: SyntaxError: syntax error

tryItOut 414

tryItOut 415

tryItOut 416

tryItOut 417
Compiling threw: SyntaxError: invalid assignment left-hand side

tryItOut 418
Compiling threw: SyntaxError: missing ) in parenthetical

tryItOut 419
Compiling threw: SyntaxError: unterminated string literal

tryItOut 420
Compiling threw: SyntaxError: syntax error

tryItOut 421
Compiling threw: SyntaxError: missing ) in parenthetical

tryItOut 422
Compiling threw: SyntaxError: missing ) in parenthetical

tryItOut 423

tryItOut 424
It's an iterator!
Iterating succeeded, iterCount == 1

tryItOut 425

tryItOut 426
It's an iterator!
Iterating succeeded, iterCount == 1

tryItOut 427
Compiling threw: SyntaxError: invalid for/in left-hand side

tryItOut 428

tryItOut 429

tryItOut 430
Compiling threw: SyntaxError: missing ) in parenthetical

tryItOut 431
Compiling threw: SyntaxError: unterminated regular expression literal

tryItOut 432

tryItOut 433
Compiling threw: SyntaxError: syntax error

tryItOut 434
Compiling threw: SyntaxError: missing ; after for-loop initializer

tryItOut 435

tryItOut 436

tryItOut 437

tryItOut 438
It's an iterator!
Iterating succeeded, iterCount == 1

tryItOut 439

tryItOut 440
Compiling threw: SyntaxError: missing ; before statement

tryItOut 441
Compiling threw: SyntaxError: syntax error

tryItOut 442

tryItOut 443

tryItOut 444

tryItOut 445
It's an iterator!
Iterating succeeded, iterCount == 1

tryItOut 446

tryItOut 447
Compiling threw: SyntaxError: invalid for/in left-hand side

tryItOut 448

tryItOut 449

tryItOut 450
Compiling threw: SyntaxError: syntax error

tryItOut 451
Compiling threw: SyntaxError: syntax error

tryItOut 452

tryItOut 453

tryItOut 454

tryItOut 455
It's an iterator!
Iterating succeeded, iterCount == 1

tryItOut 456
Compiling threw: SyntaxError: syntax error

tryItOut 457
Running threw: [object StopIteration]

tryItOut 458

tryItOut 459
It's an iterator!
Iterating threw!
Iterating threw: TypeError: constructor is not a function

tryItOut 460
Compiling threw: SyntaxError: invalid assignment left-hand side

tryItOut 461
Compiling threw: TypeError: redeclaration of variable __iterator__

tryItOut 462
Compiling threw: SyntaxError: missing variable name

tryItOut 463

tryItOut 464
It's an iterator!
Iterating succeeded, iterCount == 1

tryItOut 465
Compiling threw: SyntaxError: invalid assignment left-hand side

tryItOut 466

tryItOut 467

tryItOut 468
Compiling threw: SyntaxError: missing ; before statement

tryItOut 469

tryItOut 470
It's an iterator!
Iterating succeeded, iterCount == 1

tryItOut 471
It's an iterator!
Iterating succeeded, iterCount == 1

tryItOut 472
It's an iterator!
Iterating succeeded, iterCount == 1

tryItOut 473
Compiling threw: SyntaxError: invalid assignment left-hand side

tryItOut 474

tryItOut 475
Compiling threw: SyntaxError: invalid for/in left-hand side

tryItOut 476

tryItOut 477
Compiling threw: SyntaxError: invalid assignment left-hand side

tryItOut 478
It's an iterator!
Iterating succeeded, iterCount == 1

tryItOut 479
Compiling threw: SyntaxError: syntax error

tryItOut 480
Compiling threw: SyntaxError: missing ) after condition

tryItOut 481
Compiling threw: SyntaxError: invalid assignment left-hand side

tryItOut 482
It's an iterator!
Iterating succeeded, iterCount == 1

tryItOut 483
Compiling threw: SyntaxError: syntax error

tryItOut 484
Running threw: [object StopIteration]

tryItOut 485

tryItOut 486
Compiling threw: SyntaxError: syntax error

tryItOut 487
Compiling threw: SyntaxError: missing variable name

tryItOut 488
It's an iterator!
Iterating succeeded, iterCount == 1

tryItOut 489
Compiling threw: SyntaxError: syntax error

tryItOut 490
It's an iterator!
Iterating succeeded, iterCount == 1

tryItOut 491
Compiling threw: SyntaxError: missing variable name

tryItOut 492
Compiling threw: SyntaxError: invalid for/in left-hand side

tryItOut 493
It's an iterator!
Iterating succeeded, iterCount == 1

tryItOut 494
Compiling threw: SyntaxError: syntax error

tryItOut 495

tryItOut 496
Compiling threw: SyntaxError: missing ) after condition

tryItOut 497
Compiling threw: SyntaxError: syntax error

tryItOut 498

tryItOut 499
It's an iterator!
Iterating succeeded, iterCount == 1

tryItOut 500
Compiling threw: SyntaxError: missing ) in parenthetical

tryItOut 501

tryItOut 502
Compiling threw: SyntaxError: missing ) after condition

tryItOut 503
Compiling threw: SyntaxError: missing ) after formal parameters

tryItOut 504
Compiling threw: SyntaxError: invalid sharp variable definition

tryItOut 505
Compiling threw: SyntaxError: missing ; before statement

tryItOut 506
Compiling threw: SyntaxError: syntax error

tryItOut 507

tryItOut 508
It's an iterator!
Iterating threw!
Iterating threw: TypeError: arguments[0] has no properties

tryItOut 509
Compiling threw: SyntaxError: missing ) in parenthetical

tryItOut 510
Running threw: TypeError: [undefined, undefined] is not a function

tryItOut 511
Compiling threw: SyntaxError: missing ) after condition

tryItOut 512
It's an iterator!
Iterating threw!
Iterating threw: TypeError: this.zzz has no properties

tryItOut 513
Compiling threw: SyntaxError: invalid assignment left-hand side

tryItOut 514

tryItOut 515

tryItOut 516

tryItOut 517

tryItOut 518
Compiling threw: SyntaxError: illegal XML character

tryItOut 519

tryItOut 520
It's an iterator!
Iterating succeeded, iterCount == 1

tryItOut 521

tryItOut 522

tryItOut 523

tryItOut 524

tryItOut 525
Compiling threw: SyntaxError: missing ) after formal parameters

tryItOut 526

tryItOut 527
Compiling threw: SyntaxError: invalid assignment left-hand side

tryItOut 528
Running threw: [object StopIteration]

tryItOut 529

tryItOut 530
Compiling threw: SyntaxError: invalid for/in left-hand side

tryItOut 531
Compiling threw: SyntaxError: syntax error

tryItOut 532

tryItOut 533
Running threw: ReferenceError: reference to undefined property "prop"

tryItOut 534

tryItOut 535
Compiling threw: SyntaxError: missing ) after with-statement object

tryItOut 536
Compiling threw: SyntaxError: invalid for/in left-hand side

tryItOut 537
Compiling threw: SyntaxError: missing ) in parenthetical

tryItOut 538
Compiling threw: SyntaxError: missing { before function body

tryItOut 539
Running threw: ReferenceError: z2 is not defined

tryItOut 540
Compiling threw: SyntaxError: missing ) after argument list

tryItOut 541

tryItOut 542

tryItOut 543

tryItOut 544

tryItOut 545
Compiling threw: SyntaxError: invalid for/in left-hand side

tryItOut 546

tryItOut 547

tryItOut 548
Compiling threw: SyntaxError: syntax error

tryItOut 549

tryItOut 550

tryItOut 551

tryItOut 552
Compiling threw: SyntaxError: invalid for/in left-hand side

tryItOut 553
Compiling threw: SyntaxError: invalid assignment left-hand side

tryItOut 554

tryItOut 555
Running threw: TypeError: constructor has no properties

tryItOut 556
Running threw: [object StopIteration]

tryItOut 557

tryItOut 558

tryItOut 559
It's an iterator!
Iterating succeeded, iterCount == 1

tryItOut 560
Compiling threw: SyntaxError: missing = in destructuring declaration

tryItOut 561
Compiling threw: SyntaxError: syntax error

tryItOut 562
Compiling threw: SyntaxError: missing ) in parenthetical

tryItOut 563

tryItOut 564

tryItOut 565

tryItOut 566
Running threw: ReferenceError: __iterator__ is not defined

tryItOut 567

tryItOut 568

tryItOut 569

tryItOut 570
It's an iterator!
Iterating succeeded, iterCount == 1

tryItOut 571
Compiling threw: SyntaxError: missing ) in parenthetical

tryItOut 572
Compiling threw: SyntaxError: missing ) after argument list

tryItOut 573
Compiling threw: SyntaxError: invalid for/in left-hand side

tryItOut 574
Compiling threw: SyntaxError: missing { before function body

tryItOut 575
Compiling threw: SyntaxError: invalid property id

tryItOut 576

tryItOut 577
It's an iterator!
Iterating succeeded, iterCount == 0

tryItOut 578
It's an iterator!
Iterating succeeded, iterCount == 1

tryItOut 579
Compiling threw: SyntaxError: syntax error

tryItOut 580
Compiling threw: SyntaxError: missing { before function body

tryItOut 581
It's an iterator!
Iterating succeeded, iterCount == 0

tryItOut 582
Compiling threw: SyntaxError: syntax error

tryItOut 583
Compiling threw: TypeError: redeclaration of var __count__

tryItOut 584
Compiling threw: SyntaxError: missing ; before statement

tryItOut 585
It's an iterator!
Iterating succeeded, iterCount == 1

tryItOut 586
Compiling threw: SyntaxError: invalid assignment left-hand side

tryItOut 587

tryItOut 588
Compiling threw: SyntaxError: syntax error

tryItOut 589
Compiling threw: SyntaxError: syntax error

tryItOut 590
It's an iterator!
Iterating threw!
Iterating threw: TypeError: "" is not a constructor

tryItOut 591
Compiling threw: SyntaxError: invalid for/in left-hand side

tryItOut 592

tryItOut 593

tryItOut 594
Compiling threw: SyntaxError: missing { before function body

tryItOut 595
Compiling threw: SyntaxError: invalid assignment left-hand side

tryItOut 596
Compiling threw: SyntaxError: missing { before function body

tryItOut 597
It's an iterator!
Iterating succeeded, iterCount == 2

tryItOut 598

tryItOut 599
Compiling threw: SyntaxError: syntax error

tryItOut 600

tryItOut 601
Compiling threw: SyntaxError: missing variable name

tryItOut 602
It's an iterator!
Iterating threw!
Iterating threw: ReferenceError: x is not defined

tryItOut 603
Compiling threw: SyntaxError: missing ) in parenthetical

tryItOut 604
It's an iterator!
Iterating succeeded, iterCount == 0

tryItOut 605
Compiling threw: SyntaxError: invalid assignment left-hand side

tryItOut 606

tryItOut 607
Compiling threw: SyntaxError: syntax error

tryItOut 608
Compiling threw: SyntaxError: invalid assignment left-hand side

tryItOut 609
It's an iterator!
Iterating succeeded, iterCount == 1

tryItOut 610
It's an iterator!
Iterating succeeded, iterCount == 2

tryItOut 611

tryItOut 612

tryItOut 613
Compiling threw: SyntaxError: invalid assignment left-hand side

tryItOut 614

tryItOut 615

tryItOut 616
Compiling threw: SyntaxError: syntax error

tryItOut 617
Compiling threw: SyntaxError: syntax error

tryItOut 618

tryItOut 619
Compiling threw: SyntaxError: missing ) in parenthetical

tryItOut 620
Compiling threw: SyntaxError: syntax error

tryItOut 621

tryItOut 622
Compiling threw: SyntaxError: syntax error

tryItOut 623
It's an iterator!
Iterating succeeded, iterCount == 1

tryItOut 624
Compiling threw: SyntaxError: missing { before function body

tryItOut 625

tryItOut 626
Compiling threw: SyntaxError: missing variable name

tryItOut 627

tryItOut 628
It's an iterator!
Iterating threw!
Iterating threw: ReferenceError: z1 is not defined

tryItOut 629
Compiling threw: SyntaxError: invalid assignment left-hand side

tryItOut 630

tryItOut 631
Compiling threw: SyntaxError: invalid assignment left-hand side

tryItOut 632

tryItOut 633
Compiling threw: SyntaxError: missing { before function body

tryItOut 634

tryItOut 635

tryItOut 636
It's an iterator!
Iterating succeeded, iterCount == 1

tryItOut 637
Running threw: [object StopIteration]

tryItOut 638
Compiling threw: TypeError: redeclaration of const __iterator__

tryItOut 639
It's an iterator!
Iterating succeeded, iterCount == 1

tryItOut 640

tryItOut 641

tryItOut 642

tryItOut 643
Compiling threw: SyntaxError: invalid assignment left-hand side

tryItOut 644

tryItOut 645
Compiling threw: SyntaxError: syntax error

tryItOut 646
Compiling threw: SyntaxError: syntax error

tryItOut 647

tryItOut 648
It's an iterator!
Iterating succeeded, iterCount == 1

tryItOut 649
Compiling threw: SyntaxError: syntax error

tryItOut 650
Compiling threw: SyntaxError: syntax error

tryItOut 651
Running threw: [object StopIteration]

tryItOut 652
Compiling threw: SyntaxError: syntax error

tryItOut 653

tryItOut 654
Compiling threw: SyntaxError: invalid assignment left-hand side

tryItOut 655

tryItOut 656

tryItOut 657
Compiling threw: SyntaxError: invalid for/in left-hand side

tryItOut 658
Compiling threw: SyntaxError: missing ) after condition

tryItOut 659

tryItOut 660
Compiling threw: SyntaxError: missing ) in parenthetical

tryItOut 661
Running threw: ReferenceError: __iterator__ is not defined

tryItOut 662
Running threw: ReferenceError: __iterator__ is not defined

tryItOut 663

tryItOut 664

tryItOut 665
Compiling threw: SyntaxError: syntax error

tryItOut 666

tryItOut 667
Compiling threw: TypeError: redeclaration of variable __count__

tryItOut 668

tryItOut 669

tryItOut 670
Compiling threw: SyntaxError: missing { before function body

tryItOut 671
Compiling threw: SyntaxError: syntax error

tryItOut 672
Compiling threw: SyntaxError: missing ] after element list

tryItOut 673
It's an iterator!
Iterating threw!
Iterating threw: TypeError: /x/g.__lookupGetter__("__parent__") has no properties

tryItOut 674
Compiling threw: SyntaxError: missing { before function body

tryItOut 675
Running threw: ReferenceError: prop is not defined

tryItOut 676
Compiling threw: SyntaxError: missing ) in parenthetical

tryItOut 677
It's an iterator!
Iterating succeeded, iterCount == 0

tryItOut 678

tryItOut 679
Compiling threw: SyntaxError: missing ) in parenthetical

tryItOut 680
It's an iterator!
Iterating succeeded, iterCount == 1

tryItOut 681

tryItOut 682
It's an iterator!
Iterating threw!
Iterating threw: ReferenceError: z1 is not defined

tryItOut 683
Running threw: TypeError: p.z = "" is not a function

tryItOut 684
Compiling threw: SyntaxError: missing variable name

tryItOut 685
Compiling threw: SyntaxError: syntax error

tryItOut 686

tryItOut 687

tryItOut 688
Compiling threw: SyntaxError: duplicate label

tryItOut 689

tryItOut 690
It's an iterator!
Iterating threw!
Iterating threw: ReferenceError: z1 is not defined

tryItOut 691

tryItOut 692
Compiling threw: SyntaxError: syntax error

tryItOut 693

tryItOut 694

tryItOut 695
Compiling threw: SyntaxError: invalid assignment left-hand side

tryItOut 696

tryItOut 697

tryItOut 698

tryItOut 699
Compiling threw: SyntaxError: invalid for/in left-hand side

tryItOut 700
Compiling threw: SyntaxError: invalid destructuring assignment operator

tryItOut 701

tryItOut 702

tryItOut 703
Compiling threw: SyntaxError: invalid assignment left-hand side

tryItOut 704

tryItOut 705
Compiling threw: SyntaxError: syntax error

tryItOut 706
It's an iterator!
Iterating succeeded, iterCount == 1

tryItOut 707

tryItOut 708
It's an iterator!
Iterating succeeded, iterCount == 0

tryItOut 709

tryItOut 710

tryItOut 711

tryItOut 712

tryItOut 713
Compiling threw: SyntaxError: missing { before function body

tryItOut 714

tryItOut 715

tryItOut 716
Compiling threw: SyntaxError: syntax error

tryItOut 717

tryItOut 718

tryItOut 719
It's an iterator!
Iterating succeeded, iterCount == 0

tryItOut 720
Compiling threw: SyntaxError: syntax error

tryItOut 721

tryItOut 722
Compiling threw: SyntaxError: invalid assignment left-hand side

tryItOut 723
Compiling threw: SyntaxError: missing ) in parenthetical

tryItOut 724
It's an iterator!
Iterating succeeded, iterCount == 1

tryItOut 725
Compiling threw: SyntaxError: missing ) in parenthetical

tryItOut 726
Compiling threw: SyntaxError: invalid for/in left-hand side

tryItOut 727
Compiling threw: SyntaxError: missing ; before statement

tryItOut 728

tryItOut 729
It's an iterator!
Iterating succeeded, iterCount == 1

tryItOut 730

tryItOut 731
Compiling threw: SyntaxError: syntax error

tryItOut 732

tryItOut 733
Compiling threw: SyntaxError: invalid assignment left-hand side

tryItOut 734

tryItOut 735
Running threw: TypeError: constructor has no properties

tryItOut 736
It's an iterator!
Iterating succeeded, iterCount == 1

tryItOut 737
Compiling threw: SyntaxError: invalid decrement operand

tryItOut 738

tryItOut 739
Compiling threw: SyntaxError: syntax error

tryItOut 740

tryItOut 741
It's an iterator!
Iterating threw!
Iterating threw: TypeError: "" is not a constructor

tryItOut 742

tryItOut 743
Running threw: ReferenceError: prop is not defined

tryItOut 744
Compiling threw: SyntaxError: missing ) in parenthetical

tryItOut 745
It's an iterator!
Iterating succeeded, iterCount == 1

tryItOut 746
It's an iterator!
Iterating succeeded, iterCount == 2

tryItOut 747
Compiling threw: SyntaxError: syntax error

tryItOut 748
Compiling threw: SyntaxError: invalid for/in left-hand side

tryItOut 749
It's an iterator!
Iterating succeeded, iterCount == 1

tryItOut 750

tryItOut 751
Compiling threw: SyntaxError: missing ) in parenthetical

tryItOut 752
Compiling threw: SyntaxError: unterminated comment

tryItOut 753
Compiling threw: SyntaxError: syntax error

tryItOut 754
Compiling threw: SyntaxError: missing ; after for-loop condition

tryItOut 755
Compiling threw: SyntaxError: invalid assignment left-hand side

tryItOut 756
Compiling threw: SyntaxError: invalid assignment left-hand side

tryItOut 757
Compiling threw: SyntaxError: syntax error

tryItOut 758

tryItOut 759
Compiling threw: SyntaxError: syntax error

tryItOut 760

tryItOut 761

tryItOut 762

tryItOut 763

tryItOut 764
Compiling threw: SyntaxError: invalid for/in left-hand side

tryItOut 765
Compiling threw: SyntaxError: invalid default XML namespace

tryItOut 766
It's an iterator!
Iterating threw!
Iterating threw: TypeError: <y>
  <z/>
</y> is not a constructor

tryItOut 767
Compiling threw: SyntaxError: missing ) in parenthetical

tryItOut 768
Running threw: TypeError: [, ].yoyo is not a function

tryItOut 769
It's an iterator!
Iterating succeeded, iterCount == 1

tryItOut 770
Compiling threw: SyntaxError: syntax error

tryItOut 771

tryItOut 772

tryItOut 773
Compiling threw: SyntaxError: syntax error

tryItOut 774

tryItOut 775

tryItOut 776

tryItOut 777
Compiling threw: SyntaxError: syntax error

tryItOut 778
Compiling threw: SyntaxError: missing variable name

tryItOut 779
It's an iterator!
Iterating succeeded, iterCount == 1

tryItOut 780

tryItOut 781
Compiling threw: SyntaxError: missing variable name

tryItOut 782
Compiling threw: SyntaxError: missing ; before statement

tryItOut 783

tryItOut 784
Compiling threw: SyntaxError: invalid for each loop

tryItOut 785

tryItOut 786
Compiling threw: SyntaxError: invalid assignment left-hand side

tryItOut 787

tryItOut 788
It's an iterator!
Iterating succeeded, iterCount == 1

tryItOut 789

tryItOut 790
Compiling threw: SyntaxError: syntax error

tryItOut 791
Compiling threw: SyntaxError: missing { before function body

tryItOut 792

tryItOut 793
It's an iterator!
Iterating succeeded, iterCount == 1

tryItOut 794

tryItOut 795
It's an iterator!
Iterating succeeded, iterCount == 1

tryItOut 796
It's an iterator!
Iterating succeeded, iterCount == 1

tryItOut 797

tryItOut 798
Compiling threw: SyntaxError: missing { before function body

tryItOut 799
It's an iterator!
Iterating succeeded, iterCount == 1

tryItOut 800
It's an iterator!
Iterating succeeded, iterCount == 1

tryItOut 801
Compiling threw: SyntaxError: syntax error

tryItOut 802
Compiling threw: SyntaxError: invalid for/in left-hand side

tryItOut 803
It's an iterator!
Iterating threw!
Iterating threw: TypeError: null has no properties

tryItOut 804
Compiling threw: SyntaxError: syntax error

tryItOut 805
Compiling threw: SyntaxError: missing variable name

tryItOut 806
Compiling threw: SyntaxError: missing { before function body

tryItOut 807

tryItOut 808

tryItOut 809

tryItOut 810

tryItOut 811
Compiling threw: SyntaxError: invalid for/in left-hand side

tryItOut 812
Compiling threw: SyntaxError: invalid for/in left-hand side

tryItOut 813
Compiling threw: SyntaxError: missing ; before statement

tryItOut 814
Compiling threw: SyntaxError: missing ; after for-loop initializer

tryItOut 815

tryItOut 816
Compiling threw: SyntaxError: missing ) after let head

tryItOut 817

tryItOut 818
Compiling threw: SyntaxError: missing ) in parenthetical

tryItOut 819

tryItOut 820
Running threw: TypeError: this.zzz has no properties

tryItOut 821

tryItOut 822

tryItOut 823
Compiling threw: SyntaxError: syntax error

tryItOut 824
Compiling threw: SyntaxError: missing variable name

tryItOut 825
Compiling threw: SyntaxError: missing = in destructuring declaration

tryItOut 826
It's an iterator!
Iterating succeeded, iterCount == 1

tryItOut 827
It's an iterator!
Iterating succeeded, iterCount == 0

tryItOut 828
Compiling threw: SyntaxError: invalid increment operand

tryItOut 829

tryItOut 830

tryItOut 831
Compiling threw: SyntaxError: invalid for/in left-hand side

tryItOut 832

tryItOut 833
Compiling threw: SyntaxError: missing { before function body

tryItOut 834

tryItOut 835
Compiling threw: SyntaxError: syntax error

tryItOut 836

tryItOut 837
It's an iterator!
Iterating threw!
Iterating threw: TypeError: undefined is not a constructor

tryItOut 838

tryItOut 839
Compiling threw: SyntaxError: missing ) after condition

tryItOut 840

tryItOut 841
Running threw: TypeError: <x>
  <y/>
</x> is not a constructor

tryItOut 842

tryItOut 843

tryItOut 844

tryItOut 845

tryItOut 846

tryItOut 847

tryItOut 848

tryItOut 849

tryItOut 850

tryItOut 851
Compiling threw: SyntaxError: missing ) in parenthetical

tryItOut 852

tryItOut 853
Compiling threw: SyntaxError: syntax error

tryItOut 854

tryItOut 855

tryItOut 856
Compiling threw: SyntaxError: missing { before function body

tryItOut 857
Compiling threw: SyntaxError: missing { before function body

tryItOut 858

tryItOut 859
It's an iterator!
Iterating succeeded, iterCount == 1

tryItOut 860
It's an iterator!
Iterating succeeded, iterCount == 1

tryItOut 861
It's an iterator!
Iterating succeeded, iterCount == 1

tryItOut 862

tryItOut 863

tryItOut 864
Compiling threw: SyntaxError: invalid assignment left-hand side

tryItOut 865
Compiling threw: SyntaxError: syntax error

tryItOut 866

tryItOut 867

tryItOut 868
Compiling threw: SyntaxError: missing ) after condition

tryItOut 869
Compiling threw: SyntaxError: invalid assignment left-hand side

tryItOut 870
Compiling threw: SyntaxError: invalid for/in left-hand side

tryItOut 871
Compiling threw: SyntaxError: missing { before function body

tryItOut 872
Running threw: ReferenceError: z1 is not defined

tryItOut 873
Compiling threw: SyntaxError: invalid assignment left-hand side

tryItOut 874
Compiling threw: SyntaxError: syntax error

tryItOut 875
Compiling threw: SyntaxError: missing ; before statement

tryItOut 876
Compiling threw: SyntaxError: illegal XML character

tryItOut 877
It's an iterator!
Iterating succeeded, iterCount == 1

tryItOut 878

tryItOut 879
Compiling threw: SyntaxError: syntax error

tryItOut 880
Compiling threw: SyntaxError: missing ) in parenthetical

tryItOut 881
Compiling threw: SyntaxError: missing variable name

tryItOut 882
Compiling threw: SyntaxError: missing { before function body

tryItOut 883
Compiling threw: SyntaxError: invalid assignment left-hand side

tryItOut 884
Compiling threw: SyntaxError: missing { before function body

tryItOut 885

tryItOut 886
Compiling threw: SyntaxError: missing ) in parenthetical

tryItOut 887

tryItOut 888
It's an iterator!
Iterating succeeded, iterCount == 2

tryItOut 889
Compiling threw: SyntaxError: invalid assignment left-hand side

tryItOut 890

tryItOut 891

tryItOut 892
Compiling threw: SyntaxError: missing variable name

tryItOut 893
Running threw: ReferenceError: z2 is not defined

tryItOut 894

tryItOut 895
Compiling threw: SyntaxError: syntax error

tryItOut 896

tryItOut 897
Compiling threw: SyntaxError: invalid for each loop

tryItOut 898
Compiling threw: SyntaxError: syntax error

tryItOut 899

tryItOut 900
Compiling threw: SyntaxError: missing ; before statement

tryItOut 901
Compiling threw: SyntaxError: invalid sharp variable definition

tryItOut 902

tryItOut 903
Compiling threw: SyntaxError: missing { before function body

tryItOut 904

tryItOut 905
Compiling threw: SyntaxError: invalid assignment left-hand side

tryItOut 906
Compiling threw: SyntaxError: syntax error

tryItOut 907

tryItOut 908
Compiling threw: SyntaxError: syntax error

tryItOut 909

tryItOut 910
It's an iterator!
Iterating succeeded, iterCount == 1

tryItOut 911
Compiling threw: SyntaxError: syntax error

tryItOut 912

tryItOut 913
Compiling threw: SyntaxError: invalid for/in left-hand side

tryItOut 914
Compiling threw: SyntaxError: invalid assignment left-hand side

tryItOut 915

tryItOut 916

tryItOut 917

tryItOut 918

tryItOut 919

tryItOut 920
Running threw: [object StopIteration]

tryItOut 921

tryItOut 922

tryItOut 923

tryItOut 924
Compiling threw: SyntaxError: invalid assignment left-hand side

tryItOut 925
Compiling threw: SyntaxError: syntax error

tryItOut 926

tryItOut 927
Compiling threw: SyntaxError: missing variable name

tryItOut 928
Compiling threw: SyntaxError: syntax error

tryItOut 929
Compiling threw: SyntaxError: missing ) after argument list

tryItOut 930

tryItOut 931

tryItOut 932
Compiling threw: SyntaxError: syntax error

tryItOut 933
Compiling threw: SyntaxError: missing ) in parenthetical

tryItOut 934
Compiling threw: SyntaxError: syntax error

tryItOut 935
It's an iterator!
Iterating succeeded, iterCount == 1

tryItOut 936
Compiling threw: SyntaxError: syntax error

tryItOut 937
It's an iterator!
Iterating succeeded, iterCount == 1

tryItOut 938

tryItOut 939
Compiling threw: SyntaxError: invalid for/in left-hand side

tryItOut 940

tryItOut 941
Compiling threw: SyntaxError: missing { before function body

tryItOut 942
Compiling threw: SyntaxError: illegal XML character

tryItOut 943

tryItOut 944

tryItOut 945
Compiling threw: SyntaxError: invalid for each loop

tryItOut 946

tryItOut 947
Compiling threw: SyntaxError: missing ) in parenthetical

tryItOut 948

tryItOut 949
Compiling threw: SyntaxError: invalid for/in left-hand side

tryItOut 950

tryItOut 951

tryItOut 952
Running threw: TypeError: <x>
  <y/>
</x> is not a function

tryItOut 953
Compiling threw: SyntaxError: syntax error

tryItOut 954

tryItOut 955

tryItOut 956
Compiling threw: SyntaxError: syntax error

tryItOut 957
Compiling threw: SyntaxError: missing = in destructuring declaration

tryItOut 958

tryItOut 959
Compiling threw: SyntaxError: invalid assignment left-hand side

tryItOut 960
Compiling threw: SyntaxError: missing ) in parenthetical

tryItOut 961
Compiling threw: SyntaxError: syntax error

tryItOut 962

tryItOut 963
Compiling threw: SyntaxError: missing { before function body

tryItOut 964

tryItOut 965

tryItOut 966
Compiling threw: SyntaxError: invalid for/in left-hand side

tryItOut 967
Compiling threw: SyntaxError: syntax error

tryItOut 968

tryItOut 969
Compiling threw: SyntaxError: missing ( before condition

tryItOut 970

tryItOut 971

tryItOut 972
Compiling threw: SyntaxError: syntax error

tryItOut 973

tryItOut 974

tryItOut 975
Compiling threw: SyntaxError: missing { before function body

tryItOut 976
Compiling threw: SyntaxError: syntax error

tryItOut 977

tryItOut 978

tryItOut 979
Compiling threw: SyntaxError: missing ) in parenthetical

tryItOut 980
Compiling threw: SyntaxError: missing ) in parenthetical

tryItOut 981

tryItOut 982
Compiling threw: SyntaxError: missing variable name

tryItOut 983
Compiling threw: SyntaxError: missing ) in parenthetical

tryItOut 984
Compiling threw: SyntaxError: invalid for/in left-hand side

tryItOut 985
Compiling threw: SyntaxError: syntax error

tryItOut 986

tryItOut 987
Compiling threw: SyntaxError: invalid for/in left-hand side

tryItOut 988

tryItOut 989
Compiling threw: SyntaxError: syntax error

tryItOut 990

tryItOut 991
Compiling threw: SyntaxError: invalid for/in left-hand side

tryItOut 992
It's an iterator!
Iterating succeeded, iterCount == 2

tryItOut 993
Compiling threw: SyntaxError: invalid default XML namespace

tryItOut 994
Compiling threw: SyntaxError: missing ; after for-loop initializer

tryItOut 995
Compiling threw: SyntaxError: invalid assignment left-hand side

tryItOut 996
Compiling threw: SyntaxError: syntax error

tryItOut 997
Compiling threw: SyntaxError: missing ) in parenthetical

tryItOut 998
It's an iterator!
Iterating succeeded, iterCount == 1

tryItOut 999
Compiling threw: SyntaxError: missing { before function body

tryItOut 1000
It's an iterator!
Iterating succeeded, iterCount == 1

ALL OK

Script done on Sat 04 May 2013 05:52:11 AM PDT
