Script started on Sat 04 May 2013 05:55:41 AM PDT
***
Targeting SpiderMonkey / Gecko.

tryItOut 1
It's an iterator!
Iterating succeeded, iterCount == 1

tryItOut 2
Compiling threw: SyntaxError: invalid for/in left-hand side

tryItOut 3

tryItOut 4
Compiling threw: SyntaxError: invalid for/in left-hand side

tryItOut 5
Compiling threw: SyntaxError: syntax error

tryItOut 6

tryItOut 7
Compiling threw: SyntaxError: syntax error

tryItOut 8
Compiling threw: SyntaxError: syntax error

tryItOut 9

tryItOut 10
Compiling threw: SyntaxError: syntax error

tryItOut 11
Compiling threw: SyntaxError: missing variable name

tryItOut 12
Compiling threw: SyntaxError: syntax error

tryItOut 13

tryItOut 14

tryItOut 15
Compiling threw: SyntaxError: syntax error

tryItOut 16

tryItOut 17
Compiling threw: SyntaxError: missing ; before statement

tryItOut 18

tryItOut 19
Compiling threw: SyntaxError: missing variable name

tryItOut 20
Compiling threw: SyntaxError: syntax error

tryItOut 21

tryItOut 22
Compiling threw: SyntaxError: missing ] after element list

tryItOut 23
Compiling threw: SyntaxError: syntax error

tryItOut 24
Running threw: ReferenceError: window is not defined

tryItOut 25
Compiling threw: SyntaxError: syntax error

tryItOut 26

tryItOut 27

tryItOut 28
Compiling threw: SyntaxError: syntax error

tryItOut 29
It's an iterator!
Iterating threw!
Iterating threw: ReferenceError: prototype is not defined

tryItOut 30
It's an iterator!
Iterating threw!
Iterating threw: ReferenceError: window is not defined

tryItOut 31

tryItOut 32
Compiling threw: SyntaxError: invalid for/in left-hand side

tryItOut 33

tryItOut 34
Running threw: TypeError: arguments[0] has no properties

tryItOut 35
Compiling threw: SyntaxError: syntax error

tryItOut 36
It's an iterator!
Iterating threw!
Iterating threw: ReferenceError: reference to undefined property "window"

tryItOut 37
Compiling threw: SyntaxError: invalid assignment left-hand side

tryItOut 38
Compiling threw: SyntaxError: missing identifier in catch

tryItOut 39

tryItOut 40
It's an iterator!
Iterating threw!
Iterating threw: ReferenceError: window is not defined

tryItOut 41
Compiling threw: SyntaxError: missing ; before statement

tryItOut 42
Compiling threw: SyntaxError: missing ( before let head

tryItOut 43
Compiling threw: SyntaxError: invalid increment operand

tryItOut 44

tryItOut 45
Running threw: ReferenceError: window is not defined

tryItOut 46

tryItOut 47
Running threw: ReferenceError: window is not defined

tryItOut 48
Compiling threw: SyntaxError: syntax error

tryItOut 49
Compiling threw: SyntaxError: syntax error

tryItOut 50
Compiling threw: SyntaxError: syntax error

tryItOut 51
Running threw: ReferenceError: prop is not defined

tryItOut 52
Running threw: 

tryItOut 53
Compiling threw: SyntaxError: duplicate label

tryItOut 54

tryItOut 55

tryItOut 56
Compiling threw: SyntaxError: missing name after . operator

tryItOut 57
Running threw: function Object() {
    [native code]
}

tryItOut 58
Compiling threw: SyntaxError: missing ) in parenthetical

tryItOut 59

tryItOut 60
Compiling threw: SyntaxError: invalid for/in left-hand side

tryItOut 61
Compiling threw: SyntaxError: missing = in destructuring declaration

tryItOut 62
Compiling threw: SyntaxError: missing ; before statement

tryItOut 63
Compiling threw: TypeError: redeclaration of var prop

tryItOut 64
It's an iterator!
Iterating succeeded, iterCount == 0

tryItOut 65
Compiling threw: TypeError: redeclaration of const __count__

tryItOut 66

tryItOut 67
Compiling threw: SyntaxError: missing ) after condition

tryItOut 68

tryItOut 69
Compiling threw: SyntaxError: invalid assignment left-hand side

tryItOut 70

tryItOut 71
Running threw: ReferenceError: __iterator__ is not defined

tryItOut 72
Compiling threw: SyntaxError: invalid increment operand

tryItOut 73
Compiling threw: SyntaxError: missing variable name

tryItOut 74

tryItOut 75
Compiling threw: SyntaxError: missing variable name

tryItOut 76
Compiling threw: SyntaxError: missing ) after let head

tryItOut 77
Compiling threw: SyntaxError: invalid assignment left-hand side

tryItOut 78
Running threw: <y>
  <z/>
</y>

tryItOut 79
Compiling threw: SyntaxError: syntax error

tryItOut 80
Compiling threw: TypeError: redeclaration of variable prop

tryItOut 81

tryItOut 82
Compiling threw: SyntaxError: missing variable name

tryItOut 83

tryItOut 84
Compiling threw: SyntaxError: invalid property id

tryItOut 85
Running threw: 105

tryItOut 86

tryItOut 87
Compiling threw: SyntaxError: missing variable name

tryItOut 88
Compiling threw: SyntaxError: syntax error

tryItOut 89
Running threw: [object global]

tryItOut 90

tryItOut 91

tryItOut 92
Compiling threw: SyntaxError: invalid for/in left-hand side

tryItOut 93
Compiling threw: SyntaxError: invalid sharp variable definition

tryItOut 94
It's an iterator!
Iterating succeeded, iterCount == 1

tryItOut 95
It's an iterator!
Iterating threw!
Iterating threw: ReferenceError: z1 is not defined

tryItOut 96

tryItOut 97
Compiling threw: SyntaxError: illegal XML character

tryItOut 98
Compiling threw: SyntaxError: invalid for/in left-hand side

tryItOut 99
Compiling threw: SyntaxError: syntax error

tryItOut 100
Compiling threw: SyntaxError: syntax error

tryItOut 101
Compiling threw: SyntaxError: illegal XML character

tryItOut 102
Compiling threw: SyntaxError: syntax error

tryItOut 103
Compiling threw: SyntaxError: syntax error

tryItOut 104
Compiling threw: SyntaxError: missing while after do-loop body

tryItOut 105
Compiling threw: SyntaxError: missing ; before statement

tryItOut 106
Compiling threw: SyntaxError: missing variable name

tryItOut 107

tryItOut 108
Running threw: SyntaxError: missing variable name

tryItOut 109

tryItOut 110
Compiling threw: SyntaxError: invalid for/in left-hand side

tryItOut 111

tryItOut 112
Compiling threw: SyntaxError: missing variable name

tryItOut 113
Compiling threw: SyntaxError: missing ) after argument list

tryItOut 114
Compiling threw: SyntaxError: illegal XML character

tryItOut 115
Compiling threw: SyntaxError: invalid assignment left-hand side

tryItOut 116
Running threw: 

tryItOut 117
Compiling threw: SyntaxError: syntax error

tryItOut 118
Compiling threw: SyntaxError: invalid property id

tryItOut 119
Compiling threw: SyntaxError: syntax error

tryItOut 120

tryItOut 121
Compiling threw: SyntaxError: invalid for/in left-hand side

tryItOut 122
It's an iterator!
Iterating succeeded, iterCount == 1

tryItOut 123
Compiling threw: SyntaxError: invalid for/in left-hand side

tryItOut 124

tryItOut 125

tryItOut 126
Compiling threw: SyntaxError: invalid decrement operand

tryItOut 127

tryItOut 128
Running threw: ReferenceError: window is not defined

tryItOut 129

tryItOut 130

tryItOut 131
Compiling threw: SyntaxError: missing ) after condition

tryItOut 132
Running threw: ReferenceError: prototype is not defined

tryItOut 133
Compiling threw: SyntaxError: invalid for/in left-hand side

tryItOut 134
Compiling threw: SyntaxError: missing variable name

tryItOut 135

tryItOut 136

tryItOut 137
Compiling threw: SyntaxError: invalid assignment left-hand side

tryItOut 138
Compiling threw: SyntaxError: invalid for/in left-hand side

tryItOut 139
Compiling threw: SyntaxError: syntax error

tryItOut 140

tryItOut 141

tryItOut 142

tryItOut 143
Compiling threw: SyntaxError: invalid for/in left-hand side

tryItOut 144
Running threw: /x/g

tryItOut 145
Compiling threw: SyntaxError: missing ; before statement

tryItOut 146
It's an iterator!
Iterating succeeded, iterCount == 2

tryItOut 147

tryItOut 148
Compiling threw: SyntaxError: invalid for/in left-hand side

tryItOut 149

tryItOut 150

tryItOut 151

tryItOut 152
Compiling threw: SyntaxError: syntax error

tryItOut 153
Running threw: [object StopIteration]

tryItOut 154
Running threw: ReferenceError: window is not defined

tryItOut 155

tryItOut 156
Running threw: 106

tryItOut 157

tryItOut 158
Running threw: 106

tryItOut 159
Running threw: <y>
  <z/>
</y>

tryItOut 160
Compiling threw: SyntaxError: invalid decrement operand

tryItOut 161

tryItOut 162

tryItOut 163
Running threw: [object global]

tryItOut 164

tryItOut 165
Compiling threw: SyntaxError: invalid for/in left-hand side

tryItOut 166
Running threw: 

tryItOut 167

tryItOut 168

tryItOut 169
Compiling threw: SyntaxError: invalid for/in left-hand side

tryItOut 170
Compiling threw: SyntaxError: invalid increment operand

tryItOut 171
Compiling threw: SyntaxError: syntax error

tryItOut 172

tryItOut 173

tryItOut 174
It's an iterator!
Iterating succeeded, iterCount == 1

tryItOut 175

tryItOut 176

tryItOut 177
Running threw: [object StopIteration]

tryItOut 178
Compiling threw: TypeError: redeclaration of const prototype

tryItOut 179

tryItOut 180
Compiling threw: SyntaxError: syntax error

tryItOut 181
Running threw: [object global]

tryItOut 182

tryItOut 183
Compiling threw: SyntaxError: syntax error

tryItOut 184
It's an iterator!
Iterating succeeded, iterCount == 1

tryItOut 185

tryItOut 186
Compiling threw: SyntaxError: yield expression must be parenthesized

tryItOut 187

tryItOut 188
Compiling threw: SyntaxError: syntax error

tryItOut 189
Compiling threw: SyntaxError: syntax error

tryItOut 190

tryItOut 191

tryItOut 192

tryItOut 193
Compiling threw: SyntaxError: syntax error

tryItOut 194
Compiling threw: SyntaxError: missing name in export statement

tryItOut 195
Compiling threw: SyntaxError: missing variable name

tryItOut 196
Compiling threw: SyntaxError: missing : after property id

tryItOut 197
Compiling threw: SyntaxError: syntax error

tryItOut 198

tryItOut 199

tryItOut 200
Compiling threw: SyntaxError: illegal XML character

tryItOut 201

tryItOut 202
It's an iterator!
Iterating succeeded, iterCount == 1

tryItOut 203
Running threw: [object StopIteration]

tryItOut 204
Compiling threw: SyntaxError: missing name in export statement

tryItOut 205
Compiling threw: SyntaxError: invalid for/in left-hand side

tryItOut 206
It's an iterator!
Iterating succeeded, iterCount == 1

tryItOut 207

tryItOut 208
Compiling threw: SyntaxError: invalid assignment left-hand side

tryItOut 209
It's an iterator!
Iterating succeeded, iterCount == 1

tryItOut 210
Compiling threw: SyntaxError: syntax error

tryItOut 211

tryItOut 212
Compiling threw: TypeError: redeclaration of const prototype

tryItOut 213
Compiling threw: SyntaxError: missing name in export statement

tryItOut 214
Compiling threw: SyntaxError: invalid switch statement

tryItOut 215
Running threw: 108

tryItOut 216
Compiling threw: TypeError: redeclaration of variable __iterator__

tryItOut 217
Compiling threw: SyntaxError: invalid property id

tryItOut 218

tryItOut 219
Running threw: null

tryItOut 220
Compiling threw: SyntaxError: missing variable name

tryItOut 221
Compiling threw: SyntaxError: missing ) after let head

tryItOut 222
Running threw: ReferenceError: window is not defined

tryItOut 223
It's an iterator!
Iterating threw!
Iterating threw: <y>
  <z/>
</y>

tryItOut 224
Compiling threw: SyntaxError: invalid for/in left-hand side

tryItOut 225
Compiling threw: SyntaxError: missing ) after argument list

tryItOut 226
Compiling threw: SyntaxError: syntax error

tryItOut 227
Compiling threw: SyntaxError: syntax error

tryItOut 228
Compiling threw: SyntaxError: syntax error

tryItOut 229
Compiling threw: SyntaxError: invalid assignment left-hand side

tryItOut 230
Compiling threw: SyntaxError: invalid property id

tryItOut 231

tryItOut 232
Running threw: TypeError: (function (y) {yield y;yield "";yield y;}).call(<x/>, "", <y><z/></y>).yoyo is not a function

tryItOut 233
Compiling threw: SyntaxError: invalid for/in left-hand side

tryItOut 234
Running threw: ReferenceError: reference to undefined XML name @mozilla.org/js/function::__noSuchMethod__

tryItOut 235

tryItOut 236

tryItOut 237

tryItOut 238
Compiling threw: SyntaxError: invalid decrement operand

tryItOut 239
Compiling threw: SyntaxError: syntax error

tryItOut 240

tryItOut 241
Compiling threw: SyntaxError: missing ; before statement

tryItOut 242
Compiling threw: SyntaxError: invalid for/in left-hand side

tryItOut 243
Compiling threw: SyntaxError: syntax error

tryItOut 244

tryItOut 245

tryItOut 246
Compiling threw: SyntaxError: syntax error

tryItOut 247
It's an iterator!
Iterating threw!
Iterating threw: ReferenceError: window is not defined

tryItOut 248
Compiling threw: SyntaxError: missing variable name

tryItOut 249
Compiling threw: SyntaxError: missing = in destructuring declaration

tryItOut 250
Running threw: 1

tryItOut 251
Compiling threw: SyntaxError: syntax error

tryItOut 252

tryItOut 253
Compiling threw: TypeError: redeclaration of var __parent__

tryItOut 254

tryItOut 255
Compiling threw: SyntaxError: syntax error

tryItOut 256
Compiling threw: SyntaxError: missing ) after condition

tryItOut 257

tryItOut 258
Compiling threw: TypeError: redeclaration of const prototype

tryItOut 259

tryItOut 260
Compiling threw: SyntaxError: syntax error

tryItOut 261
It's an iterator!
Iterating succeeded, iterCount == 1

tryItOut 262
Compiling threw: SyntaxError: invalid assignment left-hand side

tryItOut 263

tryItOut 264

tryItOut 265
It's an iterator!
Iterating succeeded, iterCount == 1

tryItOut 266
Compiling threw: SyntaxError: syntax error

tryItOut 267

tryItOut 268

tryItOut 269
Compiling threw: SyntaxError: missing ) after condition

tryItOut 270
Compiling threw: SyntaxError: syntax error

tryItOut 271

tryItOut 272
Compiling threw: TypeError: redeclaration of variable __noSuchMethod__

tryItOut 273
Compiling threw: SyntaxError: invalid decrement operand

tryItOut 274

tryItOut 275
Compiling threw: SyntaxError: invalid for/in left-hand side

tryItOut 276
It's an iterator!
Iterating threw!
Iterating threw: ReferenceError: z2 is not defined

tryItOut 277

tryItOut 278

tryItOut 279
Compiling threw: SyntaxError: invalid for/in left-hand side

tryItOut 280
Compiling threw: SyntaxError: missing variable name

tryItOut 281
Compiling threw: SyntaxError: syntax error

tryItOut 282

tryItOut 283
Compiling threw: SyntaxError: syntax error

tryItOut 284
Compiling threw: SyntaxError: invalid for/in left-hand side

tryItOut 285
Compiling threw: TypeError: redeclaration of const __proto__

tryItOut 286

tryItOut 287
Compiling threw: TypeError: redeclaration of variable __count__

tryItOut 288

tryItOut 289
It's an iterator!
Iterating threw!
Iterating threw: ReferenceError: window is not defined

tryItOut 290
It's an iterator!
Iterating succeeded, iterCount == 0

tryItOut 291
Compiling threw: SyntaxError: missing variable name

tryItOut 292
Compiling threw: SyntaxError: missing variable name

tryItOut 293

tryItOut 294
Compiling threw: SyntaxError: invalid for/in left-hand side

tryItOut 295

tryItOut 296
Compiling threw: SyntaxError: syntax error

tryItOut 297
Compiling threw: SyntaxError: missing while after do-loop body

tryItOut 298
Compiling threw: SyntaxError: invalid decrement operand

tryItOut 299
Running threw: 108

tryItOut 300

tryItOut 301
Compiling threw: SyntaxError: invalid assignment left-hand side

tryItOut 302
Compiling threw: SyntaxError: illegal XML character

tryItOut 303
Compiling threw: SyntaxError: syntax error

tryItOut 304

tryItOut 305
Compiling threw: SyntaxError: invalid for/in left-hand side

tryItOut 306
Compiling threw: TypeError: redeclaration of const constructor

tryItOut 307

tryItOut 308
Compiling threw: SyntaxError: invalid increment operand

tryItOut 309

tryItOut 310
Compiling threw: SyntaxError: syntax error

tryItOut 311

tryItOut 312
Compiling threw: SyntaxError: syntax error

tryItOut 313
Compiling threw: SyntaxError: syntax error

tryItOut 314

tryItOut 315

tryItOut 316
Running threw: <y>
  <z/>
</y>

tryItOut 317

tryItOut 318
Compiling threw: SyntaxError: invalid assignment left-hand side

tryItOut 319

tryItOut 320
Compiling threw: SyntaxError: missing { before function body

tryItOut 321
Compiling threw: SyntaxError: invalid for/in left-hand side

tryItOut 322

tryItOut 323
Compiling threw: SyntaxError: invalid for/in left-hand side

tryItOut 324
Compiling threw: SyntaxError: syntax error

tryItOut 325
Compiling threw: SyntaxError: unterminated comment

tryItOut 326
Compiling threw: SyntaxError: missing name in export statement

tryItOut 327
Compiling threw: TypeError: redeclaration of variable __count__

tryItOut 328

tryItOut 329
Running threw: 

tryItOut 330
Compiling threw: SyntaxError: syntax error

tryItOut 331

tryItOut 332
Compiling threw: SyntaxError: invalid assignment left-hand side

tryItOut 333
It's an iterator!
Iterating succeeded, iterCount == 0

tryItOut 334

tryItOut 335
Compiling threw: SyntaxError: missing ) in parenthetical

tryItOut 336
Compiling threw: SyntaxError: missing ) after catch

tryItOut 337

tryItOut 338

tryItOut 339
Running threw: ReferenceError: __iterator__ is not defined

tryItOut 340

tryItOut 341

tryItOut 342
Compiling threw: SyntaxError: missing ) in parenthetical

tryItOut 343
Compiling threw: SyntaxError: unterminated string literal

tryItOut 344
Running threw: 

tryItOut 345
Compiling threw: SyntaxError: invalid destructuring assignment operator

tryItOut 346

tryItOut 347
Compiling threw: SyntaxError: syntax error

tryItOut 348
Compiling threw: SyntaxError: invalid assignment left-hand side

tryItOut 349
Compiling threw: SyntaxError: invalid decrement operand

tryItOut 350
Compiling threw: SyntaxError: invalid XML name

tryItOut 351
Running threw: [object StopIteration]

tryItOut 352
Compiling threw: SyntaxError: syntax error

tryItOut 353
Running threw: ReferenceError: window is not defined

tryItOut 354
Running threw: ReferenceError: __iterator__ is not defined

tryItOut 355
Compiling threw: TypeError: redeclaration of const __noSuchMethod__

tryItOut 356

tryItOut 357
Compiling threw: SyntaxError: invalid for/in left-hand side

tryItOut 358
Compiling threw: SyntaxError: invalid decrement operand

tryItOut 359

tryItOut 360

tryItOut 361

tryItOut 362
Running threw: 

tryItOut 363

tryItOut 364

tryItOut 365
Compiling threw: SyntaxError: invalid for/in left-hand side

tryItOut 366
Running threw: ReferenceError: reference to undefined XML name @mozilla.org/js/function::__noSuchMethod__

tryItOut 367

tryItOut 368
Compiling threw: SyntaxError: missing ) in parenthetical

tryItOut 369

tryItOut 370
Compiling threw: SyntaxError: invalid assignment left-hand side

tryItOut 371

tryItOut 372
Compiling threw: SyntaxError: missing ) in parenthetical

tryItOut 373
Compiling threw: SyntaxError: syntax error

tryItOut 374
It's an iterator!
Iterating threw!
Iterating threw: ReferenceError: z1 is not defined

tryItOut 375

tryItOut 376
Running threw: TypeError: /x/g.unwatch("__count__") has no properties

tryItOut 377

tryItOut 378

tryItOut 379
Compiling threw: SyntaxError: missing { before function body

tryItOut 380

tryItOut 381
Compiling threw: SyntaxError: missing ; before statement

tryItOut 382
Compiling threw: SyntaxError: syntax error

tryItOut 383
Compiling threw: SyntaxError: invalid for/in left-hand side

tryItOut 384
Compiling threw: SyntaxError: syntax error

tryItOut 385

tryItOut 386
Compiling threw: SyntaxError: invalid decrement operand

tryItOut 387
It's an iterator!
Iterating threw!
Iterating threw: ReferenceError: window is not defined

tryItOut 388
Compiling threw: SyntaxError: invalid for/in left-hand side

tryItOut 389

tryItOut 390

tryItOut 391

tryItOut 392
Compiling threw: SyntaxError: invalid for/in left-hand side

tryItOut 393

tryItOut 394

tryItOut 395
Compiling threw: SyntaxError: missing name after . operator

tryItOut 396

tryItOut 397
Running threw: ReferenceError: window is not defined

tryItOut 398
Compiling threw: SyntaxError: missing ] after element list

tryItOut 399

tryItOut 400

tryItOut 401
Running threw: ReferenceError: window is not defined

tryItOut 402

tryItOut 403

tryItOut 404
Compiling threw: SyntaxError: invalid assignment left-hand side

tryItOut 405
Compiling threw: SyntaxError: syntax error

tryItOut 406
Compiling threw: SyntaxError: invalid for/in left-hand side

tryItOut 407
Running threw: [object StopIteration]

tryItOut 408

tryItOut 409
Compiling threw: SyntaxError: missing ; after for-loop initializer

tryItOut 410

tryItOut 411

tryItOut 412
Compiling threw: SyntaxError: invalid for/in left-hand side

tryItOut 413
It's an iterator!
Iterating succeeded, iterCount == 1

tryItOut 414

tryItOut 415

tryItOut 416

tryItOut 417
Running threw: 

tryItOut 418
Compiling threw: SyntaxError: missing while after do-loop body

tryItOut 419
Compiling threw: SyntaxError: invalid for/in left-hand side

tryItOut 420
Compiling threw: SyntaxError: syntax error

tryItOut 421

tryItOut 422
Running threw: undefined

tryItOut 423
Compiling threw: SyntaxError: missing ] after element list

tryItOut 424

tryItOut 425
Compiling threw: SyntaxError: missing ) in parenthetical

tryItOut 426

tryItOut 427

tryItOut 428

tryItOut 429

tryItOut 430

tryItOut 431
Compiling threw: SyntaxError: missing while after do-loop body

tryItOut 432
Compiling threw: SyntaxError: duplicate label

tryItOut 433
Compiling threw: SyntaxError: invalid for/in left-hand side

tryItOut 434

tryItOut 435

tryItOut 436
Compiling threw: TypeError: redeclaration of const __noSuchMethod__

tryItOut 437
Compiling threw: SyntaxError: missing ( before let head

tryItOut 438
Compiling threw: SyntaxError: syntax error

tryItOut 439

tryItOut 440
It's an iterator!
Iterating threw!
Iterating threw: ReferenceError: reference to undefined XML name @mozilla.org/js/function::__iterator__

tryItOut 441
Compiling threw: SyntaxError: missing while after do-loop body

tryItOut 442
Running threw: ReferenceError: window is not defined

tryItOut 443
It's an iterator!
Iterating succeeded, iterCount == 1

tryItOut 444
Running threw: [object global]

tryItOut 445
Compiling threw: SyntaxError: missing { before function body

tryItOut 446

tryItOut 447
Compiling threw: SyntaxError: missing ; before statement

tryItOut 448
Compiling threw: SyntaxError: syntax error

tryItOut 449
Compiling threw: SyntaxError: syntax error

tryItOut 450

tryItOut 451
Compiling threw: SyntaxError: invalid assignment left-hand side

tryItOut 452

tryItOut 453

tryItOut 454
Compiling threw: TypeError: redeclaration of variable __count__

tryItOut 455

tryItOut 456
Compiling threw: SyntaxError: syntax error

tryItOut 457

tryItOut 458
Compiling threw: SyntaxError: missing ; after for-loop initializer

tryItOut 459
Compiling threw: SyntaxError: invalid assignment left-hand side

tryItOut 460

tryItOut 461
Running threw: [object StopIteration]

tryItOut 462

tryItOut 463

tryItOut 464

tryItOut 465
Compiling threw: SyntaxError: syntax error

tryItOut 466

tryItOut 467
Compiling threw: SyntaxError: missing } in XML expression

tryItOut 468

tryItOut 469
Compiling threw: SyntaxError: missing ] after element list

tryItOut 470

tryItOut 471
Compiling threw: TypeError: redeclaration of const __parent__

tryItOut 472

tryItOut 473
Compiling threw: SyntaxError: invalid for/in left-hand side

tryItOut 474

tryItOut 475
Compiling threw: SyntaxError: syntax error

tryItOut 476
Compiling threw: SyntaxError: missing ; before statement

tryItOut 477

tryItOut 478
Compiling threw: SyntaxError: invalid assignment left-hand side

tryItOut 479
Compiling threw: SyntaxError: syntax error

tryItOut 480
It's an iterator!
Iterating threw!
Iterating threw: ReferenceError: window is not defined

tryItOut 481
Compiling threw: TypeError: redeclaration of variable __iterator__

tryItOut 482
Running threw: ReferenceError: window is not defined

tryItOut 483

tryItOut 484

tryItOut 485
Compiling threw: SyntaxError: invalid for/in left-hand side

tryItOut 486
Compiling threw: SyntaxError: missing { before function body

tryItOut 487
Compiling threw: SyntaxError: syntax error

tryItOut 488
Compiling threw: SyntaxError: missing variable name

tryItOut 489
It's an iterator!
Iterating succeeded, iterCount == 2

tryItOut 490

tryItOut 491
Compiling threw: SyntaxError: invalid for/in left-hand side

tryItOut 492
Running threw: [object StopIteration]

tryItOut 493
Compiling threw: SyntaxError: invalid label

tryItOut 494
Compiling threw: TypeError: redeclaration of variable __count__

tryItOut 495

tryItOut 496
Running threw: ReferenceError: __iterator__ is not defined

tryItOut 497
Compiling threw: SyntaxError: syntax error

tryItOut 498
Compiling threw: SyntaxError: illegal XML character

tryItOut 499
Compiling threw: SyntaxError: invalid decrement operand

tryItOut 500

tryItOut 501

tryItOut 502
Compiling threw: SyntaxError: syntax error

tryItOut 503
Compiling threw: SyntaxError: missing name in export statement

tryItOut 504

tryItOut 505
Running threw: 109

tryItOut 506
Running threw: ReferenceError: z1 is not defined

tryItOut 507

tryItOut 508

tryItOut 509

tryItOut 510

tryItOut 511
Running threw: [object StopIteration]

tryItOut 512
Compiling threw: SyntaxError: syntax error

tryItOut 513
Compiling threw: SyntaxError: illegal XML character

tryItOut 514
Running threw: ReferenceError: window is not defined

tryItOut 515
Compiling threw: SyntaxError: invalid assignment left-hand side

tryItOut 516
Compiling threw: SyntaxError: syntax error

tryItOut 517
Compiling threw: SyntaxError: missing variable name

tryItOut 518
Running threw: 

tryItOut 519
Running threw: 

tryItOut 520
Compiling threw: SyntaxError: missing ; before statement

tryItOut 521

tryItOut 522

tryItOut 523

tryItOut 524

tryItOut 525
Running threw: 1

tryItOut 526
Compiling threw: SyntaxError: syntax error

tryItOut 527
Compiling threw: SyntaxError: missing ] after element list

tryItOut 528
Compiling threw: SyntaxError: syntax error

tryItOut 529

tryItOut 530
Compiling threw: TypeError: redeclaration of variable __noSuchMethod__

tryItOut 531

tryItOut 532
Running threw: [object global]

tryItOut 533

tryItOut 534
Compiling threw: SyntaxError: missing { before function body

tryItOut 535

tryItOut 536
Compiling threw: SyntaxError: invalid increment operand

tryItOut 537

tryItOut 538
Running threw: [object StopIteration]

tryItOut 539
Compiling threw: SyntaxError: syntax error

tryItOut 540
Running threw: ReferenceError: window is not defined

tryItOut 541

tryItOut 542
Running threw: ReferenceError: __iterator__ is not defined

tryItOut 543
Compiling threw: SyntaxError: syntax error

tryItOut 544
Running threw: 

tryItOut 545
Compiling threw: SyntaxError: syntax error

tryItOut 546
Running threw: 

tryItOut 547
Compiling threw: SyntaxError: invalid assignment left-hand side

tryItOut 548
Compiling threw: SyntaxError: missing while after do-loop body

tryItOut 549
Running threw: [object StopIteration]

tryItOut 550
It's an iterator!
Iterating succeeded, iterCount == 1

tryItOut 551

tryItOut 552
Compiling threw: SyntaxError: invalid assignment left-hand side

tryItOut 553
Running threw: 

tryItOut 554
Compiling threw: SyntaxError: missing ] after element list

tryItOut 555

tryItOut 556

tryItOut 557
Compiling threw: SyntaxError: missing variable name

tryItOut 558
Compiling threw: SyntaxError: syntax error

tryItOut 559
Compiling threw: SyntaxError: missing ) after condition

tryItOut 560

tryItOut 561
Compiling threw: SyntaxError: missing { before function body

tryItOut 562

tryItOut 563

tryItOut 564

tryItOut 565
Running threw: [object StopIteration]

tryItOut 566
Compiling threw: SyntaxError: syntax error

tryItOut 567
Compiling threw: SyntaxError: invalid for/in left-hand side

tryItOut 568
Compiling threw: SyntaxError: invalid increment operand

tryItOut 569
It's an iterator!
Iterating succeeded, iterCount == 1

tryItOut 570
Compiling threw: SyntaxError: invalid for/in left-hand side

tryItOut 571

tryItOut 572
Compiling threw: SyntaxError: invalid for/in left-hand side

tryItOut 573
Running threw: null

tryItOut 574
Running threw: /x/

tryItOut 575
Compiling threw: SyntaxError: missing ) in parenthetical

tryItOut 576

tryItOut 577

tryItOut 578
Compiling threw: SyntaxError: missing name in export statement

tryItOut 579

tryItOut 580

tryItOut 581

tryItOut 582

tryItOut 583
It's an iterator!
Iterating succeeded, iterCount == 1

tryItOut 584
Compiling threw: SyntaxError: missing ) after condition

tryItOut 585

tryItOut 586
Running threw: [object StopIteration]

tryItOut 587
Compiling threw: SyntaxError: invalid assignment left-hand side

tryItOut 588
Compiling threw: SyntaxError: syntax error

tryItOut 589

tryItOut 590
Compiling threw: SyntaxError: syntax error

tryItOut 591
Compiling threw: SyntaxError: missing variable name

tryItOut 592
Compiling threw: SyntaxError: missing variable name

tryItOut 593
Compiling threw: SyntaxError: syntax error

tryItOut 594
Compiling threw: SyntaxError: invalid increment operand

tryItOut 595

tryItOut 596
Compiling threw: SyntaxError: syntax error

tryItOut 597
Compiling threw: SyntaxError: duplicate label

tryItOut 598
Compiling threw: SyntaxError: missing ] after element list

tryItOut 599

tryItOut 600
Compiling threw: SyntaxError: invalid assignment left-hand side

tryItOut 601
Compiling threw: SyntaxError: syntax error

tryItOut 602
It's an iterator!
Iterating succeeded, iterCount == 0

tryItOut 603
Compiling threw: TypeError: redeclaration of variable __iterator__

tryItOut 604
It's an iterator!
Iterating threw!
Iterating threw: ReferenceError: window is not defined

tryItOut 605
It's an iterator!
Iterating succeeded, iterCount == 1

tryItOut 606
Compiling threw: SyntaxError: missing while after do-loop body

tryItOut 607
Compiling threw: SyntaxError: syntax error

tryItOut 608
Compiling threw: SyntaxError: missing while after do-loop body

tryItOut 609
Compiling threw: SyntaxError: invalid decrement operand

tryItOut 610
Compiling threw: SyntaxError: missing ) in parenthetical

tryItOut 611

tryItOut 612

tryItOut 613

tryItOut 614

tryItOut 615

tryItOut 616
Running threw: Error: invalid sharp variable use #1#

tryItOut 617

tryItOut 618

tryItOut 619
Compiling threw: SyntaxError: missing ; before statement

tryItOut 620

tryItOut 621
Compiling threw: SyntaxError: invalid default XML namespace

tryItOut 622
Compiling threw: SyntaxError: missing name in export statement

tryItOut 623
Compiling threw: TypeError: redeclaration of const __noSuchMethod__

tryItOut 624
Compiling threw: SyntaxError: syntax error

tryItOut 625
Compiling threw: SyntaxError: invalid for/in left-hand side

tryItOut 626

tryItOut 627

tryItOut 628

tryItOut 629
Compiling threw: SyntaxError: invalid destructuring assignment operator

tryItOut 630
Running threw: [object global]

tryItOut 631

tryItOut 632
Compiling threw: SyntaxError: invalid assignment left-hand side

tryItOut 633
Compiling threw: SyntaxError: invalid assignment left-hand side

tryItOut 634
Compiling threw: TypeError: redeclaration of const __parent__

tryItOut 635

tryItOut 636
Running threw: 1,

tryItOut 637
Compiling threw: SyntaxError: syntax error

tryItOut 638

tryItOut 639
Compiling threw: SyntaxError: invalid for/in left-hand side

tryItOut 640
Compiling threw: SyntaxError: invalid for/in left-hand side

tryItOut 641
Compiling threw: SyntaxError: invalid for/in left-hand side

tryItOut 642
Compiling threw: SyntaxError: missing ) after condition

tryItOut 643
Running threw: 

tryItOut 644
It's an iterator!
Iterating succeeded, iterCount == 1

tryItOut 645
Compiling threw: SyntaxError: invalid decrement operand

tryItOut 646
Compiling threw: SyntaxError: invalid assignment left-hand side

tryItOut 647
It's an iterator!
Iterating succeeded, iterCount == 1

tryItOut 648

tryItOut 649
Compiling threw: SyntaxError: invalid for/in left-hand side

tryItOut 650
Compiling threw: SyntaxError: missing : after property id

tryItOut 651

tryItOut 652
Compiling threw: SyntaxError: missing { before function body

tryItOut 653

tryItOut 654

tryItOut 655

tryItOut 656

tryItOut 657

tryItOut 658
Compiling threw: SyntaxError: syntax error

tryItOut 659
Compiling threw: SyntaxError: syntax error

tryItOut 660

tryItOut 661
Compiling threw: SyntaxError: syntax error

tryItOut 662

tryItOut 663
Compiling threw: SyntaxError: missing variable name

tryItOut 664
Compiling threw: SyntaxError: invalid increment operand

tryItOut 665
Compiling threw: SyntaxError: invalid assignment left-hand side

tryItOut 666
Compiling threw: SyntaxError: invalid assignment left-hand side

tryItOut 667
Running threw: [object StopIteration]

tryItOut 668
Compiling threw: SyntaxError: syntax error

tryItOut 669
Running threw: [object Object]

tryItOut 670

tryItOut 671

tryItOut 672

tryItOut 673
Running threw: ReferenceError: window is not defined

tryItOut 674
Compiling threw: SyntaxError: syntax error

tryItOut 675
Compiling threw: SyntaxError: syntax error

tryItOut 676

tryItOut 677

tryItOut 678

tryItOut 679
Compiling threw: SyntaxError: syntax error

tryItOut 680
Compiling threw: SyntaxError: missing ) after let head

tryItOut 681
Compiling threw: SyntaxError: invalid for/in left-hand side

tryItOut 682
Running threw: /x/

tryItOut 683
Running threw: SyntaxError: invalid setter usage

tryItOut 684

tryItOut 685

tryItOut 686
Compiling threw: SyntaxError: invalid increment operand

tryItOut 687
Compiling threw: TypeError: redeclaration of variable __parent__

tryItOut 688
Compiling threw: TypeError: redeclaration of variable prop

tryItOut 689
Compiling threw: SyntaxError: missing ) after condition

tryItOut 690
Compiling threw: SyntaxError: invalid assignment left-hand side

tryItOut 691

tryItOut 692

tryItOut 693
Compiling threw: SyntaxError: invalid assignment left-hand side

tryItOut 694
Compiling threw: TypeError: redeclaration of variable __parent__

tryItOut 695
Compiling threw: SyntaxError: missing { before function body

tryItOut 696

tryItOut 697

tryItOut 698
Running threw: ReferenceError: window is not defined

tryItOut 699
Running threw: [object Object]

tryItOut 700
Compiling threw: SyntaxError: duplicate label

tryItOut 701
Compiling threw: TypeError: redeclaration of variable prototype

tryItOut 702
Compiling threw: SyntaxError: invalid assignment left-hand side

tryItOut 703

tryItOut 704

tryItOut 705

tryItOut 706
Compiling threw: SyntaxError: syntax error

tryItOut 707
It's an iterator!
Iterating succeeded, iterCount == 0

tryItOut 708
Compiling threw: SyntaxError: invalid for/in left-hand side

tryItOut 709
Compiling threw: SyntaxError: invalid assignment left-hand side

tryItOut 710

tryItOut 711
Compiling threw: SyntaxError: missing { before function body

tryItOut 712
Compiling threw: SyntaxError: syntax error

tryItOut 713
Compiling threw: SyntaxError: syntax error

tryItOut 714

tryItOut 715
Compiling threw: SyntaxError: syntax error

tryItOut 716
Compiling threw: TypeError: redeclaration of variable prototype

tryItOut 717
Compiling threw: SyntaxError: invalid for/in left-hand side

tryItOut 718

tryItOut 719
Compiling threw: SyntaxError: syntax error

tryItOut 720
Compiling threw: SyntaxError: missing ) in parenthetical

tryItOut 721
Compiling threw: SyntaxError: missing ) in parenthetical

tryItOut 722

tryItOut 723

tryItOut 724
Compiling threw: SyntaxError: invalid destructuring assignment operator

tryItOut 725

tryItOut 726

tryItOut 727
Compiling threw: SyntaxError: missing ; after for-loop initializer

tryItOut 728
Compiling threw: SyntaxError: syntax error

tryItOut 729
Compiling threw: SyntaxError: syntax error

tryItOut 730
Compiling threw: SyntaxError: syntax error

tryItOut 731
It's an iterator!
Iterating threw!
Iterating threw: ReferenceError: z1 is not defined

tryItOut 732
Compiling threw: SyntaxError: missing ; before statement

tryItOut 733
Compiling threw: SyntaxError: invalid increment operand

tryItOut 734
It's an iterator!
Iterating succeeded, iterCount == 1

tryItOut 735

tryItOut 736

tryItOut 737
It's an iterator!
Iterating threw!
Iterating threw: ReferenceError: window is not defined

tryItOut 738
Compiling threw: SyntaxError: syntax error

tryItOut 739

tryItOut 740

tryItOut 741

tryItOut 742
Compiling threw: SyntaxError: invalid for/in left-hand side

tryItOut 743
Compiling threw: SyntaxError: invalid assignment left-hand side

tryItOut 744
Compiling threw: SyntaxError: invalid increment operand

tryItOut 745

tryItOut 746

tryItOut 747

tryItOut 748
Compiling threw: SyntaxError: syntax error

tryItOut 749

tryItOut 750
Compiling threw: SyntaxError: missing ] after element list

tryItOut 751

tryItOut 752

tryItOut 753

tryItOut 754
It's an iterator!
Iterating succeeded, iterCount == 1

tryItOut 755

tryItOut 756
Running threw: [object StopIteration]

tryItOut 757

tryItOut 758
Running threw: 

tryItOut 759

tryItOut 760
Compiling threw: SyntaxError: invalid assignment left-hand side

tryItOut 761
Compiling threw: SyntaxError: invalid for/in left-hand side

tryItOut 762
Compiling threw: TypeError: redeclaration of variable __proto__

tryItOut 763
Compiling threw: SyntaxError: invalid for/in left-hand side

tryItOut 764

tryItOut 765
It's an iterator!
Iterating succeeded, iterCount == 1

tryItOut 766
It's an iterator!
Iterating succeeded, iterCount == 0

tryItOut 767

tryItOut 768
Compiling threw: SyntaxError: syntax error

tryItOut 769

tryItOut 770
Compiling threw: SyntaxError: missing while after do-loop body

tryItOut 771
Compiling threw: SyntaxError: invalid assignment left-hand side

tryItOut 772
Running threw: [object global]

tryItOut 773
Running threw: ReferenceError: window is not defined

tryItOut 774
Running threw: ReferenceError: z2 is not defined

tryItOut 775
Compiling threw: SyntaxError: invalid assignment left-hand side

tryItOut 776
Compiling threw: SyntaxError: syntax error

tryItOut 777
Compiling threw: SyntaxError: invalid for/in left-hand side

tryItOut 778
Compiling threw: SyntaxError: missing ; before statement

tryItOut 779
Running threw: 111

tryItOut 780
Compiling threw: TypeError: redeclaration of var __count__

tryItOut 781
Compiling threw: SyntaxError: invalid for/in left-hand side

tryItOut 782
Running threw: 

tryItOut 783
Running threw: [object StopIteration]

tryItOut 784

tryItOut 785

tryItOut 786
Running threw: ReferenceError: window is not defined

tryItOut 787
Compiling threw: SyntaxError: invalid for/in left-hand side

tryItOut 788
Running threw: ReferenceError: window is not defined

tryItOut 789

tryItOut 790

tryItOut 791
Compiling threw: SyntaxError: missing while after do-loop body

tryItOut 792

tryItOut 793

tryItOut 794
Running threw: 111

tryItOut 795

tryItOut 796
It's an iterator!
Iterating succeeded, iterCount == 1

tryItOut 797
Compiling threw: TypeError: redeclaration of const __count__

tryItOut 798
Compiling threw: TypeError: redeclaration of var prop

tryItOut 799
Compiling threw: SyntaxError: syntax error

tryItOut 800
Running threw: [object StopIteration]

tryItOut 801

tryItOut 802

tryItOut 803

tryItOut 804
Compiling threw: SyntaxError: invalid for/in left-hand side

tryItOut 805
Compiling threw: SyntaxError: missing ( before formal parameters

tryItOut 806

tryItOut 807

tryItOut 808
It's an iterator!
Iterating threw!
Iterating threw: function Object() {
    [native code]
}

tryItOut 809
Running threw: TypeError: second argument to Function.prototype.apply must be an array

tryItOut 810
Compiling threw: SyntaxError: invalid for/in left-hand side

tryItOut 811

tryItOut 812

tryItOut 813

tryItOut 814
Compiling threw: SyntaxError: invalid for/in left-hand side

tryItOut 815
Running threw: 

tryItOut 816

tryItOut 817

tryItOut 818
Compiling threw: SyntaxError: invalid assignment left-hand side

tryItOut 819

tryItOut 820

tryItOut 821

tryItOut 822

tryItOut 823
Compiling threw: SyntaxError: syntax error

tryItOut 824
Compiling threw: SyntaxError: syntax error

tryItOut 825

tryItOut 826

tryItOut 827
Compiling threw: SyntaxError: invalid assignment left-hand side

tryItOut 828

tryItOut 829

tryItOut 830

tryItOut 831
Compiling threw: SyntaxError: syntax error

tryItOut 832

tryItOut 833
Compiling threw: SyntaxError: invalid XML name

tryItOut 834
Compiling threw: SyntaxError: syntax error

tryItOut 835

tryItOut 836

tryItOut 837
It's an iterator!
Iterating threw!
Iterating threw: ReferenceError: z1 is not defined

tryItOut 838
Running threw: 

tryItOut 839
It's an iterator!
Iterating threw!
Iterating threw: ReferenceError: z2 is not defined

tryItOut 840

tryItOut 841
Running threw: [object StopIteration]

tryItOut 842
Compiling threw: SyntaxError: missing } after property list

tryItOut 843

tryItOut 844
Compiling threw: SyntaxError: invalid for/in left-hand side

tryItOut 845
Compiling threw: SyntaxError: syntax error

tryItOut 846
Compiling threw: SyntaxError: invalid for/in left-hand side

tryItOut 847

tryItOut 848

tryItOut 849
Compiling threw: SyntaxError: invalid for/in left-hand side

tryItOut 850

tryItOut 851
Running threw: [object global]

tryItOut 852
It's an iterator!
Iterating threw!
Iterating threw: TypeError: /x/.unwatch("__parent__") has no properties

tryItOut 853
Compiling threw: SyntaxError: syntax error

tryItOut 854

tryItOut 855
Compiling threw: SyntaxError: syntax error

tryItOut 856

tryItOut 857
Compiling threw: SyntaxError: invalid for/in left-hand side

tryItOut 858

tryItOut 859

tryItOut 860
Compiling threw: TypeError: redeclaration of const __parent__

tryItOut 861
Compiling threw: SyntaxError: invalid increment operand

tryItOut 862

tryItOut 863
Compiling threw: SyntaxError: missing ; before statement

tryItOut 864
Compiling threw: SyntaxError: syntax error

tryItOut 865
Running threw: 111

tryItOut 866
Compiling threw: SyntaxError: invalid XML name

tryItOut 867

tryItOut 868
Compiling threw: SyntaxError: missing ) in parenthetical

tryItOut 869

tryItOut 870
Compiling threw: SyntaxError: missing ) in parenthetical

tryItOut 871
Compiling threw: SyntaxError: syntax error

tryItOut 872
Compiling threw: SyntaxError: missing variable name

tryItOut 873

tryItOut 874
Compiling threw: SyntaxError: syntax error

tryItOut 875
Compiling threw: SyntaxError: missing ) in parenthetical

tryItOut 876
Compiling threw: SyntaxError: missing ) in parenthetical

tryItOut 877
Compiling threw: SyntaxError: syntax error

tryItOut 878
Running threw: ReferenceError: z1 is not defined

tryItOut 879

tryItOut 880
Compiling threw: SyntaxError: syntax error

tryItOut 881
Running threw: [object global]

tryItOut 882
Compiling threw: SyntaxError: syntax error

tryItOut 883
Compiling threw: SyntaxError: missing while after do-loop body

tryItOut 884

tryItOut 885

tryItOut 886
Running threw: /x/

tryItOut 887
Compiling threw: SyntaxError: missing variable name

tryItOut 888
Compiling threw: SyntaxError: yield expression must be parenthesized

tryItOut 889
It's an iterator!
Iterating threw!
Iterating threw: ReferenceError: window is not defined

tryItOut 890

tryItOut 891

tryItOut 892

tryItOut 893

tryItOut 894
Compiling threw: SyntaxError: invalid assignment left-hand side

tryItOut 895
Compiling threw: SyntaxError: syntax error

tryItOut 896
Compiling threw: TypeError: redeclaration of variable prototype

tryItOut 897
Compiling threw: TypeError: redeclaration of var __noSuchMethod__

tryItOut 898
Running threw: TypeError: p.z = {a1:1} is not a function

tryItOut 899

tryItOut 900

tryItOut 901

tryItOut 902
Compiling threw: SyntaxError: syntax error

tryItOut 903

tryItOut 904

tryItOut 905
Compiling threw: SyntaxError: missing { before function body

tryItOut 906

tryItOut 907
Compiling threw: SyntaxError: missing variable name

tryItOut 908

tryItOut 909
Compiling threw: TypeError: redeclaration of const __proto__

tryItOut 910
Compiling threw: SyntaxError: missing ) in parenthetical

tryItOut 911

tryItOut 912
Compiling threw: SyntaxError: invalid assignment left-hand side

tryItOut 913

tryItOut 914

tryItOut 915
Compiling threw: SyntaxError: syntax error

tryItOut 916
Compiling threw: SyntaxError: syntax error

tryItOut 917

tryItOut 918
Running threw: [object StopIteration]

tryItOut 919
Compiling threw: SyntaxError: invalid for/in left-hand side

tryItOut 920
Running threw: SyntaxError: invalid assignment left-hand side

tryItOut 921
Compiling threw: SyntaxError: missing : after property id

tryItOut 922
Running threw: Error: invalid sharp variable use #1#

tryItOut 923
Compiling threw: SyntaxError: missing ; before statement

tryItOut 924
Running threw: [object StopIteration]

tryItOut 925

tryItOut 926
It's an iterator!
Iterating succeeded, iterCount == 1

tryItOut 927

tryItOut 928

tryItOut 929

tryItOut 930
Compiling threw: SyntaxError: syntax error

tryItOut 931
Compiling threw: SyntaxError: invalid assignment left-hand side

tryItOut 932
Compiling threw: SyntaxError: syntax error

tryItOut 933
Compiling threw: SyntaxError: syntax error

tryItOut 934

tryItOut 935
Compiling threw: SyntaxError: missing ) in parenthetical

tryItOut 936
Compiling threw: SyntaxError: syntax error

tryItOut 937
Compiling threw: SyntaxError: missing variable name

tryItOut 938

tryItOut 939
It's an iterator!
Iterating succeeded, iterCount == 0

tryItOut 940

tryItOut 941

tryItOut 942
Compiling threw: SyntaxError: invalid decrement operand

tryItOut 943

tryItOut 944
Compiling threw: SyntaxError: invalid XML name

tryItOut 945

tryItOut 946
Compiling threw: SyntaxError: invalid assignment left-hand side

tryItOut 947

tryItOut 948
Compiling threw: SyntaxError: missing variable name

tryItOut 949

tryItOut 950

tryItOut 951

tryItOut 952

tryItOut 953

tryItOut 954
Running threw: <y>
  <z/>
</y>

tryItOut 955

tryItOut 956
Compiling threw: SyntaxError: invalid destructuring assignment operator

tryItOut 957

tryItOut 958

tryItOut 959
Running threw: ReferenceError: window is not defined

tryItOut 960
Compiling threw: SyntaxError: syntax error

tryItOut 961
Compiling threw: TypeError: redeclaration of var __count__

tryItOut 962
Compiling threw: SyntaxError: invalid for/in left-hand side

tryItOut 963

tryItOut 964
Compiling threw: SyntaxError: syntax error

tryItOut 965

tryItOut 966
Compiling threw: SyntaxError: syntax error

tryItOut 967

tryItOut 968
Compiling threw: TypeError: redeclaration of variable prototype

tryItOut 969

tryItOut 970
Compiling threw: SyntaxError: missing ; before statement

tryItOut 971

tryItOut 972

tryItOut 973
It's an iterator!
Iterating succeeded, iterCount == 1

tryItOut 974

tryItOut 975

tryItOut 976
Compiling threw: SyntaxError: missing ; after for-loop initializer

tryItOut 977
Compiling threw: SyntaxError: invalid assignment left-hand side

tryItOut 978

tryItOut 979
It's an iterator!
Iterating succeeded, iterCount == 1

tryItOut 980

tryItOut 981
Running threw: ReferenceError: window is not defined

tryItOut 982

tryItOut 983

tryItOut 984

tryItOut 985

tryItOut 986
It's an iterator!
Iterating succeeded, iterCount == 1

tryItOut 987
Running threw: [object StopIteration]

tryItOut 988
Compiling threw: TypeError: redeclaration of const __count__

tryItOut 989
Compiling threw: SyntaxError: missing variable name

tryItOut 990

tryItOut 991
Compiling threw: SyntaxError: syntax error

tryItOut 992
Compiling threw: SyntaxError: missing variable name

tryItOut 993
Compiling threw: SyntaxError: syntax error

tryItOut 994

tryItOut 995
Compiling threw: SyntaxError: syntax error

tryItOut 996
Compiling threw: SyntaxError: syntax error

tryItOut 997

tryItOut 998
Compiling threw: TypeError: redeclaration of var __proto__

tryItOut 999
Compiling threw: SyntaxError: invalid assignment left-hand side

tryItOut 1000
Compiling threw: SyntaxError: syntax error

ALL OK

Script done on Sat 04 May 2013 05:55:42 AM PDT
