Script started on Sat 04 May 2013 05:54:50 AM PDT
***
Targeting SpiderMonkey / Gecko.

tryItOut 1
Compiling threw: SyntaxError: syntax error

tryItOut 2
Compiling threw: SyntaxError: missing ; before statement

tryItOut 3
Running threw: [object StopIteration]

tryItOut 4
Running threw: ReferenceError: prop is not defined

tryItOut 5
Compiling threw: SyntaxError: syntax error

tryItOut 6
It's an iterator!
Iterating threw!
Iterating threw: ReferenceError: reference to undefined XML name *::*

tryItOut 7
It's an iterator!
Iterating succeeded, iterCount == 1

tryItOut 8
Compiling threw: SyntaxError: label not found

tryItOut 9
Compiling threw: SyntaxError: syntax error

tryItOut 10

tryItOut 11
Compiling threw: SyntaxError: syntax error

tryItOut 12
Compiling threw: SyntaxError: syntax error

tryItOut 13

tryItOut 14
Running threw: ReferenceError: reference to undefined XML name *

tryItOut 15
Compiling threw: SyntaxError: syntax error

tryItOut 16
Running threw: ReferenceError: prop is not defined

tryItOut 17
Compiling threw: SyntaxError: missing ; before statement

tryItOut 18

tryItOut 19
It's an iterator!
Iterating succeeded, iterCount == 1

tryItOut 20
It's an iterator!
Iterating succeeded, iterCount == 1

tryItOut 21
It's an iterator!
Iterating succeeded, iterCount == 1

tryItOut 22
Compiling threw: SyntaxError: missing { before function body

tryItOut 23
It's an iterator!
Iterating succeeded, iterCount == 1

tryItOut 24

tryItOut 25
Running threw: ReferenceError: reference to undefined XML name *::*

tryItOut 26
Running threw: TypeError: this.zzz has no properties

tryItOut 27
Compiling threw: SyntaxError: syntax error

tryItOut 28
Compiling threw: SyntaxError: missing { before function body

tryItOut 29
Compiling threw: SyntaxError: missing { before function body

tryItOut 30

tryItOut 31
Running threw: TypeError: this.zzz has no properties

tryItOut 32
Compiling threw: SyntaxError: missing ) after condition

tryItOut 33
Compiling threw: SyntaxError: missing } after let block

tryItOut 34

tryItOut 35
Compiling threw: SyntaxError: missing ; before statement

tryItOut 36
Running threw: ReferenceError: reference to undefined XML name @foo

tryItOut 37
Running threw: ReferenceError: z1 is not defined

tryItOut 38

tryItOut 39
Compiling threw: SyntaxError: missing ; before statement

tryItOut 40

tryItOut 41
It's an iterator!
Iterating threw!
Iterating threw: TypeError: this.zzz has no properties

tryItOut 42
Compiling threw: SyntaxError: missing ) after condition

tryItOut 43
Compiling threw: SyntaxError: missing = in destructuring declaration

tryItOut 44
Running threw: ReferenceError: prototype is not defined

tryItOut 45
before 104640, after 104640, break 00aa7000

tryItOut 46

tryItOut 47

tryItOut 48

tryItOut 49
Compiling threw: SyntaxError: missing ] after element list

tryItOut 50
Compiling threw: SyntaxError: invalid continue

tryItOut 51
Running threw: [object StopIteration]

tryItOut 52
Compiling threw: SyntaxError: missing } after let block

tryItOut 53
Compiling threw: TypeError: redeclaration of var __noSuchMethod__

tryItOut 54

tryItOut 55

tryItOut 56
Compiling threw: SyntaxError: syntax error

tryItOut 57
Running threw: ReferenceError: prop is not defined

tryItOut 58
Compiling threw: SyntaxError: label not found

tryItOut 59
Compiling threw: SyntaxError: syntax error

tryItOut 60
Compiling threw: SyntaxError: label not found

tryItOut 61
Running threw: TypeError: this.zzz has no properties

tryItOut 62
Running threw: ReferenceError: prototype is not defined

tryItOut 63
Compiling threw: SyntaxError: invalid break

tryItOut 64
Running threw: ReferenceError: __noSuchMethod__ is not defined

tryItOut 65

tryItOut 66
Compiling threw: SyntaxError: missing ; before statement

tryItOut 67
Compiling threw: SyntaxError: invalid break

tryItOut 68

tryItOut 69

tryItOut 70
Compiling threw: SyntaxError: invalid destructuring assignment operator

tryItOut 71
Compiling threw: SyntaxError: missing : after property id

tryItOut 72

tryItOut 73
Compiling threw: SyntaxError: missing ; before statement

tryItOut 74
before 104640, after 104640, break 00aa7000

tryItOut 75
Running threw: ReferenceError: prop is not defined

tryItOut 76
Compiling threw: SyntaxError: duplicate label

tryItOut 77
Compiling threw: SyntaxError: missing ; before statement

tryItOut 78
Compiling threw: SyntaxError: missing ; before statement

tryItOut 79
Compiling threw: SyntaxError: missing ) after let head

tryItOut 80
Running threw: [object StopIteration]

tryItOut 81
Compiling threw: SyntaxError: invalid assignment left-hand side

tryItOut 82
Compiling threw: SyntaxError: missing ; after for-loop initializer

tryItOut 83

tryItOut 84

tryItOut 85
Compiling threw: SyntaxError: syntax error

tryItOut 86
Running threw: [object StopIteration]

tryItOut 87

tryItOut 88
before 104640, after 104640, break 00aa7000

tryItOut 89

tryItOut 90
Running threw: TypeError: this.zzz has no properties

tryItOut 91
Compiling threw: TypeError: redeclaration of var __proto__

tryItOut 92
Running threw: TypeError: this.zzz has no properties

tryItOut 93
uneval returned the string: [undefined, undefined]

tryItOut 94
Compiling threw: SyntaxError: missing variable name

tryItOut 95

tryItOut 96

tryItOut 97
Compiling threw: SyntaxError: missing { before function body

tryItOut 98
Running threw: ReferenceError: reference to undefined XML name *

tryItOut 99
Compiling threw: SyntaxError: syntax error

tryItOut 100

tryItOut 101
Running threw: TypeError: [1, undefined] is not a function

tryItOut 102
It's an iterator!
Iterating succeeded, iterCount == 1

tryItOut 103
Compiling threw: SyntaxError: syntax error

tryItOut 104
Compiling threw: TypeError: redeclaration of const __proto__

tryItOut 105

tryItOut 106

tryItOut 107
Compiling threw: SyntaxError: missing { before function body

tryItOut 108

tryItOut 109
Compiling threw: SyntaxError: invalid break

tryItOut 110

tryItOut 111
Compiling threw: SyntaxError: invalid for/in left-hand side

tryItOut 112
Running threw: ReferenceError: reference to undefined XML name *

tryItOut 113

tryItOut 114

tryItOut 115
Compiling threw: SyntaxError: invalid break

tryItOut 116
Compiling threw: SyntaxError: label not found

tryItOut 117
before 104640, after 104640, break 00aa7000

tryItOut 118

tryItOut 119
Compiling threw: SyntaxError: missing ) in parenthetical

tryItOut 120
It's an iterator!
Iterating succeeded, iterCount == 1

tryItOut 121
Compiling threw: SyntaxError: missing { before function body

tryItOut 122

tryItOut 123

tryItOut 124
It's an iterator!
Iterating threw!
Iterating threw: ReferenceError: prototype is not defined

tryItOut 125
Compiling threw: SyntaxError: missing ) in parenthetical

tryItOut 126
Compiling threw: SyntaxError: label not found

tryItOut 127
Compiling threw: SyntaxError: syntax error

tryItOut 128

tryItOut 129
Running threw: ReferenceError: reference to undefined XML name *

tryItOut 130
Compiling threw: SyntaxError: missing ) after switch expression

tryItOut 131
It's an iterator!
Iterating threw!
Iterating threw: ReferenceError: reference to undefined XML name @foo

tryItOut 132
Running threw: ReferenceError: reference to undefined XML name *

tryItOut 133
Running threw: ReferenceError: reference to undefined XML name *

tryItOut 134

tryItOut 135
Running threw: ReferenceError: prop is not defined

tryItOut 136
Compiling threw: SyntaxError: missing ; after for-loop initializer

tryItOut 137
Running threw: ReferenceError: reference to undefined XML name *::*

tryItOut 138

tryItOut 139
Compiling threw: SyntaxError: invalid for/in left-hand side

tryItOut 140

tryItOut 141
Compiling threw: SyntaxError: missing variable name

tryItOut 142
Compiling threw: SyntaxError: label not found

tryItOut 143
Running threw: TypeError: this.zzz has no properties

tryItOut 144
Compiling threw: SyntaxError: missing ) after condition

tryItOut 145
Running threw: ReferenceError: prototype is not defined

tryItOut 146
Compiling threw: SyntaxError: missing ; before statement

tryItOut 147
Compiling threw: SyntaxError: missing ; after for-loop initializer

tryItOut 148
Compiling threw: SyntaxError: syntax error

tryItOut 149
Compiling threw: SyntaxError: invalid flag after regular expression

tryItOut 150

tryItOut 151
Compiling threw: SyntaxError: missing { before function body

tryItOut 152

tryItOut 153
Compiling threw: SyntaxError: label not found

tryItOut 154
Compiling threw: SyntaxError: label not found

tryItOut 155
Compiling threw: TypeError: redeclaration of variable __parent__

tryItOut 156
Compiling threw: SyntaxError: invalid increment operand

tryItOut 157

tryItOut 158
Running threw: ReferenceError: reference to undefined XML name @foo

tryItOut 159

tryItOut 160
Compiling threw: SyntaxError: missing ; before statement

tryItOut 161

tryItOut 162
Compiling threw: SyntaxError: invalid flag after regular expression

tryItOut 163
Compiling threw: SyntaxError: missing } after let block

tryItOut 164
It's an iterator!
Iterating threw!
Iterating threw: TypeError: redeclaration of const __parent__

tryItOut 165
Running threw: ReferenceError: prop is not defined

tryItOut 166

tryItOut 167
Running threw: TypeError: arguments[0] has no properties

tryItOut 168

tryItOut 169
Compiling threw: SyntaxError: syntax error

tryItOut 170
Compiling threw: SyntaxError: syntax error

tryItOut 171
It's an iterator!
Iterating threw!
Iterating threw: ReferenceError: z1 is not defined

tryItOut 172
Compiling threw: SyntaxError: missing ] after element list

tryItOut 173
Compiling threw: SyntaxError: missing ; before statement

tryItOut 174

tryItOut 175
Running threw: ReferenceError: prop is not defined

tryItOut 176
Running threw: ReferenceError: reference to undefined XML name *::*

tryItOut 177
Running threw: TypeError: this.zzz has no properties

tryItOut 178
It's an iterator!
Iterating succeeded, iterCount == 1

tryItOut 179
Compiling threw: SyntaxError: missing { before function body

tryItOut 180
It's an iterator!
Iterating succeeded, iterCount == 1

tryItOut 181
Compiling threw: SyntaxError: missing ; before statement

tryItOut 182
It's an iterator!
Iterating succeeded, iterCount == 1

tryItOut 183
Running threw: TypeError: this.zzz has no properties

tryItOut 184

tryItOut 185
Compiling threw: TypeError: generator function anonymous returns a value

tryItOut 186
Compiling threw: SyntaxError: invalid break

tryItOut 187
Compiling threw: SyntaxError: syntax error

tryItOut 188
Compiling threw: SyntaxError: missing variable name

tryItOut 189
Compiling threw: SyntaxError: missing variable name

tryItOut 190
Compiling threw: SyntaxError: syntax error

tryItOut 191

tryItOut 192
Compiling threw: SyntaxError: missing ; before statement

tryItOut 193

tryItOut 194
Compiling threw: SyntaxError: invalid break

tryItOut 195

tryItOut 196
It's an iterator!
Iterating succeeded, iterCount == 1

tryItOut 197

tryItOut 198
Compiling threw: SyntaxError: label not found

tryItOut 199
Compiling threw: SyntaxError: missing while after do-loop body

tryItOut 200

tryItOut 201
Running threw: ReferenceError: prop is not defined

tryItOut 202
Compiling threw: SyntaxError: missing { before function body

tryItOut 203
Running threw: ReferenceError: reference to undefined XML name *

tryItOut 204
Running threw: SyntaxError: invalid getter usage

tryItOut 205
Compiling threw: SyntaxError: missing ; before statement

tryItOut 206
Compiling threw: SyntaxError: label not found

tryItOut 207
Compiling threw: SyntaxError: label not found

tryItOut 208
Running threw: TypeError: __proto__ is not a function

tryItOut 209

tryItOut 210

tryItOut 211
Compiling threw: SyntaxError: syntax error

tryItOut 212
It's an iterator!
Iterating succeeded, iterCount == 1

tryItOut 213
It's an iterator!
Iterating threw!
Iterating threw: TypeError: #3={, a:#3#}.@foo has no properties

tryItOut 214
Compiling threw: SyntaxError: syntax error

tryItOut 215

tryItOut 216
Running threw: TypeError: __parent__ has no properties

tryItOut 217
It's an iterator!
Iterating succeeded, iterCount == 0

tryItOut 218
Running threw: ReferenceError: reference to undefined XML name @foo

tryItOut 219
Compiling threw: SyntaxError: label not found

tryItOut 220
Compiling threw: SyntaxError: invalid assignment left-hand side

tryItOut 221
Compiling threw: SyntaxError: missing = in destructuring declaration

tryItOut 222
Compiling threw: SyntaxError: syntax error

tryItOut 223
before 139520, after 139520, break 00b12000

tryItOut 224

tryItOut 225
Compiling threw: SyntaxError: invalid for/in left-hand side

tryItOut 226

tryItOut 227
Compiling threw: SyntaxError: missing ; before statement

tryItOut 228
Running threw: [object StopIteration]

tryItOut 229
Compiling threw: SyntaxError: syntax error

tryItOut 230
Compiling threw: SyntaxError: syntax error

tryItOut 231
Compiling threw: SyntaxError: syntax error

tryItOut 232
Compiling threw: SyntaxError: missing ; before statement

tryItOut 233

tryItOut 234
Compiling threw: SyntaxError: syntax error

tryItOut 235

tryItOut 236

tryItOut 237
Compiling threw: SyntaxError: syntax error

tryItOut 238
Compiling threw: SyntaxError: syntax error

tryItOut 239
Compiling threw: SyntaxError: missing ; before statement

tryItOut 240

tryItOut 241

tryItOut 242

tryItOut 243
It's an iterator!
Iterating threw!
Iterating threw: ReferenceError: reference to undefined XML name @foo

tryItOut 244
Compiling threw: SyntaxError: missing { before function body

tryItOut 245
Compiling threw: SyntaxError: invalid increment operand

tryItOut 246
Compiling threw: SyntaxError: duplicate label

tryItOut 247
It's an iterator!
Iterating threw!
Iterating threw: ReferenceError: reference to undefined XML name @foo

tryItOut 248
Compiling threw: SyntaxError: label not found

tryItOut 249
Compiling threw: SyntaxError: missing } after let block

tryItOut 250
Compiling threw: SyntaxError: missing ] after element list

tryItOut 251
Compiling threw: SyntaxError: missing ; before statement

tryItOut 252
Running threw: ReferenceError: reference to undefined XML name @foo

tryItOut 253
Compiling threw: TypeError: redeclaration of variable prop

tryItOut 254

tryItOut 255

tryItOut 256

tryItOut 257
Running threw: ReferenceError: reference to undefined XML name *::*

tryItOut 258

tryItOut 259
Compiling threw: SyntaxError: invalid break

tryItOut 260
Compiling threw: SyntaxError: invalid for/in left-hand side

tryItOut 261

tryItOut 262
It's an iterator!
Iterating succeeded, iterCount == 1

tryItOut 263
Compiling threw: TypeError: generator function anonymous returns a value

tryItOut 264
before 139520, after 139520, break 00b23000

tryItOut 265
Compiling threw: SyntaxError: missing ; before statement

tryItOut 266
Compiling threw: SyntaxError: missing variable name

tryItOut 267
Compiling threw: SyntaxError: missing ) in parenthetical

tryItOut 268
It's an iterator!
Iterating threw!
Iterating threw: ReferenceError: Exception is not defined

tryItOut 269

tryItOut 270
It's an iterator!
Iterating succeeded, iterCount == 1

tryItOut 271
Running threw: [object StopIteration]

tryItOut 272

tryItOut 273

tryItOut 274
Running threw: ReferenceError: reference to undefined XML name *::*

tryItOut 275
Compiling threw: SyntaxError: missing variable name

tryItOut 276
Compiling threw: SyntaxError: missing ; after for-loop initializer

tryItOut 277
Compiling threw: SyntaxError: missing ] after element list

tryItOut 278
Compiling threw: SyntaxError: missing ; before statement

tryItOut 279
Compiling threw: SyntaxError: invalid decrement operand

tryItOut 280
Compiling threw: SyntaxError: invalid assignment left-hand side

tryItOut 281
Compiling threw: SyntaxError: label not found

tryItOut 282

tryItOut 283

tryItOut 284

tryItOut 285
Compiling threw: SyntaxError: invalid default XML namespace

tryItOut 286
Compiling threw: SyntaxError: missing ; before statement

tryItOut 287
Compiling threw: SyntaxError: missing ; before statement

tryItOut 288
Running threw: ReferenceError: reference to undefined XML name @foo

tryItOut 289
Running threw: ReferenceError: z2 is not defined

tryItOut 290
Compiling threw: SyntaxError: missing { before function body

tryItOut 291
Compiling threw: TypeError: generator function anonymous returns a value

tryItOut 292
Compiling threw: SyntaxError: missing while after do-loop body

tryItOut 293
Compiling threw: SyntaxError: syntax error

tryItOut 294

tryItOut 295
Compiling threw: SyntaxError: syntax error

tryItOut 296
Compiling threw: SyntaxError: missing ; before statement

tryItOut 297
Running threw: [object StopIteration]

tryItOut 298

tryItOut 299

tryItOut 300
Running threw: ReferenceError: prop is not defined

tryItOut 301
Running threw: TypeError: this.zzz has no properties

tryItOut 302
Compiling threw: SyntaxError: missing ( before let head

tryItOut 303

tryItOut 304

tryItOut 305
Compiling threw: SyntaxError: missing ; before statement

tryItOut 306

tryItOut 307
Running threw: ReferenceError: reference to undefined XML name *

tryItOut 308
Compiling threw: SyntaxError: invalid continue

tryItOut 309
Compiling threw: SyntaxError: label not found

tryItOut 310
Compiling threw: SyntaxError: syntax error

tryItOut 311
Running threw: TypeError: this.zzz has no properties

tryItOut 312
before 139520, after 139520, break 00b23000

tryItOut 313
It's an iterator!
Iterating succeeded, iterCount == 1

tryItOut 314

tryItOut 315
before 139520, after 139520, break 00b23000

tryItOut 316

tryItOut 317
before 139520, after 139520, break 00b23000

tryItOut 318
Compiling threw: SyntaxError: missing { before function body

tryItOut 319
Compiling threw: SyntaxError: syntax error

tryItOut 320
Compiling threw: SyntaxError: invalid break

tryItOut 321
Running threw: ReferenceError: z2 is not defined

tryItOut 322

tryItOut 323
Compiling threw: SyntaxError: invalid assignment left-hand side

tryItOut 324

tryItOut 325
Running threw: TypeError: this.zzz has no properties

tryItOut 326

tryItOut 327
Compiling threw: SyntaxError: missing variable name

tryItOut 328
Compiling threw: SyntaxError: label not found

tryItOut 329
Compiling threw: SyntaxError: label not found

tryItOut 330

tryItOut 331
before 139520, after 139520, break 00b23000

tryItOut 332

tryItOut 333
Compiling threw: TypeError: generator function anonymous returns a value

tryItOut 334
Running threw: [object StopIteration]

tryItOut 335

tryItOut 336
Compiling threw: SyntaxError: missing ] after element list

tryItOut 337
Compiling threw: SyntaxError: missing ) in parenthetical

tryItOut 338
Compiling threw: SyntaxError: missing ; before statement

tryItOut 339
Compiling threw: SyntaxError: missing ; before statement

tryItOut 340
Compiling threw: SyntaxError: missing { before function body

tryItOut 341
Compiling threw: SyntaxError: missing ] after element list

tryItOut 342
Compiling threw: SyntaxError: syntax error

tryItOut 343
Compiling threw: SyntaxError: invalid assignment left-hand side

tryItOut 344
Compiling threw: SyntaxError: label not found

tryItOut 345
Compiling threw: SyntaxError: missing { before function body

tryItOut 346
Compiling threw: SyntaxError: missing ; before statement

tryItOut 347
It's an iterator!
Iterating threw!
Iterating threw: ReferenceError: reference to undefined XML name *

tryItOut 348
Running threw: ReferenceError: reference to undefined XML name *

tryItOut 349
Running threw: TypeError: prototype has no properties

tryItOut 350
It's an iterator!
Iterating succeeded, iterCount == 2

tryItOut 351
Compiling threw: SyntaxError: missing ; before statement

tryItOut 352

tryItOut 353

tryItOut 354
Compiling threw: SyntaxError: missing ; before statement

tryItOut 355
It's an iterator!
Iterating threw!
Iterating threw: ReferenceError: reference to undefined XML name @foo

tryItOut 356

tryItOut 357
Compiling threw: SyntaxError: syntax error

tryItOut 358
Compiling threw: SyntaxError: syntax error

tryItOut 359
Compiling threw: SyntaxError: missing variable name

tryItOut 360

tryItOut 361
Running threw: TypeError: this.zzz has no properties

tryItOut 362
Compiling threw: SyntaxError: syntax error

tryItOut 363

tryItOut 364
Compiling threw: SyntaxError: invalid increment operand

tryItOut 365

tryItOut 366
Compiling threw: SyntaxError: missing { before function body

tryItOut 367
Compiling threw: SyntaxError: syntax error

tryItOut 368
Compiling threw: SyntaxError: missing ; before statement

tryItOut 369

tryItOut 370
It's an iterator!
Iterating succeeded, iterCount == 1

tryItOut 371

tryItOut 372
Compiling threw: SyntaxError: missing ; after for-loop initializer

tryItOut 373
It's an iterator!
Iterating succeeded, iterCount == 1

tryItOut 374
Compiling threw: SyntaxError: duplicate label

tryItOut 375

tryItOut 376
Compiling threw: SyntaxError: missing ; before statement

tryItOut 377
Compiling threw: SyntaxError: missing } after let block

tryItOut 378
Compiling threw: SyntaxError: invalid break

tryItOut 379

tryItOut 380
Running threw: [object StopIteration]

tryItOut 381

tryItOut 382
Compiling threw: SyntaxError: missing { before function body

tryItOut 383
It's an iterator!
Iterating threw!
Iterating threw: ReferenceError: reference to undefined XML name *::*

tryItOut 384

tryItOut 385

tryItOut 386

tryItOut 387
Compiling threw: SyntaxError: missing ; before statement

tryItOut 388
Compiling threw: SyntaxError: missing { before function body

tryItOut 389
Compiling threw: SyntaxError: missing variable name

tryItOut 390
Compiling threw: TypeError: generator function anonymous returns a value

tryItOut 391

tryItOut 392

tryItOut 393
Compiling threw: SyntaxError: missing ) in parenthetical

tryItOut 394
Compiling threw: SyntaxError: invalid continue

tryItOut 395

tryItOut 396
Compiling threw: SyntaxError: missing ] after element list

tryItOut 397
Compiling threw: SyntaxError: missing { before function body

tryItOut 398

tryItOut 399
Running threw: TypeError: this.zzz has no properties

tryItOut 400

tryItOut 401

tryItOut 402
Running threw: [object StopIteration]

tryItOut 403

tryItOut 404
Compiling threw: SyntaxError: missing } after let block

tryItOut 405
Compiling threw: SyntaxError: missing ; before statement

tryItOut 406
Compiling threw: SyntaxError: invalid continue

tryItOut 407
Compiling threw: SyntaxError: missing ] after element list

tryItOut 408

tryItOut 409
Compiling threw: SyntaxError: missing ) in parenthetical

tryItOut 410
It's an iterator!
Iterating threw!
Iterating threw: ReferenceError: reference to undefined XML name @foo

tryItOut 411

tryItOut 412

tryItOut 413
Compiling threw: SyntaxError: label not found

tryItOut 414

tryItOut 415
It's an iterator!
Iterating succeeded, iterCount == 1

tryItOut 416
Compiling threw: SyntaxError: syntax error

tryItOut 417

tryItOut 418

tryItOut 419

tryItOut 420

tryItOut 421
Compiling threw: SyntaxError: syntax error

tryItOut 422

tryItOut 423
Compiling threw: SyntaxError: missing { before function body

tryItOut 424
Running threw: TypeError: this.zzz has no properties

tryItOut 425
Running threw: ReferenceError: reference to undefined XML name *::*

tryItOut 426
Compiling threw: SyntaxError: invalid assignment left-hand side

tryItOut 427
Compiling threw: TypeError: redeclaration of variable __proto__

tryItOut 428
Compiling threw: SyntaxError: invalid continue

tryItOut 429
Running threw: ReferenceError: __parent__ is not defined

tryItOut 430
Compiling threw: SyntaxError: missing ; before statement

tryItOut 431
Compiling threw: SyntaxError: label not found

tryItOut 432

tryItOut 433

tryItOut 434

tryItOut 435
Compiling threw: SyntaxError: syntax error

tryItOut 436

tryItOut 437
Compiling threw: SyntaxError: invalid for/in left-hand side

tryItOut 438
Compiling threw: SyntaxError: invalid assignment left-hand side

tryItOut 439

tryItOut 440
Running threw: TypeError: __count__ is not a function

tryItOut 441
Compiling threw: TypeError: redeclaration of const constructor

tryItOut 442

tryItOut 443

tryItOut 444

tryItOut 445
Compiling threw: SyntaxError: missing ] after element list

tryItOut 446
Compiling threw: SyntaxError: syntax error

tryItOut 447

tryItOut 448

tryItOut 449
It's an iterator!
Iterating succeeded, iterCount == 1

tryItOut 450
Compiling threw: SyntaxError: missing ; before statement

tryItOut 451

tryItOut 452
Compiling threw: SyntaxError: missing variable name

tryItOut 453

tryItOut 454
Compiling threw: SyntaxError: invalid break

tryItOut 455
Running threw: ReferenceError: reference to undefined XML name @foo

tryItOut 456
before 279040, after 191840, break 00c52000

tryItOut 457
Compiling threw: SyntaxError: invalid decrement operand

tryItOut 458

tryItOut 459
Compiling threw: SyntaxError: missing while after do-loop body

tryItOut 460
Running threw: TypeError: this.zzz has no properties

tryItOut 461
Compiling threw: SyntaxError: invalid assignment left-hand side

tryItOut 462

tryItOut 463
Compiling threw: SyntaxError: missing ; before statement

tryItOut 464
Compiling threw: SyntaxError: invalid increment operand

tryItOut 465
Compiling threw: SyntaxError: missing ] after element list

tryItOut 466
Running threw: ReferenceError: __proto__ is not defined

tryItOut 467
Compiling threw: SyntaxError: missing ) after condition

tryItOut 468
Compiling threw: SyntaxError: missing ; before statement

tryItOut 469

tryItOut 470

tryItOut 471
It's an iterator!
Iterating succeeded, iterCount == 1

tryItOut 472

tryItOut 473
Compiling threw: TypeError: redeclaration of variable prop

tryItOut 474

tryItOut 475
Compiling threw: SyntaxError: missing { before function body

tryItOut 476
Running threw: ReferenceError: reference to undefined XML name *::*

tryItOut 477

tryItOut 478
Compiling threw: SyntaxError: missing { before function body

tryItOut 479
Compiling threw: SyntaxError: syntax error

tryItOut 480
Compiling threw: SyntaxError: syntax error

tryItOut 481
Compiling threw: SyntaxError: missing ] after element list

tryItOut 482

tryItOut 483
It's an iterator!
Iterating succeeded, iterCount == 1

tryItOut 484
Compiling threw: SyntaxError: missing { before function body

tryItOut 485

tryItOut 486

tryItOut 487
Running threw: ReferenceError: reference to undefined XML name *::*

tryItOut 488
Running threw: ReferenceError: __parent__ is not defined

tryItOut 489
Compiling threw: SyntaxError: invalid continue

tryItOut 490

tryItOut 491
Running threw: ReferenceError: reference to undefined XML name *

tryItOut 492

tryItOut 493
Compiling threw: SyntaxError: missing ) in parenthetical

tryItOut 494

tryItOut 495
Compiling threw: SyntaxError: missing ; before statement

tryItOut 496
Compiling threw: SyntaxError: missing variable name

tryItOut 497
Compiling threw: SyntaxError: missing ; before statement

tryItOut 498
Compiling threw: SyntaxError: invalid for/in left-hand side

tryItOut 499
Compiling threw: SyntaxError: syntax error

tryItOut 500

tryItOut 501
Compiling threw: SyntaxError: missing ; before statement

tryItOut 502
Compiling threw: SyntaxError: label not found

tryItOut 503

tryItOut 504

tryItOut 505
Compiling threw: SyntaxError: missing ; after for-loop initializer

tryItOut 506

tryItOut 507
Compiling threw: SyntaxError: missing ] after element list

tryItOut 508
Compiling threw: SyntaxError: missing = in destructuring declaration

tryItOut 509
Compiling threw: SyntaxError: missing ; after for-loop initializer

tryItOut 510
Compiling threw: SyntaxError: label not found

tryItOut 511

tryItOut 512
Compiling threw: SyntaxError: missing = in destructuring declaration

tryItOut 513

tryItOut 514
Compiling threw: SyntaxError: label not found

tryItOut 515
Compiling threw: SyntaxError: label not found

tryItOut 516
Running threw: ReferenceError: reference to undefined XML name @foo

tryItOut 517
Running threw: TypeError: this.zzz has no properties

tryItOut 518
Compiling threw: SyntaxError: invalid assignment left-hand side

tryItOut 519

tryItOut 520

tryItOut 521
Running threw: [object StopIteration]

tryItOut 522
Compiling threw: SyntaxError: label not found

tryItOut 523

tryItOut 524
Compiling threw: SyntaxError: label not found

tryItOut 525
Compiling threw: SyntaxError: syntax error

tryItOut 526
Compiling threw: SyntaxError: syntax error

tryItOut 527

tryItOut 528
Compiling threw: SyntaxError: missing ; before statement

tryItOut 529

tryItOut 530
Compiling threw: SyntaxError: missing variable name

tryItOut 531
Compiling threw: SyntaxError: label not found

tryItOut 532
Compiling threw: SyntaxError: missing ) in parenthetical

tryItOut 533

tryItOut 534

tryItOut 535
Running threw: TypeError: this.__defineGetter__ is not a function

tryItOut 536
It's an iterator!
Iterating threw!
Iterating threw: TypeError: prop has no properties

tryItOut 537
It's an iterator!
Iterating threw!
Iterating threw: ReferenceError: z1 is not defined

tryItOut 538
Compiling threw: SyntaxError: invalid continue

tryItOut 539

tryItOut 540

tryItOut 541
Running threw: ReferenceError: z1 is not defined

tryItOut 542
Compiling threw: SyntaxError: missing ] after element list

tryItOut 543
It's an iterator!
Iterating threw!
Iterating threw: TypeError: this.__defineGetter__ is not a function

tryItOut 544

tryItOut 545
Compiling threw: SyntaxError: syntax error

tryItOut 546
Running threw: ReferenceError: __parent__ is not defined

tryItOut 547
Compiling threw: SyntaxError: missing variable name

tryItOut 548
Compiling threw: SyntaxError: missing ) after condition

tryItOut 549
Compiling threw: SyntaxError: missing : after property id

tryItOut 550

tryItOut 551

tryItOut 552

tryItOut 553

tryItOut 554
Compiling threw: SyntaxError: label not found

tryItOut 555

tryItOut 556

tryItOut 557
Running threw: ReferenceError: reference to undefined XML name *::*

tryItOut 558
Compiling threw: SyntaxError: syntax error

tryItOut 559

tryItOut 560
Running threw: TypeError: arguments[0] has no properties

tryItOut 561
Compiling threw: SyntaxError: missing ; before statement

tryItOut 562
Compiling threw: SyntaxError: missing { before function body

tryItOut 563
Compiling threw: SyntaxError: syntax error

tryItOut 564
It's an iterator!
Iterating threw!
Iterating threw: ReferenceError: reference to undefined XML name *::*

tryItOut 565
Compiling threw: SyntaxError: syntax error

tryItOut 566
It's an iterator!
Iterating succeeded, iterCount == 1

tryItOut 567
It's an iterator!
Iterating succeeded, iterCount == 1

tryItOut 568

tryItOut 569
Compiling threw: SyntaxError: invalid continue

tryItOut 570

tryItOut 571

tryItOut 572
It's an iterator!
Iterating threw!
Iterating threw: ReferenceError: reference to undefined XML name @foo

tryItOut 573
Compiling threw: SyntaxError: missing { before function body

tryItOut 574

tryItOut 575
It's an iterator!
Iterating succeeded, iterCount == 1

tryItOut 576
Compiling threw: SyntaxError: syntax error

tryItOut 577
Compiling threw: SyntaxError: syntax error

tryItOut 578
Compiling threw: SyntaxError: missing variable name

tryItOut 579

tryItOut 580
Compiling threw: SyntaxError: missing ( before let head

tryItOut 581

tryItOut 582

tryItOut 583
Compiling threw: SyntaxError: missing ; before statement

tryItOut 584
It's an iterator!
Iterating threw!
Iterating threw: ReferenceError: reference to undefined XML name *::*

tryItOut 585
Running threw: [object StopIteration]

tryItOut 586

tryItOut 587

tryItOut 588
Compiling threw: SyntaxError: missing ) after argument list

tryItOut 589

tryItOut 590
Running threw: [object StopIteration]

tryItOut 591
Compiling threw: SyntaxError: missing ) after let head

tryItOut 592

tryItOut 593

tryItOut 594

tryItOut 595
Compiling threw: SyntaxError: invalid continue

tryItOut 596

tryItOut 597
Compiling threw: SyntaxError: missing { before function body

tryItOut 598

tryItOut 599

tryItOut 600
It's an iterator!
Iterating succeeded, iterCount == 0

tryItOut 601
Compiling threw: TypeError: generator function anonymous returns a value

tryItOut 602
Compiling threw: TypeError: redeclaration of variable prop

tryItOut 603
Compiling threw: SyntaxError: syntax error

tryItOut 604
Running threw: ReferenceError: __parent__ is not defined

tryItOut 605
It's an iterator!
Iterating succeeded, iterCount == 1

tryItOut 606
Compiling threw: SyntaxError: missing variable name

tryItOut 607
Compiling threw: SyntaxError: missing ; after for-loop condition

tryItOut 608
Compiling threw: SyntaxError: duplicate label

tryItOut 609
Compiling threw: SyntaxError: missing ; before statement

tryItOut 610
It's an iterator!
Iterating threw!
Iterating threw: ReferenceError: z1 is not defined

tryItOut 611

tryItOut 612

tryItOut 613
Compiling threw: SyntaxError: unterminated string literal

tryItOut 614
before 366240, after 226720, break 00d15000

tryItOut 615

tryItOut 616
Compiling threw: SyntaxError: missing variable name

tryItOut 617

tryItOut 618
Running threw: ReferenceError: __parent__ is not defined

tryItOut 619

tryItOut 620

tryItOut 621
Compiling threw: SyntaxError: syntax error

tryItOut 622

tryItOut 623

tryItOut 624
It's an iterator!
before 226720, after 191840, break 00d15000
Iterating succeeded, iterCount == 1

tryItOut 625
Running threw: ReferenceError: reference to undefined XML name *

tryItOut 626
Running threw: TypeError: this.zzz has no properties

tryItOut 627
Compiling threw: SyntaxError: missing ; before statement

tryItOut 628

tryItOut 629
Running threw: ReferenceError: reference to undefined XML name @foo

tryItOut 630
Compiling threw: SyntaxError: invalid default XML namespace

tryItOut 631
Compiling threw: SyntaxError: missing ; before statement

tryItOut 632

tryItOut 633
Compiling threw: SyntaxError: syntax error

tryItOut 634
Running threw: TypeError: this.zzz has no properties

tryItOut 635

tryItOut 636
Compiling threw: SyntaxError: missing ; before statement

tryItOut 637
Running threw: TypeError: #1={a:#1#} is not a function

tryItOut 638
Compiling threw: SyntaxError: invalid assignment left-hand side

tryItOut 639
Running threw: ReferenceError: reference to undefined XML name @foo

tryItOut 640
Compiling threw: SyntaxError: invalid continue

tryItOut 641
Running threw: TypeError: this.zzz has no properties

tryItOut 642
Compiling threw: SyntaxError: invalid destructuring assignment operator

tryItOut 643

tryItOut 644
Compiling threw: SyntaxError: missing ; before statement

tryItOut 645

tryItOut 646
Compiling threw: SyntaxError: syntax error

tryItOut 647
Compiling threw: SyntaxError: missing variable name

tryItOut 648
Compiling threw: SyntaxError: syntax error

tryItOut 649
Running threw: ReferenceError: __parent__ is not defined

tryItOut 650
Compiling threw: SyntaxError: syntax error

tryItOut 651
Compiling threw: SyntaxError: label not found

tryItOut 652
Compiling threw: SyntaxError: label not found

tryItOut 653
Compiling threw: SyntaxError: missing variable name

tryItOut 654
Compiling threw: SyntaxError: missing variable name

tryItOut 655

tryItOut 656
Compiling threw: SyntaxError: invalid assignment left-hand side

tryItOut 657

tryItOut 658

tryItOut 659
Compiling threw: SyntaxError: missing { before function body

tryItOut 660
Running threw: TypeError: this.zzz has no properties

tryItOut 661
Compiling threw: SyntaxError: missing ; after for-loop initializer

tryItOut 662

tryItOut 663

tryItOut 664
uneval returned the string: [1]

tryItOut 665

tryItOut 666
It's an iterator!
Iterating threw!
Iterating threw: ReferenceError: reference to undefined XML name @foo

tryItOut 667
Compiling threw: SyntaxError: syntax error

tryItOut 668

tryItOut 669
It's an iterator!
Iterating succeeded, iterCount == 1

tryItOut 670
It's an iterator!
Iterating threw!
Iterating threw: TypeError: this.zzz has no properties

tryItOut 671

tryItOut 672

tryItOut 673
Running threw: TypeError: this.zzz has no properties

tryItOut 674
Running threw: ReferenceError: reference to undefined XML name *::*

tryItOut 675

tryItOut 676
Running threw: [object StopIteration]

tryItOut 677
Compiling threw: SyntaxError: missing variable name

tryItOut 678

tryItOut 679

tryItOut 680
Compiling threw: SyntaxError: missing ] after element list

tryItOut 681
Compiling threw: SyntaxError: missing ) in parenthetical

tryItOut 682

tryItOut 683
Compiling threw: SyntaxError: label not found

tryItOut 684
Running threw: ReferenceError: z2 is not defined

tryItOut 685

tryItOut 686
Compiling threw: SyntaxError: missing = in destructuring declaration

tryItOut 687
Running threw: TypeError: this.zzz has no properties

tryItOut 688

tryItOut 689
Compiling threw: SyntaxError: duplicate label

tryItOut 690
Compiling threw: SyntaxError: missing { before function body

tryItOut 691
Compiling threw: SyntaxError: missing { before function body

tryItOut 692
Compiling threw: SyntaxError: missing ; before statement

tryItOut 693
Compiling threw: SyntaxError: syntax error

tryItOut 694
Running threw: ReferenceError: z1 is not defined

tryItOut 695
Compiling threw: SyntaxError: missing ; before statement

tryItOut 696
Compiling threw: SyntaxError: duplicate label

tryItOut 697
Compiling threw: SyntaxError: label not found

tryItOut 698
Compiling threw: SyntaxError: invalid assignment left-hand side

tryItOut 699
Compiling threw: SyntaxError: missing ; before statement

tryItOut 700
Compiling threw: SyntaxError: invalid continue

tryItOut 701
Compiling threw: SyntaxError: yield expression must be parenthesized

tryItOut 702

tryItOut 703
Compiling threw: SyntaxError: missing ; before statement

tryItOut 704
It's an iterator!
Iterating threw!
Iterating threw: TypeError: undefined has no properties

tryItOut 705
Compiling threw: SyntaxError: syntax error

tryItOut 706

tryItOut 707

tryItOut 708
Compiling threw: SyntaxError: missing } after let block

tryItOut 709
Compiling threw: SyntaxError: syntax error

tryItOut 710
Compiling threw: SyntaxError: missing { before function body

tryItOut 711
It's an iterator!
Iterating succeeded, iterCount == 0

tryItOut 712
Compiling threw: SyntaxError: yield expression must be parenthesized

tryItOut 713
Compiling threw: SyntaxError: missing { before function body

tryItOut 714
It's an iterator!
Iterating succeeded, iterCount == 1

tryItOut 715
Compiling threw: SyntaxError: invalid assignment left-hand side

tryItOut 716

tryItOut 717
It's an iterator!
Iterating succeeded, iterCount == 1

tryItOut 718
Compiling threw: SyntaxError: missing variable name

tryItOut 719
Compiling threw: TypeError: generator function anonymous returns a value

tryItOut 720
Compiling threw: SyntaxError: missing ) after let head

tryItOut 721
Compiling threw: SyntaxError: invalid for/in left-hand side

tryItOut 722
Compiling threw: SyntaxError: missing variable name

tryItOut 723

tryItOut 724
Compiling threw: SyntaxError: syntax error

tryItOut 725
Compiling threw: SyntaxError: invalid for/in left-hand side

tryItOut 726
Compiling threw: SyntaxError: syntax error

tryItOut 727
Compiling threw: SyntaxError: missing variable name

tryItOut 728

tryItOut 729
It's an iterator!
Iterating threw!
Iterating threw: ReferenceError: z1 is not defined

tryItOut 730
Running threw: [object StopIteration]

tryItOut 731
Compiling threw: SyntaxError: label not found

tryItOut 732
Running threw: TypeError: this.zzz has no properties

tryItOut 733
It's an iterator!
Iterating succeeded, iterCount == 1

tryItOut 734
Compiling threw: TypeError: redeclaration of var constructor

tryItOut 735
Compiling threw: SyntaxError: invalid assignment left-hand side

tryItOut 736

tryItOut 737
Running threw: TypeError: __iterator__ has no properties

tryItOut 738

tryItOut 739
Compiling threw: SyntaxError: invalid assignment left-hand side

tryItOut 740

tryItOut 741
Running threw: ReferenceError: reference to undefined XML name *

tryItOut 742
Compiling threw: SyntaxError: syntax error

tryItOut 743
Compiling threw: SyntaxError: syntax error

tryItOut 744
Compiling threw: SyntaxError: invalid property id

tryItOut 745
Compiling threw: SyntaxError: invalid destructuring assignment operator

tryItOut 746

tryItOut 747
Running threw: TypeError: prototype has no properties

tryItOut 748
Compiling threw: SyntaxError: duplicate label

tryItOut 749

tryItOut 750
Compiling threw: SyntaxError: syntax error

tryItOut 751
Compiling threw: SyntaxError: missing ; before statement

tryItOut 752
Compiling threw: SyntaxError: missing variable name

tryItOut 753

tryItOut 754

tryItOut 755
Compiling threw: SyntaxError: missing ) after formal parameters

tryItOut 756
Compiling threw: SyntaxError: missing ; before statement

tryItOut 757
Compiling threw: SyntaxError: label not found

tryItOut 758
Compiling threw: TypeError: redeclaration of var __count__

tryItOut 759
It's an iterator!
Iterating succeeded, iterCount == 1

tryItOut 760
Running threw: ReferenceError: reference to undefined XML name *::*

tryItOut 761
Compiling threw: SyntaxError: missing ; before statement

tryItOut 762

tryItOut 763

tryItOut 764
Compiling threw: SyntaxError: invalid destructuring assignment operator

tryItOut 765
Compiling threw: SyntaxError: missing ] after element list

tryItOut 766

tryItOut 767
Compiling threw: SyntaxError: label not found

tryItOut 768

tryItOut 769
Compiling threw: SyntaxError: label not found

tryItOut 770
Compiling threw: SyntaxError: missing ) after let head

tryItOut 771
Compiling threw: SyntaxError: label not found

tryItOut 772

tryItOut 773
Compiling threw: SyntaxError: missing } after let block

tryItOut 774
Compiling threw: SyntaxError: duplicate label

tryItOut 775
Compiling threw: SyntaxError: missing name after . operator

tryItOut 776
Compiling threw: SyntaxError: invalid for/in left-hand side

tryItOut 777

tryItOut 778
Compiling threw: SyntaxError: syntax error

tryItOut 779
Compiling threw: SyntaxError: syntax error

tryItOut 780
Compiling threw: SyntaxError: missing { before function body

tryItOut 781
Compiling threw: SyntaxError: syntax error

tryItOut 782

tryItOut 783
Running threw: TypeError: this.zzz has no properties

tryItOut 784

tryItOut 785
Running threw: ReferenceError: reference to undefined XML name *

tryItOut 786
Compiling threw: SyntaxError: syntax error

tryItOut 787
Compiling threw: SyntaxError: syntax error

tryItOut 788

tryItOut 789
Running threw: [object StopIteration]

tryItOut 790

tryItOut 791
It's an iterator!
Iterating succeeded, iterCount == 0

tryItOut 792

tryItOut 793
Compiling threw: SyntaxError: missing ) after condition

tryItOut 794
Compiling threw: SyntaxError: label not found

tryItOut 795

tryItOut 796

tryItOut 797
Compiling threw: SyntaxError: invalid continue

tryItOut 798

tryItOut 799
Compiling threw: TypeError: generator function anonymous returns a value

tryItOut 800
Running threw: ReferenceError: reference to undefined XML name *

tryItOut 801
Compiling threw: SyntaxError: missing } after let block

tryItOut 802
Running threw: ReferenceError: reference to undefined XML name *::*

tryItOut 803
Compiling threw: SyntaxError: missing ; before statement

tryItOut 804
Running threw: TypeError: this.zzz has no properties

tryItOut 805
Compiling threw: SyntaxError: syntax error

tryItOut 806
Compiling threw: SyntaxError: invalid continue

tryItOut 807

tryItOut 808
Compiling threw: TypeError: generator function anonymous returns a value

tryItOut 809
Running threw: ReferenceError: prototypecontinue is not defined

tryItOut 810
Running threw: ReferenceError: reference to undefined XML name @foo

tryItOut 811
Running threw: [object StopIteration]

tryItOut 812
Compiling threw: SyntaxError: label not found

tryItOut 813

tryItOut 814
Compiling threw: SyntaxError: missing ; before statement

tryItOut 815

tryItOut 816
Compiling threw: SyntaxError: missing ; before statement

tryItOut 817
Running threw: ReferenceError: reference to undefined XML name @foo

tryItOut 818
Running threw: [object StopIteration]

tryItOut 819
Compiling threw: SyntaxError: missing } after let block

tryItOut 820
Compiling threw: SyntaxError: missing ; before statement

tryItOut 821
Running threw: ReferenceError: z2 is not defined

tryItOut 822
Compiling threw: SyntaxError: invalid break

tryItOut 823
Compiling threw: SyntaxError: missing : after property id

tryItOut 824

tryItOut 825
It's an iterator!
Iterating succeeded, iterCount == 1

tryItOut 826
Running threw: ReferenceError: z1 is not defined

tryItOut 827

tryItOut 828
Compiling threw: TypeError: redeclaration of const prototype

tryItOut 829
before 401120, after 244160, break 00d87000

tryItOut 830
Compiling threw: SyntaxError: syntax error

tryItOut 831
uneval returned the string: []

tryItOut 832
Compiling threw: SyntaxError: missing = in destructuring declaration

tryItOut 833
Compiling threw: SyntaxError: missing ; before statement

tryItOut 834
It's an iterator!
Iterating succeeded, iterCount == 1

tryItOut 835
Running threw: ReferenceError: reference to undefined XML name *::*

tryItOut 836
Running threw: TypeError: __noSuchMethod__ is not a function

tryItOut 837
Compiling threw: SyntaxError: invalid for/in left-hand side

tryItOut 838

tryItOut 839
Compiling threw: SyntaxError: missing } after let block

tryItOut 840

tryItOut 841

tryItOut 842
Compiling threw: SyntaxError: missing { before function body

tryItOut 843
It's an iterator!
Iterating threw!
Iterating threw: ReferenceError: reference to undefined XML name @foo

tryItOut 844

tryItOut 845

tryItOut 846
before 244160, after 226720, break 00d87000

tryItOut 847
Compiling threw: SyntaxError: missing { before function body

tryItOut 848
It's an iterator!
Iterating succeeded, iterCount == 2

tryItOut 849
Compiling threw: SyntaxError: missing variable name

tryItOut 850
Compiling threw: SyntaxError: syntax error

tryItOut 851
Running threw: ReferenceError: reference to undefined XML name *

tryItOut 852

tryItOut 853
Compiling threw: SyntaxError: syntax error

tryItOut 854

tryItOut 855
It's an iterator!
Iterating succeeded, iterCount == 1

tryItOut 856
Compiling threw: SyntaxError: label not found

tryItOut 857
Compiling threw: SyntaxError: syntax error

tryItOut 858
Compiling threw: SyntaxError: invalid assignment left-hand side

tryItOut 859
Compiling threw: SyntaxError: missing ; after for-loop initializer

tryItOut 860

tryItOut 861
Compiling threw: TypeError: redeclaration of variable __parent__

tryItOut 862

tryItOut 863
Running threw: ReferenceError: reference to undefined XML name *

tryItOut 864
Running threw: TypeError: this.zzz has no properties

tryItOut 865

tryItOut 866
Compiling threw: SyntaxError: syntax error

tryItOut 867
Compiling threw: SyntaxError: syntax error

tryItOut 868

tryItOut 869
Compiling threw: SyntaxError: syntax error

tryItOut 870

tryItOut 871

tryItOut 872
Compiling threw: SyntaxError: invalid continue

tryItOut 873
Running threw: TypeError: this.zzz has no properties

tryItOut 874

tryItOut 875

tryItOut 876

tryItOut 877
Compiling threw: SyntaxError: missing ) in parenthetical

tryItOut 878

tryItOut 879
Compiling threw: SyntaxError: missing } after let block

tryItOut 880

tryItOut 881
Compiling threw: SyntaxError: missing } after let block

tryItOut 882
Running threw: TypeError: this.__defineGetter__ is not a function

tryItOut 883
Compiling threw: SyntaxError: missing identifier in catch

tryItOut 884
Compiling threw: SyntaxError: missing ) after let head

tryItOut 885
Compiling threw: SyntaxError: syntax error

tryItOut 886
Running threw: ReferenceError: reference to undefined XML name *

tryItOut 887

tryItOut 888
Compiling threw: SyntaxError: invalid for/in left-hand side

tryItOut 889
Compiling threw: SyntaxError: label not found

tryItOut 890
Running threw: ReferenceError: reference to undefined XML name *::*

tryItOut 891

tryItOut 892
Running threw: ReferenceError: z1 is not defined

tryItOut 893
Compiling threw: SyntaxError: missing { before function body

tryItOut 894
Compiling threw: SyntaxError: syntax error

tryItOut 895

tryItOut 896

tryItOut 897
Compiling threw: SyntaxError: missing ; before statement

tryItOut 898
Running threw: TypeError: this.zzz has no properties

tryItOut 899
Running threw: TypeError: __iterator__ has no properties

tryItOut 900
Compiling threw: SyntaxError: missing ) in parenthetical

tryItOut 901
Compiling threw: SyntaxError: syntax error

tryItOut 902
Running threw: ReferenceError: reference to undefined XML name *::*

tryItOut 903
Compiling threw: SyntaxError: missing variable name

tryItOut 904
Compiling threw: SyntaxError: invalid assignment left-hand side

tryItOut 905
Running threw: TypeError: this.zzz has no properties

tryItOut 906
It's an iterator!
Iterating threw!
Iterating threw: TypeError: __proto__ has no properties

tryItOut 907

tryItOut 908

tryItOut 909
Running threw: TypeError: this.zzz has no properties

tryItOut 910
Compiling threw: TypeError: generator function anonymous returns a value

tryItOut 911
Running threw: TypeError: this.zzz has no properties

tryItOut 912

tryItOut 913

tryItOut 914
Compiling threw: SyntaxError: missing ; before statement

tryItOut 915
Running threw: [object StopIteration]

tryItOut 916

tryItOut 917

tryItOut 918
Running threw: [object StopIteration]

tryItOut 919
Compiling threw: SyntaxError: missing } in compound statement

tryItOut 920
Compiling threw: SyntaxError: missing variable name

tryItOut 921
Compiling threw: SyntaxError: missing while after do-loop body

tryItOut 922

tryItOut 923

tryItOut 924

tryItOut 925
Running threw: TypeError: arguments[0] has no properties

tryItOut 926
It's an iterator!
Iterating threw!
Iterating threw: ReferenceError: z1 is not defined

tryItOut 927

tryItOut 928
Compiling threw: SyntaxError: syntax error

tryItOut 929
Running threw: [object StopIteration]

tryItOut 930
Compiling threw: SyntaxError: invalid assignment left-hand side

tryItOut 931
It's an iterator!
Iterating succeeded, iterCount == 1

tryItOut 932
Compiling threw: SyntaxError: missing ) after for-loop control

tryItOut 933

tryItOut 934
It's an iterator!
Iterating succeeded, iterCount == 1

tryItOut 935

tryItOut 936

tryItOut 937

tryItOut 938
Compiling threw: SyntaxError: syntax error

tryItOut 939
Compiling threw: SyntaxError: missing { before function body

tryItOut 940
Compiling threw: SyntaxError: syntax error

tryItOut 941

tryItOut 942

tryItOut 943
Running threw: TypeError: this.zzz has no properties

tryItOut 944
Compiling threw: SyntaxError: missing } after let block

tryItOut 945

tryItOut 946
It's an iterator!
Iterating threw!
Iterating threw: ReferenceError: reference to undefined XML name *

tryItOut 947
Compiling threw: SyntaxError: missing } after let block

tryItOut 948
Compiling threw: SyntaxError: missing variable name

tryItOut 949
Compiling threw: SyntaxError: missing : after property id

tryItOut 950
Compiling threw: SyntaxError: missing ; before statement

tryItOut 951
Compiling threw: SyntaxError: label not found

tryItOut 952

tryItOut 953
Compiling threw: SyntaxError: missing variable name

tryItOut 954

tryItOut 955
Compiling threw: TypeError: redeclaration of variable __count__

tryItOut 956
It's an iterator!
Iterating threw!
Iterating threw: TypeError: prototype has no properties

tryItOut 957
Compiling threw: SyntaxError: missing ; before statement

tryItOut 958
before 296480, after 244160, break 00d82000

tryItOut 959
Running threw: TypeError: arguments[0] has no properties

tryItOut 960
Compiling threw: SyntaxError: missing ; before statement

tryItOut 961
Compiling threw: SyntaxError: invalid decrement operand

tryItOut 962
Compiling threw: SyntaxError: label not found

tryItOut 963
Compiling threw: SyntaxError: syntax error

tryItOut 964

tryItOut 965
It's an iterator!
Iterating threw!
Iterating threw: ReferenceError: reference to undefined XML name @foo

tryItOut 966
Compiling threw: SyntaxError: missing variable name

tryItOut 967
Compiling threw: SyntaxError: missing : after property id

tryItOut 968
Compiling threw: SyntaxError: syntax error

tryItOut 969
Compiling threw: SyntaxError: label not found

tryItOut 970

tryItOut 971
Running threw: TypeError: this.zzz has no properties

tryItOut 972

tryItOut 973

tryItOut 974

tryItOut 975
before 244160, after 226720, break 00d82000

tryItOut 976
Compiling threw: SyntaxError: missing ; after for-loop initializer

tryItOut 977

tryItOut 978
before 226720, after 226720, break 00d82000

tryItOut 979
Compiling threw: SyntaxError: label not found

tryItOut 980
Compiling threw: SyntaxError: missing variable name

tryItOut 981

tryItOut 982
Compiling threw: SyntaxError: label not found

tryItOut 983

tryItOut 984

tryItOut 985
Compiling threw: SyntaxError: syntax error

tryItOut 986
Compiling threw: TypeError: generator function anonymous returns a value

tryItOut 987
Running threw: TypeError: this.zzz has no properties

tryItOut 988
Compiling threw: SyntaxError: missing { before function body

tryItOut 989
Running threw: TypeError: this.zzz has no properties

tryItOut 990
Running threw: ReferenceError: reference to undefined XML name *

tryItOut 991
Compiling threw: SyntaxError: missing ) in parenthetical

tryItOut 992
Compiling threw: SyntaxError: missing } in compound statement

tryItOut 993

tryItOut 994
It's an iterator!
Iterating threw!
Iterating threw: ReferenceError: reference to undefined XML name *

tryItOut 995

tryItOut 996

tryItOut 997

tryItOut 998
Running threw: TypeError: can't convert global to string

tryItOut 999
Compiling threw: SyntaxError: missing : after property id

tryItOut 1000

ALL OK

Script done on Sat 04 May 2013 05:54:51 AM PDT
