Script started on Sat 04 May 2013 04:50:21 AM PDT
***
Targeting SpiderMonkey / Gecko.

tryItOut 1
Compiling threw: SyntaxError: invalid for/in left-hand side

tryItOut 2
Compiling threw: SyntaxError: missing ) in parenthetical

tryItOut 3
It's an iterator!
Iterating threw!
Iterating threw: 1

tryItOut 4
It's an iterator!
Iterating succeeded, iterCount == 0

tryItOut 5

tryItOut 6

tryItOut 7
Compiling threw: SyntaxError: label not found

tryItOut 8

tryItOut 9
Compiling threw: SyntaxError: missing ) in parenthetical

tryItOut 10
Compiling threw: SyntaxError: invalid assignment left-hand side

tryItOut 11

tryItOut 12
It's an iterator!
Iterating succeeded, iterCount == 0

tryItOut 13

tryItOut 14

tryItOut 15

tryItOut 16
Compiling threw: SyntaxError: invalid continue

tryItOut 17

tryItOut 18
Compiling threw: SyntaxError: invalid for/in left-hand side

tryItOut 19
Compiling threw: SyntaxError: missing ) in parenthetical

tryItOut 20

tryItOut 21
It's an iterator!
Iterating succeeded, iterCount == 1

tryItOut 22
Compiling threw: SyntaxError: missing name in export statement

tryItOut 23
Running threw: ReferenceError: __iterator__ is not defined

tryItOut 24
Compiling threw: SyntaxError: missing ; before statement

tryItOut 25

tryItOut 26
Compiling threw: SyntaxError: duplicate label

tryItOut 27
Compiling threw: SyntaxError: syntax error

tryItOut 28
Running threw: ReferenceError: __noSuchMethod__ is not defined

tryItOut 29
Compiling threw: SyntaxError: label not found

tryItOut 30

tryItOut 31
Compiling threw: SyntaxError: missing ; before statement

tryItOut 32
Compiling threw: SyntaxError: missing ) in parenthetical

tryItOut 33
Compiling threw: SyntaxError: missing ) after argument list

tryItOut 34
Compiling threw: TypeError: generator function anonymous returns a value

tryItOut 35
It's an iterator!
Iterating succeeded, iterCount == 1

tryItOut 36
Compiling threw: SyntaxError: missing { before function body

tryItOut 37
Running threw: TypeError: <x>
  <y/>
</x> is not a constructor

tryItOut 38

tryItOut 39

tryItOut 40

tryItOut 41
Compiling threw: SyntaxError: missing { before function body

tryItOut 42
Compiling threw: SyntaxError: invalid continue

tryItOut 43
Running threw: TypeError: XML filtering predicate operator called on incompatible Number

tryItOut 44

tryItOut 45
Running threw: TypeError: this.zzz has no properties

tryItOut 46
Running threw: ReferenceError: __noSuchMethod__ is not defined

tryItOut 47
Compiling threw: SyntaxError: illegal XML character

tryItOut 48

tryItOut 49
Running threw: false

tryItOut 50
Compiling threw: SyntaxError: missing ) in parenthetical

tryItOut 51

tryItOut 52

tryItOut 53
Compiling threw: SyntaxError: missing { before function body

tryItOut 54
Running threw: ReferenceError: prop is not defined

tryItOut 55
Running threw: TypeError: __proto__ is not a constructor

tryItOut 56
Compiling threw: SyntaxError: missing ; before statement

tryItOut 57
Compiling threw: SyntaxError: missing ; before statement

tryItOut 58
Compiling threw: SyntaxError: missing ; before statement

tryItOut 59

tryItOut 60
It's an iterator!
Iterating succeeded, iterCount == 1

tryItOut 61

tryItOut 62
Running threw: Error: invalid sharp variable use #1#

tryItOut 63
Compiling threw: SyntaxError: invalid assignment left-hand side

tryItOut 64
It's an iterator!
Iterating threw!
Iterating threw: ReferenceError: z2 is not defined

tryItOut 65
Compiling threw: SyntaxError: invalid continue

tryItOut 66
Compiling threw: SyntaxError: missing formal parameter

tryItOut 67
Compiling threw: SyntaxError: label not found

tryItOut 68

tryItOut 69
Compiling threw: SyntaxError: syntax error

tryItOut 70
Compiling threw: SyntaxError: invalid for/in left-hand side

tryItOut 71
Compiling threw: SyntaxError: missing } in compound statement

tryItOut 72
Compiling threw: SyntaxError: missing variable name

tryItOut 73
Compiling threw: SyntaxError: invalid continue

tryItOut 74

tryItOut 75
Compiling threw: SyntaxError: illegal XML character

tryItOut 76
Compiling threw: SyntaxError: duplicate label

tryItOut 77

tryItOut 78
Compiling threw: SyntaxError: invalid for/in left-hand side

tryItOut 79
Compiling threw: SyntaxError: duplicate label

tryItOut 80
Running threw: [object StopIteration]

tryItOut 81
Compiling threw: SyntaxError: missing ; before statement

tryItOut 82
Compiling threw: SyntaxError: invalid for/in left-hand side

tryItOut 83
Running threw: 3

tryItOut 84
Compiling threw: SyntaxError: syntax error

tryItOut 85
Compiling threw: SyntaxError: invalid for each loop

tryItOut 86
Compiling threw: SyntaxError: missing ) in parenthetical

tryItOut 87

tryItOut 88

tryItOut 89
Compiling threw: SyntaxError: missing ( before let head

tryItOut 90
Compiling threw: SyntaxError: missing ; before statement

tryItOut 91
Compiling threw: SyntaxError: syntax error

tryItOut 92

tryItOut 93
Running threw: [object StopIteration]

tryItOut 94
Compiling threw: SyntaxError: invalid assignment left-hand side

tryItOut 95

tryItOut 96
Compiling threw: SyntaxError: missing ; before statement

tryItOut 97
Running threw: TypeError: #1=[, #1#].yoyo is not a function

tryItOut 98

tryItOut 99
It's an iterator!
Iterating succeeded, iterCount == 1

tryItOut 100
Compiling threw: SyntaxError: missing { before function body

tryItOut 101

tryItOut 102

tryItOut 103
Compiling threw: SyntaxError: syntax error

tryItOut 104

tryItOut 105
Compiling threw: SyntaxError: missing { before function body

tryItOut 106

tryItOut 107

tryItOut 108

tryItOut 109

tryItOut 110
Compiling threw: SyntaxError: duplicate label

tryItOut 111
Compiling threw: SyntaxError: invalid continue

tryItOut 112
Compiling threw: SyntaxError: label not found

tryItOut 113

tryItOut 114
Compiling threw: SyntaxError: invalid assignment left-hand side

tryItOut 115
Compiling threw: SyntaxError: invalid sharp variable definition

tryItOut 116
Compiling threw: SyntaxError: missing = in destructuring declaration

tryItOut 117
Compiling threw: SyntaxError: syntax error

tryItOut 118

tryItOut 119
Running threw: [object StopIteration]

tryItOut 120
Running threw: <x>
  <y/>
</x>

tryItOut 121

tryItOut 122

tryItOut 123
Compiling threw: SyntaxError: invalid for/in left-hand side

tryItOut 124
Compiling threw: SyntaxError: invalid destructuring assignment operator

tryItOut 125

tryItOut 126
Compiling threw: SyntaxError: missing ; before statement

tryItOut 127

tryItOut 128

tryItOut 129

tryItOut 130
Compiling threw: SyntaxError: missing ; before statement

tryItOut 131
Compiling threw: SyntaxError: missing variable name

tryItOut 132
Compiling threw: SyntaxError: missing variable name

tryItOut 133

tryItOut 134

tryItOut 135

tryItOut 136
Compiling threw: SyntaxError: label not found

tryItOut 137
Compiling threw: SyntaxError: missing ; before statement

tryItOut 138
Compiling threw: SyntaxError: invalid for/in left-hand side

tryItOut 139
Running threw: null

tryItOut 140
Running threw: ReferenceError: prop is not defined

tryItOut 141

tryItOut 142

tryItOut 143

tryItOut 144

tryItOut 145

tryItOut 146
Compiling threw: SyntaxError: missing ) after with-statement object

tryItOut 147

tryItOut 148
Compiling threw: SyntaxError: missing ; before statement

tryItOut 149

tryItOut 150
Compiling threw: SyntaxError: invalid for/in left-hand side

tryItOut 151

tryItOut 152
Compiling threw: SyntaxError: missing ; before statement

tryItOut 153

tryItOut 154
Running threw: ReferenceError: __noSuchMethod__ is not defined

tryItOut 155

tryItOut 156
Compiling threw: SyntaxError: label not found

tryItOut 157
Compiling threw: SyntaxError: missing variable name

tryItOut 158
Compiling threw: SyntaxError: invalid break

tryItOut 159
Compiling threw: SyntaxError: syntax error

tryItOut 160
Compiling threw: SyntaxError: duplicate label

tryItOut 161
Compiling threw: SyntaxError: label not found

tryItOut 162
It's an iterator!
Iterating succeeded, iterCount == 1

tryItOut 163
Compiling threw: SyntaxError: missing ) in parenthetical

tryItOut 164
Compiling threw: SyntaxError: label not found

tryItOut 165
Compiling threw: SyntaxError: missing ) after switch expression

tryItOut 166
Compiling threw: SyntaxError: missing variable name

tryItOut 167

tryItOut 168
Compiling threw: SyntaxError: invalid sharp variable definition

tryItOut 169

tryItOut 170

tryItOut 171
Running threw: TypeError: redeclaration of var __proto__

tryItOut 172
Compiling threw: SyntaxError: missing } after let block

tryItOut 173
Compiling threw: SyntaxError: invalid sharp variable definition

tryItOut 174

tryItOut 175

tryItOut 176
Compiling threw: SyntaxError: missing { before function body

tryItOut 177
Compiling threw: SyntaxError: syntax error

tryItOut 178

tryItOut 179

tryItOut 180
Running threw: ,

tryItOut 181
Compiling threw: SyntaxError: missing ) in parenthetical

tryItOut 182
Compiling threw: SyntaxError: syntax error

tryItOut 183
Compiling threw: SyntaxError: missing ; before statement

tryItOut 184
before 156960, after 156960, break 028fe000

tryItOut 185
Compiling threw: SyntaxError: syntax error

tryItOut 186

tryItOut 187
Compiling threw: SyntaxError: syntax error

tryItOut 188
Compiling threw: SyntaxError: syntax error

tryItOut 189
Compiling threw: SyntaxError: invalid assignment left-hand side

tryItOut 190
before 156960, after 156960, break 028fe000

tryItOut 191
Compiling threw: SyntaxError: missing variable name

tryItOut 192

tryItOut 193
It's an iterator!
Iterating succeeded, iterCount == 1

tryItOut 194

tryItOut 195
Running threw: undefined

tryItOut 196
Compiling threw: TypeError: redeclaration of var __count__

tryItOut 197

tryItOut 198
Compiling threw: SyntaxError: syntax error

tryItOut 199
Compiling threw: SyntaxError: invalid for/in left-hand side

tryItOut 200

tryItOut 201
Running threw: [object Object]

tryItOut 202

tryItOut 203
Compiling threw: SyntaxError: missing ( before let head

tryItOut 204

tryItOut 205
It's an iterator!
Iterating threw!
Iterating threw: ReferenceError: __noSuchMethod__ is not defined

tryItOut 206

tryItOut 207
Compiling threw: TypeError: generator function anonymous returns a value

tryItOut 208

tryItOut 209
Compiling threw: SyntaxError: syntax error

tryItOut 210
Compiling threw: SyntaxError: syntax error

tryItOut 211
Compiling threw: SyntaxError: label not found

tryItOut 212

tryItOut 213
Compiling threw: SyntaxError: missing variable name

tryItOut 214
Compiling threw: SyntaxError: label not found

tryItOut 215
Compiling threw: SyntaxError: invalid continue

tryItOut 216
Compiling threw: SyntaxError: invalid for/in left-hand side

tryItOut 217
Compiling threw: SyntaxError: missing ; before statement

tryItOut 218
Compiling threw: SyntaxError: invalid for/in left-hand side

tryItOut 219

tryItOut 220
Compiling threw: SyntaxError: syntax error

tryItOut 221

tryItOut 222
Running threw: true

tryItOut 223

tryItOut 224

tryItOut 225
Running threw: [object StopIteration]

tryItOut 226

tryItOut 227
Compiling threw: TypeError: redeclaration of variable __parent__

tryItOut 228
Compiling threw: SyntaxError: missing ; before statement

tryItOut 229
Compiling threw: SyntaxError: missing name after . operator

tryItOut 230

tryItOut 231
Compiling threw: SyntaxError: syntax error

tryItOut 232

tryItOut 233

tryItOut 234
Compiling threw: SyntaxError: missing variable name

tryItOut 235
Compiling threw: SyntaxError: missing variable name

tryItOut 236
Compiling threw: SyntaxError: syntax error

tryItOut 237
Compiling threw: SyntaxError: invalid assignment left-hand side

tryItOut 238

tryItOut 239
Compiling threw: SyntaxError: invalid for each loop

tryItOut 240

tryItOut 241
Compiling threw: SyntaxError: invalid continue

tryItOut 242
Compiling threw: SyntaxError: missing ) in parenthetical

tryItOut 243
Compiling threw: SyntaxError: syntax error

tryItOut 244
Compiling threw: SyntaxError: invalid assignment left-hand side

tryItOut 245

tryItOut 246
Compiling threw: SyntaxError: missing = in destructuring declaration

tryItOut 247

tryItOut 248

tryItOut 249
It's an iterator!
Iterating threw!
Iterating threw: TypeError: constructor has no properties

tryItOut 250
Compiling threw: SyntaxError: missing ; before statement

tryItOut 251
Compiling threw: SyntaxError: syntax error

tryItOut 252
Compiling threw: SyntaxError: invalid for/in left-hand side

tryItOut 253
Compiling threw: SyntaxError: missing { before function body

tryItOut 254

tryItOut 255
Running threw: ReferenceError: __noSuchMethod__ is not defined

tryItOut 256

tryItOut 257
Compiling threw: SyntaxError: invalid for/in left-hand side

tryItOut 258

tryItOut 259
Compiling threw: SyntaxError: invalid for/in left-hand side

tryItOut 260

tryItOut 261

tryItOut 262
Running threw: ReferenceError: z2 is not defined

tryItOut 263
Compiling threw: SyntaxError: missing = in destructuring declaration

tryItOut 264
Compiling threw: SyntaxError: missing ; before statement

tryItOut 265

tryItOut 266
Compiling threw: SyntaxError: invalid assignment left-hand side

tryItOut 267
Compiling threw: SyntaxError: missing { before function body

tryItOut 268
Compiling threw: SyntaxError: missing ) in parenthetical

tryItOut 269

tryItOut 270
Compiling threw: SyntaxError: missing ; before statement

tryItOut 271
Compiling threw: SyntaxError: invalid switch statement

tryItOut 272
Compiling threw: SyntaxError: missing ; before statement

tryItOut 273
Compiling threw: SyntaxError: yield expression must be parenthesized

tryItOut 274

tryItOut 275
Compiling threw: SyntaxError: invalid continue

tryItOut 276
Running threw: <x>
  <y/>
</x>

tryItOut 277
Compiling threw: SyntaxError: invalid assignment left-hand side

tryItOut 278

tryItOut 279

tryItOut 280
Compiling threw: SyntaxError: invalid assignment left-hand side

tryItOut 281
Compiling threw: SyntaxError: invalid continue

tryItOut 282

tryItOut 283
Compiling threw: SyntaxError: invalid for/in left-hand side

tryItOut 284
It's an iterator!
Iterating threw!
Iterating threw: TypeError: 1e+81 is not a constructor

tryItOut 285
Compiling threw: SyntaxError: invalid for/in left-hand side

tryItOut 286
Compiling threw: SyntaxError: missing { before function body

tryItOut 287

tryItOut 288

tryItOut 289
Compiling threw: SyntaxError: missing ; after for-loop initializer

tryItOut 290

tryItOut 291
Running threw: ReferenceError: __noSuchMethod__ is not defined

tryItOut 292
Compiling threw: SyntaxError: missing ) in parenthetical

tryItOut 293
Compiling threw: SyntaxError: syntax error

tryItOut 294
Compiling threw: SyntaxError: invalid increment operand

tryItOut 295
It's an iterator!
Iterating succeeded, iterCount == 1

tryItOut 296
Compiling threw: SyntaxError: invalid assignment left-hand side

tryItOut 297
Compiling threw: SyntaxError: invalid assignment left-hand side

tryItOut 298

tryItOut 299
Compiling threw: SyntaxError: invalid continue

tryItOut 300

tryItOut 301

tryItOut 302

tryItOut 303

tryItOut 304
Compiling threw: SyntaxError: syntax error

tryItOut 305
Compiling threw: SyntaxError: label not found

tryItOut 306
Compiling threw: SyntaxError: missing ) in parenthetical

tryItOut 307
Compiling threw: SyntaxError: invalid for/in left-hand side

tryItOut 308
Compiling threw: SyntaxError: illegal XML character

tryItOut 309
Running threw: ReferenceError: __noSuchMethod__ is not defined

tryItOut 310
Compiling threw: SyntaxError: missing ] after element list

tryItOut 311
Compiling threw: SyntaxError: missing ) after argument list

tryItOut 312

tryItOut 313
Compiling threw: SyntaxError: illegal XML character

tryItOut 314

tryItOut 315

tryItOut 316

tryItOut 317
Compiling threw: SyntaxError: missing { before function body

tryItOut 318
Compiling threw: SyntaxError: missing ; before statement

tryItOut 319
Compiling threw: SyntaxError: invalid assignment left-hand side

tryItOut 320
Running threw: TypeError: XML filtering predicate operator called on incompatible Object

tryItOut 321
It's an iterator!
Iterating succeeded, iterCount == 1

tryItOut 322
Compiling threw: SyntaxError: missing ; before statement

tryItOut 323
Running threw: 1

tryItOut 324

tryItOut 325

tryItOut 326
Compiling threw: SyntaxError: syntax error

tryItOut 327
Compiling threw: SyntaxError: invalid assignment left-hand side

tryItOut 328
Compiling threw: SyntaxError: missing variable name

tryItOut 329

tryItOut 330

tryItOut 331
Compiling threw: SyntaxError: invalid for/in left-hand side

tryItOut 332
Compiling threw: TypeError: redeclaration of variable __noSuchMethod__

tryItOut 333
It's an iterator!
Iterating threw!
Iterating threw: TypeError: ({}) is not a constructor

tryItOut 334
Compiling threw: SyntaxError: missing = in destructuring declaration

tryItOut 335
Compiling threw: SyntaxError: invalid assignment left-hand side

tryItOut 336
It's an iterator!
Iterating threw!
Iterating threw: ReferenceError: z2 is not defined

tryItOut 337
Running threw: ReferenceError: z2 is not defined

tryItOut 338
Compiling threw: SyntaxError: invalid for/in left-hand side

tryItOut 339
Compiling threw: SyntaxError: missing ) in parenthetical

tryItOut 340

tryItOut 341
Compiling threw: SyntaxError: syntax error

tryItOut 342
Compiling threw: SyntaxError: missing ) in parenthetical

tryItOut 343
Compiling threw: SyntaxError: illegal character

tryItOut 344
Compiling threw: TypeError: generator function anonymous returns a value

tryItOut 345
Compiling threw: SyntaxError: missing variable name

tryItOut 346
Compiling threw: SyntaxError: label not found

tryItOut 347

tryItOut 348
Compiling threw: SyntaxError: invalid decrement operand

tryItOut 349
Compiling threw: SyntaxError: missing ; before statement

tryItOut 350
Compiling threw: SyntaxError: missing ) after condition

tryItOut 351
Compiling threw: SyntaxError: missing ) in parenthetical

tryItOut 352

tryItOut 353
Compiling threw: SyntaxError: label not found

tryItOut 354
It's an iterator!
Iterating succeeded, iterCount == 1

tryItOut 355
Compiling threw: SyntaxError: invalid assignment left-hand side

tryItOut 356
It's an iterator!
Iterating threw!
Iterating threw: SyntaxError: invalid assignment left-hand side

tryItOut 357
Compiling threw: SyntaxError: invalid for/in left-hand side

tryItOut 358

tryItOut 359

tryItOut 360

tryItOut 361
Compiling threw: SyntaxError: invalid for/in left-hand side

tryItOut 362
Compiling threw: SyntaxError: missing : after property id

tryItOut 363

tryItOut 364

tryItOut 365
Compiling threw: SyntaxError: illegal XML character

tryItOut 366
Compiling threw: TypeError: generator function anonymous returns a value

tryItOut 367
Running threw: true

tryItOut 368
Compiling threw: SyntaxError: missing ; before statement

tryItOut 369

tryItOut 370
Compiling threw: SyntaxError: invalid for/in left-hand side

tryItOut 371

tryItOut 372

tryItOut 373
Running threw: 4

tryItOut 374
Compiling threw: SyntaxError: missing ) in parenthetical

tryItOut 375

tryItOut 376
Compiling threw: SyntaxError: missing ; before statement

tryItOut 377
Compiling threw: SyntaxError: syntax error

tryItOut 378

tryItOut 379
Compiling threw: SyntaxError: missing { before function body

tryItOut 380

tryItOut 381
Running threw: [object StopIteration]

tryItOut 382
Compiling threw: SyntaxError: invalid for/in left-hand side

tryItOut 383
Compiling threw: SyntaxError: missing variable name

tryItOut 384
Compiling threw: SyntaxError: missing ; before statement

tryItOut 385
Compiling threw: SyntaxError: invalid for each loop

tryItOut 386
Compiling threw: SyntaxError: label not found

tryItOut 387
Running threw: 1200

tryItOut 388
Compiling threw: SyntaxError: syntax error

tryItOut 389

tryItOut 390
Compiling threw: SyntaxError: invalid for/in left-hand side

tryItOut 391
Running threw: ReferenceError: z1 is not defined

tryItOut 392

tryItOut 393

tryItOut 394
Compiling threw: SyntaxError: invalid for/in left-hand side

tryItOut 395
Compiling threw: SyntaxError: invalid for/in left-hand side

tryItOut 396

tryItOut 397
Compiling threw: SyntaxError: invalid continue

tryItOut 398
Compiling threw: SyntaxError: invalid assignment left-hand side

tryItOut 399
Compiling threw: SyntaxError: invalid break

tryItOut 400
Compiling threw: SyntaxError: missing { before function body

tryItOut 401

tryItOut 402
It's an iterator!
Iterating succeeded, iterCount == 1

tryItOut 403
Compiling threw: SyntaxError: syntax error

tryItOut 404
Compiling threw: SyntaxError: invalid for each loop

tryItOut 405
Compiling threw: SyntaxError: syntax error

tryItOut 406
Compiling threw: SyntaxError: missing { before function body

tryItOut 407
Compiling threw: SyntaxError: syntax error

tryItOut 408
Compiling threw: TypeError: anonymous generator function returns a value

tryItOut 409

tryItOut 410
Running threw: true

tryItOut 411
Compiling threw: SyntaxError: syntax error

tryItOut 412

tryItOut 413
Compiling threw: SyntaxError: invalid for/in left-hand side

tryItOut 414
Compiling threw: TypeError: redeclaration of const constructor

tryItOut 415

tryItOut 416
Compiling threw: SyntaxError: finally without try

tryItOut 417
Compiling threw: SyntaxError: missing ) in parenthetical

tryItOut 418
Compiling threw: SyntaxError: missing ; after for-loop initializer

tryItOut 419

tryItOut 420
Compiling threw: SyntaxError: invalid assignment left-hand side

tryItOut 421
It's an iterator!
Iterating succeeded, iterCount == 1

tryItOut 422
Compiling threw: SyntaxError: missing ) after condition

tryItOut 423

tryItOut 424
Compiling threw: SyntaxError: missing ; before statement

tryItOut 425
Compiling threw: SyntaxError: missing name after . operator

tryItOut 426
Compiling threw: SyntaxError: missing ; before statement

tryItOut 427

tryItOut 428

tryItOut 429

tryItOut 430
Compiling threw: SyntaxError: missing ) in parenthetical

tryItOut 431

tryItOut 432
Compiling threw: SyntaxError: invalid for/in left-hand side

tryItOut 433
Compiling threw: SyntaxError: syntax error

tryItOut 434

tryItOut 435

tryItOut 436

tryItOut 437

tryItOut 438
Compiling threw: SyntaxError: missing ) in parenthetical

tryItOut 439
It's an iterator!
Iterating succeeded, iterCount == 1

tryItOut 440
Running threw: Error: invalid sharp variable use #1#

tryItOut 441
Compiling threw: SyntaxError: syntax error

tryItOut 442

tryItOut 443

tryItOut 444

tryItOut 445
Compiling threw: SyntaxError: missing ) in parenthetical

tryItOut 446

tryItOut 447
Compiling threw: SyntaxError: missing variable name

tryItOut 448

tryItOut 449
Running threw: TypeError: XML filtering predicate operator called on incompatible Number

tryItOut 450
Compiling threw: SyntaxError: missing ; before statement

tryItOut 451

tryItOut 452
Compiling threw: SyntaxError: missing variable name

tryItOut 453
Compiling threw: SyntaxError: syntax error

tryItOut 454
Compiling threw: SyntaxError: syntax error

tryItOut 455
Compiling threw: SyntaxError: syntax error

tryItOut 456
It's an iterator!
Iterating succeeded, iterCount == 1

tryItOut 457

tryItOut 458
Running threw: SyntaxError: invalid assignment left-hand side

tryItOut 459
Compiling threw: SyntaxError: invalid sharp variable definition

tryItOut 460
Compiling threw: SyntaxError: missing { before function body

tryItOut 461

tryItOut 462
Compiling threw: SyntaxError: missing ; before statement

tryItOut 463
before 226720, after 226720, break 02980000
Running threw: ReferenceError: z1 is not defined

tryItOut 464
Compiling threw: SyntaxError: label not found

tryItOut 465

tryItOut 466
Compiling threw: SyntaxError: invalid assignment left-hand side

tryItOut 467
Running threw: [object StopIteration]

tryItOut 468
Compiling threw: SyntaxError: syntax error

tryItOut 469
Running threw: <x>
  <y/>
</x>

tryItOut 470

tryItOut 471

tryItOut 472
Compiling threw: SyntaxError: duplicate label

tryItOut 473
Compiling threw: SyntaxError: missing { before function body

tryItOut 474

tryItOut 475
Compiling threw: SyntaxError: invalid destructuring assignment operator

tryItOut 476

tryItOut 477

tryItOut 478
Compiling threw: SyntaxError: invalid continue

tryItOut 479
Compiling threw: SyntaxError: syntax error

tryItOut 480
Compiling threw: SyntaxError: label not found

tryItOut 481

tryItOut 482

tryItOut 483
Compiling threw: SyntaxError: missing variable name

tryItOut 484

tryItOut 485
It's an iterator!
Iterating succeeded, iterCount == 1

tryItOut 486

tryItOut 487
Compiling threw: SyntaxError: missing ; before statement

tryItOut 488

tryItOut 489

tryItOut 490

tryItOut 491

tryItOut 492
Compiling threw: SyntaxError: invalid break

tryItOut 493

tryItOut 494

tryItOut 495
Compiling threw: SyntaxError: invalid continue

tryItOut 496
Compiling threw: SyntaxError: invalid continue

tryItOut 497
Compiling threw: SyntaxError: missing ) in parenthetical

tryItOut 498

tryItOut 499
Compiling threw: SyntaxError: missing ) in parenthetical

tryItOut 500

tryItOut 501

tryItOut 502

tryItOut 503
Compiling threw: SyntaxError: missing ; before statement

tryItOut 504

tryItOut 505
It's an iterator!
Iterating threw!
Iterating threw: TypeError: {}.@[*::false] has no properties

tryItOut 506

tryItOut 507
Running threw: [object StopIteration]

tryItOut 508

tryItOut 509

tryItOut 510
Compiling threw: SyntaxError: syntax error

tryItOut 511
Compiling threw: SyntaxError: syntax error

tryItOut 512
It's an iterator!
Iterating succeeded, iterCount == 1

tryItOut 513

tryItOut 514

tryItOut 515
Compiling threw: SyntaxError: missing variable name

tryItOut 516
Compiling threw: SyntaxError: invalid for/in left-hand side

tryItOut 517

tryItOut 518
Compiling threw: SyntaxError: invalid continue

tryItOut 519
Compiling threw: SyntaxError: invalid for/in left-hand side

tryItOut 520

tryItOut 521
It's an iterator!
Iterating threw!
Iterating threw: 3.141592653589793

tryItOut 522
Running threw: TypeError: arguments[0] has no properties

tryItOut 523
Compiling threw: TypeError: generator function anonymous returns a value

tryItOut 524
Running threw: [object StopIteration]

tryItOut 525
Compiling threw: SyntaxError: missing variable name

tryItOut 526

tryItOut 527
Compiling threw: SyntaxError: invalid for/in left-hand side

tryItOut 528
Compiling threw: SyntaxError: invalid default XML namespace

tryItOut 529
Running threw: ReferenceError: z1 is not defined

tryItOut 530
Compiling threw: SyntaxError: missing : after property id

tryItOut 531

tryItOut 532

tryItOut 533
Running threw: ReferenceError: __noSuchMethod__ is not defined

tryItOut 534

tryItOut 535

tryItOut 536

tryItOut 537
Running threw: TypeError: null has no properties

tryItOut 538

tryItOut 539
Compiling threw: TypeError: generator function anonymous returns a value

tryItOut 540

tryItOut 541
Compiling threw: SyntaxError: invalid for each loop

tryItOut 542

tryItOut 543
Running threw: [object StopIteration]

tryItOut 544
Compiling threw: SyntaxError: syntax error

tryItOut 545

tryItOut 546
Compiling threw: SyntaxError: missing ; before statement

tryItOut 547

tryItOut 548
Compiling threw: SyntaxError: illegal XML character

tryItOut 549
Compiling threw: SyntaxError: label not found

tryItOut 550

tryItOut 551

tryItOut 552
Compiling threw: SyntaxError: missing ; before statement

tryItOut 553
Compiling threw: SyntaxError: illegal XML character

tryItOut 554
Compiling threw: SyntaxError: invalid continue

tryItOut 555
Running threw: [object StopIteration]

tryItOut 556
Compiling threw: SyntaxError: invalid increment operand

tryItOut 557
Compiling threw: SyntaxError: invalid continue

tryItOut 558
It's an iterator!
Iterating succeeded, iterCount == 1

tryItOut 559
Compiling threw: TypeError: redeclaration of const __iterator__

tryItOut 560
Compiling threw: SyntaxError: missing ( before let head

tryItOut 561
Compiling threw: SyntaxError: syntax error

tryItOut 562

tryItOut 563
Compiling threw: SyntaxError: syntax error

tryItOut 564
Compiling threw: TypeError: generator function anonymous returns a value

tryItOut 565
Compiling threw: SyntaxError: invalid continue

tryItOut 566
Compiling threw: SyntaxError: missing { before function body

tryItOut 567
Compiling threw: SyntaxError: label not found

tryItOut 568
Compiling threw: SyntaxError: missing ) after argument list

tryItOut 569
Compiling threw: SyntaxError: syntax error

tryItOut 570
Compiling threw: SyntaxError: invalid assignment left-hand side

tryItOut 571

tryItOut 572
Compiling threw: SyntaxError: invalid destructuring assignment operator

tryItOut 573
Compiling threw: SyntaxError: syntax error

tryItOut 574

tryItOut 575
Compiling threw: SyntaxError: syntax error

tryItOut 576

tryItOut 577
Running threw: Error: invalid sharp variable use #1#

tryItOut 578
Running threw: true

tryItOut 579
Compiling threw: SyntaxError: invalid destructuring assignment operator

tryItOut 580
Compiling threw: SyntaxError: missing ; before statement

tryItOut 581
Compiling threw: SyntaxError: syntax error

tryItOut 582
Running threw: ReferenceError: z1 is not defined

tryItOut 583
Running threw: 4

tryItOut 584
Compiling threw: SyntaxError: missing ; before statement

tryItOut 585
Compiling threw: SyntaxError: missing ) in parenthetical

tryItOut 586

tryItOut 587
Compiling threw: SyntaxError: syntax error

tryItOut 588
Compiling threw: SyntaxError: missing { before function body

tryItOut 589
Compiling threw: SyntaxError: invalid for/in left-hand side

tryItOut 590

tryItOut 591

tryItOut 592
Compiling threw: SyntaxError: invalid for/in left-hand side

tryItOut 593
It's an iterator!
Iterating threw!
Iterating threw: TypeError: undefined has no properties

tryItOut 594
Compiling threw: SyntaxError: invalid for/in left-hand side

tryItOut 595
Compiling threw: SyntaxError: label not found

tryItOut 596

tryItOut 597

tryItOut 598
Compiling threw: TypeError: redeclaration of var __parent__

tryItOut 599

tryItOut 600
Compiling threw: SyntaxError: invalid for/in left-hand side

tryItOut 601
Compiling threw: SyntaxError: missing ; after for-loop initializer

tryItOut 602
Compiling threw: TypeError: redeclaration of variable __iterator__

tryItOut 603
Compiling threw: SyntaxError: missing ) after switch expression

tryItOut 604
It's an iterator!
Iterating succeeded, iterCount == 1

tryItOut 605
Compiling threw: SyntaxError: missing ; before statement

tryItOut 606
Compiling threw: SyntaxError: missing ; before statement

tryItOut 607
Compiling threw: SyntaxError: invalid destructuring assignment operator

tryItOut 608
Compiling threw: SyntaxError: missing ; before statement

tryItOut 609
before 226720, after 209280, break 02994000

tryItOut 610

tryItOut 611

tryItOut 612
Compiling threw: SyntaxError: syntax error

tryItOut 613
Compiling threw: SyntaxError: missing } after let block

tryItOut 614
Compiling threw: SyntaxError: syntax error

tryItOut 615
Compiling threw: SyntaxError: missing ) in parenthetical

tryItOut 616

tryItOut 617
Compiling threw: SyntaxError: syntax error

tryItOut 618
Compiling threw: SyntaxError: missing ) in parenthetical

tryItOut 619
Running threw: [object StopIteration]

tryItOut 620

tryItOut 621
Compiling threw: SyntaxError: invalid assignment left-hand side

tryItOut 622

tryItOut 623
Compiling threw: SyntaxError: invalid for/in left-hand side

tryItOut 624
Compiling threw: SyntaxError: missing { before function body

tryItOut 625
before 209280, after 209280, break 02994000

tryItOut 626

tryItOut 627
Compiling threw: SyntaxError: missing ) in parenthetical

tryItOut 628
Running threw: ReferenceError: z1 is not defined

tryItOut 629
Compiling threw: TypeError: redeclaration of const __parent__

tryItOut 630

tryItOut 631

tryItOut 632
Compiling threw: SyntaxError: missing ) after let head

tryItOut 633

tryItOut 634
Running threw: 111

tryItOut 635
It's an iterator!
Iterating threw!
Iterating threw: ReferenceError: z2 is not defined

tryItOut 636
It's an iterator!
Iterating succeeded, iterCount == 0

tryItOut 637
Compiling threw: TypeError: redeclaration of var __iterator__

tryItOut 638

tryItOut 639

tryItOut 640

tryItOut 641

tryItOut 642
Compiling threw: SyntaxError: syntax error

tryItOut 643

tryItOut 644
Compiling threw: SyntaxError: missing ) in parenthetical

tryItOut 645
Compiling threw: SyntaxError: missing ; before statement

tryItOut 646
Compiling threw: TypeError: redeclaration of var __parent__

tryItOut 647
Compiling threw: TypeError: generator function anonymous returns a value

tryItOut 648
Running threw: [object Object]

tryItOut 649
Compiling threw: SyntaxError: missing = in destructuring declaration

tryItOut 650
Compiling threw: SyntaxError: missing } after let block

tryItOut 651

tryItOut 652
Running threw: ReferenceError: z1 is not defined

tryItOut 653
Running threw: [object Object]

tryItOut 654
Running threw: ReferenceError: z1 is not defined

tryItOut 655
Compiling threw: SyntaxError: invalid decrement operand

tryItOut 656
Compiling threw: TypeError: redeclaration of variable __noSuchMethod__

tryItOut 657
Compiling threw: SyntaxError: invalid for/in left-hand side

tryItOut 658
Compiling threw: SyntaxError: syntax error

tryItOut 659
Compiling threw: SyntaxError: missing ; after for-loop initializer

tryItOut 660
Compiling threw: SyntaxError: invalid for/in left-hand side

tryItOut 661

tryItOut 662
It's an iterator!
Iterating threw!
Iterating threw: TypeError: this.zzz has no properties

tryItOut 663

tryItOut 664
Compiling threw: SyntaxError: unterminated regular expression literal

tryItOut 665
It's an iterator!
Iterating threw!
Iterating threw: ReferenceError: a is not defined

tryItOut 666
Compiling threw: SyntaxError: missing ; before statement

tryItOut 667

tryItOut 668
Compiling threw: SyntaxError: invalid for/in left-hand side

tryItOut 669
Compiling threw: SyntaxError: missing ) after condition

tryItOut 670
Compiling threw: SyntaxError: invalid assignment left-hand side

tryItOut 671

tryItOut 672

tryItOut 673

tryItOut 674
Compiling threw: SyntaxError: missing { before function body

tryItOut 675
Compiling threw: SyntaxError: label not found

tryItOut 676
Compiling threw: SyntaxError: missing ( before let head

tryItOut 677
Compiling threw: SyntaxError: invalid assignment left-hand side

tryItOut 678
It's an iterator!
Iterating succeeded, iterCount == 0

tryItOut 679
Compiling threw: SyntaxError: missing ) in parenthetical

tryItOut 680
Compiling threw: SyntaxError: missing } after let block

tryItOut 681
Compiling threw: SyntaxError: invalid break

tryItOut 682

tryItOut 683
Compiling threw: SyntaxError: syntax error

tryItOut 684
Running threw: [object StopIteration]

tryItOut 685
Compiling threw: SyntaxError: syntax error

tryItOut 686
Running threw: Error: invalid sharp variable use #1#

tryItOut 687
Compiling threw: SyntaxError: syntax error

tryItOut 688
Compiling threw: TypeError: generator function anonymous returns a value

tryItOut 689
Compiling threw: SyntaxError: invalid for/in left-hand side

tryItOut 690
Compiling threw: SyntaxError: missing ) in parenthetical

tryItOut 691
Compiling threw: SyntaxError: label not found

tryItOut 692

tryItOut 693
Compiling threw: SyntaxError: invalid assignment left-hand side

tryItOut 694
Compiling threw: SyntaxError: invalid for/in left-hand side

tryItOut 695

tryItOut 696

tryItOut 697

tryItOut 698

tryItOut 699
It's an iterator!
Iterating threw!
Iterating threw: TypeError: this.zzz has no properties

tryItOut 700
Compiling threw: SyntaxError: invalid for/in left-hand side

tryItOut 701
Running threw: TypeError: prototype has no properties

tryItOut 702

tryItOut 703
Compiling threw: SyntaxError: invalid assignment left-hand side

tryItOut 704
before 209280, after 209280, break 02994000

tryItOut 705
Compiling threw: TypeError: redeclaration of var prototype

tryItOut 706
Running threw: undefined

tryItOut 707

tryItOut 708
Compiling threw: SyntaxError: invalid for/in left-hand side

tryItOut 709
Compiling threw: SyntaxError: missing ) after condition

tryItOut 710

tryItOut 711
Compiling threw: SyntaxError: missing ; before statement

tryItOut 712

tryItOut 713
Compiling threw: SyntaxError: missing variable name

tryItOut 714

tryItOut 715
Compiling threw: TypeError: generator function anonymous returns a value

tryItOut 716
Compiling threw: SyntaxError: invalid assignment left-hand side

tryItOut 717
It's an iterator!
Iterating succeeded, iterCount == 1

tryItOut 718
Running threw: TypeError: null has no properties

tryItOut 719
Running threw: Error: invalid sharp variable use #1#

tryItOut 720

tryItOut 721

tryItOut 722

tryItOut 723
Compiling threw: SyntaxError: invalid assignment left-hand side

tryItOut 724
Compiling threw: SyntaxError: missing ) in parenthetical

tryItOut 725
Compiling threw: SyntaxError: missing { before function body

tryItOut 726
Compiling threw: SyntaxError: syntax error

tryItOut 727

tryItOut 728
Compiling threw: SyntaxError: missing ; before statement

tryItOut 729
Compiling threw: SyntaxError: invalid for/in left-hand side

tryItOut 730

tryItOut 731
Compiling threw: SyntaxError: invalid for/in left-hand side

tryItOut 732

tryItOut 733

tryItOut 734
Compiling threw: SyntaxError: syntax error

tryItOut 735
Compiling threw: SyntaxError: invalid for/in left-hand side

tryItOut 736

tryItOut 737
Compiling threw: SyntaxError: missing ) in parenthetical

tryItOut 738

tryItOut 739

tryItOut 740
Compiling threw: SyntaxError: missing ) after argument list

tryItOut 741

tryItOut 742
Compiling threw: SyntaxError: missing { before function body

tryItOut 743
Compiling threw: SyntaxError: invalid for/in left-hand side

tryItOut 744

tryItOut 745
Compiling threw: SyntaxError: invalid for/in left-hand side

tryItOut 746
Compiling threw: SyntaxError: label not found

tryItOut 747
Compiling threw: SyntaxError: missing ) after let head

tryItOut 748
Running threw: TypeError: arguments[0] has no properties

tryItOut 749
Running threw: true

tryItOut 750

tryItOut 751
Compiling threw: SyntaxError: label not found

tryItOut 752

tryItOut 753
Compiling threw: SyntaxError: missing { before function body

tryItOut 754
Compiling threw: SyntaxError: missing : after property id

tryItOut 755

tryItOut 756

tryItOut 757

tryItOut 758
It's an iterator!
Iterating succeeded, iterCount == 1

tryItOut 759

tryItOut 760
Compiling threw: SyntaxError: duplicate label

tryItOut 761

tryItOut 762
Compiling threw: SyntaxError: invalid for each loop

tryItOut 763
Compiling threw: SyntaxError: missing { before function body

tryItOut 764
Compiling threw: SyntaxError: invalid for/in left-hand side

tryItOut 765
Compiling threw: SyntaxError: missing { before function body

tryItOut 766
Compiling threw: SyntaxError: invalid break

tryItOut 767
before 209280, after 209280, break 02994000

tryItOut 768

tryItOut 769
Running threw: TypeError: arguments[0] has no properties

tryItOut 770
Compiling threw: SyntaxError: invalid for/in left-hand side

tryItOut 771
Compiling threw: SyntaxError: label not found

tryItOut 772

tryItOut 773
Compiling threw: SyntaxError: missing ; before statement

tryItOut 774
Compiling threw: SyntaxError: label not found

tryItOut 775

tryItOut 776
It's an iterator!
Iterating succeeded, iterCount == 1

tryItOut 777
Compiling threw: SyntaxError: syntax error

tryItOut 778
Compiling threw: SyntaxError: illegal XML character

tryItOut 779

tryItOut 780

tryItOut 781
It's an iterator!
Iterating threw!
Iterating threw: ReferenceError: z2 is not defined

tryItOut 782

tryItOut 783

tryItOut 784

tryItOut 785
Compiling threw: SyntaxError: invalid assignment left-hand side

tryItOut 786
Compiling threw: SyntaxError: missing ; before statement

tryItOut 787
It's an iterator!
Iterating threw!
Iterating threw: TypeError: arguments[0] has no properties

tryItOut 788
before 209280, after 209280, break 02994000

tryItOut 789
It's an iterator!
Iterating threw!
Iterating threw: Error: invalid sharp variable use #1#

tryItOut 790
Compiling threw: SyntaxError: syntax error

tryItOut 791

tryItOut 792
Compiling threw: SyntaxError: invalid for/in left-hand side

tryItOut 793
Compiling threw: SyntaxError: unterminated regular expression literal

tryItOut 794

tryItOut 795
Compiling threw: SyntaxError: missing ; before statement

tryItOut 796
Compiling threw: SyntaxError: invalid for/in left-hand side

tryItOut 797
Running threw: ReferenceError: yyy is not defined

tryItOut 798
It's an iterator!
Iterating succeeded, iterCount == 1

tryItOut 799
Compiling threw: SyntaxError: missing = in destructuring declaration

tryItOut 800
Compiling threw: SyntaxError: invalid assignment left-hand side

tryItOut 801

tryItOut 802
Compiling threw: SyntaxError: invalid assignment left-hand side

tryItOut 803
It's an iterator!
Iterating succeeded, iterCount == 0

tryItOut 804
Compiling threw: SyntaxError: invalid for/in left-hand side

tryItOut 805
Compiling threw: SyntaxError: syntax error

tryItOut 806

tryItOut 807
Compiling threw: SyntaxError: invalid assignment left-hand side

tryItOut 808

tryItOut 809
Compiling threw: SyntaxError: missing ( before let head

tryItOut 810
Compiling threw: SyntaxError: missing ; before statement

tryItOut 811
Running threw: undefined

tryItOut 812

tryItOut 813
It's an iterator!
Iterating succeeded, iterCount == 1

tryItOut 814
Compiling threw: SyntaxError: invalid assignment left-hand side

tryItOut 815

tryItOut 816
Compiling threw: SyntaxError: missing = in destructuring declaration

tryItOut 817

tryItOut 818
Compiling threw: SyntaxError: missing ; after for-loop condition

tryItOut 819

tryItOut 820

tryItOut 821
Compiling threw: SyntaxError: invalid property id

tryItOut 822
Compiling threw: SyntaxError: invalid for/in left-hand side

tryItOut 823
Compiling threw: SyntaxError: invalid continue

tryItOut 824
Compiling threw: SyntaxError: missing } after let block

tryItOut 825
Compiling threw: SyntaxError: syntax error

tryItOut 826
Compiling threw: SyntaxError: illegal character

tryItOut 827

tryItOut 828
Compiling threw: SyntaxError: missing = in destructuring declaration

tryItOut 829

tryItOut 830

tryItOut 831
Compiling threw: SyntaxError: syntax error

tryItOut 832
Compiling threw: SyntaxError: missing { before function body

tryItOut 833

tryItOut 834

tryItOut 835
Compiling threw: SyntaxError: missing { before function body

tryItOut 836
Compiling threw: SyntaxError: invalid for/in left-hand side

tryItOut 837

tryItOut 838
Compiling threw: SyntaxError: catch without try

tryItOut 839

tryItOut 840
Compiling threw: SyntaxError: syntax error

tryItOut 841

tryItOut 842
Running threw: TypeError: true is not a constructor

tryItOut 843
Compiling threw: SyntaxError: missing ; after for-loop initializer

tryItOut 844
Compiling threw: SyntaxError: missing } after finally block

tryItOut 845
Compiling threw: SyntaxError: invalid continue

tryItOut 846
Compiling threw: SyntaxError: missing ; before statement

tryItOut 847
It's an iterator!
Iterating threw!
Iterating threw: TypeError: XML filtering predicate operator called on incompatible Number

tryItOut 848
Compiling threw: SyntaxError: invalid for/in left-hand side

tryItOut 849

tryItOut 850

tryItOut 851
Compiling threw: SyntaxError: missing { before function body

tryItOut 852

tryItOut 853

tryItOut 854
Compiling threw: SyntaxError: invalid continue

tryItOut 855

tryItOut 856

tryItOut 857
Compiling threw: SyntaxError: missing ) in parenthetical

tryItOut 858

tryItOut 859
Compiling threw: SyntaxError: illegal character

tryItOut 860
Compiling threw: SyntaxError: invalid for/in left-hand side

tryItOut 861
Compiling threw: SyntaxError: invalid for/in left-hand side

tryItOut 862
Compiling threw: SyntaxError: missing variable name

tryItOut 863
It's an iterator!
Iterating succeeded, iterCount == 0

tryItOut 864
Compiling threw: SyntaxError: label not found

tryItOut 865
It's an iterator!
Iterating succeeded, iterCount == 1

tryItOut 866

tryItOut 867
Compiling threw: SyntaxError: invalid for/in left-hand side

tryItOut 868

tryItOut 869
Running threw: TypeError: this.zzz has no properties

tryItOut 870

tryItOut 871

tryItOut 872
Compiling threw: SyntaxError: invalid break

tryItOut 873
Compiling threw: SyntaxError: invalid switch statement

tryItOut 874
Compiling threw: SyntaxError: syntax error

tryItOut 875

tryItOut 876
Compiling threw: SyntaxError: missing } after let block

tryItOut 877
It's an iterator!
Iterating succeeded, iterCount == 1

tryItOut 878

tryItOut 879
Compiling threw: SyntaxError: syntax error

tryItOut 880
Compiling threw: TypeError: redeclaration of variable __proto__

tryItOut 881

tryItOut 882
It's an iterator!
Iterating threw!
Iterating threw: TypeError: undefined has no properties

tryItOut 883

tryItOut 884
Running threw: undefined

tryItOut 885
Running threw: TypeError: [[]].yoyo is not a function

tryItOut 886
Compiling threw: SyntaxError: syntax error

tryItOut 887

tryItOut 888
Compiling threw: SyntaxError: invalid for/in left-hand side

tryItOut 889
Compiling threw: TypeError: generator function anonymous returns a value

tryItOut 890
Compiling threw: SyntaxError: invalid assignment left-hand side

tryItOut 891
Compiling threw: SyntaxError: missing { before function body

tryItOut 892

tryItOut 893

tryItOut 894
Running threw: TypeError: __parent__ has no properties

tryItOut 895
It's an iterator!
Iterating succeeded, iterCount == 0

tryItOut 896
Running threw: TypeError: null has no properties

tryItOut 897

tryItOut 898
Running threw: TypeError: arguments[0] has no properties

tryItOut 899
Compiling threw: SyntaxError: illegal XML character

tryItOut 900
It's an iterator!
Iterating threw!
Iterating threw: TypeError: new [<x><y/></x>].map(eval) is not a function

tryItOut 901

tryItOut 902
It's an iterator!
Iterating succeeded, iterCount == 0

tryItOut 903

tryItOut 904

tryItOut 905

tryItOut 906
Running threw: [object StopIteration]

tryItOut 907
Compiling threw: SyntaxError: label not found

tryItOut 908
Running threw: [object StopIteration]

tryItOut 909
Compiling threw: SyntaxError: syntax error

tryItOut 910
Compiling threw: SyntaxError: invalid sharp variable definition

tryItOut 911

tryItOut 912

tryItOut 913
Compiling threw: SyntaxError: missing ) in parenthetical

tryItOut 914
Compiling threw: SyntaxError: syntax error

tryItOut 915
Compiling threw: SyntaxError: label not found

tryItOut 916
Compiling threw: SyntaxError: missing = in destructuring declaration

tryItOut 917
Running threw: undefined

tryItOut 918

tryItOut 919
Compiling threw: SyntaxError: invalid continue

tryItOut 920
Compiling threw: SyntaxError: duplicate label

tryItOut 921

tryItOut 922
Compiling threw: TypeError: redeclaration of const constructor

tryItOut 923
Compiling threw: SyntaxError: label not found

tryItOut 924
Compiling threw: SyntaxError: illegal XML character

tryItOut 925
Running threw: ReferenceError: z1 is not defined

tryItOut 926
Compiling threw: SyntaxError: missing ) after let head

tryItOut 927
Compiling threw: SyntaxError: illegal XML character

tryItOut 928
Compiling threw: SyntaxError: invalid continue

tryItOut 929
Compiling threw: SyntaxError: syntax error

tryItOut 930
Compiling threw: SyntaxError: missing ) after let head

tryItOut 931
Running threw: [object StopIteration]

tryItOut 932
Compiling threw: SyntaxError: missing { before function body

tryItOut 933

tryItOut 934
Compiling threw: SyntaxError: invalid for/in left-hand side

tryItOut 935
Compiling threw: SyntaxError: invalid assignment left-hand side

tryItOut 936

tryItOut 937

tryItOut 938

tryItOut 939
It's an iterator!
Iterating succeeded, iterCount == 1

tryItOut 940
Compiling threw: SyntaxError: invalid for each loop

tryItOut 941

tryItOut 942

tryItOut 943
It's an iterator!
Iterating succeeded, iterCount == 0

tryItOut 944
Compiling threw: SyntaxError: syntax error

tryItOut 945

tryItOut 946
Compiling threw: TypeError: redeclaration of variable constructor

tryItOut 947
Compiling threw: SyntaxError: invalid assignment left-hand side

tryItOut 948

tryItOut 949
Compiling threw: SyntaxError: missing { before function body

tryItOut 950
Running threw: TypeError: [[]].@foo has no properties

tryItOut 951
Compiling threw: SyntaxError: invalid break

tryItOut 952
Compiling threw: SyntaxError: duplicate label

tryItOut 953

tryItOut 954
It's an iterator!
Iterating threw!
Iterating threw: TypeError: p.z = 5 is not a function

tryItOut 955

tryItOut 956

tryItOut 957
Compiling threw: SyntaxError: syntax error

tryItOut 958

tryItOut 959
Compiling threw: SyntaxError: label not found

tryItOut 960

tryItOut 961
Compiling threw: SyntaxError: invalid continue

tryItOut 962
Running threw: TypeError: arguments[0] has no properties

tryItOut 963
Compiling threw: TypeError: generator function anonymous returns a value

tryItOut 964
Compiling threw: SyntaxError: invalid continue

tryItOut 965

tryItOut 966
Running threw: undefined

tryItOut 967
Compiling threw: SyntaxError: missing ) in parenthetical

tryItOut 968

tryItOut 969
Compiling threw: SyntaxError: invalid for/in left-hand side

tryItOut 970
Running threw: 113

tryItOut 971
Compiling threw: SyntaxError: missing ) in parenthetical

tryItOut 972
It's an iterator!
Iterating succeeded, iterCount == 1

tryItOut 973
Compiling threw: SyntaxError: invalid assignment left-hand side

tryItOut 974
Running threw: [object StopIteration]

tryItOut 975
Compiling threw: SyntaxError: invalid assignment left-hand side

tryItOut 976
Compiling threw: SyntaxError: invalid continue

tryItOut 977
Compiling threw: TypeError: generator function anonymous returns a value

tryItOut 978
Compiling threw: SyntaxError: syntax error

tryItOut 979
Compiling threw: SyntaxError: syntax error

tryItOut 980
Compiling threw: SyntaxError: missing = in destructuring declaration

tryItOut 981

tryItOut 982
Compiling threw: SyntaxError: duplicate label

tryItOut 983
Compiling threw: SyntaxError: missing variable name

tryItOut 984
Compiling threw: SyntaxError: invalid for/in left-hand side

tryItOut 985

tryItOut 986

tryItOut 987
Compiling threw: SyntaxError: invalid assignment left-hand side

tryItOut 988
Compiling threw: SyntaxError: invalid assignment left-hand side

tryItOut 989

tryItOut 990
Compiling threw: TypeError: redeclaration of var __proto__

tryItOut 991

tryItOut 992
Compiling threw: SyntaxError: missing } after let block

tryItOut 993
It's an iterator!
Iterating threw!
Iterating threw: TypeError: this.zzz has no properties

tryItOut 994
Compiling threw: SyntaxError: label not found

tryItOut 995

tryItOut 996
Compiling threw: SyntaxError: missing ) in parenthetical

tryItOut 997
Compiling threw: SyntaxError: invalid for/in left-hand side

tryItOut 998
Compiling threw: SyntaxError: missing formal parameter

tryItOut 999
Compiling threw: SyntaxError: missing ; after for-loop initializer

tryItOut 1000

ALL OK

Script done on Sat 04 May 2013 04:50:22 AM PDT
