Script started on Sat 04 May 2013 06:03:55 AM PDT
***
Targeting SpiderMonkey / Gecko.

tryItOut 1
Compiling threw: SyntaxError: missing ; before statement

tryItOut 2
Compiling threw: SyntaxError: syntax error

tryItOut 3
Compiling threw: SyntaxError: syntax error

tryItOut 4

tryItOut 5

tryItOut 6

tryItOut 7

tryItOut 8
Compiling threw: SyntaxError: missing { before function body

tryItOut 9
Compiling threw: SyntaxError: missing ; before statement

tryItOut 10
Running threw: ReferenceError: window is not defined

tryItOut 11

tryItOut 12

tryItOut 13
Compiling threw: SyntaxError: illegal XML character

tryItOut 14
Compiling threw: SyntaxError: label not found

tryItOut 15

tryItOut 16
Running threw: ReferenceError: __noSuchMethod__ is not defined

tryItOut 17
Compiling threw: SyntaxError: invalid break

tryItOut 18
Compiling threw: SyntaxError: invalid assignment left-hand side

tryItOut 19
Compiling threw: SyntaxError: missing ; before statement

tryItOut 20
Compiling threw: SyntaxError: missing } in XML expression

tryItOut 21

tryItOut 22
Compiling threw: SyntaxError: missing { before function body

tryItOut 23
Compiling threw: SyntaxError: missing ) in parenthetical

tryItOut 24
Compiling threw: SyntaxError: syntax error

tryItOut 25

tryItOut 26
Compiling threw: SyntaxError: missing { before function body

tryItOut 27
Compiling threw: TypeError: redeclaration of variable __noSuchMethod__

tryItOut 28
Compiling threw: SyntaxError: syntax error

tryItOut 29
Compiling threw: SyntaxError: syntax error

tryItOut 30

tryItOut 31
It's an iterator!
Iterating threw!
Iterating threw: TypeError: (4).yoyo is not a function

tryItOut 32
Compiling threw: SyntaxError: missing ; before statement

tryItOut 33

tryItOut 34

tryItOut 35
Compiling threw: SyntaxError: missing variable name

tryItOut 36

tryItOut 37

tryItOut 38

tryItOut 39

tryItOut 40

tryItOut 41

tryItOut 42

tryItOut 43

tryItOut 44
Compiling threw: SyntaxError: missing variable name

tryItOut 45
Compiling threw: SyntaxError: missing } after property list

tryItOut 46
Compiling threw: SyntaxError: syntax error

tryItOut 47

tryItOut 48

tryItOut 49
Running threw: ReferenceError: __iterator__ is not defined

tryItOut 50
Running threw: ReferenceError: window is not defined

tryItOut 51
Compiling threw: SyntaxError: invalid assignment left-hand side

tryItOut 52
Compiling threw: SyntaxError: missing ; after for-loop initializer

tryItOut 53
Running threw: Error: invalid sharp variable use #1#

tryItOut 54

tryItOut 55

tryItOut 56
Compiling threw: SyntaxError: missing ; before statement

tryItOut 57
Compiling threw: SyntaxError: missing variable name

tryItOut 58

tryItOut 59
Compiling threw: SyntaxError: missing { before function body

tryItOut 60

tryItOut 61

tryItOut 62

tryItOut 63

tryItOut 64
Compiling threw: SyntaxError: label not found

tryItOut 65
Compiling threw: SyntaxError: invalid assignment left-hand side

tryItOut 66
Compiling threw: SyntaxError: label not found

tryItOut 67
Compiling threw: SyntaxError: invalid continue

tryItOut 68
Compiling threw: SyntaxError: missing ) after let head

tryItOut 69
Running threw: ReferenceError: window is not defined

tryItOut 70

tryItOut 71
Compiling threw: SyntaxError: invalid continue

tryItOut 72
Compiling threw: SyntaxError: invalid continue

tryItOut 73
Compiling threw: SyntaxError: missing ; before statement

tryItOut 74
Compiling threw: SyntaxError: missing ; before statement

tryItOut 75
Compiling threw: SyntaxError: missing ) after condition

tryItOut 76
Compiling threw: SyntaxError: invalid for/in left-hand side

tryItOut 77
Compiling threw: SyntaxError: missing variable name

tryItOut 78
Compiling threw: SyntaxError: missing variable name

tryItOut 79
Compiling threw: SyntaxError: missing ; before statement

tryItOut 80
Compiling threw: SyntaxError: invalid break

tryItOut 81

tryItOut 82

tryItOut 83
Compiling threw: TypeError: redeclaration of variable __parent__

tryItOut 84

tryItOut 85
Compiling threw: SyntaxError: missing ; before statement

tryItOut 86

tryItOut 87
Compiling threw: SyntaxError: invalid for/in left-hand side

tryItOut 88
Compiling threw: TypeError: redeclaration of var constructor

tryItOut 89

tryItOut 90
Compiling threw: SyntaxError: label not found

tryItOut 91
Compiling threw: SyntaxError: missing ; before statement

tryItOut 92

tryItOut 93
Running threw: Error: invalid sharp variable use #1#

tryItOut 94
Compiling threw: SyntaxError: invalid assignment left-hand side

tryItOut 95

tryItOut 96
before 104640, after 104640, break 020a3000

tryItOut 97
Compiling threw: SyntaxError: illegal XML character

tryItOut 98

tryItOut 99

tryItOut 100
Compiling threw: SyntaxError: missing { before function body

tryItOut 101

tryItOut 102
Compiling threw: SyntaxError: invalid assignment left-hand side

tryItOut 103
Running threw: ReferenceError: prototype is not defined

tryItOut 104
Running threw: [object Object]

tryItOut 105
Running threw: ReferenceError: window is not defined

tryItOut 106
Compiling threw: SyntaxError: invalid for/in left-hand side

tryItOut 107
Compiling threw: SyntaxError: missing variable name

tryItOut 108
Compiling threw: SyntaxError: missing ; before statement

tryItOut 109

tryItOut 110
Running threw: ReferenceError: prop is not defined

tryItOut 111

tryItOut 112

tryItOut 113

tryItOut 114
Compiling threw: SyntaxError: invalid assignment left-hand side

tryItOut 115
Running threw: TypeError: undefined has no properties

tryItOut 116
Compiling threw: TypeError: redeclaration of variable prop

tryItOut 117

tryItOut 118

tryItOut 119
Compiling threw: SyntaxError: invalid for/in left-hand side

tryItOut 120

tryItOut 121
Compiling threw: SyntaxError: label not found

tryItOut 122
Compiling threw: SyntaxError: missing { before function body

tryItOut 123

tryItOut 124

tryItOut 125
Compiling threw: SyntaxError: missing { before function body

tryItOut 126
Compiling threw: SyntaxError: missing ) in parenthetical

tryItOut 127

tryItOut 128

tryItOut 129
Compiling threw: SyntaxError: missing ; before statement

tryItOut 130

tryItOut 131
Running threw: ReferenceError: prop is not defined

tryItOut 132
Compiling threw: SyntaxError: missing variable name

tryItOut 133

tryItOut 134
Compiling threw: SyntaxError: invalid for/in left-hand side

tryItOut 135
Running threw: ReferenceError: prop is not defined

tryItOut 136
Compiling threw: SyntaxError: missing ; before statement

tryItOut 137
Compiling threw: SyntaxError: invalid for/in left-hand side

tryItOut 138
Compiling threw: SyntaxError: invalid for/in left-hand side

tryItOut 139
Compiling threw: SyntaxError: duplicate label

tryItOut 140
Compiling threw: SyntaxError: missing { before function body

tryItOut 141

tryItOut 142
Compiling threw: SyntaxError: label not found

tryItOut 143
Compiling threw: SyntaxError: label not found

tryItOut 144
Compiling threw: SyntaxError: missing ) after condition

tryItOut 145
Compiling threw: SyntaxError: label not found

tryItOut 146
Compiling threw: SyntaxError: invalid for/in left-hand side

tryItOut 147

tryItOut 148
Compiling threw: SyntaxError: missing variable name

tryItOut 149

tryItOut 150
Compiling threw: SyntaxError: missing variable name

tryItOut 151
Compiling threw: SyntaxError: invalid increment operand

tryItOut 152

tryItOut 153

tryItOut 154
Compiling threw: SyntaxError: invalid destructuring assignment operator

tryItOut 155

tryItOut 156
Compiling threw: SyntaxError: missing { before function body

tryItOut 157

tryItOut 158

tryItOut 159
Running threw: ReferenceError: window is not defined

tryItOut 160
before 104640, after 104640, break 020a3000

tryItOut 161

tryItOut 162
Running threw: SyntaxError: illegal XML character

tryItOut 163

tryItOut 164
Compiling threw: SyntaxError: syntax error

tryItOut 165

tryItOut 166
Compiling threw: SyntaxError: invalid break

tryItOut 167
Running threw: ReferenceError: window is not defined

tryItOut 168
Compiling threw: SyntaxError: invalid property id

tryItOut 169

tryItOut 170

tryItOut 171
Compiling threw: SyntaxError: missing formal parameter

tryItOut 172

tryItOut 173
Compiling threw: SyntaxError: invalid assignment left-hand side

tryItOut 174

tryItOut 175

tryItOut 176

tryItOut 177

tryItOut 178
Running threw: ReferenceError: prototype is not defined

tryItOut 179
Compiling threw: SyntaxError: missing variable name

tryItOut 180
It's an iterator!
Iterating succeeded, iterCount == 1

tryItOut 181
Compiling threw: SyntaxError: label not found

tryItOut 182

tryItOut 183
Compiling threw: SyntaxError: label not found

tryItOut 184
Compiling threw: SyntaxError: invalid for/in left-hand side

tryItOut 185
Compiling threw: SyntaxError: syntax error

tryItOut 186
Compiling threw: SyntaxError: invalid continue

tryItOut 187
Compiling threw: SyntaxError: missing { before function body

tryItOut 188
Running threw: ReferenceError: window is not defined

tryItOut 189

tryItOut 190
Compiling threw: SyntaxError: missing } in compound statement

tryItOut 191

tryItOut 192
Compiling threw: SyntaxError: missing ; after for-loop initializer

tryItOut 193
Compiling threw: SyntaxError: missing { before function body

tryItOut 194

tryItOut 195
Running threw: ReferenceError: window is not defined

tryItOut 196
Compiling threw: SyntaxError: invalid for/in left-hand side

tryItOut 197
Compiling threw: SyntaxError: invalid break

tryItOut 198
Compiling threw: SyntaxError: missing : after property id

tryItOut 199

tryItOut 200
Running threw: ReferenceError: prop is not defined

tryItOut 201
before 104640, after 104640, break 020a9000

tryItOut 202
Compiling threw: SyntaxError: missing = in destructuring declaration

tryItOut 203
Compiling threw: SyntaxError: missing variable name

tryItOut 204
Compiling threw: SyntaxError: syntax error

tryItOut 205
Compiling threw: SyntaxError: missing variable name

tryItOut 206

tryItOut 207
Compiling threw: SyntaxError: syntax error

tryItOut 208
Running threw: TypeError: __parent__ has no properties

tryItOut 209
Compiling threw: SyntaxError: syntax error

tryItOut 210

tryItOut 211
before 104640, after 104640, break 020a9000

tryItOut 212

tryItOut 213
Compiling threw: SyntaxError: missing ; before statement

tryItOut 214

tryItOut 215
Compiling threw: SyntaxError: missing ) after condition

tryItOut 216

tryItOut 217
Running threw: ReferenceError: window is not defined

tryItOut 218
Running threw: ReferenceError: prototype is not defined

tryItOut 219
Compiling threw: SyntaxError: missing ] after element list

tryItOut 220

tryItOut 221

tryItOut 222
Compiling threw: SyntaxError: missing ) after condition

tryItOut 223
Compiling threw: SyntaxError: missing ; before statement

tryItOut 224
Compiling threw: SyntaxError: invalid assignment left-hand side

tryItOut 225
Compiling threw: SyntaxError: missing { before function body

tryItOut 226
before 104640, after 104640, break 020a9000

tryItOut 227
Running threw: ReferenceError: window is not defined

tryItOut 228
Compiling threw: SyntaxError: missing ] after element list

tryItOut 229
Running threw: ReferenceError: window is not defined

tryItOut 230
Compiling threw: SyntaxError: invalid destructuring assignment operator

tryItOut 231
Compiling threw: TypeError: redeclaration of var __parent__

tryItOut 232
Compiling threw: SyntaxError: invalid assignment left-hand side

tryItOut 233
Compiling threw: SyntaxError: missing ; after for-loop condition

tryItOut 234
Compiling threw: SyntaxError: invalid for/in left-hand side

tryItOut 235

tryItOut 236
Compiling threw: SyntaxError: missing ; before statement

tryItOut 237
Running threw: TypeError: XML filtering predicate operator called on incompatible Number

tryItOut 238

tryItOut 239
Compiling threw: SyntaxError: missing { before function body

tryItOut 240
Running threw: TypeError: this is not a function

tryItOut 241
Compiling threw: SyntaxError: missing ; before statement

tryItOut 242

tryItOut 243

tryItOut 244

tryItOut 245
Compiling threw: SyntaxError: missing variable name

tryItOut 246
Compiling threw: SyntaxError: syntax error

tryItOut 247

tryItOut 248
Compiling threw: SyntaxError: missing { before function body

tryItOut 249

tryItOut 250

tryItOut 251
Compiling threw: SyntaxError: invalid decrement operand

tryItOut 252
Compiling threw: SyntaxError: invalid assignment left-hand side

tryItOut 253

tryItOut 254
Compiling threw: SyntaxError: invalid assignment left-hand side

tryItOut 255
before 104640, after 104640, break 020a9000

tryItOut 256
Compiling threw: SyntaxError: invalid for/in left-hand side

tryItOut 257
Compiling threw: SyntaxError: missing : after property id

tryItOut 258

tryItOut 259

tryItOut 260

tryItOut 261

tryItOut 262
Compiling threw: SyntaxError: invalid for/in left-hand side

tryItOut 263
Compiling threw: SyntaxError: invalid for/in left-hand side

tryItOut 264

tryItOut 265
Compiling threw: SyntaxError: missing variable name

tryItOut 266
Compiling threw: SyntaxError: label not found

tryItOut 267

tryItOut 268
Compiling threw: SyntaxError: invalid assignment left-hand side

tryItOut 269
Compiling threw: SyntaxError: invalid assignment left-hand side

tryItOut 270

tryItOut 271

tryItOut 272
before 104640, after 104640, break 020a9000

tryItOut 273
Compiling threw: SyntaxError: invalid break

tryItOut 274
Compiling threw: SyntaxError: missing ) after condition

tryItOut 275

tryItOut 276
Compiling threw: SyntaxError: label not found

tryItOut 277

tryItOut 278
Running threw: TypeError: __parent__ has no properties

tryItOut 279

tryItOut 280

tryItOut 281

tryItOut 282

tryItOut 283
It's an iterator!
Iterating succeeded, iterCount == 1

tryItOut 284

tryItOut 285
Compiling threw: SyntaxError: invalid break

tryItOut 286

tryItOut 287
Compiling threw: SyntaxError: missing variable name

tryItOut 288

tryItOut 289

tryItOut 290
Compiling threw: SyntaxError: missing ) in parenthetical

tryItOut 291
Compiling threw: SyntaxError: syntax error

tryItOut 292
Compiling threw: SyntaxError: missing } after property list

tryItOut 293
Compiling threw: SyntaxError: missing ) after condition

tryItOut 294
Compiling threw: SyntaxError: illegal XML character

tryItOut 295
Compiling threw: SyntaxError: invalid destructuring assignment operator

tryItOut 296
Running threw: TypeError: (__iterator__ = <x><y/></x>).yoyo is not a function

tryItOut 297

tryItOut 298

tryItOut 299

tryItOut 300
Running threw: ReferenceError: window is not defined

tryItOut 301
Running threw: ReferenceError: prototype is not defined

tryItOut 302
Running threw: TypeError: null has no properties

tryItOut 303
Compiling threw: SyntaxError: invalid assignment left-hand side

tryItOut 304

tryItOut 305
Compiling threw: SyntaxError: syntax error

tryItOut 306
Running threw: function map() {
    [native code]
}

tryItOut 307
Compiling threw: SyntaxError: invalid continue

tryItOut 308
Running threw: ReferenceError: prototype is not defined

tryItOut 309

tryItOut 310
Compiling threw: SyntaxError: missing ] after element list

tryItOut 311

tryItOut 312
Compiling threw: SyntaxError: missing ; before statement

tryItOut 313

tryItOut 314
Running threw: TypeError: constructor is not a function

tryItOut 315
Compiling threw: SyntaxError: missing ) after argument list

tryItOut 316

tryItOut 317
Compiling threw: SyntaxError: missing ] after element list

tryItOut 318

tryItOut 319
Compiling threw: SyntaxError: missing variable name

tryItOut 320
Compiling threw: SyntaxError: invalid assignment left-hand side

tryItOut 321
Compiling threw: SyntaxError: missing ; before statement

tryItOut 322

tryItOut 323

tryItOut 324
Compiling threw: SyntaxError: missing ; before statement

tryItOut 325
Compiling threw: SyntaxError: syntax error

tryItOut 326

tryItOut 327
Running threw: NaN

tryItOut 328
Running threw: [object Object]

tryItOut 329

tryItOut 330
Compiling threw: SyntaxError: missing ; before statement

tryItOut 331

tryItOut 332

tryItOut 333

tryItOut 334
Compiling threw: SyntaxError: invalid for/in left-hand side

tryItOut 335

tryItOut 336

tryItOut 337

tryItOut 338

tryItOut 339
Compiling threw: SyntaxError: missing = in destructuring declaration

tryItOut 340

tryItOut 341

tryItOut 342
Compiling threw: SyntaxError: missing ; before statement

tryItOut 343
Compiling threw: SyntaxError: invalid assignment left-hand side

tryItOut 344
Compiling threw: SyntaxError: syntax error

tryItOut 345
Compiling threw: SyntaxError: missing ( before let head

tryItOut 346

tryItOut 347

tryItOut 348
Compiling threw: SyntaxError: invalid assignment left-hand side

tryItOut 349
Compiling threw: SyntaxError: label not found

tryItOut 350
Compiling threw: SyntaxError: invalid for/in left-hand side

tryItOut 351

tryItOut 352

tryItOut 353

tryItOut 354
Compiling threw: SyntaxError: missing ; before statement

tryItOut 355
Running threw: ReferenceError: window is not defined

tryItOut 356
Compiling threw: SyntaxError: label not found

tryItOut 357

tryItOut 358
Compiling threw: SyntaxError: syntax error

tryItOut 359

tryItOut 360

tryItOut 361
Running threw: ReferenceError: window is not defined

tryItOut 362
Compiling threw: SyntaxError: missing ) in parenthetical

tryItOut 363
Running threw: ReferenceError: z1 is not defined

tryItOut 364

tryItOut 365
Compiling threw: TypeError: redeclaration of const prototype

tryItOut 366
Compiling threw: SyntaxError: missing { before function body

tryItOut 367
Compiling threw: SyntaxError: invalid for/in left-hand side

tryItOut 368

tryItOut 369

tryItOut 370
Compiling threw: SyntaxError: missing ) in parenthetical

tryItOut 371

tryItOut 372
Compiling threw: SyntaxError: invalid assignment left-hand side

tryItOut 373

tryItOut 374

tryItOut 375
Compiling threw: SyntaxError: missing ] after element list

tryItOut 376
before 139520, after 139520, break 020f7000

tryItOut 377

tryItOut 378
Compiling threw: SyntaxError: invalid assignment left-hand side

tryItOut 379
Compiling threw: TypeError: redeclaration of variable __iterator__

tryItOut 380

tryItOut 381
Compiling threw: SyntaxError: missing variable name

tryItOut 382
Compiling threw: SyntaxError: label not found

tryItOut 383
Compiling threw: TypeError: redeclaration of var prototype

tryItOut 384
Compiling threw: SyntaxError: missing ; before statement

tryItOut 385

tryItOut 386
Compiling threw: SyntaxError: missing variable name

tryItOut 387
Compiling threw: SyntaxError: missing { before function body

tryItOut 388

tryItOut 389

tryItOut 390
Compiling threw: SyntaxError: invalid for/in left-hand side

tryItOut 391
Compiling threw: SyntaxError: invalid increment operand

tryItOut 392

tryItOut 393

tryItOut 394

tryItOut 395
Compiling threw: TypeError: redeclaration of const __parent__

tryItOut 396
Running threw: ReferenceError: window is not defined

tryItOut 397
before 139520, after 139520, break 020f7000

tryItOut 398
Compiling threw: SyntaxError: invalid for/in left-hand side

tryItOut 399

tryItOut 400
It's an iterator!
Iterating succeeded, iterCount == 1

tryItOut 401

tryItOut 402
Compiling threw: SyntaxError: invalid assignment left-hand side

tryItOut 403

tryItOut 404
Compiling threw: SyntaxError: invalid assignment left-hand side

tryItOut 405

tryItOut 406

tryItOut 407
Compiling threw: SyntaxError: missing ; after for-loop initializer

tryItOut 408
Compiling threw: SyntaxError: missing ; after for-loop initializer

tryItOut 409

tryItOut 410

tryItOut 411

tryItOut 412
Compiling threw: SyntaxError: missing { before function body

tryItOut 413

tryItOut 414

tryItOut 415
Compiling threw: SyntaxError: missing name after . operator

tryItOut 416
Compiling threw: SyntaxError: missing ; before statement

tryItOut 417
Compiling threw: SyntaxError: missing ; before statement

tryItOut 418
Running threw: TypeError: [[1]].yoyo is not a function

tryItOut 419
Compiling threw: SyntaxError: invalid assignment left-hand side

tryItOut 420
Compiling threw: SyntaxError: invalid assignment left-hand side

tryItOut 421

tryItOut 422

tryItOut 423
Compiling threw: SyntaxError: missing ; before statement

tryItOut 424
Compiling threw: TypeError: redeclaration of const __count__

tryItOut 425
Running threw: ReferenceError: window is not defined

tryItOut 426

tryItOut 427
Running threw: ReferenceError: z1 is not defined

tryItOut 428
Compiling threw: SyntaxError: invalid destructuring assignment operator

tryItOut 429

tryItOut 430
Compiling threw: SyntaxError: label not found

tryItOut 431
Compiling threw: SyntaxError: label not found

tryItOut 432

tryItOut 433

tryItOut 434
Compiling threw: SyntaxError: invalid for/in left-hand side

tryItOut 435
Compiling threw: SyntaxError: label not found

tryItOut 436
Compiling threw: SyntaxError: invalid for/in left-hand side

tryItOut 437
Compiling threw: SyntaxError: missing ) in parenthetical

tryItOut 438

tryItOut 439
Compiling threw: SyntaxError: missing ) in parenthetical

tryItOut 440

tryItOut 441
Compiling threw: SyntaxError: syntax error

tryItOut 442
Compiling threw: SyntaxError: invalid for/in left-hand side

tryItOut 443
Compiling threw: SyntaxError: invalid for/in left-hand side

tryItOut 444
Compiling threw: SyntaxError: label not found

tryItOut 445

tryItOut 446

tryItOut 447
Compiling threw: SyntaxError: syntax error

tryItOut 448
Running threw: TypeError: <x><y/></x>.yoyo is not a function

tryItOut 449

tryItOut 450

tryItOut 451
Compiling threw: SyntaxError: syntax error

tryItOut 452
Running threw: ReferenceError: prototype is not defined

tryItOut 453

tryItOut 454

tryItOut 455
Compiling threw: TypeError: redeclaration of var __count__

tryItOut 456
Compiling threw: SyntaxError: invalid for/in left-hand side

tryItOut 457
Compiling threw: SyntaxError: missing = in destructuring declaration

tryItOut 458
Running threw: undefined

tryItOut 459

tryItOut 460

tryItOut 461
before 139520, after 139520, break 020f7000

tryItOut 462

tryItOut 463

tryItOut 464

tryItOut 465
Running threw: [object Object]

tryItOut 466
Running threw: 109

tryItOut 467

tryItOut 468
Compiling threw: SyntaxError: missing ) after condition

tryItOut 469
Compiling threw: SyntaxError: missing variable name

tryItOut 470
Compiling threw: SyntaxError: syntax error

tryItOut 471
Compiling threw: SyntaxError: missing ) in parenthetical

tryItOut 472
Compiling threw: SyntaxError: missing ; before statement

tryItOut 473

tryItOut 474
Compiling threw: SyntaxError: label not found

tryItOut 475

tryItOut 476

tryItOut 477

tryItOut 478
Compiling threw: SyntaxError: missing ; before statement

tryItOut 479
Compiling threw: SyntaxError: label not found

tryItOut 480

tryItOut 481

tryItOut 482
Compiling threw: SyntaxError: missing ) in parenthetical

tryItOut 483
Compiling threw: SyntaxError: label not found

tryItOut 484

tryItOut 485

tryItOut 486

tryItOut 487
Compiling threw: SyntaxError: missing ; before statement

tryItOut 488

tryItOut 489

tryItOut 490
Compiling threw: SyntaxError: invalid for/in left-hand side

tryItOut 491

tryItOut 492
Compiling threw: SyntaxError: invalid for/in left-hand side

tryItOut 493
Running threw: ReferenceError: z2 is not defined

tryItOut 494
Compiling threw: SyntaxError: invalid for/in left-hand side

tryItOut 495
Compiling threw: SyntaxError: missing variable name

tryItOut 496
before 139520, after 139520, break 020f7000

tryItOut 497
Compiling threw: SyntaxError: label not found

tryItOut 498
Compiling threw: SyntaxError: invalid for/in left-hand side

tryItOut 499
Compiling threw: SyntaxError: invalid break

tryItOut 500
Compiling threw: SyntaxError: missing : after property id

tryItOut 501
Compiling threw: SyntaxError: missing variable name

tryItOut 502
before 139520, after 139520, break 020f7000

tryItOut 503
Compiling threw: SyntaxError: unterminated string literal

tryItOut 504
Compiling threw: SyntaxError: duplicate label

tryItOut 505
Compiling threw: SyntaxError: syntax error

tryItOut 506

tryItOut 507
Compiling threw: SyntaxError: missing { before function body

tryItOut 508
Compiling threw: SyntaxError: missing ; before statement

tryItOut 509
Compiling threw: SyntaxError: syntax error

tryItOut 510
before 139520, after 139520, break 020f7000

tryItOut 511
Compiling threw: SyntaxError: label not found

tryItOut 512
Running threw: TypeError: this.zzz has no properties

tryItOut 513
Running threw: ReferenceError: window is not defined

tryItOut 514
before 139520, after 139520, break 020f7000

tryItOut 515
Compiling threw: SyntaxError: invalid continue

tryItOut 516
Compiling threw: SyntaxError: invalid assignment left-hand side

tryItOut 517

tryItOut 518
Running threw: ReferenceError: prototype is not defined

tryItOut 519

tryItOut 520

tryItOut 521

tryItOut 522
Compiling threw: SyntaxError: syntax error

tryItOut 523
before 139520, after 139520, break 020f7000

tryItOut 524
Compiling threw: SyntaxError: missing ) after condition

tryItOut 525

tryItOut 526
Compiling threw: SyntaxError: invalid for/in left-hand side

tryItOut 527

tryItOut 528
Compiling threw: SyntaxError: syntax error

tryItOut 529

tryItOut 530
Compiling threw: SyntaxError: label not found

tryItOut 531
Running threw: ReferenceError: prototype is not defined

tryItOut 532

tryItOut 533

tryItOut 534
Compiling threw: SyntaxError: illegal XML character

tryItOut 535
Compiling threw: SyntaxError: label not found

tryItOut 536
Compiling threw: SyntaxError: missing = in destructuring declaration

tryItOut 537
Compiling threw: SyntaxError: invalid continue

tryItOut 538
Compiling threw: SyntaxError: invalid break

tryItOut 539

tryItOut 540

tryItOut 541
Compiling threw: SyntaxError: missing ) in parenthetical

tryItOut 542
Running threw: ReferenceError: window is not defined

tryItOut 543
Running threw: ReferenceError: prototype is not defined

tryItOut 544

tryItOut 545

tryItOut 546

tryItOut 547

tryItOut 548

tryItOut 549
Compiling threw: TypeError: redeclaration of variable __iterator__

tryItOut 550

tryItOut 551
Compiling threw: SyntaxError: label not found

tryItOut 552
Compiling threw: SyntaxError: label not found

tryItOut 553
Compiling threw: SyntaxError: syntax error

tryItOut 554
Compiling threw: SyntaxError: syntax error

tryItOut 555
Compiling threw: SyntaxError: syntax error

tryItOut 556

tryItOut 557
Compiling threw: SyntaxError: invalid for/in left-hand side

tryItOut 558
Compiling threw: SyntaxError: missing ) after condition

tryItOut 559

tryItOut 560
It's an iterator!
Iterating succeeded, iterCount == 1

tryItOut 561
Compiling threw: SyntaxError: syntax error

tryItOut 562

tryItOut 563
Running threw: Error: invalid sharp variable use #1#

tryItOut 564
Compiling threw: SyntaxError: missing ; after for-loop initializer

tryItOut 565

tryItOut 566
Compiling threw: SyntaxError: missing ; before statement

tryItOut 567
Compiling threw: SyntaxError: missing ) after let head

tryItOut 568

tryItOut 569
Compiling threw: SyntaxError: missing variable name

tryItOut 570
Running threw: Error: invalid sharp variable use #1#

tryItOut 571

tryItOut 572
Running threw: ReferenceError: window is not defined

tryItOut 573
Compiling threw: SyntaxError: missing variable name

tryItOut 574

tryItOut 575
Compiling threw: SyntaxError: invalid assignment left-hand side

tryItOut 576

tryItOut 577

tryItOut 578
Compiling threw: SyntaxError: invalid continue

tryItOut 579
Compiling threw: SyntaxError: syntax error

tryItOut 580
Compiling threw: TypeError: redeclaration of variable __proto__

tryItOut 581
Compiling threw: SyntaxError: label not found

tryItOut 582
Compiling threw: SyntaxError: invalid assignment left-hand side

tryItOut 583
Compiling threw: SyntaxError: syntax error

tryItOut 584
Compiling threw: TypeError: redeclaration of const constructor

tryItOut 585
Running threw: TypeError: undefined has no properties

tryItOut 586

tryItOut 587

tryItOut 588

tryItOut 589
Compiling threw: SyntaxError: missing name in export statement

tryItOut 590

tryItOut 591
Running threw: null

tryItOut 592

tryItOut 593

tryItOut 594
Compiling threw: SyntaxError: label not found

tryItOut 595
Compiling threw: SyntaxError: missing ) after condition

tryItOut 596

tryItOut 597

tryItOut 598
Compiling threw: SyntaxError: invalid assignment left-hand side

tryItOut 599

tryItOut 600
Compiling threw: SyntaxError: invalid assignment left-hand side

tryItOut 601
Running threw: ReferenceError: window is not defined

tryItOut 602
Compiling threw: SyntaxError: label not found

tryItOut 603
Compiling threw: SyntaxError: invalid break

tryItOut 604
Compiling threw: SyntaxError: missing ) after condition

tryItOut 605

tryItOut 606
Compiling threw: SyntaxError: label not found

tryItOut 607
Compiling threw: SyntaxError: label not found

tryItOut 608
Compiling threw: SyntaxError: missing name in export statement

tryItOut 609
Compiling threw: SyntaxError: label not found

tryItOut 610

tryItOut 611

tryItOut 612
Compiling threw: SyntaxError: invalid break

tryItOut 613

tryItOut 614
Running threw: ReferenceError: prototype is not defined

tryItOut 615

tryItOut 616

tryItOut 617
Compiling threw: SyntaxError: syntax error

tryItOut 618

tryItOut 619
Compiling threw: SyntaxError: missing variable name

tryItOut 620

tryItOut 621
Compiling threw: SyntaxError: illegal XML character

tryItOut 622
Compiling threw: SyntaxError: missing { before function body

tryItOut 623
Compiling threw: SyntaxError: label not found

tryItOut 624
Compiling threw: SyntaxError: invalid decrement operand

tryItOut 625
Compiling threw: SyntaxError: missing ; before statement

tryItOut 626

tryItOut 627

tryItOut 628

tryItOut 629
Compiling threw: TypeError: redeclaration of variable prototype

tryItOut 630

tryItOut 631
Compiling threw: SyntaxError: illegal XML character

tryItOut 632

tryItOut 633

tryItOut 634
Compiling threw: SyntaxError: missing ; before statement

tryItOut 635
Running threw: ReferenceError: window is not defined

tryItOut 636
Compiling threw: SyntaxError: missing variable name

tryItOut 637

tryItOut 638

tryItOut 639
Running threw: ReferenceError: prototype is not defined

tryItOut 640
Compiling threw: SyntaxError: invalid assignment left-hand side

tryItOut 641
Compiling threw: SyntaxError: invalid for/in left-hand side

tryItOut 642
Running threw: ReferenceError: window is not defined

tryItOut 643
Compiling threw: SyntaxError: missing ; before statement

tryItOut 644

tryItOut 645
Compiling threw: TypeError: redeclaration of const prototype

tryItOut 646
Compiling threw: SyntaxError: syntax error

tryItOut 647
Compiling threw: SyntaxError: missing ) after for-loop control

tryItOut 648
Compiling threw: SyntaxError: missing variable name

tryItOut 649
Compiling threw: SyntaxError: invalid assignment left-hand side

tryItOut 650

tryItOut 651
Compiling threw: SyntaxError: missing ; after for-loop condition

tryItOut 652

tryItOut 653

tryItOut 654

tryItOut 655
Compiling threw: SyntaxError: duplicate label

tryItOut 656
Compiling threw: SyntaxError: label not found

tryItOut 657
Compiling threw: SyntaxError: missing ) after condition

tryItOut 658

tryItOut 659
Compiling threw: SyntaxError: invalid continue

tryItOut 660

tryItOut 661
Compiling threw: SyntaxError: missing variable name

tryItOut 662

tryItOut 663

tryItOut 664

tryItOut 665

tryItOut 666
Compiling threw: SyntaxError: missing = in destructuring declaration

tryItOut 667
Compiling threw: SyntaxError: invalid break

tryItOut 668

tryItOut 669
Compiling threw: SyntaxError: syntax error

tryItOut 670
Compiling threw: SyntaxError: missing variable name

tryItOut 671

tryItOut 672

tryItOut 673
Compiling threw: SyntaxError: invalid for/in left-hand side

tryItOut 674
Running threw: ReferenceError: z1 is not defined

tryItOut 675
Compiling threw: SyntaxError: missing = in destructuring declaration

tryItOut 676

tryItOut 677
Compiling threw: SyntaxError: invalid assignment left-hand side

tryItOut 678

tryItOut 679
Running threw: ReferenceError: window is not defined

tryItOut 680
Compiling threw: SyntaxError: missing ; before statement

tryItOut 681
Compiling threw: SyntaxError: invalid for/in left-hand side

tryItOut 682

tryItOut 683
Compiling threw: SyntaxError: missing variable name

tryItOut 684

tryItOut 685
Compiling threw: SyntaxError: missing ; after for-loop initializer

tryItOut 686

tryItOut 687
Running threw: TypeError: #1={a:#1#} is not a function

tryItOut 688
Compiling threw: SyntaxError: syntax error

tryItOut 689
Compiling threw: SyntaxError: label not found

tryItOut 690

tryItOut 691
Compiling threw: SyntaxError: missing ; before statement

tryItOut 692
Compiling threw: SyntaxError: label not found

tryItOut 693
Running threw: 0

tryItOut 694

tryItOut 695

tryItOut 696

tryItOut 697

tryItOut 698

tryItOut 699
Compiling threw: SyntaxError: invalid break

tryItOut 700

tryItOut 701
Running threw: ReferenceError: z2 is not defined

tryItOut 702
Running threw: TypeError: null has no properties

tryItOut 703
Compiling threw: SyntaxError: invalid decrement operand

tryItOut 704
Compiling threw: SyntaxError: invalid decrement operand

tryItOut 705
Compiling threw: SyntaxError: invalid for/in left-hand side

tryItOut 706
Compiling threw: SyntaxError: syntax error

tryItOut 707
Compiling threw: SyntaxError: missing variable name

tryItOut 708
Compiling threw: SyntaxError: missing { before function body

tryItOut 709

tryItOut 710
Compiling threw: SyntaxError: invalid assignment left-hand side

tryItOut 711

tryItOut 712

tryItOut 713
Compiling threw: SyntaxError: missing { before function body

tryItOut 714

tryItOut 715
It's an iterator!
Iterating threw!
Iterating threw: TypeError: __noSuchMethod__ has no properties

tryItOut 716
Compiling threw: SyntaxError: unterminated regular expression literal

tryItOut 717
Running threw: ReferenceError: window is not defined

tryItOut 718
Compiling threw: SyntaxError: syntax error

tryItOut 719
Compiling threw: SyntaxError: label not found

tryItOut 720
Compiling threw: SyntaxError: label not found

tryItOut 721
Compiling threw: SyntaxError: missing ; before statement

tryItOut 722

tryItOut 723
Compiling threw: SyntaxError: invalid for/in left-hand side

tryItOut 724

tryItOut 725
Compiling threw: SyntaxError: missing ) after condition

tryItOut 726

tryItOut 727

tryItOut 728
Running threw: ReferenceError: window is not defined

tryItOut 729

tryItOut 730

tryItOut 731

tryItOut 732
Compiling threw: SyntaxError: invalid continue

tryItOut 733
Compiling threw: SyntaxError: invalid assignment left-hand side

tryItOut 734
Compiling threw: SyntaxError: label not found

tryItOut 735
Compiling threw: SyntaxError: invalid for/in left-hand side

tryItOut 736

tryItOut 737
Compiling threw: SyntaxError: invalid assignment left-hand side

tryItOut 738
Compiling threw: SyntaxError: invalid for/in left-hand side

tryItOut 739
Compiling threw: SyntaxError: syntax error

tryItOut 740

tryItOut 741

tryItOut 742

tryItOut 743

tryItOut 744

tryItOut 745
Running threw: [object Object]

tryItOut 746

tryItOut 747
Compiling threw: SyntaxError: missing ; after for-loop initializer

tryItOut 748
Compiling threw: SyntaxError: syntax error

tryItOut 749

tryItOut 750
Running threw: ReferenceError: window is not defined

tryItOut 751
Compiling threw: SyntaxError: missing ; before statement

tryItOut 752

tryItOut 753

tryItOut 754

tryItOut 755
Compiling threw: SyntaxError: missing ; before statement

tryItOut 756

tryItOut 757
Running threw: TypeError: __noSuchMethod__ has no properties

tryItOut 758

tryItOut 759
Compiling threw: SyntaxError: invalid continue

tryItOut 760
Compiling threw: SyntaxError: label not found

tryItOut 761
Compiling threw: SyntaxError: invalid for/in left-hand side

tryItOut 762
Compiling threw: SyntaxError: missing name after . operator

tryItOut 763
Compiling threw: SyntaxError: syntax error

tryItOut 764

tryItOut 765
Compiling threw: SyntaxError: invalid assignment left-hand side

tryItOut 766
Compiling threw: SyntaxError: syntax error

tryItOut 767
It's an iterator!
Iterating succeeded, iterCount == 1

tryItOut 768
Compiling threw: SyntaxError: syntax error

tryItOut 769
Compiling threw: TypeError: redeclaration of const __proto__

tryItOut 770

tryItOut 771

tryItOut 772
Compiling threw: SyntaxError: missing ] after element list

tryItOut 773
Compiling threw: SyntaxError: invalid assignment left-hand side

tryItOut 774

tryItOut 775

tryItOut 776
Compiling threw: SyntaxError: syntax error

tryItOut 777

tryItOut 778
Compiling threw: SyntaxError: invalid for/in left-hand side

tryItOut 779
Compiling threw: SyntaxError: invalid assignment left-hand side

tryItOut 780
Compiling threw: SyntaxError: invalid break

tryItOut 781

tryItOut 782

tryItOut 783

tryItOut 784

tryItOut 785
Compiling threw: SyntaxError: invalid for/in left-hand side

tryItOut 786
Compiling threw: SyntaxError: missing ; before statement

tryItOut 787

tryItOut 788

tryItOut 789

tryItOut 790

tryItOut 791
Compiling threw: SyntaxError: missing ; before statement

tryItOut 792

tryItOut 793
Compiling threw: SyntaxError: label not found

tryItOut 794

tryItOut 795
Compiling threw: SyntaxError: missing while after do-loop body

tryItOut 796

tryItOut 797
before 226720, after 226720, break 02203000

tryItOut 798

tryItOut 799

tryItOut 800
Compiling threw: SyntaxError: invalid default XML namespace

tryItOut 801

tryItOut 802
Compiling threw: SyntaxError: label not found

tryItOut 803
Compiling threw: SyntaxError: invalid continue

tryItOut 804

tryItOut 805

tryItOut 806

tryItOut 807
Compiling threw: SyntaxError: syntax error

tryItOut 808

tryItOut 809
Compiling threw: SyntaxError: label not found

tryItOut 810
Compiling threw: TypeError: redeclaration of variable __iterator__

tryItOut 811
Compiling threw: SyntaxError: syntax error

tryItOut 812
Compiling threw: SyntaxError: syntax error

tryItOut 813
Compiling threw: SyntaxError: missing variable name

tryItOut 814
Compiling threw: SyntaxError: missing ; before statement

tryItOut 815
Compiling threw: SyntaxError: invalid assignment left-hand side

tryItOut 816

tryItOut 817
Compiling threw: SyntaxError: missing ; before statement

tryItOut 818

tryItOut 819
Compiling threw: SyntaxError: missing variable name

tryItOut 820

tryItOut 821
Compiling threw: SyntaxError: syntax error

tryItOut 822
Compiling threw: SyntaxError: syntax error

tryItOut 823
Compiling threw: SyntaxError: missing ; before statement

tryItOut 824

tryItOut 825
Compiling threw: SyntaxError: missing { before function body

tryItOut 826

tryItOut 827

tryItOut 828

tryItOut 829
before 226720, after 226720, break 02203000

tryItOut 830
Compiling threw: SyntaxError: missing ; after for-loop initializer

tryItOut 831
Compiling threw: SyntaxError: illegal XML character

tryItOut 832
Running threw: ReferenceError: window is not defined

tryItOut 833
Compiling threw: SyntaxError: missing ; before statement

tryItOut 834
It's an iterator!
Iterating threw!
Iterating threw: TypeError: <x><y/></x>.__defineSetter__ is not a function

tryItOut 835
Compiling threw: SyntaxError: missing ) in parenthetical

tryItOut 836
Compiling threw: SyntaxError: invalid destructuring assignment operator

tryItOut 837
Compiling threw: SyntaxError: invalid assignment left-hand side

tryItOut 838
Running threw: TypeError: __parent__ has no properties

tryItOut 839
Compiling threw: SyntaxError: invalid assignment left-hand side

tryItOut 840

tryItOut 841
Compiling threw: SyntaxError: invalid assignment left-hand side

tryItOut 842

tryItOut 843
Compiling threw: SyntaxError: syntax error

tryItOut 844
Compiling threw: SyntaxError: label not found

tryItOut 845
Compiling threw: SyntaxError: invalid destructuring assignment operator

tryItOut 846
Running threw: ReferenceError: z1 is not defined

tryItOut 847

tryItOut 848
Compiling threw: TypeError: redeclaration of variable __count__

tryItOut 849
before 226720, after 226720, break 02203000

tryItOut 850

tryItOut 851

tryItOut 852

tryItOut 853

tryItOut 854

tryItOut 855
Compiling threw: SyntaxError: missing ) in parenthetical

tryItOut 856
Compiling threw: SyntaxError: syntax error

tryItOut 857
Compiling threw: SyntaxError: missing variable name

tryItOut 858
Compiling threw: SyntaxError: invalid for/in left-hand side

tryItOut 859
Running threw: TypeError: <x>
  <y/>
</x> is not a function

tryItOut 860
before 226720, after 226720, break 02203000

tryItOut 861
Compiling threw: SyntaxError: invalid assignment left-hand side

tryItOut 862
Compiling threw: SyntaxError: invalid for/in left-hand side

tryItOut 863

tryItOut 864

tryItOut 865

tryItOut 866

tryItOut 867

tryItOut 868
Compiling threw: SyntaxError: missing variable name

tryItOut 869

tryItOut 870

tryItOut 871
Compiling threw: SyntaxError: syntax error

tryItOut 872

tryItOut 873

tryItOut 874
Compiling threw: SyntaxError: missing { before function body

tryItOut 875
Compiling threw: SyntaxError: missing : after property id

tryItOut 876
Compiling threw: SyntaxError: missing { before function body

tryItOut 877

tryItOut 878
Compiling threw: SyntaxError: missing ; before statement

tryItOut 879

tryItOut 880
Compiling threw: SyntaxError: label not found

tryItOut 881

tryItOut 882
Compiling threw: SyntaxError: missing = in destructuring declaration

tryItOut 883
Compiling threw: SyntaxError: missing ; after for-loop initializer

tryItOut 884
Compiling threw: SyntaxError: syntax error

tryItOut 885

tryItOut 886
Compiling threw: SyntaxError: missing { before function body

tryItOut 887
Compiling threw: SyntaxError: missing ; before statement

tryItOut 888

tryItOut 889
Compiling threw: SyntaxError: label not found

tryItOut 890

tryItOut 891
Compiling threw: SyntaxError: invalid assignment left-hand side

tryItOut 892
Compiling threw: TypeError: redeclaration of variable __noSuchMethod__

tryItOut 893
Compiling threw: SyntaxError: invalid for/in left-hand side

tryItOut 894
Compiling threw: SyntaxError: missing { before function body

tryItOut 895

tryItOut 896
Compiling threw: SyntaxError: label not found

tryItOut 897
Compiling threw: SyntaxError: missing ) after for-loop control

tryItOut 898
Compiling threw: SyntaxError: invalid for/in left-hand side

tryItOut 899

tryItOut 900
Running threw: ReferenceError: Exception is not defined

tryItOut 901
Compiling threw: SyntaxError: missing ; before statement

tryItOut 902
Compiling threw: SyntaxError: invalid for/in left-hand side

tryItOut 903
Compiling threw: SyntaxError: invalid continue

tryItOut 904
Compiling threw: SyntaxError: syntax error

tryItOut 905
Running threw: ReferenceError: window is not defined

tryItOut 906
Compiling threw: SyntaxError: syntax error

tryItOut 907
Compiling threw: SyntaxError: invalid for/in left-hand side

tryItOut 908

tryItOut 909
Compiling threw: SyntaxError: syntax error

tryItOut 910
Running threw: 0

tryItOut 911

tryItOut 912

tryItOut 913
Running threw: ReferenceError: window is not defined

tryItOut 914
Compiling threw: SyntaxError: syntax error

tryItOut 915

tryItOut 916

tryItOut 917

tryItOut 918
Compiling threw: SyntaxError: missing ) after condition

tryItOut 919

tryItOut 920

tryItOut 921

tryItOut 922

tryItOut 923

tryItOut 924

tryItOut 925
Compiling threw: TypeError: generator function anonymous returns a value

tryItOut 926
Running threw: ReferenceError: __parent__ is not defined

tryItOut 927
Compiling threw: SyntaxError: invalid decrement operand

tryItOut 928

tryItOut 929
Compiling threw: SyntaxError: syntax error

tryItOut 930
Compiling threw: TypeError: redeclaration of var __proto__

tryItOut 931
Compiling threw: SyntaxError: missing variable name

tryItOut 932
Running threw: ReferenceError: window is not defined

tryItOut 933
It's an iterator!
Iterating threw!
Iterating threw: TypeError: can't convert this to number

tryItOut 934
Compiling threw: SyntaxError: label not found

tryItOut 935

tryItOut 936
Compiling threw: SyntaxError: missing ; before statement

tryItOut 937

tryItOut 938

tryItOut 939
Compiling threw: SyntaxError: missing ; before statement

tryItOut 940

tryItOut 941
Compiling threw: SyntaxError: syntax error

tryItOut 942
Compiling threw: SyntaxError: invalid for/in left-hand side

tryItOut 943

tryItOut 944

tryItOut 945
Compiling threw: SyntaxError: invalid assignment left-hand side

tryItOut 946
Compiling threw: SyntaxError: syntax error

tryItOut 947

tryItOut 948
Compiling threw: SyntaxError: missing variable name

tryItOut 949

tryItOut 950

tryItOut 951
Compiling threw: SyntaxError: invalid increment operand

tryItOut 952

tryItOut 953

tryItOut 954
Compiling threw: SyntaxError: missing { before function body

tryItOut 955
before 226720, after 226720, break 02214000

tryItOut 956
Compiling threw: SyntaxError: invalid assignment left-hand side

tryItOut 957
before 226720, after 226720, break 02207000

tryItOut 958
Compiling threw: SyntaxError: missing ; before statement

tryItOut 959
Compiling threw: SyntaxError: invalid continue

tryItOut 960

tryItOut 961

tryItOut 962
Compiling threw: SyntaxError: missing variable name

tryItOut 963
Running threw: TypeError: redeclaration of const __parent__

tryItOut 964
Compiling threw: SyntaxError: invalid for/in left-hand side

tryItOut 965
Compiling threw: SyntaxError: invalid destructuring assignment operator

tryItOut 966

tryItOut 967

tryItOut 968
Compiling threw: SyntaxError: invalid for/in left-hand side

tryItOut 969
Compiling threw: SyntaxError: invalid for/in left-hand side

tryItOut 970

tryItOut 971
Compiling threw: SyntaxError: invalid for/in left-hand side

tryItOut 972

tryItOut 973
Compiling threw: SyntaxError: label not found

tryItOut 974

tryItOut 975
Running threw: -1

tryItOut 976
Running threw: undefined

tryItOut 977

tryItOut 978
Compiling threw: SyntaxError: invalid assignment left-hand side

tryItOut 979
Compiling threw: SyntaxError: syntax error

tryItOut 980

tryItOut 981
Compiling threw: SyntaxError: missing variable name

tryItOut 982
Compiling threw: SyntaxError: missing { before function body

tryItOut 983
Compiling threw: SyntaxError: missing ; before statement

tryItOut 984

tryItOut 985

tryItOut 986

tryItOut 987
Running threw: ReferenceError: __proto__ is not defined

tryItOut 988

tryItOut 989
Compiling threw: SyntaxError: missing ; before statement

tryItOut 990

tryItOut 991
Compiling threw: SyntaxError: invalid assignment left-hand side

tryItOut 992
Compiling threw: SyntaxError: missing ; before statement

tryItOut 993

tryItOut 994
Compiling threw: SyntaxError: missing variable name

tryItOut 995
Compiling threw: SyntaxError: missing variable name

tryItOut 996
Compiling threw: SyntaxError: label not found

tryItOut 997
Running threw: -1

tryItOut 998

tryItOut 999

tryItOut 1000

ALL OK

Script done on Sat 04 May 2013 06:03:56 AM PDT
