Script started on Sat 04 May 2013 06:04:52 AM PDT
***
Targeting SpiderMonkey / Gecko.

tryItOut 1
Compiling threw: SyntaxError: invalid assignment left-hand side

tryItOut 2

tryItOut 3
It's an iterator!
Iterating threw!
Iterating threw: 10000

tryItOut 4
Compiling threw: SyntaxError: syntax error

tryItOut 5

tryItOut 6
Compiling threw: SyntaxError: missing { before function body

tryItOut 7
Compiling threw: SyntaxError: illegal XML character

tryItOut 8

tryItOut 9

tryItOut 10
Compiling threw: SyntaxError: missing variable name

tryItOut 11
Running threw: TypeError: this.zzz has no properties

tryItOut 12

tryItOut 13
Compiling threw: SyntaxError: missing ) in parenthetical

tryItOut 14

tryItOut 15
Compiling threw: SyntaxError: missing ) in parenthetical

tryItOut 16

tryItOut 17
Compiling threw: SyntaxError: syntax error

tryItOut 18
Running threw: ReferenceError: prop is not defined

tryItOut 19

tryItOut 20

tryItOut 21
Running threw: ReferenceError: reference to undefined XML name @foo

tryItOut 22
Compiling threw: SyntaxError: missing ) after argument list

tryItOut 23
Compiling threw: TypeError: generator function anonymous returns a value

tryItOut 24

tryItOut 25
Running threw: ReferenceError: window is not defined

tryItOut 26
Compiling threw: SyntaxError: syntax error

tryItOut 27

tryItOut 28

tryItOut 29

tryItOut 30
Compiling threw: SyntaxError: missing ; before statement

tryItOut 31
Compiling threw: SyntaxError: invalid assignment left-hand side

tryItOut 32
Running threw: ReferenceError: __noSuchMethod__ is not defined

tryItOut 33

tryItOut 34

tryItOut 35
It's an iterator!
Iterating succeeded, iterCount == 1

tryItOut 36
Compiling threw: SyntaxError: missing variable name

tryItOut 37

tryItOut 38

tryItOut 39
Compiling threw: TypeError: generator function anonymous returns a value

tryItOut 40
Running threw: ReferenceError: reference to undefined XML name *

tryItOut 41

tryItOut 42
Compiling threw: SyntaxError: missing ; before statement

tryItOut 43
Compiling threw: SyntaxError: invalid assignment left-hand side

tryItOut 44
Compiling threw: SyntaxError: syntax error

tryItOut 45

tryItOut 46
Compiling threw: SyntaxError: invalid assignment left-hand side

tryItOut 47
Compiling threw: SyntaxError: missing ; before statement

tryItOut 48

tryItOut 49
Compiling threw: SyntaxError: syntax error

tryItOut 50
Compiling threw: SyntaxError: syntax error

tryItOut 51

tryItOut 52

tryItOut 53
It's an iterator!
Iterating threw!
Iterating threw: TypeError: arguments[0] has no properties

tryItOut 54

tryItOut 55
Running threw: ReferenceError: __noSuchMethod__ is not defined

tryItOut 56
Compiling threw: SyntaxError: invalid for/in left-hand side

tryItOut 57
Running threw: ReferenceError: reference to undefined XML name @foo

tryItOut 58
It's an iterator!
Iterating threw!
Iterating threw: ReferenceError: window is not defined

tryItOut 59
Compiling threw: SyntaxError: invalid assignment left-hand side

tryItOut 60

tryItOut 61
Compiling threw: SyntaxError: invalid for/in left-hand side

tryItOut 62
Compiling threw: SyntaxError: invalid for/in left-hand side

tryItOut 63
It's an iterator!
Iterating threw!
Iterating threw: ReferenceError: reference to undefined property "__iterator__"

tryItOut 64
Compiling threw: SyntaxError: invalid for/in left-hand side

tryItOut 65

tryItOut 66
Compiling threw: SyntaxError: missing variable name

tryItOut 67

tryItOut 68
Compiling threw: SyntaxError: syntax error

tryItOut 69
Running threw: [object StopIteration]

tryItOut 70
Compiling threw: SyntaxError: missing variable name

tryItOut 71
Running threw: ReferenceError: reference to undefined XML name *::*

tryItOut 72
Compiling threw: SyntaxError: missing ; before statement

tryItOut 73

tryItOut 74
Running threw: TypeError: arguments[0] has no properties

tryItOut 75
Compiling threw: SyntaxError: syntax error

tryItOut 76
Compiling threw: SyntaxError: invalid for/in left-hand side

tryItOut 77
Compiling threw: SyntaxError: missing ; before statement

tryItOut 78

tryItOut 79
Compiling threw: SyntaxError: invalid XML name

tryItOut 80
It's an iterator!
Iterating threw!
Iterating threw: ReferenceError: z2 is not defined

tryItOut 81
Compiling threw: SyntaxError: syntax error

tryItOut 82

tryItOut 83
Compiling threw: SyntaxError: missing ) in parenthetical

tryItOut 84

tryItOut 85
Compiling threw: SyntaxError: syntax error

tryItOut 86
It's an iterator!
Iterating succeeded, iterCount == 1

tryItOut 87
Compiling threw: SyntaxError: missing ; before statement

tryItOut 88
Running threw: ReferenceError: window is not defined

tryItOut 89

tryItOut 90
Running threw: TypeError: this.zzz has no properties

tryItOut 91
It's an iterator!
Iterating succeeded, iterCount == 1

tryItOut 92
It's an iterator!
Iterating threw!
Iterating threw: ReferenceError: window is not defined

tryItOut 93
Running threw: TypeError: this.zzz has no properties

tryItOut 94
Compiling threw: SyntaxError: missing while after do-loop body

tryItOut 95
Compiling threw: SyntaxError: syntax error

tryItOut 96
Compiling threw: SyntaxError: missing = in destructuring declaration

tryItOut 97
Compiling threw: SyntaxError: invalid XML list syntax

tryItOut 98
Compiling threw: SyntaxError: invalid for/in left-hand side

tryItOut 99

tryItOut 100
Compiling threw: SyntaxError: missing ) after condition

tryItOut 101
Running threw: ReferenceError: z1 is not defined

tryItOut 102

tryItOut 103
It's an iterator!
Iterating threw!
Iterating threw: ""

tryItOut 104

tryItOut 105

tryItOut 106
It's an iterator!
Iterating succeeded, iterCount == 1

tryItOut 107
It's an iterator!
Iterating succeeded, iterCount == 1

tryItOut 108
Compiling threw: SyntaxError: invalid XML name

tryItOut 109
Compiling threw: SyntaxError: invalid for/in left-hand side

tryItOut 110

tryItOut 111
Running threw: function (id) {
    return id;
}

tryItOut 112

tryItOut 113

tryItOut 114

tryItOut 115

tryItOut 116
Compiling threw: SyntaxError: invalid assignment left-hand side

tryItOut 117
It's an iterator!
Iterating succeeded, iterCount == 1

tryItOut 118

tryItOut 119
Compiling threw: SyntaxError: invalid assignment left-hand side

tryItOut 120

tryItOut 121
Compiling threw: SyntaxError: missing { before function body

tryItOut 122
It's an iterator!
Iterating threw!
Iterating threw: TypeError: <x>
  <y/>
</x> is not a constructor

tryItOut 123

tryItOut 124
Compiling threw: SyntaxError: syntax error

tryItOut 125
Compiling threw: SyntaxError: missing { before function body

tryItOut 126
Compiling threw: SyntaxError: syntax error

tryItOut 127
Compiling threw: SyntaxError: syntax error

tryItOut 128
Compiling threw: SyntaxError: missing while after do-loop body

tryItOut 129
Compiling threw: SyntaxError: syntax error

tryItOut 130
Compiling threw: SyntaxError: missing variable name

tryItOut 131
Running threw: <x>
  <y/>
</x>

tryItOut 132
Compiling threw: SyntaxError: syntax error

tryItOut 133
Compiling threw: SyntaxError: syntax error

tryItOut 134
Compiling threw: SyntaxError: syntax error

tryItOut 135

tryItOut 136
Running threw: ReferenceError: reference to undefined XML name *::*

tryItOut 137
Compiling threw: SyntaxError: missing : after property id

tryItOut 138
Compiling threw: SyntaxError: syntax error

tryItOut 139
Compiling threw: SyntaxError: missing { before function body

tryItOut 140
Compiling threw: SyntaxError: invalid decrement operand

tryItOut 141
Compiling threw: SyntaxError: invalid assignment left-hand side

tryItOut 142

tryItOut 143

tryItOut 144
Compiling threw: SyntaxError: invalid for/in left-hand side

tryItOut 145
Running threw: 

tryItOut 146

tryItOut 147

tryItOut 148
Compiling threw: SyntaxError: missing variable name

tryItOut 149
Compiling threw: SyntaxError: invalid XML name

tryItOut 150

tryItOut 151

tryItOut 152
Running threw: SyntaxError: invalid getter usage

tryItOut 153
It's an iterator!
Iterating succeeded, iterCount == 1

tryItOut 154
It's an iterator!
Iterating succeeded, iterCount == 1

tryItOut 155
Compiling threw: SyntaxError: invalid property id

tryItOut 156
Compiling threw: SyntaxError: invalid assignment left-hand side

tryItOut 157

tryItOut 158
It's an iterator!
Iterating threw!
Iterating threw: ReferenceError: reference to undefined XML name @foo

tryItOut 159

tryItOut 160
Compiling threw: SyntaxError: invalid for/in left-hand side

tryItOut 161

tryItOut 162

tryItOut 163

tryItOut 164

tryItOut 165

tryItOut 166
It's an iterator!
Iterating succeeded, iterCount == 1

tryItOut 167

tryItOut 168
Compiling threw: SyntaxError: illegal XML character

tryItOut 169
Compiling threw: SyntaxError: invalid XML name

tryItOut 170

tryItOut 171
Running threw: ReferenceError: reference to undefined XML name *::*

tryItOut 172

tryItOut 173
Compiling threw: SyntaxError: invalid assignment left-hand side

tryItOut 174
Compiling threw: SyntaxError: missing formal parameter

tryItOut 175

tryItOut 176
Running threw: undefined

tryItOut 177
Compiling threw: SyntaxError: missing variable name

tryItOut 178

tryItOut 179
Compiling threw: SyntaxError: syntax error

tryItOut 180
Compiling threw: SyntaxError: missing } after property list

tryItOut 181
Compiling threw: SyntaxError: syntax error

tryItOut 182

tryItOut 183
Compiling threw: SyntaxError: missing ) after for-loop control

tryItOut 184

tryItOut 185

tryItOut 186

tryItOut 187

tryItOut 188

tryItOut 189
It's an iterator!
Iterating succeeded, iterCount == 1

tryItOut 190
Compiling threw: SyntaxError: syntax error

tryItOut 191

tryItOut 192

tryItOut 193
Compiling threw: SyntaxError: invalid for/in left-hand side

tryItOut 194

tryItOut 195

tryItOut 196
Running threw: TypeError: arguments[0] has no properties

tryItOut 197

tryItOut 198

tryItOut 199
Running threw: TypeError: this.zzz has no properties

tryItOut 200

tryItOut 201
Compiling threw: SyntaxError: invalid XML name

tryItOut 202

tryItOut 203
Compiling threw: SyntaxError: syntax error

tryItOut 204
It's an iterator!
Iterating succeeded, iterCount == 0

tryItOut 205

tryItOut 206

tryItOut 207
It's an iterator!
Iterating succeeded, iterCount == 4

tryItOut 208
Running threw: ReferenceError: window is not defined

tryItOut 209
Compiling threw: SyntaxError: invalid XML name

tryItOut 210
Compiling threw: SyntaxError: invalid for/in left-hand side

tryItOut 211

tryItOut 212

tryItOut 213
Compiling threw: SyntaxError: missing while after do-loop body

tryItOut 214
Running threw: TypeError: this.zzz has no properties

tryItOut 215
Compiling threw: SyntaxError: missing formal parameter

tryItOut 216
Compiling threw: SyntaxError: missing ) in parenthetical

tryItOut 217
Compiling threw: SyntaxError: invalid for/in left-hand side

tryItOut 218
Compiling threw: SyntaxError: invalid for/in left-hand side

tryItOut 219

tryItOut 220
Compiling threw: SyntaxError: syntax error

tryItOut 221
Running threw: TypeError: this.zzz has no properties

tryItOut 222

tryItOut 223

tryItOut 224
Compiling threw: SyntaxError: invalid XML name

tryItOut 225

tryItOut 226
Compiling threw: SyntaxError: invalid assignment left-hand side

tryItOut 227
Compiling threw: SyntaxError: missing { before function body

tryItOut 228
Compiling threw: SyntaxError: missing variable name

tryItOut 229

tryItOut 230

tryItOut 231

tryItOut 232
Compiling threw: SyntaxError: invalid destructuring assignment operator

tryItOut 233
Compiling threw: SyntaxError: invalid XML name

tryItOut 234

tryItOut 235
Compiling threw: SyntaxError: invalid for/in left-hand side

tryItOut 236
Compiling threw: SyntaxError: missing ) after switch expression

tryItOut 237
Compiling threw: SyntaxError: invalid XML name

tryItOut 238
Compiling threw: SyntaxError: invalid for/in left-hand side

tryItOut 239

tryItOut 240
Compiling threw: TypeError: generator function anonymous returns a value

tryItOut 241

tryItOut 242
Compiling threw: SyntaxError: syntax error

tryItOut 243

tryItOut 244
Compiling threw: SyntaxError: illegal XML character

tryItOut 245
Running threw: ReferenceError: window is not defined

tryItOut 246

tryItOut 247

tryItOut 248
Compiling threw: SyntaxError: missing = in destructuring declaration

tryItOut 249

tryItOut 250
Compiling threw: SyntaxError: illegal XML character

tryItOut 251
It's an iterator!
Iterating succeeded, iterCount == 0

tryItOut 252
Compiling threw: SyntaxError: invalid assignment left-hand side

tryItOut 253
Compiling threw: SyntaxError: invalid for/in left-hand side

tryItOut 254

tryItOut 255
Running threw: ReferenceError: prototype is not defined

tryItOut 256
Running threw: TypeError: (new Function)() has no properties

tryItOut 257
Compiling threw: SyntaxError: syntax error

tryItOut 258
Compiling threw: SyntaxError: illegal XML character

tryItOut 259

tryItOut 260
Compiling threw: SyntaxError: missing { before function body

tryItOut 261

tryItOut 262

tryItOut 263
Compiling threw: SyntaxError: syntax error

tryItOut 264

tryItOut 265

tryItOut 266
Running threw: ReferenceError: prototype is not defined

tryItOut 267
Running threw: TypeError: __parent__ has no properties

tryItOut 268

tryItOut 269
Compiling threw: SyntaxError: syntax error

tryItOut 270
It's an iterator!
Iterating succeeded, iterCount == 1

tryItOut 271

tryItOut 272

tryItOut 273
Compiling threw: SyntaxError: invalid increment operand

tryItOut 274

tryItOut 275

tryItOut 276
Compiling threw: SyntaxError: invalid for/in left-hand side

tryItOut 277
It's an iterator!
Iterating succeeded, iterCount == 0

tryItOut 278
Compiling threw: SyntaxError: missing ; before statement

tryItOut 279
Compiling threw: SyntaxError: invalid for/in left-hand side

tryItOut 280

tryItOut 281

tryItOut 282
Compiling threw: SyntaxError: invalid assignment left-hand side

tryItOut 283
Compiling threw: SyntaxError: syntax error

tryItOut 284

tryItOut 285

tryItOut 286

tryItOut 287

tryItOut 288
Running threw: ReferenceError: window is not defined

tryItOut 289

tryItOut 290
Running threw: TypeError: __iterator__.prototype has no properties

tryItOut 291
Compiling threw: SyntaxError: syntax error

tryItOut 292

tryItOut 293
Compiling threw: SyntaxError: invalid destructuring assignment operator

tryItOut 294

tryItOut 295
Compiling threw: SyntaxError: invalid for/in left-hand side

tryItOut 296
Compiling threw: SyntaxError: invalid assignment left-hand side

tryItOut 297
Compiling threw: SyntaxError: syntax error

tryItOut 298
Running threw: Error: invalid sharp variable use #1#

tryItOut 299
Running threw: ReferenceError: window is not defined

tryItOut 300

tryItOut 301

tryItOut 302
Compiling threw: SyntaxError: invalid decrement operand

tryItOut 303

tryItOut 304

tryItOut 305
Compiling threw: SyntaxError: missing variable name

tryItOut 306

tryItOut 307
Compiling threw: SyntaxError: yield expression must be parenthesized

tryItOut 308
Compiling threw: SyntaxError: missing ; before statement

tryItOut 309
Running threw: TypeError: this.zzz has no properties

tryItOut 310
Running threw: <x>
  <y/>
</x>

tryItOut 311

tryItOut 312
Compiling threw: SyntaxError: invalid for/in left-hand side

tryItOut 313

tryItOut 314
Compiling threw: SyntaxError: syntax error

tryItOut 315
Compiling threw: SyntaxError: syntax error

tryItOut 316
Running threw: ReferenceError: window is not defined

tryItOut 317
Compiling threw: SyntaxError: syntax error

tryItOut 318

tryItOut 319

tryItOut 320

tryItOut 321

tryItOut 322
Compiling threw: SyntaxError: invalid assignment left-hand side

tryItOut 323

tryItOut 324
Compiling threw: SyntaxError: missing ) after for-loop control

tryItOut 325
Compiling threw: SyntaxError: invalid for/in left-hand side

tryItOut 326

tryItOut 327
Running threw: ReferenceError: reference to undefined XML name @foo

tryItOut 328
Running threw: ReferenceError: reference to undefined XML name *

tryItOut 329
Compiling threw: SyntaxError: syntax error

tryItOut 330

tryItOut 331
Running threw: Error: invalid sharp variable use #1#

tryItOut 332
Running threw: ReferenceError: window is not defined

tryItOut 333
Compiling threw: SyntaxError: invalid for/in left-hand side

tryItOut 334
Compiling threw: SyntaxError: syntax error

tryItOut 335
Compiling threw: SyntaxError: syntax error

tryItOut 336

tryItOut 337

tryItOut 338
Running threw: ReferenceError: reference to undefined XML name *::*

tryItOut 339

tryItOut 340
Running threw: TypeError: this.zzz has no properties

tryItOut 341
Running threw: ReferenceError: reference to undefined XML name *::*

tryItOut 342
Compiling threw: SyntaxError: unterminated regular expression literal

tryItOut 343

tryItOut 344
Running threw: ReferenceError: window is not defined

tryItOut 345
Running threw: TypeError: arguments[0] has no properties

tryItOut 346
Compiling threw: SyntaxError: missing ) in parenthetical

tryItOut 347

tryItOut 348

tryItOut 349
Compiling threw: SyntaxError: missing { before function body

tryItOut 350
Running threw: TypeError: arguments[0] has no properties

tryItOut 351

tryItOut 352

tryItOut 353
Compiling threw: SyntaxError: illegal XML character

tryItOut 354
Compiling threw: SyntaxError: missing variable name

tryItOut 355

tryItOut 356
It's an iterator!
Iterating threw!
Iterating threw: ReferenceError: reference to undefined XML name *::*

tryItOut 357

tryItOut 358
Running threw: ReferenceError: a is not defined

tryItOut 359

tryItOut 360
Running threw: TypeError: __parent__ has no properties

tryItOut 361
Compiling threw: SyntaxError: duplicate label

tryItOut 362
Compiling threw: SyntaxError: syntax error

tryItOut 363
Compiling threw: SyntaxError: invalid decrement operand

tryItOut 364
Compiling threw: SyntaxError: syntax error

tryItOut 365

tryItOut 366
Running threw: TypeError: <x><y/></x>['throw'] is not a function

tryItOut 367
Running threw: ReferenceError: reference to undefined XML name *

tryItOut 368

tryItOut 369

tryItOut 370
Compiling threw: SyntaxError: invalid for/in left-hand side

tryItOut 371

tryItOut 372
Compiling threw: SyntaxError: missing ; before statement

tryItOut 373
Compiling threw: SyntaxError: duplicate label

tryItOut 374

tryItOut 375

tryItOut 376
Compiling threw: SyntaxError: invalid decrement operand

tryItOut 377

tryItOut 378
Compiling threw: SyntaxError: invalid for/in left-hand side

tryItOut 379
Compiling threw: SyntaxError: syntax error

tryItOut 380

tryItOut 381
Compiling threw: SyntaxError: invalid assignment left-hand side

tryItOut 382
It's an iterator!
Iterating threw!
Iterating threw: TypeError: undefined has no properties

tryItOut 383
Compiling threw: SyntaxError: invalid destructuring assignment operator

tryItOut 384
Compiling threw: SyntaxError: syntax error

tryItOut 385
Running threw: TypeError: this.zzz has no properties

tryItOut 386

tryItOut 387
Compiling threw: SyntaxError: invalid for/in left-hand side

tryItOut 388
It's an iterator!
Iterating succeeded, iterCount == 1

tryItOut 389

tryItOut 390

tryItOut 391

tryItOut 392
Compiling threw: SyntaxError: missing ; before statement

tryItOut 393
Compiling threw: SyntaxError: syntax error

tryItOut 394

tryItOut 395

tryItOut 396

tryItOut 397
Compiling threw: SyntaxError: missing ) after argument list

tryItOut 398
It's an iterator!
Iterating succeeded, iterCount == 1

tryItOut 399
Running threw: ReferenceError: reference to undefined XML name *::*

tryItOut 400
Compiling threw: SyntaxError: missing { before function body

tryItOut 401
Compiling threw: SyntaxError: syntax error

tryItOut 402
Compiling threw: SyntaxError: illegal XML character

tryItOut 403
Running threw: ReferenceError: z1 is not defined

tryItOut 404

tryItOut 405
Running threw: TypeError: this.zzz has no properties

tryItOut 406
Compiling threw: SyntaxError: syntax error

tryItOut 407

tryItOut 408

tryItOut 409
Compiling threw: SyntaxError: missing variable name

tryItOut 410
Compiling threw: SyntaxError: missing ; before statement

tryItOut 411

tryItOut 412
Compiling threw: SyntaxError: invalid assignment left-hand side

tryItOut 413

tryItOut 414
Compiling threw: SyntaxError: syntax error

tryItOut 415

tryItOut 416

tryItOut 417

tryItOut 418
It's an iterator!
Iterating succeeded, iterCount == 1

tryItOut 419
Compiling threw: TypeError: generator function anonymous returns a value

tryItOut 420

tryItOut 421

tryItOut 422

tryItOut 423
Compiling threw: SyntaxError: invalid assignment left-hand side

tryItOut 424

tryItOut 425

tryItOut 426

tryItOut 427

tryItOut 428
It's an iterator!
Iterating succeeded, iterCount == 1

tryItOut 429
Compiling threw: SyntaxError: illegal XML character

tryItOut 430
It's an iterator!
Iterating succeeded, iterCount == 0

tryItOut 431
Running threw: TypeError: this.zzz has no properties

tryItOut 432
Running threw: TypeError: this.zzz has no properties

tryItOut 433
Compiling threw: SyntaxError: invalid for/in left-hand side

tryItOut 434

tryItOut 435
It's an iterator!
Iterating threw!
Iterating threw: ReferenceError: reference to undefined XML name *::*

tryItOut 436

tryItOut 437

tryItOut 438

tryItOut 439
Compiling threw: SyntaxError: invalid for/in left-hand side

tryItOut 440
Compiling threw: SyntaxError: syntax error

tryItOut 441
Running threw: TypeError: __parent__ has no properties

tryItOut 442
Running threw: 1200

tryItOut 443
Compiling threw: SyntaxError: syntax error

tryItOut 444

tryItOut 445

tryItOut 446

tryItOut 447
Running threw: ReferenceError: window is not defined

tryItOut 448
Compiling threw: SyntaxError: missing { before function body

tryItOut 449

tryItOut 450
Compiling threw: SyntaxError: missing ; before statement

tryItOut 451
Compiling threw: SyntaxError: missing variable name

tryItOut 452
Compiling threw: SyntaxError: syntax error

tryItOut 453
Compiling threw: SyntaxError: missing ; before statement

tryItOut 454

tryItOut 455
Compiling threw: SyntaxError: syntax error

tryItOut 456
Compiling threw: SyntaxError: missing { before function body

tryItOut 457
Running threw: 

tryItOut 458
It's an iterator!
Iterating succeeded, iterCount == 1

tryItOut 459

tryItOut 460
Compiling threw: SyntaxError: invalid for/in left-hand side

tryItOut 461
It's an iterator!
Iterating succeeded, iterCount == 1

tryItOut 462
Compiling threw: SyntaxError: duplicate label

tryItOut 463
Compiling threw: SyntaxError: invalid assignment left-hand side

tryItOut 464
It's an iterator!
Iterating succeeded, iterCount == 1

tryItOut 465

tryItOut 466
Compiling threw: TypeError: redeclaration of var __proto__

tryItOut 467

tryItOut 468
Compiling threw: SyntaxError: missing ; before statement

tryItOut 469
Running threw: ReferenceError: reference to undefined XML name *

tryItOut 470
Compiling threw: SyntaxError: missing = in destructuring declaration

tryItOut 471
Compiling threw: SyntaxError: syntax error

tryItOut 472

tryItOut 473
Compiling threw: SyntaxError: invalid assignment left-hand side

tryItOut 474

tryItOut 475
Compiling threw: SyntaxError: syntax error

tryItOut 476
Compiling threw: SyntaxError: invalid for/in left-hand side

tryItOut 477

tryItOut 478
It's an iterator!
Iterating succeeded, iterCount == 0

tryItOut 479

tryItOut 480

tryItOut 481
Compiling threw: SyntaxError: missing variable name

tryItOut 482

tryItOut 483
Running threw: TypeError: this is not a function

tryItOut 484
Running threw: TypeError: this.zzz has no properties

tryItOut 485

tryItOut 486
Compiling threw: SyntaxError: invalid decrement operand

tryItOut 487
Compiling threw: SyntaxError: invalid for/in left-hand side

tryItOut 488
Running threw: ReferenceError: reference to undefined XML name *::*

tryItOut 489

tryItOut 490

tryItOut 491
Compiling threw: SyntaxError: missing { before function body

tryItOut 492
Compiling threw: SyntaxError: syntax error

tryItOut 493
Running threw: ReferenceError: reference to undefined XML name *

tryItOut 494

tryItOut 495
Compiling threw: SyntaxError: missing ; before statement

tryItOut 496

tryItOut 497
Compiling threw: SyntaxError: missing variable name

tryItOut 498
Compiling threw: SyntaxError: missing ) after condition

tryItOut 499
Compiling threw: SyntaxError: syntax error

tryItOut 500
Running threw: ReferenceError: reference to undefined XML name @foo

tryItOut 501
Running threw: ReferenceError: window is not defined

tryItOut 502

tryItOut 503
Compiling threw: SyntaxError: syntax error

tryItOut 504
Compiling threw: SyntaxError: invalid for/in left-hand side

tryItOut 505
Compiling threw: SyntaxError: syntax error

tryItOut 506

tryItOut 507

tryItOut 508

tryItOut 509

tryItOut 510

tryItOut 511

tryItOut 512

tryItOut 513
Compiling threw: SyntaxError: duplicate label

tryItOut 514
Running threw: TypeError: this.zzz has no properties

tryItOut 515

tryItOut 516
Compiling threw: SyntaxError: missing variable name

tryItOut 517
Compiling threw: SyntaxError: invalid for/in left-hand side

tryItOut 518
Running threw: Error: invalid sharp variable use #1#

tryItOut 519
Compiling threw: SyntaxError: duplicate label

tryItOut 520

tryItOut 521
Running threw: <x>
  <y/>
</x>

tryItOut 522

tryItOut 523

tryItOut 524
Compiling threw: SyntaxError: invalid for/in left-hand side

tryItOut 525
Compiling threw: SyntaxError: invalid assignment left-hand side

tryItOut 526
Compiling threw: SyntaxError: invalid for/in left-hand side

tryItOut 527
Compiling threw: SyntaxError: missing variable name

tryItOut 528

tryItOut 529
Compiling threw: SyntaxError: missing { before function body

tryItOut 530
Running threw: TypeError: redeclaration of function __proto__

tryItOut 531
Compiling threw: SyntaxError: invalid for/in left-hand side

tryItOut 532

tryItOut 533
Compiling threw: SyntaxError: missing = in destructuring declaration

tryItOut 534
Compiling threw: SyntaxError: missing : after property id

tryItOut 535
Compiling threw: SyntaxError: invalid for/in left-hand side

tryItOut 536

tryItOut 537
Running threw: TypeError: <xxx>
  <x>
    <y/>
  </x>
</xxx> is not a function

tryItOut 538
Compiling threw: TypeError: redeclaration of variable __count__

tryItOut 539
Running threw: ReferenceError: reference to undefined XML name *

tryItOut 540

tryItOut 541
Compiling threw: SyntaxError: missing variable name

tryItOut 542
Compiling threw: SyntaxError: invalid assignment left-hand side

tryItOut 543
Compiling threw: SyntaxError: missing { before function body

tryItOut 544

tryItOut 545

tryItOut 546

tryItOut 547
Compiling threw: SyntaxError: missing ; before statement

tryItOut 548

tryItOut 549
Compiling threw: SyntaxError: missing while after do-loop body

tryItOut 550
Running threw: ReferenceError: reference to undefined XML name @foo

tryItOut 551
Compiling threw: SyntaxError: invalid for/in left-hand side

tryItOut 552
Running threw: [object StopIteration]

tryItOut 553
Compiling threw: SyntaxError: missing variable name

tryItOut 554

tryItOut 555
Compiling threw: SyntaxError: invalid assignment left-hand side

tryItOut 556

tryItOut 557

tryItOut 558
Running threw: ReferenceError: window is not defined

tryItOut 559

tryItOut 560
Compiling threw: SyntaxError: missing ; before statement

tryItOut 561
Compiling threw: SyntaxError: invalid for/in left-hand side

tryItOut 562

tryItOut 563
Compiling threw: SyntaxError: missing { before function body

tryItOut 564

tryItOut 565
Compiling threw: SyntaxError: missing variable name

tryItOut 566
Compiling threw: SyntaxError: missing { before function body

tryItOut 567
Compiling threw: SyntaxError: invalid assignment left-hand side

tryItOut 568

tryItOut 569
Compiling threw: SyntaxError: invalid for/in left-hand side

tryItOut 570

tryItOut 571
It's an iterator!
Iterating threw!
Iterating threw: ReferenceError: reference to undefined XML name *::*

tryItOut 572
Running threw: ReferenceError: reference to undefined XML name *

tryItOut 573
Compiling threw: SyntaxError: invalid assignment left-hand side

tryItOut 574

tryItOut 575
Compiling threw: SyntaxError: syntax error

tryItOut 576
It's an iterator!
Iterating threw!
Iterating threw: ReferenceError: reference to undefined XML name *::*

tryItOut 577
Compiling threw: SyntaxError: missing ; before statement

tryItOut 578
Running threw: ReferenceError: z1 is not defined

tryItOut 579
Running threw: TypeError: 3 is not a function

tryItOut 580
It's an iterator!
Iterating threw!
Iterating threw: TypeError: undefined is not a function

tryItOut 581
Running threw: ReferenceError: reference to undefined XML name @foo

tryItOut 582

tryItOut 583

tryItOut 584
Compiling threw: SyntaxError: invalid increment operand

tryItOut 585
Compiling threw: SyntaxError: missing variable name

tryItOut 586

tryItOut 587
Running threw: ReferenceError: reference to undefined XML name *::*

tryItOut 588
Compiling threw: SyntaxError: invalid decrement operand

tryItOut 589

tryItOut 590

tryItOut 591
Compiling threw: SyntaxError: invalid assignment left-hand side

tryItOut 592

tryItOut 593

tryItOut 594
Compiling threw: SyntaxError: missing ; before statement

tryItOut 595

tryItOut 596

tryItOut 597
Running threw: TypeError: this.zzz has no properties

tryItOut 598

tryItOut 599
Compiling threw: SyntaxError: syntax error

tryItOut 600
Running threw: 

tryItOut 601
Running threw: [object StopIteration]

tryItOut 602
Running threw: ReferenceError: window is not defined

tryItOut 603
Compiling threw: SyntaxError: illegal XML character

tryItOut 604

tryItOut 605
Compiling threw: SyntaxError: syntax error

tryItOut 606

tryItOut 607
Running threw: ReferenceError: reference to undefined XML name *::*

tryItOut 608
Compiling threw: SyntaxError: syntax error

tryItOut 609

tryItOut 610
Compiling threw: SyntaxError: syntax error

tryItOut 611
Compiling threw: SyntaxError: invalid for/in left-hand side

tryItOut 612

tryItOut 613
Compiling threw: SyntaxError: invalid assignment left-hand side

tryItOut 614

tryItOut 615

tryItOut 616
Compiling threw: SyntaxError: missing ; before statement

tryItOut 617
Running threw: ReferenceError: reference to undefined XML name *

tryItOut 618

tryItOut 619
Running threw: ReferenceError: window is not defined

tryItOut 620
Compiling threw: SyntaxError: invalid for/in left-hand side

tryItOut 621
Compiling threw: SyntaxError: missing ) after condition

tryItOut 622
Compiling threw: SyntaxError: missing variable name

tryItOut 623
Compiling threw: SyntaxError: illegal XML character

tryItOut 624

tryItOut 625

tryItOut 626

tryItOut 627
Compiling threw: SyntaxError: illegal XML character

tryItOut 628
Compiling threw: SyntaxError: missing = in destructuring declaration

tryItOut 629

tryItOut 630

tryItOut 631
Compiling threw: SyntaxError: illegal XML character

tryItOut 632
It's an iterator!
Iterating threw!
Iterating threw: ReferenceError: reference to undefined XML name *

tryItOut 633
Running threw: [object global]

tryItOut 634
Compiling threw: SyntaxError: invalid increment operand

tryItOut 635
Running threw: TypeError: this.zzz has no properties

tryItOut 636

tryItOut 637

tryItOut 638

tryItOut 639
It's an iterator!
Iterating succeeded, iterCount == 1

tryItOut 640
Compiling threw: SyntaxError: invalid assignment left-hand side

tryItOut 641
Compiling threw: SyntaxError: syntax error

tryItOut 642
Running threw: ReferenceError: reference to undefined XML name *

tryItOut 643
Compiling threw: SyntaxError: missing { before function body

tryItOut 644

tryItOut 645
It's an iterator!
Iterating succeeded, iterCount == 0

tryItOut 646

tryItOut 647
Compiling threw: SyntaxError: syntax error

tryItOut 648
Compiling threw: SyntaxError: invalid XML tag syntax

tryItOut 649
Running threw: [object StopIteration]

tryItOut 650

tryItOut 651

tryItOut 652
Compiling threw: SyntaxError: missing variable name

tryItOut 653

tryItOut 654
Compiling threw: SyntaxError: invalid assignment left-hand side

tryItOut 655

tryItOut 656
Compiling threw: SyntaxError: invalid assignment left-hand side

tryItOut 657
Compiling threw: SyntaxError: invalid for/in left-hand side

tryItOut 658
Running threw: ReferenceError: window is not defined

tryItOut 659

tryItOut 660
Compiling threw: SyntaxError: invalid property id

tryItOut 661

tryItOut 662

tryItOut 663
Compiling threw: SyntaxError: invalid XML name

tryItOut 664
Compiling threw: SyntaxError: syntax error

tryItOut 665

tryItOut 666
Compiling threw: SyntaxError: invalid decrement operand

tryItOut 667
Running threw: TypeError: 1200 is not a function

tryItOut 668
Compiling threw: SyntaxError: missing ; before statement

tryItOut 669
Compiling threw: SyntaxError: missing = in destructuring declaration

tryItOut 670
Compiling threw: SyntaxError: syntax error

tryItOut 671
It's an iterator!
Iterating succeeded, iterCount == 1

tryItOut 672
Compiling threw: SyntaxError: invalid assignment left-hand side

tryItOut 673

tryItOut 674
Compiling threw: SyntaxError: missing variable name

tryItOut 675

tryItOut 676
Compiling threw: SyntaxError: duplicate label

tryItOut 677
Compiling threw: SyntaxError: syntax error

tryItOut 678
Compiling threw: SyntaxError: invalid assignment left-hand side

tryItOut 679

tryItOut 680

tryItOut 681
It's an iterator!
Iterating threw!
Iterating threw: ReferenceError: reference to undefined XML name *::*

tryItOut 682

tryItOut 683
Compiling threw: SyntaxError: syntax error

tryItOut 684

tryItOut 685

tryItOut 686
Compiling threw: SyntaxError: invalid assignment left-hand side

tryItOut 687

tryItOut 688
Compiling threw: SyntaxError: invalid assignment left-hand side

tryItOut 689

tryItOut 690
Running threw: ReferenceError: z1 is not defined

tryItOut 691
Compiling threw: SyntaxError: syntax error

tryItOut 692
Running threw: TypeError: this.zzz has no properties

tryItOut 693
Compiling threw: SyntaxError: missing ; before statement

tryItOut 694
It's an iterator!
Iterating succeeded, iterCount == 1

tryItOut 695

tryItOut 696

tryItOut 697
Compiling threw: SyntaxError: missing ; before statement

tryItOut 698
It's an iterator!
Iterating succeeded, iterCount == 1

tryItOut 699

tryItOut 700
Compiling threw: SyntaxError: invalid assignment left-hand side

tryItOut 701

tryItOut 702

tryItOut 703

tryItOut 704
Compiling threw: SyntaxError: missing name after . operator

tryItOut 705
Running threw: [object StopIteration]

tryItOut 706

tryItOut 707
Compiling threw: SyntaxError: syntax error

tryItOut 708

tryItOut 709
Compiling threw: SyntaxError: missing ) after switch expression

tryItOut 710
Compiling threw: SyntaxError: syntax error

tryItOut 711

tryItOut 712
Compiling threw: SyntaxError: invalid increment operand

tryItOut 713
Compiling threw: SyntaxError: invalid assignment left-hand side

tryItOut 714
Compiling threw: SyntaxError: syntax error

tryItOut 715
Compiling threw: TypeError: redeclaration of variable prototype

tryItOut 716
Running threw: TypeError: this.zzz has no properties

tryItOut 717
Compiling threw: SyntaxError: missing ) in parenthetical

tryItOut 718
Compiling threw: SyntaxError: invalid for/in left-hand side

tryItOut 719
Running threw: ReferenceError: window is not defined

tryItOut 720
Running threw: [object StopIteration]

tryItOut 721

tryItOut 722
Compiling threw: SyntaxError: syntax error

tryItOut 723
Compiling threw: SyntaxError: invalid assignment left-hand side

tryItOut 724

tryItOut 725

tryItOut 726

tryItOut 727

tryItOut 728
Compiling threw: SyntaxError: missing variable name

tryItOut 729
Running threw: ReferenceError: window is not defined

tryItOut 730

tryItOut 731

tryItOut 732
Compiling threw: SyntaxError: missing { before function body

tryItOut 733
Compiling threw: SyntaxError: invalid increment operand

tryItOut 734
Running threw: ReferenceError: window is not defined

tryItOut 735
Compiling threw: SyntaxError: invalid flag after regular expression

tryItOut 736

tryItOut 737
Running threw: SyntaxError: illegal XML character

tryItOut 738

tryItOut 739

tryItOut 740

tryItOut 741
Compiling threw: SyntaxError: syntax error

tryItOut 742
Running threw: ReferenceError: reference to undefined XML name @foo

tryItOut 743
Compiling threw: SyntaxError: missing variable name

tryItOut 744

tryItOut 745

tryItOut 746

tryItOut 747
Running threw: ReferenceError: window is not defined

tryItOut 748
Compiling threw: SyntaxError: missing = in destructuring declaration

tryItOut 749

tryItOut 750
Compiling threw: SyntaxError: syntax error

tryItOut 751
Compiling threw: SyntaxError: invalid for/in left-hand side

tryItOut 752

tryItOut 753
It's an iterator!
Iterating threw!
Iterating threw: ReferenceError: reference to undefined XML name @foo

tryItOut 754
Compiling threw: TypeError: redeclaration of const __iterator__

tryItOut 755
Compiling threw: SyntaxError: invalid XML name

tryItOut 756

tryItOut 757
Compiling threw: SyntaxError: invalid for/in left-hand side

tryItOut 758
Compiling threw: SyntaxError: missing ; before statement

tryItOut 759

tryItOut 760

tryItOut 761
It's an iterator!
Iterating succeeded, iterCount == 1

tryItOut 762
Running threw: TypeError: undefined has no properties

tryItOut 763

tryItOut 764
Compiling threw: SyntaxError: missing { before function body

tryItOut 765

tryItOut 766

tryItOut 767

tryItOut 768

tryItOut 769
Compiling threw: SyntaxError: syntax error

tryItOut 770

tryItOut 771

tryItOut 772
Running threw: ReferenceError: window is not defined

tryItOut 773
Compiling threw: SyntaxError: missing ; before statement

tryItOut 774
Compiling threw: SyntaxError: syntax error

tryItOut 775

tryItOut 776
It's an iterator!
Iterating succeeded, iterCount == 1

tryItOut 777
Compiling threw: SyntaxError: syntax error

tryItOut 778

tryItOut 779
Compiling threw: SyntaxError: missing variable name

tryItOut 780

tryItOut 781

tryItOut 782

tryItOut 783
Running threw: TypeError: <x><y/></x>['throw'] is not a function

tryItOut 784

tryItOut 785
Compiling threw: SyntaxError: missing { before function body

tryItOut 786
Compiling threw: SyntaxError: invalid assignment left-hand side

tryItOut 787

tryItOut 788

tryItOut 789
Running threw: -1

tryItOut 790

tryItOut 791
It's an iterator!
Iterating succeeded, iterCount == 2

tryItOut 792

tryItOut 793

tryItOut 794
Compiling threw: SyntaxError: syntax error

tryItOut 795
Running threw: ReferenceError: reference to undefined XML name *::*

tryItOut 796
Compiling threw: SyntaxError: invalid for/in left-hand side

tryItOut 797

tryItOut 798
Running threw: ReferenceError: z1 is not defined

tryItOut 799
Compiling threw: SyntaxError: syntax error

tryItOut 800

tryItOut 801
It's an iterator!
Iterating succeeded, iterCount == 1

tryItOut 802

tryItOut 803
Compiling threw: SyntaxError: missing variable name

tryItOut 804

tryItOut 805

tryItOut 806
Compiling threw: SyntaxError: invalid property id

tryItOut 807

tryItOut 808

tryItOut 809
Compiling threw: SyntaxError: syntax error

tryItOut 810
It's an iterator!
Iterating succeeded, iterCount == 0

tryItOut 811
Compiling threw: SyntaxError: syntax error

tryItOut 812
Compiling threw: SyntaxError: invalid assignment left-hand side

tryItOut 813

tryItOut 814
Compiling threw: SyntaxError: invalid for/in left-hand side

tryItOut 815
Compiling threw: SyntaxError: illegal XML character

tryItOut 816

tryItOut 817
Compiling threw: SyntaxError: missing ) after condition

tryItOut 818

tryItOut 819
Running threw: ReferenceError: window is not defined

tryItOut 820
Compiling threw: SyntaxError: invalid for/in left-hand side

tryItOut 821
Compiling threw: SyntaxError: invalid assignment left-hand side

tryItOut 822

tryItOut 823

tryItOut 824
Compiling threw: SyntaxError: missing ) after with-statement object

tryItOut 825

tryItOut 826

tryItOut 827

tryItOut 828
It's an iterator!
Iterating succeeded, iterCount == 1

tryItOut 829
Compiling threw: SyntaxError: invalid assignment left-hand side

tryItOut 830
Compiling threw: SyntaxError: invalid decrement operand

tryItOut 831
Compiling threw: SyntaxError: missing : after property id

tryItOut 832
Running threw: [object StopIteration]

tryItOut 833
Compiling threw: SyntaxError: missing ; before statement

tryItOut 834
Compiling threw: SyntaxError: missing { before function body

tryItOut 835

tryItOut 836

tryItOut 837

tryItOut 838

tryItOut 839
Compiling threw: SyntaxError: missing variable name

tryItOut 840
Compiling threw: SyntaxError: duplicate label

tryItOut 841

tryItOut 842
Compiling threw: SyntaxError: missing ) after argument list

tryItOut 843
Compiling threw: SyntaxError: invalid assignment left-hand side

tryItOut 844
Compiling threw: SyntaxError: syntax error

tryItOut 845

tryItOut 846

tryItOut 847

tryItOut 848
It's an iterator!
Iterating succeeded, iterCount == 0

tryItOut 849
Compiling threw: SyntaxError: syntax error

tryItOut 850
It's an iterator!
Iterating succeeded, iterCount == 1

tryItOut 851
Compiling threw: SyntaxError: syntax error

tryItOut 852
Compiling threw: SyntaxError: syntax error

tryItOut 853
Running threw: ReferenceError: window is not defined

tryItOut 854

tryItOut 855

tryItOut 856
Compiling threw: SyntaxError: missing { before function body

tryItOut 857

tryItOut 858
Compiling threw: SyntaxError: syntax error

tryItOut 859

tryItOut 860

tryItOut 861

tryItOut 862

tryItOut 863
Compiling threw: SyntaxError: invalid decrement operand

tryItOut 864
Running threw: ReferenceError: reference to undefined XML name @foo

tryItOut 865
Compiling threw: SyntaxError: invalid for/in left-hand side

tryItOut 866

tryItOut 867

tryItOut 868
It's an iterator!
Iterating threw!
Iterating threw: ReferenceError: window is not defined

tryItOut 869

tryItOut 870

tryItOut 871
Compiling threw: SyntaxError: invalid increment operand

tryItOut 872
Compiling threw: SyntaxError: missing while after do-loop body

tryItOut 873

tryItOut 874
Compiling threw: SyntaxError: invalid for/in left-hand side

tryItOut 875

tryItOut 876
Compiling threw: SyntaxError: invalid decrement operand

tryItOut 877

tryItOut 878

tryItOut 879

tryItOut 880

tryItOut 881
Compiling threw: SyntaxError: missing while after do-loop body

tryItOut 882
Compiling threw: SyntaxError: invalid assignment left-hand side

tryItOut 883
Compiling threw: SyntaxError: invalid default XML namespace

tryItOut 884
Compiling threw: SyntaxError: invalid for/in left-hand side

tryItOut 885
Compiling threw: SyntaxError: syntax error

tryItOut 886
Running threw: ReferenceError: reference to undefined XML name *::*

tryItOut 887
Compiling threw: SyntaxError: invalid for/in left-hand side

tryItOut 888

tryItOut 889
It's an iterator!
Iterating threw!
Iterating threw: ReferenceError: reference to undefined XML name @foo

tryItOut 890
It's an iterator!
Iterating succeeded, iterCount == 1

tryItOut 891
Compiling threw: SyntaxError: invalid for/in left-hand side

tryItOut 892
Compiling threw: SyntaxError: syntax error

tryItOut 893
Compiling threw: SyntaxError: missing ; before statement

tryItOut 894

tryItOut 895
Compiling threw: SyntaxError: invalid assignment left-hand side

tryItOut 896
Compiling threw: SyntaxError: duplicate label

tryItOut 897
Running threw: ReferenceError: reference to undefined XML name *

tryItOut 898
Compiling threw: SyntaxError: invalid for/in left-hand side

tryItOut 899
Compiling threw: SyntaxError: syntax error

tryItOut 900
Compiling threw: SyntaxError: missing ) in parenthetical

tryItOut 901
Compiling threw: SyntaxError: missing variable name

tryItOut 902
It's an iterator!
Iterating threw!
Iterating threw: ReferenceError: reference to undefined XML name *::*

tryItOut 903
Compiling threw: SyntaxError: invalid for/in left-hand side

tryItOut 904
Running threw: ReferenceError: reference to undefined XML name @foo

tryItOut 905
Compiling threw: SyntaxError: syntax error

tryItOut 906
It's an iterator!
Iterating succeeded, iterCount == 1

tryItOut 907

tryItOut 908
Compiling threw: SyntaxError: duplicate label

tryItOut 909
Compiling threw: SyntaxError: missing ) in parenthetical

tryItOut 910
Compiling threw: SyntaxError: syntax error

tryItOut 911
Running threw: TypeError: redeclaration of var __count__

tryItOut 912

tryItOut 913
Compiling threw: SyntaxError: invalid for/in left-hand side

tryItOut 914

tryItOut 915
It's an iterator!
Iterating succeeded, iterCount == 1

tryItOut 916
It's an iterator!
Iterating threw!
Iterating threw: ReferenceError: window is not defined

tryItOut 917

tryItOut 918
Compiling threw: SyntaxError: syntax error

tryItOut 919

tryItOut 920
Running threw: TypeError: this.zzz has no properties

tryItOut 921
Compiling threw: SyntaxError: invalid for/in left-hand side

tryItOut 922
Compiling threw: SyntaxError: missing ) in parenthetical

tryItOut 923
Compiling threw: TypeError: redeclaration of variable __noSuchMethod__

tryItOut 924
Compiling threw: SyntaxError: missing ; after for-loop initializer

tryItOut 925
Compiling threw: SyntaxError: missing ; before statement

tryItOut 926
Compiling threw: SyntaxError: invalid increment operand

tryItOut 927
Compiling threw: SyntaxError: syntax error

tryItOut 928
Compiling threw: SyntaxError: missing { before function body

tryItOut 929
Compiling threw: SyntaxError: invalid for/in left-hand side

tryItOut 930

tryItOut 931
Compiling threw: SyntaxError: invalid property id

tryItOut 932
Compiling threw: SyntaxError: missing { before function body

tryItOut 933
Running threw: TypeError: this.zzz has no properties

tryItOut 934
Compiling threw: SyntaxError: illegal XML character

tryItOut 935
Running threw: [object StopIteration]

tryItOut 936
Compiling threw: TypeError: redeclaration of const prop

tryItOut 937
Compiling threw: SyntaxError: invalid for/in left-hand side

tryItOut 938

tryItOut 939
Running threw: ReferenceError: z1 is not defined

tryItOut 940

tryItOut 941
It's an iterator!
Iterating succeeded, iterCount == 1

tryItOut 942

tryItOut 943

tryItOut 944
Compiling threw: SyntaxError: missing variable name

tryItOut 945

tryItOut 946
Running threw: TypeError: arguments[0] has no properties

tryItOut 947
Compiling threw: SyntaxError: missing { before function body

tryItOut 948
Compiling threw: SyntaxError: missing name after . operator

tryItOut 949
It's an iterator!
Iterating succeeded, iterCount == 1

tryItOut 950

tryItOut 951
Compiling threw: SyntaxError: duplicate label

tryItOut 952

tryItOut 953

tryItOut 954
Compiling threw: SyntaxError: missing variable name

tryItOut 955

tryItOut 956

tryItOut 957
It's an iterator!
Iterating succeeded, iterCount == 1

tryItOut 958

tryItOut 959
Running threw: ReferenceError: o is not defined

tryItOut 960
It's an iterator!
Iterating succeeded, iterCount == 1

tryItOut 961

tryItOut 962
It's an iterator!
Iterating threw!
Iterating threw: TypeError: arguments[0] has no properties

tryItOut 963

tryItOut 964

tryItOut 965
Compiling threw: SyntaxError: missing variable name

tryItOut 966
Running threw: TypeError: this.zzz has no properties

tryItOut 967

tryItOut 968

tryItOut 969

tryItOut 970
Compiling threw: SyntaxError: syntax error

tryItOut 971
Compiling threw: SyntaxError: invalid XML name

tryItOut 972
Compiling threw: SyntaxError: invalid for/in left-hand side

tryItOut 973

tryItOut 974
Running threw: [object global]

tryItOut 975
Compiling threw: TypeError: redeclaration of variable __parent__

tryItOut 976
Compiling threw: SyntaxError: syntax error

tryItOut 977
Compiling threw: SyntaxError: invalid assignment left-hand side

tryItOut 978
Running threw: TypeError: #3={, a:#3#}.@* has no properties

tryItOut 979
Compiling threw: SyntaxError: missing { before function body

tryItOut 980

tryItOut 981
Compiling threw: SyntaxError: invalid assignment left-hand side

tryItOut 982
Compiling threw: SyntaxError: missing ; before statement

tryItOut 983
Compiling threw: SyntaxError: invalid assignment left-hand side

tryItOut 984
Compiling threw: SyntaxError: syntax error

tryItOut 985

tryItOut 986

tryItOut 987
Compiling threw: SyntaxError: missing ; after for-loop initializer

tryItOut 988

tryItOut 989

tryItOut 990

tryItOut 991
Compiling threw: SyntaxError: invalid assignment left-hand side

tryItOut 992

tryItOut 993
Compiling threw: SyntaxError: syntax error

tryItOut 994
Running threw: [object StopIteration]

tryItOut 995
Compiling threw: SyntaxError: syntax error

tryItOut 996
Compiling threw: TypeError: redeclaration of variable __parent__

tryItOut 997
It's an iterator!
Iterating succeeded, iterCount == 1

tryItOut 998
Compiling threw: SyntaxError: missing } in XML expression

tryItOut 999

tryItOut 1000

ALL OK

Script done on Sat 04 May 2013 06:04:53 AM PDT
