Script started on Sat 04 May 2013 06:03:39 AM PDT
***
Targeting SpiderMonkey / Gecko.

tryItOut 1

tryItOut 2
Compiling threw: SyntaxError: missing variable name

tryItOut 3

tryItOut 4

tryItOut 5

tryItOut 6

tryItOut 7

tryItOut 8
Compiling threw: SyntaxError: invalid increment operand

tryItOut 9

tryItOut 10

tryItOut 11
Compiling threw: SyntaxError: missing } after let block

tryItOut 12

tryItOut 13
Compiling threw: SyntaxError: invalid assignment left-hand side

tryItOut 14
Compiling threw: SyntaxError: invalid assignment left-hand side

tryItOut 15
Compiling threw: SyntaxError: syntax error

tryItOut 16
Compiling threw: SyntaxError: unterminated string literal

tryItOut 17

tryItOut 18

tryItOut 19

tryItOut 20

tryItOut 21
Compiling threw: SyntaxError: missing ) in parenthetical

tryItOut 22
Compiling threw: SyntaxError: missing variable name

tryItOut 23
Compiling threw: SyntaxError: missing variable name

tryItOut 24

tryItOut 25
Compiling threw: SyntaxError: invalid for/in left-hand side

tryItOut 26
Compiling threw: SyntaxError: missing variable name

tryItOut 27
Compiling threw: SyntaxError: missing variable name

tryItOut 28

tryItOut 29
Compiling threw: SyntaxError: invalid assignment left-hand side

tryItOut 30
Compiling threw: SyntaxError: syntax error

tryItOut 31
Compiling threw: SyntaxError: missing ) in parenthetical

tryItOut 32
Compiling threw: SyntaxError: invalid assignment left-hand side

tryItOut 33
Compiling threw: SyntaxError: invalid decrement operand

tryItOut 34

tryItOut 35
Compiling threw: SyntaxError: missing ) in parenthetical

tryItOut 36
Compiling threw: SyntaxError: illegal XML character

tryItOut 37
Compiling threw: SyntaxError: invalid decrement operand

tryItOut 38

tryItOut 39
Compiling threw: SyntaxError: invalid for/in left-hand side

tryItOut 40

tryItOut 41

tryItOut 42

tryItOut 43
Running threw: <y>
  <z/>
</y>

tryItOut 44

tryItOut 45
Compiling threw: SyntaxError: invalid for each loop

tryItOut 46

tryItOut 47
Compiling threw: SyntaxError: missing variable name

tryItOut 48

tryItOut 49
Running threw: ReferenceError: __noSuchMethod__ is not defined

tryItOut 50
Running threw: ReferenceError: z2 is not defined

tryItOut 51
Running threw: ReferenceError: prop is not defined

tryItOut 52
Compiling threw: SyntaxError: invalid for/in left-hand side

tryItOut 53

tryItOut 54

tryItOut 55
Compiling threw: SyntaxError: illegal XML character

tryItOut 56
Compiling threw: SyntaxError: invalid assignment left-hand side

tryItOut 57
Running threw: <x>
  <y/>
</x>

tryItOut 58
Running threw: TypeError: "" is not a constructor

tryItOut 59

tryItOut 60
Compiling threw: SyntaxError: missing } after let block

tryItOut 61
Compiling threw: SyntaxError: syntax error

tryItOut 62

tryItOut 63
Running threw: [object Object]

tryItOut 64

tryItOut 65

tryItOut 66

tryItOut 67
Compiling threw: SyntaxError: missing { before function body

tryItOut 68

tryItOut 69
Compiling threw: SyntaxError: missing ) in parenthetical

tryItOut 70

tryItOut 71
Compiling threw: SyntaxError: missing { before function body

tryItOut 72

tryItOut 73
Compiling threw: SyntaxError: missing name in export statement

tryItOut 74

tryItOut 75
Compiling threw: SyntaxError: missing variable name

tryItOut 76
Compiling threw: SyntaxError: missing variable name

tryItOut 77

tryItOut 78
Compiling threw: SyntaxError: missing = in destructuring declaration

tryItOut 79

tryItOut 80
Compiling threw: SyntaxError: missing { before function body

tryItOut 81
Compiling threw: SyntaxError: missing { before function body

tryItOut 82
Compiling threw: SyntaxError: invalid assignment left-hand side

tryItOut 83
Compiling threw: SyntaxError: invalid assignment left-hand side

tryItOut 84

tryItOut 85
Compiling threw: SyntaxError: syntax error

tryItOut 86
Compiling threw: TypeError: redeclaration of const prop

tryItOut 87

tryItOut 88
Compiling threw: SyntaxError: illegal XML character

tryItOut 89
Running threw: 

tryItOut 90

tryItOut 91

tryItOut 92
Compiling threw: SyntaxError: missing ; after for-loop initializer

tryItOut 93
Compiling threw: SyntaxError: missing variable name

tryItOut 94
Compiling threw: SyntaxError: invalid increment operand

tryItOut 95
Running threw: ReferenceError: k is not defined

tryItOut 96

tryItOut 97

tryItOut 98
Compiling threw: SyntaxError: syntax error

tryItOut 99

tryItOut 100
Running threw: undefined

tryItOut 101

tryItOut 102

tryItOut 103

tryItOut 104
Compiling threw: SyntaxError: invalid for/in left-hand side

tryItOut 105
Compiling threw: SyntaxError: missing variable name

tryItOut 106

tryItOut 107
Compiling threw: SyntaxError: missing : after property id

tryItOut 108

tryItOut 109

tryItOut 110
Running threw: ReferenceError: z2 is not defined

tryItOut 111
Compiling threw: SyntaxError: illegal XML character

tryItOut 112
Compiling threw: SyntaxError: missing ) in parenthetical

tryItOut 113

tryItOut 114

tryItOut 115
Compiling threw: SyntaxError: missing ) in parenthetical

tryItOut 116

tryItOut 117
Compiling threw: SyntaxError: missing variable name

tryItOut 118
Running threw: ReferenceError: __iterator__ is not defined

tryItOut 119

tryItOut 120
Compiling threw: SyntaxError: missing variable name

tryItOut 121

tryItOut 122
Compiling threw: SyntaxError: missing variable name

tryItOut 123
Compiling threw: SyntaxError: missing ) after condition

tryItOut 124

tryItOut 125

tryItOut 126
Compiling threw: SyntaxError: missing variable name

tryItOut 127
Compiling threw: SyntaxError: missing variable name

tryItOut 128

tryItOut 129

tryItOut 130

tryItOut 131

tryItOut 132
Compiling threw: TypeError: redeclaration of variable __count__

tryItOut 133

tryItOut 134
Compiling threw: TypeError: redeclaration of variable constructor

tryItOut 135
Compiling threw: SyntaxError: missing variable name

tryItOut 136

tryItOut 137

tryItOut 138
Running threw: ReferenceError: __iterator__ is not defined

tryItOut 139

tryItOut 140

tryItOut 141

tryItOut 142

tryItOut 143
Compiling threw: SyntaxError: invalid for/in left-hand side

tryItOut 144

tryItOut 145

tryItOut 146
Compiling threw: SyntaxError: missing ) after for-loop control

tryItOut 147
Compiling threw: SyntaxError: invalid for/in left-hand side

tryItOut 148
Compiling threw: SyntaxError: invalid for each loop

tryItOut 149
Compiling threw: SyntaxError: missing variable name

tryItOut 150
Compiling threw: SyntaxError: invalid assignment left-hand side

tryItOut 151

tryItOut 152

tryItOut 153
Running threw: SyntaxError: invalid assignment left-hand side

tryItOut 154

tryItOut 155

tryItOut 156

tryItOut 157
Compiling threw: SyntaxError: illegal XML character

tryItOut 158
Compiling threw: SyntaxError: syntax error

tryItOut 159
Compiling threw: SyntaxError: syntax error

tryItOut 160

tryItOut 161
Running threw: <x>
  <y/>
</x>

tryItOut 162
Compiling threw: SyntaxError: missing ) in parenthetical

tryItOut 163

tryItOut 164
Compiling threw: SyntaxError: missing } after let block

tryItOut 165
Running threw: 

tryItOut 166
Compiling threw: SyntaxError: missing ) after let head

tryItOut 167
Compiling threw: SyntaxError: missing variable name

tryItOut 168

tryItOut 169
Compiling threw: SyntaxError: illegal XML character

tryItOut 170

tryItOut 171

tryItOut 172

tryItOut 173
Compiling threw: SyntaxError: illegal XML character

tryItOut 174

tryItOut 175

tryItOut 176
Running threw: ReferenceError: __iterator__ is not defined

tryItOut 177

tryItOut 178
Compiling threw: SyntaxError: invalid for each loop

tryItOut 179

tryItOut 180
Running threw: ReferenceError: z1 is not defined

tryItOut 181

tryItOut 182
Compiling threw: SyntaxError: missing = in destructuring declaration

tryItOut 183
Compiling threw: SyntaxError: missing variable name

tryItOut 184

tryItOut 185

tryItOut 186

tryItOut 187
Compiling threw: SyntaxError: missing variable name

tryItOut 188
Compiling threw: SyntaxError: missing = in destructuring declaration

tryItOut 189

tryItOut 190

tryItOut 191
Compiling threw: SyntaxError: missing } after let block

tryItOut 192

tryItOut 193

tryItOut 194
Compiling threw: SyntaxError: invalid default XML namespace

tryItOut 195
Compiling threw: SyntaxError: missing = in destructuring declaration

tryItOut 196
Compiling threw: SyntaxError: invalid assignment left-hand side

tryItOut 197
Compiling threw: SyntaxError: missing { before function body

tryItOut 198
Compiling threw: SyntaxError: syntax error

tryItOut 199
Compiling threw: SyntaxError: invalid decrement operand

tryItOut 200
Compiling threw: SyntaxError: missing variable name

tryItOut 201
Compiling threw: SyntaxError: invalid destructuring assignment operator

tryItOut 202
Running threw: <y>
  <z/>
</y>

tryItOut 203

tryItOut 204

tryItOut 205
Compiling threw: SyntaxError: invalid for/in left-hand side

tryItOut 206
Compiling threw: SyntaxError: missing name after . operator

tryItOut 207

tryItOut 208

tryItOut 209

tryItOut 210
Compiling threw: SyntaxError: unterminated parenthetical

tryItOut 211
Compiling threw: SyntaxError: invalid increment operand

tryItOut 212
Compiling threw: TypeError: redeclaration of variable __proto__

tryItOut 213
Compiling threw: SyntaxError: missing name in export statement

tryItOut 214
Running threw: Error: invalid sharp variable use #1#

tryItOut 215

tryItOut 216
Running threw: TypeError: [1, , ].yoyo is not a function

tryItOut 217
Compiling threw: SyntaxError: invalid for/in left-hand side

tryItOut 218

tryItOut 219
Compiling threw: SyntaxError: syntax error

tryItOut 220
Compiling threw: TypeError: redeclaration of const __iterator__

tryItOut 221
Compiling threw: SyntaxError: missing variable name

tryItOut 222
Compiling threw: TypeError: redeclaration of variable constructor

tryItOut 223
Compiling threw: SyntaxError: missing variable name

tryItOut 224
Compiling threw: SyntaxError: invalid assignment left-hand side

tryItOut 225
Compiling threw: SyntaxError: missing variable name

tryItOut 226

tryItOut 227

tryItOut 228

tryItOut 229
Running threw: ReferenceError: __noSuchMethod__ is not defined

tryItOut 230
Running threw: ReferenceError: z1 is not defined

tryItOut 231

tryItOut 232

tryItOut 233

tryItOut 234

tryItOut 235

tryItOut 236
Running threw: ReferenceError: __noSuchMethod__ is not defined

tryItOut 237

tryItOut 238

tryItOut 239

tryItOut 240
Compiling threw: SyntaxError: invalid assignment left-hand side

tryItOut 241
Compiling threw: SyntaxError: invalid XML name

tryItOut 242

tryItOut 243
Compiling threw: SyntaxError: invalid sharp variable definition

tryItOut 244
Compiling threw: SyntaxError: missing variable name

tryItOut 245

tryItOut 246

tryItOut 247
Compiling threw: SyntaxError: invalid assignment left-hand side

tryItOut 248

tryItOut 249
Compiling threw: SyntaxError: missing variable name

tryItOut 250

tryItOut 251

tryItOut 252

tryItOut 253

tryItOut 254
Compiling threw: SyntaxError: missing variable name

tryItOut 255
Compiling threw: SyntaxError: missing variable name

tryItOut 256

tryItOut 257

tryItOut 258

tryItOut 259
Compiling threw: SyntaxError: missing ) in parenthetical

tryItOut 260
Compiling threw: SyntaxError: syntax error

tryItOut 261

tryItOut 262

tryItOut 263

tryItOut 264

tryItOut 265
Compiling threw: SyntaxError: missing { before function body

tryItOut 266
Compiling threw: SyntaxError: invalid for/in left-hand side

tryItOut 267

tryItOut 268
Compiling threw: SyntaxError: missing variable name

tryItOut 269
Compiling threw: SyntaxError: missing ) in parenthetical

tryItOut 270

tryItOut 271

tryItOut 272

tryItOut 273
Compiling threw: SyntaxError: syntax error

tryItOut 274
Compiling threw: SyntaxError: missing { before function body

tryItOut 275

tryItOut 276

tryItOut 277
Running threw: <x>
  <y/>
</x>

tryItOut 278

tryItOut 279

tryItOut 280
Compiling threw: SyntaxError: missing variable name

tryItOut 281
Compiling threw: SyntaxError: missing = in destructuring declaration

tryItOut 282

tryItOut 283

tryItOut 284

tryItOut 285
Compiling threw: SyntaxError: invalid decrement operand

tryItOut 286
Compiling threw: SyntaxError: missing { before function body

tryItOut 287
Compiling threw: SyntaxError: missing variable name

tryItOut 288

tryItOut 289
Compiling threw: SyntaxError: invalid for/in left-hand side

tryItOut 290
Compiling threw: SyntaxError: syntax error

tryItOut 291
Compiling threw: SyntaxError: missing } in compound statement

tryItOut 292

tryItOut 293
Compiling threw: SyntaxError: missing ) in parenthetical

tryItOut 294

tryItOut 295

tryItOut 296
Running threw: TypeError: <y>
  <z/>
</y> is not a function

tryItOut 297
Compiling threw: SyntaxError: missing variable name

tryItOut 298
Running threw: function ([y]) {
}

tryItOut 299

tryItOut 300
Running threw: /x/

tryItOut 301
Compiling threw: SyntaxError: missing variable name

tryItOut 302
Compiling threw: SyntaxError: missing variable name

tryItOut 303
Compiling threw: SyntaxError: missing : after property id

tryItOut 304
Compiling threw: SyntaxError: missing ; after for-loop initializer

tryItOut 305
Compiling threw: SyntaxError: invalid assignment left-hand side

tryItOut 306

tryItOut 307
Compiling threw: SyntaxError: syntax error

tryItOut 308
Compiling threw: SyntaxError: missing variable name

tryItOut 309
Compiling threw: SyntaxError: missing ) in parenthetical

tryItOut 310
Compiling threw: SyntaxError: invalid for/in left-hand side

tryItOut 311
Compiling threw: SyntaxError: syntax error

tryItOut 312

tryItOut 313
Compiling threw: SyntaxError: missing variable name

tryItOut 314

tryItOut 315
Compiling threw: SyntaxError: invalid assignment left-hand side

tryItOut 316
Compiling threw: SyntaxError: invalid assignment left-hand side

tryItOut 317

tryItOut 318

tryItOut 319

tryItOut 320

tryItOut 321
Compiling threw: SyntaxError: missing variable name

tryItOut 322

tryItOut 323

tryItOut 324

tryItOut 325

tryItOut 326

tryItOut 327

tryItOut 328
Compiling threw: SyntaxError: invalid decrement operand

tryItOut 329

tryItOut 330
Compiling threw: SyntaxError: missing name in export statement

tryItOut 331

tryItOut 332
Compiling threw: SyntaxError: missing ) in parenthetical

tryItOut 333
Compiling threw: SyntaxError: invalid XML name

tryItOut 334

tryItOut 335

tryItOut 336

tryItOut 337

tryItOut 338

tryItOut 339

tryItOut 340

tryItOut 341

tryItOut 342
Compiling threw: SyntaxError: invalid for/in left-hand side

tryItOut 343

tryItOut 344

tryItOut 345

tryItOut 346
Compiling threw: TypeError: redeclaration of var prop

tryItOut 347

tryItOut 348
Compiling threw: SyntaxError: missing variable name

tryItOut 349
Compiling threw: SyntaxError: invalid for/in left-hand side

tryItOut 350

tryItOut 351

tryItOut 352

tryItOut 353
Compiling threw: SyntaxError: invalid assignment left-hand side

tryItOut 354
Compiling threw: SyntaxError: missing variable name

tryItOut 355
Compiling threw: SyntaxError: illegal XML character

tryItOut 356

tryItOut 357
Compiling threw: SyntaxError: missing variable name

tryItOut 358

tryItOut 359
Compiling threw: SyntaxError: missing variable name

tryItOut 360

tryItOut 361

tryItOut 362

tryItOut 363

tryItOut 364
Compiling threw: TypeError: redeclaration of const __parent__

tryItOut 365
Compiling threw: SyntaxError: missing variable name

tryItOut 366
Running threw: <x>
  <y/>
</x>

tryItOut 367
Compiling threw: SyntaxError: missing ) in parenthetical

tryItOut 368
Compiling threw: SyntaxError: missing variable name

tryItOut 369
Compiling threw: SyntaxError: missing = in destructuring declaration

tryItOut 370
Compiling threw: SyntaxError: missing ; before statement

tryItOut 371
Compiling threw: SyntaxError: invalid decrement operand

tryItOut 372
Compiling threw: SyntaxError: finally without try

tryItOut 373
Compiling threw: TypeError: redeclaration of variable __noSuchMethod__

tryItOut 374

tryItOut 375
Compiling threw: TypeError: redeclaration of const __count__

tryItOut 376
Compiling threw: SyntaxError: invalid for each loop

tryItOut 377
It's an iterator!
Iterating threw!
Iterating threw: TypeError: "" is not a constructor

tryItOut 378

tryItOut 379
Compiling threw: SyntaxError: invalid for/in left-hand side

tryItOut 380
Running threw: ReferenceError: __iterator__ is not defined

tryItOut 381
Compiling threw: SyntaxError: invalid for/in left-hand side

tryItOut 382
Compiling threw: SyntaxError: missing variable name

tryItOut 383

tryItOut 384
Compiling threw: SyntaxError: missing ] after element list

tryItOut 385
Running threw: Error: invalid sharp variable use #1#

tryItOut 386
Running threw: <x>
  <y/>
</x>

tryItOut 387
Compiling threw: SyntaxError: invalid assignment left-hand side

tryItOut 388
Running threw: ReferenceError: z1 is not defined

tryItOut 389
Compiling threw: SyntaxError: invalid for/in left-hand side

tryItOut 390
Compiling threw: SyntaxError: invalid sharp variable definition

tryItOut 391
Compiling threw: SyntaxError: syntax error

tryItOut 392
Compiling threw: SyntaxError: missing variable name

tryItOut 393

tryItOut 394
Compiling threw: TypeError: redeclaration of const __count__

tryItOut 395
Compiling threw: SyntaxError: missing { before function body

tryItOut 396

tryItOut 397

tryItOut 398
Compiling threw: SyntaxError: invalid for/in left-hand side

tryItOut 399

tryItOut 400

tryItOut 401
Compiling threw: SyntaxError: missing ) after formal parameters

tryItOut 402

tryItOut 403
Compiling threw: SyntaxError: missing { before function body

tryItOut 404

tryItOut 405
Compiling threw: SyntaxError: invalid for/in left-hand side

tryItOut 406

tryItOut 407

tryItOut 408
Compiling threw: SyntaxError: missing } after let block

tryItOut 409
Compiling threw: SyntaxError: missing ; after for-loop initializer

tryItOut 410

tryItOut 411

tryItOut 412

tryItOut 413

tryItOut 414

tryItOut 415

tryItOut 416
Compiling threw: SyntaxError: missing variable name

tryItOut 417

tryItOut 418

tryItOut 419
Compiling threw: SyntaxError: missing variable name

tryItOut 420
Compiling threw: SyntaxError: invalid for each loop

tryItOut 421
Compiling threw: SyntaxError: missing } after let block

tryItOut 422

tryItOut 423

tryItOut 424

tryItOut 425
Compiling threw: SyntaxError: missing variable name

tryItOut 426

tryItOut 427
Compiling threw: SyntaxError: missing ] after element list

tryItOut 428

tryItOut 429

tryItOut 430

tryItOut 431
Compiling threw: SyntaxError: missing variable name

tryItOut 432

tryItOut 433

tryItOut 434
Compiling threw: SyntaxError: invalid assignment left-hand side

tryItOut 435
Compiling threw: SyntaxError: missing formal parameter

tryItOut 436
Compiling threw: SyntaxError: syntax error

tryItOut 437
Compiling threw: SyntaxError: invalid increment operand

tryItOut 438
Compiling threw: SyntaxError: invalid for/in left-hand side

tryItOut 439

tryItOut 440

tryItOut 441
Compiling threw: SyntaxError: missing } after let block

tryItOut 442
Running threw: ReferenceError: __parent__ is not defined

tryItOut 443

tryItOut 444

tryItOut 445
Compiling threw: SyntaxError: missing variable name

tryItOut 446

tryItOut 447
Compiling threw: TypeError: redeclaration of variable __proto__

tryItOut 448
Compiling threw: SyntaxError: missing = in destructuring declaration

tryItOut 449
Compiling threw: TypeError: redeclaration of variable prop

tryItOut 450
Compiling threw: SyntaxError: missing variable name

tryItOut 451

tryItOut 452
Compiling threw: SyntaxError: missing variable name

tryItOut 453

tryItOut 454

tryItOut 455
Compiling threw: SyntaxError: missing variable name

tryItOut 456
Running threw: ReferenceError: z1 is not defined

tryItOut 457

tryItOut 458
Compiling threw: SyntaxError: missing variable name

tryItOut 459

tryItOut 460
Compiling threw: SyntaxError: invalid for/in left-hand side

tryItOut 461
Compiling threw: SyntaxError: syntax error

tryItOut 462
Compiling threw: SyntaxError: missing ] after element list

tryItOut 463
Compiling threw: TypeError: redeclaration of var constructor

tryItOut 464

tryItOut 465
Compiling threw: SyntaxError: missing variable name

tryItOut 466
Compiling threw: SyntaxError: missing variable name

tryItOut 467

tryItOut 468
Running threw: ReferenceError: __proto__ is not defined

tryItOut 469
Compiling threw: SyntaxError: missing variable name

tryItOut 470
Compiling threw: SyntaxError: invalid assignment left-hand side

tryItOut 471
Compiling threw: SyntaxError: syntax error

tryItOut 472

tryItOut 473

tryItOut 474

tryItOut 475
Compiling threw: SyntaxError: missing ] after element list

tryItOut 476
Compiling threw: SyntaxError: missing = in destructuring declaration

tryItOut 477
Compiling threw: SyntaxError: invalid XML name

tryItOut 478

tryItOut 479
Running threw: <y>
  <z/>
</y>

tryItOut 480

tryItOut 481
Compiling threw: SyntaxError: missing variable name

tryItOut 482

tryItOut 483

tryItOut 484

tryItOut 485
Compiling threw: SyntaxError: missing { before function body

tryItOut 486

tryItOut 487

tryItOut 488

tryItOut 489
Running threw: 

tryItOut 490

tryItOut 491

tryItOut 492

tryItOut 493

tryItOut 494
Compiling threw: SyntaxError: missing variable name

tryItOut 495
Compiling threw: SyntaxError: syntax error

tryItOut 496

tryItOut 497
Compiling threw: SyntaxError: missing = in destructuring declaration

tryItOut 498
Compiling threw: SyntaxError: invalid assignment left-hand side

tryItOut 499

tryItOut 500
Compiling threw: SyntaxError: missing ; after for-loop initializer

tryItOut 501
Compiling threw: SyntaxError: missing { before function body

tryItOut 502

tryItOut 503

tryItOut 504
Compiling threw: TypeError: redeclaration of variable __iterator__

tryItOut 505
Compiling threw: SyntaxError: invalid for/in left-hand side

tryItOut 506

tryItOut 507
Compiling threw: SyntaxError: syntax error

tryItOut 508

tryItOut 509
Compiling threw: SyntaxError: missing { before function body

tryItOut 510

tryItOut 511
Compiling threw: SyntaxError: missing { before function body

tryItOut 512
Compiling threw: SyntaxError: invalid for/in left-hand side

tryItOut 513
Compiling threw: SyntaxError: missing ) in parenthetical

tryItOut 514

tryItOut 515

tryItOut 516
Running threw: TypeError: arguments[0] has no properties

tryItOut 517
Compiling threw: SyntaxError: invalid for/in left-hand side

tryItOut 518
Compiling threw: TypeError: redeclaration of variable __iterator__

tryItOut 519
Compiling threw: SyntaxError: missing variable name

tryItOut 520

tryItOut 521

tryItOut 522
Compiling threw: SyntaxError: missing } after let block

tryItOut 523

tryItOut 524
Compiling threw: SyntaxError: missing variable name

tryItOut 525

tryItOut 526

tryItOut 527

tryItOut 528
Compiling threw: SyntaxError: missing variable name

tryItOut 529

tryItOut 530

tryItOut 531
Compiling threw: TypeError: redeclaration of variable __noSuchMethod__

tryItOut 532
Compiling threw: SyntaxError: invalid for/in left-hand side

tryItOut 533
Running threw: ReferenceError: z1 is not defined

tryItOut 534
Compiling threw: SyntaxError: missing variable name

tryItOut 535

tryItOut 536

tryItOut 537
Compiling threw: SyntaxError: invalid assignment left-hand side

tryItOut 538

tryItOut 539
Compiling threw: SyntaxError: invalid destructuring assignment operator

tryItOut 540

tryItOut 541

tryItOut 542

tryItOut 543
Running threw: ReferenceError: constructor is not defined

tryItOut 544

tryItOut 545

tryItOut 546

tryItOut 547

tryItOut 548
Compiling threw: SyntaxError: invalid decrement operand

tryItOut 549

tryItOut 550

tryItOut 551
Running threw: false

tryItOut 552
Compiling threw: SyntaxError: invalid default XML namespace

tryItOut 553

tryItOut 554

tryItOut 555

tryItOut 556

tryItOut 557
Compiling threw: SyntaxError: syntax error

tryItOut 558
Running threw: ReferenceError: constructor is not defined

tryItOut 559
Compiling threw: SyntaxError: missing name in export statement

tryItOut 560

tryItOut 561
Compiling threw: TypeError: redeclaration of const __count__

tryItOut 562

tryItOut 563
Compiling threw: SyntaxError: invalid decrement operand

tryItOut 564

tryItOut 565
Compiling threw: SyntaxError: missing } in XML expression

tryItOut 566
Compiling threw: SyntaxError: missing ; after for-loop initializer

tryItOut 567

tryItOut 568

tryItOut 569
Compiling threw: SyntaxError: syntax error

tryItOut 570

tryItOut 571

tryItOut 572
Compiling threw: SyntaxError: illegal XML character

tryItOut 573
Compiling threw: SyntaxError: invalid for/in left-hand side

tryItOut 574

tryItOut 575

tryItOut 576

tryItOut 577

tryItOut 578
Compiling threw: SyntaxError: invalid for each loop

tryItOut 579
Compiling threw: SyntaxError: syntax error

tryItOut 580
Compiling threw: SyntaxError: invalid increment operand

tryItOut 581
Compiling threw: SyntaxError: illegal XML character

tryItOut 582

tryItOut 583

tryItOut 584

tryItOut 585

tryItOut 586

tryItOut 587

tryItOut 588
Compiling threw: SyntaxError: invalid assignment left-hand side

tryItOut 589

tryItOut 590

tryItOut 591
Running threw: ReferenceError: constructor is not defined

tryItOut 592

tryItOut 593
Compiling threw: SyntaxError: missing { before function body

tryItOut 594
Compiling threw: SyntaxError: missing } in compound statement

tryItOut 595
Running threw: function anonymous() {
}

tryItOut 596

tryItOut 597

tryItOut 598
Compiling threw: SyntaxError: missing variable name

tryItOut 599
Compiling threw: SyntaxError: missing variable name

tryItOut 600
Compiling threw: SyntaxError: missing variable name

tryItOut 601

tryItOut 602

tryItOut 603

tryItOut 604
Compiling threw: SyntaxError: invalid for/in left-hand side

tryItOut 605
Compiling threw: SyntaxError: missing variable name

tryItOut 606

tryItOut 607

tryItOut 608

tryItOut 609

tryItOut 610
Compiling threw: TypeError: redeclaration of const constructor

tryItOut 611

tryItOut 612
Compiling threw: SyntaxError: syntax error

tryItOut 613
Compiling threw: SyntaxError: invalid for/in left-hand side

tryItOut 614
Running threw: ReferenceError: __iterator__ is not defined

tryItOut 615
Compiling threw: SyntaxError: invalid for/in left-hand side

tryItOut 616

tryItOut 617

tryItOut 618
Compiling threw: TypeError: redeclaration of variable constructor

tryItOut 619
Running threw: 

tryItOut 620
Running threw: ReferenceError: z2 is not defined

tryItOut 621

tryItOut 622
Compiling threw: SyntaxError: missing ) in parenthetical

tryItOut 623
Compiling threw: SyntaxError: missing { before function body

tryItOut 624
Running threw: ReferenceError: __iterator__ is not defined

tryItOut 625
Compiling threw: TypeError: redeclaration of const __count__

tryItOut 626

tryItOut 627
Compiling threw: SyntaxError: missing ; before statement

tryItOut 628
Compiling threw: SyntaxError: missing = in destructuring declaration

tryItOut 629

tryItOut 630
Compiling threw: TypeError: redeclaration of variable __count__

tryItOut 631
Compiling threw: SyntaxError: missing variable name

tryItOut 632
Compiling threw: SyntaxError: missing ) in parenthetical

tryItOut 633
Compiling threw: SyntaxError: missing variable name

tryItOut 634
Compiling threw: SyntaxError: missing variable name

tryItOut 635

tryItOut 636

tryItOut 637
Running threw: TypeError: <x/>.yoyo is not a function

tryItOut 638
Compiling threw: SyntaxError: invalid for/in left-hand side

tryItOut 639
Compiling threw: SyntaxError: invalid destructuring assignment operator

tryItOut 640
Compiling threw: TypeError: redeclaration of variable __proto__

tryItOut 641

tryItOut 642
Compiling threw: SyntaxError: invalid assignment left-hand side

tryItOut 643

tryItOut 644

tryItOut 645
Compiling threw: SyntaxError: missing variable name

tryItOut 646

tryItOut 647

tryItOut 648

tryItOut 649
Running threw: ReferenceError: constructor is not defined

tryItOut 650

tryItOut 651
Compiling threw: SyntaxError: missing ; after for-loop initializer

tryItOut 652

tryItOut 653

tryItOut 654
Compiling threw: SyntaxError: invalid for/in left-hand side

tryItOut 655

tryItOut 656

tryItOut 657
Compiling threw: TypeError: redeclaration of const __noSuchMethod__

tryItOut 658
Compiling threw: SyntaxError: syntax error

tryItOut 659
Running threw: TypeError: <x/> is not a function

tryItOut 660
Compiling threw: SyntaxError: unterminated parenthetical

tryItOut 661

tryItOut 662
Compiling threw: SyntaxError: missing ; before statement

tryItOut 663
Compiling threw: SyntaxError: missing variable name

tryItOut 664
Compiling threw: SyntaxError: invalid sharp variable definition

tryItOut 665

tryItOut 666
Compiling threw: SyntaxError: missing ) in parenthetical

tryItOut 667

tryItOut 668
Compiling threw: SyntaxError: missing { before function body

tryItOut 669
Compiling threw: SyntaxError: invalid XML name

tryItOut 670
Compiling threw: SyntaxError: invalid for/in left-hand side

tryItOut 671

tryItOut 672

tryItOut 673

tryItOut 674
Running threw: <y>
  <z/>
</y>

tryItOut 675
Compiling threw: SyntaxError: invalid for/in left-hand side

tryItOut 676

tryItOut 677
Compiling threw: SyntaxError: missing ) in parenthetical

tryItOut 678

tryItOut 679
Compiling threw: SyntaxError: missing ; after for-loop initializer

tryItOut 680

tryItOut 681

tryItOut 682
Compiling threw: SyntaxError: missing variable name

tryItOut 683

tryItOut 684
Compiling threw: SyntaxError: illegal XML character

tryItOut 685
Compiling threw: SyntaxError: missing { before function body

tryItOut 686

tryItOut 687
Compiling threw: SyntaxError: missing variable name

tryItOut 688
Compiling threw: SyntaxError: missing ) in parenthetical

tryItOut 689

tryItOut 690

tryItOut 691

tryItOut 692
Compiling threw: SyntaxError: missing variable name

tryItOut 693
Compiling threw: TypeError: redeclaration of const prototype

tryItOut 694

tryItOut 695

tryItOut 696
Compiling threw: SyntaxError: invalid for/in left-hand side

tryItOut 697

tryItOut 698
Compiling threw: TypeError: redeclaration of variable __count__

tryItOut 699

tryItOut 700
Compiling threw: SyntaxError: illegal XML character

tryItOut 701

tryItOut 702

tryItOut 703
Compiling threw: SyntaxError: invalid for/in left-hand side

tryItOut 704
Compiling threw: SyntaxError: invalid for/in left-hand side

tryItOut 705

tryItOut 706

tryItOut 707

tryItOut 708
Compiling threw: SyntaxError: invalid for/in left-hand side

tryItOut 709

tryItOut 710

tryItOut 711

tryItOut 712

tryItOut 713

tryItOut 714

tryItOut 715

tryItOut 716
Running threw: TypeError: <y>
  <z/>
</y> is not a constructor

tryItOut 717

tryItOut 718

tryItOut 719

tryItOut 720

tryItOut 721
Compiling threw: SyntaxError: missing ] after element list

tryItOut 722

tryItOut 723
Compiling threw: SyntaxError: missing ; after for-loop initializer

tryItOut 724
Compiling threw: SyntaxError: missing formal parameter

tryItOut 725
Compiling threw: SyntaxError: missing variable name

tryItOut 726

tryItOut 727
Compiling threw: SyntaxError: missing variable name

tryItOut 728

tryItOut 729
Compiling threw: SyntaxError: missing ) in parenthetical

tryItOut 730
Running threw: ReferenceError: z1 is not defined

tryItOut 731
Compiling threw: SyntaxError: invalid for/in left-hand side

tryItOut 732

tryItOut 733

tryItOut 734

tryItOut 735
Compiling threw: SyntaxError: syntax error

tryItOut 736

tryItOut 737
Compiling threw: SyntaxError: missing variable name

tryItOut 738
Compiling threw: SyntaxError: missing ] after element list

tryItOut 739
Compiling threw: SyntaxError: missing } after let block

tryItOut 740

tryItOut 741
Compiling threw: SyntaxError: invalid increment operand

tryItOut 742

tryItOut 743
Compiling threw: SyntaxError: syntax error

tryItOut 744

tryItOut 745

tryItOut 746
Compiling threw: SyntaxError: missing ; after for-loop initializer

tryItOut 747
Compiling threw: SyntaxError: missing { before function body

tryItOut 748
Compiling threw: SyntaxError: missing ) in parenthetical

tryItOut 749

tryItOut 750
Running threw: 

tryItOut 751
Compiling threw: SyntaxError: missing variable name

tryItOut 752

tryItOut 753

tryItOut 754
Compiling threw: SyntaxError: invalid assignment left-hand side

tryItOut 755

tryItOut 756

tryItOut 757
Compiling threw: SyntaxError: missing formal parameter

tryItOut 758

tryItOut 759
Compiling threw: SyntaxError: missing = in destructuring declaration

tryItOut 760
Compiling threw: SyntaxError: syntax error

tryItOut 761
Compiling threw: SyntaxError: missing { before function body

tryItOut 762

tryItOut 763

tryItOut 764
Compiling threw: SyntaxError: syntax error

tryItOut 765
Compiling threw: SyntaxError: invalid decrement operand

tryItOut 766
Compiling threw: SyntaxError: invalid for/in left-hand side

tryItOut 767

tryItOut 768

tryItOut 769

tryItOut 770

tryItOut 771

tryItOut 772

tryItOut 773

tryItOut 774
Compiling threw: SyntaxError: invalid assignment left-hand side

tryItOut 775
Running threw: ReferenceError: z1 is not defined

tryItOut 776
Running threw: TypeError: "" is not a constructor

tryItOut 777
Compiling threw: SyntaxError: syntax error

tryItOut 778
Compiling threw: SyntaxError: missing } after let block

tryItOut 779

tryItOut 780
Running threw: ReferenceError: z1 is not defined

tryItOut 781
Compiling threw: SyntaxError: missing variable name

tryItOut 782

tryItOut 783

tryItOut 784
Compiling threw: SyntaxError: missing variable name

tryItOut 785
Compiling threw: SyntaxError: missing variable name

tryItOut 786

tryItOut 787
Compiling threw: SyntaxError: missing variable name

tryItOut 788
Compiling threw: SyntaxError: unterminated comment

tryItOut 789
Compiling threw: SyntaxError: missing name in export statement

tryItOut 790
Compiling threw: SyntaxError: missing variable name

tryItOut 791
Compiling threw: SyntaxError: invalid increment operand

tryItOut 792
Compiling threw: SyntaxError: missing ; after for-loop initializer

tryItOut 793
Compiling threw: SyntaxError: missing } after let block

tryItOut 794
Compiling threw: SyntaxError: syntax error

tryItOut 795

tryItOut 796
Compiling threw: TypeError: redeclaration of var __parent__

tryItOut 797
Compiling threw: SyntaxError: missing variable name

tryItOut 798

tryItOut 799

tryItOut 800
Compiling threw: SyntaxError: invalid for each loop

tryItOut 801

tryItOut 802
Compiling threw: SyntaxError: missing { before function body

tryItOut 803

tryItOut 804

tryItOut 805
Compiling threw: SyntaxError: invalid for/in left-hand side

tryItOut 806
Running threw: /x/g

tryItOut 807
Compiling threw: SyntaxError: missing ; after for-loop initializer

tryItOut 808
Compiling threw: SyntaxError: invalid decrement operand

tryItOut 809

tryItOut 810
Compiling threw: SyntaxError: illegal XML character

tryItOut 811

tryItOut 812

tryItOut 813

tryItOut 814

tryItOut 815
Compiling threw: SyntaxError: syntax error

tryItOut 816
Compiling threw: SyntaxError: invalid XML name

tryItOut 817

tryItOut 818
Compiling threw: SyntaxError: syntax error

tryItOut 819
Compiling threw: SyntaxError: invalid XML name

tryItOut 820
Running threw: <x>
  <y/>
</x>

tryItOut 821

tryItOut 822
Compiling threw: SyntaxError: missing variable name

tryItOut 823

tryItOut 824

tryItOut 825
Compiling threw: SyntaxError: missing variable name

tryItOut 826
Compiling threw: SyntaxError: missing ) after condition

tryItOut 827

tryItOut 828
It's an iterator!
Iterating threw!
Iterating threw: SyntaxError: invalid assignment left-hand side

tryItOut 829

tryItOut 830
Compiling threw: SyntaxError: missing ) in parenthetical

tryItOut 831
Compiling threw: SyntaxError: missing variable name

tryItOut 832
Running threw: TypeError: "" is not a function

tryItOut 833
Compiling threw: SyntaxError: missing variable name

tryItOut 834
Compiling threw: SyntaxError: invalid for/in left-hand side

tryItOut 835

tryItOut 836

tryItOut 837

tryItOut 838
Running threw: TypeError: XML filtering predicate operator called on incompatible String

tryItOut 839

tryItOut 840

tryItOut 841
Compiling threw: SyntaxError: missing } in compound statement

tryItOut 842
Compiling threw: SyntaxError: missing variable name

tryItOut 843

tryItOut 844

tryItOut 845
Compiling threw: SyntaxError: missing variable name

tryItOut 846
Compiling threw: SyntaxError: missing = in destructuring declaration

tryItOut 847
Compiling threw: SyntaxError: missing ; before statement

tryItOut 848
Compiling threw: SyntaxError: syntax error

tryItOut 849
Running threw: ReferenceError: z2 is not defined

tryItOut 850
Compiling threw: SyntaxError: invalid assignment left-hand side

tryItOut 851
Compiling threw: SyntaxError: missing { before function body

tryItOut 852

tryItOut 853
Compiling threw: SyntaxError: missing variable name

tryItOut 854
Compiling threw: SyntaxError: missing variable name

tryItOut 855
Running threw: <x>
  <y/>
</x>

tryItOut 856
Running threw: <x>
  <y/>
</x>

tryItOut 857
Compiling threw: SyntaxError: missing variable name

tryItOut 858

tryItOut 859
Compiling threw: SyntaxError: invalid for/in left-hand side

tryItOut 860
Compiling threw: SyntaxError: invalid for/in left-hand side

tryItOut 861

tryItOut 862

tryItOut 863

tryItOut 864

tryItOut 865

tryItOut 866
Compiling threw: SyntaxError: invalid for/in left-hand side

tryItOut 867
Compiling threw: SyntaxError: missing { before function body

tryItOut 868

tryItOut 869
Running threw: [object Object]

tryItOut 870

tryItOut 871
Compiling threw: SyntaxError: invalid for/in left-hand side

tryItOut 872
Running threw: ReferenceError: constructor is not defined

tryItOut 873
Compiling threw: SyntaxError: missing variable name

tryItOut 874

tryItOut 875

tryItOut 876

tryItOut 877
Compiling threw: SyntaxError: invalid assignment left-hand side

tryItOut 878

tryItOut 879

tryItOut 880

tryItOut 881
Compiling threw: SyntaxError: missing } after let block

tryItOut 882

tryItOut 883

tryItOut 884
Compiling threw: SyntaxError: invalid for/in left-hand side

tryItOut 885

tryItOut 886

tryItOut 887

tryItOut 888
Compiling threw: SyntaxError: missing variable name

tryItOut 889

tryItOut 890
Compiling threw: SyntaxError: missing variable name

tryItOut 891

tryItOut 892
Compiling threw: SyntaxError: invalid for/in left-hand side

tryItOut 893

tryItOut 894
Running threw: [object Object]

tryItOut 895

tryItOut 896

tryItOut 897
Compiling threw: TypeError: redeclaration of variable prop

tryItOut 898

tryItOut 899
Compiling threw: SyntaxError: invalid for/in left-hand side

tryItOut 900

tryItOut 901

tryItOut 902
Compiling threw: SyntaxError: syntax error

tryItOut 903
Compiling threw: TypeError: redeclaration of variable __parent__

tryItOut 904
Compiling threw: SyntaxError: missing variable name

tryItOut 905
Compiling threw: TypeError: redeclaration of variable prototype

tryItOut 906

tryItOut 907
Compiling threw: SyntaxError: illegal XML character

tryItOut 908
Compiling threw: SyntaxError: missing variable name

tryItOut 909
Compiling threw: SyntaxError: invalid XML name

tryItOut 910

tryItOut 911
Compiling threw: SyntaxError: invalid for/in left-hand side

tryItOut 912
It's an iterator!
Iterating threw!
Iterating threw: InternalError: yield not yet supported from filtering predicate

tryItOut 913

tryItOut 914
Compiling threw: SyntaxError: missing variable name

tryItOut 915

tryItOut 916
Compiling threw: SyntaxError: syntax error

tryItOut 917

tryItOut 918

tryItOut 919
Compiling threw: TypeError: redeclaration of const prototype

tryItOut 920
Compiling threw: SyntaxError: invalid for/in left-hand side

tryItOut 921

tryItOut 922

tryItOut 923

tryItOut 924

tryItOut 925

tryItOut 926

tryItOut 927
Compiling threw: SyntaxError: missing variable name

tryItOut 928

tryItOut 929

tryItOut 930
Compiling threw: SyntaxError: missing ; before statement

tryItOut 931
Compiling threw: SyntaxError: invalid assignment left-hand side

tryItOut 932
Compiling threw: SyntaxError: missing variable name

tryItOut 933

tryItOut 934

tryItOut 935

tryItOut 936

tryItOut 937

tryItOut 938
Compiling threw: SyntaxError: missing } in XML expression

tryItOut 939

tryItOut 940
Compiling threw: SyntaxError: invalid destructuring assignment operator

tryItOut 941

tryItOut 942

tryItOut 943
Compiling threw: SyntaxError: illegal XML character

tryItOut 944
Compiling threw: SyntaxError: missing ) in parenthetical

tryItOut 945
Running threw: function pow() {
    [native code]
}

tryItOut 946
Compiling threw: SyntaxError: missing ( before let head

tryItOut 947
Compiling threw: SyntaxError: syntax error

tryItOut 948

tryItOut 949

tryItOut 950
Compiling threw: SyntaxError: syntax error

tryItOut 951
Compiling threw: SyntaxError: missing } in compound statement

tryItOut 952

tryItOut 953
Compiling threw: SyntaxError: missing : after property id

tryItOut 954

tryItOut 955
Running threw: TypeError: this.__defineGetter__ is not a function

tryItOut 956
Running threw: ReferenceError: Exception is not defined

tryItOut 957

tryItOut 958
Compiling threw: SyntaxError: syntax error

tryItOut 959

tryItOut 960

tryItOut 961
Compiling threw: SyntaxError: missing name after . operator

tryItOut 962
Compiling threw: SyntaxError: missing } after let block

tryItOut 963
It's an iterator!
Iterating threw!
Iterating threw: TypeError: <x/>['throw'] is not a function

tryItOut 964
Compiling threw: SyntaxError: missing ) in parenthetical

tryItOut 965
Compiling threw: SyntaxError: invalid assignment left-hand side

tryItOut 966
Compiling threw: TypeError: redeclaration of var __noSuchMethod__

tryItOut 967

tryItOut 968
Compiling threw: SyntaxError: missing ) in parenthetical

tryItOut 969
Compiling threw: SyntaxError: syntax error

tryItOut 970

tryItOut 971
Compiling threw: SyntaxError: missing ) in parenthetical

tryItOut 972

tryItOut 973

tryItOut 974
Compiling threw: SyntaxError: missing { before function body

tryItOut 975
Compiling threw: TypeError: redeclaration of variable __proto__

tryItOut 976

tryItOut 977
Compiling threw: SyntaxError: missing } in compound statement

tryItOut 978
Compiling threw: SyntaxError: missing ] after element list

tryItOut 979

tryItOut 980
Compiling threw: SyntaxError: invalid for each loop

tryItOut 981
Compiling threw: SyntaxError: missing variable name

tryItOut 982

tryItOut 983

tryItOut 984

tryItOut 985

tryItOut 986

tryItOut 987
Compiling threw: SyntaxError: invalid assignment left-hand side

tryItOut 988

tryItOut 989

tryItOut 990
Compiling threw: SyntaxError: missing ) in parenthetical

tryItOut 991

tryItOut 992

tryItOut 993
Compiling threw: TypeError: redeclaration of variable __noSuchMethod__

tryItOut 994
Running threw: Error: invalid sharp variable use #1#

tryItOut 995
Compiling threw: SyntaxError: missing variable name

tryItOut 996

tryItOut 997
Compiling threw: SyntaxError: missing variable name

tryItOut 998
Compiling threw: SyntaxError: missing variable name

tryItOut 999
Compiling threw: SyntaxError: invalid for/in left-hand side

tryItOut 1000

ALL OK

Script done on Sat 04 May 2013 06:03:40 AM PDT
