Script started on Sat 04 May 2013 04:51:20 AM PDT
***
Targeting SpiderMonkey / Gecko.

tryItOut 1
Compiling threw: SyntaxError: missing ; before statement

tryItOut 2

tryItOut 3
Compiling threw: SyntaxError: missing ; before statement

tryItOut 4
Compiling threw: SyntaxError: illegal XML character

tryItOut 5
Compiling threw: SyntaxError: invalid assignment left-hand side

tryItOut 6

tryItOut 7

tryItOut 8
Compiling threw: SyntaxError: missing variable name

tryItOut 9

tryItOut 10
Compiling threw: SyntaxError: missing variable name

tryItOut 11
Compiling threw: SyntaxError: missing } after let block

tryItOut 12

tryItOut 13

tryItOut 14
Compiling threw: SyntaxError: missing ; before statement

tryItOut 15
Compiling threw: SyntaxError: missing variable name

tryItOut 16
Compiling threw: SyntaxError: missing variable name

tryItOut 17
Running threw: ReferenceError: window is not defined

tryItOut 18
Compiling threw: SyntaxError: label not found

tryItOut 19
Compiling threw: SyntaxError: missing ; after for-loop initializer

tryItOut 20
Compiling threw: TypeError: redeclaration of const __noSuchMethod__

tryItOut 21

tryItOut 22

tryItOut 23

tryItOut 24

tryItOut 25
Compiling threw: SyntaxError: invalid XML tag syntax

tryItOut 26
Running threw: ReferenceError: __noSuchMethod__ is not defined

tryItOut 27
Compiling threw: SyntaxError: invalid continue

tryItOut 28

tryItOut 29
Compiling threw: SyntaxError: missing variable name

tryItOut 30

tryItOut 31

tryItOut 32

tryItOut 33

tryItOut 34
Compiling threw: SyntaxError: missing } after let block

tryItOut 35
Compiling threw: SyntaxError: missing ) in parenthetical

tryItOut 36
Compiling threw: SyntaxError: missing ; before statement

tryItOut 37

tryItOut 38
Compiling threw: SyntaxError: missing variable name

tryItOut 39
Running threw: ReferenceError: __iterator__ is not defined

tryItOut 40

tryItOut 41
Running threw: TypeError: this.zzz has no properties

tryItOut 42
Running threw: ReferenceError: __iterator__ is not defined

tryItOut 43
Compiling threw: SyntaxError: missing ) after condition

tryItOut 44
Running threw: ReferenceError: prototype is not defined

tryItOut 45

tryItOut 46

tryItOut 47
before 87200, after 87200, break 01f4b000
Running threw: Error: invalid sharp variable use #1#

tryItOut 48
Compiling threw: SyntaxError: invalid for/in left-hand side

tryItOut 49
Compiling threw: SyntaxError: invalid for/in left-hand side

tryItOut 50

tryItOut 51
Running threw: ReferenceError: __iterator__ is not defined

tryItOut 52
Compiling threw: SyntaxError: missing ; before statement

tryItOut 53
Compiling threw: SyntaxError: missing variable name

tryItOut 54

tryItOut 55

tryItOut 56

tryItOut 57
Compiling threw: SyntaxError: missing variable name

tryItOut 58

tryItOut 59
Compiling threw: SyntaxError: missing ) in parenthetical

tryItOut 60
Running threw: ReferenceError: window is not defined

tryItOut 61

tryItOut 62
Compiling threw: SyntaxError: missing : after property id

tryItOut 63
Compiling threw: SyntaxError: missing ) in parenthetical

tryItOut 64
Compiling threw: SyntaxError: missing variable name

tryItOut 65
Compiling threw: SyntaxError: label not found

tryItOut 66

tryItOut 67

tryItOut 68
Compiling threw: SyntaxError: missing ; before statement

tryItOut 69
Running threw: [object StopIteration]

tryItOut 70

tryItOut 71

tryItOut 72

tryItOut 73

tryItOut 74

tryItOut 75
Compiling threw: SyntaxError: missing : after property id

tryItOut 76
Compiling threw: SyntaxError: missing ) in parenthetical

tryItOut 77
Compiling threw: SyntaxError: missing = in destructuring declaration

tryItOut 78
Compiling threw: SyntaxError: label not found

tryItOut 79
Compiling threw: SyntaxError: invalid break

tryItOut 80

tryItOut 81
Compiling threw: SyntaxError: missing variable name

tryItOut 82
Running threw: ReferenceError: reference to undefined XML name @mozilla.org/js/function::prototype

tryItOut 83
Compiling threw: SyntaxError: missing = in destructuring declaration

tryItOut 84
Compiling threw: SyntaxError: syntax error

tryItOut 85

tryItOut 86

tryItOut 87

tryItOut 88
Compiling threw: SyntaxError: invalid for/in left-hand side

tryItOut 89
Running threw: TypeError: this.zzz has no properties

tryItOut 90

tryItOut 91
It's an iterator!
Iterating threw!
Iterating threw: Error: invalid sharp variable definition #0=

tryItOut 92

tryItOut 93
Compiling threw: SyntaxError: invalid XML list syntax

tryItOut 94
Compiling threw: SyntaxError: missing variable name

tryItOut 95
Compiling threw: SyntaxError: missing ) in parenthetical

tryItOut 96

tryItOut 97
Compiling threw: SyntaxError: syntax error

tryItOut 98
Compiling threw: SyntaxError: invalid XML list syntax

tryItOut 99

tryItOut 100
Running threw: TypeError: this.zzz has no properties

tryItOut 101

tryItOut 102
Compiling threw: SyntaxError: missing ) in parenthetical

tryItOut 103
Compiling threw: SyntaxError: invalid for/in left-hand side

tryItOut 104
Compiling threw: TypeError: redeclaration of const prototype

tryItOut 105
Compiling threw: SyntaxError: missing } after let block

tryItOut 106
Running threw: ReferenceError: window is not defined

tryItOut 107
Compiling threw: SyntaxError: missing ) in parenthetical

tryItOut 108
Compiling threw: SyntaxError: invalid for/in left-hand side

tryItOut 109
Compiling threw: TypeError: redeclaration of const prototype

tryItOut 110
Compiling threw: SyntaxError: missing variable name

tryItOut 111
Compiling threw: SyntaxError: missing ; after for-loop initializer

tryItOut 112
Compiling threw: SyntaxError: missing ) in parenthetical

tryItOut 113
Running threw: ReferenceError: __iterator__ is not defined

tryItOut 114
Running threw: [object StopIteration]

tryItOut 115
Running threw: ReferenceError: prop is not defined

tryItOut 116

tryItOut 117

tryItOut 118

tryItOut 119

tryItOut 120
Compiling threw: SyntaxError: invalid property id

tryItOut 121

tryItOut 122
Compiling threw: SyntaxError: missing variable name

tryItOut 123
Compiling threw: TypeError: redeclaration of const __iterator__

tryItOut 124

tryItOut 125

tryItOut 126
It's an iterator!
Iterating threw!
Iterating threw: ReferenceError: __noSuchMethod__ is not defined

tryItOut 127
Compiling threw: SyntaxError: missing ; before statement

tryItOut 128

tryItOut 129

tryItOut 130

tryItOut 131

tryItOut 132

tryItOut 133

tryItOut 134
Compiling threw: SyntaxError: missing } after let block

tryItOut 135
Compiling threw: SyntaxError: missing ; before statement

tryItOut 136
Running threw: TypeError: this.zzz has no properties

tryItOut 137

tryItOut 138

tryItOut 139
Compiling threw: SyntaxError: invalid destructuring assignment operator

tryItOut 140
Running threw: ReferenceError: window is not defined

tryItOut 141
Compiling threw: SyntaxError: invalid assignment left-hand side

tryItOut 142

tryItOut 143

tryItOut 144
Running threw: TypeError: this.zzz has no properties

tryItOut 145
Compiling threw: SyntaxError: missing ) in parenthetical

tryItOut 146
Compiling threw: SyntaxError: missing ; before statement

tryItOut 147
Compiling threw: SyntaxError: invalid for/in left-hand side

tryItOut 148

tryItOut 149
Compiling threw: SyntaxError: missing ) in parenthetical

tryItOut 150
Running threw: ReferenceError: window is not defined

tryItOut 151
Running threw: [object StopIteration]

tryItOut 152
Running threw: TypeError: prop has no properties

tryItOut 153

tryItOut 154

tryItOut 155
Compiling threw: SyntaxError: invalid destructuring assignment operator

tryItOut 156

tryItOut 157
Running threw: TypeError: this.zzz has no properties

tryItOut 158

tryItOut 159
Compiling threw: SyntaxError: missing variable name

tryItOut 160
Compiling threw: SyntaxError: missing variable name

tryItOut 161
Compiling threw: SyntaxError: missing = in destructuring declaration

tryItOut 162
Running threw: ReferenceError: __noSuchMethod__ is not defined

tryItOut 163
Compiling threw: SyntaxError: missing variable name

tryItOut 164
Compiling threw: SyntaxError: missing : after property id

tryItOut 165
Compiling threw: SyntaxError: missing variable name

tryItOut 166
Running threw: TypeError: redeclaration of var __count__

tryItOut 167
Compiling threw: SyntaxError: invalid for each loop

tryItOut 168
Compiling threw: SyntaxError: label not found

tryItOut 169

tryItOut 170

tryItOut 171
Compiling threw: SyntaxError: missing = in destructuring declaration

tryItOut 172

tryItOut 173

tryItOut 174

tryItOut 175

tryItOut 176

tryItOut 177
Compiling threw: SyntaxError: missing ) in parenthetical

tryItOut 178
Compiling threw: SyntaxError: syntax error

tryItOut 179
Compiling threw: SyntaxError: missing variable name

tryItOut 180
Compiling threw: TypeError: redeclaration of variable __iterator__

tryItOut 181
Compiling threw: SyntaxError: syntax error

tryItOut 182

tryItOut 183
Running threw: ReferenceError: z1 is not defined

tryItOut 184

tryItOut 185
Compiling threw: SyntaxError: missing ) in parenthetical

tryItOut 186

tryItOut 187
Compiling threw: SyntaxError: missing } after let block

tryItOut 188
Compiling threw: SyntaxError: label not found

tryItOut 189
Running threw: ReferenceError: prototype is not defined

tryItOut 190
Compiling threw: SyntaxError: missing ) in parenthetical

tryItOut 191
Compiling threw: SyntaxError: label not found

tryItOut 192
Compiling threw: SyntaxError: invalid XML name

tryItOut 193
Compiling threw: SyntaxError: missing ; after for-loop initializer

tryItOut 194
Compiling threw: SyntaxError: invalid for/in left-hand side

tryItOut 195
Compiling threw: SyntaxError: missing ) after condition

tryItOut 196
Compiling threw: SyntaxError: missing ) after argument list

tryItOut 197
Running threw: ReferenceError: __noSuchMethod__ is not defined

tryItOut 198
Compiling threw: SyntaxError: label not found

tryItOut 199
Compiling threw: SyntaxError: label not found

tryItOut 200

tryItOut 201
Compiling threw: SyntaxError: missing { before function body

tryItOut 202
Compiling threw: SyntaxError: missing ) in parenthetical

tryItOut 203
Compiling threw: SyntaxError: syntax error

tryItOut 204
Compiling threw: SyntaxError: missing ; before statement

tryItOut 205

tryItOut 206
Compiling threw: SyntaxError: missing ) in parenthetical

tryItOut 207

tryItOut 208

tryItOut 209
Compiling threw: SyntaxError: invalid assignment left-hand side

tryItOut 210
Running threw: TypeError: arguments[0] has no properties

tryItOut 211
Running threw: Error: invalid sharp variable use #1#

tryItOut 212
It's an iterator!
Iterating threw!
Iterating threw: ReferenceError: window is not defined

tryItOut 213

tryItOut 214
Compiling threw: SyntaxError: missing ; before statement

tryItOut 215
Compiling threw: SyntaxError: illegal XML character

tryItOut 216

tryItOut 217
Compiling threw: SyntaxError: invalid for/in left-hand side

tryItOut 218

tryItOut 219
Compiling threw: SyntaxError: invalid for/in left-hand side

tryItOut 220
Compiling threw: SyntaxError: illegal XML character

tryItOut 221

tryItOut 222
Running threw: [object StopIteration]

tryItOut 223
Compiling threw: SyntaxError: invalid for/in left-hand side

tryItOut 224

tryItOut 225
Compiling threw: SyntaxError: missing variable name

tryItOut 226

tryItOut 227
Compiling threw: SyntaxError: syntax error

tryItOut 228
Compiling threw: SyntaxError: invalid XML name

tryItOut 229
Compiling threw: SyntaxError: syntax error

tryItOut 230
Compiling threw: SyntaxError: label not found

tryItOut 231
Compiling threw: TypeError: redeclaration of var __proto__

tryItOut 232
Compiling threw: SyntaxError: missing variable name

tryItOut 233
Compiling threw: SyntaxError: missing variable name

tryItOut 234

tryItOut 235
Compiling threw: SyntaxError: missing variable name

tryItOut 236

tryItOut 237
Compiling threw: SyntaxError: invalid assignment left-hand side

tryItOut 238

tryItOut 239
Compiling threw: SyntaxError: missing ; before statement

tryItOut 240
Compiling threw: SyntaxError: invalid XML name

tryItOut 241
Compiling threw: SyntaxError: missing } after let block

tryItOut 242

tryItOut 243
Compiling threw: SyntaxError: label not found

tryItOut 244
Compiling threw: TypeError: redeclaration of const __proto__

tryItOut 245

tryItOut 246

tryItOut 247
Compiling threw: SyntaxError: invalid continue

tryItOut 248

tryItOut 249
Compiling threw: TypeError: redeclaration of variable constructor

tryItOut 250

tryItOut 251
Running threw: [object StopIteration]

tryItOut 252

tryItOut 253
Compiling threw: SyntaxError: missing ) in parenthetical

tryItOut 254
Compiling threw: SyntaxError: missing ; before statement

tryItOut 255
Compiling threw: SyntaxError: invalid for each loop

tryItOut 256
Compiling threw: TypeError: redeclaration of const __count__

tryItOut 257

tryItOut 258

tryItOut 259

tryItOut 260
Compiling threw: SyntaxError: missing ] after element list

tryItOut 261

tryItOut 262
Compiling threw: SyntaxError: invalid for/in left-hand side

tryItOut 263
Compiling threw: SyntaxError: syntax error

tryItOut 264
It's an iterator!
Iterating succeeded, iterCount == 1

tryItOut 265
Running threw: ReferenceError: window is not defined

tryItOut 266
Running threw: ReferenceError: z1 is not defined

tryItOut 267
Compiling threw: SyntaxError: missing variable name

tryItOut 268
Compiling threw: SyntaxError: invalid XML name

tryItOut 269
Compiling threw: SyntaxError: illegal XML character

tryItOut 270
Compiling threw: SyntaxError: missing variable name

tryItOut 271

tryItOut 272

tryItOut 273

tryItOut 274
Compiling threw: SyntaxError: missing variable name

tryItOut 275
Compiling threw: SyntaxError: missing variable name

tryItOut 276
Compiling threw: SyntaxError: missing ; after for-loop initializer

tryItOut 277
Running threw: ReferenceError: window is not defined

tryItOut 278
Compiling threw: SyntaxError: missing name in export statement

tryItOut 279
Compiling threw: SyntaxError: syntax error

tryItOut 280
Compiling threw: SyntaxError: invalid for/in left-hand side

tryItOut 281

tryItOut 282

tryItOut 283
Compiling threw: SyntaxError: invalid assignment left-hand side

tryItOut 284
Compiling threw: SyntaxError: illegal XML character

tryItOut 285

tryItOut 286
Compiling threw: SyntaxError: invalid for/in left-hand side

tryItOut 287
Compiling threw: SyntaxError: missing ; after for-loop initializer

tryItOut 288

tryItOut 289
Compiling threw: SyntaxError: missing name after . operator

tryItOut 290
Running threw: [object StopIteration]

tryItOut 291

tryItOut 292
Compiling threw: SyntaxError: invalid variable initialization

tryItOut 293

tryItOut 294
Compiling threw: SyntaxError: invalid break

tryItOut 295
Compiling threw: SyntaxError: missing variable name

tryItOut 296
Compiling threw: SyntaxError: missing variable name

tryItOut 297
Compiling threw: SyntaxError: invalid default XML namespace

tryItOut 298

tryItOut 299

tryItOut 300
Compiling threw: SyntaxError: invalid assignment left-hand side

tryItOut 301
Compiling threw: SyntaxError: illegal XML character

tryItOut 302

tryItOut 303

tryItOut 304
Compiling threw: SyntaxError: syntax error

tryItOut 305
Compiling threw: SyntaxError: label not found

tryItOut 306
Compiling threw: SyntaxError: invalid XML tag syntax

tryItOut 307
Compiling threw: SyntaxError: invalid for/in left-hand side

tryItOut 308

tryItOut 309

tryItOut 310
Running threw: TypeError: this.zzz has no properties

tryItOut 311
Running threw: ReferenceError: prototype is not defined

tryItOut 312
Compiling threw: SyntaxError: syntax error

tryItOut 313
Running threw: TypeError: this.zzz has no properties

tryItOut 314

tryItOut 315

tryItOut 316
Compiling threw: SyntaxError: missing variable name

tryItOut 317
Running threw: ReferenceError: z2 is not defined

tryItOut 318
Compiling threw: SyntaxError: missing ) in parenthetical

tryItOut 319
Compiling threw: SyntaxError: missing variable name

tryItOut 320
Compiling threw: SyntaxError: invalid for/in left-hand side

tryItOut 321
Running threw: [object StopIteration]

tryItOut 322
Running threw: ReferenceError: z1 is not defined

tryItOut 323
Compiling threw: SyntaxError: invalid for/in left-hand side

tryItOut 324
It's an iterator!
Iterating succeeded, iterCount == 1

tryItOut 325
Running threw: ReferenceError: window is not defined

tryItOut 326
Compiling threw: SyntaxError: missing ; after for-loop initializer

tryItOut 327

tryItOut 328
Compiling threw: SyntaxError: invalid for/in left-hand side

tryItOut 329
Running threw: [object StopIteration]

tryItOut 330
Compiling threw: SyntaxError: label not found

tryItOut 331
Compiling threw: SyntaxError: missing variable name

tryItOut 332
Running threw: TypeError: this.zzz has no properties

tryItOut 333

tryItOut 334
Compiling threw: SyntaxError: missing ; after for-loop initializer

tryItOut 335
Compiling threw: SyntaxError: missing ) in parenthetical

tryItOut 336

tryItOut 337

tryItOut 338

tryItOut 339
Running threw: TypeError: this.zzz has no properties

tryItOut 340
Running threw: [object StopIteration]

tryItOut 341
Compiling threw: SyntaxError: syntax error

tryItOut 342
Compiling threw: SyntaxError: syntax error

tryItOut 343
Compiling threw: SyntaxError: missing = in destructuring declaration

tryItOut 344

tryItOut 345
Compiling threw: SyntaxError: invalid default XML namespace

tryItOut 346

tryItOut 347
Compiling threw: SyntaxError: missing } after let block

tryItOut 348

tryItOut 349
Compiling threw: SyntaxError: missing } in XML expression

tryItOut 350
Compiling threw: SyntaxError: invalid for/in left-hand side

tryItOut 351

tryItOut 352
Compiling threw: SyntaxError: invalid for/in left-hand side

tryItOut 353
Compiling threw: SyntaxError: invalid continue

tryItOut 354

tryItOut 355
Compiling threw: SyntaxError: missing = in destructuring declaration

tryItOut 356
Compiling threw: SyntaxError: invalid for/in left-hand side

tryItOut 357

tryItOut 358
Compiling threw: SyntaxError: invalid destructuring assignment operator

tryItOut 359
Running threw: ReferenceError: prototype is not defined

tryItOut 360
Compiling threw: SyntaxError: syntax error

tryItOut 361
Compiling threw: SyntaxError: missing ; before statement

tryItOut 362

tryItOut 363

tryItOut 364
Compiling threw: SyntaxError: missing ; before statement

tryItOut 365

tryItOut 366
Compiling threw: SyntaxError: invalid assignment left-hand side

tryItOut 367
Running threw: Error: invalid sharp variable use #1#

tryItOut 368
Compiling threw: SyntaxError: missing variable name

tryItOut 369
Compiling threw: SyntaxError: missing ) in parenthetical

tryItOut 370
Compiling threw: SyntaxError: missing ) in parenthetical

tryItOut 371

tryItOut 372
It's an iterator!
Iterating threw!
Iterating threw: TypeError: XML filtering predicate operator called on incompatible Number

tryItOut 373

tryItOut 374
Running threw: ReferenceError: window is not defined

tryItOut 375
Running threw: TypeError: this.zzz has no properties

tryItOut 376
Compiling threw: SyntaxError: missing variable name

tryItOut 377
Compiling threw: SyntaxError: missing variable name

tryItOut 378

tryItOut 379

tryItOut 380
Compiling threw: SyntaxError: missing variable name

tryItOut 381
Running threw: TypeError: prop has no properties

tryItOut 382
Compiling threw: SyntaxError: missing ) in parenthetical

tryItOut 383
Compiling threw: SyntaxError: missing ; after for-loop initializer

tryItOut 384

tryItOut 385

tryItOut 386
Compiling threw: SyntaxError: invalid for/in left-hand side

tryItOut 387
Compiling threw: SyntaxError: missing } after let block

tryItOut 388
Compiling threw: SyntaxError: invalid for/in left-hand side

tryItOut 389
Compiling threw: TypeError: redeclaration of var __iterator__

tryItOut 390
Compiling threw: SyntaxError: invalid for/in left-hand side

tryItOut 391
Compiling threw: SyntaxError: missing ) in parenthetical

tryItOut 392

tryItOut 393
Running threw: ReferenceError: __noSuchMethod__ is not defined

tryItOut 394
Compiling threw: SyntaxError: missing ) in parenthetical

tryItOut 395
Running threw: ReferenceError: __noSuchMethod__ is not defined

tryItOut 396

tryItOut 397

tryItOut 398
Compiling threw: SyntaxError: syntax error

tryItOut 399
Compiling threw: SyntaxError: missing variable name

tryItOut 400

tryItOut 401
Compiling threw: SyntaxError: invalid for/in left-hand side

tryItOut 402
Compiling threw: SyntaxError: label not found

tryItOut 403

tryItOut 404
Running threw: ReferenceError: window is not defined

tryItOut 405
Running threw: ReferenceError: window is not defined

tryItOut 406
Compiling threw: SyntaxError: invalid assignment left-hand side

tryItOut 407

tryItOut 408
Compiling threw: SyntaxError: label not found

tryItOut 409
Compiling threw: SyntaxError: missing ) in parenthetical

tryItOut 410
Running threw: [object StopIteration]

tryItOut 411
Compiling threw: SyntaxError: syntax error

tryItOut 412
Running threw: TypeError: this.zzz has no properties

tryItOut 413
Compiling threw: SyntaxError: missing ; before statement

tryItOut 414
Compiling threw: SyntaxError: missing ; before statement

tryItOut 415

tryItOut 416

tryItOut 417

tryItOut 418

tryItOut 419
Compiling threw: SyntaxError: invalid for/in left-hand side

tryItOut 420

tryItOut 421
Compiling threw: SyntaxError: missing : after property id

tryItOut 422
Running threw: TypeError: this.zzz has no properties

tryItOut 423

tryItOut 424

tryItOut 425
Running threw: ReferenceError: window is not defined

tryItOut 426
Compiling threw: TypeError: redeclaration of var __proto__

tryItOut 427
Compiling threw: SyntaxError: missing variable name

tryItOut 428
Compiling threw: SyntaxError: syntax error

tryItOut 429

tryItOut 430
Compiling threw: SyntaxError: missing variable name

tryItOut 431
Running threw: [object StopIteration]

tryItOut 432
Compiling threw: SyntaxError: syntax error

tryItOut 433
Compiling threw: SyntaxError: missing ; before statement

tryItOut 434

tryItOut 435

tryItOut 436
Compiling threw: SyntaxError: missing variable name

tryItOut 437
Compiling threw: SyntaxError: illegal XML character

tryItOut 438
Compiling threw: SyntaxError: syntax error

tryItOut 439
Running threw: ReferenceError: __noSuchMethod__ is not defined

tryItOut 440
Compiling threw: SyntaxError: duplicate label

tryItOut 441
Running threw: [object StopIteration]

tryItOut 442
Compiling threw: SyntaxError: syntax error

tryItOut 443
Compiling threw: SyntaxError: missing ) in parenthetical

tryItOut 444
Compiling threw: SyntaxError: invalid for/in left-hand side

tryItOut 445

tryItOut 446
Compiling threw: SyntaxError: missing variable name

tryItOut 447
Compiling threw: SyntaxError: missing variable name

tryItOut 448
Compiling threw: SyntaxError: missing variable name

tryItOut 449
Compiling threw: SyntaxError: invalid break

tryItOut 450

tryItOut 451
Compiling threw: SyntaxError: invalid for/in left-hand side

tryItOut 452

tryItOut 453
Compiling threw: SyntaxError: illegal XML character

tryItOut 454
Compiling threw: SyntaxError: missing ; before statement

tryItOut 455
Running threw: [object StopIteration]

tryItOut 456
Compiling threw: TypeError: redeclaration of variable constructor

tryItOut 457
It's an iterator!
Iterating threw!
Iterating threw: ReferenceError: window is not defined

tryItOut 458
Compiling threw: SyntaxError: missing name in export statement

tryItOut 459

tryItOut 460
Compiling threw: SyntaxError: missing = in destructuring declaration

tryItOut 461
Compiling threw: SyntaxError: missing ) in parenthetical

tryItOut 462
It's an iterator!
Iterating succeeded, iterCount == 1

tryItOut 463
It's an iterator!
Iterating threw!
Iterating threw: ReferenceError: window is not defined

tryItOut 464
Compiling threw: SyntaxError: invalid for/in left-hand side

tryItOut 465

tryItOut 466

tryItOut 467
Running threw: ReferenceError: prototype is not defined

tryItOut 468

tryItOut 469
Compiling threw: SyntaxError: missing = in destructuring declaration

tryItOut 470
Compiling threw: SyntaxError: missing ) in parenthetical

tryItOut 471
Compiling threw: SyntaxError: syntax error

tryItOut 472

tryItOut 473
Compiling threw: SyntaxError: missing variable name

tryItOut 474
Compiling threw: SyntaxError: syntax error

tryItOut 475

tryItOut 476
Compiling threw: SyntaxError: missing ] after element list

tryItOut 477
Running threw: ReferenceError: window is not defined

tryItOut 478

tryItOut 479
Compiling threw: SyntaxError: label not found

tryItOut 480

tryItOut 481

tryItOut 482

tryItOut 483
Compiling threw: SyntaxError: missing name in export statement

tryItOut 484
Compiling threw: SyntaxError: missing variable name

tryItOut 485
Running threw: [object StopIteration]

tryItOut 486

tryItOut 487
Compiling threw: SyntaxError: label not found

tryItOut 488

tryItOut 489
Compiling threw: SyntaxError: syntax error

tryItOut 490

tryItOut 491

tryItOut 492
Compiling threw: SyntaxError: missing ; before statement

tryItOut 493

tryItOut 494

tryItOut 495
Compiling threw: SyntaxError: missing ; before statement

tryItOut 496

tryItOut 497
Compiling threw: SyntaxError: label not found

tryItOut 498
Compiling threw: SyntaxError: label not found

tryItOut 499
Compiling threw: SyntaxError: invalid assignment left-hand side

tryItOut 500

tryItOut 501

tryItOut 502

tryItOut 503
Compiling threw: SyntaxError: invalid for/in left-hand side

tryItOut 504

tryItOut 505

tryItOut 506
Compiling threw: SyntaxError: label not found

tryItOut 507
Compiling threw: SyntaxError: missing ; before statement

tryItOut 508

tryItOut 509
Compiling threw: SyntaxError: syntax error

tryItOut 510

tryItOut 511

tryItOut 512
Compiling threw: SyntaxError: invalid for/in left-hand side

tryItOut 513

tryItOut 514

tryItOut 515
Compiling threw: SyntaxError: illegal XML character

tryItOut 516

tryItOut 517

tryItOut 518

tryItOut 519

tryItOut 520
Compiling threw: SyntaxError: label not found

tryItOut 521

tryItOut 522
Compiling threw: SyntaxError: missing variable name

tryItOut 523

tryItOut 524
Compiling threw: SyntaxError: missing } after let block

tryItOut 525
Compiling threw: SyntaxError: syntax error

tryItOut 526

tryItOut 527
Compiling threw: SyntaxError: missing : after property id

tryItOut 528
Compiling threw: SyntaxError: missing variable name

tryItOut 529
Compiling threw: SyntaxError: syntax error

tryItOut 530
Compiling threw: SyntaxError: missing } after let block

tryItOut 531

tryItOut 532

tryItOut 533
Compiling threw: SyntaxError: missing formal parameter

tryItOut 534
Compiling threw: SyntaxError: duplicate label

tryItOut 535

tryItOut 536

tryItOut 537

tryItOut 538
It's an iterator!
Iterating succeeded, iterCount == 1

tryItOut 539

tryItOut 540
Compiling threw: SyntaxError: invalid for/in left-hand side

tryItOut 541

tryItOut 542
Running threw: TypeError: this.zzz has no properties

tryItOut 543
Compiling threw: SyntaxError: missing variable name

tryItOut 544

tryItOut 545

tryItOut 546
Compiling threw: SyntaxError: invalid assignment left-hand side

tryItOut 547
Compiling threw: SyntaxError: syntax error

tryItOut 548
Compiling threw: SyntaxError: label not found

tryItOut 549

tryItOut 550

tryItOut 551
Compiling threw: SyntaxError: missing } after property list

tryItOut 552
Compiling threw: SyntaxError: label not found

tryItOut 553
Compiling threw: SyntaxError: missing ) in parenthetical

tryItOut 554

tryItOut 555
Compiling threw: SyntaxError: duplicate label

tryItOut 556
Compiling threw: SyntaxError: missing ) after condition

tryItOut 557
Compiling threw: SyntaxError: invalid for/in left-hand side

tryItOut 558
Compiling threw: SyntaxError: syntax error

tryItOut 559
Running threw: [object StopIteration]

tryItOut 560
Compiling threw: SyntaxError: invalid for/in left-hand side

tryItOut 561
Compiling threw: SyntaxError: missing ; after for-loop initializer

tryItOut 562
Compiling threw: SyntaxError: missing ) in parenthetical

tryItOut 563

tryItOut 564

tryItOut 565
Compiling threw: SyntaxError: invalid assignment left-hand side

tryItOut 566

tryItOut 567
Compiling threw: SyntaxError: label not found

tryItOut 568
Compiling threw: TypeError: redeclaration of var __parent__

tryItOut 569
Compiling threw: SyntaxError: label not found

tryItOut 570
Compiling threw: SyntaxError: missing ; after for-loop initializer

tryItOut 571
Compiling threw: SyntaxError: syntax error

tryItOut 572
Compiling threw: SyntaxError: missing ) in parenthetical

tryItOut 573
Compiling threw: SyntaxError: missing variable name

tryItOut 574
Compiling threw: SyntaxError: missing = in destructuring declaration

tryItOut 575

tryItOut 576
Compiling threw: SyntaxError: invalid continue

tryItOut 577

tryItOut 578

tryItOut 579
Compiling threw: SyntaxError: label not found

tryItOut 580
Compiling threw: SyntaxError: invalid for/in left-hand side

tryItOut 581

tryItOut 582

tryItOut 583
Running threw: TypeError: this.zzz has no properties

tryItOut 584
Compiling threw: SyntaxError: invalid assignment left-hand side

tryItOut 585

tryItOut 586

tryItOut 587

tryItOut 588
Compiling threw: SyntaxError: syntax error

tryItOut 589

tryItOut 590
Compiling threw: SyntaxError: missing variable name

tryItOut 591
Compiling threw: SyntaxError: missing ) in parenthetical

tryItOut 592

tryItOut 593
Compiling threw: SyntaxError: missing variable name

tryItOut 594

tryItOut 595

tryItOut 596

tryItOut 597
Compiling threw: SyntaxError: missing variable name

tryItOut 598
Compiling threw: SyntaxError: missing variable name

tryItOut 599
Compiling threw: SyntaxError: missing variable name

tryItOut 600
Compiling threw: SyntaxError: missing ) in parenthetical

tryItOut 601
Compiling threw: SyntaxError: missing ) in parenthetical

tryItOut 602

tryItOut 603

tryItOut 604
Compiling threw: SyntaxError: unmatched ) in regular expression

tryItOut 605
Compiling threw: SyntaxError: missing variable name

tryItOut 606

tryItOut 607

tryItOut 608

tryItOut 609

tryItOut 610
Compiling threw: SyntaxError: missing ) after condition

tryItOut 611
Compiling threw: SyntaxError: missing variable name

tryItOut 612
Compiling threw: SyntaxError: missing ) after condition

tryItOut 613

tryItOut 614
Running threw: ReferenceError: yyy is not defined

tryItOut 615

tryItOut 616

tryItOut 617
Running threw: ReferenceError: window is not defined

tryItOut 618
Compiling threw: SyntaxError: missing variable name

tryItOut 619
Compiling threw: SyntaxError: syntax error

tryItOut 620
It's an iterator!
Iterating succeeded, iterCount == 1

tryItOut 621

tryItOut 622
Compiling threw: SyntaxError: syntax error

tryItOut 623
Compiling threw: SyntaxError: missing ; after for-loop initializer

tryItOut 624
Compiling threw: SyntaxError: missing variable name

tryItOut 625

tryItOut 626

tryItOut 627

tryItOut 628
Compiling threw: SyntaxError: invalid for/in left-hand side

tryItOut 629
Compiling threw: SyntaxError: illegal character

tryItOut 630

tryItOut 631
Compiling threw: SyntaxError: missing = in destructuring declaration

tryItOut 632
Compiling threw: SyntaxError: syntax error

tryItOut 633
Compiling threw: SyntaxError: missing variable name

tryItOut 634
Compiling threw: SyntaxError: invalid for/in left-hand side

tryItOut 635
Compiling threw: SyntaxError: missing ; after for-loop initializer

tryItOut 636
Compiling threw: SyntaxError: missing : after property id

tryItOut 637

tryItOut 638
Compiling threw: SyntaxError: missing } after let block

tryItOut 639

tryItOut 640
It's an iterator!
Iterating threw!
Iterating threw: TypeError: <x>
  <y/>
</x> is not a constructor

tryItOut 641

tryItOut 642

tryItOut 643

tryItOut 644
Compiling threw: SyntaxError: invalid for/in left-hand side

tryItOut 645
Compiling threw: SyntaxError: invalid property id

tryItOut 646

tryItOut 647

tryItOut 648
Running threw: ReferenceError: __noSuchMethod__ is not defined

tryItOut 649
Running threw: TypeError: this.zzz has no properties

tryItOut 650

tryItOut 651
Running threw: [object StopIteration]

tryItOut 652

tryItOut 653
Compiling threw: SyntaxError: label not found

tryItOut 654
Running threw: TypeError: p.z = prop is not a function

tryItOut 655

tryItOut 656
Compiling threw: SyntaxError: syntax error

tryItOut 657

tryItOut 658
Running threw: TypeError: this.zzz has no properties

tryItOut 659

tryItOut 660
Compiling threw: SyntaxError: invalid for/in left-hand side

tryItOut 661
Compiling threw: SyntaxError: missing variable name

tryItOut 662
Compiling threw: SyntaxError: label not found

tryItOut 663
Compiling threw: SyntaxError: invalid for/in left-hand side

tryItOut 664
Compiling threw: TypeError: redeclaration of variable __proto__

tryItOut 665

tryItOut 666
Compiling threw: SyntaxError: missing variable name

tryItOut 667

tryItOut 668
Compiling threw: SyntaxError: missing variable name

tryItOut 669
Running threw: ReferenceError: __noSuchMethod__ is not defined

tryItOut 670

tryItOut 671
Compiling threw: SyntaxError: missing variable name

tryItOut 672
Compiling threw: SyntaxError: invalid for/in left-hand side

tryItOut 673

tryItOut 674

tryItOut 675
Compiling threw: SyntaxError: invalid property id

tryItOut 676
Compiling threw: SyntaxError: invalid XML name

tryItOut 677

tryItOut 678

tryItOut 679

tryItOut 680
Compiling threw: SyntaxError: missing variable name

tryItOut 681

tryItOut 682

tryItOut 683
Compiling threw: SyntaxError: label not found

tryItOut 684

tryItOut 685
Running threw: ReferenceError: z1 is not defined

tryItOut 686
Compiling threw: SyntaxError: illegal XML character

tryItOut 687

tryItOut 688
Compiling threw: SyntaxError: missing variable name

tryItOut 689

tryItOut 690
Compiling threw: SyntaxError: invalid break

tryItOut 691

tryItOut 692

tryItOut 693
Compiling threw: SyntaxError: invalid for/in left-hand side

tryItOut 694
Compiling threw: SyntaxError: missing ) in parenthetical

tryItOut 695
Compiling threw: SyntaxError: missing = in destructuring declaration

tryItOut 696
Compiling threw: SyntaxError: syntax error

tryItOut 697
Compiling threw: SyntaxError: missing ; after for-loop initializer

tryItOut 698
Compiling threw: SyntaxError: syntax error

tryItOut 699
Compiling threw: SyntaxError: invalid for each loop

tryItOut 700

tryItOut 701
Compiling threw: SyntaxError: invalid for/in left-hand side

tryItOut 702

tryItOut 703
Compiling threw: SyntaxError: missing variable name

tryItOut 704
Running threw: TypeError: this.zzz has no properties

tryItOut 705
Compiling threw: SyntaxError: invalid sharp variable definition

tryItOut 706
Compiling threw: SyntaxError: missing variable name

tryItOut 707
Compiling threw: SyntaxError: missing ; after for-loop initializer

tryItOut 708

tryItOut 709
Compiling threw: SyntaxError: missing variable name

tryItOut 710

tryItOut 711
Running threw: ReferenceError: __noSuchMethod__ is not defined

tryItOut 712

tryItOut 713
Compiling threw: SyntaxError: invalid for/in left-hand side

tryItOut 714
Running threw: TypeError: this.zzz has no properties

tryItOut 715

tryItOut 716
Compiling threw: SyntaxError: missing variable name

tryItOut 717
Compiling threw: SyntaxError: invalid continue

tryItOut 718

tryItOut 719
Compiling threw: SyntaxError: invalid for/in left-hand side

tryItOut 720
Compiling threw: SyntaxError: invalid continue

tryItOut 721
Compiling threw: SyntaxError: syntax error

tryItOut 722
Compiling threw: SyntaxError: syntax error

tryItOut 723
Compiling threw: TypeError: redeclaration of const __proto__

tryItOut 724
Compiling threw: TypeError: redeclaration of const __noSuchMethod__

tryItOut 725
Compiling threw: SyntaxError: invalid for/in left-hand side

tryItOut 726
Running threw: ReferenceError: __noSuchMethod__ is not defined

tryItOut 727
Compiling threw: SyntaxError: label not found

tryItOut 728
Compiling threw: SyntaxError: missing } in compound statement

tryItOut 729
Compiling threw: SyntaxError: label not found

tryItOut 730

tryItOut 731
Compiling threw: SyntaxError: missing } after let block

tryItOut 732
Running threw: [object StopIteration]

tryItOut 733

tryItOut 734
Compiling threw: SyntaxError: syntax error

tryItOut 735
Compiling threw: SyntaxError: invalid for/in left-hand side

tryItOut 736
Compiling threw: SyntaxError: missing ) in parenthetical

tryItOut 737

tryItOut 738
Compiling threw: SyntaxError: missing ) in parenthetical

tryItOut 739

tryItOut 740
Compiling threw: SyntaxError: invalid XML list syntax

tryItOut 741
Compiling threw: SyntaxError: missing : after property id

tryItOut 742
Compiling threw: SyntaxError: invalid for/in left-hand side

tryItOut 743

tryItOut 744
Compiling threw: SyntaxError: missing ; before statement

tryItOut 745
Compiling threw: SyntaxError: missing } after let block

tryItOut 746

tryItOut 747
Compiling threw: SyntaxError: missing ) in parenthetical

tryItOut 748
Compiling threw: SyntaxError: illegal XML character

tryItOut 749
Compiling threw: SyntaxError: illegal XML character

tryItOut 750
Compiling threw: SyntaxError: missing variable name

tryItOut 751
Compiling threw: SyntaxError: missing ) after argument list

tryItOut 752
Running threw: TypeError: this.zzz has no properties

tryItOut 753
Compiling threw: SyntaxError: missing ; after for-loop initializer

tryItOut 754
Compiling threw: SyntaxError: missing ) in parenthetical

tryItOut 755
Compiling threw: SyntaxError: missing ; before statement

tryItOut 756
Compiling threw: SyntaxError: missing variable name

tryItOut 757
Compiling threw: SyntaxError: invalid XML name

tryItOut 758
Compiling threw: SyntaxError: missing ) in parenthetical

tryItOut 759
Compiling threw: SyntaxError: label not found

tryItOut 760
Running threw: TypeError: this.zzz has no properties

tryItOut 761

tryItOut 762

tryItOut 763
Compiling threw: SyntaxError: missing variable name

tryItOut 764
Compiling threw: SyntaxError: missing { before function body

tryItOut 765

tryItOut 766
Compiling threw: SyntaxError: missing = in destructuring declaration

tryItOut 767

tryItOut 768
Compiling threw: SyntaxError: missing variable name

tryItOut 769
Compiling threw: SyntaxError: missing } after property list

tryItOut 770
Compiling threw: SyntaxError: missing ; after for-loop initializer

tryItOut 771

tryItOut 772
Compiling threw: SyntaxError: missing variable name

tryItOut 773
Running threw: TypeError: this.zzz has no properties

tryItOut 774

tryItOut 775

tryItOut 776

tryItOut 777
Running threw: TypeError: this.zzz has no properties

tryItOut 778
Compiling threw: SyntaxError: invalid for/in left-hand side

tryItOut 779
Compiling threw: SyntaxError: invalid continue

tryItOut 780

tryItOut 781
Running threw: ReferenceError: window is not defined

tryItOut 782
Compiling threw: SyntaxError: missing ) in parenthetical

tryItOut 783

tryItOut 784
Compiling threw: SyntaxError: duplicate label

tryItOut 785
Compiling threw: SyntaxError: syntax error

tryItOut 786
Compiling threw: SyntaxError: missing ) in parenthetical

tryItOut 787
Compiling threw: SyntaxError: invalid for each loop

tryItOut 788

tryItOut 789

tryItOut 790
Compiling threw: SyntaxError: missing = in destructuring declaration

tryItOut 791
Running threw: TypeError: this.zzz has no properties

tryItOut 792

tryItOut 793
Compiling threw: SyntaxError: invalid for/in left-hand side

tryItOut 794
Running threw: [object StopIteration]

tryItOut 795

tryItOut 796

tryItOut 797
Running threw: TypeError: this.zzz has no properties

tryItOut 798
Compiling threw: SyntaxError: invalid XML name

tryItOut 799

tryItOut 800
Compiling threw: SyntaxError: missing ( before let head

tryItOut 801
Running threw: TypeError: XML.prototype.toString called on incompatible global

tryItOut 802
Running threw: ReferenceError: window is not defined

tryItOut 803
Compiling threw: SyntaxError: syntax error

tryItOut 804

tryItOut 805
Compiling threw: SyntaxError: invalid for/in left-hand side

tryItOut 806
Running threw: TypeError: invalid 'in' operand prototype

tryItOut 807
It's an iterator!
Iterating succeeded, iterCount == 1

tryItOut 808

tryItOut 809

tryItOut 810

tryItOut 811
Compiling threw: SyntaxError: missing variable name

tryItOut 812
Compiling threw: SyntaxError: missing = in destructuring declaration

tryItOut 813

tryItOut 814
Running threw: ReferenceError: window is not defined

tryItOut 815
Compiling threw: SyntaxError: missing ) in parenthetical

tryItOut 816
Running threw: ReferenceError: window is not defined

tryItOut 817
Compiling threw: SyntaxError: missing ; before statement

tryItOut 818
Compiling threw: SyntaxError: missing variable name

tryItOut 819
Running threw: [object StopIteration]

tryItOut 820

tryItOut 821
Compiling threw: SyntaxError: missing ) in parenthetical

tryItOut 822

tryItOut 823
Compiling threw: SyntaxError: illegal XML character

tryItOut 824
Compiling threw: SyntaxError: invalid for/in left-hand side

tryItOut 825

tryItOut 826
Compiling threw: SyntaxError: missing ; before statement

tryItOut 827
Compiling threw: SyntaxError: missing variable name

tryItOut 828
It's an iterator!
Iterating threw!
Iterating threw: TypeError: p.z = __proto__ = constructor is not a function

tryItOut 829
Compiling threw: SyntaxError: invalid for/in left-hand side

tryItOut 830
It's an iterator!
Iterating succeeded, iterCount == 1

tryItOut 831
Compiling threw: SyntaxError: invalid for/in left-hand side

tryItOut 832
It's an iterator!
Iterating succeeded, iterCount == 2

tryItOut 833
Compiling threw: SyntaxError: invalid for/in left-hand side

tryItOut 834

tryItOut 835

tryItOut 836

tryItOut 837

tryItOut 838

tryItOut 839

tryItOut 840
Compiling threw: SyntaxError: syntax error

tryItOut 841

tryItOut 842

tryItOut 843

tryItOut 844

tryItOut 845
Compiling threw: SyntaxError: missing variable name

tryItOut 846
Running threw: ReferenceError: window is not defined

tryItOut 847

tryItOut 848
Compiling threw: SyntaxError: missing = in destructuring declaration

tryItOut 849
Compiling threw: SyntaxError: invalid for/in left-hand side

tryItOut 850
Compiling threw: SyntaxError: missing ) in parenthetical

tryItOut 851

tryItOut 852

tryItOut 853

tryItOut 854
Compiling threw: SyntaxError: invalid for/in left-hand side

tryItOut 855
Compiling threw: SyntaxError: invalid for/in left-hand side

tryItOut 856

tryItOut 857
Compiling threw: SyntaxError: invalid assignment left-hand side

tryItOut 858
Compiling threw: SyntaxError: label not found

tryItOut 859
It's an iterator!
Iterating succeeded, iterCount == 1

tryItOut 860
Compiling threw: SyntaxError: missing ] after element list

tryItOut 861
Compiling threw: SyntaxError: missing variable name

tryItOut 862

tryItOut 863
Running threw: TypeError: this.zzz has no properties

tryItOut 864
Compiling threw: SyntaxError: label not found

tryItOut 865
Compiling threw: SyntaxError: invalid XML tag syntax

tryItOut 866
Compiling threw: SyntaxError: label not found

tryItOut 867
Running threw: [object StopIteration]

tryItOut 868

tryItOut 869

tryItOut 870
Compiling threw: SyntaxError: missing ) after condition

tryItOut 871
Running threw: TypeError: XML.prototype.propertyIsEnumerable called on incompatible global

tryItOut 872
Compiling threw: SyntaxError: syntax error

tryItOut 873
Compiling threw: SyntaxError: label not found

tryItOut 874

tryItOut 875
Compiling threw: SyntaxError: label not found

tryItOut 876
Compiling threw: SyntaxError: missing } after let block

tryItOut 877
Compiling threw: SyntaxError: syntax error

tryItOut 878
Compiling threw: SyntaxError: missing ; after for-loop initializer

tryItOut 879

tryItOut 880
Compiling threw: SyntaxError: missing ) in parenthetical

tryItOut 881

tryItOut 882
Compiling threw: SyntaxError: missing ) in parenthetical

tryItOut 883
Compiling threw: SyntaxError: missing variable name

tryItOut 884
Compiling threw: SyntaxError: syntax error

tryItOut 885
Compiling threw: TypeError: redeclaration of const prop

tryItOut 886
Compiling threw: SyntaxError: syntax error

tryItOut 887

tryItOut 888

tryItOut 889
Compiling threw: SyntaxError: label not found

tryItOut 890

tryItOut 891
Running threw: [object StopIteration]

tryItOut 892
Compiling threw: SyntaxError: label not found

tryItOut 893

tryItOut 894
Compiling threw: SyntaxError: missing ; before statement

tryItOut 895
Compiling threw: SyntaxError: invalid for/in left-hand side

tryItOut 896

tryItOut 897
Compiling threw: SyntaxError: missing { before function body

tryItOut 898

tryItOut 899
Compiling threw: SyntaxError: invalid for/in left-hand side

tryItOut 900

tryItOut 901
Compiling threw: SyntaxError: missing } after property list

tryItOut 902
Compiling threw: SyntaxError: missing ; after for-loop initializer

tryItOut 903

tryItOut 904

tryItOut 905
Compiling threw: SyntaxError: missing = in destructuring declaration

tryItOut 906
Compiling threw: SyntaxError: unterminated string literal

tryItOut 907
Compiling threw: SyntaxError: illegal XML character

tryItOut 908
Compiling threw: SyntaxError: missing } in compound statement

tryItOut 909

tryItOut 910

tryItOut 911

tryItOut 912
Compiling threw: SyntaxError: missing variable name

tryItOut 913

tryItOut 914
Compiling threw: SyntaxError: syntax error

tryItOut 915

tryItOut 916
Compiling threw: SyntaxError: missing variable name

tryItOut 917
Compiling threw: SyntaxError: missing variable name

tryItOut 918

tryItOut 919
Compiling threw: SyntaxError: invalid for/in left-hand side

tryItOut 920
Compiling threw: SyntaxError: missing variable name

tryItOut 921

tryItOut 922

tryItOut 923
Compiling threw: SyntaxError: missing ] after element list

tryItOut 924
Compiling threw: TypeError: redeclaration of variable __iterator__

tryItOut 925
Compiling threw: SyntaxError: missing variable name

tryItOut 926

tryItOut 927

tryItOut 928
Compiling threw: SyntaxError: invalid assignment left-hand side

tryItOut 929
Compiling threw: SyntaxError: missing ) in parenthetical

tryItOut 930
Running threw: TypeError: this.zzz has no properties

tryItOut 931

tryItOut 932
Compiling threw: SyntaxError: syntax error

tryItOut 933

tryItOut 934
Compiling threw: SyntaxError: missing = in destructuring declaration

tryItOut 935

tryItOut 936

tryItOut 937

tryItOut 938

tryItOut 939
Compiling threw: SyntaxError: missing variable name

tryItOut 940
Compiling threw: SyntaxError: label not found

tryItOut 941

tryItOut 942
Running threw: TypeError: this.zzz has no properties

tryItOut 943
Compiling threw: SyntaxError: invalid assignment left-hand side

tryItOut 944
Compiling threw: SyntaxError: missing ; before statement

tryItOut 945

tryItOut 946

tryItOut 947
Compiling threw: SyntaxError: invalid assignment left-hand side

tryItOut 948
Compiling threw: TypeError: redeclaration of const __count__

tryItOut 949
Compiling threw: SyntaxError: invalid continue

tryItOut 950
Compiling threw: SyntaxError: illegal XML character

tryItOut 951

tryItOut 952
Compiling threw: SyntaxError: missing ) in parenthetical

tryItOut 953
Compiling threw: SyntaxError: missing ) after condition

tryItOut 954
Compiling threw: SyntaxError: invalid for/in left-hand side

tryItOut 955
Compiling threw: SyntaxError: label not found

tryItOut 956
Compiling threw: SyntaxError: syntax error

tryItOut 957
Compiling threw: SyntaxError: illegal XML character

tryItOut 958

tryItOut 959
Compiling threw: SyntaxError: missing ) in parenthetical

tryItOut 960

tryItOut 961

tryItOut 962

tryItOut 963
Compiling threw: SyntaxError: missing ; before statement

tryItOut 964
Compiling threw: SyntaxError: illegal XML character

tryItOut 965
Compiling threw: SyntaxError: invalid for/in left-hand side

tryItOut 966

tryItOut 967
Compiling threw: SyntaxError: missing variable name

tryItOut 968

tryItOut 969
Compiling threw: SyntaxError: missing ; before statement

tryItOut 970
Running threw: TypeError: this.zzz has no properties

tryItOut 971

tryItOut 972
Running threw: TypeError: this.zzz has no properties

tryItOut 973

tryItOut 974

tryItOut 975
Compiling threw: SyntaxError: missing ) after argument list

tryItOut 976

tryItOut 977

tryItOut 978

tryItOut 979
Compiling threw: SyntaxError: invalid default XML namespace

tryItOut 980

tryItOut 981
Compiling threw: SyntaxError: invalid assignment left-hand side

tryItOut 982
Compiling threw: SyntaxError: missing ; after for-loop initializer

tryItOut 983
Compiling threw: SyntaxError: invalid for/in left-hand side

tryItOut 984

tryItOut 985
Compiling threw: SyntaxError: missing } after let block

tryItOut 986
Compiling threw: SyntaxError: missing variable name

tryItOut 987
Compiling threw: TypeError: redeclaration of const __noSuchMethod__

tryItOut 988
Compiling threw: SyntaxError: missing ] after element list

tryItOut 989
Compiling threw: SyntaxError: invalid break

tryItOut 990
Compiling threw: SyntaxError: missing ) after condition

tryItOut 991
Compiling threw: SyntaxError: missing ; before statement

tryItOut 992
Running threw: TypeError: this.zzz has no properties

tryItOut 993

tryItOut 994
Compiling threw: SyntaxError: missing } after let block

tryItOut 995
Compiling threw: SyntaxError: missing variable name

tryItOut 996

tryItOut 997

tryItOut 998
Compiling threw: SyntaxError: missing = in destructuring declaration

tryItOut 999
Compiling threw: SyntaxError: missing ) in parenthetical

tryItOut 1000
Compiling threw: SyntaxError: illegal XML character

ALL OK

Script done on Sat 04 May 2013 04:51:20 AM PDT
