Script started on Sat 04 May 2013 06:11:32 AM PDT
***
Targeting SpiderMonkey / Gecko.

tryItOut 1

tryItOut 2
Compiling threw: SyntaxError: syntax error

tryItOut 3
Compiling threw: SyntaxError: missing ) in parenthetical

tryItOut 4

tryItOut 5

tryItOut 6
Compiling threw: SyntaxError: missing ) after condition

tryItOut 7

tryItOut 8
Compiling threw: SyntaxError: missing variable name

tryItOut 9

tryItOut 10
Compiling threw: SyntaxError: invalid default XML namespace

tryItOut 11
It's an iterator!
Iterating threw!
Iterating threw: ReferenceError: reference to undefined property "prototype"

tryItOut 12

tryItOut 13
Compiling threw: SyntaxError: invalid increment operand

tryItOut 14

tryItOut 15
Compiling threw: SyntaxError: label not found

tryItOut 16

tryItOut 17
Running threw: ReferenceError: reference to undefined XML name *::*

tryItOut 18

tryItOut 19

tryItOut 20
Compiling threw: SyntaxError: invalid increment operand

tryItOut 21

tryItOut 22

tryItOut 23

tryItOut 24
Compiling threw: SyntaxError: duplicate label

tryItOut 25
It's an iterator!
Iterating threw!
Iterating threw: ReferenceError: each is not defined

tryItOut 26
Compiling threw: TypeError: redeclaration of const prop

tryItOut 27
Compiling threw: SyntaxError: invalid assignment left-hand side

tryItOut 28
Compiling threw: SyntaxError: invalid continue

tryItOut 29

tryItOut 30

tryItOut 31
Running threw: ReferenceError: reference to undefined XML name @foo

tryItOut 32
It's an iterator!
Iterating threw!
Iterating threw: ReferenceError: window is not defined

tryItOut 33
Compiling threw: SyntaxError: label not found

tryItOut 34

tryItOut 35
Running threw: ReferenceError: reference to undefined XML name *::*

tryItOut 36

tryItOut 37
Compiling threw: SyntaxError: invalid continue

tryItOut 38
Compiling threw: SyntaxError: missing ) in parenthetical

tryItOut 39
Compiling threw: SyntaxError: missing variable name

tryItOut 40

tryItOut 41
Compiling threw: SyntaxError: invalid assignment left-hand side

tryItOut 42
It's an iterator!
Iterating threw!
Iterating threw: TypeError: __parent__ has no properties

tryItOut 43

tryItOut 44
Compiling threw: SyntaxError: missing ) in parenthetical

tryItOut 45
Compiling threw: SyntaxError: missing : after property id

tryItOut 46
Compiling threw: SyntaxError: syntax error

tryItOut 47

tryItOut 48
Compiling threw: SyntaxError: missing { before function body

tryItOut 49

tryItOut 50
Compiling threw: SyntaxError: missing ) in parenthetical

tryItOut 51

tryItOut 52
Compiling threw: SyntaxError: missing { before function body

tryItOut 53
Compiling threw: SyntaxError: missing variable name

tryItOut 54
Compiling threw: TypeError: redeclaration of var __proto__

tryItOut 55
Compiling threw: SyntaxError: syntax error

tryItOut 56
Compiling threw: SyntaxError: missing ) in parenthetical

tryItOut 57
Running threw: ReferenceError: reference to undefined XML name *

tryItOut 58

tryItOut 59
Compiling threw: SyntaxError: invalid default XML namespace

tryItOut 60
Running threw: ReferenceError: reference to undefined XML name @foo

tryItOut 61

tryItOut 62

tryItOut 63

tryItOut 64

tryItOut 65

tryItOut 66

tryItOut 67
It's an iterator!
Iterating succeeded, iterCount == 1

tryItOut 68
Compiling threw: SyntaxError: invalid assignment left-hand side

tryItOut 69

tryItOut 70
Compiling threw: SyntaxError: invalid assignment left-hand side

tryItOut 71
Running threw: SyntaxError: invalid setter usage

tryItOut 72

tryItOut 73

tryItOut 74

tryItOut 75

tryItOut 76
Compiling threw: SyntaxError: missing ) after argument list

tryItOut 77
Compiling threw: SyntaxError: missing ) in parenthetical

tryItOut 78
Compiling threw: TypeError: redeclaration of variable prop

tryItOut 79
Compiling threw: SyntaxError: missing ) in parenthetical

tryItOut 80
It's an iterator!
Iterating succeeded, iterCount == 1

tryItOut 81

tryItOut 82

tryItOut 83

tryItOut 84
Compiling threw: SyntaxError: label not found

tryItOut 85

tryItOut 86
Compiling threw: SyntaxError: syntax error

tryItOut 87
Compiling threw: SyntaxError: invalid assignment left-hand side

tryItOut 88
Compiling threw: SyntaxError: label not found

tryItOut 89

tryItOut 90
It's an iterator!
Iterating succeeded, iterCount == 2

tryItOut 91
Compiling threw: SyntaxError: syntax error

tryItOut 92
Compiling threw: SyntaxError: syntax error

tryItOut 93
Running threw: TypeError: arguments[0] has no properties

tryItOut 94

tryItOut 95
Compiling threw: SyntaxError: missing name in export statement

tryItOut 96
Compiling threw: SyntaxError: missing ) in parenthetical

tryItOut 97
Compiling threw: SyntaxError: syntax error

tryItOut 98

tryItOut 99
Compiling threw: SyntaxError: invalid decrement operand

tryItOut 100

tryItOut 101
Compiling threw: SyntaxError: invalid assignment left-hand side

tryItOut 102
Compiling threw: SyntaxError: syntax error

tryItOut 103

tryItOut 104
It's an iterator!
Iterating threw!
Iterating threw: ReferenceError: reference to undefined XML name *::*

tryItOut 105

tryItOut 106
Compiling threw: SyntaxError: invalid break

tryItOut 107
Compiling threw: SyntaxError: missing { before function body

tryItOut 108
It's an iterator!
Iterating threw!
Iterating threw: ReferenceError: reference to undefined XML name *

tryItOut 109
Compiling threw: SyntaxError: missing ; before statement

tryItOut 110
Compiling threw: SyntaxError: missing ) in parenthetical

tryItOut 111
It's an iterator!
Iterating threw!
Iterating threw: ReferenceError: window is not defined

tryItOut 112
Compiling threw: SyntaxError: label not found

tryItOut 113
Compiling threw: SyntaxError: invalid continue

tryItOut 114

tryItOut 115
Compiling threw: SyntaxError: missing ) in parenthetical

tryItOut 116

tryItOut 117
It's an iterator!
Iterating threw!
Iterating threw: ReferenceError: z1 is not defined

tryItOut 118
Running threw: ReferenceError: reference to undefined XML name *::*

tryItOut 119

tryItOut 120

tryItOut 121
It's an iterator!
Iterating threw!
Iterating threw: ReferenceError: window is not defined

tryItOut 122
Compiling threw: TypeError: redeclaration of const constructor

tryItOut 123
It's an iterator!
Iterating succeeded, iterCount == 1

tryItOut 124

tryItOut 125

tryItOut 126

tryItOut 127
It's an iterator!
Iterating succeeded, iterCount == 1

tryItOut 128
Compiling threw: SyntaxError: label not found

tryItOut 129
Compiling threw: SyntaxError: invalid continue

tryItOut 130

tryItOut 131

tryItOut 132
Running threw: TypeError: [15, 16, 17, 18].sort(<x/>, [15, 16, 17, 18].filter("haha".split, true)) is not a function

tryItOut 133
Compiling threw: TypeError: redeclaration of variable constructor

tryItOut 134
Compiling threw: SyntaxError: syntax error

tryItOut 135

tryItOut 136
Compiling threw: SyntaxError: invalid assignment left-hand side

tryItOut 137
Compiling threw: TypeError: redeclaration of variable __iterator__

tryItOut 138

tryItOut 139
Running threw: ReferenceError: window is not defined

tryItOut 140

tryItOut 141

tryItOut 142
Compiling threw: SyntaxError: invalid break

tryItOut 143
It's an iterator!
Iterating threw!
Iterating threw: ReferenceError: __iterator__ is not defined

tryItOut 144

tryItOut 145
It's an iterator!
Iterating threw!
Iterating threw: TypeError: false is not a function

tryItOut 146
Compiling threw: SyntaxError: missing variable name

tryItOut 147
Compiling threw: SyntaxError: label not found

tryItOut 148
Compiling threw: SyntaxError: syntax error

tryItOut 149
Compiling threw: SyntaxError: invalid increment operand

tryItOut 150
It's an iterator!
Iterating succeeded, iterCount == 1

tryItOut 151
Compiling threw: SyntaxError: invalid continue

tryItOut 152

tryItOut 153

tryItOut 154
Compiling threw: SyntaxError: duplicate label

tryItOut 155
Compiling threw: SyntaxError: missing ) in parenthetical

tryItOut 156

tryItOut 157
Compiling threw: SyntaxError: missing ) in parenthetical

tryItOut 158
Compiling threw: SyntaxError: invalid assignment left-hand side

tryItOut 159

tryItOut 160
Compiling threw: SyntaxError: missing ) in parenthetical

tryItOut 161
Running threw: TypeError: "a" is not a function

tryItOut 162
Compiling threw: SyntaxError: invalid increment operand

tryItOut 163

tryItOut 164

tryItOut 165
Compiling threw: SyntaxError: missing ) in parenthetical

tryItOut 166
It's an iterator!
Iterating succeeded, iterCount == 1

tryItOut 167
Compiling threw: SyntaxError: syntax error

tryItOut 168
Compiling threw: SyntaxError: missing variable name

tryItOut 169
Compiling threw: SyntaxError: invalid for/in left-hand side

tryItOut 170

tryItOut 171

tryItOut 172

tryItOut 173
Compiling threw: SyntaxError: missing ) in parenthetical

tryItOut 174
Compiling threw: SyntaxError: label not found

tryItOut 175
Compiling threw: SyntaxError: label not found

tryItOut 176
Compiling threw: SyntaxError: missing ) in parenthetical

tryItOut 177
Running threw: Error: invalid sharp variable use #1#

tryItOut 178
Compiling threw: SyntaxError: invalid assignment left-hand side

tryItOut 179
Compiling threw: SyntaxError: missing ; after for-loop initializer

tryItOut 180
It's an iterator!
Iterating threw!
Iterating threw: TypeError: constructor is not a constructor

tryItOut 181
It's an iterator!
Iterating threw!
Iterating threw: ReferenceError: reference to undefined XML name @foo

tryItOut 182

tryItOut 183

tryItOut 184

tryItOut 185
Compiling threw: SyntaxError: missing variable name

tryItOut 186

tryItOut 187

tryItOut 188

tryItOut 189
Compiling threw: SyntaxError: label not found

tryItOut 190
Compiling threw: SyntaxError: invalid property id

tryItOut 191
Compiling threw: SyntaxError: missing { before function body

tryItOut 192

tryItOut 193
It's an iterator!
Iterating threw!
Iterating threw: ReferenceError: z1 is not defined

tryItOut 194
Compiling threw: SyntaxError: missing ) after condition

tryItOut 195

tryItOut 196

tryItOut 197
It's an iterator!
Iterating threw!
Iterating threw: TypeError: [] is not a function

tryItOut 198

tryItOut 199
Compiling threw: SyntaxError: syntax error

tryItOut 200
Compiling threw: SyntaxError: missing ) in parenthetical

tryItOut 201
Compiling threw: SyntaxError: invalid continue

tryItOut 202
Running threw: ReferenceError: reference to undefined XML name @foo

tryItOut 203
Compiling threw: SyntaxError: missing ) in parenthetical

tryItOut 204
Compiling threw: SyntaxError: invalid assignment left-hand side

tryItOut 205

tryItOut 206
Compiling threw: SyntaxError: missing ) in parenthetical

tryItOut 207
Compiling threw: SyntaxError: syntax error

tryItOut 208

tryItOut 209
Compiling threw: SyntaxError: label not found

tryItOut 210

tryItOut 211

tryItOut 212
It's an iterator!
Iterating succeeded, iterCount == 1

tryItOut 213
Compiling threw: SyntaxError: missing ; after for-loop condition

tryItOut 214

tryItOut 215
Compiling threw: SyntaxError: invalid decrement operand

tryItOut 216
Compiling threw: SyntaxError: invalid break

tryItOut 217
Compiling threw: SyntaxError: missing ] after element list

tryItOut 218
Compiling threw: SyntaxError: missing ; after for-loop initializer

tryItOut 219

tryItOut 220
Compiling threw: SyntaxError: missing ) in parenthetical

tryItOut 221
It's an iterator!
Iterating succeeded, iterCount == 1

tryItOut 222

tryItOut 223
It's an iterator!
Iterating succeeded, iterCount == 1

tryItOut 224
Running threw: ReferenceError: __noSuchMethod__ is not defined

tryItOut 225
Compiling threw: SyntaxError: missing ; before statement

tryItOut 226
Running threw: TypeError: Function.prototype.apply called on incompatible 

tryItOut 227
Compiling threw: TypeError: redeclaration of variable __count__

tryItOut 228

tryItOut 229
Compiling threw: SyntaxError: missing ) in parenthetical

tryItOut 230
Compiling threw: SyntaxError: missing variable name

tryItOut 231
It's an iterator!
Iterating succeeded, iterCount == 8

tryItOut 232

tryItOut 233
It's an iterator!
Iterating succeeded, iterCount == 1

tryItOut 234

tryItOut 235
Compiling threw: SyntaxError: missing variable name

tryItOut 236
Compiling threw: SyntaxError: invalid decrement operand

tryItOut 237
It's an iterator!
Iterating succeeded, iterCount == 1

tryItOut 238
Compiling threw: SyntaxError: missing ) after for-loop control

tryItOut 239

tryItOut 240

tryItOut 241

tryItOut 242

tryItOut 243

tryItOut 244

tryItOut 245
Compiling threw: SyntaxError: label not found

tryItOut 246
Running threw: ReferenceError: window is not defined

tryItOut 247
It's an iterator!
Iterating succeeded, iterCount == 4

tryItOut 248
Running threw: ReferenceError: window is not defined

tryItOut 249

tryItOut 250
Compiling threw: SyntaxError: missing ) in parenthetical

tryItOut 251
Compiling threw: SyntaxError: invalid continue

tryItOut 252
It's an iterator!
Iterating succeeded, iterCount == 0

tryItOut 253
It's an iterator!
Iterating threw!
Iterating threw: ReferenceError: reference to undefined XML name @foo

tryItOut 254
Compiling threw: SyntaxError: invalid break

tryItOut 255
Compiling threw: SyntaxError: invalid assignment left-hand side

tryItOut 256
It's an iterator!
Iterating threw!
Iterating threw: ReferenceError: reference to undefined XML name @foo

tryItOut 257
Running threw: TypeError: null has no properties

tryItOut 258

tryItOut 259

tryItOut 260
Compiling threw: SyntaxError: missing ; before statement

tryItOut 261
Compiling threw: SyntaxError: label not found

tryItOut 262

tryItOut 263
Compiling threw: SyntaxError: catch without try

tryItOut 264

tryItOut 265

tryItOut 266

tryItOut 267
It's an iterator!
Iterating succeeded, iterCount == 1

tryItOut 268

tryItOut 269
Compiling threw: SyntaxError: invalid property id

tryItOut 270
Compiling threw: SyntaxError: syntax error

tryItOut 271

tryItOut 272

tryItOut 273
Compiling threw: TypeError: redeclaration of const __count__

tryItOut 274

tryItOut 275

tryItOut 276
Compiling threw: SyntaxError: label not found

tryItOut 277
Compiling threw: SyntaxError: invalid assignment left-hand side

tryItOut 278
Compiling threw: SyntaxError: syntax error

tryItOut 279

tryItOut 280
Compiling threw: SyntaxError: missing : after property id

tryItOut 281
Compiling threw: SyntaxError: invalid for/in left-hand side

tryItOut 282
It's an iterator!
Iterating succeeded, iterCount == 1

tryItOut 283

tryItOut 284
Compiling threw: SyntaxError: invalid decrement operand

tryItOut 285

tryItOut 286
Compiling threw: SyntaxError: missing variable name

tryItOut 287

tryItOut 288
Compiling threw: SyntaxError: missing ) in parenthetical

tryItOut 289
Compiling threw: SyntaxError: missing ) in parenthetical

tryItOut 290
Compiling threw: SyntaxError: invalid variable initialization

tryItOut 291
Running threw: ReferenceError: reference to undefined XML name *::*

tryItOut 292

tryItOut 293
It's an iterator!
Iterating threw!
Iterating threw: ReferenceError: window is not defined

tryItOut 294

tryItOut 295
It's an iterator!
Iterating succeeded, iterCount == 0

tryItOut 296

tryItOut 297

tryItOut 298
Compiling threw: SyntaxError: invalid continue

tryItOut 299
Compiling threw: SyntaxError: missing variable name

tryItOut 300

tryItOut 301
Compiling threw: SyntaxError: duplicate label

tryItOut 302
Compiling threw: SyntaxError: invalid break

tryItOut 303

tryItOut 304

tryItOut 305
Compiling threw: SyntaxError: missing { before function body

tryItOut 306

tryItOut 307
Compiling threw: SyntaxError: syntax error

tryItOut 308
Compiling threw: SyntaxError: missing ] after element list

tryItOut 309
Compiling threw: SyntaxError: missing } after let block

tryItOut 310
Compiling threw: SyntaxError: invalid for/in left-hand side

tryItOut 311
It's an iterator!
Iterating succeeded, iterCount == 0

tryItOut 312
It's an iterator!
Iterating succeeded, iterCount == 1

tryItOut 313
Running threw: TypeError: <y>
  <z/>
</y> is not a function

tryItOut 314
Compiling threw: SyntaxError: missing { before function body

tryItOut 315

tryItOut 316
Compiling threw: SyntaxError: missing ( before let head

tryItOut 317
Compiling threw: SyntaxError: missing ] after element list

tryItOut 318
It's an iterator!
Iterating succeeded, iterCount == 4

tryItOut 319

tryItOut 320

tryItOut 321
Compiling threw: TypeError: redeclaration of const prototype

tryItOut 322
Compiling threw: SyntaxError: missing ) in parenthetical

tryItOut 323
Compiling threw: SyntaxError: missing ] after element list

tryItOut 324

tryItOut 325
Compiling threw: SyntaxError: missing } after property list

tryItOut 326

tryItOut 327
Compiling threw: SyntaxError: missing ) in parenthetical

tryItOut 328

tryItOut 329
It's an iterator!
Iterating succeeded, iterCount == 1

tryItOut 330
Compiling threw: SyntaxError: missing { before function body

tryItOut 331
Compiling threw: SyntaxError: label not found

tryItOut 332

tryItOut 333

tryItOut 334
It's an iterator!
Iterating threw!
Iterating threw: TypeError: arguments[0] has no properties

tryItOut 335
Compiling threw: SyntaxError: missing ; after for-loop initializer

tryItOut 336

tryItOut 337

tryItOut 338

tryItOut 339

tryItOut 340

tryItOut 341
Compiling threw: SyntaxError: label not found

tryItOut 342

tryItOut 343
Compiling threw: SyntaxError: label not found

tryItOut 344

tryItOut 345
Compiling threw: SyntaxError: invalid property id

tryItOut 346
Running threw: ReferenceError: reference to undefined XML name @foo

tryItOut 347
Compiling threw: SyntaxError: syntax error

tryItOut 348
It's an iterator!
Iterating succeeded, iterCount == 1

tryItOut 349

tryItOut 350
It's an iterator!
Iterating succeeded, iterCount == 1

tryItOut 351
Compiling threw: SyntaxError: invalid continue

tryItOut 352
It's an iterator!
Iterating succeeded, iterCount == 1

tryItOut 353
It's an iterator!
Iterating threw!
Iterating threw: SyntaxError: return not in function

tryItOut 354
It's an iterator!
Iterating succeeded, iterCount == 1

tryItOut 355
Compiling threw: SyntaxError: invalid break

tryItOut 356
Compiling threw: SyntaxError: invalid default XML namespace

tryItOut 357

tryItOut 358
Running threw: ReferenceError: reference to undefined XML name @foo

tryItOut 359
Running threw: ReferenceError: z1 is not defined

tryItOut 360

tryItOut 361

tryItOut 362
Compiling threw: SyntaxError: missing ) in parenthetical

tryItOut 363
Compiling threw: SyntaxError: missing ; before statement

tryItOut 364

tryItOut 365
Compiling threw: SyntaxError: missing ; before statement

tryItOut 366
Compiling threw: SyntaxError: label not found

tryItOut 367
Compiling threw: SyntaxError: invalid assignment left-hand side

tryItOut 368

tryItOut 369
Compiling threw: SyntaxError: invalid assignment left-hand side

tryItOut 370

tryItOut 371
Compiling threw: SyntaxError: missing ) in parenthetical

tryItOut 372
Compiling threw: SyntaxError: missing ) in parenthetical

tryItOut 373
Compiling threw: SyntaxError: missing ) after condition

tryItOut 374
Compiling threw: SyntaxError: missing ) in parenthetical

tryItOut 375
Compiling threw: SyntaxError: missing variable name

tryItOut 376
Compiling threw: SyntaxError: missing ) after condition

tryItOut 377
Compiling threw: SyntaxError: syntax error

tryItOut 378
Compiling threw: SyntaxError: missing ) after condition

tryItOut 379
Compiling threw: SyntaxError: invalid continue

tryItOut 380
Compiling threw: SyntaxError: missing ) after condition

tryItOut 381

tryItOut 382
Compiling threw: SyntaxError: syntax error

tryItOut 383
Compiling threw: SyntaxError: label not found

tryItOut 384

tryItOut 385

tryItOut 386
Compiling threw: SyntaxError: invalid property id

tryItOut 387
It's an iterator!
Iterating threw!
Iterating threw: ReferenceError: reference to undefined XML name @foo

tryItOut 388
It's an iterator!
Iterating succeeded, iterCount == 1

tryItOut 389
Compiling threw: SyntaxError: invalid continue

tryItOut 390
Running threw: ReferenceError: reference to undefined XML name @foo

tryItOut 391

tryItOut 392
Running threw: TypeError: redeclaration of var __count__

tryItOut 393
Compiling threw: SyntaxError: missing ) in parenthetical

tryItOut 394

tryItOut 395
Compiling threw: SyntaxError: duplicate label

tryItOut 396

tryItOut 397

tryItOut 398
It's an iterator!
Iterating succeeded, iterCount == 1

tryItOut 399

tryItOut 400

tryItOut 401
Compiling threw: SyntaxError: label not found

tryItOut 402
Compiling threw: SyntaxError: invalid increment operand

tryItOut 403
Compiling threw: SyntaxError: label not found

tryItOut 404
Running threw: ReferenceError: window is not defined

tryItOut 405
Running threw: TypeError: 153 is not a function

tryItOut 406
It's an iterator!
Iterating succeeded, iterCount == 1

tryItOut 407
Running threw: ReferenceError: reference to undefined XML name *

tryItOut 408
Running threw: Error: invalid sharp variable use #1#

tryItOut 409
Compiling threw: SyntaxError: finally without try

tryItOut 410
Compiling threw: SyntaxError: missing ; before statement

tryItOut 411

tryItOut 412
Compiling threw: SyntaxError: missing ) in parenthetical

tryItOut 413
Compiling threw: SyntaxError: missing : after property id

tryItOut 414
Compiling threw: SyntaxError: missing ] after element list

tryItOut 415
It's an iterator!
Iterating succeeded, iterCount == 1

tryItOut 416

tryItOut 417

tryItOut 418
Compiling threw: SyntaxError: missing } after let block

tryItOut 419

tryItOut 420
Compiling threw: SyntaxError: missing ; before statement

tryItOut 421

tryItOut 422
Compiling threw: SyntaxError: invalid default XML namespace

tryItOut 423
It's an iterator!
Iterating threw!
Iterating threw: ReferenceError: reference to undefined XML name @foo

tryItOut 424
Compiling threw: SyntaxError: missing } after let block

tryItOut 425
Compiling threw: SyntaxError: missing ) in parenthetical

tryItOut 426
Compiling threw: SyntaxError: missing : after property id

tryItOut 427

tryItOut 428
Running threw: ReferenceError: reference to undefined XML name @foo

tryItOut 429
Compiling threw: SyntaxError: missing ) in parenthetical

tryItOut 430

tryItOut 431
Compiling threw: SyntaxError: syntax error

tryItOut 432
It's an iterator!
Iterating threw!
Iterating threw: ReferenceError: reference to undefined XML name *

tryItOut 433

tryItOut 434

tryItOut 435
Running threw: ReferenceError: reference to undefined XML name *::*

tryItOut 436

tryItOut 437
Compiling threw: SyntaxError: missing = in destructuring declaration

tryItOut 438

tryItOut 439
Compiling threw: SyntaxError: missing ; after for-loop initializer

tryItOut 440
Compiling threw: SyntaxError: label not found

tryItOut 441

tryItOut 442

tryItOut 443

tryItOut 444
Compiling threw: SyntaxError: syntax error

tryItOut 445

tryItOut 446

tryItOut 447

tryItOut 448

tryItOut 449
Compiling threw: SyntaxError: duplicate label

tryItOut 450
Compiling threw: SyntaxError: syntax error

tryItOut 451
Compiling threw: SyntaxError: invalid for/in left-hand side

tryItOut 452
Running threw: ReferenceError: z1 is not defined

tryItOut 453
Compiling threw: SyntaxError: syntax error

tryItOut 454
Compiling threw: SyntaxError: missing ) in parenthetical

tryItOut 455

tryItOut 456
It's an iterator!
Iterating succeeded, iterCount == 1

tryItOut 457
It's an iterator!
Iterating threw!
Iterating threw: TypeError: XML filtering predicate operator called on incompatible Object

tryItOut 458
It's an iterator!
Iterating succeeded, iterCount == 1

tryItOut 459
Compiling threw: SyntaxError: label not found

tryItOut 460
It's an iterator!
Iterating threw!
Iterating threw: ReferenceError: reference to undefined XML name *::*

tryItOut 461
It's an iterator!
Iterating succeeded, iterCount == 1

tryItOut 462

tryItOut 463
It's an iterator!
Iterating threw!
Iterating threw: TypeError: redeclaration of const __parent__

tryItOut 464

tryItOut 465

tryItOut 466
Compiling threw: SyntaxError: missing ] after element list

tryItOut 467

tryItOut 468
Compiling threw: SyntaxError: syntax error

tryItOut 469

tryItOut 470
Compiling threw: SyntaxError: invalid increment operand

tryItOut 471
Compiling threw: SyntaxError: missing variable name

tryItOut 472

tryItOut 473

tryItOut 474
Compiling threw: SyntaxError: invalid assignment left-hand side

tryItOut 475
Compiling threw: SyntaxError: missing } after let block

tryItOut 476

tryItOut 477
Running threw: ReferenceError: window is not defined

tryItOut 478
Running threw: ReferenceError: window is not defined

tryItOut 479

tryItOut 480
Compiling threw: SyntaxError: invalid increment operand

tryItOut 481

tryItOut 482
Compiling threw: SyntaxError: label not found

tryItOut 483

tryItOut 484

tryItOut 485
Compiling threw: SyntaxError: invalid break

tryItOut 486
Compiling threw: SyntaxError: missing ; before statement

tryItOut 487
Compiling threw: SyntaxError: missing ; before statement

tryItOut 488

tryItOut 489

tryItOut 490
Compiling threw: SyntaxError: syntax error

tryItOut 491
Compiling threw: SyntaxError: invalid decrement operand

tryItOut 492
It's an iterator!
Iterating threw!
Iterating threw: ReferenceError: window is not defined

tryItOut 493
Compiling threw: SyntaxError: missing ) in parenthetical

tryItOut 494

tryItOut 495
Compiling threw: SyntaxError: missing ) in parenthetical

tryItOut 496
Running threw: ReferenceError: reference to undefined XML name @foo

tryItOut 497
It's an iterator!
Iterating succeeded, iterCount == 1

tryItOut 498
Compiling threw: SyntaxError: missing ; before statement

tryItOut 499
Compiling threw: SyntaxError: missing ] after element list

tryItOut 500

tryItOut 501

tryItOut 502

tryItOut 503

tryItOut 504

tryItOut 505

tryItOut 506

tryItOut 507
Running threw: ReferenceError: reference to undefined XML name *

tryItOut 508

tryItOut 509
It's an iterator!
Iterating succeeded, iterCount == 1

tryItOut 510

tryItOut 511

tryItOut 512
Compiling threw: SyntaxError: label not found

tryItOut 513
Compiling threw: SyntaxError: invalid assignment left-hand side

tryItOut 514

tryItOut 515

tryItOut 516
Running threw: ReferenceError: reference to undefined XML name *

tryItOut 517
Compiling threw: SyntaxError: missing ; before statement

tryItOut 518

tryItOut 519

tryItOut 520
Compiling threw: SyntaxError: missing ; before statement

tryItOut 521
It's an iterator!
Iterating threw!
Iterating threw: ReferenceError: reference to undefined XML name *::*

tryItOut 522
Compiling threw: SyntaxError: invalid assignment left-hand side

tryItOut 523
Compiling threw: SyntaxError: invalid break

tryItOut 524
It's an iterator!
Iterating threw!
Iterating threw: TypeError: redeclaration of var __proto__

tryItOut 525
Compiling threw: SyntaxError: label not found

tryItOut 526

tryItOut 527
Compiling threw: SyntaxError: syntax error

tryItOut 528
Compiling threw: SyntaxError: missing ; after for-loop condition

tryItOut 529
Compiling threw: SyntaxError: missing { before function body

tryItOut 530
Compiling threw: SyntaxError: syntax error

tryItOut 531

tryItOut 532
It's an iterator!
Iterating succeeded, iterCount == 1

tryItOut 533

tryItOut 534

tryItOut 535
Compiling threw: SyntaxError: invalid assignment left-hand side

tryItOut 536

tryItOut 537
Compiling threw: SyntaxError: missing ) in parenthetical

tryItOut 538

tryItOut 539

tryItOut 540
Running threw: ReferenceError: reference to undefined XML name *

tryItOut 541
It's an iterator!
Iterating succeeded, iterCount == 1

tryItOut 542

tryItOut 543
Compiling threw: SyntaxError: invalid assignment left-hand side

tryItOut 544
Compiling threw: TypeError: redeclaration of variable prop

tryItOut 545

tryItOut 546
Compiling threw: TypeError: redeclaration of const constructor

tryItOut 547
It's an iterator!
Iterating succeeded, iterCount == 1

tryItOut 548
It's an iterator!
Iterating succeeded, iterCount == 1

tryItOut 549
Compiling threw: SyntaxError: label not found

tryItOut 550

tryItOut 551
Compiling threw: SyntaxError: label not found

tryItOut 552

tryItOut 553
Compiling threw: SyntaxError: missing ; before statement

tryItOut 554

tryItOut 555

tryItOut 556
Compiling threw: SyntaxError: missing ; before statement

tryItOut 557
Compiling threw: SyntaxError: missing variable name

tryItOut 558
Compiling threw: SyntaxError: invalid assignment left-hand side

tryItOut 559
It's an iterator!
Iterating succeeded, iterCount == 1

tryItOut 560

tryItOut 561
Compiling threw: SyntaxError: invalid break

tryItOut 562
Compiling threw: SyntaxError: duplicate label

tryItOut 563
Compiling threw: SyntaxError: missing variable name

tryItOut 564

tryItOut 565

tryItOut 566

tryItOut 567

tryItOut 568

tryItOut 569
Compiling threw: SyntaxError: missing : after property id

tryItOut 570

tryItOut 571

tryItOut 572
Compiling threw: SyntaxError: missing ) in parenthetical

tryItOut 573

tryItOut 574
Compiling threw: SyntaxError: syntax error

tryItOut 575
Compiling threw: SyntaxError: missing ) in parenthetical

tryItOut 576
It's an iterator!
Iterating threw!
Iterating threw: TypeError: redeclaration of var __proto__

tryItOut 577
It's an iterator!
Iterating succeeded, iterCount == 1

tryItOut 578
It's an iterator!
Iterating threw!
Iterating threw: ReferenceError: reference to undefined XML name *

tryItOut 579

tryItOut 580
Compiling threw: SyntaxError: missing ) in parenthetical

tryItOut 581

tryItOut 582

tryItOut 583
Compiling threw: SyntaxError: label not found

tryItOut 584
Compiling threw: SyntaxError: missing = in destructuring declaration

tryItOut 585

tryItOut 586
It's an iterator!
Iterating succeeded, iterCount == 1

tryItOut 587
Compiling threw: SyntaxError: invalid break

tryItOut 588

tryItOut 589

tryItOut 590
Running threw: ReferenceError: z1 is not defined

tryItOut 591
Running threw: ReferenceError: window is not defined

tryItOut 592
It's an iterator!
Iterating threw!
Iterating threw: ReferenceError: reference to undefined XML name *::*

tryItOut 593
Compiling threw: SyntaxError: invalid decrement operand

tryItOut 594
It's an iterator!
Iterating threw!
Iterating threw: ReferenceError: reference to undefined XML name @foo

tryItOut 595
Compiling threw: SyntaxError: missing = in destructuring declaration

tryItOut 596
Compiling threw: SyntaxError: invalid continue

tryItOut 597
Compiling threw: SyntaxError: syntax error

tryItOut 598
Compiling threw: SyntaxError: label not found

tryItOut 599

tryItOut 600

tryItOut 601
It's an iterator!
Iterating succeeded, iterCount == 1

tryItOut 602
Compiling threw: SyntaxError: invalid continue

tryItOut 603

tryItOut 604

tryItOut 605

tryItOut 606

tryItOut 607

tryItOut 608
Compiling threw: SyntaxError: missing variable name

tryItOut 609
It's an iterator!
Iterating succeeded, iterCount == 0

tryItOut 610
It's an iterator!
Iterating threw!
Iterating threw: ReferenceError: reference to undefined XML name *::*

tryItOut 611

tryItOut 612
Compiling threw: SyntaxError: invalid increment operand

tryItOut 613
Compiling threw: SyntaxError: invalid decrement operand

tryItOut 614

tryItOut 615
Compiling threw: SyntaxError: invalid for/in left-hand side

tryItOut 616
Compiling threw: SyntaxError: missing variable name

tryItOut 617
It's an iterator!
Iterating threw!
Iterating threw: TypeError: this.__defineSetter__("prototype", this.__defineSetter__.apply) has no properties

tryItOut 618
It's an iterator!
Iterating succeeded, iterCount == 2

tryItOut 619
Running threw: ReferenceError: reference to undefined XML name *

tryItOut 620
Compiling threw: SyntaxError: label not found

tryItOut 621
Compiling threw: SyntaxError: invalid continue

tryItOut 622

tryItOut 623
It's an iterator!
Iterating threw!
Iterating threw: ReferenceError: window is not defined

tryItOut 624

tryItOut 625
It's an iterator!
Iterating succeeded, iterCount == 1

tryItOut 626
Compiling threw: SyntaxError: syntax error

tryItOut 627
Compiling threw: SyntaxError: missing = in destructuring declaration

tryItOut 628

tryItOut 629
Compiling threw: SyntaxError: missing ) in parenthetical

tryItOut 630
It's an iterator!
Iterating threw!
Iterating threw: ReferenceError: reference to undefined XML name *::*

tryItOut 631
Compiling threw: SyntaxError: missing } after let block

tryItOut 632
It's an iterator!
Iterating threw!
Iterating threw: ReferenceError: window is not defined

tryItOut 633
Compiling threw: SyntaxError: missing ) after for-loop control

tryItOut 634

tryItOut 635
Compiling threw: SyntaxError: missing ) in parenthetical

tryItOut 636
Compiling threw: SyntaxError: label not found

tryItOut 637
Compiling threw: TypeError: redeclaration of const __count__

tryItOut 638

tryItOut 639

tryItOut 640
Compiling threw: SyntaxError: duplicate label

tryItOut 641

tryItOut 642
Compiling threw: SyntaxError: invalid increment operand

tryItOut 643
It's an iterator!
Iterating succeeded, iterCount == 1

tryItOut 644
Compiling threw: SyntaxError: invalid break

tryItOut 645
Compiling threw: TypeError: redeclaration of var __proto__

tryItOut 646
Running threw: Error: invalid sharp variable use #1#

tryItOut 647

tryItOut 648
Compiling threw: SyntaxError: syntax error

tryItOut 649
Compiling threw: SyntaxError: label not found

tryItOut 650
Compiling threw: SyntaxError: missing ] after element list

tryItOut 651
Compiling threw: SyntaxError: label not found

tryItOut 652

tryItOut 653

tryItOut 654
Compiling threw: SyntaxError: syntax error

tryItOut 655
Compiling threw: SyntaxError: syntax error

tryItOut 656
It's an iterator!
Iterating threw!
Iterating threw: TypeError: second argument to Function.prototype.apply must be an array

tryItOut 657
Compiling threw: SyntaxError: finally without try

tryItOut 658
It's an iterator!
Iterating succeeded, iterCount == 1

tryItOut 659
Compiling threw: SyntaxError: missing } after let block

tryItOut 660
Compiling threw: SyntaxError: syntax error

tryItOut 661
It's an iterator!
Iterating threw!
Iterating threw: ReferenceError: reference to undefined XML name *

tryItOut 662

tryItOut 663
Running threw: TypeError: XML filtering predicate operator called on incompatible Array

tryItOut 664

tryItOut 665
It's an iterator!
Iterating threw!
Iterating threw: TypeError: __parent__ has no properties

tryItOut 666
Compiling threw: TypeError: redeclaration of variable __noSuchMethod__

tryItOut 667
It's an iterator!
Iterating succeeded, iterCount == 1

tryItOut 668

tryItOut 669
Compiling threw: SyntaxError: missing ) in parenthetical

tryItOut 670
Compiling threw: SyntaxError: missing ) in parenthetical

tryItOut 671

tryItOut 672

tryItOut 673
It's an iterator!
Iterating succeeded, iterCount == 1

tryItOut 674
Compiling threw: SyntaxError: missing ; before statement

tryItOut 675

tryItOut 676
Compiling threw: SyntaxError: invalid for/in left-hand side

tryItOut 677

tryItOut 678

tryItOut 679
Compiling threw: SyntaxError: label not found

tryItOut 680

tryItOut 681

tryItOut 682
Compiling threw: SyntaxError: missing ) in parenthetical

tryItOut 683
Compiling threw: SyntaxError: label not found

tryItOut 684
Compiling threw: SyntaxError: missing ) in parenthetical

tryItOut 685
Compiling threw: SyntaxError: missing : after property id

tryItOut 686
It's an iterator!
Iterating succeeded, iterCount == 1

tryItOut 687
It's an iterator!
Iterating succeeded, iterCount == 1

tryItOut 688
It's an iterator!
Iterating succeeded, iterCount == 1

tryItOut 689

tryItOut 690
Compiling threw: SyntaxError: missing ; after for-loop condition

tryItOut 691
Compiling threw: SyntaxError: label not found

tryItOut 692
Compiling threw: SyntaxError: label not found

tryItOut 693
Compiling threw: SyntaxError: missing ; before statement

tryItOut 694
It's an iterator!
Iterating succeeded, iterCount == 1

tryItOut 695
Compiling threw: SyntaxError: label not found

tryItOut 696

tryItOut 697
Compiling threw: SyntaxError: missing ) in parenthetical

tryItOut 698
Compiling threw: SyntaxError: missing ] after element list

tryItOut 699
Running threw: ReferenceError: reference to undefined XML name @foo

tryItOut 700

tryItOut 701

tryItOut 702

tryItOut 703
Compiling threw: SyntaxError: missing ) in parenthetical

tryItOut 704
It's an iterator!
Iterating succeeded, iterCount == 0

tryItOut 705
Compiling threw: SyntaxError: missing variable name

tryItOut 706
Compiling threw: SyntaxError: invalid break

tryItOut 707

tryItOut 708
Compiling threw: SyntaxError: missing ) in parenthetical

tryItOut 709
It's an iterator!
Iterating threw!
Iterating threw: ReferenceError: reference to undefined XML name @foo

tryItOut 710
Compiling threw: SyntaxError: missing ) in parenthetical

tryItOut 711
Compiling threw: SyntaxError: label not found

tryItOut 712
Running threw: ReferenceError: reference to undefined XML name *

tryItOut 713
Compiling threw: SyntaxError: syntax error

tryItOut 714

tryItOut 715

tryItOut 716
It's an iterator!
Iterating succeeded, iterCount == 0

tryItOut 717
Compiling threw: SyntaxError: invalid assignment left-hand side

tryItOut 718
Running threw: TypeError: arguments[0] has no properties

tryItOut 719

tryItOut 720
Compiling threw: TypeError: redeclaration of variable __proto__

tryItOut 721

tryItOut 722
Compiling threw: SyntaxError: missing } after let block

tryItOut 723
Compiling threw: SyntaxError: syntax error

tryItOut 724

tryItOut 725
It's an iterator!
Iterating threw!
Iterating threw: ReferenceError: z1 is not defined

tryItOut 726

tryItOut 727

tryItOut 728
Compiling threw: SyntaxError: missing variable name

tryItOut 729
It's an iterator!
Iterating threw!
Iterating threw: TypeError: XML filtering predicate operator called on incompatible Boolean

tryItOut 730
Running threw: ReferenceError: reference to undefined XML name @foo

tryItOut 731
Compiling threw: SyntaxError: invalid assignment left-hand side

tryItOut 732

tryItOut 733
Compiling threw: TypeError: redeclaration of variable __iterator__

tryItOut 734
Compiling threw: SyntaxError: missing } after let block

tryItOut 735

tryItOut 736

tryItOut 737
It's an iterator!
Iterating succeeded, iterCount == 1

tryItOut 738

tryItOut 739
Compiling threw: SyntaxError: invalid continue

tryItOut 740
Compiling threw: SyntaxError: syntax error

tryItOut 741
Running threw: ReferenceError: reference to undefined XML name @foo

tryItOut 742

tryItOut 743
Compiling threw: SyntaxError: syntax error

tryItOut 744

tryItOut 745
Compiling threw: SyntaxError: missing ) in parenthetical

tryItOut 746

tryItOut 747
Compiling threw: SyntaxError: missing variable name

tryItOut 748

tryItOut 749

tryItOut 750
Compiling threw: SyntaxError: missing variable name

tryItOut 751
Compiling threw: SyntaxError: invalid destructuring assignment operator

tryItOut 752

tryItOut 753

tryItOut 754
Compiling threw: TypeError: redeclaration of variable __noSuchMethod__

tryItOut 755
Compiling threw: SyntaxError: missing ; before statement

tryItOut 756

tryItOut 757
Running threw: SyntaxError: invalid setter usage

tryItOut 758

tryItOut 759
Compiling threw: SyntaxError: label not found

tryItOut 760
Compiling threw: SyntaxError: catch without try

tryItOut 761
Compiling threw: SyntaxError: syntax error

tryItOut 762
Compiling threw: TypeError: redeclaration of variable __iterator__

tryItOut 763

tryItOut 764
Compiling threw: TypeError: redeclaration of const __noSuchMethod__

tryItOut 765

tryItOut 766

tryItOut 767
Compiling threw: SyntaxError: missing ] after element list

tryItOut 768
Compiling threw: SyntaxError: invalid break

tryItOut 769

tryItOut 770
Compiling threw: SyntaxError: missing ) in parenthetical

tryItOut 771
Compiling threw: SyntaxError: missing ] after element list

tryItOut 772
Compiling threw: SyntaxError: missing ] after element list

tryItOut 773

tryItOut 774
Compiling threw: SyntaxError: missing ; before statement

tryItOut 775

tryItOut 776

tryItOut 777
Compiling threw: SyntaxError: invalid assignment left-hand side

tryItOut 778
Compiling threw: SyntaxError: invalid decrement operand

tryItOut 779
Compiling threw: SyntaxError: syntax error

tryItOut 780

tryItOut 781
Compiling threw: SyntaxError: missing ; before statement

tryItOut 782
Compiling threw: SyntaxError: missing ) after condition

tryItOut 783
Compiling threw: SyntaxError: invalid assignment left-hand side

tryItOut 784

tryItOut 785

tryItOut 786
Compiling threw: SyntaxError: missing ) after condition

tryItOut 787
Compiling threw: SyntaxError: missing } after property list

tryItOut 788
Running threw: ReferenceError: reference to undefined XML name *::*

tryItOut 789

tryItOut 790
It's an iterator!
Iterating succeeded, iterCount == 1

tryItOut 791

tryItOut 792
Compiling threw: SyntaxError: invalid for/in left-hand side

tryItOut 793
Compiling threw: SyntaxError: missing { before function body

tryItOut 794

tryItOut 795
Compiling threw: SyntaxError: missing { before function body

tryItOut 796
Compiling threw: SyntaxError: missing ; before statement

tryItOut 797

tryItOut 798
Compiling threw: SyntaxError: missing : after property id

tryItOut 799

tryItOut 800

tryItOut 801
Compiling threw: SyntaxError: missing ; before statement

tryItOut 802

tryItOut 803
It's an iterator!
Iterating succeeded, iterCount == 1

tryItOut 804
It's an iterator!
Iterating threw!
Iterating threw: ReferenceError: reference to undefined XML name *

tryItOut 805
Compiling threw: SyntaxError: missing ) in parenthetical

tryItOut 806
Compiling threw: SyntaxError: missing ; after for-loop condition

tryItOut 807

tryItOut 808

tryItOut 809
Compiling threw: SyntaxError: missing ] after element list

tryItOut 810
Compiling threw: SyntaxError: missing : after property id

tryItOut 811
Compiling threw: SyntaxError: syntax error

tryItOut 812

tryItOut 813

tryItOut 814
It's an iterator!
Iterating succeeded, iterCount == 1

tryItOut 815
Compiling threw: SyntaxError: missing variable name

tryItOut 816
Running threw: ReferenceError: reference to undefined XML name @foo

tryItOut 817

tryItOut 818
Compiling threw: TypeError: redeclaration of variable __parent__

tryItOut 819

tryItOut 820
Compiling threw: SyntaxError: label not found

tryItOut 821
Compiling threw: SyntaxError: missing ; before statement

tryItOut 822
Compiling threw: SyntaxError: missing ) in parenthetical

tryItOut 823
Compiling threw: SyntaxError: missing } after let block

tryItOut 824
Compiling threw: SyntaxError: invalid continue

tryItOut 825

tryItOut 826
It's an iterator!
Iterating succeeded, iterCount == 1

tryItOut 827
Compiling threw: SyntaxError: missing ) in parenthetical

tryItOut 828

tryItOut 829

tryItOut 830

tryItOut 831
Compiling threw: SyntaxError: missing { before function body

tryItOut 832

tryItOut 833

tryItOut 834

tryItOut 835
Compiling threw: SyntaxError: missing variable name

tryItOut 836

tryItOut 837

tryItOut 838

tryItOut 839
Compiling threw: SyntaxError: missing : after property id

tryItOut 840
Compiling threw: SyntaxError: missing ; before statement

tryItOut 841
It's an iterator!
Iterating threw!
Iterating threw: ReferenceError: reference to undefined XML name @foo

tryItOut 842
Compiling threw: SyntaxError: invalid for/in left-hand side

tryItOut 843
Compiling threw: SyntaxError: label not found

tryItOut 844
Compiling threw: SyntaxError: missing ; before statement

tryItOut 845
Compiling threw: SyntaxError: missing ( before let head

tryItOut 846
Compiling threw: SyntaxError: finally without try

tryItOut 847
Compiling threw: SyntaxError: missing ) in parenthetical

tryItOut 848
Running threw: TypeError: Function.prototype.apply called on incompatible [object global]

tryItOut 849

tryItOut 850
It's an iterator!
Iterating succeeded, iterCount == 1

tryItOut 851

tryItOut 852
Compiling threw: SyntaxError: label not found

tryItOut 853

tryItOut 854
Compiling threw: SyntaxError: missing ; before statement

tryItOut 855
Compiling threw: SyntaxError: missing { before function body

tryItOut 856

tryItOut 857

tryItOut 858

tryItOut 859

tryItOut 860
Compiling threw: SyntaxError: missing ) after argument list

tryItOut 861

tryItOut 862

tryItOut 863
Compiling threw: SyntaxError: missing variable name

tryItOut 864

tryItOut 865
It's an iterator!
Iterating threw!
Iterating threw: ReferenceError: reference to undefined XML name *

tryItOut 866

tryItOut 867

tryItOut 868
Running threw: TypeError: this is not a function

tryItOut 869
Compiling threw: SyntaxError: label not found

tryItOut 870

tryItOut 871

tryItOut 872
Compiling threw: SyntaxError: missing ) in parenthetical

tryItOut 873
It's an iterator!
Iterating succeeded, iterCount == 0

tryItOut 874
Compiling threw: SyntaxError: missing ) in parenthetical

tryItOut 875
Compiling threw: SyntaxError: missing variable name

tryItOut 876
Compiling threw: SyntaxError: invalid for/in left-hand side

tryItOut 877
Compiling threw: SyntaxError: missing ) after for-loop control

tryItOut 878
It's an iterator!
Iterating succeeded, iterCount == 1

tryItOut 879
Compiling threw: SyntaxError: invalid continue

tryItOut 880
Compiling threw: SyntaxError: missing } after property list

tryItOut 881
Compiling threw: SyntaxError: invalid assignment left-hand side

tryItOut 882

tryItOut 883

tryItOut 884
Compiling threw: SyntaxError: missing ] after element list

tryItOut 885
Compiling threw: SyntaxError: invalid break

tryItOut 886
Compiling threw: SyntaxError: invalid for/in left-hand side

tryItOut 887
Compiling threw: SyntaxError: missing ) in parenthetical

tryItOut 888
Compiling threw: SyntaxError: label not found

tryItOut 889
Compiling threw: TypeError: redeclaration of variable prototype

tryItOut 890
Compiling threw: SyntaxError: missing } in compound statement

tryItOut 891
Running threw: TypeError: prop has no properties

tryItOut 892
Running threw: TypeError: arguments[0] has no properties

tryItOut 893
It's an iterator!
Iterating threw!
Iterating threw: ReferenceError: window is not defined

tryItOut 894
It's an iterator!
Iterating threw!
Iterating threw: ReferenceError: reference to undefined XML name *

tryItOut 895
Compiling threw: SyntaxError: missing ; before statement

tryItOut 896
Compiling threw: SyntaxError: missing ) after condition

tryItOut 897
It's an iterator!
Iterating threw!
Iterating threw: ReferenceError: window is not defined

tryItOut 898
Compiling threw: SyntaxError: missing ; after for-loop condition

tryItOut 899
Compiling threw: SyntaxError: missing ; before statement

tryItOut 900
Compiling threw: SyntaxError: label not found

tryItOut 901
Compiling threw: SyntaxError: missing ) in parenthetical

tryItOut 902

tryItOut 903
Running threw: ReferenceError: reference to undefined XML name @foo

tryItOut 904
It's an iterator!
Iterating succeeded, iterCount == 0

tryItOut 905
Compiling threw: SyntaxError: missing { before function body

tryItOut 906

tryItOut 907
Compiling threw: SyntaxError: missing ; before statement

tryItOut 908
Compiling threw: SyntaxError: missing ) in parenthetical

tryItOut 909

tryItOut 910

tryItOut 911

tryItOut 912

tryItOut 913
Compiling threw: TypeError: redeclaration of const __parent__

tryItOut 914
Compiling threw: TypeError: redeclaration of variable __noSuchMethod__

tryItOut 915
Compiling threw: SyntaxError: label not found

tryItOut 916
It's an iterator!
Iterating succeeded, iterCount == 1

tryItOut 917
Compiling threw: SyntaxError: missing ] after element list

tryItOut 918
Compiling threw: TypeError: redeclaration of variable __proto__

tryItOut 919
Compiling threw: SyntaxError: invalid continue

tryItOut 920
Compiling threw: SyntaxError: label not found

tryItOut 921

tryItOut 922

tryItOut 923
It's an iterator!
Iterating succeeded, iterCount == 1

tryItOut 924
Compiling threw: SyntaxError: invalid assignment left-hand side

tryItOut 925
Compiling threw: SyntaxError: invalid continue

tryItOut 926
Compiling threw: SyntaxError: invalid for/in left-hand side

tryItOut 927
Compiling threw: SyntaxError: yield expression must be parenthesized

tryItOut 928
Compiling threw: SyntaxError: missing ; before statement

tryItOut 929
Compiling threw: SyntaxError: missing ) after for-loop control

tryItOut 930

tryItOut 931
Compiling threw: SyntaxError: missing ) after formal parameters

tryItOut 932

tryItOut 933
Running threw: ReferenceError: propprototype is not defined

tryItOut 934
Running threw: ReferenceError: z1 is not defined

tryItOut 935
Compiling threw: SyntaxError: invalid break

tryItOut 936
It's an iterator!
Iterating succeeded, iterCount == 1

tryItOut 937
Compiling threw: SyntaxError: missing variable name

tryItOut 938

tryItOut 939

tryItOut 940

tryItOut 941

tryItOut 942
Compiling threw: SyntaxError: syntax error

tryItOut 943

tryItOut 944
It's an iterator!
Iterating succeeded, iterCount == 2

tryItOut 945
Running threw: TypeError: Function.prototype.apply called on incompatible [object global]

tryItOut 946
Compiling threw: SyntaxError: syntax error

tryItOut 947
Compiling threw: SyntaxError: invalid increment operand

tryItOut 948
Compiling threw: SyntaxError: missing } in compound statement

tryItOut 949
Compiling threw: TypeError: redeclaration of var __proto__

tryItOut 950
Compiling threw: SyntaxError: syntax error

tryItOut 951
It's an iterator!
Iterating succeeded, iterCount == 1

tryItOut 952
Compiling threw: SyntaxError: syntax error

tryItOut 953
Compiling threw: TypeError: redeclaration of const constructor

tryItOut 954
Compiling threw: SyntaxError: invalid increment operand

tryItOut 955

tryItOut 956
Compiling threw: SyntaxError: missing ) in parenthetical

tryItOut 957
Compiling threw: SyntaxError: invalid assignment left-hand side

tryItOut 958

tryItOut 959

tryItOut 960
Compiling threw: SyntaxError: missing ) in parenthetical

tryItOut 961
Compiling threw: SyntaxError: label not found

tryItOut 962
Compiling threw: SyntaxError: missing ) after condition

tryItOut 963
It's an iterator!
Iterating succeeded, iterCount == 1

tryItOut 964
Compiling threw: SyntaxError: label not found

tryItOut 965

tryItOut 966
Compiling threw: SyntaxError: missing while after do-loop body

tryItOut 967
Compiling threw: SyntaxError: missing ) after for-loop control

tryItOut 968

tryItOut 969

tryItOut 970

tryItOut 971
Compiling threw: SyntaxError: missing variable name

tryItOut 972
Compiling threw: SyntaxError: syntax error

tryItOut 973

tryItOut 974
Compiling threw: SyntaxError: invalid for/in left-hand side

tryItOut 975
Compiling threw: SyntaxError: missing } after let block

tryItOut 976

tryItOut 977
Compiling threw: SyntaxError: missing ) after for-loop control

tryItOut 978

tryItOut 979
Compiling threw: SyntaxError: missing ) in parenthetical

tryItOut 980
Compiling threw: SyntaxError: label not found

tryItOut 981
Compiling threw: SyntaxError: invalid for/in left-hand side

tryItOut 982
Compiling threw: SyntaxError: missing ; before statement

tryItOut 983
Compiling threw: SyntaxError: invalid continue

tryItOut 984

tryItOut 985
Compiling threw: SyntaxError: label not found

tryItOut 986

tryItOut 987

tryItOut 988
Compiling threw: SyntaxError: duplicate label

tryItOut 989
Compiling threw: SyntaxError: missing ; before statement

tryItOut 990

tryItOut 991

tryItOut 992
It's an iterator!
Iterating threw!
Iterating threw: ReferenceError: reference to undefined XML name *::*

tryItOut 993

tryItOut 994
Compiling threw: SyntaxError: missing ) in parenthetical

tryItOut 995

tryItOut 996
It's an iterator!
Iterating succeeded, iterCount == 1

tryItOut 997
Compiling threw: SyntaxError: missing variable name

tryItOut 998

tryItOut 999

tryItOut 1000

ALL OK

Script done on Sat 04 May 2013 06:11:32 AM PDT
