Script started on Sat 04 May 2013 06:13:08 AM PDT
***
Targeting SpiderMonkey / Gecko.

tryItOut 1

tryItOut 2
Compiling threw: SyntaxError: yield expression must be parenthesized

tryItOut 3

tryItOut 4
Compiling threw: SyntaxError: invalid continue

tryItOut 5
Compiling threw: TypeError: redeclaration of const __count__

tryItOut 6

tryItOut 7
Compiling threw: SyntaxError: missing variable name

tryItOut 8
Compiling threw: SyntaxError: label not found

tryItOut 9
Running threw: ReferenceError: __iterator__ is not defined

tryItOut 10
It's an iterator!
Iterating succeeded, iterCount == 1

tryItOut 11
Compiling threw: SyntaxError: missing ; before statement

tryItOut 12
Compiling threw: SyntaxError: invalid for/in left-hand side

tryItOut 13
Compiling threw: SyntaxError: invalid for/in left-hand side

tryItOut 14
Compiling threw: SyntaxError: missing ) after for-loop control

tryItOut 15
Compiling threw: SyntaxError: invalid XML name

tryItOut 16

tryItOut 17

tryItOut 18
Compiling threw: SyntaxError: invalid XML name

tryItOut 19
Compiling threw: SyntaxError: missing ) in parenthetical

tryItOut 20

tryItOut 21
Compiling threw: SyntaxError: invalid XML name

tryItOut 22
Compiling threw: SyntaxError: missing ) after condition

tryItOut 23
Running threw: ReferenceError: prototype is not defined

tryItOut 24

tryItOut 25
Compiling threw: SyntaxError: missing variable name

tryItOut 26

tryItOut 27

tryItOut 28

tryItOut 29
Compiling threw: SyntaxError: missing { before function body

tryItOut 30
Compiling threw: SyntaxError: invalid for/in left-hand side

tryItOut 31
Compiling threw: SyntaxError: missing variable name

tryItOut 32
Compiling threw: SyntaxError: missing : after property id

tryItOut 33

tryItOut 34

tryItOut 35

tryItOut 36
Running threw: [object Object]

tryItOut 37

tryItOut 38
Compiling threw: SyntaxError: invalid for/in left-hand side

tryItOut 39

tryItOut 40
Compiling threw: SyntaxError: invalid assignment left-hand side

tryItOut 41
Running threw: TypeError: this.zzz has no properties

tryItOut 42
Running threw: TypeError: arguments[0] has no properties

tryItOut 43

tryItOut 44
Compiling threw: SyntaxError: missing ; before statement

tryItOut 45
Compiling threw: SyntaxError: syntax error

tryItOut 46
Compiling threw: SyntaxError: missing ) in parenthetical

tryItOut 47
Compiling threw: SyntaxError: illegal XML character

tryItOut 48
Compiling threw: SyntaxError: missing ; before statement

tryItOut 49

tryItOut 50

tryItOut 51

tryItOut 52
Compiling threw: SyntaxError: invalid for/in left-hand side

tryItOut 53

tryItOut 54

tryItOut 55

tryItOut 56
Compiling threw: SyntaxError: missing ; before statement

tryItOut 57
Compiling threw: SyntaxError: illegal XML character

tryItOut 58

tryItOut 59

tryItOut 60

tryItOut 61

tryItOut 62

tryItOut 63
Compiling threw: SyntaxError: invalid for/in left-hand side

tryItOut 64

tryItOut 65
Compiling threw: SyntaxError: missing variable name

tryItOut 66
Compiling threw: SyntaxError: invalid XML name

tryItOut 67
It's an iterator!
Iterating succeeded, iterCount == 1

tryItOut 68

tryItOut 69
Compiling threw: SyntaxError: label not found

tryItOut 70
Compiling threw: SyntaxError: invalid assignment left-hand side

tryItOut 71
Compiling threw: SyntaxError: illegal character

tryItOut 72

tryItOut 73
Running threw: ReferenceError: __noSuchMethod__ is not defined

tryItOut 74
Running threw: TypeError: this.zzz has no properties

tryItOut 75
Compiling threw: SyntaxError: missing ; after for-loop initializer

tryItOut 76
Compiling threw: SyntaxError: missing ; before statement

tryItOut 77
Compiling threw: SyntaxError: invalid break

tryItOut 78
It's an iterator!
Iterating succeeded, iterCount == 1

tryItOut 79

tryItOut 80
Compiling threw: SyntaxError: duplicate label

tryItOut 81
Compiling threw: TypeError: redeclaration of variable prop

tryItOut 82
Compiling threw: SyntaxError: missing variable name

tryItOut 83
Compiling threw: SyntaxError: missing ; after for-loop condition

tryItOut 84

tryItOut 85
Compiling threw: SyntaxError: invalid XML tag syntax

tryItOut 86
Compiling threw: SyntaxError: invalid continue

tryItOut 87
Compiling threw: SyntaxError: invalid break

tryItOut 88
Compiling threw: SyntaxError: missing variable name

tryItOut 89
Compiling threw: SyntaxError: invalid for/in left-hand side

tryItOut 90

tryItOut 91
Compiling threw: SyntaxError: syntax error

tryItOut 92

tryItOut 93
Compiling threw: SyntaxError: missing name in export statement

tryItOut 94

tryItOut 95
Compiling threw: SyntaxError: invalid destructuring assignment operator

tryItOut 96
before 122080, after 122080, break 00f90000

tryItOut 97

tryItOut 98
Compiling threw: SyntaxError: missing { before function body

tryItOut 99

tryItOut 100

tryItOut 101
Compiling threw: SyntaxError: invalid decrement operand

tryItOut 102
Compiling threw: SyntaxError: missing { before function body

tryItOut 103
Compiling threw: SyntaxError: syntax error

tryItOut 104

tryItOut 105
Running threw: TypeError: arguments[0] has no properties

tryItOut 106

tryItOut 107

tryItOut 108
Compiling threw: SyntaxError: syntax error

tryItOut 109
Compiling threw: SyntaxError: invalid for/in left-hand side

tryItOut 110
Compiling threw: SyntaxError: syntax error

tryItOut 111
Compiling threw: SyntaxError: missing { before function body

tryItOut 112
It's an iterator!
Iterating succeeded, iterCount == 0

tryItOut 113
Running threw: ReferenceError: reference to undefined property "prototype"

tryItOut 114

tryItOut 115

tryItOut 116
Compiling threw: SyntaxError: missing ; after for-loop initializer

tryItOut 117
Running threw: ReferenceError: z1 is not defined

tryItOut 118
Compiling threw: SyntaxError: missing variable name

tryItOut 119
Compiling threw: SyntaxError: missing { before function body

tryItOut 120
Compiling threw: SyntaxError: missing ) after condition

tryItOut 121

tryItOut 122
Compiling threw: SyntaxError: missing ; before statement

tryItOut 123
Compiling threw: SyntaxError: syntax error

tryItOut 124
Compiling threw: SyntaxError: invalid break

tryItOut 125
Compiling threw: SyntaxError: invalid for/in left-hand side

tryItOut 126
Running threw: TypeError: this.zzz has no properties

tryItOut 127

tryItOut 128
Compiling threw: SyntaxError: missing variable name

tryItOut 129

tryItOut 130

tryItOut 131

tryItOut 132

tryItOut 133
Compiling threw: SyntaxError: missing { before function body

tryItOut 134
It's an iterator!
Iterating threw!
Iterating threw: ReferenceError: prop is not defined

tryItOut 135
Compiling threw: SyntaxError: syntax error

tryItOut 136
Compiling threw: SyntaxError: invalid increment operand

tryItOut 137

tryItOut 138
Compiling threw: SyntaxError: missing ; after for-loop initializer

tryItOut 139
Compiling threw: SyntaxError: invalid for/in left-hand side

tryItOut 140
Compiling threw: SyntaxError: missing name after . operator

tryItOut 141

tryItOut 142

tryItOut 143
Running threw: ReferenceError: reference to undefined property "__noSuchMethod__"

tryItOut 144
Running threw: TypeError: this.zzz has no properties

tryItOut 145

tryItOut 146
Compiling threw: SyntaxError: illegal XML character

tryItOut 147

tryItOut 148

tryItOut 149
Compiling threw: SyntaxError: missing = in destructuring declaration

tryItOut 150

tryItOut 151
Compiling threw: SyntaxError: missing : after property id

tryItOut 152
Compiling threw: SyntaxError: syntax error

tryItOut 153

tryItOut 154
Compiling threw: SyntaxError: invalid for/in left-hand side

tryItOut 155
Running threw: TypeError: this.zzz has no properties

tryItOut 156

tryItOut 157
Compiling threw: SyntaxError: missing ; after for-loop initializer

tryItOut 158
Compiling threw: SyntaxError: syntax error

tryItOut 159
Compiling threw: SyntaxError: invalid break

tryItOut 160
Compiling threw: SyntaxError: missing variable name

tryItOut 161

tryItOut 162
Compiling threw: SyntaxError: missing = in destructuring declaration

tryItOut 163

tryItOut 164
Compiling threw: SyntaxError: missing : after property id

tryItOut 165
before 122080, after 122080, break 00f90000

tryItOut 166
Compiling threw: SyntaxError: missing ) after condition

tryItOut 167
Compiling threw: SyntaxError: missing variable name

tryItOut 168
Compiling threw: SyntaxError: syntax error

tryItOut 169
Compiling threw: SyntaxError: missing ; before statement

tryItOut 170

tryItOut 171
Compiling threw: TypeError: redeclaration of const prop

tryItOut 172

tryItOut 173

tryItOut 174
Compiling threw: SyntaxError: missing ) in parenthetical

tryItOut 175
Compiling threw: SyntaxError: missing ; before statement

tryItOut 176
Compiling threw: SyntaxError: invalid XML name

tryItOut 177

tryItOut 178
It's an iterator!
Iterating threw!
Iterating threw: TypeError: __parent__ has no properties

tryItOut 179
It's an iterator!
Iterating succeeded, iterCount == 1

tryItOut 180

tryItOut 181
Running threw: SyntaxError: invalid getter usage

tryItOut 182
Compiling threw: SyntaxError: missing variable name

tryItOut 183
Compiling threw: SyntaxError: syntax error

tryItOut 184

tryItOut 185
Compiling threw: SyntaxError: invalid XML name

tryItOut 186

tryItOut 187

tryItOut 188
Compiling threw: SyntaxError: missing variable name

tryItOut 189
Compiling threw: SyntaxError: missing ) in parenthetical

tryItOut 190

tryItOut 191

tryItOut 192
Compiling threw: SyntaxError: invalid XML name

tryItOut 193
Compiling threw: SyntaxError: label not found

tryItOut 194
Compiling threw: SyntaxError: missing variable name

tryItOut 195
Compiling threw: SyntaxError: label not found

tryItOut 196
Compiling threw: SyntaxError: syntax error

tryItOut 197
It's an iterator!
Iterating succeeded, iterCount == 1

tryItOut 198

tryItOut 199

tryItOut 200
Compiling threw: SyntaxError: invalid for/in left-hand side

tryItOut 201

tryItOut 202

tryItOut 203
Compiling threw: SyntaxError: syntax error

tryItOut 204

tryItOut 205

tryItOut 206
Running threw: ReferenceError: prop is not defined

tryItOut 207
Compiling threw: SyntaxError: invalid for/in left-hand side

tryItOut 208

tryItOut 209
It's an iterator!
Iterating threw!
Iterating threw: ReferenceError: z1 is not defined

tryItOut 210
Running threw: ReferenceError: prop is not defined

tryItOut 211
Compiling threw: SyntaxError: syntax error

tryItOut 212

tryItOut 213
before 122080, after 122080, break 00f90000

tryItOut 214

tryItOut 215
Compiling threw: SyntaxError: syntax error

tryItOut 216
Compiling threw: SyntaxError: invalid continue

tryItOut 217
Compiling threw: SyntaxError: invalid for/in left-hand side

tryItOut 218
Compiling threw: SyntaxError: syntax error

tryItOut 219
Running threw: TypeError: this.zzz has no properties

tryItOut 220
Compiling threw: SyntaxError: invalid destructuring assignment operator

tryItOut 221
Running threw: TypeError: this.zzz has no properties

tryItOut 222

tryItOut 223

tryItOut 224
Running threw: ReferenceError: prop is not defined

tryItOut 225
Compiling threw: SyntaxError: missing ; after for-loop initializer

tryItOut 226

tryItOut 227
Compiling threw: SyntaxError: invalid assignment left-hand side

tryItOut 228

tryItOut 229
Running threw: 0

tryItOut 230

tryItOut 231
Compiling threw: SyntaxError: missing ) in parenthetical

tryItOut 232

tryItOut 233

tryItOut 234
Compiling threw: SyntaxError: label not found

tryItOut 235
Compiling threw: SyntaxError: invalid assignment left-hand side

tryItOut 236
Compiling threw: SyntaxError: duplicate label

tryItOut 237
before 122080, after 122080, break 00f90000

tryItOut 238
Compiling threw: SyntaxError: label not found

tryItOut 239

tryItOut 240
Compiling threw: SyntaxError: invalid XML name

tryItOut 241
Compiling threw: TypeError: redeclaration of variable __proto__

tryItOut 242
Compiling threw: SyntaxError: invalid XML name

tryItOut 243
Compiling threw: SyntaxError: invalid XML name

tryItOut 244
Compiling threw: SyntaxError: missing variable name

tryItOut 245

tryItOut 246
Compiling threw: SyntaxError: missing ) in parenthetical

tryItOut 247

tryItOut 248

tryItOut 249

tryItOut 250
Compiling threw: SyntaxError: missing variable name

tryItOut 251
Running threw: TypeError: this.zzz has no properties

tryItOut 252
Compiling threw: SyntaxError: invalid for/in left-hand side

tryItOut 253
It's an iterator!
Iterating threw!
Iterating threw: Error: invalid sharp variable use #1#

tryItOut 254
Compiling threw: SyntaxError: syntax error

tryItOut 255
Compiling threw: SyntaxError: syntax error

tryItOut 256
Compiling threw: SyntaxError: missing ; after for-loop initializer

tryItOut 257

tryItOut 258

tryItOut 259
Compiling threw: SyntaxError: label not found

tryItOut 260

tryItOut 261

tryItOut 262

tryItOut 263
Compiling threw: SyntaxError: label not found

tryItOut 264
Compiling threw: SyntaxError: missing variable name

tryItOut 265
Compiling threw: SyntaxError: invalid for/in left-hand side

tryItOut 266
Compiling threw: SyntaxError: invalid XML name

tryItOut 267
Compiling threw: SyntaxError: syntax error

tryItOut 268

tryItOut 269

tryItOut 270

tryItOut 271

tryItOut 272

tryItOut 273
Compiling threw: SyntaxError: missing ) in parenthetical

tryItOut 274
Compiling threw: SyntaxError: missing = in XML attribute

tryItOut 275

tryItOut 276
Running threw: ReferenceError: prop is not defined

tryItOut 277
Compiling threw: SyntaxError: invalid for/in left-hand side

tryItOut 278
Compiling threw: SyntaxError: missing ] in index expression

tryItOut 279

tryItOut 280

tryItOut 281
Compiling threw: TypeError: redeclaration of var __noSuchMethod__

tryItOut 282

tryItOut 283
It's an iterator!
Iterating succeeded, iterCount == 1

tryItOut 284
Compiling threw: SyntaxError: invalid break

tryItOut 285

tryItOut 286
Compiling threw: SyntaxError: invalid XML name

tryItOut 287

tryItOut 288
Compiling threw: SyntaxError: missing variable name

tryItOut 289
Compiling threw: SyntaxError: invalid for/in left-hand side

tryItOut 290
Compiling threw: SyntaxError: missing = in destructuring declaration

tryItOut 291

tryItOut 292
Compiling threw: TypeError: redeclaration of variable prop

tryItOut 293

tryItOut 294

tryItOut 295

tryItOut 296
Compiling threw: SyntaxError: missing { before function body

tryItOut 297
Running threw: TypeError: this.zzz has no properties

tryItOut 298
Compiling threw: SyntaxError: missing ) in parenthetical

tryItOut 299
Compiling threw: SyntaxError: syntax error

tryItOut 300

tryItOut 301
Compiling threw: SyntaxError: missing } in XML expression

tryItOut 302

tryItOut 303
Compiling threw: SyntaxError: missing ) in parenthetical

tryItOut 304
Compiling threw: SyntaxError: missing ) in parenthetical

tryItOut 305
Compiling threw: SyntaxError: invalid for/in left-hand side

tryItOut 306
Compiling threw: SyntaxError: invalid XML name

tryItOut 307
Compiling threw: SyntaxError: syntax error

tryItOut 308
Compiling threw: SyntaxError: invalid XML list syntax

tryItOut 309
Compiling threw: SyntaxError: missing : after property id

tryItOut 310

tryItOut 311

tryItOut 312
Compiling threw: SyntaxError: missing ; before statement

tryItOut 313
Compiling threw: SyntaxError: invalid XML name

tryItOut 314

tryItOut 315
Compiling threw: SyntaxError: missing variable name

tryItOut 316
It's an iterator!
Iterating succeeded, iterCount == 1

tryItOut 317
Compiling threw: SyntaxError: syntax error

tryItOut 318

tryItOut 319
Compiling threw: SyntaxError: invalid for/in left-hand side

tryItOut 320

tryItOut 321
Compiling threw: SyntaxError: missing = in destructuring declaration

tryItOut 322
Running threw: TypeError: __parent__ has no properties

tryItOut 323
Compiling threw: SyntaxError: missing variable name

tryItOut 324
Compiling threw: SyntaxError: missing variable name

tryItOut 325
Compiling threw: SyntaxError: label not found

tryItOut 326

tryItOut 327
Compiling threw: SyntaxError: missing ) in parenthetical

tryItOut 328

tryItOut 329

tryItOut 330
Compiling threw: SyntaxError: missing ( before let head

tryItOut 331

tryItOut 332

tryItOut 333

tryItOut 334
Compiling threw: SyntaxError: invalid XML name

tryItOut 335

tryItOut 336

tryItOut 337
Compiling threw: SyntaxError: label not found

tryItOut 338
It's an iterator!
Iterating threw!
Iterating threw: ReferenceError: z2 is not defined

tryItOut 339

tryItOut 340
Compiling threw: SyntaxError: missing ) after let head

tryItOut 341
Compiling threw: SyntaxError: label not found

tryItOut 342
Compiling threw: SyntaxError: missing variable name

tryItOut 343
Compiling threw: SyntaxError: invalid for/in left-hand side

tryItOut 344
It's an iterator!
Iterating succeeded, iterCount == 1

tryItOut 345

tryItOut 346
Compiling threw: SyntaxError: invalid for/in left-hand side

tryItOut 347
Compiling threw: SyntaxError: missing variable name

tryItOut 348

tryItOut 349
Compiling threw: SyntaxError: missing variable name

tryItOut 350
Compiling threw: SyntaxError: invalid break

tryItOut 351

tryItOut 352
Running threw: TypeError: this.zzz has no properties

tryItOut 353

tryItOut 354
Compiling threw: SyntaxError: syntax error

tryItOut 355
Compiling threw: SyntaxError: invalid XML name

tryItOut 356
Compiling threw: SyntaxError: label not found

tryItOut 357

tryItOut 358

tryItOut 359

tryItOut 360
Compiling threw: SyntaxError: missing ; before statement

tryItOut 361
Compiling threw: SyntaxError: invalid continue

tryItOut 362

tryItOut 363
Compiling threw: SyntaxError: label not found

tryItOut 364
Compiling threw: SyntaxError: missing variable name

tryItOut 365
Compiling threw: SyntaxError: invalid assignment left-hand side

tryItOut 366
Compiling threw: SyntaxError: label not found

tryItOut 367

tryItOut 368

tryItOut 369

tryItOut 370
Compiling threw: SyntaxError: invalid for/in left-hand side

tryItOut 371

tryItOut 372
Compiling threw: SyntaxError: syntax error

tryItOut 373
Compiling threw: SyntaxError: invalid for/in left-hand side

tryItOut 374

tryItOut 375

tryItOut 376

tryItOut 377

tryItOut 378
Compiling threw: SyntaxError: invalid for each loop

tryItOut 379
Running threw: ReferenceError: b is not defined

tryItOut 380
Compiling threw: SyntaxError: missing variable name

tryItOut 381
Compiling threw: SyntaxError: missing variable name

tryItOut 382
Compiling threw: TypeError: redeclaration of const prop

tryItOut 383

tryItOut 384
Running threw: TypeError: this.zzz has no properties

tryItOut 385
Running threw: null

tryItOut 386
Compiling threw: SyntaxError: invalid for each loop

tryItOut 387
before 156960, after 156960, break 00ff0000

tryItOut 388
Compiling threw: SyntaxError: invalid for/in left-hand side

tryItOut 389
Compiling threw: SyntaxError: missing = in destructuring declaration

tryItOut 390
Compiling threw: SyntaxError: invalid continue

tryItOut 391
Compiling threw: SyntaxError: duplicate label

tryItOut 392

tryItOut 393
It's an iterator!
Iterating succeeded, iterCount == 1

tryItOut 394
Running threw: 0

tryItOut 395

tryItOut 396
Compiling threw: SyntaxError: label not found

tryItOut 397
Compiling threw: SyntaxError: label not found

tryItOut 398
Compiling threw: SyntaxError: invalid break

tryItOut 399

tryItOut 400
Compiling threw: SyntaxError: missing ) in parenthetical

tryItOut 401

tryItOut 402

tryItOut 403

tryItOut 404
Compiling threw: SyntaxError: invalid assignment left-hand side

tryItOut 405
Compiling threw: SyntaxError: label not found

tryItOut 406

tryItOut 407
Compiling threw: SyntaxError: missing = in destructuring declaration

tryItOut 408

tryItOut 409
before 156960, after 156960, break 01008000

tryItOut 410
Compiling threw: SyntaxError: illegal XML character

tryItOut 411

tryItOut 412
Compiling threw: SyntaxError: missing ; before statement

tryItOut 413

tryItOut 414

tryItOut 415
It's an iterator!
Iterating threw!
Iterating threw: TypeError: this.zzz has no properties

tryItOut 416
Compiling threw: SyntaxError: invalid continue

tryItOut 417
Compiling threw: SyntaxError: missing variable name

tryItOut 418
Compiling threw: SyntaxError: invalid for/in left-hand side

tryItOut 419
Compiling threw: SyntaxError: invalid XML name

tryItOut 420
Running threw: ReferenceError: Exception is not defined

tryItOut 421

tryItOut 422
Running threw: ReferenceError: z1 is not defined

tryItOut 423
Compiling threw: SyntaxError: missing = in destructuring declaration

tryItOut 424

tryItOut 425
Compiling threw: SyntaxError: label not found

tryItOut 426

tryItOut 427

tryItOut 428

tryItOut 429
Compiling threw: SyntaxError: missing ; after for-loop initializer

tryItOut 430
Compiling threw: SyntaxError: label not found

tryItOut 431
Compiling threw: TypeError: redeclaration of const __count__

tryItOut 432
Compiling threw: SyntaxError: missing ) after let head

tryItOut 433

tryItOut 434
Compiling threw: SyntaxError: label not found

tryItOut 435
Running threw: TypeError: this.zzz has no properties

tryItOut 436

tryItOut 437
Compiling threw: SyntaxError: label not found

tryItOut 438
It's an iterator!
Iterating succeeded, iterCount == 1

tryItOut 439
Compiling threw: SyntaxError: missing ; before statement

tryItOut 440
Compiling threw: SyntaxError: missing name after . operator

tryItOut 441
Compiling threw: SyntaxError: invalid XML name

tryItOut 442

tryItOut 443

tryItOut 444
Compiling threw: SyntaxError: missing ; before statement

tryItOut 445

tryItOut 446
Compiling threw: SyntaxError: invalid for/in left-hand side

tryItOut 447

tryItOut 448

tryItOut 449
Compiling threw: TypeError: redeclaration of variable __parent__

tryItOut 450
Compiling threw: SyntaxError: missing ) in parenthetical

tryItOut 451
Compiling threw: SyntaxError: missing variable name

tryItOut 452

tryItOut 453

tryItOut 454
Compiling threw: SyntaxError: missing { before function body

tryItOut 455
Compiling threw: SyntaxError: invalid for each loop

tryItOut 456
Compiling threw: TypeError: redeclaration of const __proto__

tryItOut 457
Compiling threw: SyntaxError: missing ; before statement

tryItOut 458
Compiling threw: SyntaxError: syntax error

tryItOut 459

tryItOut 460
Running threw: ReferenceError: z1 is not defined

tryItOut 461
Compiling threw: SyntaxError: missing ) in parenthetical

tryItOut 462

tryItOut 463
Compiling threw: SyntaxError: missing variable name

tryItOut 464
Compiling threw: SyntaxError: duplicate label

tryItOut 465
It's an iterator!
Iterating threw!
Iterating threw: ReferenceError: reference to undefined XML name @mozilla.org/js/function::__noSuchMethod__

tryItOut 466
Compiling threw: SyntaxError: missing ; before statement

tryItOut 467
Compiling threw: SyntaxError: invalid continue

tryItOut 468
Compiling threw: SyntaxError: invalid continue

tryItOut 469

tryItOut 470
Compiling threw: SyntaxError: missing : after property id

tryItOut 471
It's an iterator!
Iterating succeeded, iterCount == 1

tryItOut 472
Compiling threw: SyntaxError: invalid XML name

tryItOut 473
Compiling threw: SyntaxError: invalid flag after regular expression

tryItOut 474

tryItOut 475
Compiling threw: SyntaxError: invalid continue

tryItOut 476

tryItOut 477

tryItOut 478

tryItOut 479

tryItOut 480
Compiling threw: SyntaxError: invalid for/in left-hand side

tryItOut 481
Running threw: TypeError: this.zzz has no properties

tryItOut 482
It's an iterator!
Iterating threw!
Iterating threw: Error: invalid sharp variable use #1#

tryItOut 483

tryItOut 484
Running threw: 0

tryItOut 485
Compiling threw: SyntaxError: invalid assignment left-hand side

tryItOut 486
Compiling threw: SyntaxError: missing ; after for-loop initializer

tryItOut 487

tryItOut 488

tryItOut 489

tryItOut 490
before 156960, after 156960, break 01008000

tryItOut 491
before 156960, after 156960, break 01008000

tryItOut 492
Compiling threw: SyntaxError: missing : after property id

tryItOut 493
Running threw: TypeError: this.__defineGetter__("__noSuchMethod__", Math.pow) has no properties

tryItOut 494
Compiling threw: SyntaxError: syntax error

tryItOut 495
Compiling threw: SyntaxError: missing = in destructuring declaration

tryItOut 496
Compiling threw: SyntaxError: missing ; before statement

tryItOut 497
Compiling threw: SyntaxError: syntax error

tryItOut 498
Compiling threw: SyntaxError: label not found

tryItOut 499
Compiling threw: SyntaxError: syntax error

tryItOut 500
before 156960, after 156960, break 01008000

tryItOut 501

tryItOut 502

tryItOut 503

tryItOut 504

tryItOut 505
Running threw: TypeError: this.zzz has no properties

tryItOut 506
Running threw: ReferenceError: z2 is not defined

tryItOut 507

tryItOut 508
Compiling threw: SyntaxError: missing ; after for-loop initializer

tryItOut 509
Compiling threw: SyntaxError: syntax error

tryItOut 510
before 156960, after 156960, break 01008000

tryItOut 511

tryItOut 512
Compiling threw: SyntaxError: invalid XML name

tryItOut 513

tryItOut 514

tryItOut 515
Compiling threw: SyntaxError: invalid for/in left-hand side

tryItOut 516

tryItOut 517
Compiling threw: SyntaxError: missing variable name

tryItOut 518
Compiling threw: SyntaxError: invalid for/in left-hand side

tryItOut 519
Compiling threw: SyntaxError: missing ; before statement

tryItOut 520
Compiling threw: SyntaxError: invalid XML name

tryItOut 521

tryItOut 522
Compiling threw: SyntaxError: label not found

tryItOut 523
Compiling threw: SyntaxError: missing ( before let head

tryItOut 524

tryItOut 525

tryItOut 526

tryItOut 527
Compiling threw: SyntaxError: invalid for/in left-hand side

tryItOut 528

tryItOut 529
Running threw: TypeError: this.zzz has no properties

tryItOut 530

tryItOut 531

tryItOut 532

tryItOut 533
Compiling threw: SyntaxError: invalid XML name

tryItOut 534
It's an iterator!
Iterating succeeded, iterCount == 1

tryItOut 535

tryItOut 536
Running threw: TypeError: this.zzz has no properties

tryItOut 537

tryItOut 538
Compiling threw: SyntaxError: missing ) in parenthetical

tryItOut 539
Compiling threw: SyntaxError: invalid assignment left-hand side

tryItOut 540

tryItOut 541

tryItOut 542

tryItOut 543
Compiling threw: SyntaxError: invalid break

tryItOut 544
Compiling threw: SyntaxError: invalid for/in left-hand side

tryItOut 545
Compiling threw: SyntaxError: invalid continue

tryItOut 546

tryItOut 547

tryItOut 548

tryItOut 549

tryItOut 550

tryItOut 551

tryItOut 552
Compiling threw: SyntaxError: missing ) after argument list

tryItOut 553
Compiling threw: SyntaxError: missing ) after argument list

tryItOut 554
Compiling threw: SyntaxError: syntax error

tryItOut 555
Compiling threw: SyntaxError: invalid XML name

tryItOut 556
Compiling threw: SyntaxError: invalid for/in left-hand side

tryItOut 557
Compiling threw: SyntaxError: syntax error

tryItOut 558

tryItOut 559

tryItOut 560

tryItOut 561
Compiling threw: SyntaxError: missing variable name

tryItOut 562
Compiling threw: SyntaxError: invalid assignment left-hand side

tryItOut 563
Compiling threw: SyntaxError: invalid decrement operand

tryItOut 564

tryItOut 565

tryItOut 566

tryItOut 567
Compiling threw: SyntaxError: missing ; before statement

tryItOut 568

tryItOut 569
Compiling threw: SyntaxError: illegal XML character

tryItOut 570
Compiling threw: SyntaxError: invalid increment operand

tryItOut 571
Compiling threw: SyntaxError: invalid for/in left-hand side

tryItOut 572
Compiling threw: SyntaxError: invalid continue

tryItOut 573
Compiling threw: SyntaxError: missing ; before statement

tryItOut 574
Running threw: TypeError: this.zzz has no properties

tryItOut 575
Compiling threw: SyntaxError: missing variable name

tryItOut 576
Compiling threw: SyntaxError: missing ; before statement

tryItOut 577
Compiling threw: SyntaxError: illegal XML character

tryItOut 578
Compiling threw: SyntaxError: illegal XML character

tryItOut 579

tryItOut 580
Compiling threw: SyntaxError: invalid for/in left-hand side

tryItOut 581
Compiling threw: SyntaxError: syntax error

tryItOut 582
Compiling threw: SyntaxError: missing ; before statement

tryItOut 583
It's an iterator!
Iterating threw!
Iterating threw: ReferenceError: z1 is not defined

tryItOut 584
Compiling threw: SyntaxError: unterminated regular expression literal

tryItOut 585
Running threw: TypeError: this.zzz has no properties

tryItOut 586

tryItOut 587

tryItOut 588

tryItOut 589

tryItOut 590

tryItOut 591
Compiling threw: SyntaxError: invalid for/in left-hand side

tryItOut 592

tryItOut 593

tryItOut 594
Compiling threw: SyntaxError: missing ) in parenthetical

tryItOut 595

tryItOut 596
Compiling threw: SyntaxError: syntax error

tryItOut 597

tryItOut 598

tryItOut 599

tryItOut 600
Compiling threw: SyntaxError: invalid for/in left-hand side

tryItOut 601

tryItOut 602

tryItOut 603
Compiling threw: SyntaxError: missing ; before statement

tryItOut 604

tryItOut 605
Compiling threw: SyntaxError: invalid XML name

tryItOut 606

tryItOut 607

tryItOut 608
It's an iterator!
Iterating succeeded, iterCount == 1

tryItOut 609

tryItOut 610

tryItOut 611
Compiling threw: SyntaxError: invalid default XML namespace

tryItOut 612
Running threw: Error: invalid sharp variable use #1#

tryItOut 613

tryItOut 614

tryItOut 615
Compiling threw: SyntaxError: invalid for/in left-hand side

tryItOut 616

tryItOut 617
Compiling threw: SyntaxError: missing } in XML expression

tryItOut 618
Compiling threw: SyntaxError: missing ( before formal parameters

tryItOut 619

tryItOut 620
Running threw: TypeError: this.zzz has no properties

tryItOut 621

tryItOut 622
Compiling threw: SyntaxError: invalid assignment left-hand side

tryItOut 623
It's an iterator!
Iterating succeeded, iterCount == 1

tryItOut 624
Compiling threw: SyntaxError: label not found

tryItOut 625

tryItOut 626
Compiling threw: SyntaxError: missing ; after for-loop initializer

tryItOut 627

tryItOut 628

tryItOut 629

tryItOut 630

tryItOut 631

tryItOut 632

tryItOut 633
It's an iterator!
Iterating succeeded, iterCount == 1

tryItOut 634

tryItOut 635
Compiling threw: SyntaxError: invalid continue

tryItOut 636

tryItOut 637

tryItOut 638

tryItOut 639

tryItOut 640
It's an iterator!
Iterating succeeded, iterCount == 1

tryItOut 641
Compiling threw: SyntaxError: missing ) after condition

tryItOut 642

tryItOut 643

tryItOut 644

tryItOut 645
Compiling threw: SyntaxError: missing ) in parenthetical

tryItOut 646
Compiling threw: SyntaxError: missing variable name

tryItOut 647
Compiling threw: SyntaxError: missing variable name

tryItOut 648
Compiling threw: SyntaxError: missing ; before statement

tryItOut 649
Compiling threw: SyntaxError: missing ; before statement

tryItOut 650

tryItOut 651
Compiling threw: SyntaxError: illegal XML character

tryItOut 652
It's an iterator!
Iterating threw!
Iterating threw: [object Object]

tryItOut 653
Compiling threw: SyntaxError: missing ; before statement

tryItOut 654
Compiling threw: SyntaxError: label not found

tryItOut 655

tryItOut 656
Compiling threw: SyntaxError: invalid for/in left-hand side

tryItOut 657

tryItOut 658
Compiling threw: SyntaxError: invalid assignment left-hand side

tryItOut 659
Compiling threw: SyntaxError: missing variable name

tryItOut 660
Compiling threw: SyntaxError: missing variable name

tryItOut 661
It's an iterator!
Iterating succeeded, iterCount == 1

tryItOut 662
It's an iterator!
Iterating succeeded, iterCount == 1

tryItOut 663

tryItOut 664
Compiling threw: SyntaxError: syntax error

tryItOut 665
Compiling threw: SyntaxError: label not found

tryItOut 666
Compiling threw: SyntaxError: invalid assignment left-hand side

tryItOut 667
It's an iterator!
Iterating succeeded, iterCount == 1

tryItOut 668

tryItOut 669

tryItOut 670
Compiling threw: SyntaxError: invalid assignment left-hand side

tryItOut 671

tryItOut 672
Compiling threw: SyntaxError: invalid XML name

tryItOut 673
Compiling threw: SyntaxError: invalid for/in left-hand side

tryItOut 674

tryItOut 675

tryItOut 676

tryItOut 677

tryItOut 678
Compiling threw: SyntaxError: syntax error

tryItOut 679
Compiling threw: TypeError: redeclaration of variable __count__

tryItOut 680
Compiling threw: SyntaxError: invalid for/in left-hand side

tryItOut 681
It's an iterator!
Iterating succeeded, iterCount == 1

tryItOut 682
Compiling threw: SyntaxError: missing ) after condition

tryItOut 683

tryItOut 684
Compiling threw: SyntaxError: missing ; before statement

tryItOut 685
before 209280, after 209280, break 01068000
before 209280, after 209280, break 01068000

tryItOut 686
Compiling threw: SyntaxError: missing variable name

tryItOut 687
Compiling threw: TypeError: redeclaration of variable __count__

tryItOut 688
Compiling threw: SyntaxError: missing ; before statement

tryItOut 689
Compiling threw: SyntaxError: label not found

tryItOut 690

tryItOut 691
Compiling threw: SyntaxError: syntax error

tryItOut 692
Compiling threw: TypeError: redeclaration of const __iterator__

tryItOut 693
Compiling threw: SyntaxError: invalid XML name

tryItOut 694

tryItOut 695

tryItOut 696
before 209280, after 209280, break 01068000

tryItOut 697

tryItOut 698

tryItOut 699
Compiling threw: SyntaxError: missing ; before statement

tryItOut 700

tryItOut 701
Compiling threw: SyntaxError: missing variable name

tryItOut 702
Compiling threw: SyntaxError: duplicate label

tryItOut 703

tryItOut 704
Compiling threw: SyntaxError: invalid for/in left-hand side

tryItOut 705
Compiling threw: SyntaxError: invalid for/in left-hand side

tryItOut 706

tryItOut 707
Compiling threw: SyntaxError: missing variable name

tryItOut 708
Compiling threw: SyntaxError: label not found

tryItOut 709
Compiling threw: SyntaxError: invalid continue

tryItOut 710
Compiling threw: SyntaxError: invalid for/in left-hand side

tryItOut 711
Compiling threw: SyntaxError: missing = in destructuring declaration

tryItOut 712
Running threw: TypeError: this.zzz has no properties

tryItOut 713
Compiling threw: SyntaxError: duplicate label

tryItOut 714

tryItOut 715
Compiling threw: SyntaxError: invalid continue

tryItOut 716
Compiling threw: SyntaxError: invalid decrement operand

tryItOut 717

tryItOut 718
Compiling threw: SyntaxError: syntax error

tryItOut 719
Compiling threw: SyntaxError: invalid for/in left-hand side

tryItOut 720

tryItOut 721
Compiling threw: SyntaxError: invalid for/in left-hand side

tryItOut 722

tryItOut 723

tryItOut 724

tryItOut 725
Running threw: NaN

tryItOut 726
It's an iterator!
Iterating succeeded, iterCount == 1

tryItOut 727
Compiling threw: SyntaxError: missing variable name

tryItOut 728

tryItOut 729

tryItOut 730

tryItOut 731
Compiling threw: SyntaxError: invalid for/in left-hand side

tryItOut 732
Compiling threw: SyntaxError: syntax error

tryItOut 733

tryItOut 734

tryItOut 735
Compiling threw: SyntaxError: invalid continue

tryItOut 736
Compiling threw: SyntaxError: label not found

tryItOut 737
It's an iterator!
Iterating succeeded, iterCount == 1

tryItOut 738

tryItOut 739
Compiling threw: SyntaxError: invalid assignment left-hand side

tryItOut 740
Compiling threw: SyntaxError: invalid for/in left-hand side

tryItOut 741
Compiling threw: SyntaxError: missing ) in parenthetical

tryItOut 742
Compiling threw: SyntaxError: invalid for/in left-hand side

tryItOut 743

tryItOut 744
Compiling threw: SyntaxError: invalid assignment left-hand side

tryItOut 745
Compiling threw: SyntaxError: missing ; before statement

tryItOut 746

tryItOut 747
Compiling threw: SyntaxError: invalid break

tryItOut 748
Compiling threw: SyntaxError: missing ; before statement

tryItOut 749
Compiling threw: SyntaxError: invalid XML name

tryItOut 750

tryItOut 751

tryItOut 752

tryItOut 753

tryItOut 754
Compiling threw: SyntaxError: missing : after property id

tryItOut 755
Compiling threw: SyntaxError: invalid decrement operand

tryItOut 756

tryItOut 757

tryItOut 758

tryItOut 759
Compiling threw: SyntaxError: missing { before function body

tryItOut 760

tryItOut 761
Compiling threw: SyntaxError: invalid for/in left-hand side

tryItOut 762
It's an iterator!
Iterating threw!
Iterating threw: TypeError: constructor is not a constructor

tryItOut 763

tryItOut 764
Compiling threw: SyntaxError: missing ; before statement

tryItOut 765
Compiling threw: SyntaxError: invalid for/in left-hand side

tryItOut 766

tryItOut 767
Compiling threw: SyntaxError: invalid increment operand

tryItOut 768

tryItOut 769
Compiling threw: SyntaxError: missing ; after for-loop initializer

tryItOut 770
Compiling threw: SyntaxError: missing ) after condition

tryItOut 771

tryItOut 772
Running threw: ReferenceError: reference to undefined XML name @mozilla.org/js/function::__iterator__

tryItOut 773
Compiling threw: SyntaxError: syntax error

tryItOut 774
Compiling threw: SyntaxError: missing ; before statement

tryItOut 775
Compiling threw: SyntaxError: missing ; after for-loop initializer

tryItOut 776
Compiling threw: SyntaxError: missing variable name

tryItOut 777
Compiling threw: SyntaxError: missing ) after let head

tryItOut 778

tryItOut 779

tryItOut 780
Compiling threw: SyntaxError: missing ( before let head

tryItOut 781
Compiling threw: SyntaxError: invalid for/in left-hand side

tryItOut 782
It's an iterator!
Iterating succeeded, iterCount == 4

tryItOut 783
Compiling threw: SyntaxError: syntax error

tryItOut 784
Compiling threw: SyntaxError: invalid for each loop

tryItOut 785
Compiling threw: SyntaxError: missing ) in parenthetical

tryItOut 786
Compiling threw: SyntaxError: syntax error

tryItOut 787
Compiling threw: SyntaxError: syntax error

tryItOut 788
before 209280, after 209280, break 01068000

tryItOut 789
Compiling threw: SyntaxError: invalid break

tryItOut 790

tryItOut 791
Compiling threw: SyntaxError: syntax error

tryItOut 792

tryItOut 793

tryItOut 794

tryItOut 795
Compiling threw: SyntaxError: missing variable name

tryItOut 796

tryItOut 797

tryItOut 798

tryItOut 799

tryItOut 800

tryItOut 801

tryItOut 802
Compiling threw: TypeError: redeclaration of const __parent__

tryItOut 803

tryItOut 804
Compiling threw: SyntaxError: missing name after . operator

tryItOut 805
Compiling threw: SyntaxError: invalid XML name

tryItOut 806

tryItOut 807

tryItOut 808
It's an iterator!
Iterating succeeded, iterCount == 1

tryItOut 809

tryItOut 810

tryItOut 811
Compiling threw: SyntaxError: missing ; after for-loop initializer

tryItOut 812

tryItOut 813
Compiling threw: SyntaxError: missing variable name

tryItOut 814
Compiling threw: SyntaxError: missing variable name

tryItOut 815
Compiling threw: SyntaxError: yield expression must be parenthesized

tryItOut 816
Compiling threw: SyntaxError: invalid for/in left-hand side

tryItOut 817

tryItOut 818

tryItOut 819

tryItOut 820
Compiling threw: SyntaxError: missing variable name

tryItOut 821

tryItOut 822
Compiling threw: SyntaxError: syntax error

tryItOut 823
Compiling threw: SyntaxError: missing : after property id

tryItOut 824
It's an iterator!
Iterating succeeded, iterCount == 1

tryItOut 825
Running threw: NaN

tryItOut 826

tryItOut 827
Compiling threw: SyntaxError: syntax error

tryItOut 828

tryItOut 829
Running threw: 108

tryItOut 830

tryItOut 831

tryItOut 832
Compiling threw: SyntaxError: missing variable name

tryItOut 833
Compiling threw: SyntaxError: missing ) in parenthetical

tryItOut 834

tryItOut 835
It's an iterator!
Iterating succeeded, iterCount == 2

tryItOut 836

tryItOut 837
Compiling threw: SyntaxError: invalid for/in left-hand side

tryItOut 838
Compiling threw: SyntaxError: invalid XML name

tryItOut 839
Compiling threw: SyntaxError: invalid continue

tryItOut 840
Compiling threw: TypeError: redeclaration of const __parent__

tryItOut 841

tryItOut 842
Compiling threw: SyntaxError: invalid assignment left-hand side

tryItOut 843

tryItOut 844
Compiling threw: SyntaxError: missing ; before statement

tryItOut 845

tryItOut 846

tryItOut 847
Compiling threw: SyntaxError: label not found

tryItOut 848
Compiling threw: SyntaxError: invalid assignment left-hand side

tryItOut 849

tryItOut 850

tryItOut 851
Running threw: TypeError: this.zzz has no properties

tryItOut 852

tryItOut 853

tryItOut 854

tryItOut 855
It's an iterator!
Iterating succeeded, iterCount == 1

tryItOut 856
Compiling threw: SyntaxError: missing ; before statement

tryItOut 857
Compiling threw: SyntaxError: syntax error

tryItOut 858

tryItOut 859
Compiling threw: SyntaxError: label not found

tryItOut 860
Compiling threw: SyntaxError: syntax error

tryItOut 861

tryItOut 862
Compiling threw: SyntaxError: missing ; before statement

tryItOut 863
Compiling threw: SyntaxError: missing ) after condition

tryItOut 864

tryItOut 865

tryItOut 866

tryItOut 867
Compiling threw: SyntaxError: missing ) in parenthetical

tryItOut 868
Compiling threw: SyntaxError: missing ; after for-loop initializer

tryItOut 869
Compiling threw: SyntaxError: missing variable name

tryItOut 870
Compiling threw: SyntaxError: missing = in destructuring declaration

tryItOut 871
It's an iterator!
Iterating succeeded, iterCount == 0

tryItOut 872

tryItOut 873

tryItOut 874
Compiling threw: SyntaxError: invalid for each loop

tryItOut 875
Compiling threw: SyntaxError: missing ; before statement

tryItOut 876

tryItOut 877

tryItOut 878
Running threw: ReferenceError: getter is not defined

tryItOut 879

tryItOut 880

tryItOut 881
Compiling threw: SyntaxError: invalid assignment left-hand side

tryItOut 882
Running threw: TypeError: __parent__ has no properties

tryItOut 883

tryItOut 884
Compiling threw: SyntaxError: invalid destructuring assignment operator

tryItOut 885
Compiling threw: SyntaxError: missing ; before statement

tryItOut 886
Compiling threw: SyntaxError: missing variable name

tryItOut 887

tryItOut 888

tryItOut 889
Compiling threw: SyntaxError: syntax error

tryItOut 890
Compiling threw: SyntaxError: missing variable name

tryItOut 891

tryItOut 892

tryItOut 893
Compiling threw: SyntaxError: syntax error

tryItOut 894

tryItOut 895
Compiling threw: SyntaxError: syntax error

tryItOut 896

tryItOut 897
Compiling threw: SyntaxError: missing ; before statement

tryItOut 898

tryItOut 899
Compiling threw: SyntaxError: missing ) in parenthetical

tryItOut 900

tryItOut 901

tryItOut 902
Compiling threw: SyntaxError: invalid for/in left-hand side

tryItOut 903

tryItOut 904

tryItOut 905
Compiling threw: SyntaxError: missing ) after condition

tryItOut 906
Compiling threw: SyntaxError: invalid XML name

tryItOut 907

tryItOut 908

tryItOut 909

tryItOut 910
Compiling threw: SyntaxError: missing ; after for-loop condition

tryItOut 911
Compiling threw: SyntaxError: invalid for/in left-hand side

tryItOut 912

tryItOut 913
Compiling threw: SyntaxError: invalid for/in left-hand side

tryItOut 914
Compiling threw: SyntaxError: missing variable name

tryItOut 915
Compiling threw: SyntaxError: invalid XML name

tryItOut 916
Compiling threw: SyntaxError: missing ) after condition

tryItOut 917

tryItOut 918

tryItOut 919
Compiling threw: SyntaxError: missing { before function body

tryItOut 920
Compiling threw: SyntaxError: missing ; before statement

tryItOut 921
Compiling threw: SyntaxError: missing : after property id

tryItOut 922
Compiling threw: SyntaxError: duplicate label

tryItOut 923
Running threw: Error: invalid sharp variable use #1#

tryItOut 924
It's an iterator!
Iterating succeeded, iterCount == 1

tryItOut 925
Running threw: TypeError: this.zzz has no properties

tryItOut 926
Compiling threw: SyntaxError: invalid break

tryItOut 927
Compiling threw: SyntaxError: missing = in destructuring declaration

tryItOut 928

tryItOut 929
Compiling threw: SyntaxError: label not found

tryItOut 930
Compiling threw: SyntaxError: missing = in destructuring declaration

tryItOut 931
Compiling threw: SyntaxError: invalid destructuring assignment operator

tryItOut 932

tryItOut 933
Compiling threw: SyntaxError: syntax error

tryItOut 934
Compiling threw: SyntaxError: invalid for/in left-hand side

tryItOut 935

tryItOut 936
Compiling threw: SyntaxError: invalid for/in left-hand side

tryItOut 937

tryItOut 938

tryItOut 939
Compiling threw: SyntaxError: missing variable name

tryItOut 940

tryItOut 941

tryItOut 942
Compiling threw: SyntaxError: invalid decrement operand

tryItOut 943
Compiling threw: SyntaxError: syntax error

tryItOut 944

tryItOut 945

tryItOut 946
before 226720, after 226720, break 010a0000

tryItOut 947
Compiling threw: SyntaxError: syntax error

tryItOut 948
Compiling threw: SyntaxError: invalid for/in left-hand side

tryItOut 949

tryItOut 950
Compiling threw: SyntaxError: invalid assignment left-hand side

tryItOut 951
Compiling threw: SyntaxError: missing ; before statement

tryItOut 952
Compiling threw: SyntaxError: invalid for/in left-hand side

tryItOut 953
Compiling threw: SyntaxError: missing name after . operator

tryItOut 954
Compiling threw: SyntaxError: missing ; before statement

tryItOut 955
It's an iterator!
Iterating succeeded, iterCount == 1

tryItOut 956
Compiling threw: SyntaxError: missing = in destructuring declaration

tryItOut 957
It's an iterator!
Iterating succeeded, iterCount == 2

tryItOut 958

tryItOut 959
Compiling threw: SyntaxError: syntax error

tryItOut 960

tryItOut 961
Compiling threw: SyntaxError: missing ; after for-loop initializer

tryItOut 962

tryItOut 963
Compiling threw: SyntaxError: label not found

tryItOut 964
Compiling threw: SyntaxError: syntax error

tryItOut 965

tryItOut 966

tryItOut 967
Compiling threw: SyntaxError: missing ] in index expression

tryItOut 968

tryItOut 969
It's an iterator!
Iterating succeeded, iterCount == 2

tryItOut 970
Compiling threw: SyntaxError: missing ) in parenthetical

tryItOut 971
Compiling threw: SyntaxError: invalid for/in left-hand side

tryItOut 972
Running threw: TypeError: prototype has no properties

tryItOut 973
It's an iterator!
Iterating succeeded, iterCount == 0

tryItOut 974

tryItOut 975

tryItOut 976
Compiling threw: SyntaxError: syntax error

tryItOut 977

tryItOut 978
Compiling threw: SyntaxError: invalid for/in left-hand side

tryItOut 979
Compiling threw: SyntaxError: missing ; after for-loop initializer

tryItOut 980

tryItOut 981

tryItOut 982
Compiling threw: SyntaxError: missing { before function body

tryItOut 983
Compiling threw: SyntaxError: missing { before function body

tryItOut 984
Compiling threw: SyntaxError: missing ; after for-loop initializer

tryItOut 985

tryItOut 986
Compiling threw: SyntaxError: missing variable name

tryItOut 987
before 226720, after 226720, break 010a0000

tryItOut 988
Compiling threw: SyntaxError: duplicate label

tryItOut 989

tryItOut 990

tryItOut 991
Compiling threw: SyntaxError: illegal XML character

tryItOut 992
Compiling threw: SyntaxError: missing ; before statement

tryItOut 993
Compiling threw: SyntaxError: syntax error

tryItOut 994
Compiling threw: SyntaxError: invalid for/in left-hand side

tryItOut 995

tryItOut 996
before 226720, after 226720, break 0109f000

tryItOut 997

tryItOut 998

tryItOut 999
Compiling threw: SyntaxError: syntax error

tryItOut 1000
Compiling threw: SyntaxError: missing ) in parenthetical

ALL OK

Script done on Sat 04 May 2013 06:13:08 AM PDT
