Script started on Sat 04 May 2013 06:13:36 AM PDT
***
Targeting SpiderMonkey / Gecko.

tryItOut 1
Compiling threw: SyntaxError: illegal XML character

tryItOut 2

tryItOut 3

tryItOut 4

tryItOut 5
Compiling threw: SyntaxError: missing { before function body

tryItOut 6

tryItOut 7
Compiling threw: SyntaxError: missing = in destructuring declaration

tryItOut 8

tryItOut 9
Compiling threw: SyntaxError: missing ) after condition

tryItOut 10
Compiling threw: SyntaxError: invalid for/in left-hand side

tryItOut 11
Compiling threw: SyntaxError: missing variable name

tryItOut 12

tryItOut 13

tryItOut 14

tryItOut 15

tryItOut 16

tryItOut 17
Compiling threw: SyntaxError: missing variable name

tryItOut 18
Running threw: ReferenceError: reference to undefined XML name @foo

tryItOut 19

tryItOut 20
Compiling threw: SyntaxError: invalid destructuring assignment operator

tryItOut 21
Compiling threw: SyntaxError: missing ; before statement

tryItOut 22

tryItOut 23
Compiling threw: SyntaxError: invalid assignment left-hand side

tryItOut 24
Running threw: TypeError: 0.2 is not a constructor

tryItOut 25
Compiling threw: SyntaxError: syntax error

tryItOut 26
Compiling threw: SyntaxError: invalid increment operand

tryItOut 27
Compiling threw: SyntaxError: invalid assignment left-hand side

tryItOut 28
Compiling threw: SyntaxError: invalid XML list syntax

tryItOut 29

tryItOut 30

tryItOut 31

tryItOut 32

tryItOut 33
Running threw: undefined

tryItOut 34
Running threw: [object StopIteration]

tryItOut 35
Compiling threw: SyntaxError: invalid sharp variable definition

tryItOut 36
Compiling threw: SyntaxError: missing formal parameter

tryItOut 37

tryItOut 38
Compiling threw: SyntaxError: missing ; after for-loop initializer

tryItOut 39
Compiling threw: SyntaxError: missing variable name

tryItOut 40

tryItOut 41
Compiling threw: SyntaxError: syntax error

tryItOut 42
Compiling threw: TypeError: generator function anonymous returns a value

tryItOut 43

tryItOut 44

tryItOut 45
Compiling threw: SyntaxError: missing : after property id

tryItOut 46
It's an iterator!
Iterating succeeded, iterCount == 1

tryItOut 47
Compiling threw: SyntaxError: invalid for/in left-hand side

tryItOut 48
Compiling threw: SyntaxError: invalid property id

tryItOut 49

tryItOut 50
Compiling threw: SyntaxError: invalid XML tag syntax

tryItOut 51
Compiling threw: SyntaxError: invalid for/in left-hand side

tryItOut 52
Compiling threw: SyntaxError: syntax error

tryItOut 53

tryItOut 54
Compiling threw: SyntaxError: missing { before function body

tryItOut 55

tryItOut 56
Running threw: ReferenceError: reference to undefined XML name @foo

tryItOut 57

tryItOut 58

tryItOut 59
It's an iterator!
Iterating succeeded, iterCount == 1

tryItOut 60
Compiling threw: SyntaxError: missing variable name

tryItOut 61
Compiling threw: SyntaxError: missing ; after for-loop initializer

tryItOut 62
Compiling threw: SyntaxError: invalid for/in left-hand side

tryItOut 63
It's an iterator!
Iterating succeeded, iterCount == 1

tryItOut 64
Compiling threw: TypeError: redeclaration of variable __iterator__

tryItOut 65
Compiling threw: SyntaxError: missing ; after for-loop initializer

tryItOut 66
Compiling threw: SyntaxError: invalid for/in left-hand side

tryItOut 67

tryItOut 68
Compiling threw: SyntaxError: invalid decrement operand

tryItOut 69

tryItOut 70

tryItOut 71

tryItOut 72

tryItOut 73
Running threw: ReferenceError: window is not defined

tryItOut 74
Compiling threw: SyntaxError: invalid decrement operand

tryItOut 75
Running threw: ReferenceError: prototype is not defined

tryItOut 76
Running threw: ReferenceError: reference to undefined XML name @mozilla.org/js/function::true

tryItOut 77

tryItOut 78
Compiling threw: SyntaxError: missing ) after condition

tryItOut 79
Compiling threw: SyntaxError: invalid assignment left-hand side

tryItOut 80

tryItOut 81
It's an iterator!
Iterating succeeded, iterCount == 0

tryItOut 82

tryItOut 83
It's an iterator!
Iterating succeeded, iterCount == 1

tryItOut 84
It's an iterator!
Iterating threw!
Iterating threw: ReferenceError: reference to undefined XML name *::*

tryItOut 85

tryItOut 86

tryItOut 87
Running threw: TypeError: null is not a function

tryItOut 88
Compiling threw: SyntaxError: invalid for/in left-hand side

tryItOut 89
Compiling threw: SyntaxError: invalid for/in left-hand side

tryItOut 90
Compiling threw: SyntaxError: invalid for/in left-hand side

tryItOut 91
It's an iterator!
Iterating threw!
Iterating threw: Error: invalid sharp variable use #1#

tryItOut 92

tryItOut 93

tryItOut 94

tryItOut 95

tryItOut 96
Compiling threw: SyntaxError: missing ; before statement

tryItOut 97

tryItOut 98
Running threw: TypeError: this.zzz has no properties

tryItOut 99
Compiling threw: TypeError: redeclaration of var prop

tryItOut 100

tryItOut 101
Compiling threw: SyntaxError: missing ( before formal parameters

tryItOut 102

tryItOut 103

tryItOut 104

tryItOut 105
Running threw: TypeError: this.zzz has no properties

tryItOut 106
Compiling threw: SyntaxError: missing ; before statement

tryItOut 107
Compiling threw: SyntaxError: syntax error

tryItOut 108
Compiling threw: SyntaxError: syntax error

tryItOut 109
Running threw: TypeError: (10000).yoyo is not a function

tryItOut 110

tryItOut 111
Compiling threw: SyntaxError: missing formal parameter

tryItOut 112

tryItOut 113
Compiling threw: SyntaxError: missing { before function body

tryItOut 114

tryItOut 115
Running threw: true

tryItOut 116
Running threw: ReferenceError: x is not defined

tryItOut 117

tryItOut 118
Compiling threw: SyntaxError: missing ; before statement

tryItOut 119
It's an iterator!
Iterating succeeded, iterCount == 1

tryItOut 120

tryItOut 121

tryItOut 122
Compiling threw: SyntaxError: missing { before function body

tryItOut 123

tryItOut 124

tryItOut 125
Compiling threw: SyntaxError: invalid decrement operand

tryItOut 126
It's an iterator!
Iterating threw!
Iterating threw: ReferenceError: window is not defined

tryItOut 127
Compiling threw: SyntaxError: missing { before function body

tryItOut 128
Compiling threw: SyntaxError: missing ; after for-loop initializer

tryItOut 129

tryItOut 130
It's an iterator!
Iterating succeeded, iterCount == 1

tryItOut 131
Running threw: TypeError: [1, , ].@foo has no properties

tryItOut 132

tryItOut 133
Compiling threw: SyntaxError: missing { before function body

tryItOut 134
Compiling threw: SyntaxError: invalid for/in left-hand side

tryItOut 135

tryItOut 136
It's an iterator!
Iterating threw!
Iterating threw: ReferenceError: prototype is not defined

tryItOut 137

tryItOut 138
Compiling threw: SyntaxError: missing { before function body

tryItOut 139
Compiling threw: SyntaxError: syntax error

tryItOut 140
Compiling threw: SyntaxError: missing ) after let head

tryItOut 141
Compiling threw: SyntaxError: duplicate label

tryItOut 142
Running threw: ReferenceError: window is not defined

tryItOut 143

tryItOut 144
Running threw: ReferenceError: z1 is not defined

tryItOut 145

tryItOut 146
Compiling threw: SyntaxError: invalid for/in left-hand side

tryItOut 147
Compiling threw: SyntaxError: invalid property id

tryItOut 148
It's an iterator!
Iterating threw!
Iterating threw: TypeError: undefined has no properties

tryItOut 149
Compiling threw: SyntaxError: missing formal parameter

tryItOut 150

tryItOut 151
Running threw: ReferenceError: prop is not defined

tryItOut 152

tryItOut 153
Compiling threw: SyntaxError: invalid for/in left-hand side

tryItOut 154

tryItOut 155
Compiling threw: SyntaxError: invalid increment operand

tryItOut 156
It's an iterator!
Iterating succeeded, iterCount == 1

tryItOut 157

tryItOut 158
Compiling threw: TypeError: redeclaration of variable __count__

tryItOut 159
Compiling threw: SyntaxError: missing { before function body

tryItOut 160

tryItOut 161

tryItOut 162

tryItOut 163
Compiling threw: SyntaxError: invalid for/in left-hand side

tryItOut 164

tryItOut 165

tryItOut 166

tryItOut 167
Running threw: ReferenceError: __noSuchMethod__ is not defined

tryItOut 168
Compiling threw: SyntaxError: invalid for/in left-hand side

tryItOut 169
Compiling threw: SyntaxError: syntax error

tryItOut 170
Running threw: TypeError: arguments[0] has no properties

tryItOut 171
Compiling threw: TypeError: redeclaration of const constructor

tryItOut 172

tryItOut 173
Compiling threw: SyntaxError: missing variable name

tryItOut 174

tryItOut 175

tryItOut 176

tryItOut 177
Compiling threw: SyntaxError: invalid assignment left-hand side

tryItOut 178

tryItOut 179
Compiling threw: SyntaxError: missing ( before let head

tryItOut 180

tryItOut 181

tryItOut 182
Compiling threw: SyntaxError: invalid for/in left-hand side

tryItOut 183

tryItOut 184
Running threw: ReferenceError: window is not defined

tryItOut 185

tryItOut 186
Compiling threw: SyntaxError: missing { before function body

tryItOut 187

tryItOut 188

tryItOut 189

tryItOut 190
Running threw: null

tryItOut 191
Compiling threw: SyntaxError: invalid assignment left-hand side

tryItOut 192
Compiling threw: SyntaxError: invalid for/in left-hand side

tryItOut 193
Compiling threw: SyntaxError: syntax error

tryItOut 194

tryItOut 195

tryItOut 196

tryItOut 197
Running threw: [object StopIteration]

tryItOut 198

tryItOut 199

tryItOut 200
Compiling threw: SyntaxError: invalid for/in left-hand side

tryItOut 201
Compiling threw: SyntaxError: missing formal parameter

tryItOut 202

tryItOut 203

tryItOut 204

tryItOut 205
Compiling threw: SyntaxError: invalid assignment left-hand side

tryItOut 206

tryItOut 207
Compiling threw: SyntaxError: missing { before function body

tryItOut 208
Compiling threw: SyntaxError: missing ; before statement

tryItOut 209
Running threw: ReferenceError: window is not defined

tryItOut 210

tryItOut 211
Running threw: TypeError: XML filtering predicate operator called on incompatible Number

tryItOut 212
Compiling threw: SyntaxError: missing variable name

tryItOut 213
Compiling threw: SyntaxError: invalid for/in left-hand side

tryItOut 214

tryItOut 215
Running threw: ReferenceError: prop is not defined

tryItOut 216
Compiling threw: SyntaxError: invalid increment operand

tryItOut 217

tryItOut 218
Compiling threw: SyntaxError: invalid increment operand

tryItOut 219
Compiling threw: SyntaxError: illegal XML character

tryItOut 220
Running threw: ReferenceError: __noSuchMethod__ is not defined

tryItOut 221
Compiling threw: SyntaxError: missing variable name

tryItOut 222
Compiling threw: SyntaxError: syntax error

tryItOut 223
Compiling threw: SyntaxError: missing ; before statement

tryItOut 224
It's an iterator!
Iterating succeeded, iterCount == 0

tryItOut 225
Running threw: [object StopIteration]

tryItOut 226
It's an iterator!
Iterating succeeded, iterCount == 1

tryItOut 227
Compiling threw: SyntaxError: syntax error

tryItOut 228
Compiling threw: SyntaxError: missing ) after argument list

tryItOut 229
Compiling threw: SyntaxError: missing variable name

tryItOut 230
Running threw: ReferenceError: reference to undefined property "prop"

tryItOut 231
Compiling threw: SyntaxError: missing ) after let head

tryItOut 232

tryItOut 233
Running threw: function ([y]) {
}

tryItOut 234
Running threw: ReferenceError: __noSuchMethod__ is not defined

tryItOut 235

tryItOut 236

tryItOut 237

tryItOut 238

tryItOut 239
It's an iterator!
Iterating succeeded, iterCount == 1

tryItOut 240
It's an iterator!
Iterating succeeded, iterCount == 1

tryItOut 241

tryItOut 242
Compiling threw: SyntaxError: invalid decrement operand

tryItOut 243
Compiling threw: SyntaxError: missing = in destructuring declaration

tryItOut 244

tryItOut 245
Compiling threw: TypeError: redeclaration of variable constructor

tryItOut 246

tryItOut 247
Running threw: ReferenceError: z1 is not defined

tryItOut 248
Running threw: [object StopIteration]

tryItOut 249
Compiling threw: TypeError: redeclaration of var __iterator__

tryItOut 250

tryItOut 251
Compiling threw: SyntaxError: missing ) after argument list

tryItOut 252
Compiling threw: SyntaxError: unterminated comment

tryItOut 253
Running threw: ReferenceError: __count__ is not defined

tryItOut 254

tryItOut 255
Compiling threw: SyntaxError: missing ) after catch

tryItOut 256

tryItOut 257
It's an iterator!
Iterating succeeded, iterCount == 1

tryItOut 258

tryItOut 259

tryItOut 260
It's an iterator!
Iterating threw!
Iterating threw: ReferenceError: window is not defined

tryItOut 261
Compiling threw: TypeError: generator function anonymous returns a value

tryItOut 262
Running threw: [object StopIteration]

tryItOut 263
Compiling threw: SyntaxError: missing variable name

tryItOut 264
Compiling threw: SyntaxError: missing { before function body

tryItOut 265
Compiling threw: SyntaxError: invalid assignment left-hand side

tryItOut 266

tryItOut 267
Compiling threw: SyntaxError: invalid assignment left-hand side

tryItOut 268
Compiling threw: SyntaxError: missing ; before statement

tryItOut 269
Compiling threw: SyntaxError: invalid destructuring assignment operator

tryItOut 270
Compiling threw: SyntaxError: missing } in XML expression

tryItOut 271
Compiling threw: SyntaxError: unterminated comment

tryItOut 272

tryItOut 273

tryItOut 274

tryItOut 275

tryItOut 276
Running threw: [object StopIteration]

tryItOut 277

tryItOut 278

tryItOut 279
Running threw: ReferenceError: reference to undefined XML name @foo

tryItOut 280
Compiling threw: SyntaxError: missing ; after for-loop initializer

tryItOut 281

tryItOut 282
Running threw: ReferenceError: window is not defined

tryItOut 283
Compiling threw: SyntaxError: missing { before function body

tryItOut 284
It's an iterator!
Iterating succeeded, iterCount == 1

tryItOut 285

tryItOut 286

tryItOut 287
Compiling threw: SyntaxError: missing variable name

tryItOut 288

tryItOut 289
Compiling threw: SyntaxError: illegal XML character

tryItOut 290
Compiling threw: SyntaxError: invalid assignment left-hand side

tryItOut 291

tryItOut 292

tryItOut 293
Compiling threw: SyntaxError: missing ) in parenthetical

tryItOut 294
Compiling threw: SyntaxError: invalid assignment left-hand side

tryItOut 295

tryItOut 296
Compiling threw: SyntaxError: missing variable name

tryItOut 297
Compiling threw: SyntaxError: missing variable name

tryItOut 298
Compiling threw: SyntaxError: missing ; after for-loop initializer

tryItOut 299
Compiling threw: SyntaxError: syntax error

tryItOut 300
Compiling threw: SyntaxError: missing ; before statement

tryItOut 301
Compiling threw: SyntaxError: missing ; before statement

tryItOut 302
Compiling threw: SyntaxError: missing { before function body

tryItOut 303
Compiling threw: SyntaxError: missing formal parameter

tryItOut 304
Compiling threw: SyntaxError: invalid for/in left-hand side

tryItOut 305

tryItOut 306

tryItOut 307

tryItOut 308
Compiling threw: SyntaxError: invalid decrement operand

tryItOut 309

tryItOut 310

tryItOut 311

tryItOut 312

tryItOut 313

tryItOut 314

tryItOut 315
Compiling threw: SyntaxError: missing { before function body

tryItOut 316

tryItOut 317
Compiling threw: SyntaxError: missing ; after for-loop initializer

tryItOut 318

tryItOut 319
Compiling threw: SyntaxError: missing { before function body

tryItOut 320

tryItOut 321
It's an iterator!
Iterating threw!
Iterating threw: ReferenceError: window is not defined

tryItOut 322

tryItOut 323
Compiling threw: SyntaxError: missing variable name

tryItOut 324
Compiling threw: SyntaxError: syntax error

tryItOut 325
Compiling threw: SyntaxError: syntax error

tryItOut 326
It's an iterator!
Iterating threw!
Iterating threw: ReferenceError: window is not defined

tryItOut 327
Running threw: ReferenceError: window is not defined

tryItOut 328
Compiling threw: SyntaxError: invalid assignment left-hand side

tryItOut 329
Compiling threw: SyntaxError: missing ) after condition

tryItOut 330
Compiling threw: SyntaxError: missing ; after for-loop initializer

tryItOut 331
Compiling threw: SyntaxError: invalid decrement operand

tryItOut 332
Running threw: TypeError: this.zzz has no properties

tryItOut 333
Compiling threw: SyntaxError: syntax error

tryItOut 334
Compiling threw: SyntaxError: missing { before function body

tryItOut 335

tryItOut 336

tryItOut 337

tryItOut 338

tryItOut 339
Compiling threw: SyntaxError: missing : after property id

tryItOut 340
Compiling threw: SyntaxError: missing ; after for-loop initializer

tryItOut 341
Compiling threw: SyntaxError: invalid for/in left-hand side

tryItOut 342
Compiling threw: SyntaxError: missing variable name

tryItOut 343
Running threw: ReferenceError: reference to undefined XML name @foo

tryItOut 344
Compiling threw: SyntaxError: invalid assignment left-hand side

tryItOut 345

tryItOut 346

tryItOut 347
Compiling threw: SyntaxError: missing variable name

tryItOut 348
Running threw: TypeError: this.zzz has no properties

tryItOut 349

tryItOut 350

tryItOut 351
Compiling threw: SyntaxError: invalid decrement operand

tryItOut 352
Running threw: ReferenceError: window is not defined

tryItOut 353

tryItOut 354
Running threw: ReferenceError: z1 is not defined

tryItOut 355

tryItOut 356
Compiling threw: SyntaxError: missing ) in parenthetical

tryItOut 357
Compiling threw: SyntaxError: missing { before function body

tryItOut 358

tryItOut 359

tryItOut 360

tryItOut 361

tryItOut 362

tryItOut 363
Compiling threw: SyntaxError: missing ; after for-loop initializer

tryItOut 364

tryItOut 365

tryItOut 366
Compiling threw: SyntaxError: invalid assignment left-hand side

tryItOut 367

tryItOut 368

tryItOut 369
Compiling threw: SyntaxError: missing ) after with-statement object

tryItOut 370

tryItOut 371
Running threw: undefined

tryItOut 372
Compiling threw: SyntaxError: invalid for/in left-hand side

tryItOut 373

tryItOut 374
Compiling threw: SyntaxError: invalid assignment left-hand side

tryItOut 375

tryItOut 376
Compiling threw: SyntaxError: invalid for/in left-hand side

tryItOut 377

tryItOut 378
Running threw: ReferenceError: reference to undefined XML name @foo

tryItOut 379

tryItOut 380

tryItOut 381
Compiling threw: SyntaxError: syntax error

tryItOut 382

tryItOut 383

tryItOut 384

tryItOut 385
Running threw: ReferenceError: __count__ is not defined

tryItOut 386
Compiling threw: SyntaxError: invalid for/in left-hand side

tryItOut 387
Compiling threw: SyntaxError: illegal XML character

tryItOut 388
Compiling threw: SyntaxError: invalid increment operand

tryItOut 389
Compiling threw: SyntaxError: invalid assignment left-hand side

tryItOut 390
Compiling threw: SyntaxError: invalid for/in left-hand side

tryItOut 391

tryItOut 392

tryItOut 393

tryItOut 394

tryItOut 395

tryItOut 396
Running threw: ReferenceError: __noSuchMethod__ is not defined

tryItOut 397

tryItOut 398
Compiling threw: SyntaxError: missing ) after argument list

tryItOut 399
Compiling threw: SyntaxError: syntax error

tryItOut 400

tryItOut 401

tryItOut 402
Compiling threw: SyntaxError: invalid assignment left-hand side

tryItOut 403
Compiling threw: SyntaxError: missing { before function body

tryItOut 404
Running threw: ReferenceError: __noSuchMethod__ is not defined

tryItOut 405

tryItOut 406

tryItOut 407
Running threw: TypeError: this.zzz has no properties

tryItOut 408
Compiling threw: SyntaxError: missing : after property id

tryItOut 409

tryItOut 410

tryItOut 411
Compiling threw: SyntaxError: missing ) after condition

tryItOut 412
It's an iterator!
Iterating succeeded, iterCount == 1

tryItOut 413
It's an iterator!
Iterating succeeded, iterCount == 1

tryItOut 414
Compiling threw: SyntaxError: invalid assignment left-hand side

tryItOut 415

tryItOut 416
Compiling threw: SyntaxError: invalid assignment left-hand side

tryItOut 417
Running threw: Error: invalid sharp variable use #1#

tryItOut 418
Compiling threw: SyntaxError: syntax error

tryItOut 419
It's an iterator!
Iterating threw!
Iterating threw: ReferenceError: __noSuchMethod__ is not defined

tryItOut 420
It's an iterator!
Iterating threw!
Iterating threw: ReferenceError: reference to undefined XML name @foo

tryItOut 421
Compiling threw: TypeError: generator function anonymous returns a value

tryItOut 422
Running threw: TypeError: this.zzz has no properties

tryItOut 423

tryItOut 424

tryItOut 425
Compiling threw: SyntaxError: unterminated comment

tryItOut 426
Running threw: TypeError: this.zzz has no properties

tryItOut 427
Compiling threw: SyntaxError: missing identifier in catch

tryItOut 428
Compiling threw: SyntaxError: missing = in destructuring declaration

tryItOut 429

tryItOut 430
It's an iterator!
Iterating succeeded, iterCount == 1

tryItOut 431
Compiling threw: SyntaxError: invalid decrement operand

tryItOut 432

tryItOut 433

tryItOut 434
Compiling threw: SyntaxError: missing { before function body

tryItOut 435

tryItOut 436
Running threw: TypeError: undefined has no properties

tryItOut 437
It's an iterator!
Iterating succeeded, iterCount == 0

tryItOut 438
Compiling threw: SyntaxError: missing variable name

tryItOut 439
Running threw: ReferenceError: window is not defined

tryItOut 440

tryItOut 441
Compiling threw: SyntaxError: invalid property id

tryItOut 442
Running threw: ReferenceError: reference to undefined XML name *

tryItOut 443
Compiling threw: SyntaxError: invalid for/in left-hand side

tryItOut 444
Compiling threw: SyntaxError: syntax error

tryItOut 445
Running threw: [object StopIteration]

tryItOut 446
Compiling threw: SyntaxError: illegal XML character

tryItOut 447
Compiling threw: TypeError: generator function anonymous returns a value

tryItOut 448
Compiling threw: SyntaxError: missing variable name

tryItOut 449

tryItOut 450
Running threw: ReferenceError: __noSuchMethod__ is not defined

tryItOut 451
Compiling threw: SyntaxError: invalid assignment left-hand side

tryItOut 452

tryItOut 453
Running threw: TypeError: invalid 'instanceof' operand 0

tryItOut 454
Running threw: ReferenceError: reference to undefined XML name *

tryItOut 455
Compiling threw: SyntaxError: invalid for/in left-hand side

tryItOut 456
Compiling threw: TypeError: generator function anonymous returns a value

tryItOut 457
Compiling threw: SyntaxError: invalid sharp variable definition

tryItOut 458
Compiling threw: SyntaxError: invalid destructuring assignment operator

tryItOut 459
Compiling threw: SyntaxError: invalid for/in left-hand side

tryItOut 460

tryItOut 461

tryItOut 462
It's an iterator!
Iterating succeeded, iterCount == 1

tryItOut 463
Compiling threw: SyntaxError: invalid for/in left-hand side

tryItOut 464
Compiling threw: SyntaxError: syntax error

tryItOut 465
Running threw: [object Object]

tryItOut 466
Compiling threw: SyntaxError: syntax error

tryItOut 467

tryItOut 468

tryItOut 469
Running threw: ReferenceError: __count__ is not defined

tryItOut 470

tryItOut 471
Compiling threw: TypeError: redeclaration of variable __noSuchMethod__

tryItOut 472

tryItOut 473
Compiling threw: SyntaxError: missing variable name

tryItOut 474

tryItOut 475
Running threw: ReferenceError: reference to undefined XML name *

tryItOut 476

tryItOut 477

tryItOut 478

tryItOut 479
Running threw: ReferenceError: window is not defined

tryItOut 480

tryItOut 481
Compiling threw: SyntaxError: syntax error

tryItOut 482
Compiling threw: TypeError: redeclaration of var constructor

tryItOut 483

tryItOut 484
Running threw: [object StopIteration]

tryItOut 485

tryItOut 486
It's an iterator!
Iterating threw!
Iterating threw: ReferenceError: reference to undefined XML name @foo

tryItOut 487

tryItOut 488

tryItOut 489
Running threw: Error: invalid sharp variable use #1#

tryItOut 490
Running threw: ReferenceError: __noSuchMethod__ is not defined

tryItOut 491
Compiling threw: SyntaxError: invalid for/in left-hand side

tryItOut 492

tryItOut 493
Compiling threw: SyntaxError: missing ) in parenthetical

tryItOut 494
Compiling threw: SyntaxError: missing { before function body

tryItOut 495
Compiling threw: SyntaxError: invalid assignment left-hand side

tryItOut 496
Compiling threw: SyntaxError: missing { before function body

tryItOut 497
Compiling threw: SyntaxError: syntax error

tryItOut 498
It's an iterator!
Iterating succeeded, iterCount == 1

tryItOut 499

tryItOut 500

tryItOut 501

tryItOut 502

tryItOut 503
It's an iterator!
Iterating succeeded, iterCount == 1

tryItOut 504
Compiling threw: SyntaxError: missing ; after for-loop initializer

tryItOut 505
Compiling threw: SyntaxError: missing = in destructuring declaration

tryItOut 506
Compiling threw: SyntaxError: syntax error

tryItOut 507
Compiling threw: SyntaxError: missing ) in parenthetical

tryItOut 508
Compiling threw: SyntaxError: syntax error

tryItOut 509
Compiling threw: SyntaxError: invalid for/in left-hand side

tryItOut 510
It's an iterator!
Iterating threw!
Iterating threw: ReferenceError: z1 is not defined

tryItOut 511

tryItOut 512

tryItOut 513
Compiling threw: TypeError: generator function anonymous returns a value

tryItOut 514
Compiling threw: SyntaxError: invalid for/in left-hand side

tryItOut 515
Compiling threw: SyntaxError: invalid assignment left-hand side

tryItOut 516
Compiling threw: SyntaxError: missing ; before statement

tryItOut 517

tryItOut 518

tryItOut 519
Running threw: ReferenceError: __count__ is not defined

tryItOut 520
Compiling threw: SyntaxError: syntax error

tryItOut 521
Running threw: [object StopIteration]

tryItOut 522
Compiling threw: SyntaxError: missing ) in parenthetical

tryItOut 523
Compiling threw: TypeError: redeclaration of variable __noSuchMethod__

tryItOut 524

tryItOut 525
Running threw: ReferenceError: reference to undefined XML name *::*

tryItOut 526
It's an iterator!
Iterating threw!
Iterating threw: TypeError: __parent__ is not a function

tryItOut 527

tryItOut 528
It's an iterator!
Iterating threw!
Iterating threw: ReferenceError: __count__ is not defined

tryItOut 529

tryItOut 530

tryItOut 531
It's an iterator!
Iterating succeeded, iterCount == 1

tryItOut 532

tryItOut 533
Compiling threw: SyntaxError: missing { before function body

tryItOut 534

tryItOut 535
It's an iterator!
Iterating succeeded, iterCount == 0

tryItOut 536
Compiling threw: SyntaxError: missing ; before statement

tryItOut 537
Compiling threw: SyntaxError: missing ) in parenthetical

tryItOut 538

tryItOut 539
Compiling threw: SyntaxError: missing ; before statement

tryItOut 540
Compiling threw: SyntaxError: invalid assignment left-hand side

tryItOut 541
Compiling threw: TypeError: generator function anonymous returns a value

tryItOut 542
It's an iterator!
Iterating succeeded, iterCount == 1

tryItOut 543

tryItOut 544
Compiling threw: SyntaxError: missing variable name

tryItOut 545

tryItOut 546
Running threw: TypeError: arguments[0] has no properties

tryItOut 547
Compiling threw: SyntaxError: missing variable name

tryItOut 548

tryItOut 549
Compiling threw: SyntaxError: invalid for/in left-hand side

tryItOut 550

tryItOut 551
Compiling threw: SyntaxError: invalid for/in left-hand side

tryItOut 552

tryItOut 553
Running threw: TypeError: this.yoyo is not a function

tryItOut 554
Compiling threw: SyntaxError: syntax error

tryItOut 555
Running threw: TypeError: Iterator(__iterator__ = __proto__) has invalid __iterator__ value null

tryItOut 556
It's an iterator!
Iterating succeeded, iterCount == 1

tryItOut 557

tryItOut 558
It's an iterator!
Iterating succeeded, iterCount == 1

tryItOut 559
Compiling threw: SyntaxError: missing ; after for-loop initializer

tryItOut 560
Running threw: undefined

tryItOut 561
Compiling threw: SyntaxError: missing { before function body

tryItOut 562
Compiling threw: SyntaxError: missing { before function body

tryItOut 563

tryItOut 564
Compiling threw: SyntaxError: invalid increment operand

tryItOut 565

tryItOut 566
It's an iterator!
Iterating threw!
Iterating threw: ReferenceError: window is not defined

tryItOut 567
Compiling threw: SyntaxError: invalid default XML namespace

tryItOut 568

tryItOut 569
Compiling threw: SyntaxError: duplicate label

tryItOut 570
Running threw: TypeError: this.zzz has no properties

tryItOut 571
Compiling threw: SyntaxError: illegal XML character

tryItOut 572

tryItOut 573
Compiling threw: SyntaxError: missing ) after condition

tryItOut 574
Compiling threw: SyntaxError: missing ) after condition

tryItOut 575
Compiling threw: SyntaxError: invalid increment operand

tryItOut 576

tryItOut 577
Compiling threw: SyntaxError: invalid for/in left-hand side

tryItOut 578
Compiling threw: TypeError: generator function anonymous returns a value

tryItOut 579
Compiling threw: TypeError: redeclaration of const prototype

tryItOut 580

tryItOut 581

tryItOut 582
Compiling threw: SyntaxError: invalid assignment left-hand side

tryItOut 583

tryItOut 584

tryItOut 585
Compiling threw: SyntaxError: missing { before function body

tryItOut 586

tryItOut 587

tryItOut 588
Compiling threw: SyntaxError: syntax error

tryItOut 589

tryItOut 590
Compiling threw: SyntaxError: missing = in destructuring declaration

tryItOut 591

tryItOut 592

tryItOut 593

tryItOut 594

tryItOut 595

tryItOut 596
Compiling threw: SyntaxError: missing { before function body

tryItOut 597
Compiling threw: SyntaxError: invalid for/in left-hand side

tryItOut 598

tryItOut 599
Compiling threw: SyntaxError: missing { before function body

tryItOut 600

tryItOut 601

tryItOut 602

tryItOut 603
Compiling threw: SyntaxError: syntax error

tryItOut 604

tryItOut 605
Running threw: ReferenceError: window is not defined

tryItOut 606
Compiling threw: SyntaxError: missing variable name

tryItOut 607

tryItOut 608
Compiling threw: SyntaxError: invalid for/in left-hand side

tryItOut 609
Running threw: TypeError: XML filtering predicate operator called on incompatible global

tryItOut 610

tryItOut 611

tryItOut 612
It's an iterator!
Iterating succeeded, iterCount == 1

tryItOut 613
Compiling threw: SyntaxError: invalid increment operand

tryItOut 614
Compiling threw: SyntaxError: invalid for/in left-hand side

tryItOut 615
It's an iterator!
Iterating threw!
Iterating threw: TypeError: arguments[0] has no properties

tryItOut 616
Compiling threw: SyntaxError: illegal XML character

tryItOut 617
Compiling threw: SyntaxError: invalid for/in left-hand side

tryItOut 618
Compiling threw: TypeError: generator function anonymous returns a value

tryItOut 619
Compiling threw: SyntaxError: invalid destructuring assignment operator

tryItOut 620

tryItOut 621
It's an iterator!
Iterating succeeded, iterCount == 0

tryItOut 622
Compiling threw: SyntaxError: invalid sharp variable definition

tryItOut 623

tryItOut 624
Compiling threw: SyntaxError: missing ; after for-loop initializer

tryItOut 625

tryItOut 626

tryItOut 627
Compiling threw: SyntaxError: syntax error

tryItOut 628
Running threw: [object StopIteration]

tryItOut 629

tryItOut 630
Running threw: [object StopIteration]

tryItOut 631
Compiling threw: SyntaxError: missing { before function body

tryItOut 632

tryItOut 633

tryItOut 634

tryItOut 635

tryItOut 636

tryItOut 637
Compiling threw: SyntaxError: syntax error

tryItOut 638

tryItOut 639
Compiling threw: SyntaxError: missing variable name

tryItOut 640
Compiling threw: SyntaxError: missing variable name

tryItOut 641
Running threw: null

tryItOut 642
Compiling threw: TypeError: redeclaration of const __parent__

tryItOut 643
Running threw: ReferenceError: window is not defined

tryItOut 644
Compiling threw: SyntaxError: missing ) after formal parameters

tryItOut 645

tryItOut 646
Compiling threw: SyntaxError: invalid assignment left-hand side

tryItOut 647
Running threw: ReferenceError: reference to undefined XML name *::*

tryItOut 648
Compiling threw: SyntaxError: missing ; before statement

tryItOut 649

tryItOut 650
Compiling threw: SyntaxError: invalid for/in left-hand side

tryItOut 651
Compiling threw: SyntaxError: invalid increment operand

tryItOut 652
Running threw: ReferenceError: reference to undefined XML name *::*

tryItOut 653
Running threw: 5

tryItOut 654
Compiling threw: SyntaxError: invalid for/in left-hand side

tryItOut 655

tryItOut 656

tryItOut 657

tryItOut 658

tryItOut 659

tryItOut 660

tryItOut 661
It's an iterator!
Iterating succeeded, iterCount == 0

tryItOut 662
Compiling threw: SyntaxError: invalid for/in left-hand side

tryItOut 663
Running threw: TypeError: [15, 16, 17, 18].sort(this, false != true) is not a function

tryItOut 664
It's an iterator!
Iterating threw!
Iterating threw: ReferenceError: reference to undefined XML name @foo

tryItOut 665
Compiling threw: SyntaxError: invalid destructuring assignment operator

tryItOut 666
Running threw: ReferenceError: __count__ is not defined

tryItOut 667
Compiling threw: SyntaxError: missing ; after for-loop initializer

tryItOut 668
Compiling threw: TypeError: redeclaration of variable __count__

tryItOut 669
Compiling threw: SyntaxError: syntax error

tryItOut 670
Running threw: ReferenceError: __count__ is not defined

tryItOut 671

tryItOut 672
Compiling threw: SyntaxError: missing { before function body

tryItOut 673
Compiling threw: SyntaxError: invalid for/in left-hand side

tryItOut 674
It's an iterator!
Iterating succeeded, iterCount == 1

tryItOut 675
Compiling threw: SyntaxError: invalid for/in left-hand side

tryItOut 676
Running threw: ReferenceError: reference to undefined XML name *::*

tryItOut 677
Compiling threw: SyntaxError: invalid for/in left-hand side

tryItOut 678
Compiling threw: SyntaxError: missing { before function body

tryItOut 679
Compiling threw: TypeError: redeclaration of variable __count__

tryItOut 680
Compiling threw: SyntaxError: invalid for/in left-hand side

tryItOut 681

tryItOut 682

tryItOut 683
Error while trying to determine whether it's an iterator!
The error was: TypeError: Iterator(rv) has invalid __iterator__ value true

tryItOut 684
Compiling threw: SyntaxError: invalid assignment left-hand side

tryItOut 685
Running threw: ReferenceError: __count__ is not defined

tryItOut 686
Compiling threw: SyntaxError: missing ) after condition

tryItOut 687
Compiling threw: SyntaxError: invalid for/in left-hand side

tryItOut 688
Running threw: ReferenceError: reference to undefined property "__count__"

tryItOut 689
Compiling threw: TypeError: generator function anonymous returns a value

tryItOut 690
It's an iterator!
Iterating threw!
Iterating threw: ReferenceError: reference to undefined XML name *::*

tryItOut 691
Compiling threw: SyntaxError: invalid sharp variable definition

tryItOut 692

tryItOut 693

tryItOut 694

tryItOut 695
Compiling threw: SyntaxError: invalid for/in left-hand side

tryItOut 696
Compiling threw: TypeError: redeclaration of variable __proto__

tryItOut 697

tryItOut 698
Compiling threw: SyntaxError: syntax error

tryItOut 699

tryItOut 700
Compiling threw: SyntaxError: syntax error

tryItOut 701
Compiling threw: SyntaxError: missing { before function body

tryItOut 702
Compiling threw: TypeError: generator function anonymous returns a value

tryItOut 703
Running threw: SyntaxError: invalid assignment left-hand side

tryItOut 704
Running threw: ReferenceError: reference to undefined XML name *

tryItOut 705
It's an iterator!
Iterating succeeded, iterCount == 1

tryItOut 706
Compiling threw: SyntaxError: missing ) in parenthetical

tryItOut 707
Compiling threw: SyntaxError: missing variable name

tryItOut 708

tryItOut 709
Compiling threw: SyntaxError: invalid assignment left-hand side

tryItOut 710
Compiling threw: SyntaxError: missing variable name

tryItOut 711

tryItOut 712
Compiling threw: SyntaxError: missing ; before statement

tryItOut 713
Compiling threw: TypeError: generator function anonymous returns a value

tryItOut 714

tryItOut 715
It's an iterator!
Iterating succeeded, iterCount == 1

tryItOut 716

tryItOut 717
Compiling threw: SyntaxError: missing ; before statement

tryItOut 718
It's an iterator!
Iterating succeeded, iterCount == 1

tryItOut 719
Compiling threw: SyntaxError: missing ; before statement

tryItOut 720
Compiling threw: SyntaxError: invalid for/in left-hand side

tryItOut 721

tryItOut 722
Running threw: ReferenceError: reference to undefined XML name *::*

tryItOut 723

tryItOut 724
Compiling threw: SyntaxError: invalid for/in left-hand side

tryItOut 725
Compiling threw: SyntaxError: missing { before function body

tryItOut 726
Compiling threw: SyntaxError: syntax error

tryItOut 727
Compiling threw: SyntaxError: missing ; after for-loop initializer

tryItOut 728

tryItOut 729
Running threw: ReferenceError: reference to undefined XML name @foo

tryItOut 730

tryItOut 731
It's an iterator!
Iterating succeeded, iterCount == 0

tryItOut 732

tryItOut 733
Compiling threw: SyntaxError: missing { before function body

tryItOut 734
Compiling threw: SyntaxError: illegal XML character

tryItOut 735
Compiling threw: SyntaxError: missing ) in parenthetical

tryItOut 736
It's an iterator!
Iterating succeeded, iterCount == 1

tryItOut 737
Compiling threw: SyntaxError: missing ; before statement

tryItOut 738

tryItOut 739

tryItOut 740
Compiling threw: TypeError: generator function anonymous returns a value

tryItOut 741

tryItOut 742

tryItOut 743

tryItOut 744

tryItOut 745
Running threw: ReferenceError: window is not defined

tryItOut 746
Compiling threw: TypeError: generator function anonymous returns a value

tryItOut 747

tryItOut 748
Running threw: ReferenceError: window is not defined

tryItOut 749
Compiling threw: SyntaxError: invalid decrement operand

tryItOut 750

tryItOut 751
Running threw: TypeError: this.zzz has no properties

tryItOut 752

tryItOut 753
Running threw: TypeError: this.zzz has no properties

tryItOut 754
Compiling threw: SyntaxError: missing name after . operator

tryItOut 755

tryItOut 756

tryItOut 757
It's an iterator!
Iterating succeeded, iterCount == 1

tryItOut 758
Compiling threw: SyntaxError: invalid assignment left-hand side

tryItOut 759
It's an iterator!
Iterating succeeded, iterCount == 1

tryItOut 760

tryItOut 761

tryItOut 762

tryItOut 763
Running threw: TypeError: constructor has no properties

tryItOut 764
Compiling threw: SyntaxError: missing { before function body

tryItOut 765

tryItOut 766
It's an iterator!
Iterating threw!
Iterating threw: ReferenceError: __noSuchMethod__ is not defined

tryItOut 767
It's an iterator!
Iterating succeeded, iterCount == 1

tryItOut 768

tryItOut 769

tryItOut 770

tryItOut 771
Compiling threw: SyntaxError: unterminated string literal

tryItOut 772

tryItOut 773

tryItOut 774

tryItOut 775
It's an iterator!
Iterating threw!
Iterating threw: ReferenceError: reference to undefined XML name *::*

tryItOut 776
Running threw: ReferenceError: reference to undefined XML name @foo

tryItOut 777

tryItOut 778
Compiling threw: SyntaxError: missing ; before statement

tryItOut 779

tryItOut 780

tryItOut 781
Compiling threw: SyntaxError: missing ) after let head

tryItOut 782
Running threw: TypeError: p.z = false is not a function

tryItOut 783

tryItOut 784
It's an iterator!
Iterating threw!
Iterating threw: ReferenceError: reference to undefined XML name @foo

tryItOut 785

tryItOut 786

tryItOut 787
It's an iterator!
Iterating threw!
Iterating threw: ReferenceError: reference to undefined XML name @foo

tryItOut 788
Compiling threw: SyntaxError: invalid for/in left-hand side

tryItOut 789
Compiling threw: TypeError: generator function anonymous returns a value

tryItOut 790

tryItOut 791
Compiling threw: SyntaxError: syntax error

tryItOut 792

tryItOut 793
Compiling threw: SyntaxError: missing { before function body

tryItOut 794
Compiling threw: TypeError: redeclaration of variable __noSuchMethod__

tryItOut 795
Running threw: TypeError: this.zzz has no properties

tryItOut 796
Running threw: [object StopIteration]

tryItOut 797
Compiling threw: SyntaxError: syntax error

tryItOut 798
Running threw: ReferenceError: __noSuchMethod__ is not defined

tryItOut 799
Compiling threw: SyntaxError: missing formal parameter

tryItOut 800
Compiling threw: SyntaxError: invalid decrement operand

tryItOut 801

tryItOut 802
It's an iterator!
Iterating threw!
Iterating threw: TypeError: 4 is not a function

tryItOut 803
Compiling threw: TypeError: redeclaration of var __noSuchMethod__

tryItOut 804
Compiling threw: SyntaxError: missing { before function body

tryItOut 805
Compiling threw: SyntaxError: invalid decrement operand

tryItOut 806
Running threw: ReferenceError: __noSuchMethod__ is not defined

tryItOut 807
Compiling threw: SyntaxError: syntax error

tryItOut 808

tryItOut 809
Running threw: TypeError: true.__noSuchMethod__ has no properties

tryItOut 810

tryItOut 811
Compiling threw: SyntaxError: missing ) after let head

tryItOut 812
Compiling threw: TypeError: generator function anonymous returns a value

tryItOut 813
Running threw: [object StopIteration]

tryItOut 814
Running threw: ReferenceError: window is not defined

tryItOut 815

tryItOut 816
Running threw: -Infinity

tryItOut 817

tryItOut 818
Compiling threw: SyntaxError: missing { before function body

tryItOut 819
Compiling threw: SyntaxError: syntax error

tryItOut 820

tryItOut 821
Compiling threw: SyntaxError: missing ; after for-loop initializer

tryItOut 822

tryItOut 823
Compiling threw: SyntaxError: invalid for/in left-hand side

tryItOut 824
It's an iterator!
Iterating succeeded, iterCount == 1

tryItOut 825

tryItOut 826

tryItOut 827
Running threw: ReferenceError: reference to undefined XML name *

tryItOut 828
Running threw: [object StopIteration]

tryItOut 829

tryItOut 830

tryItOut 831

tryItOut 832

tryItOut 833

tryItOut 834
Compiling threw: SyntaxError: syntax error

tryItOut 835
Running threw: [object StopIteration]

tryItOut 836
Compiling threw: SyntaxError: missing ; before statement

tryItOut 837

tryItOut 838
Running threw: ReferenceError: window is not defined

tryItOut 839

tryItOut 840

tryItOut 841
Compiling threw: SyntaxError: missing { before function body

tryItOut 842
Compiling threw: SyntaxError: syntax error

tryItOut 843

tryItOut 844

tryItOut 845
Compiling threw: TypeError: generator function anonymous returns a value

tryItOut 846
Compiling threw: SyntaxError: invalid for/in left-hand side

tryItOut 847

tryItOut 848
Running threw: TypeError: null is not a constructor

tryItOut 849

tryItOut 850
Running threw: [object StopIteration]

tryItOut 851
Compiling threw: SyntaxError: missing ; before statement

tryItOut 852
It's an iterator!
Iterating threw!
Iterating threw: TypeError: 15 is not a function

tryItOut 853
Running threw: ReferenceError: reference to undefined XML name @foo

tryItOut 854

tryItOut 855

tryItOut 856
It's an iterator!
Iterating threw!
Iterating threw: ReferenceError: window is not defined

tryItOut 857
Compiling threw: SyntaxError: invalid assignment left-hand side

tryItOut 858
Compiling threw: SyntaxError: syntax error

tryItOut 859

tryItOut 860

tryItOut 861
Compiling threw: SyntaxError: duplicate label

tryItOut 862
Compiling threw: SyntaxError: missing variable name

tryItOut 863
Compiling threw: SyntaxError: missing catch or finally after try

tryItOut 864
Running threw: ReferenceError: reference to undefined XML name @foo

tryItOut 865

tryItOut 866
Compiling threw: SyntaxError: missing variable name

tryItOut 867
Running threw: ReferenceError: z2 is not defined

tryItOut 868
Compiling threw: SyntaxError: invalid for/in left-hand side

tryItOut 869
Running threw: [object StopIteration]

tryItOut 870
Compiling threw: SyntaxError: invalid assignment left-hand side

tryItOut 871
Compiling threw: SyntaxError: syntax error

tryItOut 872
Compiling threw: SyntaxError: missing { before function body

tryItOut 873

tryItOut 874

tryItOut 875
Running threw: 1

tryItOut 876
Compiling threw: SyntaxError: missing variable name

tryItOut 877
Compiling threw: SyntaxError: syntax error

tryItOut 878
Compiling threw: SyntaxError: missing = in destructuring declaration

tryItOut 879

tryItOut 880

tryItOut 881

tryItOut 882
Compiling threw: SyntaxError: invalid for/in left-hand side

tryItOut 883

tryItOut 884

tryItOut 885

tryItOut 886
It's an iterator!
Iterating threw!
Iterating threw: TypeError: "fafafa".replace(/a/g, function (y) {yield y;yield y;}) is not a constructor

tryItOut 887
Compiling threw: SyntaxError: missing variable name

tryItOut 888
Running threw: ReferenceError: __noSuchMethod__ is not defined

tryItOut 889
Compiling threw: SyntaxError: invalid for/in left-hand side

tryItOut 890
Running threw: ReferenceError: reference to undefined XML name *

tryItOut 891

tryItOut 892
Compiling threw: TypeError: generator function anonymous returns a value

tryItOut 893
Compiling threw: TypeError: redeclaration of variable __proto__

tryItOut 894
Compiling threw: SyntaxError: invalid for/in left-hand side

tryItOut 895
It's an iterator!
Iterating threw!
Iterating threw: undefined

tryItOut 896
Compiling threw: SyntaxError: invalid for/in left-hand side

tryItOut 897
Compiling threw: SyntaxError: invalid assignment left-hand side

tryItOut 898
Compiling threw: SyntaxError: invalid assignment left-hand side

tryItOut 899

tryItOut 900

tryItOut 901

tryItOut 902
Compiling threw: SyntaxError: missing { before function body

tryItOut 903

tryItOut 904

tryItOut 905

tryItOut 906
It's an iterator!
Iterating threw!
Iterating threw: ReferenceError: reference to undefined XML name *::*

tryItOut 907
Running threw: ReferenceError: window is not defined

tryItOut 908

tryItOut 909
Compiling threw: SyntaxError: illegal XML character

tryItOut 910
It's an iterator!
Iterating threw!
Iterating threw: ReferenceError: reference to undefined XML name *

tryItOut 911
Compiling threw: TypeError: anonymous generator function returns a value

tryItOut 912

tryItOut 913

tryItOut 914
Compiling threw: SyntaxError: syntax error

tryItOut 915

tryItOut 916
Running threw: TypeError: undefined has no properties

tryItOut 917

tryItOut 918
Compiling threw: SyntaxError: missing { before function body

tryItOut 919

tryItOut 920
Compiling threw: TypeError: generator function anonymous returns a value

tryItOut 921

tryItOut 922

tryItOut 923
Running threw: ReferenceError: reference to undefined XML name *::*

tryItOut 924

tryItOut 925

tryItOut 926
Compiling threw: SyntaxError: invalid sharp variable definition

tryItOut 927

tryItOut 928
Compiling threw: SyntaxError: syntax error

tryItOut 929
Running threw: ReferenceError: reference to undefined XML name @foo

tryItOut 930

tryItOut 931

tryItOut 932
Compiling threw: SyntaxError: missing ; after for-loop initializer

tryItOut 933

tryItOut 934
Compiling threw: SyntaxError: missing name after . operator

tryItOut 935
Compiling threw: SyntaxError: missing variable name

tryItOut 936
Compiling threw: SyntaxError: invalid decrement operand

tryItOut 937
Running threw: ReferenceError: reference to undefined XML name *

tryItOut 938
Running threw: [object StopIteration]

tryItOut 939
Compiling threw: SyntaxError: missing { before function body

tryItOut 940
It's an iterator!
Iterating threw!
Iterating threw: ReferenceError: window is not defined

tryItOut 941
Compiling threw: SyntaxError: missing { before function body

tryItOut 942

tryItOut 943
Running threw: ReferenceError: reference to undefined XML name *

tryItOut 944
Running threw: [object Object]

tryItOut 945

tryItOut 946

tryItOut 947

tryItOut 948
Running threw: TypeError: this.zzz has no properties

tryItOut 949
It's an iterator!
Iterating succeeded, iterCount == 1

tryItOut 950
Compiling threw: SyntaxError: invalid assignment left-hand side

tryItOut 951

tryItOut 952
Compiling threw: SyntaxError: missing ) after condition

tryItOut 953
Compiling threw: SyntaxError: missing ; before statement

tryItOut 954
Running threw: [object StopIteration]

tryItOut 955
Compiling threw: SyntaxError: missing variable name

tryItOut 956

tryItOut 957
Compiling threw: SyntaxError: syntax error

tryItOut 958
It's an iterator!
Iterating threw!
Iterating threw: ReferenceError: reference to undefined XML name @foo

tryItOut 959

tryItOut 960

tryItOut 961

tryItOut 962
Compiling threw: SyntaxError: missing ; before statement

tryItOut 963
It's an iterator!
Iterating threw!
Iterating threw: ReferenceError: reference to undefined XML name @foo

tryItOut 964

tryItOut 965
It's an iterator!
Iterating threw!
Iterating threw: ReferenceError: window is not defined

tryItOut 966
Compiling threw: SyntaxError: missing { before function body

tryItOut 967

tryItOut 968
Running threw: TypeError: this.zzz has no properties

tryItOut 969
Compiling threw: SyntaxError: invalid destructuring assignment operator

tryItOut 970
Compiling threw: SyntaxError: invalid assignment left-hand side

tryItOut 971

tryItOut 972
Compiling threw: SyntaxError: missing ; before statement

tryItOut 973
Compiling threw: SyntaxError: invalid for/in left-hand side

tryItOut 974
Compiling threw: SyntaxError: missing { before function body

tryItOut 975
Compiling threw: TypeError: generator function anonymous returns a value

tryItOut 976

tryItOut 977

tryItOut 978

tryItOut 979
Compiling threw: SyntaxError: invalid for/in left-hand side

tryItOut 980

tryItOut 981
Running threw: ReferenceError: window is not defined

tryItOut 982
Running threw: [object StopIteration]

tryItOut 983
Compiling threw: SyntaxError: missing ; before statement

tryItOut 984
Compiling threw: SyntaxError: missing variable name

tryItOut 985

tryItOut 986

tryItOut 987

tryItOut 988
Compiling threw: SyntaxError: invalid assignment left-hand side

tryItOut 989

tryItOut 990

tryItOut 991

tryItOut 992
Compiling threw: TypeError: redeclaration of const __parent__

tryItOut 993
Running threw: ReferenceError: window is not defined

tryItOut 994
Running threw: ReferenceError: reference to undefined XML name @foo

tryItOut 995

tryItOut 996
Compiling threw: SyntaxError: missing { before function body

tryItOut 997
Compiling threw: SyntaxError: syntax error

tryItOut 998
Compiling threw: SyntaxError: syntax error

tryItOut 999
It's an iterator!
Iterating threw!
Iterating threw: ReferenceError: reference to undefined XML name @foo

tryItOut 1000

ALL OK

Script done on Sat 04 May 2013 06:13:37 AM PDT
