Script started on Sat 04 May 2013 06:16:11 AM PDT
***
Targeting SpiderMonkey / Gecko.

tryItOut 1
It's an iterator!
Iterating threw!
Iterating threw: TypeError: null has no properties

tryItOut 2
Compiling threw: SyntaxError: syntax error

tryItOut 3

tryItOut 4
It's an iterator!
Iterating succeeded, iterCount == 1

tryItOut 5

tryItOut 6
Compiling threw: SyntaxError: missing = in destructuring declaration

tryItOut 7

tryItOut 8
Compiling threw: SyntaxError: syntax error

tryItOut 9
Compiling threw: SyntaxError: missing ) in parenthetical

tryItOut 10

tryItOut 11
It's an iterator!
Iterating succeeded, iterCount == 1

tryItOut 12

tryItOut 13
Compiling threw: SyntaxError: missing ) in parenthetical

tryItOut 14
Compiling threw: SyntaxError: missing ; before statement

tryItOut 15

tryItOut 16

tryItOut 17

tryItOut 18
Compiling threw: SyntaxError: invalid XML name

tryItOut 19

tryItOut 20

tryItOut 21
Compiling threw: SyntaxError: missing } after let block

tryItOut 22
Compiling threw: SyntaxError: invalid decrement operand

tryItOut 23

tryItOut 24

tryItOut 25
Compiling threw: SyntaxError: missing } in compound statement

tryItOut 26
Running threw: ReferenceError: __iterator__ is not defined

tryItOut 27

tryItOut 28
Running threw: 

tryItOut 29

tryItOut 30

tryItOut 31

tryItOut 32
Compiling threw: TypeError: redeclaration of const constructor

tryItOut 33
Compiling threw: SyntaxError: invalid for/in left-hand side

tryItOut 34
Compiling threw: SyntaxError: invalid assignment left-hand side

tryItOut 35

tryItOut 36
Compiling threw: SyntaxError: invalid for/in left-hand side

tryItOut 37

tryItOut 38

tryItOut 39
Compiling threw: SyntaxError: invalid assignment left-hand side

tryItOut 40
It's an iterator!
Iterating threw!
Iterating threw: ReferenceError: prop is not defined

tryItOut 41
Running threw: ReferenceError: prototype is not defined

tryItOut 42
Compiling threw: SyntaxError: invalid for/in left-hand side

tryItOut 43
Running threw: /x/

tryItOut 44
Compiling threw: SyntaxError: missing ) after argument list

tryItOut 45
Compiling threw: SyntaxError: duplicate label

tryItOut 46

tryItOut 47
Compiling threw: SyntaxError: missing ; after for-loop initializer

tryItOut 48

tryItOut 49

tryItOut 50

tryItOut 51
Compiling threw: SyntaxError: syntax error

tryItOut 52

tryItOut 53

tryItOut 54

tryItOut 55
Compiling threw: SyntaxError: missing = in destructuring declaration

tryItOut 56
Compiling threw: SyntaxError: missing { before function body

tryItOut 57
Compiling threw: SyntaxError: missing } after let block

tryItOut 58
Compiling threw: SyntaxError: invalid for/in left-hand side

tryItOut 59
Compiling threw: SyntaxError: missing } after let block

tryItOut 60

tryItOut 61

tryItOut 62
Compiling threw: SyntaxError: invalid assignment left-hand side

tryItOut 63
Compiling threw: SyntaxError: invalid destructuring assignment operator

tryItOut 64
Compiling threw: SyntaxError: invalid assignment left-hand side

tryItOut 65
Running threw: ReferenceError: __noSuchMethod__ is not defined

tryItOut 66

tryItOut 67
It's an iterator!
Iterating succeeded, iterCount == 1

tryItOut 68
Compiling threw: SyntaxError: missing variable name

tryItOut 69

tryItOut 70

tryItOut 71
It's an iterator!
Iterating succeeded, iterCount == 1

tryItOut 72
Compiling threw: SyntaxError: missing } after let block

tryItOut 73
Compiling threw: SyntaxError: missing variable name

tryItOut 74

tryItOut 75

tryItOut 76

tryItOut 77

tryItOut 78
Compiling threw: SyntaxError: syntax error

tryItOut 79
It's an iterator!
Iterating succeeded, iterCount == 1

tryItOut 80

tryItOut 81

tryItOut 82
Compiling threw: SyntaxError: missing ; after for-loop initializer

tryItOut 83

tryItOut 84

tryItOut 85
Compiling threw: SyntaxError: invalid XML name

tryItOut 86
Running threw: function ([y]) {
}

tryItOut 87

tryItOut 88
Compiling threw: SyntaxError: missing ) in parenthetical

tryItOut 89
Compiling threw: SyntaxError: missing ; after for-loop initializer

tryItOut 90

tryItOut 91

tryItOut 92
Compiling threw: SyntaxError: syntax error

tryItOut 93
It's an iterator!
Iterating succeeded, iterCount == 1

tryItOut 94

tryItOut 95
Compiling threw: SyntaxError: missing } after let block

tryItOut 96
Compiling threw: SyntaxError: syntax error

tryItOut 97
It's an iterator!
Iterating succeeded, iterCount == 0

tryItOut 98

tryItOut 99
Compiling threw: SyntaxError: invalid for/in left-hand side

tryItOut 100
Running threw: [object Object]

tryItOut 101
Compiling threw: SyntaxError: invalid increment operand

tryItOut 102

tryItOut 103
Compiling threw: SyntaxError: missing ; before statement

tryItOut 104
Compiling threw: TypeError: redeclaration of variable __noSuchMethod__

tryItOut 105
It's an iterator!
Iterating threw!
Iterating threw: TypeError: [null] is not a function

tryItOut 106
It's an iterator!
Iterating threw!
Iterating threw: Error: invalid sharp variable use #1#

tryItOut 107
Compiling threw: SyntaxError: syntax error

tryItOut 108
Compiling threw: SyntaxError: missing variable name

tryItOut 109
Compiling threw: SyntaxError: duplicate label

tryItOut 110
Compiling threw: SyntaxError: missing name in export statement

tryItOut 111
It's an iterator!
Iterating succeeded, iterCount == 1

tryItOut 112

tryItOut 113

tryItOut 114
Running threw: 106

tryItOut 115
It's an iterator!
Iterating succeeded, iterCount == 1

tryItOut 116

tryItOut 117

tryItOut 118

tryItOut 119
Compiling threw: SyntaxError: missing ) after with-statement object

tryItOut 120

tryItOut 121
Running threw: ReferenceError: prop is not defined

tryItOut 122

tryItOut 123

tryItOut 124
Compiling threw: SyntaxError: missing variable name

tryItOut 125

tryItOut 126
Compiling threw: SyntaxError: missing variable name

tryItOut 127

tryItOut 128

tryItOut 129

tryItOut 130

tryItOut 131

tryItOut 132
Running threw: 

tryItOut 133
Compiling threw: SyntaxError: missing ; before statement

tryItOut 134

tryItOut 135

tryItOut 136
Compiling threw: SyntaxError: invalid for/in left-hand side

tryItOut 137
Compiling threw: SyntaxError: invalid for/in left-hand side

tryItOut 138
Running threw: undefined

tryItOut 139

tryItOut 140

tryItOut 141
It's an iterator!
Iterating succeeded, iterCount == 0

tryItOut 142

tryItOut 143

tryItOut 144
Compiling threw: SyntaxError: missing ) after argument list

tryItOut 145
Running threw: ReferenceError: prop is not defined

tryItOut 146

tryItOut 147
It's an iterator!
Iterating succeeded, iterCount == 1

tryItOut 148
It's an iterator!
Iterating succeeded, iterCount == 1

tryItOut 149

tryItOut 150

tryItOut 151
Compiling threw: SyntaxError: invalid for each loop

tryItOut 152

tryItOut 153

tryItOut 154
Compiling threw: SyntaxError: duplicate label

tryItOut 155

tryItOut 156

tryItOut 157
Running threw: ReferenceError: prototype is not defined

tryItOut 158

tryItOut 159
Compiling threw: TypeError: redeclaration of variable constructor

tryItOut 160

tryItOut 161
Compiling threw: SyntaxError: syntax error

tryItOut 162
Compiling threw: SyntaxError: missing } in XML expression

tryItOut 163

tryItOut 164
It's an iterator!
Iterating threw!
Iterating threw: TypeError: true is not a constructor

tryItOut 165
Compiling threw: SyntaxError: missing variable name

tryItOut 166
Compiling threw: SyntaxError: duplicate label

tryItOut 167

tryItOut 168

tryItOut 169
Compiling threw: SyntaxError: missing } in compound statement

tryItOut 170

tryItOut 171
It's an iterator!
Iterating threw!
Iterating threw: ReferenceError: prototype is not defined

tryItOut 172
Compiling threw: SyntaxError: illegal XML character

tryItOut 173
Running threw: ReferenceError: z2 is not defined

tryItOut 174

tryItOut 175

tryItOut 176

tryItOut 177
Compiling threw: SyntaxError: invalid for/in left-hand side

tryItOut 178

tryItOut 179

tryItOut 180
Compiling threw: SyntaxError: invalid for/in left-hand side

tryItOut 181
Compiling threw: SyntaxError: invalid assignment left-hand side

tryItOut 182
Compiling threw: SyntaxError: missing ) after condition

tryItOut 183

tryItOut 184
Compiling threw: SyntaxError: missing { before function body

tryItOut 185

tryItOut 186
Running threw: ReferenceError: constructoryield is not defined

tryItOut 187
Compiling threw: SyntaxError: syntax error

tryItOut 188

tryItOut 189

tryItOut 190
It's an iterator!
Iterating succeeded, iterCount == 1

tryItOut 191
Compiling threw: SyntaxError: invalid for/in left-hand side

tryItOut 192
Compiling threw: SyntaxError: syntax error

tryItOut 193
Compiling threw: SyntaxError: invalid for/in left-hand side

tryItOut 194

tryItOut 195
Compiling threw: TypeError: redeclaration of const __parent__

tryItOut 196
Compiling threw: SyntaxError: invalid for/in left-hand side

tryItOut 197
Running threw: TypeError: ({a1:1}) is not a function

tryItOut 198
Running threw: ReferenceError: __iterator__ is not defined

tryItOut 199
Running threw: ReferenceError: prototype is not defined

tryItOut 200

tryItOut 201
Compiling threw: TypeError: redeclaration of var constructor

tryItOut 202

tryItOut 203
Compiling threw: SyntaxError: missing } after let block

tryItOut 204
It's an iterator!
Iterating succeeded, iterCount == 1

tryItOut 205

tryItOut 206
Running threw: ReferenceError: __iterator__ is not defined

tryItOut 207
Running threw: 108

tryItOut 208
It's an iterator!
Iterating threw!
Iterating threw: ReferenceError: __noSuchMethod__ is not defined

tryItOut 209
Compiling threw: SyntaxError: invalid for/in left-hand side

tryItOut 210

tryItOut 211

tryItOut 212

tryItOut 213
Compiling threw: SyntaxError: missing } after let block

tryItOut 214
Compiling threw: SyntaxError: syntax error

tryItOut 215

tryItOut 216

tryItOut 217
Compiling threw: SyntaxError: missing ) in parenthetical

tryItOut 218
Compiling threw: SyntaxError: missing ; after for-loop initializer

tryItOut 219
Compiling threw: SyntaxError: missing variable name

tryItOut 220

tryItOut 221

tryItOut 222
Compiling threw: SyntaxError: invalid assignment left-hand side

tryItOut 223
Compiling threw: SyntaxError: invalid decrement operand

tryItOut 224
Running threw: ReferenceError: __noSuchMethod__ is not defined

tryItOut 225

tryItOut 226

tryItOut 227

tryItOut 228

tryItOut 229
Compiling threw: SyntaxError: missing ) after condition

tryItOut 230
Compiling threw: SyntaxError: invalid for/in left-hand side

tryItOut 231

tryItOut 232
Compiling threw: SyntaxError: invalid for each loop

tryItOut 233
Compiling threw: SyntaxError: missing variable name

tryItOut 234

tryItOut 235
It's an iterator!
Iterating threw!
Iterating threw: TypeError: new RangeError(__proto__) has no properties

tryItOut 236

tryItOut 237

tryItOut 238

tryItOut 239
It's an iterator!
Iterating succeeded, iterCount == 1

tryItOut 240
Compiling threw: SyntaxError: invalid assignment left-hand side

tryItOut 241
Running threw: TypeError: null has no properties

tryItOut 242

tryItOut 243

tryItOut 244
Compiling threw: SyntaxError: invalid for/in left-hand side

tryItOut 245
Compiling threw: SyntaxError: syntax error

tryItOut 246
Compiling threw: SyntaxError: missing variable name

tryItOut 247
Compiling threw: SyntaxError: syntax error

tryItOut 248
Compiling threw: SyntaxError: missing = in destructuring declaration

tryItOut 249

tryItOut 250
Compiling threw: TypeError: redeclaration of variable prop

tryItOut 251

tryItOut 252

tryItOut 253

tryItOut 254
It's an iterator!
Iterating succeeded, iterCount == 1

tryItOut 255
Compiling threw: TypeError: redeclaration of const prop

tryItOut 256
Compiling threw: TypeError: redeclaration of var __iterator__

tryItOut 257

tryItOut 258
Compiling threw: SyntaxError: syntax error

tryItOut 259
Running threw: ReferenceError: __noSuchMethod__ is not defined

tryItOut 260

tryItOut 261
Compiling threw: SyntaxError: duplicate label

tryItOut 262
Running threw: TypeError: prop is not a function

tryItOut 263

tryItOut 264
Compiling threw: SyntaxError: missing variable name

tryItOut 265
Compiling threw: SyntaxError: missing } in compound statement

tryItOut 266
Compiling threw: SyntaxError: missing variable name

tryItOut 267
Compiling threw: SyntaxError: missing ; before statement

tryItOut 268

tryItOut 269

tryItOut 270

tryItOut 271

tryItOut 272
Compiling threw: SyntaxError: invalid assignment left-hand side

tryItOut 273
It's an iterator!
Iterating succeeded, iterCount == 1

tryItOut 274

tryItOut 275

tryItOut 276

tryItOut 277
Compiling threw: SyntaxError: invalid assignment left-hand side

tryItOut 278
Compiling threw: SyntaxError: duplicate label

tryItOut 279
Compiling threw: SyntaxError: invalid increment operand

tryItOut 280

tryItOut 281
Compiling threw: SyntaxError: invalid destructuring assignment operator

tryItOut 282
It's an iterator!
Iterating succeeded, iterCount == 1

tryItOut 283
Compiling threw: TypeError: redeclaration of var constructor

tryItOut 284

tryItOut 285

tryItOut 286
Compiling threw: SyntaxError: missing variable name

tryItOut 287

tryItOut 288

tryItOut 289
Compiling threw: SyntaxError: invalid XML list syntax

tryItOut 290

tryItOut 291
Running threw: ReferenceError: z1 is not defined

tryItOut 292
Compiling threw: SyntaxError: missing ; before statement

tryItOut 293
Compiling threw: SyntaxError: missing variable name

tryItOut 294
It's an iterator!
Iterating succeeded, iterCount == 1

tryItOut 295

tryItOut 296
Running threw: ReferenceError: __noSuchMethod__ is not defined

tryItOut 297

tryItOut 298
Compiling threw: SyntaxError: invalid decrement operand

tryItOut 299

tryItOut 300

tryItOut 301

tryItOut 302

tryItOut 303
Compiling threw: SyntaxError: yield expression must be parenthesized

tryItOut 304
Compiling threw: TypeError: redeclaration of variable prototype

tryItOut 305
Running threw: ReferenceError: z1 is not defined

tryItOut 306

tryItOut 307

tryItOut 308

tryItOut 309

tryItOut 310
Compiling threw: SyntaxError: missing ) after with-statement object

tryItOut 311
Compiling threw: TypeError: redeclaration of variable prototype

tryItOut 312
Running threw: [object Object]

tryItOut 313
Compiling threw: SyntaxError: missing ) in parenthetical

tryItOut 314
Compiling threw: SyntaxError: invalid for/in left-hand side

tryItOut 315
Compiling threw: SyntaxError: missing while after do-loop body

tryItOut 316

tryItOut 317

tryItOut 318
Compiling threw: SyntaxError: syntax error

tryItOut 319
Compiling threw: SyntaxError: invalid for/in left-hand side

tryItOut 320

tryItOut 321

tryItOut 322
Running threw: TypeError: __noSuchMethod__ has no properties

tryItOut 323
Compiling threw: SyntaxError: invalid assignment left-hand side

tryItOut 324
Compiling threw: SyntaxError: invalid assignment left-hand side

tryItOut 325
Compiling threw: TypeError: redeclaration of var prop

tryItOut 326
Compiling threw: SyntaxError: missing ; before statement

tryItOut 327

tryItOut 328
Compiling threw: SyntaxError: missing variable name

tryItOut 329
Compiling threw: SyntaxError: syntax error

tryItOut 330
Compiling threw: TypeError: redeclaration of var __noSuchMethod__

tryItOut 331
Compiling threw: SyntaxError: missing ) after condition

tryItOut 332
Compiling threw: TypeError: redeclaration of variable __iterator__

tryItOut 333
Compiling threw: SyntaxError: missing { before function body

tryItOut 334

tryItOut 335

tryItOut 336
Compiling threw: SyntaxError: illegal XML character

tryItOut 337

tryItOut 338
Running threw: ReferenceError: __iterator__ is not defined

tryItOut 339
Running threw: ReferenceError: __iterator__ is not defined

tryItOut 340

tryItOut 341

tryItOut 342
Compiling threw: SyntaxError: syntax error

tryItOut 343

tryItOut 344
It's an iterator!
Iterating succeeded, iterCount == 0

tryItOut 345

tryItOut 346
Compiling threw: SyntaxError: invalid for/in left-hand side

tryItOut 347
It's an iterator!
Iterating threw!
Iterating threw: TypeError: undefined has no properties

tryItOut 348
Running threw: TypeError: __noSuchMethod__ is not a constructor

tryItOut 349
It's an iterator!
Iterating succeeded, iterCount == 1

tryItOut 350
Compiling threw: SyntaxError: missing variable name

tryItOut 351

tryItOut 352
Compiling threw: SyntaxError: syntax error

tryItOut 353
Compiling threw: SyntaxError: missing name after . operator

tryItOut 354
Compiling threw: SyntaxError: missing variable name

tryItOut 355

tryItOut 356
Compiling threw: SyntaxError: missing ) in parenthetical

tryItOut 357

tryItOut 358
Running threw: TypeError: #1={__iterator__:#1#} has invalid __iterator__ value #1={__iterator__:#1#}

tryItOut 359
Compiling threw: SyntaxError: missing = in destructuring declaration

tryItOut 360

tryItOut 361
Compiling threw: SyntaxError: missing { before function body

tryItOut 362
It's an iterator!
Iterating succeeded, iterCount == 2

tryItOut 363
Compiling threw: SyntaxError: invalid sharp variable definition

tryItOut 364
Compiling threw: SyntaxError: duplicate label

tryItOut 365

tryItOut 366
It's an iterator!
Iterating threw!
Iterating threw: 

tryItOut 367
Compiling threw: SyntaxError: invalid flag after regular expression

tryItOut 368

tryItOut 369

tryItOut 370

tryItOut 371
Compiling threw: SyntaxError: missing ; before statement

tryItOut 372
It's an iterator!
Iterating threw!
Iterating threw: ReferenceError: z1 is not defined

tryItOut 373

tryItOut 374

tryItOut 375

tryItOut 376

tryItOut 377
Running threw: TypeError: #1={__iterator__:#1#} has invalid __iterator__ value #1={__iterator__:#1#}

tryItOut 378

tryItOut 379
Compiling threw: SyntaxError: invalid for/in left-hand side

tryItOut 380

tryItOut 381
Compiling threw: SyntaxError: illegal XML character

tryItOut 382

tryItOut 383
Compiling threw: SyntaxError: invalid for/in left-hand side

tryItOut 384

tryItOut 385

tryItOut 386
Compiling threw: SyntaxError: invalid assignment left-hand side

tryItOut 387
Compiling threw: SyntaxError: invalid for/in left-hand side

tryItOut 388

tryItOut 389
Compiling threw: SyntaxError: invalid XML name

tryItOut 390
Compiling threw: SyntaxError: invalid assignment left-hand side

tryItOut 391

tryItOut 392
Running threw: ReferenceError: z1 is not defined

tryItOut 393
It's an iterator!
Iterating succeeded, iterCount == 1

tryItOut 394
Compiling threw: SyntaxError: invalid property id

tryItOut 395

tryItOut 396

tryItOut 397
Running threw: TypeError: #1={__iterator__:#1#} has invalid __iterator__ value #1={__iterator__:#1#}

tryItOut 398

tryItOut 399

tryItOut 400

tryItOut 401
It's an iterator!
Iterating succeeded, iterCount == 2

tryItOut 402
Compiling threw: SyntaxError: missing variable name

tryItOut 403

tryItOut 404
Compiling threw: SyntaxError: syntax error

tryItOut 405
Compiling threw: SyntaxError: missing variable name

tryItOut 406

tryItOut 407

tryItOut 408
It's an iterator!
Iterating threw!
Iterating threw: [object Object]

tryItOut 409

tryItOut 410
Compiling threw: SyntaxError: missing = in destructuring declaration

tryItOut 411
Compiling threw: SyntaxError: missing variable name

tryItOut 412
Compiling threw: SyntaxError: missing variable name

tryItOut 413
It's an iterator!
Iterating threw!
Iterating threw: TypeError: undefined has no properties

tryItOut 414

tryItOut 415
Compiling threw: SyntaxError: missing variable name

tryItOut 416
Compiling threw: SyntaxError: syntax error

tryItOut 417
Compiling threw: SyntaxError: missing } after let block

tryItOut 418
Compiling threw: SyntaxError: illegal XML character

tryItOut 419
Compiling threw: SyntaxError: invalid increment operand

tryItOut 420

tryItOut 421

tryItOut 422

tryItOut 423

tryItOut 424
Running threw: ReferenceError: z2 is not defined

tryItOut 425

tryItOut 426
Compiling threw: SyntaxError: missing { before function body

tryItOut 427
Compiling threw: TypeError: redeclaration of variable __proto__

tryItOut 428
Running threw: TypeError: (__noSuchMethod__ >>>= [[1]])[__proto__ = /x/g] has no properties

tryItOut 429

tryItOut 430
Compiling threw: SyntaxError: invalid for/in left-hand side

tryItOut 431

tryItOut 432

tryItOut 433
Compiling threw: SyntaxError: syntax error

tryItOut 434

tryItOut 435

tryItOut 436

tryItOut 437
Compiling threw: SyntaxError: invalid for/in left-hand side

tryItOut 438

tryItOut 439
It's an iterator!
Iterating succeeded, iterCount == 1

tryItOut 440

tryItOut 441

tryItOut 442
Compiling threw: SyntaxError: missing = in destructuring declaration

tryItOut 443
Compiling threw: SyntaxError: missing { before function body

tryItOut 444

tryItOut 445

tryItOut 446
It's an iterator!
Iterating succeeded, iterCount == 1

tryItOut 447
Compiling threw: SyntaxError: syntax error

tryItOut 448
Compiling threw: SyntaxError: invalid for each loop

tryItOut 449

tryItOut 450

tryItOut 451
Compiling threw: SyntaxError: syntax error

tryItOut 452
Compiling threw: SyntaxError: illegal XML character

tryItOut 453

tryItOut 454
Running threw: 

tryItOut 455
Compiling threw: SyntaxError: missing = in destructuring declaration

tryItOut 456

tryItOut 457
Compiling threw: SyntaxError: invalid XML name

tryItOut 458
Running threw: ReferenceError: z2 is not defined

tryItOut 459

tryItOut 460

tryItOut 461
Compiling threw: SyntaxError: missing ) in parenthetical

tryItOut 462

tryItOut 463

tryItOut 464
Compiling threw: TypeError: redeclaration of const __iterator__

tryItOut 465

tryItOut 466
It's an iterator!
Iterating succeeded, iterCount == 1

tryItOut 467

tryItOut 468
Compiling threw: SyntaxError: missing name in export statement

tryItOut 469

tryItOut 470
Running threw: 1

tryItOut 471

tryItOut 472

tryItOut 473

tryItOut 474

tryItOut 475
Compiling threw: SyntaxError: missing ) in parenthetical

tryItOut 476

tryItOut 477

tryItOut 478
Running threw: /x/g

tryItOut 479

tryItOut 480
Compiling threw: SyntaxError: invalid for/in left-hand side

tryItOut 481

tryItOut 482
Compiling threw: SyntaxError: missing } in compound statement

tryItOut 483
Compiling threw: SyntaxError: missing ) after for-loop control

tryItOut 484
Compiling threw: SyntaxError: invalid assignment left-hand side

tryItOut 485

tryItOut 486
Compiling threw: SyntaxError: invalid for each loop

tryItOut 487

tryItOut 488

tryItOut 489
Compiling threw: SyntaxError: syntax error

tryItOut 490
Compiling threw: SyntaxError: invalid for each loop

tryItOut 491
Compiling threw: SyntaxError: invalid for/in left-hand side

tryItOut 492
Compiling threw: SyntaxError: missing ; before statement

tryItOut 493
It's an iterator!
Iterating threw!
Iterating threw: 

tryItOut 494

tryItOut 495
Compiling threw: SyntaxError: invalid for/in left-hand side

tryItOut 496
Compiling threw: SyntaxError: missing : after property id

tryItOut 497
It's an iterator!
Iterating succeeded, iterCount == 1

tryItOut 498

tryItOut 499

tryItOut 500
Compiling threw: SyntaxError: missing variable name

tryItOut 501

tryItOut 502

tryItOut 503
Compiling threw: SyntaxError: invalid for/in left-hand side

tryItOut 504
Compiling threw: SyntaxError: missing = in destructuring declaration

tryItOut 505
Compiling threw: SyntaxError: invalid increment operand

tryItOut 506
Compiling threw: SyntaxError: missing { before function body

tryItOut 507

tryItOut 508
Compiling threw: SyntaxError: invalid assignment left-hand side

tryItOut 509

tryItOut 510
Compiling threw: SyntaxError: missing variable name

tryItOut 511
It's an iterator!
Iterating succeeded, iterCount == 1

tryItOut 512
Running threw: TypeError: #1={__iterator__:#1#} has invalid __iterator__ value #1={__iterator__:#1#}

tryItOut 513

tryItOut 514
Running threw: TypeError: arguments[0] has no properties

tryItOut 515

tryItOut 516
Compiling threw: SyntaxError: missing } after finally block

tryItOut 517

tryItOut 518
Running threw: TypeError: #1={__iterator__:#1#} has invalid __iterator__ value #1={__iterator__:#1#}

tryItOut 519
Compiling threw: SyntaxError: syntax error

tryItOut 520
Compiling threw: SyntaxError: invalid for each loop

tryItOut 521
It's an iterator!
Iterating succeeded, iterCount == 0

tryItOut 522

tryItOut 523
Compiling threw: TypeError: redeclaration of const __count__

tryItOut 524

tryItOut 525
It's an iterator!
Iterating threw!
Iterating threw: Error: invalid sharp variable use #1#

tryItOut 526

tryItOut 527

tryItOut 528
Compiling threw: SyntaxError: missing ; after for-loop initializer

tryItOut 529
Compiling threw: SyntaxError: missing ; after for-loop initializer

tryItOut 530
Running threw: TypeError: #1={__iterator__:#1#} has invalid __iterator__ value #1={__iterator__:#1#}

tryItOut 531

tryItOut 532

tryItOut 533

tryItOut 534

tryItOut 535
Compiling threw: SyntaxError: missing variable name

tryItOut 536
Compiling threw: SyntaxError: invalid destructuring assignment operator

tryItOut 537
Running threw: null

tryItOut 538
Compiling threw: SyntaxError: missing ; after for-loop initializer

tryItOut 539

tryItOut 540
Compiling threw: TypeError: redeclaration of const prototype

tryItOut 541

tryItOut 542
It's an iterator!
Iterating succeeded, iterCount == 1

tryItOut 543

tryItOut 544

tryItOut 545
Compiling threw: SyntaxError: syntax error

tryItOut 546
Compiling threw: SyntaxError: missing { before function body

tryItOut 547

tryItOut 548
Running threw: TypeError: #1={__iterator__:#1#} has invalid __iterator__ value #1={__iterator__:#1#}

tryItOut 549
Compiling threw: SyntaxError: invalid for/in left-hand side

tryItOut 550
It's an iterator!
Iterating succeeded, iterCount == 1

tryItOut 551

tryItOut 552
Compiling threw: SyntaxError: missing variable name

tryItOut 553

tryItOut 554

tryItOut 555
Running threw: TypeError: #1={__iterator__:#1#} has invalid __iterator__ value #1={__iterator__:#1#}

tryItOut 556

tryItOut 557

tryItOut 558
Compiling threw: SyntaxError: invalid XML name

tryItOut 559

tryItOut 560

tryItOut 561
Compiling threw: SyntaxError: missing = in destructuring declaration

tryItOut 562
Compiling threw: TypeError: redeclaration of const __count__

tryItOut 563
Compiling threw: SyntaxError: missing ) after let head

tryItOut 564

tryItOut 565
Compiling threw: TypeError: redeclaration of const prototype

tryItOut 566

tryItOut 567

tryItOut 568

tryItOut 569
Compiling threw: SyntaxError: missing name after . operator

tryItOut 570
Compiling threw: SyntaxError: missing ( before let head

tryItOut 571
It's an iterator!
Iterating threw!
Iterating threw: TypeError: null has no properties

tryItOut 572
Compiling threw: SyntaxError: syntax error

tryItOut 573
Compiling threw: SyntaxError: invalid assignment left-hand side

tryItOut 574

tryItOut 575

tryItOut 576
Compiling threw: SyntaxError: missing ; after for-loop initializer

tryItOut 577
Compiling threw: SyntaxError: invalid destructuring assignment operator

tryItOut 578
Compiling threw: SyntaxError: catch without try

tryItOut 579
Compiling threw: TypeError: redeclaration of const __iterator__

tryItOut 580
Compiling threw: SyntaxError: invalid for each loop

tryItOut 581
It's an iterator!
Iterating threw!
Iterating threw: TypeError: XML filtering predicate operator called on incompatible String

tryItOut 582

tryItOut 583

tryItOut 584
It's an iterator!
Iterating threw!
Iterating threw: TypeError: [].call has no properties

tryItOut 585

tryItOut 586
Compiling threw: SyntaxError: missing name in export statement

tryItOut 587
Compiling threw: SyntaxError: missing : in conditional expression

tryItOut 588
Compiling threw: SyntaxError: invalid for/in left-hand side

tryItOut 589

tryItOut 590

tryItOut 591
Compiling threw: SyntaxError: invalid assignment left-hand side

tryItOut 592

tryItOut 593
Compiling threw: SyntaxError: missing ) after for-loop control

tryItOut 594
It's an iterator!
Iterating succeeded, iterCount == 1

tryItOut 595
Compiling threw: SyntaxError: invalid for/in left-hand side

tryItOut 596

tryItOut 597

tryItOut 598
Compiling threw: SyntaxError: missing ; after for-loop condition

tryItOut 599
Compiling threw: SyntaxError: invalid assignment left-hand side

tryItOut 600
Compiling threw: SyntaxError: invalid for/in left-hand side

tryItOut 601
Compiling threw: SyntaxError: invalid XML tag syntax

tryItOut 602

tryItOut 603
Compiling threw: TypeError: redeclaration of var __noSuchMethod__

tryItOut 604
Running threw: 1

tryItOut 605
Compiling threw: SyntaxError: invalid for/in left-hand side

tryItOut 606
Compiling threw: SyntaxError: invalid assignment left-hand side

tryItOut 607
Running threw: SyntaxError: malformed formal parameter

tryItOut 608
Compiling threw: SyntaxError: invalid assignment left-hand side

tryItOut 609
Compiling threw: SyntaxError: invalid for/in left-hand side

tryItOut 610
Running threw: TypeError: #1={__iterator__:#1#} has invalid __iterator__ value #1={__iterator__:#1#}

tryItOut 611
Running threw: TypeError: #1={__iterator__:#1#} has invalid __iterator__ value #1={__iterator__:#1#}

tryItOut 612
It's an iterator!
Iterating succeeded, iterCount == 1

tryItOut 613
Compiling threw: SyntaxError: missing ) in parenthetical

tryItOut 614

tryItOut 615

tryItOut 616
Compiling threw: SyntaxError: invalid for/in left-hand side

tryItOut 617

tryItOut 618
Compiling threw: SyntaxError: missing ) after let head

tryItOut 619
Compiling threw: SyntaxError: syntax error

tryItOut 620
Running threw: TypeError: #1={__iterator__:#1#} has invalid __iterator__ value #1={__iterator__:#1#}

tryItOut 621
Compiling threw: TypeError: redeclaration of const prototype

tryItOut 622
Compiling threw: SyntaxError: missing ) in parenthetical

tryItOut 623

tryItOut 624

tryItOut 625

tryItOut 626

tryItOut 627
It's an iterator!
Iterating succeeded, iterCount == 0

tryItOut 628
Compiling threw: SyntaxError: missing { before function body

tryItOut 629
Compiling threw: SyntaxError: missing ) after for-loop control

tryItOut 630

tryItOut 631
Compiling threw: SyntaxError: invalid for/in left-hand side

tryItOut 632
It's an iterator!
Iterating threw!
Iterating threw: ReferenceError: z2 is not defined

tryItOut 633

tryItOut 634

tryItOut 635

tryItOut 636

tryItOut 637

tryItOut 638
Compiling threw: SyntaxError: unterminated string literal

tryItOut 639

tryItOut 640

tryItOut 641
Compiling threw: SyntaxError: missing ) after argument list

tryItOut 642

tryItOut 643
Compiling threw: SyntaxError: missing ; after for-loop initializer

tryItOut 644

tryItOut 645

tryItOut 646
Running threw: Error: invalid sharp variable use #1#

tryItOut 647
Running threw: TypeError: #1={__iterator__:#1#} has invalid __iterator__ value #1={__iterator__:#1#}

tryItOut 648

tryItOut 649
Compiling threw: SyntaxError: invalid for/in left-hand side

tryItOut 650
Compiling threw: SyntaxError: invalid for/in left-hand side

tryItOut 651
Compiling threw: SyntaxError: missing ) in parenthetical

tryItOut 652

tryItOut 653
Compiling threw: SyntaxError: syntax error

tryItOut 654
Running threw: TypeError: #1={__iterator__:#1#} has invalid __iterator__ value #1={__iterator__:#1#}

tryItOut 655
Compiling threw: SyntaxError: missing = in destructuring declaration

tryItOut 656
Compiling threw: SyntaxError: invalid for/in left-hand side

tryItOut 657

tryItOut 658

tryItOut 659

tryItOut 660
Compiling threw: SyntaxError: invalid decrement operand

tryItOut 661

tryItOut 662
Compiling threw: SyntaxError: invalid for/in left-hand side

tryItOut 663
Compiling threw: SyntaxError: syntax error

tryItOut 664

tryItOut 665
Compiling threw: SyntaxError: missing = in destructuring declaration

tryItOut 666
Compiling threw: SyntaxError: missing ] after element list

tryItOut 667
Running threw: TypeError: #1={__iterator__:#1#} has invalid __iterator__ value #1={__iterator__:#1#}

tryItOut 668

tryItOut 669
Running threw: TypeError: arguments[0] has no properties

tryItOut 670
It's an iterator!
Iterating threw!
Iterating threw: TypeError: null is not a function

tryItOut 671

tryItOut 672
It's an iterator!
Iterating succeeded, iterCount == 1

tryItOut 673
Running threw: TypeError: __parent__ has no properties

tryItOut 674

tryItOut 675
Compiling threw: TypeError: redeclaration of variable __iterator__

tryItOut 676
Running threw: TypeError: #1={__iterator__:#1#} has invalid __iterator__ value #1={__iterator__:#1#}

tryItOut 677
Running threw: TypeError: #1={__iterator__:#1#} has invalid __iterator__ value #1={__iterator__:#1#}

tryItOut 678

tryItOut 679

tryItOut 680
Compiling threw: SyntaxError: invalid for/in left-hand side

tryItOut 681

tryItOut 682
Compiling threw: TypeError: redeclaration of var prop

tryItOut 683
Compiling threw: TypeError: redeclaration of formal parameter constructor

tryItOut 684

tryItOut 685
It's an iterator!
Iterating succeeded, iterCount == 0

tryItOut 686
Running threw: TypeError: Iterator({a1:1}) has invalid __iterator__ value #1={__iterator__:#1#}

tryItOut 687
Compiling threw: SyntaxError: missing ) after condition

tryItOut 688

tryItOut 689

tryItOut 690

tryItOut 691
Running threw: TypeError: #1={__iterator__:#1#} has invalid __iterator__ value #1={__iterator__:#1#}

tryItOut 692
It's an iterator!
Iterating threw!
Iterating threw: TypeError: [[]] is not a function

tryItOut 693
Compiling threw: SyntaxError: invalid assignment left-hand side

tryItOut 694
Compiling threw: SyntaxError: invalid for/in left-hand side

tryItOut 695

tryItOut 696

tryItOut 697
Compiling threw: SyntaxError: missing variable name

tryItOut 698
Compiling threw: SyntaxError: missing variable name

tryItOut 699
Compiling threw: SyntaxError: invalid XML name

tryItOut 700

tryItOut 701

tryItOut 702
Compiling threw: SyntaxError: missing ) in parenthetical

tryItOut 703

tryItOut 704

tryItOut 705
It's an iterator!
Iterating succeeded, iterCount == 2

tryItOut 706

tryItOut 707
Compiling threw: SyntaxError: invalid for each loop

tryItOut 708
Compiling threw: SyntaxError: invalid assignment left-hand side

tryItOut 709
Running threw: TypeError: null has no properties

tryItOut 710

tryItOut 711
Compiling threw: TypeError: redeclaration of const prototype

tryItOut 712
Running threw: TypeError: Function.prototype.call called on incompatible [object Object]

tryItOut 713
Compiling threw: SyntaxError: missing ; before statement

tryItOut 714
Compiling threw: SyntaxError: invalid assignment left-hand side

tryItOut 715
Compiling threw: SyntaxError: invalid assignment left-hand side

tryItOut 716

tryItOut 717
Compiling threw: SyntaxError: invalid for/in left-hand side

tryItOut 718
It's an iterator!
Iterating threw!
Iterating threw: ReferenceError: z1 is not defined

tryItOut 719
Compiling threw: SyntaxError: invalid XML name

tryItOut 720
Compiling threw: SyntaxError: invalid for/in left-hand side

tryItOut 721

tryItOut 722

tryItOut 723

tryItOut 724
Compiling threw: SyntaxError: invalid for/in left-hand side

tryItOut 725

tryItOut 726

tryItOut 727

tryItOut 728

tryItOut 729
Compiling threw: SyntaxError: missing ; before statement

tryItOut 730
It's an iterator!
Iterating succeeded, iterCount == 1

tryItOut 731

tryItOut 732
It's an iterator!
Iterating succeeded, iterCount == 1

tryItOut 733

tryItOut 734
Compiling threw: SyntaxError: missing ; before statement

tryItOut 735

tryItOut 736
Compiling threw: SyntaxError: missing variable name

tryItOut 737

tryItOut 738
Compiling threw: SyntaxError: invalid XML name

tryItOut 739
It's an iterator!
Iterating succeeded, iterCount == 1

tryItOut 740

tryItOut 741

tryItOut 742
Compiling threw: SyntaxError: illegal XML character

tryItOut 743

tryItOut 744

tryItOut 745
Compiling threw: SyntaxError: syntax error

tryItOut 746
Running threw: TypeError: #1={__iterator__:#1#} has invalid __iterator__ value #1={__iterator__:#1#}

tryItOut 747
Compiling threw: SyntaxError: invalid increment operand

tryItOut 748

tryItOut 749
It's an iterator!
Iterating succeeded, iterCount == 1

tryItOut 750
Running threw: TypeError: #1={__iterator__:#1#} has invalid __iterator__ value #1={__iterator__:#1#}

tryItOut 751
Compiling threw: TypeError: redeclaration of variable __parent__

tryItOut 752
It's an iterator!
Iterating succeeded, iterCount == 1

tryItOut 753
It's an iterator!
Iterating succeeded, iterCount == 1

tryItOut 754
Compiling threw: SyntaxError: duplicate label

tryItOut 755
Compiling threw: SyntaxError: invalid increment operand

tryItOut 756
It's an iterator!
Iterating succeeded, iterCount == 1

tryItOut 757

tryItOut 758

tryItOut 759
Compiling threw: TypeError: redeclaration of const __proto__

tryItOut 760
Compiling threw: SyntaxError: invalid for/in left-hand side

tryItOut 761

tryItOut 762
Compiling threw: SyntaxError: invalid increment operand

tryItOut 763

tryItOut 764

tryItOut 765
It's an iterator!
Iterating succeeded, iterCount == 1

tryItOut 766

tryItOut 767

tryItOut 768
Compiling threw: SyntaxError: missing variable name

tryItOut 769
Running threw: TypeError: #1={__iterator__:#1#} has invalid __iterator__ value #1={__iterator__:#1#}

tryItOut 770
It's an iterator!
Iterating succeeded, iterCount == 1

tryItOut 771

tryItOut 772

tryItOut 773
Compiling threw: SyntaxError: invalid XML name

tryItOut 774

tryItOut 775

tryItOut 776
It's an iterator!
Iterating succeeded, iterCount == 1

tryItOut 777

tryItOut 778
Compiling threw: SyntaxError: syntax error

tryItOut 779

tryItOut 780
Compiling threw: SyntaxError: duplicate label

tryItOut 781
Compiling threw: SyntaxError: missing } after let block

tryItOut 782
Compiling threw: SyntaxError: missing ) in parenthetical

tryItOut 783

tryItOut 784

tryItOut 785

tryItOut 786
Compiling threw: SyntaxError: missing variable name

tryItOut 787
Running threw: TypeError: constructor has no properties

tryItOut 788
Compiling threw: SyntaxError: missing ; after for-loop initializer

tryItOut 789
Compiling threw: SyntaxError: invalid assignment left-hand side

tryItOut 790

tryItOut 791
Compiling threw: SyntaxError: missing ; before statement

tryItOut 792

tryItOut 793
Running threw: ReferenceError: z1 is not defined

tryItOut 794

tryItOut 795
Compiling threw: SyntaxError: invalid for/in left-hand side

tryItOut 796

tryItOut 797
It's an iterator!
Iterating threw!
Iterating threw: ReferenceError: z2 is not defined

tryItOut 798
Compiling threw: SyntaxError: invalid for/in left-hand side

tryItOut 799
Compiling threw: SyntaxError: missing variable name

tryItOut 800

tryItOut 801

tryItOut 802
Compiling threw: SyntaxError: invalid assignment left-hand side

tryItOut 803
Compiling threw: SyntaxError: syntax error

tryItOut 804
Compiling threw: SyntaxError: missing variable name

tryItOut 805

tryItOut 806
It's an iterator!
Iterating succeeded, iterCount == 1

tryItOut 807
Compiling threw: SyntaxError: syntax error

tryItOut 808
Compiling threw: SyntaxError: invalid increment operand

tryItOut 809

tryItOut 810
Compiling threw: TypeError: redeclaration of variable __proto__

tryItOut 811
Compiling threw: SyntaxError: missing ) after condition

tryItOut 812
Compiling threw: SyntaxError: missing ; after for-loop initializer

tryItOut 813
Compiling threw: SyntaxError: missing ; before statement

tryItOut 814

tryItOut 815
Compiling threw: SyntaxError: missing ) in parenthetical

tryItOut 816
It's an iterator!
Iterating succeeded, iterCount == 1

tryItOut 817

tryItOut 818
Running threw: TypeError: #1={__iterator__:#1#} has invalid __iterator__ value #1={__iterator__:#1#}

tryItOut 819
It's an iterator!
Iterating succeeded, iterCount == 1

tryItOut 820
Running threw: /x/g

tryItOut 821

tryItOut 822
Compiling threw: TypeError: redeclaration of variable __noSuchMethod__

tryItOut 823

tryItOut 824
Compiling threw: SyntaxError: invalid for/in left-hand side

tryItOut 825
Compiling threw: SyntaxError: invalid XML name

tryItOut 826
Compiling threw: SyntaxError: missing ) after for-loop control

tryItOut 827

tryItOut 828
Compiling threw: SyntaxError: missing name in export statement

tryItOut 829
Compiling threw: SyntaxError: invalid assignment left-hand side

tryItOut 830
Compiling threw: SyntaxError: missing variable name

tryItOut 831

tryItOut 832
Compiling threw: SyntaxError: missing } in compound statement

tryItOut 833

tryItOut 834

tryItOut 835

tryItOut 836
It's an iterator!
Iterating succeeded, iterCount == 0

tryItOut 837
It's an iterator!
Iterating succeeded, iterCount == 2

tryItOut 838
Running threw: TypeError: #1={__iterator__:#1#} has invalid __iterator__ value #1={__iterator__:#1#}

tryItOut 839
Compiling threw: SyntaxError: invalid for/in left-hand side

tryItOut 840
Compiling threw: SyntaxError: missing } in compound statement

tryItOut 841

tryItOut 842

tryItOut 843
Compiling threw: SyntaxError: missing variable name

tryItOut 844
Compiling threw: SyntaxError: invalid for/in left-hand side

tryItOut 845
Compiling threw: SyntaxError: missing { before function body

tryItOut 846

tryItOut 847
Compiling threw: SyntaxError: invalid for/in left-hand side

tryItOut 848
It's an iterator!
Iterating threw!
Iterating threw: 

tryItOut 849
It's an iterator!
Iterating threw!
Iterating threw: TypeError: constructor has no properties

tryItOut 850

tryItOut 851

tryItOut 852

tryItOut 853

tryItOut 854
Running threw: TypeError: #1={__iterator__:#1#} has invalid __iterator__ value #1={__iterator__:#1#}

tryItOut 855
Compiling threw: SyntaxError: missing variable name

tryItOut 856
Compiling threw: SyntaxError: missing ) after argument list

tryItOut 857

tryItOut 858
Compiling threw: SyntaxError: invalid for/in left-hand side

tryItOut 859

tryItOut 860
Compiling threw: SyntaxError: missing variable name

tryItOut 861

tryItOut 862
Compiling threw: SyntaxError: missing { before function body

tryItOut 863

tryItOut 864
Compiling threw: TypeError: redeclaration of variable __iterator__

tryItOut 865

tryItOut 866
Compiling threw: SyntaxError: invalid for/in left-hand side

tryItOut 867

tryItOut 868

tryItOut 869
Compiling threw: SyntaxError: invalid for/in left-hand side

tryItOut 870

tryItOut 871
Compiling threw: SyntaxError: yield expression must be parenthesized

tryItOut 872
Compiling threw: TypeError: redeclaration of variable __noSuchMethod__

tryItOut 873

tryItOut 874
Compiling threw: TypeError: redeclaration of var __iterator__

tryItOut 875

tryItOut 876

tryItOut 877
Compiling threw: SyntaxError: duplicate label

tryItOut 878

tryItOut 879

tryItOut 880
Compiling threw: SyntaxError: unterminated string literal

tryItOut 881

tryItOut 882

tryItOut 883
Compiling threw: SyntaxError: illegal character

tryItOut 884
Compiling threw: SyntaxError: invalid for/in left-hand side

tryItOut 885
Compiling threw: SyntaxError: syntax error

tryItOut 886

tryItOut 887

tryItOut 888

tryItOut 889

tryItOut 890
It's an iterator!
Iterating succeeded, iterCount == 1

tryItOut 891

tryItOut 892
Compiling threw: SyntaxError: invalid increment operand

tryItOut 893
Compiling threw: SyntaxError: missing { before function body

tryItOut 894
Compiling threw: SyntaxError: invalid for/in left-hand side

tryItOut 895
It's an iterator!
Iterating threw!
Iterating threw: ReferenceError: z1 is not defined

tryItOut 896

tryItOut 897
Compiling threw: TypeError: redeclaration of var constructor

tryItOut 898
Running threw: TypeError: #1={__iterator__:#1#} has invalid __iterator__ value #1={__iterator__:#1#}

tryItOut 899

tryItOut 900
Compiling threw: SyntaxError: missing } after let block

tryItOut 901
Running threw: TypeError: undefined has no properties

tryItOut 902

tryItOut 903
Compiling threw: SyntaxError: invalid sharp variable definition

tryItOut 904
Compiling threw: SyntaxError: invalid for/in left-hand side

tryItOut 905
Running threw: TypeError: #1={__iterator__:#1#} has invalid __iterator__ value #1={__iterator__:#1#}

tryItOut 906
It's an iterator!
Iterating succeeded, iterCount == 1

tryItOut 907

tryItOut 908
Running threw: TypeError: #1={__iterator__:#1#} has invalid __iterator__ value #1={__iterator__:#1#}

tryItOut 909
Running threw: TypeError: __parent__ is not a function

tryItOut 910
It's an iterator!
Iterating threw!
Iterating threw: 

tryItOut 911

tryItOut 912

tryItOut 913
It's an iterator!
Iterating succeeded, iterCount == 1

tryItOut 914
It's an iterator!
Iterating succeeded, iterCount == 0

tryItOut 915
Compiling threw: SyntaxError: missing variable name

tryItOut 916
Compiling threw: SyntaxError: invalid XML list syntax

tryItOut 917
Compiling threw: SyntaxError: invalid for/in left-hand side

tryItOut 918
Compiling threw: SyntaxError: invalid sharp variable definition

tryItOut 919

tryItOut 920
Running threw: TypeError: #1={__iterator__:#1#} has invalid __iterator__ value #1={__iterator__:#1#}

tryItOut 921

tryItOut 922

tryItOut 923
Running threw: TypeError: #1={__iterator__:#1#} has invalid __iterator__ value #1={__iterator__:#1#}

tryItOut 924

tryItOut 925

tryItOut 926
Compiling threw: SyntaxError: invalid assignment left-hand side

tryItOut 927
It's an iterator!
Iterating threw!
Iterating threw: TypeError: prototype has no properties

tryItOut 928
Compiling threw: SyntaxError: invalid for/in left-hand side

tryItOut 929
It's an iterator!
Iterating succeeded, iterCount == 1

tryItOut 930
Compiling threw: TypeError: redeclaration of var prototype

tryItOut 931

tryItOut 932
Compiling threw: SyntaxError: missing variable name

tryItOut 933
It's an iterator!
Iterating threw!
Iterating threw: TypeError: #1={__iterator__:#1#} has invalid __iterator__ value #1={__iterator__:#1#}

tryItOut 934

tryItOut 935

tryItOut 936
Compiling threw: SyntaxError: missing ; after for-loop initializer

tryItOut 937

tryItOut 938
Compiling threw: SyntaxError: invalid for each loop

tryItOut 939
It's an iterator!
Iterating succeeded, iterCount == 1

tryItOut 940
Compiling threw: SyntaxError: catch without try

tryItOut 941

tryItOut 942
It's an iterator!
Iterating succeeded, iterCount == 1

tryItOut 943

tryItOut 944
It's an iterator!
Iterating threw!
Iterating threw: ReferenceError: z2 is not defined

tryItOut 945
Running threw: Error: invalid sharp variable use #1#

tryItOut 946
Compiling threw: SyntaxError: missing : after property id

tryItOut 947

tryItOut 948

tryItOut 949
Compiling threw: SyntaxError: invalid XML name

tryItOut 950

tryItOut 951
Compiling threw: SyntaxError: invalid for/in left-hand side

tryItOut 952

tryItOut 953
Compiling threw: SyntaxError: missing ) after formal parameters

tryItOut 954
Compiling threw: SyntaxError: missing { before function body

tryItOut 955
Compiling threw: SyntaxError: missing variable name

tryItOut 956
It's an iterator!
Iterating threw!
Iterating threw: ReferenceError: z1 is not defined

tryItOut 957
Running threw: ReferenceError: reference to undefined XML name @mozilla.org/js/function::__parent__

tryItOut 958

tryItOut 959
Compiling threw: SyntaxError: missing ; after for-loop initializer

tryItOut 960

tryItOut 961
Compiling threw: SyntaxError: invalid destructuring assignment operator

tryItOut 962
Compiling threw: SyntaxError: catch without try

tryItOut 963

tryItOut 964

tryItOut 965
It's an iterator!
Iterating threw!
Iterating threw: TypeError: /x/ is not a constructor

tryItOut 966

tryItOut 967

tryItOut 968
Compiling threw: SyntaxError: missing ) in parenthetical

tryItOut 969
Compiling threw: SyntaxError: missing variable name

tryItOut 970
Compiling threw: SyntaxError: invalid for/in left-hand side

tryItOut 971
Compiling threw: SyntaxError: syntax error

tryItOut 972

tryItOut 973
Compiling threw: SyntaxError: invalid for/in left-hand side

tryItOut 974

tryItOut 975

tryItOut 976
Compiling threw: SyntaxError: syntax error

tryItOut 977

tryItOut 978
Compiling threw: SyntaxError: invalid for/in left-hand side

tryItOut 979
Compiling threw: SyntaxError: missing ; after for-loop initializer

tryItOut 980
Compiling threw: SyntaxError: missing ; before statement

tryItOut 981
Compiling threw: SyntaxError: invalid assignment left-hand side

tryItOut 982

tryItOut 983

tryItOut 984

tryItOut 985

tryItOut 986

tryItOut 987

tryItOut 988
It's an iterator!
Iterating threw!
Iterating threw: 

tryItOut 989
Compiling threw: SyntaxError: syntax error

tryItOut 990

tryItOut 991

tryItOut 992
Compiling threw: SyntaxError: invalid assignment left-hand side

tryItOut 993

tryItOut 994

tryItOut 995

tryItOut 996
Running threw: TypeError: #1={__iterator__:#1#} has invalid __iterator__ value #1={__iterator__:#1#}

tryItOut 997
Compiling threw: TypeError: redeclaration of variable __parent__

tryItOut 998
Compiling threw: SyntaxError: missing variable name

tryItOut 999

tryItOut 1000

ALL OK

Script done on Sat 04 May 2013 06:16:11 AM PDT
