Script started on Sat 04 May 2013 06:17:31 AM PDT
***
Targeting SpiderMonkey / Gecko.

tryItOut 1

tryItOut 2
It's an iterator!
Iterating threw!
Iterating threw: ReferenceError: __iterator__ is not defined

tryItOut 3
Compiling threw: TypeError: redeclaration of const __count__

tryItOut 4

tryItOut 5
Running threw: ReferenceError: __noSuchMethod__ is not defined

tryItOut 6
Running threw: ReferenceError: reference to undefined XML name *::*

tryItOut 7

tryItOut 8
Running threw: ReferenceError: window is not defined

tryItOut 9
It's an iterator!
Iterating threw!
Iterating threw: Error: invalid sharp variable use #1#

tryItOut 10
Compiling threw: SyntaxError: syntax error

tryItOut 11
Compiling threw: SyntaxError: illegal XML character

tryItOut 12

tryItOut 13
Compiling threw: SyntaxError: syntax error

tryItOut 14
Running threw: ReferenceError: z2 is not defined

tryItOut 15
Compiling threw: SyntaxError: missing variable name

tryItOut 16

tryItOut 17

tryItOut 18
Running threw: ReferenceError: __iterator__ is not defined

tryItOut 19
Compiling threw: SyntaxError: missing variable name

tryItOut 20
Running threw: -1

tryItOut 21
It's an iterator!
Iterating threw!
Iterating threw: TypeError: __parent__ has no properties

tryItOut 22
Compiling threw: SyntaxError: missing = in destructuring declaration

tryItOut 23
Compiling threw: TypeError: redeclaration of var prop

tryItOut 24

tryItOut 25
Running threw: [object Object]

tryItOut 26
Compiling threw: SyntaxError: missing { before function body

tryItOut 27

tryItOut 28
Running threw: ReferenceError: reference to undefined XML name *::*

tryItOut 29
It's an iterator!
Iterating threw!
Iterating threw: ReferenceError: reference to undefined property "prop"

tryItOut 30
Compiling threw: TypeError: redeclaration of const prop

tryItOut 31
Compiling threw: SyntaxError: missing ; before statement

tryItOut 32

tryItOut 33
It's an iterator!
Iterating succeeded, iterCount == 1

tryItOut 34
Compiling threw: SyntaxError: missing { before function body

tryItOut 35
Running threw: ReferenceError: reference to undefined XML name @foo

tryItOut 36

tryItOut 37
Compiling threw: SyntaxError: missing ) in parenthetical

tryItOut 38

tryItOut 39

tryItOut 40

tryItOut 41
Compiling threw: TypeError: redeclaration of variable prototype

tryItOut 42
Running threw: ReferenceError: __noSuchMethod__ is not defined

tryItOut 43

tryItOut 44

tryItOut 45
Compiling threw: TypeError: redeclaration of variable __parent__

tryItOut 46

tryItOut 47
It's an iterator!
Iterating threw!
Iterating threw: ReferenceError: prop is not defined

tryItOut 48
Compiling threw: SyntaxError: missing variable name

tryItOut 49
Compiling threw: SyntaxError: missing ; before statement

tryItOut 50
before 104640, after 104640, break 01acd000

tryItOut 51

tryItOut 52
Compiling threw: TypeError: anonymous generator function returns a value

tryItOut 53
Compiling threw: TypeError: redeclaration of variable __parent__

tryItOut 54
Compiling threw: TypeError: redeclaration of variable __noSuchMethod__

tryItOut 55
Compiling threw: SyntaxError: invalid XML tag syntax

tryItOut 56

tryItOut 57

tryItOut 58
Running threw: [object StopIteration]

tryItOut 59
Compiling threw: SyntaxError: missing ; before statement

tryItOut 60

tryItOut 61

tryItOut 62
Compiling threw: SyntaxError: invalid for/in left-hand side

tryItOut 63
Compiling threw: SyntaxError: syntax error

tryItOut 64

tryItOut 65
Running threw: ReferenceError: window is not defined

tryItOut 66
Compiling threw: SyntaxError: missing ; before statement

tryItOut 67
Compiling threw: SyntaxError: missing variable name

tryItOut 68
Running threw: ReferenceError: window is not defined

tryItOut 69

tryItOut 70

tryItOut 71
Compiling threw: TypeError: redeclaration of var __count__

tryItOut 72

tryItOut 73

tryItOut 74
Compiling threw: TypeError: redeclaration of const __count__

tryItOut 75

tryItOut 76

tryItOut 77
Compiling threw: SyntaxError: syntax error

tryItOut 78

tryItOut 79
Compiling threw: SyntaxError: missing ) in parenthetical

tryItOut 80
Compiling threw: SyntaxError: missing ; before statement

tryItOut 81
Compiling threw: SyntaxError: missing ; before statement

tryItOut 82
Compiling threw: SyntaxError: syntax error

tryItOut 83
Compiling threw: SyntaxError: invalid for/in left-hand side

tryItOut 84
Running threw: [object StopIteration]

tryItOut 85

tryItOut 86
Compiling threw: SyntaxError: invalid assignment left-hand side

tryItOut 87

tryItOut 88

tryItOut 89
Compiling threw: SyntaxError: missing ; before statement

tryItOut 90
Compiling threw: SyntaxError: syntax error

tryItOut 91

tryItOut 92

tryItOut 93
Compiling threw: SyntaxError: missing ; before statement

tryItOut 94

tryItOut 95

tryItOut 96

tryItOut 97
Compiling threw: SyntaxError: missing } after let block

tryItOut 98
Compiling threw: SyntaxError: missing ; before statement

tryItOut 99

tryItOut 100
Compiling threw: SyntaxError: missing : after property id

tryItOut 101
Compiling threw: SyntaxError: missing } after let block

tryItOut 102
Running threw: ReferenceError: window is not defined

tryItOut 103
Compiling threw: SyntaxError: syntax error

tryItOut 104

tryItOut 105

tryItOut 106
It's an iterator!
Iterating succeeded, iterCount == 1

tryItOut 107

tryItOut 108

tryItOut 109

tryItOut 110
Compiling threw: SyntaxError: syntax error

tryItOut 111
Compiling threw: SyntaxError: missing ; before statement

tryItOut 112

tryItOut 113
Running threw: TypeError: invalid 'instanceof' operand __iterator__

tryItOut 114

tryItOut 115
It's an iterator!
Iterating threw!
Iterating threw: SyntaxError: illegal XML character

tryItOut 116

tryItOut 117

tryItOut 118
It's an iterator!
Iterating threw!
Iterating threw: ReferenceError: reference to undefined XML name @foo

tryItOut 119
Compiling threw: SyntaxError: missing ; before statement

tryItOut 120

tryItOut 121

tryItOut 122
Compiling threw: TypeError: redeclaration of var __iterator__

tryItOut 123
Compiling threw: SyntaxError: invalid assignment left-hand side

tryItOut 124

tryItOut 125
Compiling threw: SyntaxError: invalid for/in left-hand side

tryItOut 126

tryItOut 127
Compiling threw: SyntaxError: invalid increment operand

tryItOut 128

tryItOut 129
Compiling threw: SyntaxError: invalid for/in left-hand side

tryItOut 130
before 122080, after 122080, break 01af8000

tryItOut 131

tryItOut 132

tryItOut 133
Running threw: <y>
  <z/>
</y>

tryItOut 134

tryItOut 135

tryItOut 136

tryItOut 137
Running threw: TypeError: __count__.prototype has no properties

tryItOut 138
Compiling threw: SyntaxError: syntax error

tryItOut 139
Running threw: [object StopIteration]

tryItOut 140
It's an iterator!
Iterating threw!
Iterating threw: <x>
  <y/>
</x>

tryItOut 141

tryItOut 142

tryItOut 143

tryItOut 144
It's an iterator!
Iterating succeeded, iterCount == 1

tryItOut 145
Running threw: ReferenceError: window is not defined

tryItOut 146
Compiling threw: SyntaxError: missing } after let block

tryItOut 147
Running threw: ReferenceError: reference to undefined XML name *

tryItOut 148
Compiling threw: SyntaxError: syntax error

tryItOut 149

tryItOut 150
It's an iterator!
Iterating threw!
Iterating threw: ReferenceError: reference to undefined XML name *::*

tryItOut 151

tryItOut 152
Compiling threw: SyntaxError: syntax error

tryItOut 153

tryItOut 154

tryItOut 155
Compiling threw: SyntaxError: missing ) in parenthetical

tryItOut 156

tryItOut 157
before 122080, after 122080, break 01af8000

tryItOut 158
Compiling threw: SyntaxError: duplicate label

tryItOut 159

tryItOut 160
It's an iterator!
Iterating succeeded, iterCount == 1

tryItOut 161
before 122080, after 122080, break 01af8000

tryItOut 162
Compiling threw: SyntaxError: syntax error

tryItOut 163

tryItOut 164

tryItOut 165
It's an iterator!
Iterating threw!
Iterating threw: ReferenceError: window is not defined

tryItOut 166
Compiling threw: SyntaxError: missing variable name

tryItOut 167

tryItOut 168

tryItOut 169
Compiling threw: TypeError: redeclaration of var constructor

tryItOut 170
Running threw: ReferenceError: window is not defined

tryItOut 171

tryItOut 172
Compiling threw: SyntaxError: missing ; before statement

tryItOut 173
Compiling threw: SyntaxError: missing ) in parenthetical

tryItOut 174
Running threw: ReferenceError: reference to undefined property "prop"

tryItOut 175
Compiling threw: SyntaxError: illegal XML character

tryItOut 176
Compiling threw: SyntaxError: invalid assignment left-hand side

tryItOut 177
Compiling threw: SyntaxError: missing ; before statement

tryItOut 178
Compiling threw: SyntaxError: missing ) in parenthetical

tryItOut 179
Compiling threw: SyntaxError: missing : after property id

tryItOut 180

tryItOut 181
Compiling threw: SyntaxError: missing ; before statement

tryItOut 182

tryItOut 183
Compiling threw: SyntaxError: invalid destructuring assignment operator

tryItOut 184
Compiling threw: SyntaxError: duplicate label

tryItOut 185
Running threw: TypeError: XML filtering predicate operator called on incompatible Object

tryItOut 186

tryItOut 187
Compiling threw: SyntaxError: invalid assignment left-hand side

tryItOut 188

tryItOut 189

tryItOut 190
Compiling threw: SyntaxError: missing } in compound statement

tryItOut 191

tryItOut 192
Compiling threw: SyntaxError: illegal XML character

tryItOut 193
Compiling threw: SyntaxError: syntax error

tryItOut 194
Compiling threw: SyntaxError: syntax error

tryItOut 195
Running threw: ReferenceError: reference to undefined XML name *::*

tryItOut 196

tryItOut 197

tryItOut 198

tryItOut 199
Compiling threw: SyntaxError: invalid for/in left-hand side

tryItOut 200
Compiling threw: SyntaxError: syntax error

tryItOut 201
Compiling threw: SyntaxError: invalid assignment left-hand side

tryItOut 202
Compiling threw: SyntaxError: illegal XML character

tryItOut 203

tryItOut 204
Compiling threw: SyntaxError: syntax error

tryItOut 205
Running threw: ReferenceError: window is not defined

tryItOut 206

tryItOut 207
Compiling threw: SyntaxError: missing ; before statement

tryItOut 208
Compiling threw: SyntaxError: missing ; before statement

tryItOut 209

tryItOut 210
Compiling threw: SyntaxError: invalid for/in left-hand side

tryItOut 211

tryItOut 212
Compiling threw: SyntaxError: syntax error

tryItOut 213
Compiling threw: SyntaxError: invalid assignment left-hand side

tryItOut 214
Running threw: ReferenceError: window is not defined

tryItOut 215

tryItOut 216
Compiling threw: SyntaxError: invalid assignment left-hand side

tryItOut 217
Compiling threw: SyntaxError: invalid assignment left-hand side

tryItOut 218
Compiling threw: TypeError: redeclaration of variable constructor

tryItOut 219

tryItOut 220
Compiling threw: SyntaxError: missing variable name

tryItOut 221
Compiling threw: TypeError: redeclaration of const __count__

tryItOut 222
Running threw: ReferenceError: __noSuchMethod__ is not defined

tryItOut 223
It's an iterator!
Iterating threw!
Iterating threw: ReferenceError: prop is not defined

tryItOut 224

tryItOut 225

tryItOut 226

tryItOut 227
Compiling threw: SyntaxError: syntax error

tryItOut 228

tryItOut 229
Running threw: ReferenceError: reference to undefined XML name *

tryItOut 230
Compiling threw: TypeError: redeclaration of var prop

tryItOut 231
Compiling threw: SyntaxError: invalid increment operand

tryItOut 232

tryItOut 233
Compiling threw: TypeError: redeclaration of const __parent__

tryItOut 234

tryItOut 235
Compiling threw: SyntaxError: missing ; before statement

tryItOut 236
Compiling threw: SyntaxError: illegal XML character

tryItOut 237
It's an iterator!
Iterating succeeded, iterCount == 2

tryItOut 238

tryItOut 239
Running threw: 0

tryItOut 240

tryItOut 241
Compiling threw: SyntaxError: missing ; before statement

tryItOut 242
Compiling threw: SyntaxError: invalid for/in left-hand side

tryItOut 243

tryItOut 244

tryItOut 245

tryItOut 246
Compiling threw: SyntaxError: invalid assignment left-hand side

tryItOut 247

tryItOut 248
Compiling threw: SyntaxError: missing ; before statement

tryItOut 249

tryItOut 250
Compiling threw: SyntaxError: syntax error

tryItOut 251
Running threw: ReferenceError: window is not defined

tryItOut 252
Compiling threw: SyntaxError: missing ; before statement

tryItOut 253

tryItOut 254
Compiling threw: SyntaxError: syntax error

tryItOut 255
Compiling threw: SyntaxError: syntax error

tryItOut 256
Compiling threw: SyntaxError: syntax error

tryItOut 257

tryItOut 258

tryItOut 259
Running threw: 

tryItOut 260
Compiling threw: SyntaxError: missing variable name

tryItOut 261

tryItOut 262
before 139520, after 139520, break 01b27000

tryItOut 263
Running threw: [object StopIteration]

tryItOut 264
Compiling threw: SyntaxError: missing ) in parenthetical

tryItOut 265
Running threw: [object StopIteration]

tryItOut 266

tryItOut 267
Compiling threw: SyntaxError: invalid XML list syntax

tryItOut 268
Running threw: [object global]

tryItOut 269
Compiling threw: SyntaxError: syntax error

tryItOut 270

tryItOut 271

tryItOut 272

tryItOut 273
Compiling threw: SyntaxError: missing variable name

tryItOut 274

tryItOut 275
Compiling threw: SyntaxError: syntax error

tryItOut 276

tryItOut 277
Compiling threw: SyntaxError: invalid for/in left-hand side

tryItOut 278

tryItOut 279
Running threw: ReferenceError: window is not defined

tryItOut 280
Compiling threw: SyntaxError: invalid for/in left-hand side

tryItOut 281
Compiling threw: SyntaxError: invalid assignment left-hand side

tryItOut 282
Compiling threw: SyntaxError: invalid increment operand

tryItOut 283
Running threw: ReferenceError: z1 is not defined

tryItOut 284

tryItOut 285
before 139520, after 139520, break 01b27000

tryItOut 286

tryItOut 287
Compiling threw: SyntaxError: invalid assignment left-hand side

tryItOut 288
It's an iterator!
Iterating succeeded, iterCount == 1

tryItOut 289
Running threw: ReferenceError: window is not defined

tryItOut 290
Compiling threw: SyntaxError: missing } in compound statement

tryItOut 291
Compiling threw: SyntaxError: missing variable name

tryItOut 292
Running threw: ReferenceError: z2 is not defined

tryItOut 293
It's an iterator!
Iterating threw!
Iterating threw: ReferenceError: reference to undefined XML name *

tryItOut 294
Compiling threw: SyntaxError: missing ; before statement

tryItOut 295
Running threw: [object Object]

tryItOut 296
Compiling threw: SyntaxError: missing { before function body

tryItOut 297
Compiling threw: SyntaxError: invalid assignment left-hand side

tryItOut 298

tryItOut 299

tryItOut 300
before 139520, after 139520, break 01b27000
before 139520, after 139520, break 01b27000

tryItOut 301
Compiling threw: SyntaxError: missing ; before statement

tryItOut 302

tryItOut 303
Compiling threw: SyntaxError: invalid assignment left-hand side

tryItOut 304

tryItOut 305
Compiling threw: SyntaxError: invalid assignment left-hand side

tryItOut 306
Compiling threw: TypeError: redeclaration of const prop

tryItOut 307

tryItOut 308

tryItOut 309

tryItOut 310
Compiling threw: SyntaxError: invalid for/in left-hand side

tryItOut 311

tryItOut 312
Compiling threw: SyntaxError: syntax error

tryItOut 313
It's an iterator!
Iterating succeeded, iterCount == 1

tryItOut 314
Running threw: ReferenceError: window is not defined

tryItOut 315
Compiling threw: SyntaxError: missing ; before statement

tryItOut 316

tryItOut 317

tryItOut 318

tryItOut 319

tryItOut 320
Compiling threw: SyntaxError: missing { before function body

tryItOut 321

tryItOut 322

tryItOut 323
Compiling threw: SyntaxError: missing variable name

tryItOut 324
Compiling threw: SyntaxError: missing ; before statement

tryItOut 325
before 139520, after 139520, break 01b27000

tryItOut 326
Running threw: [object StopIteration]

tryItOut 327
Compiling threw: SyntaxError: invalid assignment left-hand side

tryItOut 328
Compiling threw: TypeError: redeclaration of variable prototype

tryItOut 329
Compiling threw: SyntaxError: invalid default XML namespace

tryItOut 330

tryItOut 331
before 139520, after 139520, break 01b27000
Running threw: 

tryItOut 332

tryItOut 333

tryItOut 334

tryItOut 335
Compiling threw: SyntaxError: syntax error

tryItOut 336
before 139520, after 139520, break 01b27000

tryItOut 337
It's an iterator!
Iterating threw!
Iterating threw: ReferenceError: z1 is not defined

tryItOut 338
Compiling threw: SyntaxError: invalid assignment left-hand side

tryItOut 339

tryItOut 340
Compiling threw: SyntaxError: illegal XML character

tryItOut 341

tryItOut 342

tryItOut 343
Running threw: ReferenceError: reference to undefined XML name *

tryItOut 344

tryItOut 345

tryItOut 346
Running threw: ReferenceError: reference to undefined XML name @foo

tryItOut 347
Compiling threw: SyntaxError: invalid assignment left-hand side

tryItOut 348

tryItOut 349
It's an iterator!
Iterating succeeded, iterCount == 1

tryItOut 350

tryItOut 351
Compiling threw: SyntaxError: missing ; before statement

tryItOut 352

tryItOut 353

tryItOut 354
Compiling threw: SyntaxError: missing ; before statement

tryItOut 355

tryItOut 356

tryItOut 357
Compiling threw: SyntaxError: missing ; before statement

tryItOut 358
Compiling threw: SyntaxError: invalid decrement operand

tryItOut 359

tryItOut 360

tryItOut 361
before 139520, after 139520, break 01b34000

tryItOut 362

tryItOut 363
Compiling threw: SyntaxError: missing ; before statement

tryItOut 364

tryItOut 365

tryItOut 366
Compiling threw: SyntaxError: syntax error

tryItOut 367

tryItOut 368
Compiling threw: SyntaxError: illegal XML character

tryItOut 369
Compiling threw: SyntaxError: missing variable name

tryItOut 370
Running threw: 1e+81

tryItOut 371
Compiling threw: SyntaxError: missing ; before statement

tryItOut 372
Compiling threw: SyntaxError: missing { before function body

tryItOut 373
Compiling threw: SyntaxError: missing ; before statement

tryItOut 374
Compiling threw: SyntaxError: missing ; before statement

tryItOut 375

tryItOut 376
Compiling threw: SyntaxError: missing ; before statement

tryItOut 377

tryItOut 378
before 139520, after 139520, break 01b34000

tryItOut 379
Running threw: ReferenceError: reference to undefined XML name *::*

tryItOut 380

tryItOut 381
Compiling threw: TypeError: redeclaration of variable __noSuchMethod__

tryItOut 382
Compiling threw: SyntaxError: missing ) in parenthetical

tryItOut 383
Compiling threw: SyntaxError: missing ; before statement

tryItOut 384
Compiling threw: SyntaxError: syntax error

tryItOut 385
Compiling threw: SyntaxError: invalid increment operand

tryItOut 386
It's an iterator!
Iterating threw!
Iterating threw: TypeError: (function (id) {return id;}).yoyo is not a function

tryItOut 387
Running threw: [object StopIteration]

tryItOut 388
Compiling threw: SyntaxError: invalid assignment left-hand side

tryItOut 389
Compiling threw: SyntaxError: missing ; before statement

tryItOut 390
Compiling threw: SyntaxError: invalid for/in left-hand side

tryItOut 391

tryItOut 392

tryItOut 393
Running threw: TypeError: __iterator__.__proto__ has no properties

tryItOut 394
Compiling threw: SyntaxError: missing ; before statement

tryItOut 395

tryItOut 396

tryItOut 397
Compiling threw: SyntaxError: invalid XML name

tryItOut 398
Compiling threw: SyntaxError: missing ; before statement

tryItOut 399

tryItOut 400

tryItOut 401

tryItOut 402

tryItOut 403
Running threw: null

tryItOut 404
Compiling threw: SyntaxError: invalid increment operand

tryItOut 405

tryItOut 406

tryItOut 407

tryItOut 408
Compiling threw: SyntaxError: missing : after property id

tryItOut 409
Compiling threw: SyntaxError: missing variable name

tryItOut 410

tryItOut 411
Compiling threw: SyntaxError: missing ; before statement

tryItOut 412
Compiling threw: SyntaxError: syntax error

tryItOut 413

tryItOut 414

tryItOut 415
Compiling threw: SyntaxError: invalid assignment left-hand side

tryItOut 416

tryItOut 417

tryItOut 418
Compiling threw: SyntaxError: missing ; before statement

tryItOut 419

tryItOut 420

tryItOut 421

tryItOut 422
Running threw: [object StopIteration]

tryItOut 423

tryItOut 424

tryItOut 425
Compiling threw: SyntaxError: yield expression must be parenthesized

tryItOut 426
Compiling threw: SyntaxError: missing variable name

tryItOut 427
Compiling threw: SyntaxError: missing ; before statement

tryItOut 428
It's an iterator!
Iterating threw!
Iterating threw: ReferenceError: reference to undefined XML name *

tryItOut 429
before 139520, after 139520, break 01b34000

tryItOut 430
Compiling threw: SyntaxError: missing ) in parenthetical

tryItOut 431

tryItOut 432
Compiling threw: SyntaxError: invalid assignment left-hand side

tryItOut 433
Compiling threw: SyntaxError: invalid decrement operand

tryItOut 434
It's an iterator!
Iterating threw!
Iterating threw: ReferenceError: reference to undefined XML name *

tryItOut 435
It's an iterator!
before 139520, after 139520, break 01b34000
Iterating succeeded, iterCount == 0

tryItOut 436
Compiling threw: SyntaxError: missing ; before statement

tryItOut 437

tryItOut 438
Running threw: ReferenceError: window is not defined

tryItOut 439

tryItOut 440

tryItOut 441
Compiling threw: SyntaxError: invalid assignment left-hand side

tryItOut 442
Running threw: ReferenceError: reference to undefined XML name *::*

tryItOut 443
Compiling threw: SyntaxError: invalid destructuring assignment operator

tryItOut 444

tryItOut 445

tryItOut 446

tryItOut 447
Compiling threw: SyntaxError: invalid assignment left-hand side

tryItOut 448
Compiling threw: SyntaxError: invalid for/in left-hand side

tryItOut 449
Running threw: [object StopIteration]

tryItOut 450
Compiling threw: SyntaxError: invalid decrement operand

tryItOut 451
It's an iterator!
Iterating threw!
Iterating threw: ReferenceError: window is not defined

tryItOut 452

tryItOut 453
Compiling threw: SyntaxError: missing ; before statement

tryItOut 454
Compiling threw: TypeError: generator function anonymous returns a value

tryItOut 455
Compiling threw: SyntaxError: missing } in XML expression

tryItOut 456

tryItOut 457
Compiling threw: SyntaxError: missing } after let block

tryItOut 458

tryItOut 459

tryItOut 460

tryItOut 461
Running threw: ReferenceError: window is not defined

tryItOut 462
Compiling threw: SyntaxError: invalid increment operand

tryItOut 463
Compiling threw: SyntaxError: missing ; before statement

tryItOut 464
Compiling threw: SyntaxError: unterminated regular expression literal

tryItOut 465
Compiling threw: SyntaxError: missing ) in parenthetical

tryItOut 466

tryItOut 467
Running threw: TypeError: <x>
  <y/>
</x> is not a constructor

tryItOut 468
Compiling threw: SyntaxError: missing ; before statement

tryItOut 469
Compiling threw: SyntaxError: syntax error

tryItOut 470
Compiling threw: TypeError: redeclaration of var __proto__

tryItOut 471
It's an iterator!
Iterating threw!
Iterating threw: TypeError: XML filtering predicate operator called on incompatible Object

tryItOut 472

tryItOut 473
Compiling threw: SyntaxError: missing ; before statement

tryItOut 474
It's an iterator!
Iterating threw!
Iterating threw: ReferenceError: reference to undefined XML name @foo

tryItOut 475
before 139520, after 139520, break 01b4c000

tryItOut 476
Compiling threw: SyntaxError: missing ; before statement

tryItOut 477
Compiling threw: SyntaxError: syntax error

tryItOut 478

tryItOut 479
Compiling threw: SyntaxError: missing variable name

tryItOut 480
Compiling threw: SyntaxError: unterminated comment

tryItOut 481
before 139520, after 139520, break 01b4c000

tryItOut 482

tryItOut 483

tryItOut 484
before 139520, after 139520, break 01b4c000

tryItOut 485
Compiling threw: SyntaxError: illegal XML character

tryItOut 486
Running threw: ReferenceError: reference to undefined XML name @foo

tryItOut 487
Compiling threw: SyntaxError: syntax error

tryItOut 488
Running threw: -1

tryItOut 489
Compiling threw: SyntaxError: missing ; before statement

tryItOut 490

tryItOut 491
It's an iterator!
Iterating threw!
Iterating threw: ReferenceError: reference to undefined XML name *

tryItOut 492

tryItOut 493
Compiling threw: SyntaxError: invalid decrement operand

tryItOut 494
Compiling threw: SyntaxError: syntax error

tryItOut 495
Running threw: TypeError: <x/> is not a function

tryItOut 496
Running threw: ReferenceError: reference to undefined XML name @foo

tryItOut 497

tryItOut 498

tryItOut 499

tryItOut 500
before 139520, after 139520, break 01b4c000

tryItOut 501

tryItOut 502
Compiling threw: SyntaxError: missing ) after condition

tryItOut 503
Compiling threw: TypeError: redeclaration of const __count__

tryItOut 504
Compiling threw: SyntaxError: missing variable name

tryItOut 505
Compiling threw: TypeError: redeclaration of variable __count__

tryItOut 506

tryItOut 507
It's an iterator!
Iterating succeeded, iterCount == 2

tryItOut 508
Running threw: TypeError: p.z = prototype is not a function

tryItOut 509
Running threw: ReferenceError: window is not defined

tryItOut 510
Compiling threw: SyntaxError: illegal XML character

tryItOut 511

tryItOut 512

tryItOut 513

tryItOut 514
Running threw: Error: invalid sharp variable use #1#

tryItOut 515
Compiling threw: TypeError: redeclaration of const __parent__

tryItOut 516

tryItOut 517

tryItOut 518
It's an iterator!
Iterating threw!
Iterating threw: 

tryItOut 519

tryItOut 520

tryItOut 521

tryItOut 522

tryItOut 523

tryItOut 524
Compiling threw: TypeError: redeclaration of variable constructor

tryItOut 525
Compiling threw: SyntaxError: missing ; before statement

tryItOut 526
Compiling threw: SyntaxError: missing ; before statement

tryItOut 527

tryItOut 528

tryItOut 529
Compiling threw: SyntaxError: missing ; before statement

tryItOut 530

tryItOut 531

tryItOut 532
Running threw: [object StopIteration]

tryItOut 533
It's an iterator!
Iterating threw!
Iterating threw: undefined

tryItOut 534
Compiling threw: SyntaxError: missing } after let block

tryItOut 535
It's an iterator!
Iterating succeeded, iterCount == 1

tryItOut 536

tryItOut 537
Compiling threw: SyntaxError: missing ; before statement

tryItOut 538

tryItOut 539

tryItOut 540
Compiling threw: SyntaxError: missing ) in parenthetical

tryItOut 541
Compiling threw: SyntaxError: missing variable name

tryItOut 542
Compiling threw: SyntaxError: missing ) in parenthetical

tryItOut 543

tryItOut 544
Compiling threw: SyntaxError: invalid for/in left-hand side

tryItOut 545

tryItOut 546

tryItOut 547

tryItOut 548

tryItOut 549
Compiling threw: SyntaxError: missing ; before statement

tryItOut 550
Running threw: 107

tryItOut 551
It's an iterator!
Iterating threw!
Iterating threw: ReferenceError: reference to undefined XML name *

tryItOut 552
Running threw: [object StopIteration]

tryItOut 553
Compiling threw: SyntaxError: missing variable name

tryItOut 554
Running threw: [object StopIteration]

tryItOut 555

tryItOut 556

tryItOut 557
Running threw: ReferenceError: window is not defined

tryItOut 558
Compiling threw: SyntaxError: missing variable name

tryItOut 559
Compiling threw: SyntaxError: missing ; before statement

tryItOut 560

tryItOut 561
Compiling threw: SyntaxError: invalid for/in left-hand side

tryItOut 562
It's an iterator!
Iterating succeeded, iterCount == 1

tryItOut 563
Running threw: [object StopIteration]

tryItOut 564
before 174400, after 174400, break 01b5d000

tryItOut 565
It's an iterator!
Iterating threw!
Iterating threw: ReferenceError: reference to undefined XML name @foo

tryItOut 566

tryItOut 567

tryItOut 568
Compiling threw: SyntaxError: invalid for/in left-hand side

tryItOut 569
It's an iterator!
Iterating threw!
Iterating threw: ReferenceError: reference to undefined XML name *

tryItOut 570
Compiling threw: SyntaxError: missing ; before statement

tryItOut 571
Compiling threw: SyntaxError: syntax error

tryItOut 572
Compiling threw: SyntaxError: missing ) in parenthetical

tryItOut 573
Compiling threw: TypeError: redeclaration of variable __parent__

tryItOut 574
Compiling threw: SyntaxError: missing ; before statement

tryItOut 575
Compiling threw: SyntaxError: missing { before function body

tryItOut 576

tryItOut 577
Compiling threw: SyntaxError: missing variable name

tryItOut 578

tryItOut 579

tryItOut 580

tryItOut 581

tryItOut 582
Compiling threw: SyntaxError: missing ; before statement

tryItOut 583
Running threw: TypeError: prop.yoyo is not a function

tryItOut 584

tryItOut 585

tryItOut 586
Compiling threw: SyntaxError: missing variable name

tryItOut 587
Compiling threw: TypeError: redeclaration of const __iterator__

tryItOut 588

tryItOut 589

tryItOut 590
Running threw: <x>
  <y/>
</x>

tryItOut 591
Running threw: ReferenceError: reference to undefined XML name *::*

tryItOut 592

tryItOut 593
Compiling threw: SyntaxError: illegal XML character

tryItOut 594
Compiling threw: SyntaxError: syntax error

tryItOut 595

tryItOut 596
Compiling threw: SyntaxError: syntax error

tryItOut 597
Compiling threw: SyntaxError: syntax error

tryItOut 598
Compiling threw: SyntaxError: missing } after let block

tryItOut 599
Compiling threw: SyntaxError: missing { before function body

tryItOut 600

tryItOut 601
Compiling threw: SyntaxError: missing } after let block

tryItOut 602
It's an iterator!
Iterating succeeded, iterCount == 1

tryItOut 603

tryItOut 604
Compiling threw: SyntaxError: yield expression must be parenthesized

tryItOut 605
It's an iterator!
Iterating succeeded, iterCount == 1

tryItOut 606

tryItOut 607
Compiling threw: SyntaxError: missing ) in parenthetical

tryItOut 608
Running threw: [object global]

tryItOut 609

tryItOut 610
Compiling threw: SyntaxError: syntax error

tryItOut 611
Compiling threw: TypeError: redeclaration of variable constructor

tryItOut 612

tryItOut 613
Compiling threw: SyntaxError: missing ; before statement

tryItOut 614

tryItOut 615
Compiling threw: SyntaxError: syntax error

tryItOut 616

tryItOut 617
before 174400, after 174400, break 01b73000

tryItOut 618
Compiling threw: SyntaxError: invalid XML name

tryItOut 619
Running threw: [object StopIteration]

tryItOut 620
It's an iterator!
Iterating threw!
Iterating threw: ReferenceError: z1 is not defined

tryItOut 621
Running threw: <x>
  <y/>
</x>

tryItOut 622
Compiling threw: SyntaxError: missing variable name

tryItOut 623
Compiling threw: SyntaxError: invalid assignment left-hand side

tryItOut 624
Running threw: [object Object]

tryItOut 625
Compiling threw: SyntaxError: missing ; before statement

tryItOut 626
Compiling threw: SyntaxError: missing ; before statement

tryItOut 627
Running threw: ReferenceError: reference to undefined XML name @foo

tryItOut 628

tryItOut 629
Compiling threw: SyntaxError: syntax error

tryItOut 630
Running threw: ReferenceError: reference to undefined XML name *::*

tryItOut 631
Compiling threw: SyntaxError: missing ) after for-loop control

tryItOut 632
Compiling threw: SyntaxError: unterminated comment

tryItOut 633
Compiling threw: SyntaxError: missing variable name

tryItOut 634
It's an iterator!
Iterating threw!
Iterating threw: ReferenceError: reference to undefined XML name @foo

tryItOut 635
Compiling threw: SyntaxError: syntax error

tryItOut 636
Running threw: [object StopIteration]

tryItOut 637

tryItOut 638
Compiling threw: SyntaxError: syntax error

tryItOut 639

tryItOut 640

tryItOut 641

tryItOut 642
Compiling threw: SyntaxError: missing } after let block

tryItOut 643

tryItOut 644
Compiling threw: SyntaxError: missing { before function body

tryItOut 645
Running threw: 1e+81

tryItOut 646
Compiling threw: SyntaxError: missing ; before statement

tryItOut 647

tryItOut 648
Running threw: TypeError: __parent__ has no properties

tryItOut 649
Compiling threw: SyntaxError: missing ; before statement

tryItOut 650
It's an iterator!
Iterating succeeded, iterCount == 1

tryItOut 651
It's an iterator!
Iterating threw!
Iterating threw: <x>
  <y/>
</x>

tryItOut 652
Compiling threw: SyntaxError: syntax error

tryItOut 653
before 174400, after 174400, break 01b73000

tryItOut 654

tryItOut 655
Compiling threw: SyntaxError: missing ) in parenthetical

tryItOut 656
It's an iterator!
Iterating succeeded, iterCount == 1

tryItOut 657
Compiling threw: SyntaxError: invalid assignment left-hand side

tryItOut 658
Running threw: [object StopIteration]

tryItOut 659

tryItOut 660
Compiling threw: SyntaxError: missing ; before statement

tryItOut 661

tryItOut 662

tryItOut 663

tryItOut 664
Compiling threw: SyntaxError: missing ; before statement

tryItOut 665

tryItOut 666

tryItOut 667

tryItOut 668
Compiling threw: SyntaxError: missing ) after argument list

tryItOut 669
Compiling threw: SyntaxError: missing ) in parenthetical

tryItOut 670

tryItOut 671
before 174400, after 174400, break 01b73000
Running threw: TypeError: XML filtering predicate operator called on incompatible Number

tryItOut 672
Running threw: <x>
  <y/>
</x>

tryItOut 673
Compiling threw: SyntaxError: syntax error

tryItOut 674
Compiling threw: SyntaxError: missing } after let block

tryItOut 675
Running threw: [object StopIteration]

tryItOut 676
Compiling threw: SyntaxError: missing variable name

tryItOut 677
before 174400, after 174400, break 01b73000

tryItOut 678
It's an iterator!
Iterating succeeded, iterCount == 1

tryItOut 679
before 174400, after 174400, break 01b73000
Running threw: Error: invalid sharp variable use #1#

tryItOut 680
Compiling threw: SyntaxError: missing { before function body

tryItOut 681
Compiling threw: SyntaxError: missing } in compound statement

tryItOut 682

tryItOut 683
Compiling threw: SyntaxError: missing } after let block

tryItOut 684

tryItOut 685
Running threw: [object StopIteration]

tryItOut 686

tryItOut 687

tryItOut 688
Running threw: TypeError: this.zzz has no properties

tryItOut 689

tryItOut 690
Compiling threw: SyntaxError: missing ; before statement

tryItOut 691

tryItOut 692
Compiling threw: TypeError: redeclaration of variable constructor

tryItOut 693
Running threw: [object StopIteration]

tryItOut 694
Compiling threw: SyntaxError: missing ; before statement

tryItOut 695

tryItOut 696
Compiling threw: SyntaxError: invalid XML name

tryItOut 697

tryItOut 698
Compiling threw: SyntaxError: duplicate label

tryItOut 699

tryItOut 700

tryItOut 701
before 174400, after 174400, break 01b84000

tryItOut 702
Compiling threw: SyntaxError: missing : after property id

tryItOut 703

tryItOut 704

tryItOut 705

tryItOut 706
Compiling threw: SyntaxError: syntax error

tryItOut 707
Compiling threw: SyntaxError: syntax error

tryItOut 708
Compiling threw: SyntaxError: missing ; before statement

tryItOut 709

tryItOut 710

tryItOut 711
before 174400, after 174400, break 01b84000

tryItOut 712
Compiling threw: SyntaxError: invalid for/in left-hand side

tryItOut 713
Running threw: [object StopIteration]

tryItOut 714
Running threw: [object StopIteration]

tryItOut 715
Compiling threw: SyntaxError: missing variable name

tryItOut 716
Running threw: [object StopIteration]

tryItOut 717

tryItOut 718

tryItOut 719

tryItOut 720
Running threw: <y>
  <z/>
</y>

tryItOut 721

tryItOut 722

tryItOut 723
Compiling threw: SyntaxError: syntax error

tryItOut 724
Compiling threw: SyntaxError: missing ; before statement

tryItOut 725
Compiling threw: SyntaxError: missing ; before statement

tryItOut 726

tryItOut 727

tryItOut 728
Running threw: <x>
  <y/>
</x>

tryItOut 729

tryItOut 730
Compiling threw: SyntaxError: invalid XML name

tryItOut 731
Compiling threw: SyntaxError: missing } after let block

tryItOut 732
Compiling threw: SyntaxError: invalid assignment left-hand side

tryItOut 733
Compiling threw: SyntaxError: missing { before function body

tryItOut 734

tryItOut 735
Compiling threw: SyntaxError: missing ; before statement

tryItOut 736
Compiling threw: SyntaxError: syntax error

tryItOut 737

tryItOut 738
Compiling threw: SyntaxError: missing ; before statement

tryItOut 739

tryItOut 740
before 174400, after 174400, break 01b84000

tryItOut 741
Compiling threw: SyntaxError: invalid for/in left-hand side

tryItOut 742

tryItOut 743

tryItOut 744
Compiling threw: SyntaxError: missing ; before statement

tryItOut 745
Compiling threw: SyntaxError: invalid increment operand

tryItOut 746
Compiling threw: SyntaxError: missing ; before statement

tryItOut 747
Compiling threw: SyntaxError: syntax error

tryItOut 748
Running threw: ReferenceError: window is not defined

tryItOut 749
Compiling threw: SyntaxError: missing ; before statement

tryItOut 750
before 174400, after 174400, break 01b84000

tryItOut 751
Compiling threw: SyntaxError: invalid assignment left-hand side

tryItOut 752

tryItOut 753
before 174400, after 174400, break 01b84000

tryItOut 754
Running threw: ReferenceError: reference to undefined XML name @foo

tryItOut 755
Running threw: [object StopIteration]

tryItOut 756
Compiling threw: SyntaxError: missing } after let block

tryItOut 757
Compiling threw: SyntaxError: invalid label

tryItOut 758
Compiling threw: SyntaxError: syntax error

tryItOut 759
Compiling threw: SyntaxError: missing ; before statement

tryItOut 760

tryItOut 761
Running threw: TypeError: __iterator__ has no properties

tryItOut 762
Compiling threw: SyntaxError: illegal character

tryItOut 763
Compiling threw: SyntaxError: missing } in XML expression

tryItOut 764
Compiling threw: SyntaxError: missing ) after argument list

tryItOut 765
Compiling threw: SyntaxError: missing name after . operator

tryItOut 766
Compiling threw: SyntaxError: missing variable name

tryItOut 767

tryItOut 768

tryItOut 769
Compiling threw: SyntaxError: missing ; before statement

tryItOut 770
Compiling threw: TypeError: redeclaration of variable __proto__

tryItOut 771
It's an iterator!
Iterating threw!
Iterating threw: ReferenceError: reference to undefined XML name *::*

tryItOut 772

tryItOut 773
Compiling threw: SyntaxError: missing variable name

tryItOut 774
It's an iterator!
Iterating threw!
Iterating threw: ReferenceError: window is not defined

tryItOut 775
Compiling threw: SyntaxError: invalid assignment left-hand side

tryItOut 776

tryItOut 777
Compiling threw: SyntaxError: invalid assignment left-hand side

tryItOut 778

tryItOut 779

tryItOut 780
Compiling threw: SyntaxError: invalid default XML namespace

tryItOut 781
before 191840, after 191840, break 01b93000

tryItOut 782
Compiling threw: SyntaxError: syntax error

tryItOut 783
Running threw: ReferenceError: reference to undefined XML name *::*

tryItOut 784
Compiling threw: SyntaxError: invalid assignment left-hand side

tryItOut 785
Compiling threw: SyntaxError: missing ; before statement

tryItOut 786
Running threw: ReferenceError: z1 is not defined

tryItOut 787

tryItOut 788

tryItOut 789
It's an iterator!
Iterating threw!
Iterating threw: ReferenceError: window is not defined

tryItOut 790
before 191840, after 174400, break 01b93000

tryItOut 791

tryItOut 792
Compiling threw: SyntaxError: missing ) after let head

tryItOut 793

tryItOut 794
It's an iterator!
Iterating succeeded, iterCount == 1

tryItOut 795
Compiling threw: SyntaxError: missing variable name

tryItOut 796
Compiling threw: SyntaxError: invalid for/in left-hand side

tryItOut 797

tryItOut 798
Compiling threw: SyntaxError: invalid for/in left-hand side

tryItOut 799

tryItOut 800

tryItOut 801

tryItOut 802
Compiling threw: SyntaxError: invalid assignment left-hand side

tryItOut 803

tryItOut 804
Compiling threw: SyntaxError: missing variable name

tryItOut 805
Compiling threw: TypeError: redeclaration of const __parent__

tryItOut 806

tryItOut 807
Running threw: 4

tryItOut 808

tryItOut 809
It's an iterator!
Iterating threw!
Iterating threw: null

tryItOut 810
Running threw: [object StopIteration]

tryItOut 811

tryItOut 812
Running threw: <x>
  <y/>
</x>

tryItOut 813

tryItOut 814
Compiling threw: SyntaxError: invalid XML name

tryItOut 815
Compiling threw: SyntaxError: unterminated regular expression literal

tryItOut 816

tryItOut 817

tryItOut 818

tryItOut 819
Compiling threw: SyntaxError: invalid assignment left-hand side

tryItOut 820

tryItOut 821
It's an iterator!
Iterating succeeded, iterCount == 1

tryItOut 822
Compiling threw: SyntaxError: missing ; before statement

tryItOut 823

tryItOut 824

tryItOut 825
Compiling threw: SyntaxError: syntax error

tryItOut 826

tryItOut 827

tryItOut 828

tryItOut 829
Compiling threw: SyntaxError: invalid for/in left-hand side

tryItOut 830
before 191840, after 191840, break 01bad000

tryItOut 831

tryItOut 832
Running threw: TypeError: arguments[0] has no properties

tryItOut 833

tryItOut 834
Running threw: [object StopIteration]

tryItOut 835
Compiling threw: SyntaxError: invalid decrement operand

tryItOut 836

tryItOut 837
Compiling threw: SyntaxError: syntax error

tryItOut 838
Compiling threw: SyntaxError: missing variable name

tryItOut 839

tryItOut 840
Running threw: TypeError: XML filtering predicate operator called on incompatible Object

tryItOut 841
Compiling threw: SyntaxError: syntax error

tryItOut 842
Running threw: ReferenceError: reference to undefined XML name *::*

tryItOut 843
Compiling threw: SyntaxError: missing ) after for-loop control

tryItOut 844
Compiling threw: SyntaxError: invalid for/in left-hand side

tryItOut 845
Compiling threw: SyntaxError: invalid decrement operand

tryItOut 846
Compiling threw: SyntaxError: syntax error

tryItOut 847

tryItOut 848
Running threw: [object global]

tryItOut 849
Compiling threw: SyntaxError: missing ) in parenthetical

tryItOut 850

tryItOut 851

tryItOut 852
Running threw: ReferenceError: reference to undefined XML name @foo

tryItOut 853
Compiling threw: SyntaxError: invalid assignment left-hand side

tryItOut 854
before 191840, after 191840, break 01bb1000

tryItOut 855

tryItOut 856
before 191840, after 191840, break 01bb1000

tryItOut 857
Running threw: ReferenceError: window is not defined

tryItOut 858
It's an iterator!
before 191840, after 191840, break 01bb1000
Iterating succeeded, iterCount == 1

tryItOut 859
Compiling threw: SyntaxError: missing ; before statement

tryItOut 860
Compiling threw: SyntaxError: invalid for/in left-hand side

tryItOut 861
Compiling threw: SyntaxError: syntax error

tryItOut 862

tryItOut 863
It's an iterator!
Iterating threw!
Iterating threw: ReferenceError: window is not defined

tryItOut 864
Compiling threw: SyntaxError: missing ; before statement

tryItOut 865
Compiling threw: SyntaxError: syntax error

tryItOut 866
Compiling threw: SyntaxError: syntax error

tryItOut 867
Compiling threw: SyntaxError: missing ; before statement

tryItOut 868
Running threw: TypeError: this.zzz has no properties

tryItOut 869
Compiling threw: SyntaxError: syntax error

tryItOut 870
before 191840, after 191840, break 01bb1000

tryItOut 871
Compiling threw: SyntaxError: missing ) in parenthetical

tryItOut 872

tryItOut 873
Compiling threw: SyntaxError: duplicate label

tryItOut 874

tryItOut 875
Running threw: [object StopIteration]

tryItOut 876

tryItOut 877
IGNORING BUG 379528!

tryItOut 878
Compiling threw: SyntaxError: invalid assignment left-hand side

tryItOut 879
Compiling threw: SyntaxError: missing ; before statement

tryItOut 880
Compiling threw: SyntaxError: missing ; before statement

tryItOut 881
Compiling threw: SyntaxError: missing ; before statement

tryItOut 882

tryItOut 883
Compiling threw: SyntaxError: invalid decrement operand

tryItOut 884
Compiling threw: SyntaxError: missing ; before statement

tryItOut 885

tryItOut 886
Compiling threw: SyntaxError: missing ; before statement

tryItOut 887
It's an iterator!
Iterating succeeded, iterCount == 1

tryItOut 888
Compiling threw: SyntaxError: missing { before function body

tryItOut 889
Compiling threw: SyntaxError: invalid increment operand

tryItOut 890

tryItOut 891
Compiling threw: SyntaxError: invalid assignment left-hand side

tryItOut 892

tryItOut 893

tryItOut 894
It's an iterator!
Iterating threw!
Iterating threw: ReferenceError: reference to undefined XML name *

tryItOut 895

tryItOut 896
Compiling threw: SyntaxError: invalid decrement operand

tryItOut 897

tryItOut 898
Running threw: ReferenceError: window is not defined

tryItOut 899

tryItOut 900
Compiling threw: SyntaxError: syntax error

tryItOut 901

tryItOut 902
Compiling threw: SyntaxError: missing ; before statement

tryItOut 903
uneval returned the string: []

tryItOut 904

tryItOut 905
Compiling threw: SyntaxError: syntax error

tryItOut 906
Compiling threw: SyntaxError: missing ; before statement

tryItOut 907
Compiling threw: SyntaxError: missing = in destructuring declaration

tryItOut 908

tryItOut 909
Compiling threw: SyntaxError: missing ; before statement

tryItOut 910
Compiling threw: SyntaxError: missing } in XML expression

tryItOut 911
Running threw: <x>
  <y/>
</x>

tryItOut 912
Compiling threw: SyntaxError: missing } after let block

tryItOut 913
Compiling threw: SyntaxError: syntax error

tryItOut 914

tryItOut 915
It's an iterator!
Iterating threw!
Iterating threw: ReferenceError: reference to undefined XML name *::*

tryItOut 916

tryItOut 917
It's an iterator!
before 209280, after 209280, break 01bc8000
Iterating succeeded, iterCount == 1

tryItOut 918

tryItOut 919
Compiling threw: SyntaxError: syntax error

tryItOut 920
Compiling threw: SyntaxError: invalid decrement operand

tryItOut 921
Compiling threw: SyntaxError: illegal XML character

tryItOut 922

tryItOut 923
Compiling threw: SyntaxError: missing ; before statement

tryItOut 924

tryItOut 925

tryItOut 926
Compiling threw: SyntaxError: missing ; before statement

tryItOut 927
Running threw: [object Object]

tryItOut 928

tryItOut 929
Compiling threw: SyntaxError: missing = in destructuring declaration

tryItOut 930
It's an iterator!
Iterating threw!
Iterating threw: ReferenceError: reference to undefined XML name @foo

tryItOut 931

tryItOut 932
Running threw: ReferenceError: window is not defined

tryItOut 933

tryItOut 934

tryItOut 935
before 209280, after 209280, break 01bd9000

tryItOut 936
Compiling threw: SyntaxError: missing name in export statement

tryItOut 937
It's an iterator!
Iterating threw!
Iterating threw: TypeError: {}.unwatch("__noSuchMethod__") is not a constructor

tryItOut 938

tryItOut 939
Compiling threw: SyntaxError: missing ; before statement

tryItOut 940

tryItOut 941
Compiling threw: SyntaxError: missing variable name

tryItOut 942

tryItOut 943
Compiling threw: TypeError: redeclaration of var __iterator__

tryItOut 944

tryItOut 945
Running threw: TypeError: this.unwatch("__count__") has no properties

tryItOut 946
Compiling threw: SyntaxError: syntax error

tryItOut 947
Running threw: [object StopIteration]

tryItOut 948

tryItOut 949
Running threw: [object StopIteration]

tryItOut 950
Compiling threw: SyntaxError: missing } after let block

tryItOut 951

tryItOut 952

tryItOut 953

tryItOut 954

tryItOut 955
Compiling threw: SyntaxError: missing ; before statement

tryItOut 956

tryItOut 957
Compiling threw: SyntaxError: missing } after let block

tryItOut 958
Compiling threw: SyntaxError: invalid property id

tryItOut 959
Compiling threw: SyntaxError: missing ; before statement

tryItOut 960
Running threw: [object StopIteration]

tryItOut 961

tryItOut 962
It's an iterator!
Iterating succeeded, iterCount == 1

tryItOut 963

tryItOut 964
Compiling threw: SyntaxError: invalid for/in left-hand side

tryItOut 965
Compiling threw: SyntaxError: missing ; before statement

tryItOut 966
It's an iterator!
Iterating threw!
Iterating threw: Error: invalid sharp variable use #1#

tryItOut 967
Compiling threw: SyntaxError: missing ; before statement

tryItOut 968
Running threw: [object StopIteration]

tryItOut 969
Compiling threw: SyntaxError: missing ; before statement

tryItOut 970
Compiling threw: SyntaxError: invalid increment operand

tryItOut 971
Running threw: <x>
  <y/>
</x>

tryItOut 972

tryItOut 973
Running threw: [object global]

tryItOut 974
Running threw: <x>
  <y/>
</x>

tryItOut 975
Running threw: TypeError: XML filtering predicate operator called on incompatible Object

tryItOut 976

tryItOut 977
It's an iterator!
Iterating threw!
Iterating threw: -1

tryItOut 978

tryItOut 979

tryItOut 980

tryItOut 981

tryItOut 982
Compiling threw: SyntaxError: syntax error

tryItOut 983

tryItOut 984

tryItOut 985
Compiling threw: SyntaxError: missing ; before statement

tryItOut 986

tryItOut 987
Compiling threw: SyntaxError: missing ; after for-loop condition

tryItOut 988

tryItOut 989

tryItOut 990

tryItOut 991

tryItOut 992
It's an iterator!
Iterating succeeded, iterCount == 1

tryItOut 993

tryItOut 994

tryItOut 995
Compiling threw: SyntaxError: invalid increment operand

tryItOut 996
Running threw: 

tryItOut 997
It's an iterator!
Iterating threw!
Iterating threw: ReferenceError: reference to undefined XML name @foo

tryItOut 998
Running threw: 

tryItOut 999
Compiling threw: SyntaxError: invalid XML name

tryItOut 1000
Compiling threw: SyntaxError: missing name in export statement

ALL OK

Script done on Sat 04 May 2013 06:17:32 AM PDT
