Script started on Sat 04 May 2013 06:17:42 AM PDT
***
Targeting SpiderMonkey / Gecko.

tryItOut 1

tryItOut 2
Running threw: function Object() {
    [native code]
}

tryItOut 3
Compiling threw: SyntaxError: invalid assignment left-hand side

tryItOut 4
Compiling threw: SyntaxError: invalid assignment left-hand side

tryItOut 5
Compiling threw: SyntaxError: missing ) after for-loop control

tryItOut 6
Compiling threw: SyntaxError: missing variable name

tryItOut 7
Compiling threw: SyntaxError: syntax error

tryItOut 8
Compiling threw: SyntaxError: missing name after . operator

tryItOut 9

tryItOut 10

tryItOut 11

tryItOut 12
Compiling threw: SyntaxError: missing = in destructuring declaration

tryItOut 13

tryItOut 14
Compiling threw: SyntaxError: syntax error

tryItOut 15
Compiling threw: SyntaxError: invalid for/in left-hand side

tryItOut 16
Compiling threw: SyntaxError: missing variable name

tryItOut 17

tryItOut 18
Compiling threw: SyntaxError: missing { before function body

tryItOut 19
It's an iterator!
before 87200, after 87200, break 00cc0000
Iterating succeeded, iterCount == 1

tryItOut 20

tryItOut 21
Compiling threw: SyntaxError: invalid for/in left-hand side

tryItOut 22

tryItOut 23
Running threw: ReferenceError: Exception is not defined

tryItOut 24

tryItOut 25
Compiling threw: SyntaxError: missing variable name

tryItOut 26

tryItOut 27
Compiling threw: SyntaxError: syntax error

tryItOut 28

tryItOut 29

tryItOut 30
Compiling threw: SyntaxError: missing } after let block

tryItOut 31

tryItOut 32

tryItOut 33
Compiling threw: SyntaxError: invalid assignment left-hand side

tryItOut 34
Compiling threw: SyntaxError: illegal XML character

tryItOut 35

tryItOut 36
Running threw: null

tryItOut 37
Compiling threw: SyntaxError: missing ; after for-loop initializer

tryItOut 38
Compiling threw: SyntaxError: invalid for/in left-hand side

tryItOut 39
Compiling threw: SyntaxError: missing { before function body

tryItOut 40
Running threw: TypeError: __parent__ has no properties

tryItOut 41

tryItOut 42
before 87200, after 87200, break 00cc0000
before 87200, after 87200, break 00cc0000

tryItOut 43

tryItOut 44

tryItOut 45
It's an iterator!
Iterating succeeded, iterCount == 1

tryItOut 46
Compiling threw: SyntaxError: syntax error

tryItOut 47

tryItOut 48

tryItOut 49
Compiling threw: SyntaxError: invalid for/in left-hand side

tryItOut 50

tryItOut 51
Running threw: ReferenceError: z1 is not defined

tryItOut 52
before 87200, after 87200, break 00cc0000
before 87200, after 87200, break 00cc0000
before 87200, after 87200, break 00cc0000
before 87200, after 87200, break 00cc0000
Running threw: TypeError: [15, 16, 17, 18].some(gc, [[]])[!arguments] has no properties

tryItOut 53
Compiling threw: SyntaxError: missing ; before statement

tryItOut 54
Compiling threw: SyntaxError: syntax error

tryItOut 55

tryItOut 56

tryItOut 57
Compiling threw: SyntaxError: missing ) after condition

tryItOut 58
Compiling threw: SyntaxError: missing : after property id

tryItOut 59

tryItOut 60

tryItOut 61

tryItOut 62
Compiling threw: SyntaxError: invalid assignment left-hand side

tryItOut 63
Compiling threw: TypeError: redeclaration of variable prototype

tryItOut 64
Running threw: TypeError: arguments[0] has no properties

tryItOut 65
Compiling threw: SyntaxError: missing variable name

tryItOut 66
Compiling threw: SyntaxError: syntax error

tryItOut 67

tryItOut 68
Compiling threw: SyntaxError: syntax error

tryItOut 69
It's an iterator!
Iterating succeeded, iterCount == 1

tryItOut 70

tryItOut 71

tryItOut 72

tryItOut 73

tryItOut 74
Running threw: ReferenceError: x is not defined

tryItOut 75

tryItOut 76

tryItOut 77

tryItOut 78

tryItOut 79

tryItOut 80

tryItOut 81

tryItOut 82

tryItOut 83
Compiling threw: SyntaxError: illegal XML character

tryItOut 84
Compiling threw: SyntaxError: missing variable name

tryItOut 85
Running threw: ReferenceError: prototype is not defined

tryItOut 86

tryItOut 87

tryItOut 88
Compiling threw: SyntaxError: invalid assignment left-hand side

tryItOut 89
Compiling threw: SyntaxError: missing ) after with-statement object

tryItOut 90

tryItOut 91

tryItOut 92
Compiling threw: SyntaxError: syntax error

tryItOut 93
before 104640, after 104640, break 00cd2000

tryItOut 94

tryItOut 95
Compiling threw: SyntaxError: missing variable name

tryItOut 96
Running threw: ReferenceError: yyygc is not defined

tryItOut 97
Compiling threw: SyntaxError: missing ) in parenthetical

tryItOut 98

tryItOut 99

tryItOut 100
Compiling threw: SyntaxError: missing ) in parenthetical

tryItOut 101
before 104640, after 104640, break 00cd2000

tryItOut 102
Running threw: ReferenceError: __iterator__ is not defined

tryItOut 103

tryItOut 104
Compiling threw: SyntaxError: missing ( before let head

tryItOut 105

tryItOut 106
Compiling threw: SyntaxError: invalid for/in left-hand side

tryItOut 107

tryItOut 108
before 104640, after 104640, break 00cd2000

tryItOut 109

tryItOut 110

tryItOut 111
Compiling threw: SyntaxError: missing variable name

tryItOut 112
Compiling threw: SyntaxError: missing } after let block

tryItOut 113

tryItOut 114
Compiling threw: SyntaxError: invalid increment operand

tryItOut 115

tryItOut 116
Compiling threw: SyntaxError: missing ) in parenthetical

tryItOut 117

tryItOut 118
Running threw: 

tryItOut 119
Compiling threw: SyntaxError: missing ) in parenthetical

tryItOut 120
Compiling threw: SyntaxError: invalid for/in left-hand side

tryItOut 121

tryItOut 122
Compiling threw: SyntaxError: missing ) in parenthetical

tryItOut 123

tryItOut 124

tryItOut 125
Compiling threw: SyntaxError: missing variable name

tryItOut 126

tryItOut 127

tryItOut 128
before 104640, after 104640, break 00ce3000

tryItOut 129

tryItOut 130

tryItOut 131
Running threw: ReferenceError: prototype is not defined

tryItOut 132

tryItOut 133

tryItOut 134
before 104640, after 104640, break 00ce3000

tryItOut 135

tryItOut 136

tryItOut 137

tryItOut 138

tryItOut 139
Running threw: SyntaxError: invalid assignment left-hand side

tryItOut 140

tryItOut 141
Compiling threw: SyntaxError: syntax error

tryItOut 142

tryItOut 143

tryItOut 144
Compiling threw: SyntaxError: invalid for/in left-hand side

tryItOut 145

tryItOut 146
Compiling threw: SyntaxError: missing = in destructuring declaration

tryItOut 147
Compiling threw: SyntaxError: invalid increment operand

tryItOut 148

tryItOut 149
Compiling threw: SyntaxError: invalid assignment left-hand side

tryItOut 150

tryItOut 151
Compiling threw: SyntaxError: invalid for/in left-hand side

tryItOut 152
Compiling threw: SyntaxError: invalid increment operand

tryItOut 153

tryItOut 154

tryItOut 155
Running threw: ReferenceError: prototype is not defined

tryItOut 156

tryItOut 157

tryItOut 158
Compiling threw: SyntaxError: missing } after let block

tryItOut 159

tryItOut 160

tryItOut 161

tryItOut 162
Compiling threw: SyntaxError: invalid increment operand

tryItOut 163
It's an iterator!
before 104640, after 104640, break 00ce3000
Iterating succeeded, iterCount == 1

tryItOut 164

tryItOut 165
Running threw: null

tryItOut 166

tryItOut 167

tryItOut 168
Compiling threw: SyntaxError: invalid increment operand

tryItOut 169
Compiling threw: SyntaxError: missing variable name

tryItOut 170
Compiling threw: SyntaxError: missing formal parameter

tryItOut 171

tryItOut 172

tryItOut 173

tryItOut 174

tryItOut 175

tryItOut 176
Compiling threw: SyntaxError: missing ; before statement

tryItOut 177
Compiling threw: SyntaxError: missing variable name

tryItOut 178
before 104640, after 104640, break 00ce3000

tryItOut 179

tryItOut 180
Compiling threw: SyntaxError: missing ) after argument list

tryItOut 181
Running threw: [object Object]

tryItOut 182

tryItOut 183
Running threw: [object Object]

tryItOut 184

tryItOut 185
Compiling threw: SyntaxError: syntax error

tryItOut 186
Compiling threw: TypeError: redeclaration of const __count__

tryItOut 187
Compiling threw: SyntaxError: missing ) in parenthetical

tryItOut 188
Compiling threw: SyntaxError: invalid for/in left-hand side

tryItOut 189
Compiling threw: SyntaxError: invalid increment operand

tryItOut 190

tryItOut 191

tryItOut 192

tryItOut 193
Running threw: ReferenceError: prototype is not defined

tryItOut 194

tryItOut 195
Compiling threw: SyntaxError: missing variable name

tryItOut 196
before 104640, after 104640, break 00ce3000

tryItOut 197
Compiling threw: SyntaxError: invalid assignment left-hand side

tryItOut 198

tryItOut 199
Compiling threw: SyntaxError: syntax error

tryItOut 200
Compiling threw: SyntaxError: syntax error

tryItOut 201
Running threw: ReferenceError: __iterator__ is not defined

tryItOut 202
Compiling threw: SyntaxError: invalid assignment left-hand side

tryItOut 203

tryItOut 204
Running threw: ReferenceError: __iterator__ is not defined

tryItOut 205

tryItOut 206

tryItOut 207

tryItOut 208

tryItOut 209
Compiling threw: SyntaxError: syntax error

tryItOut 210
Compiling threw: SyntaxError: missing ; after for-loop initializer

tryItOut 211
Compiling threw: SyntaxError: finally without try

tryItOut 212
Compiling threw: SyntaxError: syntax error

tryItOut 213

tryItOut 214

tryItOut 215

tryItOut 216
Running threw: TypeError: false.call is not a function

tryItOut 217
Running threw: [object global]

tryItOut 218
Compiling threw: TypeError: redeclaration of var __parent__

tryItOut 219
Running threw: TypeError: "" is not a function

tryItOut 220

tryItOut 221
Compiling threw: SyntaxError: missing variable name

tryItOut 222

tryItOut 223

tryItOut 224

tryItOut 225

tryItOut 226

tryItOut 227

tryItOut 228
It's an iterator!
Iterating threw!
Iterating threw: TypeError: XML descendants internal method called on incompatible Number

tryItOut 229
It's an iterator!
Iterating succeeded, iterCount == 1

tryItOut 230

tryItOut 231

tryItOut 232
Compiling threw: SyntaxError: syntax error

tryItOut 233
Compiling threw: SyntaxError: missing { before function body

tryItOut 234
Compiling threw: SyntaxError: syntax error

tryItOut 235

tryItOut 236
Compiling threw: SyntaxError: missing ; after for-loop condition

tryItOut 237
Compiling threw: SyntaxError: missing = in destructuring declaration

tryItOut 238

tryItOut 239
before 122080, after 122080, break 00cfd000

tryItOut 240
Compiling threw: SyntaxError: missing variable name

tryItOut 241
It's an iterator!
Iterating succeeded, iterCount == 1

tryItOut 242

tryItOut 243

tryItOut 244
Compiling threw: SyntaxError: invalid for/in left-hand side

tryItOut 245
Compiling threw: SyntaxError: invalid property id

tryItOut 246
It's an iterator!
Iterating threw!
Iterating threw: TypeError: this.zzz has no properties

tryItOut 247

tryItOut 248
Compiling threw: SyntaxError: invalid for/in left-hand side

tryItOut 249

tryItOut 250

tryItOut 251
Compiling threw: SyntaxError: missing variable name

tryItOut 252
Running threw: ReferenceError: prop is not defined

tryItOut 253

tryItOut 254
Running threw: ReferenceError: prototype is not defined

tryItOut 255
Running threw: ReferenceError: z1 is not defined

tryItOut 256

tryItOut 257

tryItOut 258
Compiling threw: SyntaxError: missing variable name

tryItOut 259

tryItOut 260

tryItOut 261

tryItOut 262
Compiling threw: SyntaxError: invalid assignment left-hand side

tryItOut 263

tryItOut 264

tryItOut 265

tryItOut 266

tryItOut 267
Compiling threw: SyntaxError: illegal XML character

tryItOut 268

tryItOut 269
Compiling threw: SyntaxError: missing ) after argument list

tryItOut 270

tryItOut 271
It's an iterator!
Iterating threw!
Iterating threw: TypeError: 1e+81 is not a function

tryItOut 272
Running threw: false

tryItOut 273
Compiling threw: SyntaxError: missing : after property id

tryItOut 274
Running threw: SyntaxError: return not in function

tryItOut 275

tryItOut 276

tryItOut 277

tryItOut 278
Compiling threw: SyntaxError: invalid assignment left-hand side

tryItOut 279
Compiling threw: SyntaxError: missing ; before statement

tryItOut 280
Compiling threw: SyntaxError: missing variable name

tryItOut 281

tryItOut 282
Compiling threw: SyntaxError: invalid for/in left-hand side

tryItOut 283

tryItOut 284

tryItOut 285

tryItOut 286
Compiling threw: SyntaxError: missing variable name

tryItOut 287
Compiling threw: SyntaxError: missing variable name

tryItOut 288

tryItOut 289

tryItOut 290
Compiling threw: SyntaxError: invalid assignment left-hand side

tryItOut 291

tryItOut 292

tryItOut 293
Running threw: TypeError: this.zzz has no properties

tryItOut 294

tryItOut 295

tryItOut 296

tryItOut 297

tryItOut 298

tryItOut 299
Compiling threw: SyntaxError: missing variable name

tryItOut 300
Compiling threw: SyntaxError: missing variable name

tryItOut 301
Compiling threw: SyntaxError: invalid for/in left-hand side

tryItOut 302
Compiling threw: SyntaxError: invalid assignment left-hand side

tryItOut 303

tryItOut 304
Compiling threw: SyntaxError: invalid assignment left-hand side

tryItOut 305
Compiling threw: SyntaxError: missing variable name

tryItOut 306
Compiling threw: SyntaxError: invalid XML tag syntax

tryItOut 307
Compiling threw: SyntaxError: invalid for/in left-hand side

tryItOut 308

tryItOut 309
Compiling threw: SyntaxError: invalid for/in left-hand side

tryItOut 310

tryItOut 311
Running threw: TypeError: 15 is not a function

tryItOut 312
Compiling threw: SyntaxError: invalid for/in left-hand side

tryItOut 313

tryItOut 314
Running threw: 108

tryItOut 315
before 139520, after 139520, break 00d2c000
Running threw: TypeError: prop has no properties

tryItOut 316

tryItOut 317

tryItOut 318

tryItOut 319

tryItOut 320

tryItOut 321
Compiling threw: TypeError: redeclaration of variable __proto__

tryItOut 322

tryItOut 323
Compiling threw: SyntaxError: missing ; after for-loop initializer

tryItOut 324
Compiling threw: SyntaxError: invalid for/in left-hand side

tryItOut 325

tryItOut 326

tryItOut 327
Compiling threw: TypeError: redeclaration of const prop

tryItOut 328

tryItOut 329
Running threw: ReferenceError: prototype is not defined

tryItOut 330
Compiling threw: SyntaxError: missing = in destructuring declaration

tryItOut 331

tryItOut 332

tryItOut 333
Running threw: false

tryItOut 334

tryItOut 335

tryItOut 336
Compiling threw: SyntaxError: missing variable name

tryItOut 337
Compiling threw: SyntaxError: missing variable name

tryItOut 338
Compiling threw: SyntaxError: syntax error

tryItOut 339
Compiling threw: SyntaxError: syntax error

tryItOut 340

tryItOut 341

tryItOut 342
Compiling threw: SyntaxError: missing ; after for-loop condition

tryItOut 343
It's an iterator!
before 139520, after 139520, break 00d3a000
Iterating threw!
Iterating threw: Error: invalid sharp variable use #1#

tryItOut 344
Running threw: TypeError: prop has no properties

tryItOut 345

tryItOut 346

tryItOut 347
Compiling threw: SyntaxError: invalid destructuring assignment operator

tryItOut 348

tryItOut 349
before 139520, after 139520, break 00d3a000

tryItOut 350

tryItOut 351

tryItOut 352
Running threw: ReferenceError: yyy is not defined

tryItOut 353

tryItOut 354
Compiling threw: SyntaxError: missing } after let block

tryItOut 355

tryItOut 356

tryItOut 357

tryItOut 358

tryItOut 359
before 139520, after 139520, break 00d3a000

tryItOut 360

tryItOut 361
Running threw: ReferenceError: __iterator__ is not defined

tryItOut 362
Running threw: 

tryItOut 363

tryItOut 364
Compiling threw: TypeError: redeclaration of var __proto__

tryItOut 365
Compiling threw: SyntaxError: invalid assignment left-hand side

tryItOut 366
Compiling threw: SyntaxError: invalid assignment left-hand side

tryItOut 367

tryItOut 368
before 139520, after 139520, break 00d3a000

tryItOut 369

tryItOut 370

tryItOut 371
Compiling threw: SyntaxError: syntax error

tryItOut 372
Compiling threw: SyntaxError: invalid assignment left-hand side

tryItOut 373
Compiling threw: SyntaxError: missing ; before statement

tryItOut 374
Running threw: null

tryItOut 375
Running threw: 108

tryItOut 376

tryItOut 377
Compiling threw: SyntaxError: missing ) in parenthetical

tryItOut 378

tryItOut 379
Compiling threw: SyntaxError: syntax error

tryItOut 380
Compiling threw: SyntaxError: missing } in compound statement

tryItOut 381
Compiling threw: SyntaxError: syntax error

tryItOut 382

tryItOut 383
Compiling threw: SyntaxError: missing { before function body

tryItOut 384
Running threw: TypeError: ""['throw'] is not a function

tryItOut 385

tryItOut 386

tryItOut 387

tryItOut 388
Compiling threw: SyntaxError: syntax error

tryItOut 389

tryItOut 390
Compiling threw: SyntaxError: missing variable name

tryItOut 391

tryItOut 392
Compiling threw: SyntaxError: invalid for/in left-hand side

tryItOut 393
Compiling threw: SyntaxError: missing ) in parenthetical

tryItOut 394
before 139520, after 139520, break 00d3a000

tryItOut 395

tryItOut 396
Compiling threw: SyntaxError: missing ; before statement

tryItOut 397
Compiling threw: SyntaxError: missing variable name

tryItOut 398

tryItOut 399

tryItOut 400

tryItOut 401

tryItOut 402
Compiling threw: SyntaxError: invalid decrement operand

tryItOut 403

tryItOut 404
Compiling threw: SyntaxError: missing ) after switch expression

tryItOut 405
Compiling threw: SyntaxError: missing variable name

tryItOut 406
Compiling threw: SyntaxError: missing ) in parenthetical

tryItOut 407

tryItOut 408

tryItOut 409
Running threw: ReferenceError: prototype is not defined

tryItOut 410
Running threw: 27

tryItOut 411
Compiling threw: SyntaxError: missing variable name

tryItOut 412
Compiling threw: SyntaxError: invalid for/in left-hand side

tryItOut 413

tryItOut 414

tryItOut 415
Compiling threw: SyntaxError: missing ; after for-loop initializer

tryItOut 416

tryItOut 417
Running threw: ReferenceError: prototype is not defined

tryItOut 418
Compiling threw: TypeError: redeclaration of variable __proto__

tryItOut 419
Compiling threw: SyntaxError: missing ; before statement

tryItOut 420
Compiling threw: SyntaxError: missing ) in parenthetical

tryItOut 421

tryItOut 422
Running threw: 108

tryItOut 423
Running threw: true

tryItOut 424

tryItOut 425
It's an iterator!
Iterating succeeded, iterCount == 1

tryItOut 426
It's an iterator!
Iterating succeeded, iterCount == 0

tryItOut 427

tryItOut 428
Compiling threw: SyntaxError: invalid assignment left-hand side

tryItOut 429
Compiling threw: SyntaxError: missing variable name

tryItOut 430

tryItOut 431
Running threw: TypeError: prop.prop has no properties

tryItOut 432
Compiling threw: SyntaxError: invalid destructuring assignment operator

tryItOut 433
before 139520, after 139520, break 00d3a000
Running threw: undefined

tryItOut 434

tryItOut 435

tryItOut 436
Compiling threw: SyntaxError: missing variable name

tryItOut 437
Compiling threw: SyntaxError: missing ) in parenthetical

tryItOut 438

tryItOut 439
Compiling threw: SyntaxError: invalid increment operand

tryItOut 440

tryItOut 441
Compiling threw: SyntaxError: invalid for/in left-hand side

tryItOut 442
It's an iterator!
Iterating threw!
Iterating threw: TypeError: __noSuchMethod__ has no properties

tryItOut 443
Compiling threw: SyntaxError: missing : after case label

tryItOut 444

tryItOut 445
Compiling threw: SyntaxError: syntax error

tryItOut 446

tryItOut 447
Compiling threw: SyntaxError: missing ; before statement

tryItOut 448
Compiling threw: SyntaxError: missing variable name

tryItOut 449

tryItOut 450
It's an iterator!
Iterating threw!
Iterating threw: TypeError: arguments[0] has no properties

tryItOut 451
Compiling threw: SyntaxError: duplicate label

tryItOut 452

tryItOut 453
Compiling threw: SyntaxError: missing ; after for-loop initializer

tryItOut 454
Compiling threw: SyntaxError: syntax error

tryItOut 455
Compiling threw: SyntaxError: missing ) after condition

tryItOut 456
Compiling threw: SyntaxError: missing ; after for-loop initializer

tryItOut 457
Compiling threw: SyntaxError: invalid assignment left-hand side

tryItOut 458
Compiling threw: SyntaxError: syntax error

tryItOut 459

tryItOut 460

tryItOut 461
Running threw: ReferenceError: prototype is not defined

tryItOut 462

tryItOut 463

tryItOut 464

tryItOut 465

tryItOut 466

tryItOut 467
Compiling threw: SyntaxError: missing ) in parenthetical

tryItOut 468

tryItOut 469

tryItOut 470
It's an iterator!
Iterating threw!
Iterating threw: TypeError: prop has no properties

tryItOut 471
Compiling threw: SyntaxError: invalid increment operand

tryItOut 472

tryItOut 473

tryItOut 474
It's an iterator!
Iterating succeeded, iterCount == 1

tryItOut 475
Running threw: ReferenceError: prototype is not defined

tryItOut 476

tryItOut 477

tryItOut 478
Compiling threw: SyntaxError: missing ) after switch expression

tryItOut 479

tryItOut 480
Compiling threw: SyntaxError: missing ) in parenthetical

tryItOut 481

tryItOut 482

tryItOut 483
It's an iterator!
Iterating succeeded, iterCount == 1

tryItOut 484

tryItOut 485

tryItOut 486

tryItOut 487

tryItOut 488

tryItOut 489
Compiling threw: SyntaxError: missing ) in parenthetical

tryItOut 490
Compiling threw: SyntaxError: missing ) after argument list

tryItOut 491
Compiling threw: SyntaxError: invalid for/in left-hand side

tryItOut 492
It's an iterator!
Iterating succeeded, iterCount == 1

tryItOut 493
Running threw: ReferenceError: z1 is not defined

tryItOut 494

tryItOut 495
Running threw: Error: invalid sharp variable use #1#

tryItOut 496

tryItOut 497
Compiling threw: SyntaxError: missing variable name

tryItOut 498

tryItOut 499
Running threw: function Object() {
    [native code]
}

tryItOut 500

tryItOut 501
Compiling threw: SyntaxError: missing variable name

tryItOut 502
Compiling threw: SyntaxError: invalid assignment left-hand side

tryItOut 503
Compiling threw: SyntaxError: invalid for/in left-hand side

tryItOut 504
Compiling threw: SyntaxError: syntax error

tryItOut 505
Compiling threw: SyntaxError: missing ) in parenthetical

tryItOut 506
Compiling threw: SyntaxError: missing variable name

tryItOut 507
Compiling threw: SyntaxError: invalid for/in left-hand side

tryItOut 508

tryItOut 509
Compiling threw: SyntaxError: invalid assignment left-hand side

tryItOut 510
Compiling threw: SyntaxError: missing ; before statement

tryItOut 511
Compiling threw: SyntaxError: missing variable name

tryItOut 512

tryItOut 513
Compiling threw: SyntaxError: invalid for/in left-hand side

tryItOut 514
Compiling threw: SyntaxError: missing ; before statement

tryItOut 515
Compiling threw: SyntaxError: missing ) after condition

tryItOut 516

tryItOut 517
Compiling threw: SyntaxError: missing variable name

tryItOut 518
Running threw: undefined

tryItOut 519
Compiling threw: SyntaxError: invalid property id

tryItOut 520

tryItOut 521

tryItOut 522
Compiling threw: SyntaxError: missing ; before statement

tryItOut 523
Compiling threw: TypeError: redeclaration of variable __proto__

tryItOut 524
Compiling threw: SyntaxError: missing ; before statement

tryItOut 525
before 174400, after 174400, break 00d79000

tryItOut 526
Compiling threw: SyntaxError: invalid for/in left-hand side

tryItOut 527
Compiling threw: SyntaxError: missing ; before statement

tryItOut 528
Running threw: TypeError: XML filtering predicate operator called on incompatible Number

tryItOut 529
before 174400, after 156960, break 00d79000

tryItOut 530

tryItOut 531

tryItOut 532

tryItOut 533
Compiling threw: SyntaxError: missing { before function body

tryItOut 534
Compiling threw: SyntaxError: invalid assignment left-hand side

tryItOut 535
Compiling threw: SyntaxError: missing ( before condition

tryItOut 536

tryItOut 537

tryItOut 538

tryItOut 539
Compiling threw: SyntaxError: missing ; before statement

tryItOut 540
Compiling threw: SyntaxError: syntax error

tryItOut 541
Compiling threw: SyntaxError: missing variable name

tryItOut 542

tryItOut 543

tryItOut 544
Compiling threw: SyntaxError: missing } after let block

tryItOut 545
It's an iterator!
Iterating succeeded, iterCount == 0

tryItOut 546
Running threw: null

tryItOut 547
Compiling threw: SyntaxError: missing ) after formal parameters

tryItOut 548
Compiling threw: SyntaxError: invalid for/in left-hand side

tryItOut 549

tryItOut 550

tryItOut 551
Compiling threw: SyntaxError: invalid for/in left-hand side

tryItOut 552

tryItOut 553

tryItOut 554
Running threw: TypeError: invalid 'in' operand undefined

tryItOut 555

tryItOut 556
Compiling threw: SyntaxError: missing } after let block

tryItOut 557
Running threw: TypeError: this.__defineSetter__("prop", [1, 2, 3, 4].slice) has no properties

tryItOut 558
Compiling threw: SyntaxError: invalid for/in left-hand side

tryItOut 559
It's an iterator!
Iterating threw!
Iterating threw: ReferenceError: __iterator__ is not defined

tryItOut 560

tryItOut 561
Compiling threw: SyntaxError: invalid XML list syntax

tryItOut 562
Compiling threw: SyntaxError: missing variable name

tryItOut 563

tryItOut 564
before 156960, after 156960, break 00d87000

tryItOut 565
Compiling threw: SyntaxError: invalid decrement operand

tryItOut 566
Compiling threw: SyntaxError: invalid decrement operand

tryItOut 567
Compiling threw: SyntaxError: invalid assignment left-hand side

tryItOut 568
Running threw: TypeError: undefined is not a function

tryItOut 569
Compiling threw: TypeError: redeclaration of const __proto__

tryItOut 570

tryItOut 571

tryItOut 572
Compiling threw: SyntaxError: missing variable name

tryItOut 573
It's an iterator!
Iterating succeeded, iterCount == 1

tryItOut 574

tryItOut 575

tryItOut 576
Running threw: undefined

tryItOut 577
Compiling threw: SyntaxError: syntax error

tryItOut 578

tryItOut 579

tryItOut 580

tryItOut 581

tryItOut 582
Compiling threw: SyntaxError: missing : after property id

tryItOut 583
Compiling threw: SyntaxError: invalid increment operand

tryItOut 584

tryItOut 585

tryItOut 586

tryItOut 587
Running threw: TypeError: (10000)['throw'] is not a function

tryItOut 588

tryItOut 589
Compiling threw: SyntaxError: invalid assignment left-hand side

tryItOut 590

tryItOut 591
Compiling threw: SyntaxError: invalid destructuring assignment operator

tryItOut 592
Compiling threw: SyntaxError: missing variable name

tryItOut 593

tryItOut 594
Compiling threw: SyntaxError: invalid XML name

tryItOut 595
before 156960, after 156960, break 00d87000

tryItOut 596
Compiling threw: SyntaxError: missing variable name

tryItOut 597
Compiling threw: SyntaxError: missing formal parameter

tryItOut 598
Compiling threw: SyntaxError: syntax error

tryItOut 599

tryItOut 600

tryItOut 601

tryItOut 602
Compiling threw: SyntaxError: invalid for/in left-hand side

tryItOut 603
Compiling threw: SyntaxError: missing name in export statement

tryItOut 604
Compiling threw: SyntaxError: syntax error

tryItOut 605
Compiling threw: SyntaxError: missing ) in parenthetical

tryItOut 606

tryItOut 607

tryItOut 608
Compiling threw: SyntaxError: invalid for/in left-hand side

tryItOut 609
Compiling threw: SyntaxError: missing } after let block

tryItOut 610
Compiling threw: SyntaxError: missing variable name

tryItOut 611

tryItOut 612

tryItOut 613

tryItOut 614
Compiling threw: SyntaxError: invalid assignment left-hand side

tryItOut 615
Compiling threw: SyntaxError: syntax error

tryItOut 616
Compiling threw: SyntaxError: syntax error

tryItOut 617
Compiling threw: SyntaxError: invalid destructuring assignment operator

tryItOut 618
It's an iterator!
Iterating succeeded, iterCount == 1

tryItOut 619

tryItOut 620

tryItOut 621

tryItOut 622
Running threw: ReferenceError: z2 is not defined

tryItOut 623
Compiling threw: SyntaxError: invalid increment operand

tryItOut 624
Compiling threw: SyntaxError: missing ) after for-loop control

tryItOut 625
Compiling threw: SyntaxError: duplicate label

tryItOut 626

tryItOut 627

tryItOut 628
Compiling threw: SyntaxError: missing variable name

tryItOut 629
Compiling threw: SyntaxError: missing ) after condition

tryItOut 630
Compiling threw: SyntaxError: invalid flag after regular expression

tryItOut 631
Compiling threw: SyntaxError: invalid assignment left-hand side

tryItOut 632
Running threw: ReferenceError: __iterator__ is not defined

tryItOut 633
Running threw: TypeError: null has no properties

tryItOut 634

tryItOut 635
Compiling threw: SyntaxError: missing ) after let head

tryItOut 636
Compiling threw: SyntaxError: missing ; before statement

tryItOut 637

tryItOut 638

tryItOut 639
Compiling threw: SyntaxError: missing ) after let head

tryItOut 640

tryItOut 641
Compiling threw: SyntaxError: missing ; before statement

tryItOut 642
It's an iterator!
Iterating threw!
Iterating threw: Error: invalid sharp variable use #1#

tryItOut 643
Compiling threw: SyntaxError: invalid for/in left-hand side

tryItOut 644

tryItOut 645

tryItOut 646
Compiling threw: SyntaxError: invalid XML name

tryItOut 647
Compiling threw: SyntaxError: invalid increment operand

tryItOut 648
Compiling threw: SyntaxError: invalid for/in left-hand side

tryItOut 649
Compiling threw: SyntaxError: invalid for/in left-hand side

tryItOut 650

tryItOut 651
Compiling threw: SyntaxError: invalid for/in left-hand side

tryItOut 652
Running threw: [object global]

tryItOut 653
Compiling threw: SyntaxError: invalid assignment left-hand side

tryItOut 654
Compiling threw: SyntaxError: invalid XML name

tryItOut 655

tryItOut 656
Compiling threw: SyntaxError: invalid for/in left-hand side

tryItOut 657
Compiling threw: SyntaxError: missing variable name

tryItOut 658
Compiling threw: SyntaxError: missing ) in parenthetical

tryItOut 659

tryItOut 660
Compiling threw: SyntaxError: syntax error

tryItOut 661
Compiling threw: SyntaxError: syntax error

tryItOut 662
before 174400, after 174400, break 00d87000

tryItOut 663

tryItOut 664
Compiling threw: SyntaxError: missing } after let block

tryItOut 665
Compiling threw: SyntaxError: missing variable name

tryItOut 666
Compiling threw: SyntaxError: missing ; before statement

tryItOut 667
Running threw: [object Object]

tryItOut 668

tryItOut 669

tryItOut 670

tryItOut 671
Compiling threw: SyntaxError: missing ) in parenthetical

tryItOut 672
Compiling threw: SyntaxError: missing ) in parenthetical

tryItOut 673
Compiling threw: SyntaxError: syntax error

tryItOut 674
Compiling threw: SyntaxError: invalid for/in left-hand side

tryItOut 675
It's an iterator!
Iterating succeeded, iterCount == 1

tryItOut 676
Compiling threw: SyntaxError: invalid XML name

tryItOut 677

tryItOut 678
before 174400, after 174400, break 00d87000

tryItOut 679
Compiling threw: SyntaxError: invalid sharp variable definition

tryItOut 680
Compiling threw: SyntaxError: missing { before function body

tryItOut 681
Compiling threw: TypeError: redeclaration of var __proto__

tryItOut 682
Compiling threw: SyntaxError: missing = in destructuring declaration

tryItOut 683

tryItOut 684
Compiling threw: TypeError: redeclaration of const prototype

tryItOut 685

tryItOut 686
Compiling threw: SyntaxError: syntax error

tryItOut 687
Compiling threw: SyntaxError: syntax error

tryItOut 688

tryItOut 689
Compiling threw: SyntaxError: yield expression must be parenthesized

tryItOut 690

tryItOut 691
Compiling threw: SyntaxError: illegal character

tryItOut 692

tryItOut 693
Compiling threw: SyntaxError: invalid for each loop

tryItOut 694

tryItOut 695
Compiling threw: SyntaxError: syntax error

tryItOut 696
Compiling threw: SyntaxError: invalid for/in left-hand side

tryItOut 697
Running threw: true

tryItOut 698
It's an iterator!
Iterating threw!
Iterating threw: ReferenceError: z1 is not defined

tryItOut 699
Compiling threw: SyntaxError: missing variable name

tryItOut 700
Compiling threw: SyntaxError: missing variable name

tryItOut 701
It's an iterator!
Iterating succeeded, iterCount == 1

tryItOut 702

tryItOut 703
Running threw: TypeError: arguments['throw'] is not a function

tryItOut 704
Compiling threw: SyntaxError: invalid for/in left-hand side

tryItOut 705
Compiling threw: SyntaxError: missing variable name

tryItOut 706

tryItOut 707
Compiling threw: SyntaxError: syntax error

tryItOut 708
Compiling threw: SyntaxError: yield expression must be parenthesized

tryItOut 709

tryItOut 710

tryItOut 711
Compiling threw: SyntaxError: invalid assignment left-hand side

tryItOut 712
Compiling threw: SyntaxError: missing variable name

tryItOut 713

tryItOut 714
Compiling threw: SyntaxError: invalid for/in left-hand side

tryItOut 715

tryItOut 716
Compiling threw: SyntaxError: missing variable name

tryItOut 717
Compiling threw: SyntaxError: invalid for/in left-hand side

tryItOut 718
Running threw: [object Object]

tryItOut 719
Compiling threw: SyntaxError: missing = in destructuring declaration

tryItOut 720

tryItOut 721

tryItOut 722
Compiling threw: SyntaxError: missing : after property id

tryItOut 723
before 174400, after 174400, break 00d87000

tryItOut 724
Compiling threw: SyntaxError: missing variable name

tryItOut 725
Compiling threw: SyntaxError: missing variable name

tryItOut 726

tryItOut 727

tryItOut 728

tryItOut 729
Compiling threw: SyntaxError: invalid sharp variable definition

tryItOut 730
Compiling threw: SyntaxError: missing variable name

tryItOut 731

tryItOut 732
Compiling threw: SyntaxError: missing ; before statement

tryItOut 733
Compiling threw: SyntaxError: missing variable name

tryItOut 734
Compiling threw: SyntaxError: invalid decrement operand

tryItOut 735
Compiling threw: SyntaxError: syntax error

tryItOut 736

tryItOut 737
Compiling threw: SyntaxError: missing ) in parenthetical

tryItOut 738

tryItOut 739

tryItOut 740
Compiling threw: SyntaxError: invalid for/in left-hand side

tryItOut 741
Running threw: Infinity

tryItOut 742
Compiling threw: SyntaxError: missing ( before let head

tryItOut 743

tryItOut 744
Compiling threw: SyntaxError: invalid sharp variable definition

tryItOut 745

tryItOut 746
Compiling threw: SyntaxError: invalid for/in left-hand side

tryItOut 747

tryItOut 748
Compiling threw: TypeError: redeclaration of variable constructor

tryItOut 749

tryItOut 750

tryItOut 751
Compiling threw: SyntaxError: illegal XML character

tryItOut 752

tryItOut 753
It's an iterator!
Iterating succeeded, iterCount == 1

tryItOut 754
It's an iterator!
Iterating threw!
Iterating threw: TypeError: arguments[0] has no properties

tryItOut 755
Compiling threw: SyntaxError: invalid for/in left-hand side

tryItOut 756
Compiling threw: SyntaxError: invalid assignment left-hand side

tryItOut 757
Compiling threw: SyntaxError: invalid for/in left-hand side

tryItOut 758
Compiling threw: SyntaxError: invalid for each loop

tryItOut 759
Compiling threw: SyntaxError: invalid for/in left-hand side

tryItOut 760
It's an iterator!
Iterating succeeded, iterCount == 1

tryItOut 761
It's an iterator!
Iterating threw!
Iterating threw: TypeError: arguments[0] has no properties

tryItOut 762

tryItOut 763

tryItOut 764

tryItOut 765
Running threw: /x/

tryItOut 766

tryItOut 767
Compiling threw: SyntaxError: missing variable name

tryItOut 768
Running threw: -Infinity

tryItOut 769

tryItOut 770

tryItOut 771

tryItOut 772
Compiling threw: SyntaxError: missing ; before statement

tryItOut 773
Compiling threw: SyntaxError: missing variable name

tryItOut 774

tryItOut 775
Compiling threw: SyntaxError: duplicate label

tryItOut 776

tryItOut 777
Compiling threw: SyntaxError: missing variable name

tryItOut 778

tryItOut 779
Compiling threw: SyntaxError: missing variable name

tryItOut 780
Compiling threw: SyntaxError: invalid for/in left-hand side

tryItOut 781
Compiling threw: SyntaxError: missing ) after condition

tryItOut 782

tryItOut 783

tryItOut 784
Compiling threw: SyntaxError: syntax error

tryItOut 785
Compiling threw: SyntaxError: invalid increment operand

tryItOut 786
Running threw: 

tryItOut 787
Compiling threw: SyntaxError: missing ) in parenthetical

tryItOut 788

tryItOut 789

tryItOut 790

tryItOut 791
Compiling threw: SyntaxError: syntax error

tryItOut 792
Running threw: -Infinity

tryItOut 793
Compiling threw: SyntaxError: syntax error

tryItOut 794
Compiling threw: SyntaxError: syntax error

tryItOut 795
Compiling threw: SyntaxError: missing ) in parenthetical

tryItOut 796
before 191840, after 191840, break 00db5000

tryItOut 797

tryItOut 798
Running threw: [object Object]

tryItOut 799
Compiling threw: SyntaxError: invalid for/in left-hand side

tryItOut 800
Compiling threw: SyntaxError: invalid for/in left-hand side

tryItOut 801
Running threw: ReferenceError: yyy is not defined

tryItOut 802

tryItOut 803
Compiling threw: SyntaxError: missing ) in parenthetical

tryItOut 804

tryItOut 805
Compiling threw: SyntaxError: missing ; before statement

tryItOut 806

tryItOut 807
It's an iterator!
Iterating succeeded, iterCount == 1

tryItOut 808

tryItOut 809

tryItOut 810
Compiling threw: SyntaxError: missing ; before statement

tryItOut 811
Compiling threw: SyntaxError: invalid XML name

tryItOut 812
Running threw: 109

tryItOut 813

tryItOut 814
Compiling threw: SyntaxError: invalid XML tag syntax

tryItOut 815

tryItOut 816
Running threw: 109

tryItOut 817

tryItOut 818
Compiling threw: SyntaxError: missing variable name

tryItOut 819
Compiling threw: SyntaxError: missing name after . operator

tryItOut 820

tryItOut 821
Compiling threw: SyntaxError: missing } after property list

tryItOut 822
Compiling threw: SyntaxError: invalid for/in left-hand side

tryItOut 823

tryItOut 824

tryItOut 825

tryItOut 826
Compiling threw: SyntaxError: invalid property id

tryItOut 827
Compiling threw: SyntaxError: missing } after let block

tryItOut 828
Compiling threw: SyntaxError: missing name in export statement

tryItOut 829
Running threw: ReferenceError: __iterator__ is not defined

tryItOut 830
Compiling threw: SyntaxError: invalid assignment left-hand side

tryItOut 831

tryItOut 832

tryItOut 833
Compiling threw: SyntaxError: invalid for/in left-hand side

tryItOut 834
Compiling threw: SyntaxError: missing ; after for-loop initializer

tryItOut 835

tryItOut 836
Compiling threw: SyntaxError: syntax error

tryItOut 837
It's an iterator!
Iterating succeeded, iterCount == 1

tryItOut 838

tryItOut 839
Compiling threw: SyntaxError: missing variable name

tryItOut 840

tryItOut 841
Compiling threw: SyntaxError: invalid for/in left-hand side

tryItOut 842
Compiling threw: SyntaxError: syntax error

tryItOut 843
Compiling threw: SyntaxError: invalid for/in left-hand side

tryItOut 844
Compiling threw: SyntaxError: missing ; before statement

tryItOut 845
Compiling threw: SyntaxError: syntax error

tryItOut 846
Compiling threw: SyntaxError: syntax error

tryItOut 847
Compiling threw: SyntaxError: missing ) in parenthetical

tryItOut 848
Compiling threw: SyntaxError: missing ) after switch expression

tryItOut 849

tryItOut 850
Running threw: SyntaxError: invalid setter usage

tryItOut 851
before 191840, after 191840, break 00db5000

tryItOut 852
Compiling threw: SyntaxError: missing ; after for-loop initializer

tryItOut 853
Compiling threw: SyntaxError: missing ] in index expression

tryItOut 854
It's an iterator!
Iterating succeeded, iterCount == 1

tryItOut 855
Compiling threw: SyntaxError: missing ; before statement

tryItOut 856

tryItOut 857
Compiling threw: SyntaxError: illegal character

tryItOut 858
It's an iterator!
Iterating succeeded, iterCount == 1

tryItOut 859
Compiling threw: SyntaxError: syntax error

tryItOut 860
Running threw: TypeError: undefined has no properties

tryItOut 861
Compiling threw: SyntaxError: missing variable name

tryItOut 862

tryItOut 863

tryItOut 864
Compiling threw: SyntaxError: invalid for/in left-hand side

tryItOut 865

tryItOut 866
Compiling threw: SyntaxError: missing ; after for-loop initializer

tryItOut 867

tryItOut 868
Compiling threw: SyntaxError: missing { before function body

tryItOut 869
Compiling threw: SyntaxError: invalid assignment left-hand side

tryItOut 870

tryItOut 871

tryItOut 872
Compiling threw: SyntaxError: invalid for/in left-hand side

tryItOut 873

tryItOut 874

tryItOut 875

tryItOut 876

tryItOut 877
Compiling threw: SyntaxError: missing variable name

tryItOut 878
Compiling threw: SyntaxError: invalid assignment left-hand side

tryItOut 879
Compiling threw: SyntaxError: invalid decrement operand

tryItOut 880
Running threw: ReferenceError: z1 is not defined

tryItOut 881

tryItOut 882
Compiling threw: SyntaxError: invalid destructuring assignment operator

tryItOut 883
Compiling threw: SyntaxError: missing variable name

tryItOut 884

tryItOut 885

tryItOut 886

tryItOut 887

tryItOut 888

tryItOut 889

tryItOut 890

tryItOut 891
Compiling threw: SyntaxError: invalid assignment left-hand side

tryItOut 892

tryItOut 893

tryItOut 894
Running threw: 

tryItOut 895

tryItOut 896
before 191840, after 191840, break 00db5000

tryItOut 897
Compiling threw: SyntaxError: missing ; before statement

tryItOut 898

tryItOut 899

tryItOut 900
Compiling threw: SyntaxError: illegal XML character

tryItOut 901
before 191840, after 191840, break 00db5000

tryItOut 902

tryItOut 903
before 191840, after 191840, break 00db5000

tryItOut 904
Compiling threw: SyntaxError: missing variable name

tryItOut 905
Compiling threw: SyntaxError: missing ; before statement

tryItOut 906
Compiling threw: SyntaxError: invalid assignment left-hand side

tryItOut 907
Running threw: [object Object]

tryItOut 908
Compiling threw: SyntaxError: missing ) after with-statement object

tryItOut 909

tryItOut 910
Running threw: function (id) {
    return id;
}

tryItOut 911
It's an iterator!
Iterating succeeded, iterCount == 1

tryItOut 912

tryItOut 913
It's an iterator!
Iterating succeeded, iterCount == 1

tryItOut 914

tryItOut 915

tryItOut 916

tryItOut 917
It's an iterator!
Iterating succeeded, iterCount == 1

tryItOut 918

tryItOut 919
Compiling threw: SyntaxError: invalid assignment left-hand side

tryItOut 920
Running threw: undefined

tryItOut 921

tryItOut 922

tryItOut 923
Running threw: undefined

tryItOut 924

tryItOut 925
Compiling threw: SyntaxError: syntax error

tryItOut 926
Compiling threw: SyntaxError: missing ) in parenthetical

tryItOut 927

tryItOut 928

tryItOut 929
It's an iterator!
Iterating succeeded, iterCount == 1

tryItOut 930
Compiling threw: SyntaxError: syntax error

tryItOut 931
Compiling threw: SyntaxError: missing variable name

tryItOut 932
Compiling threw: SyntaxError: missing variable name

tryItOut 933
Running threw: ReferenceError: z1 is not defined

tryItOut 934
Running threw: ReferenceError: z1 is not defined

tryItOut 935

tryItOut 936
Compiling threw: SyntaxError: invalid for/in left-hand side

tryItOut 937

tryItOut 938
Compiling threw: SyntaxError: missing variable name

tryItOut 939
Running threw: ReferenceError: __parent__break is not defined

tryItOut 940
Compiling threw: SyntaxError: invalid assignment left-hand side

tryItOut 941

tryItOut 942

tryItOut 943
Compiling threw: SyntaxError: syntax error

tryItOut 944

tryItOut 945
Running threw: TypeError: {}.hasOwnProperty[[]] has no properties

tryItOut 946
Compiling threw: SyntaxError: missing name in export statement

tryItOut 947
before 191840, after 191840, break 00dc7000

tryItOut 948
Compiling threw: SyntaxError: invalid assignment left-hand side

tryItOut 949

tryItOut 950

tryItOut 951
Compiling threw: SyntaxError: missing ; before statement

tryItOut 952

tryItOut 953
Compiling threw: SyntaxError: invalid decrement operand

tryItOut 954
Running threw: ReferenceError: z1 is not defined

tryItOut 955
Running threw: TypeError: prop has no properties

tryItOut 956

tryItOut 957

tryItOut 958

tryItOut 959
Compiling threw: SyntaxError: invalid decrement operand

tryItOut 960
Compiling threw: SyntaxError: invalid increment operand

tryItOut 961

tryItOut 962
Compiling threw: SyntaxError: missing variable name

tryItOut 963
Compiling threw: SyntaxError: missing variable name

tryItOut 964

tryItOut 965

tryItOut 966

tryItOut 967

tryItOut 968
Compiling threw: SyntaxError: invalid assignment left-hand side

tryItOut 969
before 191840, after 191840, break 00dc7000

tryItOut 970
Compiling threw: SyntaxError: invalid for/in left-hand side

tryItOut 971
Running threw: 

tryItOut 972
Compiling threw: SyntaxError: syntax error

tryItOut 973
It's an iterator!
Iterating threw!
Iterating threw: TypeError: undefined has no properties

tryItOut 974

tryItOut 975
Compiling threw: SyntaxError: invalid assignment left-hand side

tryItOut 976

tryItOut 977
It's an iterator!
before 191840, after 191840, break 00dc7000
Iterating threw!
Iterating threw: TypeError: (constructor.__proto__ = "").yoyo is not a function

tryItOut 978

tryItOut 979
Compiling threw: SyntaxError: missing ; after for-loop initializer

tryItOut 980
Compiling threw: SyntaxError: missing ) in parenthetical

tryItOut 981
Compiling threw: SyntaxError: missing } in compound statement

tryItOut 982

tryItOut 983
Compiling threw: SyntaxError: missing ; after for-loop initializer

tryItOut 984
Running threw: TypeError: (1e+81).@* has no properties

tryItOut 985

tryItOut 986

tryItOut 987
Compiling threw: SyntaxError: missing ) in parenthetical

tryItOut 988
Compiling threw: SyntaxError: missing { before function body

tryItOut 989

tryItOut 990

tryItOut 991
Compiling threw: SyntaxError: invalid assignment left-hand side

tryItOut 992
Compiling threw: SyntaxError: invalid for/in left-hand side

tryItOut 993
Compiling threw: SyntaxError: missing = in destructuring declaration

tryItOut 994

tryItOut 995

tryItOut 996

tryItOut 997
Compiling threw: SyntaxError: syntax error

tryItOut 998

tryItOut 999

tryItOut 1000
Compiling threw: SyntaxError: missing ; before statement

ALL OK

Script done on Sat 04 May 2013 06:17:43 AM PDT
