Script started on Sat 04 May 2013 06:18:36 AM PDT
***
Targeting SpiderMonkey / Gecko.

tryItOut 1
Compiling threw: SyntaxError: unterminated comment

tryItOut 2
Compiling threw: SyntaxError: missing } after let block

tryItOut 3
Running threw: ReferenceError: __noSuchMethod__ is not defined

tryItOut 4

tryItOut 5

tryItOut 6
Compiling threw: SyntaxError: missing ; after for-loop initializer

tryItOut 7
Running threw: ReferenceError: reference to undefined XML name *

tryItOut 8
Compiling threw: SyntaxError: missing { before function body

tryItOut 9

tryItOut 10
Compiling threw: SyntaxError: invalid assignment left-hand side

tryItOut 11
Running threw: ReferenceError: z1 is not defined

tryItOut 12
Compiling threw: SyntaxError: missing variable name

tryItOut 13
Running threw: ReferenceError: __iterator__ is not defined

tryItOut 14

tryItOut 15

tryItOut 16
It's an iterator!
Iterating succeeded, iterCount == 1

tryItOut 17

tryItOut 18
It's an iterator!
Iterating threw!
Iterating threw: TypeError: p.z = -Infinity is not a function

tryItOut 19

tryItOut 20
Running threw: ReferenceError: reference to undefined XML name *

tryItOut 21
Compiling threw: SyntaxError: label not found

tryItOut 22
Compiling threw: SyntaxError: yield expression must be parenthesized

tryItOut 23
Compiling threw: SyntaxError: invalid for/in left-hand side

tryItOut 24
Compiling threw: SyntaxError: missing variable name

tryItOut 25
Compiling threw: SyntaxError: invalid assignment left-hand side

tryItOut 26
Compiling threw: SyntaxError: missing ; after for-loop initializer

tryItOut 27
Compiling threw: SyntaxError: label not found

tryItOut 28

tryItOut 29
Compiling threw: SyntaxError: missing variable name

tryItOut 30

tryItOut 31
Running threw: ReferenceError: window is not defined

tryItOut 32
Compiling threw: SyntaxError: missing variable name

tryItOut 33
Compiling threw: SyntaxError: label not found

tryItOut 34
Compiling threw: SyntaxError: label not found

tryItOut 35

tryItOut 36
Compiling threw: SyntaxError: missing ) after formal parameters

tryItOut 37

tryItOut 38
Compiling threw: SyntaxError: missing variable name

tryItOut 39
Compiling threw: SyntaxError: missing ) after for-loop control

tryItOut 40

tryItOut 41
Running threw: ReferenceError: reference to undefined XML name *::*

tryItOut 42
Running threw: TypeError: Function.prototype.call called on incompatible <x>
  <y/>
</x>

tryItOut 43
Compiling threw: SyntaxError: invalid assignment left-hand side

tryItOut 44
Compiling threw: SyntaxError: missing variable name

tryItOut 45
Compiling threw: SyntaxError: syntax error

tryItOut 46
Compiling threw: SyntaxError: missing variable name

tryItOut 47

tryItOut 48

tryItOut 49
Compiling threw: SyntaxError: missing } after let block

tryItOut 50
Compiling threw: SyntaxError: invalid for/in left-hand side

tryItOut 51
Running threw: ReferenceError: reference to undefined XML name *::*

tryItOut 52
It's an iterator!
Iterating succeeded, iterCount == 1

tryItOut 53
Compiling threw: SyntaxError: invalid for/in left-hand side

tryItOut 54
Compiling threw: SyntaxError: invalid break

tryItOut 55

tryItOut 56
Compiling threw: SyntaxError: invalid continue

tryItOut 57
Compiling threw: SyntaxError: invalid for/in left-hand side

tryItOut 58
Compiling threw: SyntaxError: invalid break

tryItOut 59
Running threw: Error: cyclic __proto__ value

tryItOut 60
Compiling threw: SyntaxError: label not found

tryItOut 61

tryItOut 62
Compiling threw: SyntaxError: invalid for/in left-hand side

tryItOut 63
It's an iterator!
Iterating threw!
Iterating threw: ReferenceError: window is not defined

tryItOut 64
Compiling threw: SyntaxError: invalid for/in left-hand side

tryItOut 65
Compiling threw: SyntaxError: invalid for/in left-hand side

tryItOut 66
Compiling threw: SyntaxError: missing ) in parenthetical

tryItOut 67

tryItOut 68

tryItOut 69
Compiling threw: SyntaxError: invalid assignment left-hand side

tryItOut 70

tryItOut 71
Compiling threw: SyntaxError: label not found

tryItOut 72

tryItOut 73
Compiling threw: SyntaxError: missing ) in parenthetical

tryItOut 74
Compiling threw: SyntaxError: invalid for/in left-hand side

tryItOut 75
Compiling threw: SyntaxError: syntax error

tryItOut 76
Running threw: ReferenceError: reference to undefined XML name @foo

tryItOut 77
Compiling threw: SyntaxError: missing ) in parenthetical

tryItOut 78

tryItOut 79
Compiling threw: TypeError: redeclaration of variable constructor

tryItOut 80
It's an iterator!
Iterating threw!
Iterating threw: ReferenceError: window is not defined

tryItOut 81

tryItOut 82

tryItOut 83
It's an iterator!
Iterating threw!
Iterating threw: ReferenceError: window is not defined

tryItOut 84
It's an iterator!
Iterating threw!
Iterating threw: ReferenceError: window is not defined

tryItOut 85
Compiling threw: SyntaxError: missing ( before formal parameters

tryItOut 86

tryItOut 87

tryItOut 88
Compiling threw: TypeError: redeclaration of const __iterator__

tryItOut 89
Compiling threw: SyntaxError: invalid for/in left-hand side

tryItOut 90
Running threw: ReferenceError: reference to undefined XML name @foo

tryItOut 91

tryItOut 92
Compiling threw: SyntaxError: missing variable name

tryItOut 93
Compiling threw: SyntaxError: invalid assignment left-hand side

tryItOut 94
Compiling threw: SyntaxError: invalid break

tryItOut 95
Compiling threw: SyntaxError: invalid for/in left-hand side

tryItOut 96
Compiling threw: SyntaxError: invalid continue

tryItOut 97
Compiling threw: SyntaxError: label not found

tryItOut 98
Compiling threw: SyntaxError: syntax error

tryItOut 99

tryItOut 100
Compiling threw: TypeError: redeclaration of variable __count__

tryItOut 101
Compiling threw: SyntaxError: label not found

tryItOut 102
Compiling threw: SyntaxError: label not found

tryItOut 103
Compiling threw: SyntaxError: invalid continue

tryItOut 104
Compiling threw: SyntaxError: invalid assignment left-hand side

tryItOut 105
Compiling threw: SyntaxError: missing : after property id

tryItOut 106

tryItOut 107
Compiling threw: TypeError: redeclaration of variable __count__

tryItOut 108
Compiling threw: SyntaxError: label not found

tryItOut 109
Compiling threw: SyntaxError: missing ; before statement

tryItOut 110
Running threw: ReferenceError: __noSuchMethod__ is not defined

tryItOut 111
Compiling threw: SyntaxError: invalid continue

tryItOut 112
Compiling threw: SyntaxError: invalid for/in left-hand side

tryItOut 113

tryItOut 114

tryItOut 115

tryItOut 116

tryItOut 117
Compiling threw: SyntaxError: syntax error

tryItOut 118
Running threw: ReferenceError: z1 is not defined

tryItOut 119

tryItOut 120
Running threw: ReferenceError: __noSuchMethod__ is not defined

tryItOut 121
Compiling threw: SyntaxError: missing ; before statement

tryItOut 122
Compiling threw: SyntaxError: syntax error

tryItOut 123

tryItOut 124
Running threw: ReferenceError: reference to undefined XML name *::*

tryItOut 125
Running threw: ReferenceError: reference to undefined XML name @foo

tryItOut 126

tryItOut 127
Running threw: 110

tryItOut 128
Compiling threw: SyntaxError: missing variable name

tryItOut 129

tryItOut 130

tryItOut 131

tryItOut 132
Compiling threw: SyntaxError: invalid for/in left-hand side

tryItOut 133

tryItOut 134
Running threw: ReferenceError: reference to undefined XML name *

tryItOut 135

tryItOut 136
Compiling threw: SyntaxError: label not found

tryItOut 137
Compiling threw: SyntaxError: missing variable name

tryItOut 138
Compiling threw: SyntaxError: label not found

tryItOut 139
Compiling threw: SyntaxError: invalid break

tryItOut 140

tryItOut 141

tryItOut 142

tryItOut 143
Compiling threw: SyntaxError: missing ) in parenthetical

tryItOut 144
Compiling threw: TypeError: redeclaration of variable __proto__

tryItOut 145
Compiling threw: SyntaxError: missing ] in index expression

tryItOut 146
Compiling threw: SyntaxError: missing ; before statement

tryItOut 147

tryItOut 148

tryItOut 149
Compiling threw: SyntaxError: invalid assignment left-hand side

tryItOut 150
Compiling threw: SyntaxError: missing ) after switch expression

tryItOut 151
Compiling threw: SyntaxError: invalid continue

tryItOut 152
Compiling threw: SyntaxError: missing ) in parenthetical

tryItOut 153
Compiling threw: SyntaxError: invalid assignment left-hand side

tryItOut 154
Compiling threw: SyntaxError: syntax error

tryItOut 155

tryItOut 156
Compiling threw: SyntaxError: missing variable name

tryItOut 157
Compiling threw: SyntaxError: syntax error

tryItOut 158
Compiling threw: SyntaxError: missing variable name

tryItOut 159

tryItOut 160
Compiling threw: SyntaxError: label not found

tryItOut 161
It's an iterator!
Iterating threw!
Iterating threw: ReferenceError: reference to undefined XML name @foo

tryItOut 162

tryItOut 163
Compiling threw: SyntaxError: invalid label

tryItOut 164
Running threw: ReferenceError: z1 is not defined

tryItOut 165

tryItOut 166
Compiling threw: SyntaxError: missing ) in parenthetical

tryItOut 167
Compiling threw: SyntaxError: missing variable name

tryItOut 168
Compiling threw: TypeError: redeclaration of var __noSuchMethod__

tryItOut 169

tryItOut 170
Compiling threw: SyntaxError: missing variable name

tryItOut 171
Compiling threw: SyntaxError: invalid break

tryItOut 172

tryItOut 173
Compiling threw: SyntaxError: syntax error

tryItOut 174

tryItOut 175
Compiling threw: SyntaxError: missing ) after argument list

tryItOut 176

tryItOut 177
Running threw: TypeError: /x/ is not a constructor

tryItOut 178
Compiling threw: TypeError: redeclaration of variable __iterator__

tryItOut 179
Compiling threw: SyntaxError: invalid break

tryItOut 180

tryItOut 181
Compiling threw: SyntaxError: invalid break

tryItOut 182

tryItOut 183
Compiling threw: SyntaxError: invalid assignment left-hand side

tryItOut 184

tryItOut 185
Compiling threw: SyntaxError: missing ) in parenthetical

tryItOut 186
Compiling threw: SyntaxError: invalid for/in left-hand side

tryItOut 187
Compiling threw: SyntaxError: label not found

tryItOut 188
Compiling threw: SyntaxError: invalid for/in left-hand side

tryItOut 189
Compiling threw: SyntaxError: missing variable name

tryItOut 190

tryItOut 191
Running threw: ReferenceError: window is not defined

tryItOut 192
Compiling threw: SyntaxError: syntax error

tryItOut 193
Compiling threw: SyntaxError: missing variable name

tryItOut 194

tryItOut 195
Running threw: ReferenceError: window is not defined

tryItOut 196
Running threw: ReferenceError: reference to undefined XML name @foo

tryItOut 197

tryItOut 198
Compiling threw: SyntaxError: missing ; after for-loop initializer

tryItOut 199

tryItOut 200
Compiling threw: SyntaxError: invalid break

tryItOut 201

tryItOut 202
Compiling threw: SyntaxError: missing ) in parenthetical

tryItOut 203

tryItOut 204

tryItOut 205

tryItOut 206

tryItOut 207

tryItOut 208
Compiling threw: SyntaxError: missing variable name

tryItOut 209
Compiling threw: SyntaxError: missing ) after for-loop control

tryItOut 210

tryItOut 211

tryItOut 212
Compiling threw: SyntaxError: invalid for/in left-hand side

tryItOut 213
It's an iterator!
Iterating succeeded, iterCount == 1

tryItOut 214
Compiling threw: SyntaxError: missing ) in parenthetical

tryItOut 215

tryItOut 216
Running threw: ReferenceError: window is not defined

tryItOut 217
Compiling threw: SyntaxError: invalid XML list syntax

tryItOut 218
Compiling threw: SyntaxError: missing ; after for-loop initializer

tryItOut 219

tryItOut 220
Running threw: ReferenceError: window is not defined

tryItOut 221

tryItOut 222
Compiling threw: SyntaxError: missing ; after for-loop initializer

tryItOut 223
Compiling threw: SyntaxError: missing ) after condition

tryItOut 224

tryItOut 225

tryItOut 226
Running threw: TypeError: redeclaration of var __proto__

tryItOut 227
It's an iterator!
Iterating succeeded, iterCount == 1

tryItOut 228

tryItOut 229

tryItOut 230

tryItOut 231

tryItOut 232
Compiling threw: SyntaxError: syntax error

tryItOut 233
Compiling threw: SyntaxError: invalid break

tryItOut 234
Compiling threw: SyntaxError: syntax error

tryItOut 235

tryItOut 236
Compiling threw: SyntaxError: syntax error

tryItOut 237
Compiling threw: SyntaxError: missing variable name

tryItOut 238

tryItOut 239
Compiling threw: SyntaxError: missing variable name

tryItOut 240
Compiling threw: SyntaxError: missing variable name

tryItOut 241
Compiling threw: SyntaxError: syntax error

tryItOut 242
Compiling threw: SyntaxError: missing ; before statement

tryItOut 243
Compiling threw: SyntaxError: missing ) in parenthetical

tryItOut 244
Compiling threw: SyntaxError: missing ) in parenthetical

tryItOut 245

tryItOut 246
Compiling threw: SyntaxError: label not found

tryItOut 247

tryItOut 248
Compiling threw: SyntaxError: missing variable name

tryItOut 249
Compiling threw: SyntaxError: missing variable name

tryItOut 250
Compiling threw: SyntaxError: syntax error

tryItOut 251
Compiling threw: SyntaxError: invalid for/in left-hand side

tryItOut 252

tryItOut 253
Compiling threw: SyntaxError: syntax error

tryItOut 254

tryItOut 255

tryItOut 256
Compiling threw: SyntaxError: missing ) in parenthetical

tryItOut 257
Compiling threw: SyntaxError: missing ; before statement

tryItOut 258
Compiling threw: SyntaxError: missing variable name

tryItOut 259
Compiling threw: SyntaxError: missing variable name

tryItOut 260
It's an iterator!
Iterating succeeded, iterCount == 1

tryItOut 261

tryItOut 262
Compiling threw: SyntaxError: invalid break

tryItOut 263

tryItOut 264

tryItOut 265
Compiling threw: SyntaxError: invalid break

tryItOut 266
Compiling threw: SyntaxError: invalid for/in left-hand side

tryItOut 267
Compiling threw: SyntaxError: missing variable name

tryItOut 268
It's an iterator!
Iterating threw!
Iterating threw: ReferenceError: Exception is not defined

tryItOut 269
Running threw: undefined

tryItOut 270
Running threw: undefined

tryItOut 271
Running threw: ReferenceError: reference to undefined XML name *

tryItOut 272
Compiling threw: SyntaxError: missing : in conditional expression

tryItOut 273
Compiling threw: SyntaxError: missing ) after for-loop control

tryItOut 274
It's an iterator!
Iterating succeeded, iterCount == 1

tryItOut 275
Compiling threw: SyntaxError: missing { before function body

tryItOut 276

tryItOut 277
Compiling threw: SyntaxError: invalid for/in left-hand side

tryItOut 278
Running threw: TypeError: redeclaration of const __parent__

tryItOut 279
Compiling threw: SyntaxError: missing ) in parenthetical

tryItOut 280
Compiling threw: SyntaxError: missing ) in parenthetical

tryItOut 281

tryItOut 282

tryItOut 283

tryItOut 284
Compiling threw: SyntaxError: missing variable name

tryItOut 285
Compiling threw: SyntaxError: syntax error

tryItOut 286
Compiling threw: SyntaxError: unterminated regular expression literal

tryItOut 287
Running threw: ReferenceError: reference to undefined XML name *

tryItOut 288
Compiling threw: SyntaxError: missing variable name

tryItOut 289

tryItOut 290
Compiling threw: SyntaxError: missing variable name

tryItOut 291
Compiling threw: SyntaxError: missing variable name

tryItOut 292

tryItOut 293
Compiling threw: SyntaxError: missing ; before statement

tryItOut 294
Compiling threw: SyntaxError: missing { before function body

tryItOut 295
Compiling threw: SyntaxError: invalid for/in left-hand side

tryItOut 296

tryItOut 297

tryItOut 298
Compiling threw: SyntaxError: missing ) in parenthetical

tryItOut 299
Compiling threw: SyntaxError: missing variable name

tryItOut 300
Compiling threw: SyntaxError: yield expression must be parenthesized

tryItOut 301
Compiling threw: SyntaxError: missing ) in parenthetical

tryItOut 302
Compiling threw: SyntaxError: invalid XML name

tryItOut 303

tryItOut 304

tryItOut 305
Running threw: x

tryItOut 306
Compiling threw: SyntaxError: invalid for/in left-hand side

tryItOut 307
Compiling threw: SyntaxError: label not found

tryItOut 308
Compiling threw: SyntaxError: missing variable name

tryItOut 309
Compiling threw: SyntaxError: missing variable name

tryItOut 310

tryItOut 311
Running threw: ReferenceError: reference to undefined XML name *

tryItOut 312

tryItOut 313

tryItOut 314
Compiling threw: SyntaxError: label not found

tryItOut 315
Compiling threw: SyntaxError: syntax error

tryItOut 316
It's an iterator!
Iterating threw!
Iterating threw: ReferenceError: z1 is not defined

tryItOut 317

tryItOut 318

tryItOut 319

tryItOut 320
Compiling threw: SyntaxError: missing variable name

tryItOut 321
Compiling threw: SyntaxError: invalid assignment left-hand side

tryItOut 322
It's an iterator!
Iterating threw!
Iterating threw: ReferenceError: z1 is not defined

tryItOut 323
Compiling threw: SyntaxError: invalid for/in left-hand side

tryItOut 324
Compiling threw: SyntaxError: invalid XML name

tryItOut 325

tryItOut 326
Compiling threw: SyntaxError: invalid for/in left-hand side

tryItOut 327
It's an iterator!
Iterating threw!
Iterating threw: ReferenceError: reference to undefined XML name @foo

tryItOut 328
Compiling threw: SyntaxError: missing ) in parenthetical

tryItOut 329

tryItOut 330
Compiling threw: SyntaxError: missing ) in parenthetical

tryItOut 331
Running threw: ReferenceError: reference to undefined XML name @foo

tryItOut 332

tryItOut 333
It's an iterator!
Iterating succeeded, iterCount == 1

tryItOut 334
Compiling threw: SyntaxError: invalid for/in left-hand side

tryItOut 335
Compiling threw: TypeError: redeclaration of variable __parent__

tryItOut 336
Compiling threw: SyntaxError: label not found

tryItOut 337
Running threw: ReferenceError: c is not defined

tryItOut 338
Running threw: TypeError: 153 is not a constructor

tryItOut 339
Running threw: ReferenceError: window is not defined

tryItOut 340
Compiling threw: SyntaxError: missing } after let block

tryItOut 341
Compiling threw: SyntaxError: invalid XML name

tryItOut 342

tryItOut 343
Running threw: TypeError: this is not a function

tryItOut 344
Compiling threw: SyntaxError: missing } after let block

tryItOut 345
Compiling threw: SyntaxError: missing ) in parenthetical

tryItOut 346
Compiling threw: SyntaxError: missing variable name

tryItOut 347
Compiling threw: SyntaxError: missing ) after argument list

tryItOut 348
Compiling threw: SyntaxError: missing ) in parenthetical

tryItOut 349
Compiling threw: TypeError: redeclaration of var __count__

tryItOut 350
Compiling threw: SyntaxError: illegal XML character

tryItOut 351
Compiling threw: SyntaxError: invalid continue

tryItOut 352
Compiling threw: SyntaxError: missing variable name

tryItOut 353
Compiling threw: SyntaxError: label not found

tryItOut 354
Compiling threw: SyntaxError: missing ) after condition

tryItOut 355
It's an iterator!
Iterating succeeded, iterCount == 1

tryItOut 356

tryItOut 357
Compiling threw: SyntaxError: missing ( before formal parameters

tryItOut 358
Compiling threw: SyntaxError: missing ) in parenthetical

tryItOut 359
Compiling threw: SyntaxError: invalid continue

tryItOut 360

tryItOut 361
Compiling threw: SyntaxError: missing ) after argument list

tryItOut 362
Compiling threw: SyntaxError: missing ) in parenthetical

tryItOut 363
Compiling threw: SyntaxError: missing ) in parenthetical

tryItOut 364
Compiling threw: SyntaxError: missing variable name

tryItOut 365
Compiling threw: SyntaxError: invalid property id

tryItOut 366
Compiling threw: SyntaxError: invalid continue

tryItOut 367
Compiling threw: SyntaxError: invalid for/in left-hand side

tryItOut 368

tryItOut 369

tryItOut 370
Compiling threw: SyntaxError: invalid for/in left-hand side

tryItOut 371
Compiling threw: SyntaxError: missing ) after condition

tryItOut 372

tryItOut 373
Compiling threw: SyntaxError: missing } after let block

tryItOut 374

tryItOut 375
Compiling threw: SyntaxError: missing ; before statement

tryItOut 376

tryItOut 377
Compiling threw: SyntaxError: illegal XML character

tryItOut 378
It's an iterator!
Iterating succeeded, iterCount == 1

tryItOut 379
Compiling threw: SyntaxError: invalid for/in left-hand side

tryItOut 380

tryItOut 381
Running threw: ReferenceError: reference to undefined XML name *::*

tryItOut 382
Compiling threw: SyntaxError: missing ; before statement

tryItOut 383
Compiling threw: SyntaxError: invalid continue

tryItOut 384

tryItOut 385

tryItOut 386

tryItOut 387

tryItOut 388
Compiling threw: SyntaxError: label not found

tryItOut 389
Running threw: ReferenceError: window is not defined

tryItOut 390
Compiling threw: SyntaxError: missing ; before statement

tryItOut 391

tryItOut 392
Running threw: TypeError: __iterator__ has no properties

tryItOut 393
Compiling threw: SyntaxError: missing } in compound statement

tryItOut 394
Compiling threw: SyntaxError: invalid for/in left-hand side

tryItOut 395

tryItOut 396
uneval returned the string: ["a"]

tryItOut 397
Compiling threw: SyntaxError: missing variable name

tryItOut 398
Compiling threw: SyntaxError: label not found

tryItOut 399
Compiling threw: SyntaxError: invalid break

tryItOut 400
Compiling threw: SyntaxError: invalid for/in left-hand side

tryItOut 401
Running threw: undefined

tryItOut 402

tryItOut 403
Compiling threw: TypeError: redeclaration of var __count__

tryItOut 404
Running threw: TypeError: this.__defineSetter__("prototype", /x/g) has no properties

tryItOut 405

tryItOut 406

tryItOut 407

tryItOut 408

tryItOut 409
Compiling threw: SyntaxError: missing } after let block

tryItOut 410
Compiling threw: SyntaxError: syntax error

tryItOut 411

tryItOut 412
Compiling threw: SyntaxError: invalid break

tryItOut 413

tryItOut 414
Running threw: null

tryItOut 415
Compiling threw: SyntaxError: syntax error

tryItOut 416
Compiling threw: SyntaxError: invalid for/in left-hand side

tryItOut 417
Compiling threw: SyntaxError: missing ; before statement

tryItOut 418
Compiling threw: SyntaxError: missing ) after argument list

tryItOut 419

tryItOut 420

tryItOut 421
Compiling threw: SyntaxError: missing ; after for-loop initializer

tryItOut 422
Compiling threw: SyntaxError: invalid break

tryItOut 423
Compiling threw: SyntaxError: invalid XML name

tryItOut 424
Compiling threw: SyntaxError: missing ) in parenthetical

tryItOut 425
Running threw: ReferenceError: reference to undefined XML name *::*

tryItOut 426

tryItOut 427
Compiling threw: SyntaxError: invalid assignment left-hand side

tryItOut 428

tryItOut 429

tryItOut 430
Compiling threw: SyntaxError: missing = in destructuring declaration

tryItOut 431
Compiling threw: SyntaxError: label not found

tryItOut 432
Compiling threw: SyntaxError: missing variable name

tryItOut 433
Compiling threw: SyntaxError: missing ) in parenthetical

tryItOut 434

tryItOut 435

tryItOut 436
Compiling threw: SyntaxError: missing ) in parenthetical

tryItOut 437

tryItOut 438
Compiling threw: SyntaxError: invalid assignment left-hand side

tryItOut 439

tryItOut 440

tryItOut 441
Running threw: ReferenceError: z1 is not defined

tryItOut 442
Running threw: ReferenceError: reference to undefined XML name *::*

tryItOut 443
Compiling threw: TypeError: redeclaration of const prop

tryItOut 444
Compiling threw: SyntaxError: missing ) in parenthetical

tryItOut 445
Compiling threw: SyntaxError: syntax error

tryItOut 446
Compiling threw: SyntaxError: invalid for/in left-hand side

tryItOut 447
Compiling threw: SyntaxError: missing } after let block

tryItOut 448

tryItOut 449
Compiling threw: TypeError: redeclaration of const __iterator__

tryItOut 450
Compiling threw: SyntaxError: invalid for/in left-hand side

tryItOut 451
Compiling threw: SyntaxError: missing ) after condition

tryItOut 452

tryItOut 453
Compiling threw: SyntaxError: invalid XML tag syntax

tryItOut 454
Compiling threw: SyntaxError: missing { before function body

tryItOut 455
Running threw: ReferenceError: reference to undefined XML name @foo

tryItOut 456
Compiling threw: SyntaxError: syntax error

tryItOut 457

tryItOut 458
Compiling threw: SyntaxError: label not found

tryItOut 459
Compiling threw: SyntaxError: invalid continue

tryItOut 460

tryItOut 461
Compiling threw: SyntaxError: invalid break

tryItOut 462
Compiling threw: SyntaxError: missing ) in parenthetical

tryItOut 463

tryItOut 464
Compiling threw: SyntaxError: invalid for/in left-hand side

tryItOut 465

tryItOut 466

tryItOut 467
Running threw: TypeError: constructor has no properties

tryItOut 468

tryItOut 469
Compiling threw: SyntaxError: missing variable name

tryItOut 470
Compiling threw: SyntaxError: syntax error

tryItOut 471
Running threw: ReferenceError: reference to undefined XML name @foo

tryItOut 472
Running threw: ReferenceError: reference to undefined XML name *

tryItOut 473

tryItOut 474

tryItOut 475
It's an iterator!
Iterating threw!
Iterating threw: ReferenceError: z1 is not defined

tryItOut 476
Compiling threw: SyntaxError: missing ) in parenthetical

tryItOut 477
Compiling threw: SyntaxError: missing ) in parenthetical

tryItOut 478
Running threw: ReferenceError: window is not defined

tryItOut 479
Compiling threw: SyntaxError: missing ) in parenthetical

tryItOut 480
Compiling threw: SyntaxError: missing ; after for-loop initializer

tryItOut 481
Compiling threw: SyntaxError: invalid for/in left-hand side

tryItOut 482
Compiling threw: SyntaxError: missing variable name

tryItOut 483
It's an iterator!
Iterating succeeded, iterCount == 1

tryItOut 484
It's an iterator!
Iterating threw!
Iterating threw: ReferenceError: window is not defined

tryItOut 485
Compiling threw: SyntaxError: missing variable name

tryItOut 486
Compiling threw: SyntaxError: missing : after property id

tryItOut 487
It's an iterator!
Iterating succeeded, iterCount == 1

tryItOut 488
Running threw: ReferenceError: reference to undefined XML name *::*

tryItOut 489
Compiling threw: SyntaxError: missing ) after condition

tryItOut 490
Compiling threw: SyntaxError: missing variable name

tryItOut 491
Compiling threw: SyntaxError: invalid continue

tryItOut 492

tryItOut 493
Compiling threw: SyntaxError: label not found

tryItOut 494

tryItOut 495
Compiling threw: SyntaxError: missing variable name

tryItOut 496
Compiling threw: SyntaxError: missing ) after for-loop control

tryItOut 497

tryItOut 498
Compiling threw: SyntaxError: missing variable name

tryItOut 499
Compiling threw: SyntaxError: invalid break

tryItOut 500
Compiling threw: SyntaxError: invalid for/in left-hand side

tryItOut 501
Running threw: ReferenceError: window is not defined

tryItOut 502
Compiling threw: SyntaxError: missing ; after for-loop initializer

tryItOut 503
Compiling threw: SyntaxError: invalid for/in left-hand side

tryItOut 504
Compiling threw: SyntaxError: invalid break

tryItOut 505
Compiling threw: TypeError: redeclaration of variable __noSuchMethod__

tryItOut 506
Compiling threw: SyntaxError: invalid assignment left-hand side

tryItOut 507
Compiling threw: SyntaxError: missing ) in parenthetical

tryItOut 508
It's an iterator!
Iterating threw!
Iterating threw: TypeError: redeclaration of const __parent__

tryItOut 509

tryItOut 510
Running threw: ReferenceError: reference to undefined XML name *

tryItOut 511
Compiling threw: SyntaxError: missing ) after argument list

tryItOut 512

tryItOut 513

tryItOut 514

tryItOut 515
Compiling threw: SyntaxError: missing ) after argument list

tryItOut 516

tryItOut 517
Running threw: ReferenceError: z2 is not defined

tryItOut 518

tryItOut 519

tryItOut 520
Compiling threw: SyntaxError: invalid for/in left-hand side

tryItOut 521

tryItOut 522
Compiling threw: SyntaxError: missing ) in parenthetical

tryItOut 523
Compiling threw: SyntaxError: label not found

tryItOut 524

tryItOut 525
It's an iterator!
Iterating succeeded, iterCount == 1

tryItOut 526
Compiling threw: SyntaxError: missing ) in parenthetical

tryItOut 527

tryItOut 528

tryItOut 529
Compiling threw: SyntaxError: syntax error

tryItOut 530
It's an iterator!
Iterating threw!
Iterating threw: ReferenceError: window is not defined

tryItOut 531
Compiling threw: SyntaxError: missing variable name

tryItOut 532

tryItOut 533

tryItOut 534

tryItOut 535
Compiling threw: SyntaxError: missing ) after condition

tryItOut 536

tryItOut 537
Compiling threw: SyntaxError: label not found

tryItOut 538

tryItOut 539
Running threw: ReferenceError: reference to undefined XML name *::*

tryItOut 540
Compiling threw: SyntaxError: missing ) in parenthetical

tryItOut 541
It's an iterator!
Iterating succeeded, iterCount == 1

tryItOut 542
Compiling threw: SyntaxError: label not found

tryItOut 543
Compiling threw: SyntaxError: syntax error

tryItOut 544
Compiling threw: TypeError: redeclaration of const __parent__

tryItOut 545

tryItOut 546

tryItOut 547
Compiling threw: SyntaxError: invalid for/in left-hand side

tryItOut 548

tryItOut 549
Compiling threw: SyntaxError: invalid for each loop

tryItOut 550

tryItOut 551
Running threw: ReferenceError: window is not defined

tryItOut 552
Running threw: ReferenceError: window is not defined

tryItOut 553
Compiling threw: SyntaxError: missing ) in parenthetical

tryItOut 554

tryItOut 555
Compiling threw: SyntaxError: syntax error

tryItOut 556
Running threw: ReferenceError: reference to undefined XML name *

tryItOut 557
Compiling threw: SyntaxError: invalid for/in left-hand side

tryItOut 558
Compiling threw: SyntaxError: missing variable name

tryItOut 559

tryItOut 560
Compiling threw: SyntaxError: invalid break

tryItOut 561
Compiling threw: SyntaxError: missing ) in parenthetical

tryItOut 562
Compiling threw: SyntaxError: missing ) in parenthetical

tryItOut 563

tryItOut 564

tryItOut 565
Compiling threw: SyntaxError: missing ) in parenthetical

tryItOut 566
It's an iterator!
Iterating succeeded, iterCount == 1

tryItOut 567
Compiling threw: SyntaxError: invalid continue

tryItOut 568
Compiling threw: SyntaxError: missing formal parameter

tryItOut 569
Compiling threw: SyntaxError: missing variable name

tryItOut 570
Compiling threw: SyntaxError: invalid increment operand

tryItOut 571
Compiling threw: SyntaxError: missing ) in parenthetical

tryItOut 572
Compiling threw: SyntaxError: missing ) in parenthetical

tryItOut 573

tryItOut 574
Compiling threw: SyntaxError: label not found

tryItOut 575

tryItOut 576
Compiling threw: SyntaxError: invalid continue

tryItOut 577

tryItOut 578
Compiling threw: SyntaxError: label not found

tryItOut 579
Compiling threw: SyntaxError: syntax error

tryItOut 580
Compiling threw: SyntaxError: invalid for each loop

tryItOut 581
Compiling threw: SyntaxError: missing ) in parenthetical

tryItOut 582
Compiling threw: SyntaxError: missing variable name

tryItOut 583

tryItOut 584

tryItOut 585
Compiling threw: SyntaxError: invalid continue

tryItOut 586
Compiling threw: SyntaxError: missing { before function body

tryItOut 587
Compiling threw: SyntaxError: invalid break

tryItOut 588
Compiling threw: SyntaxError: syntax error

tryItOut 589

tryItOut 590
Compiling threw: SyntaxError: missing ] in index expression

tryItOut 591
It's an iterator!
Iterating succeeded, iterCount == 1

tryItOut 592
Compiling threw: SyntaxError: syntax error

tryItOut 593
Compiling threw: SyntaxError: missing = in destructuring declaration

tryItOut 594

tryItOut 595

tryItOut 596
Compiling threw: SyntaxError: missing variable name

tryItOut 597

tryItOut 598
Compiling threw: SyntaxError: missing : after property id

tryItOut 599
Compiling threw: SyntaxError: invalid for/in left-hand side

tryItOut 600
Running threw: ReferenceError: reference to undefined XML name *::*

tryItOut 601
Compiling threw: SyntaxError: missing { before function body

tryItOut 602
Compiling threw: SyntaxError: missing variable name

tryItOut 603
Compiling threw: SyntaxError: missing ; before statement

tryItOut 604
Compiling threw: SyntaxError: invalid assignment left-hand side

tryItOut 605
Compiling threw: SyntaxError: invalid continue

tryItOut 606

tryItOut 607

tryItOut 608

tryItOut 609
Compiling threw: SyntaxError: missing variable name

tryItOut 610
It's an iterator!
Iterating threw!
Iterating threw: ReferenceError: reference to undefined XML name *

tryItOut 611
Compiling threw: SyntaxError: invalid break

tryItOut 612

tryItOut 613

tryItOut 614
Compiling threw: SyntaxError: missing variable name

tryItOut 615
Compiling threw: SyntaxError: missing variable name

tryItOut 616
It's an iterator!
Iterating succeeded, iterCount == 1

tryItOut 617
Running threw: undefined

tryItOut 618
Compiling threw: SyntaxError: invalid for each loop

tryItOut 619
Compiling threw: SyntaxError: label not found

tryItOut 620
Compiling threw: SyntaxError: missing ) in parenthetical

tryItOut 621

tryItOut 622
Compiling threw: SyntaxError: missing variable name

tryItOut 623
Compiling threw: SyntaxError: missing : after property id

tryItOut 624
It's an iterator!
Iterating threw!
Iterating threw: TypeError: redeclaration of const __parent__

tryItOut 625
Compiling threw: SyntaxError: invalid break

tryItOut 626
It's an iterator!
Iterating threw!
Iterating threw: ReferenceError: window is not defined

tryItOut 627

tryItOut 628
Compiling threw: SyntaxError: unterminated comment

tryItOut 629
Compiling threw: SyntaxError: syntax error

tryItOut 630
Compiling threw: SyntaxError: invalid destructuring assignment operator

tryItOut 631

tryItOut 632
Compiling threw: SyntaxError: missing variable name

tryItOut 633
It's an iterator!
Iterating threw!
Iterating threw: ReferenceError: window is not defined

tryItOut 634
Compiling threw: SyntaxError: missing } after let block

tryItOut 635
It's an iterator!
Iterating succeeded, iterCount == 1

tryItOut 636
Compiling threw: SyntaxError: invalid for/in left-hand side

tryItOut 637
Running threw: ReferenceError: reference to undefined XML name *

tryItOut 638

tryItOut 639
Compiling threw: SyntaxError: label not found

tryItOut 640
Compiling threw: SyntaxError: invalid for/in left-hand side

tryItOut 641
Compiling threw: SyntaxError: invalid continue

tryItOut 642
Compiling threw: SyntaxError: missing variable name

tryItOut 643
Running threw: ReferenceError: z1 is not defined

tryItOut 644
Compiling threw: SyntaxError: label not found

tryItOut 645
Compiling threw: SyntaxError: invalid for/in left-hand side

tryItOut 646
Compiling threw: SyntaxError: missing ; before statement

tryItOut 647
Running threw: null

tryItOut 648
Compiling threw: SyntaxError: missing variable name

tryItOut 649

tryItOut 650

tryItOut 651
It's an iterator!
Iterating succeeded, iterCount == 1

tryItOut 652
Compiling threw: SyntaxError: invalid continue

tryItOut 653
Compiling threw: SyntaxError: invalid break

tryItOut 654
Compiling threw: SyntaxError: syntax error

tryItOut 655
Compiling threw: SyntaxError: missing ; before statement

tryItOut 656
Compiling threw: SyntaxError: missing ; before statement

tryItOut 657
Compiling threw: SyntaxError: invalid continue

tryItOut 658

tryItOut 659
Compiling threw: SyntaxError: missing variable name

tryItOut 660
Compiling threw: SyntaxError: missing ) in parenthetical

tryItOut 661

tryItOut 662
Running threw: 111

tryItOut 663

tryItOut 664
It's an iterator!
Iterating threw!
Iterating threw: ReferenceError: reference to undefined XML name @foo

tryItOut 665

tryItOut 666
Compiling threw: SyntaxError: missing } after let block

tryItOut 667
Compiling threw: SyntaxError: missing variable name

tryItOut 668
Running threw: TypeError: p.z = 0.2 is not a function

tryItOut 669
It's an iterator!
Iterating threw!
Iterating threw: ReferenceError: reference to undefined XML name @foo

tryItOut 670
Compiling threw: SyntaxError: invalid continue

tryItOut 671
Compiling threw: SyntaxError: missing ) in parenthetical

tryItOut 672

tryItOut 673

tryItOut 674
Compiling threw: SyntaxError: missing ) after condition

tryItOut 675

tryItOut 676
Compiling threw: SyntaxError: label not found

tryItOut 677

tryItOut 678

tryItOut 679
Running threw: ReferenceError: reference to undefined XML name *

tryItOut 680
Compiling threw: SyntaxError: missing ; before statement

tryItOut 681
Compiling threw: SyntaxError: missing variable name

tryItOut 682
Compiling threw: SyntaxError: invalid for/in left-hand side

tryItOut 683

tryItOut 684

tryItOut 685

tryItOut 686

tryItOut 687
Compiling threw: SyntaxError: invalid continue

tryItOut 688
Compiling threw: SyntaxError: missing variable name

tryItOut 689
Compiling threw: SyntaxError: missing variable name

tryItOut 690
Compiling threw: SyntaxError: label not found

tryItOut 691
Compiling threw: SyntaxError: missing ) in parenthetical

tryItOut 692
Compiling threw: SyntaxError: syntax error

tryItOut 693
Running threw: 111

tryItOut 694
Compiling threw: SyntaxError: missing ; before statement

tryItOut 695
Compiling threw: SyntaxError: missing variable name

tryItOut 696
Running threw: ReferenceError: reference to undefined XML name @foo

tryItOut 697
It's an iterator!
Iterating threw!
Iterating threw: ReferenceError: z1 is not defined

tryItOut 698
Compiling threw: SyntaxError: missing ) in parenthetical

tryItOut 699

tryItOut 700
Compiling threw: SyntaxError: label not found

tryItOut 701
Compiling threw: SyntaxError: syntax error

tryItOut 702
Compiling threw: SyntaxError: syntax error

tryItOut 703
Compiling threw: SyntaxError: missing { before function body

tryItOut 704
Compiling threw: SyntaxError: missing variable name

tryItOut 705
Running threw: ReferenceError: z1 is not defined

tryItOut 706

tryItOut 707
Compiling threw: SyntaxError: missing ) in parenthetical

tryItOut 708

tryItOut 709

tryItOut 710

tryItOut 711
Compiling threw: SyntaxError: missing ; after for-loop initializer

tryItOut 712
Compiling threw: SyntaxError: missing ) in parenthetical

tryItOut 713
Compiling threw: SyntaxError: missing { before function body

tryItOut 714
Compiling threw: SyntaxError: missing ) in parenthetical

tryItOut 715

tryItOut 716
Compiling threw: SyntaxError: syntax error

tryItOut 717

tryItOut 718

tryItOut 719
Compiling threw: SyntaxError: missing { before function body

tryItOut 720
Compiling threw: SyntaxError: missing ) after let head

tryItOut 721

tryItOut 722

tryItOut 723
Compiling threw: SyntaxError: invalid assignment left-hand side

tryItOut 724
Compiling threw: SyntaxError: missing variable name

tryItOut 725
Compiling threw: SyntaxError: missing = in destructuring declaration

tryItOut 726

tryItOut 727
Compiling threw: SyntaxError: invalid for/in left-hand side

tryItOut 728
Compiling threw: SyntaxError: missing variable name

tryItOut 729
Compiling threw: SyntaxError: missing { before function body

tryItOut 730

tryItOut 731
Compiling threw: SyntaxError: label not found

tryItOut 732
Compiling threw: SyntaxError: invalid XML name

tryItOut 733
Compiling threw: SyntaxError: missing variable name

tryItOut 734
Compiling threw: SyntaxError: missing variable name

tryItOut 735
Compiling threw: SyntaxError: invalid for each loop

tryItOut 736
Compiling threw: SyntaxError: invalid for/in left-hand side

tryItOut 737

tryItOut 738
Compiling threw: SyntaxError: invalid continue

tryItOut 739
Compiling threw: SyntaxError: invalid break

tryItOut 740
Compiling threw: SyntaxError: invalid for/in left-hand side

tryItOut 741
It's an iterator!
Iterating threw!
Iterating threw: ReferenceError: z1 is not defined

tryItOut 742
Compiling threw: SyntaxError: invalid continue

tryItOut 743

tryItOut 744
Compiling threw: SyntaxError: missing variable name

tryItOut 745
Compiling threw: SyntaxError: missing ) in parenthetical

tryItOut 746
Compiling threw: SyntaxError: missing variable name

tryItOut 747
Compiling threw: SyntaxError: label not found

tryItOut 748
Compiling threw: SyntaxError: invalid for/in left-hand side

tryItOut 749
Compiling threw: SyntaxError: missing ) in parenthetical

tryItOut 750

tryItOut 751

tryItOut 752
Running threw: ReferenceError: window is not defined

tryItOut 753
Compiling threw: SyntaxError: missing ; after for-loop initializer

tryItOut 754
Compiling threw: TypeError: redeclaration of var __iterator__

tryItOut 755

tryItOut 756
It's an iterator!
Iterating succeeded, iterCount == 1

tryItOut 757
Compiling threw: SyntaxError: missing variable name

tryItOut 758
Compiling threw: SyntaxError: invalid break

tryItOut 759

tryItOut 760
Running threw: ReferenceError: reference to undefined XML name *::*

tryItOut 761
Compiling threw: SyntaxError: missing ; before statement

tryItOut 762

tryItOut 763
Compiling threw: SyntaxError: invalid for/in left-hand side

tryItOut 764
Compiling threw: SyntaxError: invalid continue

tryItOut 765
Compiling threw: SyntaxError: missing { before function body

tryItOut 766
It's an iterator!
Iterating succeeded, iterCount == 1

tryItOut 767
Compiling threw: SyntaxError: missing variable name

tryItOut 768

tryItOut 769

tryItOut 770
Compiling threw: SyntaxError: missing ) after argument list

tryItOut 771
Compiling threw: SyntaxError: invalid XML name

tryItOut 772
Running threw: ReferenceError: window is not defined

tryItOut 773
Compiling threw: SyntaxError: syntax error

tryItOut 774
Compiling threw: SyntaxError: missing variable name

tryItOut 775
Compiling threw: TypeError: redeclaration of variable prop

tryItOut 776
Compiling threw: SyntaxError: missing ) in parenthetical

tryItOut 777
Compiling threw: SyntaxError: invalid for/in left-hand side

tryItOut 778
Compiling threw: SyntaxError: invalid for/in left-hand side

tryItOut 779

tryItOut 780
Compiling threw: SyntaxError: missing { before function body

tryItOut 781
Running threw: undefined

tryItOut 782
It's an iterator!
Iterating succeeded, iterCount == 1

tryItOut 783

tryItOut 784
Compiling threw: SyntaxError: invalid continue

tryItOut 785
Compiling threw: SyntaxError: missing ) in parenthetical

tryItOut 786

tryItOut 787

tryItOut 788

tryItOut 789
It's an iterator!
Iterating succeeded, iterCount == 1

tryItOut 790
Compiling threw: SyntaxError: missing ; after for-loop initializer

tryItOut 791
Compiling threw: SyntaxError: syntax error

tryItOut 792

tryItOut 793
It's an iterator!
Iterating succeeded, iterCount == 1

tryItOut 794
Compiling threw: SyntaxError: missing ) after argument list

tryItOut 795
It's an iterator!
Iterating succeeded, iterCount == 1

tryItOut 796

tryItOut 797
Compiling threw: SyntaxError: missing ) in parenthetical

tryItOut 798
Compiling threw: SyntaxError: invalid decrement operand

tryItOut 799

tryItOut 800

tryItOut 801
Compiling threw: SyntaxError: syntax error

tryItOut 802
Compiling threw: SyntaxError: missing variable name

tryItOut 803
Running threw: ReferenceError: window is not defined

tryItOut 804
Running threw: Error: invalid sharp variable use #1#

tryItOut 805
Compiling threw: SyntaxError: invalid assignment left-hand side

tryItOut 806
Compiling threw: SyntaxError: invalid for/in left-hand side

tryItOut 807
Compiling threw: SyntaxError: invalid assignment left-hand side

tryItOut 808
Compiling threw: SyntaxError: missing formal parameter

tryItOut 809

tryItOut 810
Compiling threw: SyntaxError: invalid default XML namespace

tryItOut 811
It's an iterator!
Iterating threw!
Iterating threw: ReferenceError: reference to undefined XML name *

tryItOut 812
Running threw: TypeError: __iterator__ has no properties

tryItOut 813
Compiling threw: SyntaxError: illegal XML character

tryItOut 814

tryItOut 815
Compiling threw: SyntaxError: invalid XML tag syntax

tryItOut 816
Compiling threw: SyntaxError: invalid for/in left-hand side

tryItOut 817

tryItOut 818
Running threw: undefined

tryItOut 819
Compiling threw: SyntaxError: missing ) in parenthetical

tryItOut 820
Compiling threw: TypeError: redeclaration of variable __parent__

tryItOut 821

tryItOut 822
Running threw: ReferenceError: reference to undefined XML name *::*

tryItOut 823
Compiling threw: SyntaxError: label not found

tryItOut 824
Compiling threw: SyntaxError: missing variable name

tryItOut 825
Running threw: ReferenceError: reference to undefined XML name *

tryItOut 826

tryItOut 827
It's an iterator!
Iterating threw!
Iterating threw: ReferenceError: reference to undefined XML name @foo

tryItOut 828

tryItOut 829
Compiling threw: SyntaxError: syntax error

tryItOut 830
It's an iterator!
Iterating succeeded, iterCount == 1

tryItOut 831
Compiling threw: TypeError: redeclaration of var prototype

tryItOut 832
Compiling threw: SyntaxError: invalid for/in left-hand side

tryItOut 833

tryItOut 834
Compiling threw: SyntaxError: missing ( before let head

tryItOut 835
Compiling threw: SyntaxError: missing variable name

tryItOut 836
Compiling threw: SyntaxError: missing ; before statement

tryItOut 837
Compiling threw: SyntaxError: missing ) in parenthetical

tryItOut 838
Compiling threw: SyntaxError: missing { before function body

tryItOut 839

tryItOut 840
Compiling threw: SyntaxError: missing ) in parenthetical

tryItOut 841
Compiling threw: SyntaxError: missing variable name

tryItOut 842
Compiling threw: SyntaxError: invalid for/in left-hand side

tryItOut 843

tryItOut 844
Running threw: undefined

tryItOut 845
Compiling threw: SyntaxError: missing variable name

tryItOut 846
Running threw: ReferenceError: x is not defined

tryItOut 847

tryItOut 848
Running threw: ReferenceError: window is not defined

tryItOut 849

tryItOut 850

tryItOut 851
Compiling threw: SyntaxError: missing ) after condition

tryItOut 852

tryItOut 853
Compiling threw: SyntaxError: missing ) after switch expression

tryItOut 854
Compiling threw: SyntaxError: invalid for/in left-hand side

tryItOut 855

tryItOut 856
Compiling threw: SyntaxError: missing } after let block

tryItOut 857

tryItOut 858

tryItOut 859
Compiling threw: SyntaxError: missing ) after switch expression

tryItOut 860
Compiling threw: SyntaxError: label not found

tryItOut 861
Compiling threw: SyntaxError: yield expression must be parenthesized

tryItOut 862
Compiling threw: SyntaxError: missing { before function body

tryItOut 863
It's an iterator!
Iterating succeeded, iterCount == 0

tryItOut 864
Compiling threw: SyntaxError: invalid for each loop

tryItOut 865

tryItOut 866
Compiling threw: SyntaxError: missing variable name

tryItOut 867
Compiling threw: SyntaxError: missing } after let block

tryItOut 868

tryItOut 869
Compiling threw: SyntaxError: syntax error

tryItOut 870
Compiling threw: SyntaxError: missing ) in parenthetical

tryItOut 871

tryItOut 872
Compiling threw: SyntaxError: missing variable name

tryItOut 873
Compiling threw: SyntaxError: missing { before function body

tryItOut 874

tryItOut 875
Running threw: TypeError: prototype has no properties

tryItOut 876

tryItOut 877

tryItOut 878

tryItOut 879
Compiling threw: SyntaxError: missing variable name

tryItOut 880
Compiling threw: TypeError: redeclaration of formal parameter __parent__

tryItOut 881
Compiling threw: TypeError: redeclaration of variable prop

tryItOut 882
Compiling threw: SyntaxError: label not found

tryItOut 883

tryItOut 884
Compiling threw: SyntaxError: missing { before function body

tryItOut 885
Compiling threw: SyntaxError: invalid decrement operand

tryItOut 886
Compiling threw: SyntaxError: missing } after let block

tryItOut 887

tryItOut 888

tryItOut 889
Compiling threw: SyntaxError: missing ) in parenthetical

tryItOut 890
It's an iterator!
Iterating threw!
Iterating threw: ReferenceError: reference to undefined XML name *

tryItOut 891

tryItOut 892
Running threw: ReferenceError: reference to undefined XML name *

tryItOut 893

tryItOut 894
Compiling threw: SyntaxError: illegal XML character

tryItOut 895
Compiling threw: SyntaxError: missing ; before statement

tryItOut 896

tryItOut 897

tryItOut 898

tryItOut 899
Compiling threw: SyntaxError: invalid assignment left-hand side

tryItOut 900

tryItOut 901

tryItOut 902
Running threw: ReferenceError: reference to undefined XML name *

tryItOut 903
Compiling threw: SyntaxError: invalid increment operand

tryItOut 904

tryItOut 905

tryItOut 906
Compiling threw: SyntaxError: missing ; before statement

tryItOut 907

tryItOut 908
Compiling threw: SyntaxError: invalid for/in left-hand side

tryItOut 909

tryItOut 910
It's an iterator!
Iterating threw!
Iterating threw: ReferenceError: reference to undefined XML name *::*

tryItOut 911
Compiling threw: SyntaxError: syntax error

tryItOut 912

tryItOut 913

tryItOut 914
Compiling threw: SyntaxError: missing variable name

tryItOut 915
Compiling threw: SyntaxError: invalid for/in left-hand side

tryItOut 916
Compiling threw: SyntaxError: missing ) in parenthetical

tryItOut 917

tryItOut 918
It's an iterator!
Iterating threw!
Iterating threw: TypeError: redeclaration of var __count__

tryItOut 919
Running threw: ReferenceError: reference to undefined XML name *::*

tryItOut 920
Compiling threw: SyntaxError: label not found

tryItOut 921
Running threw: ReferenceError: reference to undefined XML name @mozilla.org/js/function::__proto__

tryItOut 922
Compiling threw: SyntaxError: invalid break

tryItOut 923
Compiling threw: SyntaxError: missing ; before statement

tryItOut 924
Compiling threw: SyntaxError: syntax error

tryItOut 925
Compiling threw: SyntaxError: missing variable name

tryItOut 926
Compiling threw: SyntaxError: invalid break

tryItOut 927
It's an iterator!
Iterating succeeded, iterCount == 1

tryItOut 928
Compiling threw: SyntaxError: invalid for/in left-hand side

tryItOut 929
It's an iterator!
Iterating threw!
Iterating threw: TypeError: 3 is not a function

tryItOut 930
Running threw: 1,

tryItOut 931

tryItOut 932
Compiling threw: SyntaxError: label not found

tryItOut 933

tryItOut 934
Compiling threw: SyntaxError: invalid continue

tryItOut 935
Compiling threw: SyntaxError: missing variable name

tryItOut 936

tryItOut 937
Compiling threw: SyntaxError: invalid for/in left-hand side

tryItOut 938
Compiling threw: SyntaxError: label not found

tryItOut 939
It's an iterator!
Iterating succeeded, iterCount == 3

tryItOut 940

tryItOut 941

tryItOut 942
Compiling threw: SyntaxError: missing variable name

tryItOut 943
Compiling threw: SyntaxError: invalid break

tryItOut 944

tryItOut 945
It's an iterator!
Iterating threw!
Iterating threw: ReferenceError: reference to undefined XML name *::*

tryItOut 946

tryItOut 947
Compiling threw: SyntaxError: invalid assignment left-hand side

tryItOut 948
Compiling threw: SyntaxError: missing variable name

tryItOut 949

tryItOut 950

tryItOut 951
Compiling threw: SyntaxError: invalid assignment left-hand side

tryItOut 952
It's an iterator!
Iterating threw!
Iterating threw: ReferenceError: reference to undefined XML name @foo

tryItOut 953

tryItOut 954
Compiling threw: SyntaxError: label not found

tryItOut 955
It's an iterator!
Iterating threw!
Iterating threw: ReferenceError: reference to undefined XML name @foo

tryItOut 956
Compiling threw: SyntaxError: syntax error

tryItOut 957

tryItOut 958

tryItOut 959
Running threw: undefined

tryItOut 960

tryItOut 961
Compiling threw: SyntaxError: missing ) in parenthetical

tryItOut 962

tryItOut 963
Running threw: ReferenceError: window is not defined

tryItOut 964
Compiling threw: SyntaxError: invalid for/in left-hand side

tryItOut 965
Compiling threw: SyntaxError: label not found

tryItOut 966

tryItOut 967
Compiling threw: SyntaxError: invalid increment operand

tryItOut 968
It's an iterator!
Iterating succeeded, iterCount == 1

tryItOut 969

tryItOut 970
Compiling threw: SyntaxError: invalid continue

tryItOut 971
Compiling threw: SyntaxError: invalid for/in left-hand side

tryItOut 972

tryItOut 973

tryItOut 974

tryItOut 975

tryItOut 976

tryItOut 977
Compiling threw: SyntaxError: missing variable name

tryItOut 978
It's an iterator!
Iterating threw!
Iterating threw: TypeError: 0.1 is not a function

tryItOut 979
Running threw: ReferenceError: window is not defined

tryItOut 980
It's an iterator!
Iterating threw!
Iterating threw: ReferenceError: z2 is not defined

tryItOut 981
Compiling threw: SyntaxError: label not found

tryItOut 982
Compiling threw: SyntaxError: missing ; before statement

tryItOut 983
Running threw: ReferenceError: reference to undefined XML name *::*

tryItOut 984
Compiling threw: SyntaxError: missing = in destructuring declaration

tryItOut 985

tryItOut 986
It's an iterator!
Iterating succeeded, iterCount == 1

tryItOut 987
Compiling threw: SyntaxError: syntax error

tryItOut 988
Compiling threw: SyntaxError: label not found

tryItOut 989

tryItOut 990

tryItOut 991

tryItOut 992
Running threw: TypeError: prop has no properties

tryItOut 993
Compiling threw: SyntaxError: invalid assignment left-hand side

tryItOut 994
Compiling threw: SyntaxError: syntax error

tryItOut 995
Running threw: [object Generator]

tryItOut 996

tryItOut 997

tryItOut 998
Compiling threw: SyntaxError: syntax error

tryItOut 999
Compiling threw: SyntaxError: syntax error

tryItOut 1000

ALL OK

Script done on Sat 04 May 2013 06:18:36 AM PDT
