Script started on Sat 04 May 2013 06:18:59 AM PDT
***
Targeting SpiderMonkey / Gecko.

tryItOut 1
Compiling threw: SyntaxError: missing ( before let head

tryItOut 2

tryItOut 3

tryItOut 4

tryItOut 5
Compiling threw: SyntaxError: invalid assignment left-hand side

tryItOut 6

tryItOut 7

tryItOut 8
It's an iterator!
Iterating succeeded, iterCount == 1

tryItOut 9

tryItOut 10
Compiling threw: SyntaxError: invalid assignment left-hand side

tryItOut 11
It's an iterator!
Iterating succeeded, iterCount == 1

tryItOut 12
It's an iterator!
Iterating succeeded, iterCount == 1

tryItOut 13
Running threw: TypeError: this.zzz has no properties

tryItOut 14

tryItOut 15

tryItOut 16
Compiling threw: SyntaxError: syntax error

tryItOut 17

tryItOut 18

tryItOut 19
Running threw: TypeError: this.zzz has no properties

tryItOut 20
Running threw: null

tryItOut 21

tryItOut 22
Compiling threw: SyntaxError: missing = in destructuring declaration

tryItOut 23
It's an iterator!
Iterating succeeded, iterCount == 1

tryItOut 24

tryItOut 25
It's an iterator!
Iterating succeeded, iterCount == 1

tryItOut 26
It's an iterator!
Iterating threw!
Iterating threw: SyntaxError: invalid getter usage

tryItOut 27

tryItOut 28
Compiling threw: SyntaxError: syntax error

tryItOut 29
Compiling threw: SyntaxError: missing while after do-loop body

tryItOut 30

tryItOut 31
Compiling threw: SyntaxError: missing variable name

tryItOut 32

tryItOut 33

tryItOut 34

tryItOut 35
Compiling threw: SyntaxError: missing variable name

tryItOut 36
It's an iterator!
Iterating succeeded, iterCount == 1

tryItOut 37
Compiling threw: SyntaxError: missing { before function body

tryItOut 38

tryItOut 39
Running threw: ReferenceError: window is not defined

tryItOut 40
Compiling threw: SyntaxError: invalid assignment left-hand side

tryItOut 41
Compiling threw: SyntaxError: missing variable name

tryItOut 42

tryItOut 43
Running threw: ReferenceError: window is not defined

tryItOut 44

tryItOut 45
Compiling threw: SyntaxError: missing variable name

tryItOut 46

tryItOut 47
Compiling threw: SyntaxError: syntax error

tryItOut 48
Compiling threw: SyntaxError: invalid assignment left-hand side

tryItOut 49
It's an iterator!
Iterating succeeded, iterCount == 0

tryItOut 50
Running threw: TypeError: XML filtering predicate operator called on incompatible Object

tryItOut 51
It's an iterator!
Iterating succeeded, iterCount == 1

tryItOut 52
Running threw: TypeError: this.zzz has no properties

tryItOut 53

tryItOut 54

tryItOut 55
Compiling threw: SyntaxError: invalid assignment left-hand side

tryItOut 56
Compiling threw: SyntaxError: invalid assignment left-hand side

tryItOut 57
It's an iterator!
Iterating succeeded, iterCount == 1

tryItOut 58
It's an iterator!
Iterating succeeded, iterCount == 1

tryItOut 59

tryItOut 60
Compiling threw: SyntaxError: invalid for/in left-hand side

tryItOut 61

tryItOut 62
It's an iterator!
Iterating threw!
Iterating threw: TypeError: __noSuchMethod__ has no properties

tryItOut 63
Compiling threw: SyntaxError: missing ) after condition

tryItOut 64
Compiling threw: SyntaxError: syntax error

tryItOut 65
Compiling threw: SyntaxError: syntax error

tryItOut 66
Error while trying to determine whether it's an iterator!
The error was: TypeError: Iterator(rv) has invalid __iterator__ value ({})

tryItOut 67
Compiling threw: SyntaxError: missing = in destructuring declaration

tryItOut 68

tryItOut 69
Compiling threw: SyntaxError: missing variable name

tryItOut 70
Compiling threw: SyntaxError: missing ) in parenthetical

tryItOut 71

tryItOut 72

tryItOut 73
It's an iterator!
Iterating threw!
Iterating threw: ReferenceError: window is not defined

tryItOut 74
Compiling threw: TypeError: redeclaration of variable prop

tryItOut 75
Compiling threw: SyntaxError: invalid assignment left-hand side

tryItOut 76

tryItOut 77
Compiling threw: SyntaxError: missing variable name

tryItOut 78
Compiling threw: SyntaxError: syntax error

tryItOut 79

tryItOut 80
Compiling threw: SyntaxError: missing ; after for-loop initializer

tryItOut 81
It's an iterator!
Iterating succeeded, iterCount == 1

tryItOut 82

tryItOut 83
Compiling threw: TypeError: redeclaration of variable __noSuchMethod__

tryItOut 84

tryItOut 85
Compiling threw: SyntaxError: invalid assignment left-hand side

tryItOut 86
Compiling threw: SyntaxError: missing { before function body

tryItOut 87
It's an iterator!
Iterating threw!
Iterating threw: ReferenceError: window is not defined

tryItOut 88

tryItOut 89

tryItOut 90
It's an iterator!
Iterating threw!
Iterating threw: ReferenceError: prototype is not defined

tryItOut 91
It's an iterator!
Iterating succeeded, iterCount == 1

tryItOut 92
Running threw: TypeError: __parent__ has no properties

tryItOut 93
Running threw: TypeError: this.zzz has no properties

tryItOut 94

tryItOut 95

tryItOut 96

tryItOut 97
Running threw: ReferenceError: prototype is not defined

tryItOut 98

tryItOut 99
It's an iterator!
Iterating threw!
Iterating threw: TypeError: this.zzz has no properties

tryItOut 100

tryItOut 101
Running threw: 107

tryItOut 102

tryItOut 103

tryItOut 104

tryItOut 105
It's an iterator!
Iterating succeeded, iterCount == 1

tryItOut 106

tryItOut 107
It's an iterator!
Iterating succeeded, iterCount == 1

tryItOut 108

tryItOut 109
Compiling threw: SyntaxError: invalid for/in left-hand side

tryItOut 110
Compiling threw: SyntaxError: missing ) in parenthetical

tryItOut 111

tryItOut 112

tryItOut 113
Compiling threw: SyntaxError: syntax error

tryItOut 114

tryItOut 115

tryItOut 116
It's an iterator!
Iterating threw!
Iterating threw: ReferenceError: z2 is not defined

tryItOut 117
Running threw: TypeError: XML filtering predicate operator called on incompatible Object

tryItOut 118

tryItOut 119
Compiling threw: SyntaxError: invalid decrement operand

tryItOut 120
Compiling threw: SyntaxError: missing } after let block

tryItOut 121
It's an iterator!
Iterating succeeded, iterCount == 1

tryItOut 122
It's an iterator!
Iterating threw!
Iterating threw: ReferenceError: prop is not defined

tryItOut 123
Compiling threw: SyntaxError: invalid assignment left-hand side

tryItOut 124
Compiling threw: SyntaxError: missing } after let block

tryItOut 125
It's an iterator!
Iterating succeeded, iterCount == 0

tryItOut 126

tryItOut 127

tryItOut 128

tryItOut 129
Compiling threw: SyntaxError: invalid decrement operand

tryItOut 130
Compiling threw: SyntaxError: yield expression must be parenthesized

tryItOut 131

tryItOut 132
It's an iterator!
Iterating succeeded, iterCount == 1

tryItOut 133

tryItOut 134
Compiling threw: SyntaxError: missing { before function body

tryItOut 135
Compiling threw: SyntaxError: missing ) after let head

tryItOut 136

tryItOut 137

tryItOut 138

tryItOut 139
Compiling threw: SyntaxError: missing variable name

tryItOut 140
Compiling threw: SyntaxError: missing variable name

tryItOut 141
Compiling threw: SyntaxError: syntax error

tryItOut 142
Compiling threw: SyntaxError: syntax error

tryItOut 143
Compiling threw: SyntaxError: missing variable name

tryItOut 144

tryItOut 145

tryItOut 146

tryItOut 147
It's an iterator!
Iterating threw!
Iterating threw: ReferenceError: prop is not defined

tryItOut 148
Running threw: TypeError: this.zzz has no properties

tryItOut 149

tryItOut 150
It's an iterator!
Iterating succeeded, iterCount == 1

tryItOut 151
Running threw: ReferenceError: prototype is not defined

tryItOut 152
It's an iterator!
Iterating succeeded, iterCount == 2

tryItOut 153
It's an iterator!
Iterating threw!
Iterating threw: ReferenceError: window is not defined

tryItOut 154

tryItOut 155

tryItOut 156
Compiling threw: SyntaxError: invalid increment operand

tryItOut 157
Compiling threw: SyntaxError: missing variable name

tryItOut 158

tryItOut 159

tryItOut 160

tryItOut 161

tryItOut 162
It's an iterator!
Iterating succeeded, iterCount == 0

tryItOut 163

tryItOut 164
It's an iterator!
Iterating succeeded, iterCount == 1

tryItOut 165

tryItOut 166
Running threw: ReferenceError: window is not defined

tryItOut 167
Compiling threw: SyntaxError: syntax error

tryItOut 168
Running threw: 108

tryItOut 169
It's an iterator!
Iterating threw!
Iterating threw: ReferenceError: window is not defined

tryItOut 170

tryItOut 171

tryItOut 172
Running threw: TypeError: this.zzz has no properties

tryItOut 173
Compiling threw: SyntaxError: syntax error

tryItOut 174

tryItOut 175

tryItOut 176
Running threw: ReferenceError: prototype is not defined

tryItOut 177
Running threw: null

tryItOut 178

tryItOut 179
Running threw: ReferenceError: z1 is not defined

tryItOut 180

tryItOut 181
Compiling threw: SyntaxError: syntax error

tryItOut 182

tryItOut 183
It's an iterator!
Iterating succeeded, iterCount == 1

tryItOut 184
Compiling threw: SyntaxError: invalid for/in left-hand side

tryItOut 185

tryItOut 186
Compiling threw: SyntaxError: missing ) after let head

tryItOut 187

tryItOut 188

tryItOut 189
It's an iterator!
Iterating succeeded, iterCount == 1

tryItOut 190

tryItOut 191
Running threw: ReferenceError: prototype is not defined

tryItOut 192

tryItOut 193

tryItOut 194
Compiling threw: SyntaxError: missing ) in parenthetical

tryItOut 195
Compiling threw: SyntaxError: invalid for/in left-hand side

tryItOut 196
Compiling threw: SyntaxError: missing } after let block

tryItOut 197

tryItOut 198
It's an iterator!
Iterating threw!
Iterating threw: ReferenceError: window is not defined

tryItOut 199
Compiling threw: SyntaxError: missing ) in parenthetical

tryItOut 200
It's an iterator!
Iterating succeeded, iterCount == 0

tryItOut 201

tryItOut 202
Running threw: Error: invalid sharp variable use #1#

tryItOut 203

tryItOut 204
Compiling threw: TypeError: redeclaration of variable __iterator__

tryItOut 205
Compiling threw: SyntaxError: syntax error

tryItOut 206
Compiling threw: SyntaxError: missing ; before statement

tryItOut 207
Running threw: ReferenceError: z1 is not defined

tryItOut 208

tryItOut 209
Compiling threw: SyntaxError: syntax error

tryItOut 210

tryItOut 211
Compiling threw: SyntaxError: missing { before function body

tryItOut 212
Compiling threw: SyntaxError: syntax error

tryItOut 213
Compiling threw: SyntaxError: missing while after do-loop body

tryItOut 214

tryItOut 215
Compiling threw: SyntaxError: syntax error

tryItOut 216

tryItOut 217

tryItOut 218
Compiling threw: SyntaxError: syntax error

tryItOut 219
Compiling threw: SyntaxError: missing ) in parenthetical

tryItOut 220
It's an iterator!
Iterating succeeded, iterCount == 1

tryItOut 221
Running threw: ReferenceError: window is not defined

tryItOut 222
Compiling threw: SyntaxError: missing variable name

tryItOut 223
Compiling threw: SyntaxError: missing ) in parenthetical

tryItOut 224
Compiling threw: SyntaxError: missing } after let block

tryItOut 225
Compiling threw: SyntaxError: invalid assignment left-hand side

tryItOut 226
Compiling threw: SyntaxError: invalid assignment left-hand side

tryItOut 227
It's an iterator!
Iterating succeeded, iterCount == 1

tryItOut 228

tryItOut 229
Compiling threw: SyntaxError: missing name after . operator

tryItOut 230
Compiling threw: SyntaxError: missing } after let block

tryItOut 231

tryItOut 232
Running threw: ReferenceError: window is not defined

tryItOut 233
It's an iterator!
Iterating succeeded, iterCount == 1

tryItOut 234
Running threw: null

tryItOut 235

tryItOut 236

tryItOut 237

tryItOut 238

tryItOut 239
It's an iterator!
Iterating succeeded, iterCount == 1

tryItOut 240

tryItOut 241
Compiling threw: SyntaxError: missing ) in parenthetical

tryItOut 242

tryItOut 243

tryItOut 244
It's an iterator!
Iterating succeeded, iterCount == 0

tryItOut 245

tryItOut 246
Compiling threw: SyntaxError: invalid for/in left-hand side

tryItOut 247
It's an iterator!
Iterating threw!
Iterating threw: ReferenceError: prototype is not defined

tryItOut 248
Compiling threw: SyntaxError: syntax error

tryItOut 249

tryItOut 250

tryItOut 251
Compiling threw: SyntaxError: syntax error

tryItOut 252

tryItOut 253
Running threw: ReferenceError: z2 is not defined

tryItOut 254
Compiling threw: SyntaxError: syntax error

tryItOut 255
Compiling threw: SyntaxError: syntax error

tryItOut 256

tryItOut 257
It's an iterator!
Iterating succeeded, iterCount == 1

tryItOut 258

tryItOut 259
Compiling threw: SyntaxError: missing } after let block

tryItOut 260
Compiling threw: SyntaxError: missing ; before statement

tryItOut 261

tryItOut 262

tryItOut 263
It's an iterator!
Iterating succeeded, iterCount == 1

tryItOut 264

tryItOut 265
It's an iterator!
Iterating threw!
Iterating threw: TypeError: Function.prototype.call called on incompatible [object global]

tryItOut 266

tryItOut 267
Compiling threw: SyntaxError: missing = in destructuring declaration

tryItOut 268
Running threw: [object global]

tryItOut 269

tryItOut 270
It's an iterator!
Iterating threw!
Iterating threw: ReferenceError: window is not defined

tryItOut 271
It's an iterator!
Iterating threw!
Iterating threw: ReferenceError: window is not defined

tryItOut 272
Compiling threw: SyntaxError: syntax error

tryItOut 273
Compiling threw: SyntaxError: missing ) in parenthetical

tryItOut 274
Compiling threw: SyntaxError: missing ) in parenthetical

tryItOut 275
Compiling threw: SyntaxError: missing = in destructuring declaration

tryItOut 276

tryItOut 277
Compiling threw: SyntaxError: invalid assignment left-hand side

tryItOut 278
Compiling threw: SyntaxError: missing variable name

tryItOut 279
It's an iterator!
Iterating succeeded, iterCount == 1

tryItOut 280
It's an iterator!
Iterating succeeded, iterCount == 1

tryItOut 281
Running threw: TypeError: this.zzz has no properties

tryItOut 282
Compiling threw: SyntaxError: invalid for/in left-hand side

tryItOut 283

tryItOut 284

tryItOut 285
Compiling threw: SyntaxError: missing { before function body

tryItOut 286
It's an iterator!
Iterating succeeded, iterCount == 1

tryItOut 287
Compiling threw: SyntaxError: missing ( before let head

tryItOut 288
Compiling threw: SyntaxError: invalid assignment left-hand side

tryItOut 289
Compiling threw: SyntaxError: syntax error

tryItOut 290

tryItOut 291
Compiling threw: SyntaxError: missing ) after let head

tryItOut 292
Compiling threw: SyntaxError: missing ; after for-loop initializer

tryItOut 293
Compiling threw: SyntaxError: invalid for/in left-hand side

tryItOut 294
Compiling threw: SyntaxError: missing } after let block

tryItOut 295
Running threw: [object Object]

tryItOut 296
Running threw: TypeError: __parent__ has no properties

tryItOut 297
Compiling threw: SyntaxError: syntax error

tryItOut 298
Compiling threw: SyntaxError: syntax error

tryItOut 299
Compiling threw: SyntaxError: syntax error

tryItOut 300

tryItOut 301
Running threw: ReferenceError: prototype is not defined

tryItOut 302
Compiling threw: SyntaxError: missing ) in parenthetical

tryItOut 303

tryItOut 304

tryItOut 305
Compiling threw: SyntaxError: missing : after property id

tryItOut 306
Compiling threw: SyntaxError: syntax error

tryItOut 307
Running threw: [object Object]

tryItOut 308

tryItOut 309

tryItOut 310
Running threw: TypeError: this.zzz has no properties

tryItOut 311
It's an iterator!
Iterating succeeded, iterCount == 4

tryItOut 312
Compiling threw: SyntaxError: invalid decrement operand

tryItOut 313
Compiling threw: SyntaxError: missing variable name

tryItOut 314
Compiling threw: SyntaxError: missing { before function body

tryItOut 315

tryItOut 316
Compiling threw: SyntaxError: missing ) in parenthetical

tryItOut 317
Compiling threw: SyntaxError: missing ) in parenthetical

tryItOut 318
Compiling threw: SyntaxError: syntax error

tryItOut 319
Compiling threw: SyntaxError: syntax error

tryItOut 320
Compiling threw: SyntaxError: missing ) in parenthetical

tryItOut 321
Compiling threw: SyntaxError: missing { before function body

tryItOut 322
Compiling threw: SyntaxError: missing } after let block

tryItOut 323

tryItOut 324
Running threw: ReferenceError: window is not defined

tryItOut 325
It's an iterator!
Iterating threw!
Iterating threw: ReferenceError: window is not defined

tryItOut 326

tryItOut 327
Compiling threw: SyntaxError: syntax error

tryItOut 328

tryItOut 329
Compiling threw: SyntaxError: invalid assignment left-hand side

tryItOut 330
It's an iterator!
Iterating threw!
Iterating threw: ReferenceError: z2 is not defined

tryItOut 331

tryItOut 332

tryItOut 333
Compiling threw: SyntaxError: missing ; before statement

tryItOut 334
Compiling threw: SyntaxError: missing ; before statement

tryItOut 335

tryItOut 336
It's an iterator!
Iterating threw!
Iterating threw: ReferenceError: window is not defined

tryItOut 337

tryItOut 338

tryItOut 339
Compiling threw: SyntaxError: invalid decrement operand

tryItOut 340
Compiling threw: SyntaxError: invalid assignment left-hand side

tryItOut 341
It's an iterator!
Iterating succeeded, iterCount == 1

tryItOut 342
Compiling threw: SyntaxError: duplicate label

tryItOut 343
Running threw: ReferenceError: getter is not defined

tryItOut 344

tryItOut 345

tryItOut 346
Compiling threw: SyntaxError: missing } after let block

tryItOut 347
Compiling threw: SyntaxError: syntax error

tryItOut 348

tryItOut 349
Compiling threw: TypeError: redeclaration of variable __proto__

tryItOut 350
It's an iterator!
Iterating threw!
Iterating threw: ReferenceError: prototype is not defined

tryItOut 351
Compiling threw: SyntaxError: invalid increment operand

tryItOut 352
It's an iterator!
Iterating succeeded, iterCount == 1

tryItOut 353
It's an iterator!
Iterating succeeded, iterCount == 1

tryItOut 354

tryItOut 355

tryItOut 356

tryItOut 357
Compiling threw: SyntaxError: invalid for/in left-hand side

tryItOut 358

tryItOut 359

tryItOut 360

tryItOut 361

tryItOut 362
Compiling threw: SyntaxError: missing { before function body

tryItOut 363

tryItOut 364
Running threw: TypeError: [[]] has invalid __iterator__ value [[]]

tryItOut 365
It's an iterator!
Iterating succeeded, iterCount == 2

tryItOut 366
Compiling threw: SyntaxError: missing ) in parenthetical

tryItOut 367
Compiling threw: SyntaxError: invalid increment operand

tryItOut 368
Compiling threw: SyntaxError: missing { before function body

tryItOut 369

tryItOut 370

tryItOut 371
Compiling threw: SyntaxError: missing variable name

tryItOut 372
Compiling threw: SyntaxError: missing ) in parenthetical

tryItOut 373
Compiling threw: SyntaxError: missing { before function body

tryItOut 374
Compiling threw: SyntaxError: invalid for/in left-hand side

tryItOut 375

tryItOut 376

tryItOut 377
Running threw: undefined

tryItOut 378
Running threw: TypeError: Function.prototype.call called on incompatible [object global]

tryItOut 379

tryItOut 380

tryItOut 381
Compiling threw: SyntaxError: missing : after property id

tryItOut 382
It's an iterator!
Iterating succeeded, iterCount == 1

tryItOut 383
It's an iterator!
Iterating succeeded, iterCount == 0

tryItOut 384
It's an iterator!
Iterating threw!
Iterating threw: TypeError: Function.prototype.call called on incompatible [object global]

tryItOut 385
Compiling threw: SyntaxError: invalid for/in left-hand side

tryItOut 386

tryItOut 387

tryItOut 388
Compiling threw: SyntaxError: missing } after let block

tryItOut 389
Running threw: TypeError: Function.prototype.call called on incompatible [object global]

tryItOut 390
It's an iterator!
Iterating threw!
Iterating threw: TypeError: Function.prototype.call called on incompatible [object global]

tryItOut 391

tryItOut 392
Compiling threw: SyntaxError: missing } after let block

tryItOut 393
It's an iterator!
Iterating threw!
Iterating threw: ReferenceError: prototype is not defined

tryItOut 394

tryItOut 395
Running threw: TypeError: __parent__ has no properties

tryItOut 396
Compiling threw: SyntaxError: syntax error

tryItOut 397

tryItOut 398
Compiling threw: SyntaxError: missing variable name

tryItOut 399
It's an iterator!
Iterating succeeded, iterCount == 1

tryItOut 400
Compiling threw: SyntaxError: missing { before function body

tryItOut 401
Compiling threw: SyntaxError: missing variable name

tryItOut 402

tryItOut 403

tryItOut 404
Compiling threw: SyntaxError: syntax error

tryItOut 405

tryItOut 406
Compiling threw: SyntaxError: missing = in destructuring declaration

tryItOut 407

tryItOut 408
It's an iterator!
Iterating succeeded, iterCount == 0

tryItOut 409
It's an iterator!
Iterating succeeded, iterCount == 1

tryItOut 410

tryItOut 411

tryItOut 412
It's an iterator!
Iterating threw!
Iterating threw: TypeError: __iterator__ has no properties

tryItOut 413

tryItOut 414
It's an iterator!
Iterating succeeded, iterCount == 2

tryItOut 415
Compiling threw: SyntaxError: syntax error

tryItOut 416
Running threw: [object Object]

tryItOut 417

tryItOut 418
It's an iterator!
Iterating threw!
Iterating threw: TypeError: Function.prototype.call called on incompatible [object global]

tryItOut 419
Compiling threw: SyntaxError: invalid for/in left-hand side

tryItOut 420

tryItOut 421

tryItOut 422

tryItOut 423

tryItOut 424
It's an iterator!
Iterating succeeded, iterCount == 1

tryItOut 425
Running threw: TypeError: prop has no properties

tryItOut 426

tryItOut 427

tryItOut 428

tryItOut 429

tryItOut 430

tryItOut 431
It's an iterator!
Iterating succeeded, iterCount == 0

tryItOut 432

tryItOut 433
It's an iterator!
Iterating threw!
Iterating threw: ReferenceError: window is not defined

tryItOut 434
It's an iterator!
Iterating threw!
Iterating threw: TypeError: [[]] has invalid __iterator__ value [[]]

tryItOut 435
Compiling threw: SyntaxError: syntax error

tryItOut 436
Running threw: ReferenceError: window is not defined

tryItOut 437
Compiling threw: SyntaxError: duplicate label

tryItOut 438
Compiling threw: SyntaxError: missing ) in parenthetical

tryItOut 439
Compiling threw: SyntaxError: duplicate label

tryItOut 440

tryItOut 441
Compiling threw: SyntaxError: missing ; after for-loop initializer

tryItOut 442
Compiling threw: SyntaxError: missing variable name

tryItOut 443

tryItOut 444

tryItOut 445

tryItOut 446
It's an iterator!
Iterating succeeded, iterCount == 1

tryItOut 447

tryItOut 448

tryItOut 449
It's an iterator!
Iterating succeeded, iterCount == 1

tryItOut 450

tryItOut 451
It's an iterator!
Iterating succeeded, iterCount == 1

tryItOut 452
It's an iterator!
Iterating threw!
Iterating threw: TypeError: Function.prototype.call called on incompatible [object global]

tryItOut 453

tryItOut 454
It's an iterator!
Iterating succeeded, iterCount == 1

tryItOut 455
Compiling threw: SyntaxError: syntax error

tryItOut 456

tryItOut 457

tryItOut 458
Running threw: ReferenceError: window is not defined

tryItOut 459
Compiling threw: SyntaxError: syntax error

tryItOut 460
Compiling threw: SyntaxError: missing ; after for-loop initializer

tryItOut 461
Compiling threw: SyntaxError: missing variable name

tryItOut 462
Running threw: TypeError: this.zzz has no properties

tryItOut 463
Compiling threw: SyntaxError: invalid for/in left-hand side

tryItOut 464
It's an iterator!
Iterating succeeded, iterCount == 1

tryItOut 465
Compiling threw: SyntaxError: missing variable name

tryItOut 466
Compiling threw: SyntaxError: missing ; before statement

tryItOut 467

tryItOut 468

tryItOut 469
Running threw: ReferenceError: window is not defined

tryItOut 470
Running threw: ReferenceError: z1 is not defined

tryItOut 471
Compiling threw: SyntaxError: invalid property id

tryItOut 472
Compiling threw: SyntaxError: missing { before function body

tryItOut 473

tryItOut 474
Compiling threw: SyntaxError: missing ; before statement

tryItOut 475
Compiling threw: SyntaxError: missing } after let block

tryItOut 476

tryItOut 477
It's an iterator!
Iterating succeeded, iterCount == 1

tryItOut 478

tryItOut 479
It's an iterator!
Iterating threw!
Iterating threw: TypeError: [] is not a constructor

tryItOut 480
It's an iterator!
Iterating succeeded, iterCount == 1

tryItOut 481
Compiling threw: SyntaxError: missing { before function body

tryItOut 482
Running threw: TypeError: this.zzz has no properties

tryItOut 483
Running threw: TypeError: Function.prototype.call called on incompatible [object global]

tryItOut 484

tryItOut 485

tryItOut 486
It's an iterator!
Iterating threw!
Iterating threw: ReferenceError: window is not defined

tryItOut 487
It's an iterator!
Iterating threw!
Iterating threw: TypeError: redeclaration of const __parent__

tryItOut 488

tryItOut 489
Compiling threw: SyntaxError: missing ) in parenthetical

tryItOut 490
Running threw: TypeError: this.zzz has no properties

tryItOut 491
Compiling threw: SyntaxError: invalid for/in left-hand side

tryItOut 492
Compiling threw: SyntaxError: missing { before function body

tryItOut 493

tryItOut 494
Error while trying to determine whether it's an iterator!
The error was: TypeError: Iterator(rv) has invalid __iterator__ value [[]]
uneval returned the string: [{__iterator__:[[]]}]
Skipping re-eval test

tryItOut 495
Compiling threw: SyntaxError: invalid assignment left-hand side

tryItOut 496
It's an iterator!
Iterating succeeded, iterCount == 1

tryItOut 497

tryItOut 498
Compiling threw: SyntaxError: missing } after let block

tryItOut 499
It's an iterator!
Iterating succeeded, iterCount == 1

tryItOut 500
Running threw: Error: invalid sharp variable use #1#

tryItOut 501
Compiling threw: SyntaxError: missing } after let block

tryItOut 502
Compiling threw: SyntaxError: syntax error

tryItOut 503
Compiling threw: SyntaxError: missing ) after for-loop control

tryItOut 504
Running threw: undefined

tryItOut 505

tryItOut 506

tryItOut 507
Compiling threw: SyntaxError: missing variable name

tryItOut 508
Compiling threw: SyntaxError: invalid for/in left-hand side

tryItOut 509

tryItOut 510
Compiling threw: SyntaxError: missing ) in parenthetical

tryItOut 511
It's an iterator!
Iterating succeeded, iterCount == 0

tryItOut 512

tryItOut 513

tryItOut 514
Compiling threw: SyntaxError: missing ) in parenthetical

tryItOut 515

tryItOut 516
Compiling threw: SyntaxError: missing variable name

tryItOut 517

tryItOut 518

tryItOut 519

tryItOut 520

tryItOut 521
Compiling threw: SyntaxError: invalid assignment left-hand side

tryItOut 522

tryItOut 523
It's an iterator!
Iterating succeeded, iterCount == 1

tryItOut 524
Running threw: TypeError: this.zzz has no properties

tryItOut 525
Running threw: ReferenceError: prototype is not defined

tryItOut 526
Compiling threw: SyntaxError: missing ( before let head

tryItOut 527
Compiling threw: SyntaxError: missing { before function body

tryItOut 528
Compiling threw: SyntaxError: syntax error

tryItOut 529
Compiling threw: TypeError: redeclaration of var prop

tryItOut 530
Compiling threw: SyntaxError: missing ; before statement

tryItOut 531
It's an iterator!
Iterating succeeded, iterCount == 1

tryItOut 532
Compiling threw: SyntaxError: syntax error

tryItOut 533
Compiling threw: SyntaxError: missing ) in parenthetical

tryItOut 534
Compiling threw: SyntaxError: syntax error

tryItOut 535
It's an iterator!
Iterating succeeded, iterCount == 1

tryItOut 536
It's an iterator!
Iterating succeeded, iterCount == 1

tryItOut 537

tryItOut 538

tryItOut 539

tryItOut 540

tryItOut 541
Compiling threw: SyntaxError: syntax error

tryItOut 542
It's an iterator!
Iterating succeeded, iterCount == 1

tryItOut 543

tryItOut 544
Running threw: undefined

tryItOut 545
Compiling threw: SyntaxError: invalid assignment left-hand side

tryItOut 546
It's an iterator!
Iterating succeeded, iterCount == 1

tryItOut 547
Compiling threw: SyntaxError: missing ) in parenthetical

tryItOut 548
Compiling threw: SyntaxError: missing variable name

tryItOut 549

tryItOut 550
Compiling threw: SyntaxError: missing ) in parenthetical

tryItOut 551

tryItOut 552
Compiling threw: SyntaxError: missing ) after formal parameters

tryItOut 553
Compiling threw: SyntaxError: missing ; after for-loop initializer

tryItOut 554
Compiling threw: SyntaxError: missing ) in parenthetical

tryItOut 555

tryItOut 556
Compiling threw: SyntaxError: invalid assignment left-hand side

tryItOut 557

tryItOut 558

tryItOut 559
Running threw: ReferenceError: window is not defined

tryItOut 560
Compiling threw: SyntaxError: syntax error

tryItOut 561

tryItOut 562
Running threw: TypeError: this.zzz has no properties

tryItOut 563
It's an iterator!
Iterating succeeded, iterCount == 1

tryItOut 564
Compiling threw: SyntaxError: syntax error

tryItOut 565

tryItOut 566
Running threw: ReferenceError: window is not defined

tryItOut 567

tryItOut 568
Compiling threw: SyntaxError: missing { before function body

tryItOut 569
It's an iterator!
Iterating succeeded, iterCount == 1

tryItOut 570
It's an iterator!
Iterating succeeded, iterCount == 1

tryItOut 571

tryItOut 572

tryItOut 573

tryItOut 574
Compiling threw: SyntaxError: missing ) after let head

tryItOut 575

tryItOut 576
It's an iterator!
Iterating succeeded, iterCount == 1

tryItOut 577

tryItOut 578

tryItOut 579
Compiling threw: SyntaxError: invalid for/in left-hand side

tryItOut 580

tryItOut 581

tryItOut 582

tryItOut 583
It's an iterator!
Iterating succeeded, iterCount == 1

tryItOut 584

tryItOut 585

tryItOut 586
Compiling threw: SyntaxError: invalid for/in left-hand side

tryItOut 587
Compiling threw: SyntaxError: invalid destructuring assignment operator

tryItOut 588

tryItOut 589
Running threw: ReferenceError: window is not defined

tryItOut 590
Compiling threw: SyntaxError: syntax error

tryItOut 591

tryItOut 592
Compiling threw: SyntaxError: syntax error

tryItOut 593

tryItOut 594
It's an iterator!
Iterating threw!
Iterating threw: TypeError: Function.prototype.call called on incompatible [object global]

tryItOut 595
It's an iterator!
Iterating threw!
Iterating threw: ReferenceError: z1 is not defined

tryItOut 596

tryItOut 597

tryItOut 598

tryItOut 599
Compiling threw: TypeError: redeclaration of var __iterator__

tryItOut 600
Compiling threw: SyntaxError: missing name after . operator

tryItOut 601
Compiling threw: SyntaxError: missing } in compound statement

tryItOut 602
It's an iterator!
Iterating succeeded, iterCount == 1

tryItOut 603

tryItOut 604
It's an iterator!
Iterating succeeded, iterCount == 1

tryItOut 605
Running threw: TypeError: this.zzz has no properties

tryItOut 606
Compiling threw: SyntaxError: missing ) in parenthetical

tryItOut 607

tryItOut 608
Running threw: TypeError: this.zzz has no properties

tryItOut 609
Compiling threw: SyntaxError: invalid assignment left-hand side

tryItOut 610

tryItOut 611
Running threw: Error: invalid sharp variable use #1#

tryItOut 612

tryItOut 613
Running threw: ReferenceError: z2 is not defined

tryItOut 614
Compiling threw: SyntaxError: missing ) in parenthetical

tryItOut 615

tryItOut 616

tryItOut 617
Running threw: ReferenceError: z2 is not defined

tryItOut 618
Compiling threw: SyntaxError: missing ; after for-loop initializer

tryItOut 619
Compiling threw: TypeError: redeclaration of variable prop

tryItOut 620
Compiling threw: SyntaxError: invalid for/in left-hand side

tryItOut 621

tryItOut 622

tryItOut 623
Compiling threw: SyntaxError: missing } after let block

tryItOut 624

tryItOut 625

tryItOut 626
Compiling threw: SyntaxError: missing ; before statement

tryItOut 627

tryItOut 628
Compiling threw: SyntaxError: missing ; before statement

tryItOut 629
Running threw: TypeError: this.zzz has no properties

tryItOut 630
It's an iterator!
Iterating succeeded, iterCount == 1

tryItOut 631
It's an iterator!
Iterating succeeded, iterCount == 1

tryItOut 632

tryItOut 633

tryItOut 634
Running threw: TypeError: this.zzz has no properties

tryItOut 635
Compiling threw: SyntaxError: duplicate label

tryItOut 636
It's an iterator!
Iterating succeeded, iterCount == 1

tryItOut 637
Compiling threw: TypeError: redeclaration of const __iterator__

tryItOut 638
Compiling threw: SyntaxError: unterminated regular expression literal

tryItOut 639
Running threw: TypeError: this.zzz has no properties

tryItOut 640

tryItOut 641
Compiling threw: SyntaxError: missing ) in parenthetical

tryItOut 642
Compiling threw: SyntaxError: invalid decrement operand

tryItOut 643
Compiling threw: SyntaxError: invalid decrement operand

tryItOut 644

tryItOut 645
Compiling threw: SyntaxError: invalid for/in left-hand side

tryItOut 646
It's an iterator!
Iterating succeeded, iterCount == 1

tryItOut 647
Running threw: TypeError: [[]] has invalid __iterator__ value [[]]

tryItOut 648
Running threw: TypeError: __parent__ is not a function

tryItOut 649
Compiling threw: SyntaxError: missing } after let block

tryItOut 650

tryItOut 651

tryItOut 652

tryItOut 653
It's an iterator!
Iterating threw!
Iterating threw: TypeError: Function.prototype.call called on incompatible [object global]

tryItOut 654

tryItOut 655

tryItOut 656
It's an iterator!
Iterating succeeded, iterCount == 1

tryItOut 657

tryItOut 658
It's an iterator!
Iterating succeeded, iterCount == 1

tryItOut 659
Compiling threw: SyntaxError: invalid decrement operand

tryItOut 660
Running threw: [object global]

tryItOut 661

tryItOut 662

tryItOut 663
Compiling threw: SyntaxError: invalid increment operand

tryItOut 664
Compiling threw: SyntaxError: missing } after let block

tryItOut 665

tryItOut 666
Compiling threw: SyntaxError: missing ) in parenthetical

tryItOut 667
Compiling threw: SyntaxError: invalid assignment left-hand side

tryItOut 668
Compiling threw: SyntaxError: missing ) after formal parameters

tryItOut 669

tryItOut 670
Running threw: TypeError: this.zzz has no properties

tryItOut 671

tryItOut 672
Compiling threw: SyntaxError: missing ) in parenthetical

tryItOut 673
Compiling threw: SyntaxError: duplicate label

tryItOut 674
Compiling threw: SyntaxError: missing name after . operator

tryItOut 675

tryItOut 676
Compiling threw: SyntaxError: missing ; before statement

tryItOut 677

tryItOut 678
Compiling threw: SyntaxError: missing { before function body

tryItOut 679

tryItOut 680

tryItOut 681
Compiling threw: SyntaxError: invalid assignment left-hand side

tryItOut 682
Compiling threw: SyntaxError: syntax error

tryItOut 683
It's an iterator!
Iterating threw!
Iterating threw: ReferenceError: window is not defined

tryItOut 684
Running threw: ReferenceError: get is not defined

tryItOut 685

tryItOut 686

tryItOut 687

tryItOut 688
Compiling threw: SyntaxError: missing } after let block

tryItOut 689

tryItOut 690
Compiling threw: SyntaxError: invalid assignment left-hand side

tryItOut 691
Compiling threw: SyntaxError: missing { before function body

tryItOut 692
Compiling threw: SyntaxError: syntax error

tryItOut 693
Compiling threw: SyntaxError: missing ; before statement

tryItOut 694
Compiling threw: SyntaxError: invalid for/in left-hand side

tryItOut 695
It's an iterator!
Iterating succeeded, iterCount == 1

tryItOut 696
Running threw: [object global]

tryItOut 697
Running threw: TypeError: this.zzz has no properties

tryItOut 698
Compiling threw: SyntaxError: invalid assignment left-hand side

tryItOut 699
It's an iterator!
Iterating succeeded, iterCount == 1

tryItOut 700

tryItOut 701

tryItOut 702

tryItOut 703
Compiling threw: SyntaxError: missing variable name

tryItOut 704
Compiling threw: SyntaxError: missing ; after for-loop initializer

tryItOut 705
It's an iterator!
Iterating succeeded, iterCount == 2

tryItOut 706
Compiling threw: SyntaxError: duplicate label

tryItOut 707
Compiling threw: SyntaxError: invalid property id

tryItOut 708
Compiling threw: SyntaxError: invalid assignment left-hand side

tryItOut 709

tryItOut 710
Running threw: TypeError: [[]] has invalid __iterator__ value [[]]

tryItOut 711

tryItOut 712

tryItOut 713

tryItOut 714
Compiling threw: SyntaxError: missing ) in parenthetical

tryItOut 715
Compiling threw: SyntaxError: missing { before function body

tryItOut 716
Compiling threw: SyntaxError: yield expression must be parenthesized

tryItOut 717
It's an iterator!
Iterating threw!
Iterating threw: ReferenceError: z1 is not defined

tryItOut 718

tryItOut 719
It's an iterator!
Iterating succeeded, iterCount == 2

tryItOut 720

tryItOut 721

tryItOut 722
Running threw: TypeError: this.zzz has no properties

tryItOut 723

tryItOut 724
Compiling threw: SyntaxError: duplicate label

tryItOut 725

tryItOut 726
Running threw: [object Object]

tryItOut 727
Compiling threw: SyntaxError: missing ; after for-loop condition

tryItOut 728
Compiling threw: SyntaxError: missing ; before statement

tryItOut 729
It's an iterator!
Iterating succeeded, iterCount == 1

tryItOut 730
Compiling threw: SyntaxError: missing variable name

tryItOut 731

tryItOut 732
Compiling threw: SyntaxError: missing { before function body

tryItOut 733
It's an iterator!
Iterating succeeded, iterCount == 0

tryItOut 734
Compiling threw: TypeError: redeclaration of variable __noSuchMethod__

tryItOut 735
It's an iterator!
Iterating succeeded, iterCount == 1

tryItOut 736
Compiling threw: SyntaxError: invalid for/in left-hand side

tryItOut 737
It's an iterator!
Iterating threw!
Iterating threw: ReferenceError: window is not defined

tryItOut 738
It's an iterator!
Iterating threw!
Iterating threw: TypeError: [[]] has invalid __iterator__ value [[]]

tryItOut 739
Compiling threw: SyntaxError: syntax error

tryItOut 740

tryItOut 741

tryItOut 742
Compiling threw: SyntaxError: missing variable name

tryItOut 743
Compiling threw: SyntaxError: missing ) after argument list

tryItOut 744

tryItOut 745
Compiling threw: SyntaxError: missing ; after for-loop initializer

tryItOut 746
It's an iterator!
Iterating succeeded, iterCount == 1

tryItOut 747
Compiling threw: SyntaxError: invalid for/in left-hand side

tryItOut 748

tryItOut 749
It's an iterator!
Iterating succeeded, iterCount == 1

tryItOut 750
Compiling threw: SyntaxError: invalid assignment left-hand side

tryItOut 751
It's an iterator!
Iterating succeeded, iterCount == 1

tryItOut 752
It's an iterator!
Iterating succeeded, iterCount == 0

tryItOut 753
It's an iterator!
Iterating succeeded, iterCount == 1

tryItOut 754
Running threw: <y>
  <z/>
</y>

tryItOut 755
It's an iterator!
Iterating succeeded, iterCount == 0

tryItOut 756
It's an iterator!
Iterating threw!
Iterating threw: TypeError: this.zzz has no properties

tryItOut 757
Compiling threw: SyntaxError: invalid increment operand

tryItOut 758
Error while trying to determine whether it's an iterator!
The error was: TypeError: Iterator(rv) has invalid __iterator__ value [[]]
uneval returned the string: [undefined, undefined]

tryItOut 759
Running threw: TypeError: this.zzz has no properties

tryItOut 760
Running threw: TypeError: [[]] has invalid __iterator__ value [[]]

tryItOut 761

tryItOut 762
Compiling threw: SyntaxError: missing { before function body

tryItOut 763
Running threw: <y>
  <z/>
</y>

tryItOut 764
It's an iterator!
Iterating succeeded, iterCount == 2

tryItOut 765

tryItOut 766

tryItOut 767

tryItOut 768

tryItOut 769
It's an iterator!
Iterating succeeded, iterCount == 1

tryItOut 770
Compiling threw: SyntaxError: missing ) in parenthetical

tryItOut 771
Running threw: [object Object]

tryItOut 772

tryItOut 773
It's an iterator!
Iterating succeeded, iterCount == 1

tryItOut 774
It's an iterator!
Iterating succeeded, iterCount == 1

tryItOut 775
It's an iterator!
Iterating succeeded, iterCount == 1

tryItOut 776

tryItOut 777

tryItOut 778
It's an iterator!
Iterating succeeded, iterCount == 1

tryItOut 779
Compiling threw: SyntaxError: invalid assignment left-hand side

tryItOut 780
It's an iterator!
Iterating threw!
Iterating threw: ReferenceError: window is not defined

tryItOut 781

tryItOut 782
It's an iterator!
Iterating threw!
Iterating threw: TypeError: Function.prototype.call called on incompatible [object global]

tryItOut 783

tryItOut 784

tryItOut 785
Compiling threw: SyntaxError: invalid for/in left-hand side

tryItOut 786
Compiling threw: SyntaxError: invalid assignment left-hand side

tryItOut 787
Compiling threw: SyntaxError: invalid for/in left-hand side

tryItOut 788

tryItOut 789

tryItOut 790
Compiling threw: SyntaxError: missing { before function body

tryItOut 791

tryItOut 792

tryItOut 793
It's an iterator!
Iterating threw!
Iterating threw: ReferenceError: x is not defined

tryItOut 794
Compiling threw: SyntaxError: missing = in destructuring declaration

tryItOut 795
Compiling threw: SyntaxError: missing variable name

tryItOut 796

tryItOut 797

tryItOut 798
Compiling threw: SyntaxError: missing ; before statement

tryItOut 799

tryItOut 800
Compiling threw: SyntaxError: syntax error

tryItOut 801

tryItOut 802
Compiling threw: SyntaxError: invalid for/in left-hand side

tryItOut 803
Compiling threw: SyntaxError: missing } after let block

tryItOut 804

tryItOut 805
Compiling threw: SyntaxError: syntax error

tryItOut 806
It's an iterator!
Iterating succeeded, iterCount == 1

tryItOut 807
Compiling threw: TypeError: generator function anonymous returns a value

tryItOut 808
It's an iterator!
Iterating threw!
Iterating threw: ReferenceError: window is not defined

tryItOut 809

tryItOut 810
Compiling threw: SyntaxError: invalid assignment left-hand side

tryItOut 811
Running threw: TypeError: Function.prototype.call called on incompatible [object global]

tryItOut 812
Compiling threw: SyntaxError: invalid assignment left-hand side

tryItOut 813
Compiling threw: SyntaxError: syntax error

tryItOut 814
Compiling threw: SyntaxError: syntax error

tryItOut 815
Compiling threw: SyntaxError: invalid assignment left-hand side

tryItOut 816

tryItOut 817

tryItOut 818

tryItOut 819
Running threw: ReferenceError: x is not defined

tryItOut 820
Compiling threw: SyntaxError: invalid assignment left-hand side

tryItOut 821

tryItOut 822
Compiling threw: SyntaxError: syntax error

tryItOut 823
Compiling threw: SyntaxError: missing variable name

tryItOut 824
Compiling threw: SyntaxError: invalid property id

tryItOut 825
Compiling threw: SyntaxError: invalid assignment left-hand side

tryItOut 826
It's an iterator!
Iterating succeeded, iterCount == 1

tryItOut 827
Compiling threw: SyntaxError: missing variable name

tryItOut 828
Compiling threw: SyntaxError: missing { before function body

tryItOut 829
Compiling threw: SyntaxError: syntax error

tryItOut 830
Running threw: SyntaxError: invalid setter usage

tryItOut 831
Running threw: ReferenceError: z1 is not defined

tryItOut 832
Compiling threw: SyntaxError: missing variable name

tryItOut 833
Error while trying to determine whether it's an iterator!
The error was: TypeError: Iterator(rv) has invalid __iterator__ value [[]]
uneval returned the string: [1]

tryItOut 834
Running threw: TypeError: this.zzz has no properties

tryItOut 835
Compiling threw: SyntaxError: missing variable name

tryItOut 836
Compiling threw: TypeError: redeclaration of variable constructor

tryItOut 837
It's an iterator!
Iterating succeeded, iterCount == 1

tryItOut 838

tryItOut 839
Error while trying to determine whether it's an iterator!
The error was: TypeError: Iterator(rv) has invalid __iterator__ value [[]]

tryItOut 840

tryItOut 841
Compiling threw: SyntaxError: missing variable name

tryItOut 842
It's an iterator!
Iterating succeeded, iterCount == 1

tryItOut 843
Compiling threw: SyntaxError: yield expression must be parenthesized

tryItOut 844
Running threw: ReferenceError: z1 is not defined

tryItOut 845
Compiling threw: SyntaxError: missing variable name

tryItOut 846
Compiling threw: SyntaxError: syntax error

tryItOut 847
Running threw: null

tryItOut 848
Compiling threw: SyntaxError: missing { before function body

tryItOut 849

tryItOut 850

tryItOut 851
Compiling threw: SyntaxError: invalid for/in left-hand side

tryItOut 852
Running threw: TypeError: this.zzz has no properties

tryItOut 853

tryItOut 854

tryItOut 855
Compiling threw: SyntaxError: invalid assignment left-hand side

tryItOut 856
Running threw: ReferenceError: window is not defined

tryItOut 857
Running threw: TypeError: redeclaration of var __proto__

tryItOut 858
Running threw: TypeError: this.zzz has no properties

tryItOut 859

tryItOut 860

tryItOut 861

tryItOut 862

tryItOut 863

tryItOut 864
It's an iterator!
Iterating succeeded, iterCount == 1

tryItOut 865
Running threw: Error: invalid sharp variable use #1#

tryItOut 866
It's an iterator!
Iterating threw!
Iterating threw: ReferenceError: z2 is not defined

tryItOut 867
Compiling threw: SyntaxError: invalid assignment left-hand side

tryItOut 868

tryItOut 869
Compiling threw: SyntaxError: missing = in destructuring declaration

tryItOut 870

tryItOut 871
It's an iterator!
Iterating succeeded, iterCount == 0

tryItOut 872

tryItOut 873
It's an iterator!
Iterating succeeded, iterCount == 0

tryItOut 874

tryItOut 875
Compiling threw: SyntaxError: missing ) in parenthetical

tryItOut 876
Compiling threw: SyntaxError: syntax error

tryItOut 877

tryItOut 878
Compiling threw: SyntaxError: missing ) in parenthetical

tryItOut 879
It's an iterator!
Iterating succeeded, iterCount == 1

tryItOut 880
Compiling threw: SyntaxError: missing = in destructuring declaration

tryItOut 881
Compiling threw: TypeError: redeclaration of formal parameter __noSuchMethod__

tryItOut 882
It's an iterator!
Iterating succeeded, iterCount == 1

tryItOut 883

tryItOut 884
Compiling threw: SyntaxError: missing variable name

tryItOut 885

tryItOut 886
It's an iterator!
Iterating threw!
Iterating threw: ReferenceError: z1 is not defined

tryItOut 887
Compiling threw: TypeError: redeclaration of variable __proto__

tryItOut 888
It's an iterator!
Iterating succeeded, iterCount == 0

tryItOut 889

tryItOut 890

tryItOut 891
Running threw: TypeError: [[]] has invalid __iterator__ value [[]]

tryItOut 892
Compiling threw: SyntaxError: missing ; after for-loop initializer

tryItOut 893
Running threw: TypeError: this.zzz has no properties

tryItOut 894
It's an iterator!
Iterating succeeded, iterCount == 2

tryItOut 895

tryItOut 896
It's an iterator!
Iterating succeeded, iterCount == 1

tryItOut 897

tryItOut 898
Compiling threw: SyntaxError: missing = in destructuring declaration

tryItOut 899
Compiling threw: SyntaxError: syntax error

tryItOut 900
It's an iterator!
Iterating threw!
Iterating threw: TypeError: [[]] has invalid __iterator__ value [[]]

tryItOut 901
Running threw: ReferenceError: window is not defined

tryItOut 902

tryItOut 903

tryItOut 904
It's an iterator!
Iterating threw!
Iterating threw: ReferenceError: window is not defined

tryItOut 905
It's an iterator!
Iterating succeeded, iterCount == 2

tryItOut 906
Compiling threw: SyntaxError: missing } after let block

tryItOut 907
It's an iterator!
Iterating succeeded, iterCount == 1

tryItOut 908
Compiling threw: SyntaxError: missing } after let block

tryItOut 909
It's an iterator!
Iterating succeeded, iterCount == 0

tryItOut 910
Compiling threw: SyntaxError: missing variable name

tryItOut 911

tryItOut 912
It's an iterator!
Iterating threw!
Iterating threw: TypeError: Function.prototype.call called on incompatible [object global]

tryItOut 913

tryItOut 914
Compiling threw: SyntaxError: invalid assignment left-hand side

tryItOut 915
Compiling threw: SyntaxError: invalid assignment left-hand side

tryItOut 916

tryItOut 917
Compiling threw: SyntaxError: missing while after do-loop body

tryItOut 918
Running threw: [object Object]

tryItOut 919

tryItOut 920

tryItOut 921
It's an iterator!
Iterating succeeded, iterCount == 0

tryItOut 922
Compiling threw: SyntaxError: invalid assignment left-hand side

tryItOut 923
Running threw: TypeError: __parent__ has no properties

tryItOut 924
Compiling threw: TypeError: redeclaration of variable __noSuchMethod__

tryItOut 925
It's an iterator!
Iterating threw!
Iterating threw: ReferenceError: window is not defined

tryItOut 926
Compiling threw: SyntaxError: syntax error

tryItOut 927
Compiling threw: SyntaxError: invalid property id

tryItOut 928
It's an iterator!
Iterating succeeded, iterCount == 1

tryItOut 929
Compiling threw: SyntaxError: missing variable name

tryItOut 930
It's an iterator!
Iterating threw!
Iterating threw: ReferenceError: reference to undefined property "window"

tryItOut 931

tryItOut 932
Compiling threw: SyntaxError: missing ; after for-loop initializer

tryItOut 933
It's an iterator!
Iterating succeeded, iterCount == 1

tryItOut 934
Compiling threw: SyntaxError: invalid property id

tryItOut 935
Compiling threw: SyntaxError: missing { before function body

tryItOut 936
Compiling threw: SyntaxError: missing variable name

tryItOut 937

tryItOut 938
Running threw: null

tryItOut 939
Compiling threw: SyntaxError: missing ) in parenthetical

tryItOut 940
It's an iterator!
Iterating succeeded, iterCount == 2

tryItOut 941

tryItOut 942

tryItOut 943
It's an iterator!
Iterating threw!
Iterating threw: TypeError: Function.prototype.call called on incompatible [object global]

tryItOut 944
Compiling threw: SyntaxError: missing } after let block

tryItOut 945
Compiling threw: SyntaxError: missing variable name

tryItOut 946
Compiling threw: SyntaxError: duplicate label

tryItOut 947
Running threw: TypeError: __parent__ has no properties

tryItOut 948

tryItOut 949
Running threw: TypeError: [[]] has invalid __iterator__ value [[]]

tryItOut 950
It's an iterator!
Iterating threw!
Iterating threw: TypeError: Function.prototype.call called on incompatible [object global]

tryItOut 951
It's an iterator!
Iterating threw!
Iterating threw: TypeError: XML filtering predicate operator called on incompatible Object

tryItOut 952
It's an iterator!
Iterating threw!
Iterating threw: TypeError: [[]] has invalid __iterator__ value [[]]

tryItOut 953

tryItOut 954

tryItOut 955
Running threw: TypeError: constructor has no properties

tryItOut 956
Compiling threw: SyntaxError: missing { before function body

tryItOut 957
Running threw: TypeError: this.zzz has no properties

tryItOut 958
Compiling threw: SyntaxError: invalid for/in left-hand side

tryItOut 959
It's an iterator!
Iterating succeeded, iterCount == 1

tryItOut 960
It's an iterator!
Iterating succeeded, iterCount == 1

tryItOut 961

tryItOut 962

tryItOut 963

tryItOut 964

tryItOut 965
It's an iterator!
Iterating succeeded, iterCount == 1

tryItOut 966
Running threw: undefined

tryItOut 967
Compiling threw: SyntaxError: missing variable name

tryItOut 968
Compiling threw: SyntaxError: missing { before function body

tryItOut 969
It's an iterator!
Iterating succeeded, iterCount == 1

tryItOut 970
Compiling threw: SyntaxError: invalid assignment left-hand side

tryItOut 971
Compiling threw: SyntaxError: missing variable name

tryItOut 972
Compiling threw: SyntaxError: missing variable name

tryItOut 973
Compiling threw: SyntaxError: syntax error

tryItOut 974
Running threw: [object global]

tryItOut 975

tryItOut 976
Compiling threw: SyntaxError: syntax error

tryItOut 977

tryItOut 978

tryItOut 979

tryItOut 980
It's an iterator!
Iterating succeeded, iterCount == 0

tryItOut 981

tryItOut 982
Compiling threw: SyntaxError: missing variable name

tryItOut 983
It's an iterator!
Iterating succeeded, iterCount == 1

tryItOut 984
Compiling threw: SyntaxError: invalid for/in left-hand side

tryItOut 985

tryItOut 986
It's an iterator!
Iterating succeeded, iterCount == 1

tryItOut 987

tryItOut 988
It's an iterator!
Iterating threw!
Iterating threw: ReferenceError: z2 is not defined

tryItOut 989

tryItOut 990

tryItOut 991

tryItOut 992
It's an iterator!
Iterating threw!
Iterating threw: ReferenceError: window is not defined

tryItOut 993

tryItOut 994
It's an iterator!
Iterating threw!
Iterating threw: ReferenceError: window is not defined

tryItOut 995

tryItOut 996

tryItOut 997
It's an iterator!
Iterating threw!
Iterating threw: ReferenceError: getter is not defined

tryItOut 998
Compiling threw: SyntaxError: missing ) in parenthetical

tryItOut 999
Compiling threw: SyntaxError: syntax error

tryItOut 1000
Compiling threw: SyntaxError: missing ( before let head

ALL OK

Script done on Sat 04 May 2013 06:19:00 AM PDT
