Script started on Sat 04 May 2013 06:21:18 AM PDT
***
Targeting SpiderMonkey / Gecko.

tryItOut 1

tryItOut 2

tryItOut 3
Compiling threw: SyntaxError: missing ; before statement

tryItOut 4

tryItOut 5
Compiling threw: SyntaxError: missing ) in parenthetical

tryItOut 6

tryItOut 7
Compiling threw: SyntaxError: invalid for/in left-hand side

tryItOut 8

tryItOut 9

tryItOut 10
Compiling threw: TypeError: redeclaration of variable constructor

tryItOut 11
Running threw: SyntaxError: invalid setter usage

tryItOut 12
Compiling threw: SyntaxError: missing ) after switch expression

tryItOut 13

tryItOut 14
Compiling threw: SyntaxError: missing ) after switch expression

tryItOut 15
Compiling threw: SyntaxError: missing { before function body

tryItOut 16
Running threw: TypeError: __parent__ has no properties

tryItOut 17
before 87200, after 87200, break 01abb000

tryItOut 18
Compiling threw: SyntaxError: missing ) in parenthetical

tryItOut 19
Compiling threw: SyntaxError: invalid for/in left-hand side

tryItOut 20
Compiling threw: SyntaxError: missing { before function body

tryItOut 21
Compiling threw: SyntaxError: missing } after let block

tryItOut 22
Running threw: ReferenceError: prototype is not defined

tryItOut 23

tryItOut 24

tryItOut 25
Compiling threw: SyntaxError: missing } after let block

tryItOut 26

tryItOut 27
Compiling threw: SyntaxError: label not found

tryItOut 28
Compiling threw: SyntaxError: missing variable name

tryItOut 29

tryItOut 30

tryItOut 31
Compiling threw: SyntaxError: missing ) in parenthetical

tryItOut 32
Running threw: TypeError: /x/g.isPrototypeOf("") is not a function

tryItOut 33
Running threw: TypeError: this.zzz has no properties

tryItOut 34

tryItOut 35

tryItOut 36

tryItOut 37
Compiling threw: SyntaxError: invalid break

tryItOut 38
Compiling threw: SyntaxError: missing ; after for-loop initializer

tryItOut 39
Compiling threw: TypeError: redeclaration of var prototype

tryItOut 40
Compiling threw: SyntaxError: invalid assignment left-hand side

tryItOut 41

tryItOut 42
Running threw: ReferenceError: z1 is not defined

tryItOut 43

tryItOut 44
Compiling threw: SyntaxError: syntax error

tryItOut 45
Compiling threw: SyntaxError: missing ; before statement

tryItOut 46
Running threw: ReferenceError: prototype is not defined

tryItOut 47

tryItOut 48
Compiling threw: SyntaxError: missing ) in parenthetical

tryItOut 49

tryItOut 50
Compiling threw: SyntaxError: invalid property id

tryItOut 51
Compiling threw: SyntaxError: invalid break

tryItOut 52
Compiling threw: SyntaxError: invalid continue

tryItOut 53

tryItOut 54
Compiling threw: SyntaxError: label not found

tryItOut 55

tryItOut 56
Compiling threw: SyntaxError: invalid for/in left-hand side

tryItOut 57

tryItOut 58

tryItOut 59
Compiling threw: SyntaxError: invalid continue

tryItOut 60

tryItOut 61
Compiling threw: SyntaxError: missing ; before statement

tryItOut 62
Running threw: TypeError: this.zzz has no properties

tryItOut 63

tryItOut 64
Compiling threw: TypeError: redeclaration of variable prototype

tryItOut 65

tryItOut 66
Running threw: TypeError: this.zzz has no properties

tryItOut 67
Compiling threw: SyntaxError: missing { before function body

tryItOut 68

tryItOut 69
Running threw: ReferenceError: prop is not defined

tryItOut 70
Running threw: [object StopIteration]

tryItOut 71
Compiling threw: TypeError: redeclaration of variable prototype

tryItOut 72
Compiling threw: SyntaxError: syntax error

tryItOut 73
Running threw: ReferenceError: Exception is not defined

tryItOut 74
Compiling threw: SyntaxError: missing = in destructuring declaration

tryItOut 75
before 104640, after 104640, break 01acc000

tryItOut 76

tryItOut 77
Compiling threw: SyntaxError: invalid for/in left-hand side

tryItOut 78
Compiling threw: SyntaxError: invalid break

tryItOut 79
Compiling threw: SyntaxError: invalid continue

tryItOut 80
Compiling threw: SyntaxError: missing ; before statement

tryItOut 81
Compiling threw: SyntaxError: missing variable name

tryItOut 82

tryItOut 83
Compiling threw: SyntaxError: missing ; before statement

tryItOut 84
uneval returned the string: [1, undefined]

tryItOut 85

tryItOut 86

tryItOut 87
Running threw: [object StopIteration]

tryItOut 88

tryItOut 89

tryItOut 90
Compiling threw: SyntaxError: missing { before function body

tryItOut 91
Compiling threw: TypeError: redeclaration of var __iterator__

tryItOut 92

tryItOut 93
Compiling threw: SyntaxError: invalid for/in left-hand side

tryItOut 94

tryItOut 95
Compiling threw: SyntaxError: label not found

tryItOut 96
Compiling threw: SyntaxError: missing variable name

tryItOut 97

tryItOut 98
Compiling threw: SyntaxError: invalid break

tryItOut 99

tryItOut 100
Compiling threw: SyntaxError: invalid for/in left-hand side

tryItOut 101
Compiling threw: SyntaxError: invalid continue

tryItOut 102
Compiling threw: SyntaxError: missing ; after for-loop initializer

tryItOut 103
Compiling threw: SyntaxError: missing ) in parenthetical

tryItOut 104
Compiling threw: SyntaxError: invalid continue

tryItOut 105
Compiling threw: SyntaxError: illegal character

tryItOut 106
Compiling threw: SyntaxError: missing ) in parenthetical

tryItOut 107
Compiling threw: SyntaxError: invalid for/in left-hand side

tryItOut 108
Compiling threw: SyntaxError: syntax error

tryItOut 109
Compiling threw: SyntaxError: invalid for/in left-hand side

tryItOut 110

tryItOut 111

tryItOut 112

tryItOut 113

tryItOut 114

tryItOut 115
Compiling threw: SyntaxError: invalid for/in left-hand side

tryItOut 116

tryItOut 117
Compiling threw: SyntaxError: invalid for/in left-hand side

tryItOut 118
Running threw: TypeError: this.zzz has no properties

tryItOut 119

tryItOut 120

tryItOut 121

tryItOut 122
Compiling threw: SyntaxError: missing { before function body

tryItOut 123

tryItOut 124
Compiling threw: SyntaxError: missing variable name

tryItOut 125
Compiling threw: SyntaxError: missing { before function body

tryItOut 126
Compiling threw: SyntaxError: missing ) in parenthetical

tryItOut 127

tryItOut 128
Running threw: TypeError: this.zzz has no properties

tryItOut 129

tryItOut 130
Compiling threw: SyntaxError: syntax error

tryItOut 131
Compiling threw: SyntaxError: missing ; before statement

tryItOut 132
Compiling threw: SyntaxError: invalid for/in left-hand side

tryItOut 133
Compiling threw: SyntaxError: missing { before function body

tryItOut 134
Compiling threw: SyntaxError: missing { before function body

tryItOut 135

tryItOut 136
Compiling threw: SyntaxError: syntax error

tryItOut 137
Compiling threw: SyntaxError: syntax error

tryItOut 138
Compiling threw: SyntaxError: missing ) after argument list

tryItOut 139
before 104640, after 104640, break 01aed000

tryItOut 140

tryItOut 141

tryItOut 142
Compiling threw: SyntaxError: invalid for/in left-hand side

tryItOut 143
Compiling threw: SyntaxError: missing variable name

tryItOut 144
Compiling threw: SyntaxError: invalid continue

tryItOut 145
Compiling threw: SyntaxError: missing { before function body

tryItOut 146

tryItOut 147
Compiling threw: SyntaxError: invalid assignment left-hand side

tryItOut 148
Compiling threw: SyntaxError: missing ) in parenthetical

tryItOut 149

tryItOut 150

tryItOut 151

tryItOut 152

tryItOut 153
Compiling threw: SyntaxError: missing } after let block

tryItOut 154

tryItOut 155
Compiling threw: SyntaxError: invalid assignment left-hand side

tryItOut 156

tryItOut 157
Compiling threw: SyntaxError: missing variable name

tryItOut 158

tryItOut 159

tryItOut 160

tryItOut 161
Running threw: 1,

tryItOut 162

tryItOut 163
Compiling threw: SyntaxError: missing = in destructuring declaration

tryItOut 164
Compiling threw: SyntaxError: invalid continue

tryItOut 165
Compiling threw: SyntaxError: missing variable name

tryItOut 166
Compiling threw: SyntaxError: missing ; before statement

tryItOut 167

tryItOut 168
Running threw: TypeError: this.zzz has no properties

tryItOut 169

tryItOut 170

tryItOut 171
Compiling threw: SyntaxError: missing = in destructuring declaration

tryItOut 172

tryItOut 173
Compiling threw: SyntaxError: invalid for/in left-hand side

tryItOut 174
Running threw: ReferenceError: z1 is not defined

tryItOut 175

tryItOut 176
Running threw: ReferenceError: z1 is not defined

tryItOut 177
Compiling threw: TypeError: redeclaration of variable constructor

tryItOut 178

tryItOut 179
before 104640, after 104640, break 01aed000
before 104640, after 104640, break 01aed000
Running threw: TypeError: [/x/g].yoyo is not a function

tryItOut 180
Running threw: [object Object]

tryItOut 181

tryItOut 182

tryItOut 183
Compiling threw: SyntaxError: label not found

tryItOut 184
Compiling threw: SyntaxError: syntax error

tryItOut 185
Compiling threw: SyntaxError: missing = in destructuring declaration

tryItOut 186
Compiling threw: SyntaxError: label not found

tryItOut 187

tryItOut 188
Compiling threw: SyntaxError: missing { before function body

tryItOut 189
Compiling threw: SyntaxError: label not found

tryItOut 190
Compiling threw: SyntaxError: missing ; before statement

tryItOut 191
Compiling threw: SyntaxError: invalid continue

tryItOut 192
Compiling threw: SyntaxError: missing : after property id

tryItOut 193
Compiling threw: SyntaxError: missing ; before statement

tryItOut 194
Compiling threw: SyntaxError: label not found

tryItOut 195
Compiling threw: SyntaxError: label not found

tryItOut 196
Compiling threw: SyntaxError: missing ; before statement

tryItOut 197
Compiling threw: SyntaxError: missing { before function body

tryItOut 198

tryItOut 199
Running threw: TypeError: this.zzz has no properties

tryItOut 200

tryItOut 201

tryItOut 202
Compiling threw: SyntaxError: invalid for/in left-hand side

tryItOut 203
Compiling threw: SyntaxError: label not found

tryItOut 204
Compiling threw: SyntaxError: invalid for/in left-hand side

tryItOut 205
Compiling threw: SyntaxError: invalid continue

tryItOut 206
Compiling threw: TypeError: redeclaration of variable __count__

tryItOut 207

tryItOut 208

tryItOut 209
Compiling threw: SyntaxError: invalid for each loop

tryItOut 210

tryItOut 211
Compiling threw: SyntaxError: missing : after property id

tryItOut 212
Compiling threw: SyntaxError: syntax error

tryItOut 213
Compiling threw: SyntaxError: invalid for/in left-hand side

tryItOut 214
Compiling threw: SyntaxError: missing formal parameter

tryItOut 215
Compiling threw: SyntaxError: missing identifier in catch

tryItOut 216
Running threw: Error: invalid sharp variable use #1#

tryItOut 217

tryItOut 218

tryItOut 219

tryItOut 220

tryItOut 221

tryItOut 222
Compiling threw: SyntaxError: missing : after property id

tryItOut 223
before 104640, after 104640, break 01aed000

tryItOut 224

tryItOut 225
Running threw: ReferenceError: __noSuchMethod__ is not defined

tryItOut 226
Compiling threw: SyntaxError: invalid for/in left-hand side

tryItOut 227
Compiling threw: SyntaxError: missing { before function body

tryItOut 228
Compiling threw: TypeError: redeclaration of variable __iterator__

tryItOut 229

tryItOut 230

tryItOut 231

tryItOut 232

tryItOut 233
Compiling threw: TypeError: redeclaration of variable __count__

tryItOut 234

tryItOut 235
Compiling threw: SyntaxError: missing variable name

tryItOut 236
Running threw: ReferenceError: z1 is not defined

tryItOut 237

tryItOut 238
Compiling threw: SyntaxError: missing ; before statement

tryItOut 239
Compiling threw: SyntaxError: invalid for/in left-hand side

tryItOut 240
Compiling threw: SyntaxError: missing { before function body

tryItOut 241
Compiling threw: SyntaxError: invalid for/in left-hand side

tryItOut 242

tryItOut 243

tryItOut 244
Compiling threw: SyntaxError: invalid for/in left-hand side

tryItOut 245
Compiling threw: SyntaxError: invalid assignment left-hand side

tryItOut 246
Compiling threw: SyntaxError: label not found

tryItOut 247
Compiling threw: SyntaxError: invalid break

tryItOut 248
Compiling threw: SyntaxError: invalid default XML namespace

tryItOut 249
Compiling threw: SyntaxError: invalid for/in left-hand side

tryItOut 250

tryItOut 251
Compiling threw: SyntaxError: missing { before function body

tryItOut 252
before 104640, after 104640, break 01aed000

tryItOut 253

tryItOut 254
Compiling threw: SyntaxError: missing ; before statement

tryItOut 255
Compiling threw: SyntaxError: invalid for/in left-hand side

tryItOut 256
Compiling threw: SyntaxError: invalid for/in left-hand side

tryItOut 257
Compiling threw: SyntaxError: missing ; before statement

tryItOut 258
Compiling threw: SyntaxError: syntax error

tryItOut 259
Running threw: [object StopIteration]

tryItOut 260

tryItOut 261
Compiling threw: SyntaxError: missing ) in parenthetical

tryItOut 262

tryItOut 263

tryItOut 264

tryItOut 265
Running threw: TypeError: this.zzz has no properties

tryItOut 266

tryItOut 267
Compiling threw: SyntaxError: missing name after . operator

tryItOut 268

tryItOut 269
Compiling threw: SyntaxError: syntax error

tryItOut 270
Compiling threw: SyntaxError: missing ; before statement

tryItOut 271
Compiling threw: SyntaxError: missing = in destructuring declaration

tryItOut 272

tryItOut 273
Compiling threw: SyntaxError: invalid assignment left-hand side

tryItOut 274
Compiling threw: SyntaxError: missing { before function body

tryItOut 275
Compiling threw: SyntaxError: invalid for/in left-hand side

tryItOut 276

tryItOut 277

tryItOut 278
Compiling threw: SyntaxError: invalid for each loop

tryItOut 279
Compiling threw: SyntaxError: invalid for/in left-hand side

tryItOut 280
Compiling threw: SyntaxError: missing ) after switch expression

tryItOut 281
Compiling threw: SyntaxError: missing ; before statement

tryItOut 282

tryItOut 283

tryItOut 284
Compiling threw: SyntaxError: missing name after . operator

tryItOut 285

tryItOut 286
Compiling threw: SyntaxError: missing { before function body

tryItOut 287
Compiling threw: SyntaxError: missing { before function body

tryItOut 288
Running threw: TypeError: this.zzz has no properties

tryItOut 289
Compiling threw: SyntaxError: missing ; before statement

tryItOut 290
Compiling threw: SyntaxError: syntax error

tryItOut 291
Compiling threw: SyntaxError: label not found

tryItOut 292

tryItOut 293
Compiling threw: SyntaxError: missing variable name

tryItOut 294
Compiling threw: SyntaxError: missing ) after switch expression

tryItOut 295
Running threw: ReferenceError: yyy is not defined

tryItOut 296
Compiling threw: SyntaxError: missing } after let block

tryItOut 297

tryItOut 298
Compiling threw: SyntaxError: missing ) in parenthetical

tryItOut 299
Compiling threw: SyntaxError: invalid assignment left-hand side

tryItOut 300
Compiling threw: SyntaxError: label not found

tryItOut 301
before 122080, after 122080, break 01aff000

tryItOut 302

tryItOut 303

tryItOut 304

tryItOut 305
Running threw: TypeError: this.zzz has no properties

tryItOut 306
Running threw: 

tryItOut 307
Compiling threw: SyntaxError: label not found

tryItOut 308

tryItOut 309

tryItOut 310
Compiling threw: SyntaxError: invalid for/in left-hand side

tryItOut 311
Compiling threw: SyntaxError: missing variable name

tryItOut 312
Compiling threw: SyntaxError: syntax error

tryItOut 313
Compiling threw: SyntaxError: invalid assignment left-hand side

tryItOut 314

tryItOut 315
Compiling threw: SyntaxError: syntax error

tryItOut 316
Compiling threw: SyntaxError: label not found

tryItOut 317

tryItOut 318

tryItOut 319
Compiling threw: SyntaxError: invalid assignment left-hand side

tryItOut 320
Compiling threw: SyntaxError: invalid destructuring assignment operator

tryItOut 321
Running threw: /x/g

tryItOut 322
Compiling threw: SyntaxError: missing variable name

tryItOut 323
function anonymous() {
    while ((/x/.yoyo(-Infinity).__noSuchMethod__ = /x/g.__iterator__ = 0)) {
        gc();
    }
}
    vs    
function anonymous() {
    while (/x/.yoyo(-Infinity).__noSuchMethod__ = /x/g.__iterator__ = 0) {
        gc();
    }
}
Both decompile as:
function anonymous() {
    while ((/x/.yoyo(- Infinity).__noSuchMethod__ = /x/g.__iterator__ = 0)) {
        gc();
    }
}
function anonymous() {
    while ((/x/.yoyo(-Infinity).__noSuchMethod__ = /x/g.__iterator__ = 0)) {
        gc();
    }
}
    vs    
function anonymous() {
    while (/x/.yoyo(-Infinity).__noSuchMethod__ = /x/g.__iterator__ = 0) {
        gc();
    }
}
Both decompile as:
function anonymous() {
    while ((/x/.yoyo(- Infinity).__noSuchMethod__ = /x/g.__iterator__ = 0)) {
        gc();
    }
}

tryItOut 324

tryItOut 325

tryItOut 326

tryItOut 327
Running threw: TypeError: /x/[[1]] has no properties

tryItOut 328
Compiling threw: TypeError: redeclaration of variable prototype

tryItOut 329
Compiling threw: SyntaxError: missing ) in parenthetical

tryItOut 330

tryItOut 331

tryItOut 332

tryItOut 333
Compiling threw: SyntaxError: missing ) in parenthetical

tryItOut 334
Compiling threw: SyntaxError: syntax error

tryItOut 335
Compiling threw: SyntaxError: missing ) in parenthetical

tryItOut 336
Compiling threw: SyntaxError: missing ) in parenthetical

tryItOut 337
Running threw: ReferenceError: z1 is not defined

tryItOut 338
Compiling threw: SyntaxError: missing variable name

tryItOut 339
Compiling threw: SyntaxError: label not found

tryItOut 340
Compiling threw: SyntaxError: missing { before function body

tryItOut 341

tryItOut 342

tryItOut 343
before 122080, after 122080, break 01aff000

tryItOut 344
Compiling threw: SyntaxError: missing ) in parenthetical

tryItOut 345
Compiling threw: SyntaxError: missing ) in parenthetical

tryItOut 346

tryItOut 347
Compiling threw: SyntaxError: missing } after property list

tryItOut 348

tryItOut 349

tryItOut 350
Compiling threw: SyntaxError: missing ; before statement

tryItOut 351

tryItOut 352

tryItOut 353
Compiling threw: SyntaxError: missing { before function body

tryItOut 354
Compiling threw: SyntaxError: missing ) in parenthetical

tryItOut 355
Compiling threw: SyntaxError: missing variable name

tryItOut 356
Compiling threw: SyntaxError: invalid assignment left-hand side

tryItOut 357
Compiling threw: SyntaxError: syntax error

tryItOut 358
Compiling threw: SyntaxError: label not found

tryItOut 359
Compiling threw: SyntaxError: invalid for/in left-hand side

tryItOut 360

tryItOut 361

tryItOut 362

tryItOut 363
Compiling threw: SyntaxError: syntax error

tryItOut 364

tryItOut 365
Compiling threw: SyntaxError: invalid for/in left-hand side

tryItOut 366

tryItOut 367
Running threw: TypeError: [[1]] is not a constructor

tryItOut 368
Compiling threw: SyntaxError: missing : after property id

tryItOut 369

tryItOut 370
Running threw: TypeError: this.zzz has no properties

tryItOut 371
Compiling threw: SyntaxError: missing ; before statement

tryItOut 372

tryItOut 373

tryItOut 374
Compiling threw: SyntaxError: invalid continue

tryItOut 375

tryItOut 376

tryItOut 377

tryItOut 378

tryItOut 379
Compiling threw: SyntaxError: missing ; before statement

tryItOut 380
Compiling threw: SyntaxError: invalid assignment left-hand side

tryItOut 381

tryItOut 382

tryItOut 383
Compiling threw: SyntaxError: missing ; before statement

tryItOut 384

tryItOut 385
Compiling threw: SyntaxError: syntax error

tryItOut 386

tryItOut 387

tryItOut 388
Compiling threw: SyntaxError: invalid for/in left-hand side

tryItOut 389

tryItOut 390

tryItOut 391
Compiling threw: SyntaxError: label not found

tryItOut 392
Compiling threw: SyntaxError: label not found

tryItOut 393
before 122080, after 122080, break 01aff000

tryItOut 394
Compiling threw: SyntaxError: invalid for each loop

tryItOut 395
Running threw: ReferenceError: z1 is not defined

tryItOut 396

tryItOut 397

tryItOut 398
Compiling threw: SyntaxError: missing { before function body

tryItOut 399
Compiling threw: SyntaxError: missing variable name

tryItOut 400
Compiling threw: SyntaxError: missing { before function body

tryItOut 401
Compiling threw: SyntaxError: invalid for/in left-hand side

tryItOut 402

tryItOut 403
Compiling threw: SyntaxError: missing { before function body

tryItOut 404
Compiling threw: SyntaxError: missing ) in parenthetical

tryItOut 405

tryItOut 406
Compiling threw: SyntaxError: invalid for/in left-hand side

tryItOut 407

tryItOut 408

tryItOut 409

tryItOut 410

tryItOut 411

tryItOut 412
Compiling threw: SyntaxError: syntax error

tryItOut 413

tryItOut 414

tryItOut 415
Compiling threw: SyntaxError: missing variable name

tryItOut 416
Compiling threw: SyntaxError: missing ) in parenthetical

tryItOut 417

tryItOut 418
Running threw: ReferenceError: z1 is not defined

tryItOut 419
Compiling threw: SyntaxError: missing name after . operator

tryItOut 420
Compiling threw: SyntaxError: missing { before function body

tryItOut 421
Running threw: ReferenceError: each is not defined

tryItOut 422
Compiling threw: SyntaxError: missing { before function body

tryItOut 423
Compiling threw: SyntaxError: missing ) in parenthetical

tryItOut 424
Compiling threw: SyntaxError: syntax error

tryItOut 425
Running threw: [object StopIteration]

tryItOut 426
Compiling threw: SyntaxError: missing variable name

tryItOut 427

tryItOut 428
Compiling threw: SyntaxError: missing ; before statement

tryItOut 429

tryItOut 430
Compiling threw: SyntaxError: missing : after property id

tryItOut 431
Running threw: [object StopIteration]

tryItOut 432
Compiling threw: SyntaxError: syntax error

tryItOut 433
Running threw: TypeError: redeclaration of const __parent__

tryItOut 434
Compiling threw: SyntaxError: missing { before function body

tryItOut 435
Compiling threw: SyntaxError: missing variable name

tryItOut 436

tryItOut 437
Compiling threw: SyntaxError: invalid for/in left-hand side

tryItOut 438
Running threw: Error: invalid sharp variable use #1#

tryItOut 439
before 122080, after 122080, break 01b18000

tryItOut 440

tryItOut 441
Compiling threw: SyntaxError: missing ; before statement

tryItOut 442

tryItOut 443

tryItOut 444

tryItOut 445
Running threw: ReferenceError: z1 is not defined

tryItOut 446
Running threw: TypeError: this.zzz has no properties

tryItOut 447

tryItOut 448

tryItOut 449
Compiling threw: SyntaxError: missing : after case label

tryItOut 450
Compiling threw: SyntaxError: syntax error

tryItOut 451
Compiling threw: SyntaxError: label not found

tryItOut 452
Compiling threw: SyntaxError: missing ; before statement

tryItOut 453

tryItOut 454

tryItOut 455

tryItOut 456
Compiling threw: SyntaxError: syntax error

tryItOut 457

tryItOut 458

tryItOut 459
Running threw: TypeError: this.zzz has no properties

tryItOut 460

tryItOut 461

tryItOut 462
Compiling threw: TypeError: redeclaration of variable __proto__

tryItOut 463

tryItOut 464
Compiling threw: SyntaxError: invalid for/in left-hand side

tryItOut 465
Compiling threw: SyntaxError: missing { before function body

tryItOut 466
Compiling threw: SyntaxError: missing { before function body

tryItOut 467
Compiling threw: SyntaxError: missing ) after condition

tryItOut 468
Compiling threw: SyntaxError: invalid for/in left-hand side

tryItOut 469
Compiling threw: SyntaxError: invalid for each loop

tryItOut 470
Running threw: [object StopIteration]

tryItOut 471

tryItOut 472
Compiling threw: SyntaxError: invalid for/in left-hand side

tryItOut 473
Compiling threw: SyntaxError: missing ) in parenthetical

tryItOut 474

tryItOut 475
Compiling threw: SyntaxError: missing ) in parenthetical

tryItOut 476

tryItOut 477
Compiling threw: SyntaxError: syntax error

tryItOut 478

tryItOut 479

tryItOut 480
Compiling threw: TypeError: redeclaration of variable __count__

tryItOut 481

tryItOut 482
Compiling threw: SyntaxError: missing ; before statement

tryItOut 483

tryItOut 484
Compiling threw: SyntaxError: label not found

tryItOut 485
Compiling threw: TypeError: redeclaration of variable __parent__

tryItOut 486
Compiling threw: SyntaxError: invalid break

tryItOut 487

tryItOut 488
before 139520, after 139520, break 01b29000

tryItOut 489

tryItOut 490
Compiling threw: SyntaxError: missing ) in parenthetical

tryItOut 491
Running threw: TypeError: [, ].yoyo is not a function

tryItOut 492
Compiling threw: SyntaxError: syntax error

tryItOut 493
Running threw: TypeError: /x/.yoyo is not a function

tryItOut 494
Compiling threw: SyntaxError: missing variable name

tryItOut 495
Compiling threw: SyntaxError: missing ) in parenthetical

tryItOut 496
Compiling threw: SyntaxError: missing ) in parenthetical

tryItOut 497
Compiling threw: SyntaxError: missing ; before statement

tryItOut 498
Compiling threw: SyntaxError: missing variable name

tryItOut 499
Compiling threw: SyntaxError: label not found

tryItOut 500
Running threw: [object StopIteration]

tryItOut 501
Compiling threw: SyntaxError: label not found

tryItOut 502

tryItOut 503

tryItOut 504

tryItOut 505
Compiling threw: SyntaxError: missing ) in parenthetical

tryItOut 506
Compiling threw: SyntaxError: missing { before function body

tryItOut 507
Compiling threw: SyntaxError: missing variable name

tryItOut 508
Compiling threw: SyntaxError: invalid continue

tryItOut 509
before 139520, after 139520, break 01b39000

tryItOut 510

tryItOut 511

tryItOut 512

tryItOut 513
before 139520, after 139520, break 01b38000
Running threw: TypeError: gc() is not a function

tryItOut 514
Compiling threw: SyntaxError: label not found

tryItOut 515
Compiling threw: SyntaxError: invalid break

tryItOut 516
Compiling threw: SyntaxError: missing ; before statement

tryItOut 517

tryItOut 518

tryItOut 519

tryItOut 520
Running threw: TypeError: this.zzz has no properties

tryItOut 521

tryItOut 522
Compiling threw: SyntaxError: missing ) in parenthetical

tryItOut 523

tryItOut 524
Running threw: ReferenceError: z1 is not defined

tryItOut 525
Compiling threw: SyntaxError: missing { before function body

tryItOut 526

tryItOut 527
Compiling threw: SyntaxError: missing ; after for-loop initializer

tryItOut 528

tryItOut 529

tryItOut 530

tryItOut 531

tryItOut 532
Running threw: /x/g

tryItOut 533

tryItOut 534
Compiling threw: SyntaxError: invalid break

tryItOut 535
Running threw: TypeError: this.zzz has no properties

tryItOut 536

tryItOut 537

tryItOut 538
Compiling threw: SyntaxError: invalid for/in left-hand side

tryItOut 539

tryItOut 540

tryItOut 541
Compiling threw: SyntaxError: missing { before function body

tryItOut 542
Running threw: TypeError: "" is not a constructor

tryItOut 543
Compiling threw: SyntaxError: missing name after . operator

tryItOut 544
Compiling threw: SyntaxError: missing ) in parenthetical

tryItOut 545
Compiling threw: SyntaxError: missing { before function body

tryItOut 546
Compiling threw: SyntaxError: missing { before function body

tryItOut 547
Compiling threw: SyntaxError: missing variable name

tryItOut 548
Compiling threw: SyntaxError: missing variable name

tryItOut 549
Running threw: TypeError: #3={, a:#3#}.__lookupSetter__("__proto__") has no properties

tryItOut 550

tryItOut 551

tryItOut 552
Compiling threw: TypeError: redeclaration of variable constructor

tryItOut 553

tryItOut 554
Compiling threw: SyntaxError: missing { before function body

tryItOut 555

tryItOut 556
Compiling threw: SyntaxError: missing ; before statement

tryItOut 557
Compiling threw: SyntaxError: invalid continue

tryItOut 558
Compiling threw: SyntaxError: syntax error

tryItOut 559
before 139520, after 139520, break 01b3c000

tryItOut 560
Compiling threw: SyntaxError: missing ; before statement

tryItOut 561
Running threw: /x/g

tryItOut 562
Running threw: ReferenceError: z1 is not defined

tryItOut 563
Running threw: /x/g

tryItOut 564
Compiling threw: SyntaxError: missing ) in parenthetical

tryItOut 565
Compiling threw: TypeError: redeclaration of variable __noSuchMethod__

tryItOut 566
Compiling threw: TypeError: redeclaration of const __proto__

tryItOut 567

tryItOut 568

tryItOut 569

tryItOut 570
Running threw: TypeError: this.zzz has no properties

tryItOut 571
Compiling threw: SyntaxError: missing ) in parenthetical

tryItOut 572
Compiling threw: TypeError: redeclaration of variable __iterator__

tryItOut 573
Running threw: TypeError: this.zzz has no properties

tryItOut 574
Compiling threw: SyntaxError: label not found

tryItOut 575
Compiling threw: SyntaxError: invalid continue

tryItOut 576
Compiling threw: SyntaxError: syntax error

tryItOut 577

tryItOut 578

tryItOut 579
Compiling threw: SyntaxError: label not found

tryItOut 580
Compiling threw: SyntaxError: missing variable name

tryItOut 581

tryItOut 582

tryItOut 583
Compiling threw: SyntaxError: invalid for/in left-hand side

tryItOut 584
Compiling threw: SyntaxError: syntax error

tryItOut 585

tryItOut 586
Compiling threw: SyntaxError: invalid destructuring assignment operator

tryItOut 587

tryItOut 588
Compiling threw: SyntaxError: invalid for each loop

tryItOut 589

tryItOut 590

tryItOut 591

tryItOut 592
Compiling threw: SyntaxError: syntax error

tryItOut 593
Compiling threw: SyntaxError: missing formal parameter

tryItOut 594

tryItOut 595
Compiling threw: SyntaxError: missing ) in parenthetical

tryItOut 596
Running threw: TypeError: this.zzz has no properties

tryItOut 597
Running threw: Error: invalid sharp variable use #1#

tryItOut 598
Running threw: [object StopIteration]

tryItOut 599
Compiling threw: SyntaxError: missing variable name

tryItOut 600
Running threw: 112

tryItOut 601
Compiling threw: SyntaxError: missing variable name

tryItOut 602

tryItOut 603
Compiling threw: SyntaxError: invalid for/in left-hand side

tryItOut 604
Running threw: [object Object]

tryItOut 605
Compiling threw: SyntaxError: syntax error

tryItOut 606
Compiling threw: SyntaxError: invalid for each loop

tryItOut 607

tryItOut 608
Compiling threw: SyntaxError: syntax error

tryItOut 609
Compiling threw: SyntaxError: missing variable name

tryItOut 610

tryItOut 611
Compiling threw: SyntaxError: missing variable name

tryItOut 612

tryItOut 613

tryItOut 614
Compiling threw: SyntaxError: missing ) in parenthetical

tryItOut 615

tryItOut 616
Compiling threw: SyntaxError: invalid continue

tryItOut 617
Compiling threw: SyntaxError: missing ) in parenthetical

tryItOut 618
Running threw: ReferenceError: z1 is not defined

tryItOut 619
Compiling threw: SyntaxError: label not found

tryItOut 620
Running threw: TypeError: {a1:1}['throw'] is not a function

tryItOut 621
Compiling threw: SyntaxError: label not found

tryItOut 622
Compiling threw: SyntaxError: syntax error

tryItOut 623

tryItOut 624
Compiling threw: SyntaxError: missing { before function body

tryItOut 625
Compiling threw: SyntaxError: missing variable name

tryItOut 626

tryItOut 627
Running threw: ReferenceError: z1 is not defined

tryItOut 628
Compiling threw: SyntaxError: label not found

tryItOut 629

tryItOut 630
Compiling threw: SyntaxError: missing ) in parenthetical

tryItOut 631
Compiling threw: SyntaxError: syntax error

tryItOut 632
Running threw: TypeError: arguments[0] has no properties

tryItOut 633
Running threw: ReferenceError: z1 is not defined

tryItOut 634
Compiling threw: SyntaxError: missing { before function body

tryItOut 635

tryItOut 636

tryItOut 637
Running threw: TypeError: NaN is not a constructor

tryItOut 638
Compiling threw: SyntaxError: missing variable name

tryItOut 639

tryItOut 640
before 156960, after 156960, break 01b80000

tryItOut 641
Compiling threw: SyntaxError: missing { before function body

tryItOut 642
Compiling threw: SyntaxError: missing variable name

tryItOut 643

tryItOut 644
Compiling threw: SyntaxError: invalid continue

tryItOut 645

tryItOut 646
Compiling threw: SyntaxError: missing ; before statement

tryItOut 647

tryItOut 648
Compiling threw: SyntaxError: missing variable name

tryItOut 649

tryItOut 650
Compiling threw: SyntaxError: label not found

tryItOut 651
Compiling threw: SyntaxError: missing { before function body

tryItOut 652
Compiling threw: SyntaxError: missing { before function body

tryItOut 653
Compiling threw: SyntaxError: syntax error

tryItOut 654
Compiling threw: SyntaxError: missing } after let block

tryItOut 655
Compiling threw: SyntaxError: missing ; before statement

tryItOut 656

tryItOut 657
Running threw: [object StopIteration]

tryItOut 658

tryItOut 659
Compiling threw: SyntaxError: missing variable name

tryItOut 660
Compiling threw: SyntaxError: invalid for/in left-hand side

tryItOut 661
Compiling threw: SyntaxError: syntax error

tryItOut 662
Compiling threw: SyntaxError: missing variable name

tryItOut 663
Compiling threw: SyntaxError: missing while after do-loop body

tryItOut 664
Compiling threw: SyntaxError: missing variable name

tryItOut 665
Compiling threw: SyntaxError: missing { before function body

tryItOut 666

tryItOut 667
Compiling threw: SyntaxError: missing ) in parenthetical

tryItOut 668
Compiling threw: SyntaxError: missing variable name

tryItOut 669
Compiling threw: SyntaxError: missing ) after for-loop control

tryItOut 670
Compiling threw: SyntaxError: missing { before function body

tryItOut 671
Running threw: TypeError: [undefined, undefined] is not a constructor

tryItOut 672
Compiling threw: SyntaxError: missing variable name

tryItOut 673
Compiling threw: SyntaxError: invalid assignment left-hand side

tryItOut 674
Compiling threw: SyntaxError: missing { before function body

tryItOut 675
Compiling threw: SyntaxError: missing : after property id

tryItOut 676
Compiling threw: SyntaxError: invalid for/in left-hand side

tryItOut 677
Compiling threw: SyntaxError: missing formal parameter

tryItOut 678
Running threw: TypeError: this.zzz has no properties

tryItOut 679
Compiling threw: SyntaxError: missing ) in parenthetical

tryItOut 680
Compiling threw: SyntaxError: missing ; before statement

tryItOut 681
before 156960, after 156960, break 01b80000

tryItOut 682
Compiling threw: SyntaxError: syntax error

tryItOut 683
Running threw: SyntaxError: invalid setter usage

tryItOut 684
Compiling threw: SyntaxError: invalid for/in left-hand side

tryItOut 685
Compiling threw: SyntaxError: missing variable name

tryItOut 686
Running threw: 

tryItOut 687
Compiling threw: SyntaxError: missing ; after for-loop initializer

tryItOut 688

tryItOut 689

tryItOut 690
Compiling threw: SyntaxError: missing { before function body

tryItOut 691
Compiling threw: SyntaxError: invalid property id

tryItOut 692
Compiling threw: SyntaxError: invalid for/in left-hand side

tryItOut 693
Compiling threw: SyntaxError: missing variable name

tryItOut 694

tryItOut 695

tryItOut 696

tryItOut 697

tryItOut 698

tryItOut 699
Running threw: [object StopIteration]

tryItOut 700
Compiling threw: SyntaxError: syntax error

tryItOut 701
Running threw: [object Object]

tryItOut 702
Compiling threw: SyntaxError: missing ; before statement

tryItOut 703
Compiling threw: SyntaxError: missing variable name

tryItOut 704

tryItOut 705
Compiling threw: SyntaxError: missing ) in parenthetical

tryItOut 706
Compiling threw: SyntaxError: missing variable name

tryItOut 707

tryItOut 708

tryItOut 709
Compiling threw: SyntaxError: missing { before function body

tryItOut 710
Compiling threw: SyntaxError: missing variable name

tryItOut 711

tryItOut 712
Compiling threw: SyntaxError: syntax error

tryItOut 713
Compiling threw: SyntaxError: missing variable name

tryItOut 714
Compiling threw: SyntaxError: catch without try

tryItOut 715

tryItOut 716
Compiling threw: SyntaxError: missing ; before statement

tryItOut 717
Compiling threw: SyntaxError: missing { before function body

tryItOut 718
Compiling threw: SyntaxError: missing = in destructuring declaration

tryItOut 719
Compiling threw: SyntaxError: missing ) in parenthetical

tryItOut 720
Compiling threw: SyntaxError: invalid for/in left-hand side

tryItOut 721

tryItOut 722

tryItOut 723
Running threw: ReferenceError: z1 is not defined

tryItOut 724
Compiling threw: SyntaxError: invalid continue

tryItOut 725

tryItOut 726
Compiling threw: SyntaxError: missing ) in parenthetical

tryItOut 727
Running threw: TypeError: /x/g.__parent__ is not a constructor

tryItOut 728
Compiling threw: SyntaxError: syntax error

tryItOut 729

tryItOut 730
Compiling threw: SyntaxError: invalid assignment left-hand side

tryItOut 731
Compiling threw: SyntaxError: missing { before function body

tryItOut 732

tryItOut 733

tryItOut 734
Compiling threw: SyntaxError: missing ) in parenthetical

tryItOut 735
Compiling threw: SyntaxError: invalid for/in left-hand side

tryItOut 736

tryItOut 737

tryItOut 738
Compiling threw: SyntaxError: missing ; after for-loop initializer

tryItOut 739
Compiling threw: SyntaxError: missing ; before statement

tryItOut 740

tryItOut 741
before 156960, after 156960, break 01b80000

tryItOut 742
Compiling threw: SyntaxError: missing variable name

tryItOut 743
Compiling threw: SyntaxError: missing ; before statement

tryItOut 744
Compiling threw: SyntaxError: missing = in destructuring declaration

tryItOut 745
Compiling threw: SyntaxError: missing { before function body

tryItOut 746
Compiling threw: SyntaxError: invalid assignment left-hand side

tryItOut 747

tryItOut 748

tryItOut 749
Compiling threw: SyntaxError: missing ; after for-loop initializer

tryItOut 750
Compiling threw: SyntaxError: missing variable name

tryItOut 751
Compiling threw: SyntaxError: missing ; before statement

tryItOut 752

tryItOut 753

tryItOut 754
Compiling threw: SyntaxError: duplicate label

tryItOut 755

tryItOut 756
Running threw: TypeError: ({}) is not a function

tryItOut 757
Running threw: TypeError: this.zzz has no properties

tryItOut 758

tryItOut 759

tryItOut 760

tryItOut 761
Compiling threw: SyntaxError: missing ; before statement

tryItOut 762
Compiling threw: SyntaxError: missing { before function body

tryItOut 763

tryItOut 764
Compiling threw: SyntaxError: missing { before function body

tryItOut 765
Compiling threw: SyntaxError: syntax error

tryItOut 766
Compiling threw: SyntaxError: invalid continue

tryItOut 767
Compiling threw: SyntaxError: invalid break

tryItOut 768
Running threw: /x/g

tryItOut 769
Compiling threw: SyntaxError: missing : after property id

tryItOut 770
Compiling threw: SyntaxError: missing ) after argument list

tryItOut 771
Compiling threw: SyntaxError: syntax error

tryItOut 772
Compiling threw: SyntaxError: label not found

tryItOut 773

tryItOut 774
Compiling threw: SyntaxError: missing ; before statement

tryItOut 775

tryItOut 776
Compiling threw: SyntaxError: invalid for/in left-hand side

tryItOut 777
Compiling threw: SyntaxError: missing { before function body

tryItOut 778

tryItOut 779

tryItOut 780

tryItOut 781

tryItOut 782
Compiling threw: SyntaxError: missing ; before statement

tryItOut 783
Compiling threw: SyntaxError: missing ) after condition

tryItOut 784

tryItOut 785
Compiling threw: SyntaxError: invalid default XML namespace

tryItOut 786

tryItOut 787
Compiling threw: SyntaxError: label not found

tryItOut 788
Compiling threw: SyntaxError: label not found

tryItOut 789
Compiling threw: SyntaxError: missing ) in parenthetical

tryItOut 790
Compiling threw: SyntaxError: missing ; before statement

tryItOut 791

tryItOut 792
Compiling threw: SyntaxError: missing { before function body

tryItOut 793
Compiling threw: SyntaxError: invalid for/in left-hand side

tryItOut 794
Compiling threw: SyntaxError: label not found

tryItOut 795
Compiling threw: SyntaxError: missing variable name

tryItOut 796
Compiling threw: SyntaxError: missing variable name

tryItOut 797

tryItOut 798
Running threw: TypeError: this.zzz has no properties

tryItOut 799

tryItOut 800
Compiling threw: SyntaxError: missing variable name

tryItOut 801
Compiling threw: SyntaxError: syntax error

tryItOut 802
before 174400, after 174400, break 01b80000

tryItOut 803
Compiling threw: SyntaxError: missing ) in parenthetical

tryItOut 804
Compiling threw: SyntaxError: invalid assignment left-hand side

tryItOut 805
before 174400, after 174400, break 01b80000

tryItOut 806
Running threw: TypeError: this.zzz has no properties

tryItOut 807
Compiling threw: SyntaxError: invalid property id

tryItOut 808
Compiling threw: SyntaxError: syntax error

tryItOut 809
Compiling threw: SyntaxError: label not found

tryItOut 810
Compiling threw: SyntaxError: missing { before function body

tryItOut 811
Compiling threw: SyntaxError: missing ) after condition

tryItOut 812
Compiling threw: SyntaxError: missing { before function body

tryItOut 813

tryItOut 814
Running threw: ReferenceError: z1 is not defined

tryItOut 815

tryItOut 816
Compiling threw: SyntaxError: missing ) in parenthetical

tryItOut 817
Compiling threw: TypeError: redeclaration of variable prototype

tryItOut 818
Running threw: ReferenceError: z2 is not defined

tryItOut 819
Compiling threw: SyntaxError: missing ; before statement

tryItOut 820
Running threw: [object StopIteration]

tryItOut 821

tryItOut 822

tryItOut 823
Compiling threw: SyntaxError: missing ; before statement

tryItOut 824

tryItOut 825
Compiling threw: SyntaxError: invalid for/in left-hand side

tryItOut 826
Compiling threw: SyntaxError: invalid for/in left-hand side

tryItOut 827
Compiling threw: SyntaxError: missing variable name

tryItOut 828
Compiling threw: SyntaxError: invalid for/in left-hand side

tryItOut 829
Compiling threw: SyntaxError: syntax error

tryItOut 830

tryItOut 831

tryItOut 832
Running threw: [object StopIteration]

tryItOut 833
Compiling threw: SyntaxError: syntax error

tryItOut 834
before 174400, after 174400, break 01b91000

tryItOut 835

tryItOut 836
before 174400, after 174400, break 01b91000

tryItOut 837

tryItOut 838

tryItOut 839

tryItOut 840

tryItOut 841
Compiling threw: SyntaxError: missing { before function body

tryItOut 842
Compiling threw: SyntaxError: missing = in destructuring declaration

tryItOut 843
Running threw: TypeError: this.zzz has no properties

tryItOut 844

tryItOut 845
Compiling threw: SyntaxError: label not found

tryItOut 846

tryItOut 847
Compiling threw: SyntaxError: missing { before function body

tryItOut 848
Compiling threw: SyntaxError: missing variable name

tryItOut 849

tryItOut 850
Compiling threw: SyntaxError: missing variable name

tryItOut 851
uneval returned the string: [1]

tryItOut 852

tryItOut 853
Compiling threw: SyntaxError: missing ; before statement

tryItOut 854

tryItOut 855
Running threw: TypeError: this.zzz has no properties

tryItOut 856

tryItOut 857
Compiling threw: SyntaxError: missing ) in parenthetical

tryItOut 858
Compiling threw: SyntaxError: invalid for/in left-hand side

tryItOut 859
Compiling threw: SyntaxError: missing ; before statement

tryItOut 860
Compiling threw: TypeError: redeclaration of variable prototype

tryItOut 861

tryItOut 862
Compiling threw: SyntaxError: missing { before function body

tryItOut 863
Compiling threw: SyntaxError: invalid for/in left-hand side

tryItOut 864

tryItOut 865
Compiling threw: SyntaxError: label not found

tryItOut 866
Compiling threw: SyntaxError: invalid for/in left-hand side

tryItOut 867
Compiling threw: SyntaxError: missing } after let block

tryItOut 868

tryItOut 869
Compiling threw: SyntaxError: missing variable name

tryItOut 870
Compiling threw: SyntaxError: missing ; before statement

tryItOut 871
Compiling threw: SyntaxError: missing { before function body

tryItOut 872
Compiling threw: SyntaxError: missing ) in parenthetical

tryItOut 873

tryItOut 874
Compiling threw: SyntaxError: invalid continue

tryItOut 875

tryItOut 876

tryItOut 877

tryItOut 878
before 174400, after 174400, break 01b91000

tryItOut 879
Running threw: TypeError: this.zzz has no properties

tryItOut 880
Compiling threw: SyntaxError: syntax error

tryItOut 881
before 174400, after 174400, break 01b91000

tryItOut 882
Compiling threw: SyntaxError: syntax error

tryItOut 883

tryItOut 884

tryItOut 885
Compiling threw: SyntaxError: missing ; before statement

tryItOut 886
Compiling threw: SyntaxError: missing ) in parenthetical

tryItOut 887

tryItOut 888

tryItOut 889
Compiling threw: SyntaxError: label not found

tryItOut 890

tryItOut 891
Compiling threw: SyntaxError: missing variable name

tryItOut 892

tryItOut 893
Compiling threw: TypeError: redeclaration of variable prototype

tryItOut 894

tryItOut 895

tryItOut 896
Compiling threw: SyntaxError: invalid for/in left-hand side

tryItOut 897
Compiling threw: SyntaxError: missing variable name

tryItOut 898

tryItOut 899
Compiling threw: SyntaxError: invalid destructuring assignment operator

tryItOut 900
Compiling threw: SyntaxError: syntax error

tryItOut 901
Compiling threw: SyntaxError: missing variable name

tryItOut 902
Compiling threw: SyntaxError: invalid break

tryItOut 903

tryItOut 904
Compiling threw: SyntaxError: missing } in compound statement

tryItOut 905
Compiling threw: SyntaxError: missing ; before statement

tryItOut 906

tryItOut 907

tryItOut 908

tryItOut 909
Compiling threw: SyntaxError: missing while after do-loop body

tryItOut 910

tryItOut 911
Compiling threw: SyntaxError: missing ) in parenthetical

tryItOut 912
Running threw: 112

tryItOut 913
Compiling threw: SyntaxError: invalid property id

tryItOut 914
Compiling threw: SyntaxError: missing } after let block

tryItOut 915
Compiling threw: SyntaxError: label not found

tryItOut 916

tryItOut 917
Compiling threw: SyntaxError: syntax error

tryItOut 918
Compiling threw: SyntaxError: invalid for/in left-hand side

tryItOut 919

tryItOut 920
Compiling threw: SyntaxError: missing ; before statement

tryItOut 921

tryItOut 922
Compiling threw: SyntaxError: missing variable name

tryItOut 923
Compiling threw: SyntaxError: invalid for each loop

tryItOut 924

tryItOut 925
Compiling threw: SyntaxError: missing ) in parenthetical

tryItOut 926
Compiling threw: SyntaxError: missing ; before statement

tryItOut 927

tryItOut 928
Compiling threw: SyntaxError: missing { before function body

tryItOut 929
Compiling threw: SyntaxError: syntax error

tryItOut 930
Running threw: TypeError: this.zzz has no properties

tryItOut 931
Compiling threw: SyntaxError: label not found

tryItOut 932
Compiling threw: SyntaxError: missing { before function body

tryItOut 933

tryItOut 934
Compiling threw: SyntaxError: invalid break

tryItOut 935
Compiling threw: SyntaxError: invalid for/in left-hand side

tryItOut 936
Compiling threw: SyntaxError: missing { before function body

tryItOut 937

tryItOut 938

tryItOut 939
Compiling threw: SyntaxError: syntax error

tryItOut 940
Compiling threw: SyntaxError: missing ) in parenthetical

tryItOut 941
Running threw: [object StopIteration]

tryItOut 942
Compiling threw: SyntaxError: label not found

tryItOut 943

tryItOut 944
Compiling threw: SyntaxError: syntax error

tryItOut 945

tryItOut 946
Compiling threw: SyntaxError: invalid for/in left-hand side

tryItOut 947
Compiling threw: SyntaxError: syntax error

tryItOut 948
Compiling threw: SyntaxError: missing { before function body

tryItOut 949
Compiling threw: SyntaxError: missing variable name

tryItOut 950

tryItOut 951
Compiling threw: SyntaxError: missing { before function body

tryItOut 952

tryItOut 953

tryItOut 954

tryItOut 955
Compiling threw: SyntaxError: missing ) after for-loop control

tryItOut 956
Compiling threw: SyntaxError: missing variable name

tryItOut 957
Compiling threw: SyntaxError: missing = in destructuring declaration

tryItOut 958
before 191840, after 191840, break 01bbf000
before 191840, after 191840, break 01bbf000

tryItOut 959
Compiling threw: SyntaxError: duplicate label

tryItOut 960
Compiling threw: SyntaxError: invalid for/in left-hand side

tryItOut 961
Compiling threw: SyntaxError: missing ) in parenthetical

tryItOut 962

tryItOut 963

tryItOut 964
uneval returned the string: [[1]]

tryItOut 965
Compiling threw: SyntaxError: label not found

tryItOut 966
Compiling threw: SyntaxError: missing ) in parenthetical

tryItOut 967

tryItOut 968

tryItOut 969
Compiling threw: SyntaxError: missing ) in parenthetical

tryItOut 970
Compiling threw: SyntaxError: missing ) after let head

tryItOut 971

tryItOut 972

tryItOut 973

tryItOut 974

tryItOut 975

tryItOut 976
Compiling threw: SyntaxError: invalid for/in left-hand side

tryItOut 977
Compiling threw: SyntaxError: invalid assignment left-hand side

tryItOut 978

tryItOut 979

tryItOut 980
Compiling threw: SyntaxError: invalid assignment left-hand side

tryItOut 981

tryItOut 982

tryItOut 983
Running threw: [object StopIteration]

tryItOut 984
Compiling threw: SyntaxError: missing variable name

tryItOut 985
Compiling threw: SyntaxError: invalid assignment left-hand side

tryItOut 986

tryItOut 987
Compiling threw: SyntaxError: invalid assignment left-hand side

tryItOut 988
Compiling threw: SyntaxError: missing } in compound statement

tryItOut 989

tryItOut 990
Compiling threw: SyntaxError: label not found

tryItOut 991
Compiling threw: SyntaxError: missing { before function body

tryItOut 992

tryItOut 993
Compiling threw: SyntaxError: missing ; before statement

tryItOut 994
Compiling threw: SyntaxError: missing ; before statement

tryItOut 995

tryItOut 996
Compiling threw: SyntaxError: invalid continue

tryItOut 997
Compiling threw: SyntaxError: invalid for/in left-hand side

tryItOut 998
Compiling threw: SyntaxError: invalid for/in left-hand side

tryItOut 999

tryItOut 1000
Compiling threw: SyntaxError: missing variable name

ALL OK

Script done on Sat 04 May 2013 06:21:19 AM PDT
