Script started on Sat 04 May 2013 06:21:21 AM PDT
***
Targeting SpiderMonkey / Gecko.

tryItOut 1

tryItOut 2

tryItOut 3
It's an iterator!
Iterating threw!
Iterating threw: ReferenceError: __iterator__ is not defined

tryItOut 4

tryItOut 5

tryItOut 6
Running threw: ReferenceError: __noSuchMethod__ is not defined

tryItOut 7
Running threw: <x>
  <y/>
</x>

tryItOut 8

tryItOut 9
It's an iterator!
Iterating succeeded, iterCount == 0

tryItOut 10
Compiling threw: SyntaxError: syntax error

tryItOut 11
Compiling threw: SyntaxError: missing } after let block

tryItOut 12

tryItOut 13

tryItOut 14
Running threw: TypeError: this.zzz has no properties

tryItOut 15

tryItOut 16

tryItOut 17
Compiling threw: SyntaxError: illegal XML character

tryItOut 18

tryItOut 19
Compiling threw: SyntaxError: missing variable name

tryItOut 20
Running threw: ReferenceError: reference to undefined XML name @foo

tryItOut 21
Compiling threw: SyntaxError: syntax error

tryItOut 22

tryItOut 23

tryItOut 24

tryItOut 25

tryItOut 26

tryItOut 27

tryItOut 28
Compiling threw: TypeError: redeclaration of var __count__

tryItOut 29
Running threw: ReferenceError: __noSuchMethod__ is not defined

tryItOut 30

tryItOut 31
It's an iterator!
Iterating threw!
Iterating threw: ReferenceError: reference to undefined XML name *

tryItOut 32
Running threw: TypeError: this.zzz has no properties

tryItOut 33
Running threw: ReferenceError: reference to undefined XML name *

tryItOut 34
Compiling threw: SyntaxError: syntax error

tryItOut 35
Running threw: TypeError: this.zzz has no properties

tryItOut 36
Compiling threw: SyntaxError: syntax error

tryItOut 37
Compiling threw: SyntaxError: invalid for/in left-hand side

tryItOut 38

tryItOut 39

tryItOut 40
Compiling threw: SyntaxError: missing ; before statement

tryItOut 41

tryItOut 42
Compiling threw: SyntaxError: invalid property id

tryItOut 43
Compiling threw: SyntaxError: syntax error

tryItOut 44
Compiling threw: TypeError: redeclaration of var prop

tryItOut 45

tryItOut 46

tryItOut 47
Compiling threw: SyntaxError: syntax error

tryItOut 48
Compiling threw: SyntaxError: syntax error

tryItOut 49
It's an iterator!
Iterating threw!
Iterating threw: ReferenceError: reference to undefined XML name *::*

tryItOut 50

tryItOut 51

tryItOut 52

tryItOut 53
Compiling threw: SyntaxError: invalid increment operand

tryItOut 54
Compiling threw: SyntaxError: missing variable name

tryItOut 55

tryItOut 56
Compiling threw: SyntaxError: syntax error

tryItOut 57

tryItOut 58
Compiling threw: SyntaxError: invalid decrement operand

tryItOut 59
Compiling threw: SyntaxError: invalid for/in left-hand side

tryItOut 60
Compiling threw: SyntaxError: missing variable name

tryItOut 61
Compiling threw: SyntaxError: missing ] after element list

tryItOut 62
Compiling threw: SyntaxError: illegal XML character

tryItOut 63

tryItOut 64
Compiling threw: SyntaxError: duplicate label

tryItOut 65
Compiling threw: SyntaxError: invalid for/in left-hand side

tryItOut 66
Running threw: ReferenceError: reference to undefined XML name @foo

tryItOut 67

tryItOut 68

tryItOut 69
Compiling threw: SyntaxError: missing ) in parenthetical

tryItOut 70

tryItOut 71
Running threw: ReferenceError: prototype is not defined

tryItOut 72

tryItOut 73

tryItOut 74
It's an iterator!
Iterating succeeded, iterCount == 1

tryItOut 75
Compiling threw: SyntaxError: syntax error

tryItOut 76
Compiling threw: SyntaxError: missing ] after element list

tryItOut 77
Compiling threw: SyntaxError: syntax error

tryItOut 78
Running threw: ReferenceError: __iterator__ is not defined

tryItOut 79
Compiling threw: SyntaxError: syntax error

tryItOut 80

tryItOut 81
Compiling threw: SyntaxError: missing ] after element list

tryItOut 82

tryItOut 83
Compiling threw: SyntaxError: missing ] after element list

tryItOut 84
Compiling threw: SyntaxError: missing { before function body

tryItOut 85

tryItOut 86

tryItOut 87
Compiling threw: SyntaxError: missing ) in parenthetical

tryItOut 88
Compiling threw: SyntaxError: syntax error

tryItOut 89

tryItOut 90
Running threw: [object Object]

tryItOut 91
Compiling threw: SyntaxError: syntax error

tryItOut 92
Compiling threw: SyntaxError: missing ] after element list

tryItOut 93

tryItOut 94
Compiling threw: SyntaxError: missing ) in parenthetical

tryItOut 95

tryItOut 96
It's an iterator!
Iterating threw!
Iterating threw: ReferenceError: reference to undefined XML name *::*

tryItOut 97
Running threw: ReferenceError: reference to undefined XML name *

tryItOut 98

tryItOut 99

tryItOut 100
Compiling threw: TypeError: generator function anonymous returns a value

tryItOut 101

tryItOut 102

tryItOut 103
Compiling threw: SyntaxError: invalid default XML namespace

tryItOut 104

tryItOut 105
Compiling threw: SyntaxError: missing ) after argument list

tryItOut 106

tryItOut 107

tryItOut 108

tryItOut 109
Compiling threw: SyntaxError: invalid assignment left-hand side

tryItOut 110
Compiling threw: SyntaxError: missing { before function body

tryItOut 111
Running threw: ReferenceError: z2 is not defined

tryItOut 112

tryItOut 113

tryItOut 114

tryItOut 115
Compiling threw: SyntaxError: syntax error

tryItOut 116
Compiling threw: SyntaxError: syntax error

tryItOut 117
It's an iterator!
Iterating succeeded, iterCount == 1

tryItOut 118
Compiling threw: SyntaxError: missing ; after for-loop initializer

tryItOut 119

tryItOut 120
Running threw: function Object() {
    [native code]
}

tryItOut 121

tryItOut 122
Compiling threw: SyntaxError: invalid assignment left-hand side

tryItOut 123
Running threw: TypeError: this.zzz has no properties

tryItOut 124

tryItOut 125
Compiling threw: SyntaxError: missing { before function body

tryItOut 126
Running threw: TypeError: this.zzz has no properties

tryItOut 127
It's an iterator!
Iterating threw!
Iterating threw: ReferenceError: prototype is not defined

tryItOut 128

tryItOut 129
Compiling threw: SyntaxError: missing ; after for-loop initializer

tryItOut 130

tryItOut 131
Compiling threw: SyntaxError: syntax error

tryItOut 132

tryItOut 133
Compiling threw: SyntaxError: missing variable name

tryItOut 134
Compiling threw: SyntaxError: missing variable name

tryItOut 135
Compiling threw: SyntaxError: invalid for/in left-hand side

tryItOut 136
Compiling threw: SyntaxError: syntax error

tryItOut 137
It's an iterator!
Iterating threw!
Iterating threw: ReferenceError: __iterator__ is not defined

tryItOut 138

tryItOut 139
Compiling threw: SyntaxError: missing } after let block

tryItOut 140
Compiling threw: SyntaxError: missing } after property list

tryItOut 141

tryItOut 142

tryItOut 143
Compiling threw: SyntaxError: syntax error

tryItOut 144

tryItOut 145

tryItOut 146

tryItOut 147
Compiling threw: SyntaxError: syntax error

tryItOut 148
Compiling threw: SyntaxError: missing ) in parenthetical

tryItOut 149
Compiling threw: SyntaxError: invalid for/in left-hand side

tryItOut 150

tryItOut 151
Compiling threw: SyntaxError: invalid for/in left-hand side

tryItOut 152
Compiling threw: SyntaxError: illegal XML character

tryItOut 153
Compiling threw: SyntaxError: missing variable name

tryItOut 154

tryItOut 155
Compiling threw: SyntaxError: missing variable name

tryItOut 156
It's an iterator!
Iterating threw!
Iterating threw: ReferenceError: __iterator__ is not defined

tryItOut 157
Running threw: TypeError: this.zzz has no properties

tryItOut 158
Compiling threw: SyntaxError: syntax error

tryItOut 159

tryItOut 160
Running threw: ReferenceError: prototype is not defined

tryItOut 161
Running threw: <x>
  <y/>
</x>

tryItOut 162

tryItOut 163

tryItOut 164

tryItOut 165
Compiling threw: SyntaxError: missing } in XML expression

tryItOut 166
Running threw: ReferenceError: reference to undefined XML name *

tryItOut 167
Compiling threw: SyntaxError: syntax error

tryItOut 168
Compiling threw: SyntaxError: invalid for/in left-hand side

tryItOut 169
Running threw: ReferenceError: __noSuchMethod__ is not defined

tryItOut 170
Compiling threw: SyntaxError: invalid increment operand

tryItOut 171

tryItOut 172
Compiling threw: SyntaxError: invalid for/in left-hand side

tryItOut 173
Compiling threw: SyntaxError: syntax error

tryItOut 174
Running threw: ReferenceError: reference to undefined XML name *::*

tryItOut 175
Compiling threw: SyntaxError: missing } after let block

tryItOut 176

tryItOut 177

tryItOut 178
Compiling threw: TypeError: generator function anonymous returns a value

tryItOut 179
Running threw: TypeError: this.zzz has no properties

tryItOut 180

tryItOut 181
Compiling threw: SyntaxError: missing variable name

tryItOut 182
Compiling threw: SyntaxError: invalid for/in left-hand side

tryItOut 183
Running threw: ReferenceError: reference to undefined XML name *::*

tryItOut 184

tryItOut 185
Compiling threw: SyntaxError: invalid for/in left-hand side

tryItOut 186

tryItOut 187
Compiling threw: SyntaxError: missing ; before statement

tryItOut 188

tryItOut 189
Compiling threw: SyntaxError: missing formal parameter

tryItOut 190
Compiling threw: SyntaxError: missing ; after for-loop initializer

tryItOut 191

tryItOut 192
It's an iterator!
Iterating succeeded, iterCount == 1

tryItOut 193
Compiling threw: SyntaxError: invalid for/in left-hand side

tryItOut 194
Compiling threw: SyntaxError: syntax error

tryItOut 195
It's an iterator!
Iterating threw!
Iterating threw: TypeError: redeclaration of var __proto__

tryItOut 196
Compiling threw: SyntaxError: invalid for/in left-hand side

tryItOut 197
Compiling threw: SyntaxError: missing ] after attribute expression

tryItOut 198

tryItOut 199

tryItOut 200

tryItOut 201

tryItOut 202

tryItOut 203
Compiling threw: SyntaxError: syntax error

tryItOut 204
Compiling threw: SyntaxError: missing } after let block

tryItOut 205

tryItOut 206

tryItOut 207
Compiling threw: SyntaxError: missing variable name

tryItOut 208

tryItOut 209
It's an iterator!
Iterating succeeded, iterCount == 1

tryItOut 210

tryItOut 211
Compiling threw: SyntaxError: invalid assignment left-hand side

tryItOut 212
Compiling threw: SyntaxError: syntax error

tryItOut 213
Compiling threw: SyntaxError: missing ) in parenthetical

tryItOut 214
Compiling threw: SyntaxError: missing name after . operator

tryItOut 215
Compiling threw: SyntaxError: invalid increment operand

tryItOut 216

tryItOut 217
It's an iterator!
Iterating succeeded, iterCount == 1

tryItOut 218
Compiling threw: SyntaxError: invalid XML name

tryItOut 219
Compiling threw: SyntaxError: syntax error

tryItOut 220
Compiling threw: SyntaxError: missing variable name

tryItOut 221

tryItOut 222

tryItOut 223
It's an iterator!
Iterating threw!
Iterating threw: ReferenceError: prototype is not defined

tryItOut 224

tryItOut 225
Compiling threw: SyntaxError: invalid XML name

tryItOut 226

tryItOut 227
Compiling threw: SyntaxError: syntax error

tryItOut 228

tryItOut 229

tryItOut 230
Compiling threw: SyntaxError: invalid assignment left-hand side

tryItOut 231

tryItOut 232

tryItOut 233

tryItOut 234

tryItOut 235

tryItOut 236
Compiling threw: SyntaxError: missing { before function body

tryItOut 237
Running threw: ReferenceError: reference to undefined XML name *

tryItOut 238
It's an iterator!
Iterating succeeded, iterCount == 1

tryItOut 239
Compiling threw: TypeError: generator function anonymous returns a value

tryItOut 240
Compiling threw: SyntaxError: illegal XML character

tryItOut 241

tryItOut 242
Running threw: TypeError: this.zzz has no properties

tryItOut 243
Compiling threw: SyntaxError: invalid XML list syntax

tryItOut 244
Compiling threw: SyntaxError: missing { before function body

tryItOut 245
Compiling threw: SyntaxError: missing ; before statement

tryItOut 246

tryItOut 247
Compiling threw: SyntaxError: missing { before function body

tryItOut 248
Compiling threw: SyntaxError: missing variable name

tryItOut 249

tryItOut 250
Compiling threw: SyntaxError: missing variable name

tryItOut 251
It's an iterator!
Iterating succeeded, iterCount == 1

tryItOut 252
Running threw: TypeError: this.zzz has no properties

tryItOut 253
Compiling threw: SyntaxError: invalid destructuring assignment operator

tryItOut 254
Compiling threw: SyntaxError: missing ; before statement

tryItOut 255
Running threw: ReferenceError: z2 is not defined

tryItOut 256
Running threw: TypeError: this.zzz has no properties

tryItOut 257
Compiling threw: TypeError: redeclaration of const __parent__

tryItOut 258
Compiling threw: SyntaxError: missing ] after element list

tryItOut 259

tryItOut 260

tryItOut 261

tryItOut 262
Compiling threw: SyntaxError: invalid for/in left-hand side

tryItOut 263
Running threw: TypeError: p.z = <x><y/></x> is not a function

tryItOut 264
Compiling threw: SyntaxError: syntax error

tryItOut 265
Running threw: TypeError: this.zzz has no properties

tryItOut 266
Compiling threw: SyntaxError: missing } after let block

tryItOut 267
Compiling threw: SyntaxError: invalid XML name

tryItOut 268
Compiling threw: SyntaxError: missing } in XML expression

tryItOut 269
Compiling threw: SyntaxError: missing { before function body

tryItOut 270
Compiling threw: SyntaxError: syntax error

tryItOut 271
Compiling threw: SyntaxError: missing variable name

tryItOut 272

tryItOut 273
Compiling threw: TypeError: redeclaration of const __parent__

tryItOut 274
Compiling threw: SyntaxError: missing } after let block

tryItOut 275
Compiling threw: TypeError: generator function anonymous returns a value

tryItOut 276

tryItOut 277
Compiling threw: SyntaxError: invalid for/in left-hand side

tryItOut 278

tryItOut 279

tryItOut 280
It's an iterator!
Iterating threw!
Iterating threw: ReferenceError: z1 is not defined

tryItOut 281
Compiling threw: SyntaxError: unterminated string literal

tryItOut 282
Compiling threw: SyntaxError: illegal XML character

tryItOut 283
Compiling threw: SyntaxError: missing } after let block

tryItOut 284

tryItOut 285
Compiling threw: SyntaxError: missing variable name

tryItOut 286
It's an iterator!
Iterating succeeded, iterCount == 1

tryItOut 287

tryItOut 288
Compiling threw: SyntaxError: missing } after let block

tryItOut 289

tryItOut 290
Compiling threw: SyntaxError: syntax error

tryItOut 291

tryItOut 292
Compiling threw: SyntaxError: missing ; before statement

tryItOut 293

tryItOut 294
Running threw: ReferenceError: reference to undefined XML name @foo

tryItOut 295
Compiling threw: SyntaxError: invalid for/in left-hand side

tryItOut 296
It's an iterator!
Iterating threw!
Iterating threw: SyntaxError: invalid getter usage

tryItOut 297
It's an iterator!
Iterating succeeded, iterCount == 1

tryItOut 298
It's an iterator!
Iterating threw!
Iterating threw: ReferenceError: reference to undefined XML name *

tryItOut 299
Compiling threw: SyntaxError: missing ) in parenthetical

tryItOut 300

tryItOut 301

tryItOut 302

tryItOut 303

tryItOut 304

tryItOut 305
Compiling threw: SyntaxError: syntax error

tryItOut 306
Running threw: TypeError: this.zzz has no properties

tryItOut 307
Compiling threw: SyntaxError: invalid decrement operand

tryItOut 308

tryItOut 309

tryItOut 310
Compiling threw: SyntaxError: missing variable name

tryItOut 311

tryItOut 312
Compiling threw: SyntaxError: syntax error

tryItOut 313
Compiling threw: SyntaxError: missing variable name

tryItOut 314

tryItOut 315
Compiling threw: SyntaxError: missing formal parameter

tryItOut 316
Compiling threw: SyntaxError: invalid for/in left-hand side

tryItOut 317

tryItOut 318
Compiling threw: SyntaxError: missing ; after for-loop initializer

tryItOut 319

tryItOut 320

tryItOut 321

tryItOut 322

tryItOut 323

tryItOut 324
Compiling threw: SyntaxError: syntax error

tryItOut 325

tryItOut 326

tryItOut 327
Running threw: ReferenceError: reference to undefined XML name @foo

tryItOut 328

tryItOut 329
Compiling threw: SyntaxError: invalid assignment left-hand side

tryItOut 330
Compiling threw: SyntaxError: syntax error

tryItOut 331
It's an iterator!
Iterating succeeded, iterCount == 1

tryItOut 332

tryItOut 333
It's an iterator!
Iterating threw!
Iterating threw: ReferenceError: reference to undefined XML name @foo

tryItOut 334
Compiling threw: TypeError: generator function anonymous returns a value

tryItOut 335

tryItOut 336
Compiling threw: SyntaxError: missing ) after condition

tryItOut 337
Running threw: TypeError: this.zzz has no properties

tryItOut 338

tryItOut 339

tryItOut 340
Compiling threw: SyntaxError: missing { before function body

tryItOut 341

tryItOut 342
Compiling threw: SyntaxError: missing = in destructuring declaration

tryItOut 343
Compiling threw: SyntaxError: syntax error

tryItOut 344
Compiling threw: SyntaxError: invalid property id

tryItOut 345

tryItOut 346
Compiling threw: SyntaxError: invalid for/in left-hand side

tryItOut 347
Compiling threw: SyntaxError: missing ) after let head

tryItOut 348
Compiling threw: SyntaxError: missing } after let block

tryItOut 349

tryItOut 350

tryItOut 351
Compiling threw: SyntaxError: missing { before function body

tryItOut 352

tryItOut 353
Compiling threw: SyntaxError: missing { before function body

tryItOut 354
It's an iterator!
Iterating succeeded, iterCount == 1

tryItOut 355

tryItOut 356

tryItOut 357

tryItOut 358
Compiling threw: SyntaxError: missing ) after condition

tryItOut 359
Running threw: ReferenceError: z1 is not defined

tryItOut 360

tryItOut 361

tryItOut 362

tryItOut 363

tryItOut 364
Compiling threw: SyntaxError: syntax error

tryItOut 365

tryItOut 366
Compiling threw: SyntaxError: syntax error

tryItOut 367

tryItOut 368
Running threw: ReferenceError: reference to undefined XML name *

tryItOut 369
It's an iterator!
Iterating succeeded, iterCount == 1

tryItOut 370

tryItOut 371

tryItOut 372
Compiling threw: SyntaxError: missing name after . operator

tryItOut 373
Compiling threw: SyntaxError: syntax error

tryItOut 374
Running threw: ReferenceError: reference to undefined XML name @foo

tryItOut 375
It's an iterator!
Iterating succeeded, iterCount == 1

tryItOut 376
Compiling threw: SyntaxError: illegal XML character

tryItOut 377
Running threw: 110

tryItOut 378

tryItOut 379

tryItOut 380
Compiling threw: SyntaxError: invalid for/in left-hand side

tryItOut 381
Compiling threw: SyntaxError: syntax error

tryItOut 382

tryItOut 383
Compiling threw: SyntaxError: syntax error

tryItOut 384
It's an iterator!
Iterating threw!
Iterating threw: TypeError: undefined is not a function

tryItOut 385
Compiling threw: SyntaxError: missing variable name

tryItOut 386
Compiling threw: TypeError: redeclaration of var __iterator__

tryItOut 387

tryItOut 388
Compiling threw: SyntaxError: missing ; after for-loop initializer

tryItOut 389

tryItOut 390

tryItOut 391
Compiling threw: SyntaxError: missing ] after element list

tryItOut 392
Compiling threw: SyntaxError: invalid assignment left-hand side

tryItOut 393
Compiling threw: TypeError: redeclaration of var prop

tryItOut 394

tryItOut 395

tryItOut 396
Compiling threw: SyntaxError: invalid XML name

tryItOut 397

tryItOut 398
Compiling threw: SyntaxError: syntax error

tryItOut 399

tryItOut 400
Compiling threw: SyntaxError: invalid for/in left-hand side

tryItOut 401
Compiling threw: SyntaxError: invalid for/in left-hand side

tryItOut 402
Compiling threw: SyntaxError: invalid decrement operand

tryItOut 403
Compiling threw: SyntaxError: missing ; after for-loop condition

tryItOut 404
Compiling threw: SyntaxError: missing ) after for-loop control

tryItOut 405

tryItOut 406
Compiling threw: SyntaxError: syntax error

tryItOut 407
It's an iterator!
Iterating threw!
Iterating threw: ReferenceError: reference to undefined XML name @foo

tryItOut 408
Compiling threw: SyntaxError: syntax error

tryItOut 409
It's an iterator!
Iterating threw!
Iterating threw: RangeError: invalid array length

tryItOut 410

tryItOut 411

tryItOut 412
Compiling threw: SyntaxError: missing { before function body

tryItOut 413
Compiling threw: SyntaxError: invalid for/in left-hand side

tryItOut 414

tryItOut 415
Compiling threw: SyntaxError: invalid for/in left-hand side

tryItOut 416

tryItOut 417
Compiling threw: SyntaxError: syntax error

tryItOut 418
Running threw: ReferenceError: reference to undefined XML name *

tryItOut 419

tryItOut 420
Compiling threw: TypeError: redeclaration of variable constructor

tryItOut 421

tryItOut 422
Compiling threw: SyntaxError: missing { before function body

tryItOut 423

tryItOut 424
Compiling threw: SyntaxError: invalid for/in left-hand side

tryItOut 425

tryItOut 426

tryItOut 427

tryItOut 428

tryItOut 429

tryItOut 430
Compiling threw: SyntaxError: missing ] after element list

tryItOut 431
Compiling threw: SyntaxError: missing ) in parenthetical

tryItOut 432

tryItOut 433
Compiling threw: SyntaxError: missing { before function body

tryItOut 434
Running threw: TypeError: this.zzz has no properties

tryItOut 435

tryItOut 436
Running threw: TypeError: redeclaration of var __count__

tryItOut 437
Compiling threw: SyntaxError: missing variable name

tryItOut 438
Compiling threw: SyntaxError: missing ) after argument list

tryItOut 439
Compiling threw: TypeError: generator function anonymous returns a value

tryItOut 440

tryItOut 441
It's an iterator!
Iterating threw!
Iterating threw: ReferenceError: reference to undefined XML name *

tryItOut 442
Running threw: 110

tryItOut 443
Running threw: null

tryItOut 444

tryItOut 445
Compiling threw: SyntaxError: missing { before function body

tryItOut 446

tryItOut 447
Compiling threw: SyntaxError: syntax error

tryItOut 448
Running threw: ReferenceError: reference to undefined XML name @foo

tryItOut 449

tryItOut 450

tryItOut 451
Compiling threw: SyntaxError: invalid assignment left-hand side

tryItOut 452
Compiling threw: SyntaxError: invalid for/in left-hand side

tryItOut 453
It's an iterator!
Iterating threw!
Iterating threw: TypeError: p.z = <x><y/></x> is not a function

tryItOut 454

tryItOut 455
Compiling threw: SyntaxError: invalid for/in left-hand side

tryItOut 456
Running threw: TypeError: __parent__ has no properties

tryItOut 457
Compiling threw: SyntaxError: missing ) in parenthetical

tryItOut 458
Compiling threw: SyntaxError: invalid XML name

tryItOut 459
Compiling threw: SyntaxError: missing ] after element list

tryItOut 460

tryItOut 461
It's an iterator!
Iterating succeeded, iterCount == 1

tryItOut 462

tryItOut 463
Compiling threw: SyntaxError: invalid assignment left-hand side

tryItOut 464
Compiling threw: TypeError: redeclaration of const __iterator__

tryItOut 465

tryItOut 466
Compiling threw: SyntaxError: missing { before function body

tryItOut 467
It's an iterator!
Iterating threw!
Iterating threw: ReferenceError: reference to undefined XML name @foo

tryItOut 468
Compiling threw: SyntaxError: missing variable name

tryItOut 469

tryItOut 470
Compiling threw: SyntaxError: missing variable name

tryItOut 471

tryItOut 472

tryItOut 473
Compiling threw: SyntaxError: missing variable name

tryItOut 474

tryItOut 475

tryItOut 476
Compiling threw: SyntaxError: missing variable name

tryItOut 477

tryItOut 478
Running threw: [object Generator]

tryItOut 479
Compiling threw: SyntaxError: invalid XML name

tryItOut 480
It's an iterator!
Iterating succeeded, iterCount == 1

tryItOut 481
Compiling threw: TypeError: redeclaration of variable prop

tryItOut 482
Compiling threw: TypeError: generator function anonymous returns a value

tryItOut 483

tryItOut 484

tryItOut 485

tryItOut 486
Compiling threw: SyntaxError: missing { before function body

tryItOut 487
Compiling threw: SyntaxError: syntax error

tryItOut 488
Compiling threw: SyntaxError: syntax error

tryItOut 489
Compiling threw: SyntaxError: missing { before function body

tryItOut 490
Compiling threw: SyntaxError: invalid destructuring assignment operator

tryItOut 491

tryItOut 492

tryItOut 493
It's an iterator!
Iterating succeeded, iterCount == 1

tryItOut 494
Compiling threw: SyntaxError: missing ; before statement

tryItOut 495

tryItOut 496
Compiling threw: SyntaxError: syntax error

tryItOut 497
Compiling threw: SyntaxError: missing } after let block

tryItOut 498

tryItOut 499
It's an iterator!
Iterating succeeded, iterCount == 1

tryItOut 500
Compiling threw: SyntaxError: syntax error

tryItOut 501
Compiling threw: SyntaxError: syntax error

tryItOut 502

tryItOut 503
Compiling threw: SyntaxError: missing } after let block

tryItOut 504
Compiling threw: SyntaxError: invalid assignment left-hand side

tryItOut 505

tryItOut 506
Compiling threw: SyntaxError: missing = in destructuring declaration

tryItOut 507

tryItOut 508
Compiling threw: SyntaxError: invalid for/in left-hand side

tryItOut 509
Compiling threw: SyntaxError: missing ; after for-loop initializer

tryItOut 510

tryItOut 511
Compiling threw: SyntaxError: missing } in XML expression

tryItOut 512
Compiling threw: SyntaxError: syntax error

tryItOut 513
Compiling threw: SyntaxError: syntax error

tryItOut 514
Running threw: null

tryItOut 515
Compiling threw: SyntaxError: missing formal parameter

tryItOut 516

tryItOut 517

tryItOut 518
Compiling threw: SyntaxError: syntax error

tryItOut 519
Running threw: undefined

tryItOut 520
Running threw: TypeError: __proto__['throw'] is not a function

tryItOut 521

tryItOut 522
Compiling threw: SyntaxError: invalid destructuring assignment operator

tryItOut 523

tryItOut 524
Compiling threw: SyntaxError: invalid for/in left-hand side

tryItOut 525
Compiling threw: SyntaxError: invalid decrement operand

tryItOut 526
Compiling threw: SyntaxError: missing variable name

tryItOut 527

tryItOut 528
Compiling threw: SyntaxError: invalid assignment left-hand side

tryItOut 529
Compiling threw: SyntaxError: missing } after let block

tryItOut 530
Compiling threw: SyntaxError: missing ] after element list

tryItOut 531
Running threw: 111

tryItOut 532
Compiling threw: SyntaxError: missing { before function body

tryItOut 533

tryItOut 534
Running threw: ReferenceError: reference to undefined XML name @foo

tryItOut 535
Compiling threw: SyntaxError: missing } after let block

tryItOut 536

tryItOut 537

tryItOut 538

tryItOut 539

tryItOut 540
Compiling threw: SyntaxError: invalid for/in left-hand side

tryItOut 541

tryItOut 542
Compiling threw: SyntaxError: syntax error

tryItOut 543
Compiling threw: SyntaxError: missing variable name

tryItOut 544

tryItOut 545
It's an iterator!
Iterating succeeded, iterCount == 1

tryItOut 546

tryItOut 547
It's an iterator!
Iterating succeeded, iterCount == 2

tryItOut 548
Compiling threw: SyntaxError: missing ; before statement

tryItOut 549
Compiling threw: SyntaxError: syntax error

tryItOut 550

tryItOut 551
It's an iterator!
Iterating threw!
Iterating threw: ReferenceError: reference to undefined XML name *::*

tryItOut 552
It's an iterator!
Iterating succeeded, iterCount == 1

tryItOut 553
Compiling threw: SyntaxError: syntax error

tryItOut 554

tryItOut 555
Compiling threw: SyntaxError: invalid assignment left-hand side

tryItOut 556
Running threw: ReferenceError: z1 is not defined

tryItOut 557

tryItOut 558

tryItOut 559

tryItOut 560

tryItOut 561

tryItOut 562

tryItOut 563
Running threw: SyntaxError: yield not in function

tryItOut 564

tryItOut 565
Compiling threw: SyntaxError: syntax error

tryItOut 566

tryItOut 567

tryItOut 568

tryItOut 569
Compiling threw: SyntaxError: missing { before function body

tryItOut 570
Compiling threw: SyntaxError: missing ) after condition

tryItOut 571
Compiling threw: SyntaxError: missing { before function body

tryItOut 572
Compiling threw: SyntaxError: invalid for/in left-hand side

tryItOut 573
Compiling threw: SyntaxError: invalid decrement operand

tryItOut 574

tryItOut 575
Compiling threw: SyntaxError: missing ) after condition

tryItOut 576
It's an iterator!
Iterating threw!
Iterating threw: TypeError: redeclaration of var __count__

tryItOut 577
Compiling threw: SyntaxError: invalid for/in left-hand side

tryItOut 578

tryItOut 579
Compiling threw: SyntaxError: invalid for/in left-hand side

tryItOut 580
Compiling threw: SyntaxError: missing } after let block

tryItOut 581

tryItOut 582
Running threw: TypeError: this.zzz has no properties

tryItOut 583

tryItOut 584
Compiling threw: SyntaxError: missing : after property id

tryItOut 585

tryItOut 586
Compiling threw: SyntaxError: illegal XML character

tryItOut 587

tryItOut 588

tryItOut 589

tryItOut 590

tryItOut 591
Compiling threw: SyntaxError: missing { before function body

tryItOut 592
Compiling threw: SyntaxError: missing variable name

tryItOut 593
Compiling threw: TypeError: redeclaration of const __iterator__

tryItOut 594

tryItOut 595
It's an iterator!
Iterating threw!
Iterating threw: TypeError: (function ([y]) {}).yoyo is not a function

tryItOut 596
Compiling threw: SyntaxError: invalid for/in left-hand side

tryItOut 597

tryItOut 598
Compiling threw: TypeError: redeclaration of var constructor

tryItOut 599
Compiling threw: SyntaxError: invalid for/in left-hand side

tryItOut 600
Compiling threw: SyntaxError: missing } after let block

tryItOut 601
Running threw: <x>
  <y/>
</x>

tryItOut 602

tryItOut 603

tryItOut 604
Compiling threw: SyntaxError: syntax error

tryItOut 605
Compiling threw: SyntaxError: missing variable name

tryItOut 606
Running threw: TypeError: this.zzz has no properties

tryItOut 607

tryItOut 608
Compiling threw: SyntaxError: invalid for/in left-hand side

tryItOut 609
Compiling threw: SyntaxError: syntax error

tryItOut 610
Compiling threw: SyntaxError: syntax error

tryItOut 611
Compiling threw: SyntaxError: missing ) in parenthetical

tryItOut 612
Compiling threw: SyntaxError: syntax error

tryItOut 613

tryItOut 614

tryItOut 615
Compiling threw: SyntaxError: syntax error

tryItOut 616

tryItOut 617
It's an iterator!
Iterating threw!
Iterating threw: ReferenceError: reference to undefined XML name *::*

tryItOut 618
Compiling threw: TypeError: generator function anonymous returns a value

tryItOut 619
Compiling threw: SyntaxError: missing : in conditional expression

tryItOut 620
Running threw: ReferenceError: reference to undefined XML name @foo

tryItOut 621
Compiling threw: SyntaxError: missing ] after element list

tryItOut 622
Compiling threw: SyntaxError: invalid for/in left-hand side

tryItOut 623
Compiling threw: SyntaxError: missing { before function body

tryItOut 624
Compiling threw: SyntaxError: missing variable name

tryItOut 625
It's an iterator!
Iterating succeeded, iterCount == 1

tryItOut 626

tryItOut 627

tryItOut 628

tryItOut 629

tryItOut 630

tryItOut 631

tryItOut 632
Compiling threw: SyntaxError: invalid XML tag syntax

tryItOut 633

tryItOut 634
Compiling threw: SyntaxError: invalid assignment left-hand side

tryItOut 635
Running threw: ReferenceError: z1 is not defined

tryItOut 636

tryItOut 637
Compiling threw: SyntaxError: missing variable name

tryItOut 638
Compiling threw: SyntaxError: syntax error

tryItOut 639
Compiling threw: SyntaxError: illegal XML character

tryItOut 640
Compiling threw: SyntaxError: invalid for/in left-hand side

tryItOut 641

tryItOut 642
Running threw: TypeError: this.zzz has no properties

tryItOut 643

tryItOut 644
It's an iterator!
Iterating threw!
Iterating threw: ReferenceError: reference to undefined XML name *

tryItOut 645

tryItOut 646
Running threw: TypeError: this.zzz has no properties

tryItOut 647
It's an iterator!
Iterating threw!
Iterating threw: ReferenceError: reference to undefined XML name @foo

tryItOut 648
It's an iterator!
Iterating threw!
Iterating threw: TypeError: arguments[0] has no properties

tryItOut 649

tryItOut 650

tryItOut 651

tryItOut 652
Compiling threw: SyntaxError: missing } after property list

tryItOut 653

tryItOut 654

tryItOut 655
Compiling threw: SyntaxError: missing ] after element list

tryItOut 656
Running threw: 111

tryItOut 657
Compiling threw: SyntaxError: missing ) in parenthetical

tryItOut 658

tryItOut 659
Compiling threw: SyntaxError: missing variable name

tryItOut 660

tryItOut 661
Compiling threw: SyntaxError: invalid for/in left-hand side

tryItOut 662
Compiling threw: SyntaxError: syntax error

tryItOut 663
Running threw: <x>
  <y/>
</x>

tryItOut 664

tryItOut 665
Compiling threw: SyntaxError: missing ; after for-loop initializer

tryItOut 666

tryItOut 667

tryItOut 668
Compiling threw: SyntaxError: missing { before function body

tryItOut 669
Compiling threw: TypeError: redeclaration of const __count__

tryItOut 670

tryItOut 671
It's an iterator!
Iterating succeeded, iterCount == 1

tryItOut 672

tryItOut 673
Compiling threw: SyntaxError: missing ) in parenthetical

tryItOut 674
Compiling threw: SyntaxError: invalid for/in left-hand side

tryItOut 675
Compiling threw: SyntaxError: invalid for/in left-hand side

tryItOut 676
Compiling threw: SyntaxError: missing { before function body

tryItOut 677
Compiling threw: TypeError: redeclaration of variable __count__

tryItOut 678
Running threw: ReferenceError: reference to undefined XML name @foo

tryItOut 679
Running threw: <x>
  <y/>
</x>

tryItOut 680

tryItOut 681

tryItOut 682
Running threw: TypeError: this.zzz has no properties

tryItOut 683
Compiling threw: SyntaxError: missing = in destructuring declaration

tryItOut 684
Compiling threw: SyntaxError: syntax error

tryItOut 685
Running threw: ReferenceError: reference to undefined XML name @foo

tryItOut 686
Compiling threw: TypeError: redeclaration of variable constructor

tryItOut 687
Compiling threw: SyntaxError: missing ) after condition

tryItOut 688
Compiling threw: SyntaxError: syntax error

tryItOut 689
It's an iterator!
Iterating threw!
Iterating threw: ReferenceError: reference to undefined XML name @foo

tryItOut 690

tryItOut 691
Running threw: TypeError: __noSuchMethod__ has no properties

tryItOut 692
Compiling threw: SyntaxError: syntax error

tryItOut 693

tryItOut 694

tryItOut 695

tryItOut 696
Running threw: [object Object]

tryItOut 697

tryItOut 698
Compiling threw: SyntaxError: missing = in destructuring declaration

tryItOut 699

tryItOut 700

tryItOut 701
Compiling threw: SyntaxError: missing ) after condition

tryItOut 702

tryItOut 703
Compiling threw: SyntaxError: duplicate label

tryItOut 704
Compiling threw: SyntaxError: missing variable name

tryItOut 705
Compiling threw: SyntaxError: missing ) in parenthetical

tryItOut 706
It's an iterator!
Iterating succeeded, iterCount == 1

tryItOut 707

tryItOut 708

tryItOut 709

tryItOut 710

tryItOut 711

tryItOut 712
Running threw: TypeError: this.zzz has no properties

tryItOut 713
Compiling threw: SyntaxError: syntax error

tryItOut 714
Running threw: TypeError: prototype has no properties

tryItOut 715

tryItOut 716
Compiling threw: SyntaxError: missing ; after for-loop initializer

tryItOut 717
Compiling threw: SyntaxError: illegal XML character

tryItOut 718
Compiling threw: SyntaxError: invalid decrement operand

tryItOut 719
Compiling threw: SyntaxError: invalid assignment left-hand side

tryItOut 720

tryItOut 721
Compiling threw: SyntaxError: syntax error

tryItOut 722
Compiling threw: SyntaxError: invalid increment operand

tryItOut 723
Compiling threw: SyntaxError: invalid assignment left-hand side

tryItOut 724

tryItOut 725

tryItOut 726
It's an iterator!
Iterating succeeded, iterCount == 1

tryItOut 727
Running threw: ReferenceError: reference to undefined XML name *::*

tryItOut 728

tryItOut 729
Compiling threw: SyntaxError: invalid for/in left-hand side

tryItOut 730

tryItOut 731

tryItOut 732

tryItOut 733

tryItOut 734
Compiling threw: SyntaxError: invalid increment operand

tryItOut 735

tryItOut 736
Compiling threw: SyntaxError: missing } after let block

tryItOut 737

tryItOut 738

tryItOut 739
Compiling threw: SyntaxError: missing variable name

tryItOut 740
Compiling threw: SyntaxError: syntax error

tryItOut 741
Compiling threw: SyntaxError: syntax error

tryItOut 742
Compiling threw: SyntaxError: invalid XML list syntax

tryItOut 743
Compiling threw: SyntaxError: syntax error

tryItOut 744

tryItOut 745

tryItOut 746
It's an iterator!
Iterating succeeded, iterCount == 1

tryItOut 747

tryItOut 748
Compiling threw: SyntaxError: missing ; after for-loop initializer

tryItOut 749
Compiling threw: SyntaxError: missing { before function body

tryItOut 750
Compiling threw: SyntaxError: missing { before function body

tryItOut 751

tryItOut 752
Compiling threw: SyntaxError: missing = in destructuring declaration

tryItOut 753
It's an iterator!
Iterating succeeded, iterCount == 1

tryItOut 754

tryItOut 755

tryItOut 756
It's an iterator!
Iterating threw!
Iterating threw: ReferenceError: reference to undefined XML name *::*

tryItOut 757

tryItOut 758
It's an iterator!
Iterating succeeded, iterCount == 1

tryItOut 759
Compiling threw: SyntaxError: illegal XML character

tryItOut 760

tryItOut 761
Compiling threw: SyntaxError: invalid assignment left-hand side

tryItOut 762

tryItOut 763
Compiling threw: TypeError: generator function anonymous returns a value

tryItOut 764
Compiling threw: SyntaxError: missing = in destructuring declaration

tryItOut 765

tryItOut 766
Compiling threw: SyntaxError: syntax error

tryItOut 767

tryItOut 768
Compiling threw: SyntaxError: missing ; after for-loop initializer

tryItOut 769
Running threw: null

tryItOut 770
Compiling threw: SyntaxError: missing ) in parenthetical

tryItOut 771
Running threw: 111

tryItOut 772

tryItOut 773
Compiling threw: SyntaxError: invalid for/in left-hand side

tryItOut 774

tryItOut 775

tryItOut 776

tryItOut 777

tryItOut 778
Compiling threw: SyntaxError: missing : after property id

tryItOut 779
Compiling threw: SyntaxError: syntax error

tryItOut 780
Compiling threw: SyntaxError: invalid property id

tryItOut 781
It's an iterator!
Iterating succeeded, iterCount == 1

tryItOut 782

tryItOut 783
Compiling threw: SyntaxError: invalid for/in left-hand side

tryItOut 784
Compiling threw: SyntaxError: syntax error

tryItOut 785

tryItOut 786
Compiling threw: SyntaxError: missing { before function body

tryItOut 787

tryItOut 788

tryItOut 789

tryItOut 790

tryItOut 791
Compiling threw: SyntaxError: invalid for/in left-hand side

tryItOut 792

tryItOut 793
Compiling threw: SyntaxError: invalid assignment left-hand side

tryItOut 794
Compiling threw: SyntaxError: invalid assignment left-hand side

tryItOut 795

tryItOut 796

tryItOut 797
It's an iterator!
Iterating succeeded, iterCount == 1

tryItOut 798
Compiling threw: SyntaxError: missing variable name

tryItOut 799
Compiling threw: SyntaxError: syntax error

tryItOut 800
Compiling threw: SyntaxError: invalid for/in left-hand side

tryItOut 801
Running threw: ReferenceError: reference to undefined XML name *

tryItOut 802
Compiling threw: SyntaxError: syntax error

tryItOut 803

tryItOut 804
Compiling threw: SyntaxError: syntax error

tryItOut 805

tryItOut 806

tryItOut 807
Compiling threw: SyntaxError: missing { before function body

tryItOut 808

tryItOut 809
Compiling threw: SyntaxError: invalid for/in left-hand side

tryItOut 810

tryItOut 811
Running threw: SyntaxError: invalid setter usage

tryItOut 812

tryItOut 813
Compiling threw: SyntaxError: missing ; after for-loop initializer

tryItOut 814

tryItOut 815

tryItOut 816
Compiling threw: SyntaxError: invalid XML name

tryItOut 817

tryItOut 818
Compiling threw: SyntaxError: syntax error

tryItOut 819
Running threw: [object Generator]

tryItOut 820

tryItOut 821

tryItOut 822

tryItOut 823
Running threw: TypeError: this.zzz has no properties

tryItOut 824
Compiling threw: SyntaxError: invalid for/in left-hand side

tryItOut 825
Compiling threw: SyntaxError: missing { before function body

tryItOut 826

tryItOut 827

tryItOut 828

tryItOut 829
Compiling threw: SyntaxError: missing ) in parenthetical

tryItOut 830

tryItOut 831
Compiling threw: SyntaxError: invalid for/in left-hand side

tryItOut 832

tryItOut 833

tryItOut 834
Compiling threw: TypeError: redeclaration of variable constructor

tryItOut 835

tryItOut 836

tryItOut 837
Compiling threw: SyntaxError: invalid for/in left-hand side

tryItOut 838

tryItOut 839

tryItOut 840
Running threw: TypeError: this.zzz has no properties

tryItOut 841

tryItOut 842
Compiling threw: TypeError: redeclaration of variable constructor

tryItOut 843
Compiling threw: SyntaxError: missing { before function body

tryItOut 844
Running threw: ReferenceError: reference to undefined XML name @foo

tryItOut 845

tryItOut 846

tryItOut 847
Running threw: null

tryItOut 848
Compiling threw: TypeError: generator function anonymous returns a value

tryItOut 849
Compiling threw: SyntaxError: missing ] after element list

tryItOut 850

tryItOut 851
Running threw: ReferenceError: reference to undefined XML name *::*

tryItOut 852

tryItOut 853

tryItOut 854
It's an iterator!
Iterating succeeded, iterCount == 1

tryItOut 855
It's an iterator!
Iterating succeeded, iterCount == 1

tryItOut 856

tryItOut 857
Compiling threw: SyntaxError: missing variable name

tryItOut 858
Compiling threw: SyntaxError: invalid decrement operand

tryItOut 859

tryItOut 860

tryItOut 861
Compiling threw: SyntaxError: missing ) in parenthetical

tryItOut 862

tryItOut 863

tryItOut 864
Compiling threw: SyntaxError: missing variable name

tryItOut 865
Compiling threw: SyntaxError: syntax error

tryItOut 866
Compiling threw: TypeError: generator function anonymous returns a value

tryItOut 867
Compiling threw: SyntaxError: missing ) after condition

tryItOut 868
Running threw: TypeError: this.zzz has no properties

tryItOut 869
Compiling threw: SyntaxError: syntax error

tryItOut 870
Compiling threw: SyntaxError: missing ) after let head

tryItOut 871
Running threw: ReferenceError: reference to undefined XML name *::*

tryItOut 872
It's an iterator!
Iterating threw!
Iterating threw: ReferenceError: z1 is not defined

tryItOut 873
Compiling threw: SyntaxError: syntax error

tryItOut 874
Compiling threw: TypeError: redeclaration of variable __parent__

tryItOut 875
Running threw: ReferenceError: z1 is not defined

tryItOut 876
Running threw: ReferenceError: reference to undefined XML name @foo

tryItOut 877
Compiling threw: SyntaxError: missing ; after for-loop condition

tryItOut 878
Compiling threw: SyntaxError: invalid destructuring assignment operator

tryItOut 879
Running threw: TypeError: this.__defineGetter__("__iterator__", [1, 2, 3, 4].map) has no properties

tryItOut 880

tryItOut 881
Compiling threw: SyntaxError: invalid for/in left-hand side

tryItOut 882
Compiling threw: SyntaxError: missing variable name

tryItOut 883

tryItOut 884

tryItOut 885
It's an iterator!
Iterating succeeded, iterCount == 1

tryItOut 886
Running threw: null

tryItOut 887
Compiling threw: SyntaxError: syntax error

tryItOut 888
Running threw: undefined

tryItOut 889
Compiling threw: SyntaxError: missing ; before statement

tryItOut 890
Running threw: TypeError: this.zzz has no properties

tryItOut 891
It's an iterator!
Iterating threw!
Iterating threw: Error: invalid sharp variable use #1#

tryItOut 892

tryItOut 893
Running threw: TypeError: undefined is not a function

tryItOut 894
It's an iterator!
Iterating succeeded, iterCount == 0

tryItOut 895
Compiling threw: SyntaxError: syntax error

tryItOut 896
Compiling threw: SyntaxError: syntax error

tryItOut 897
Compiling threw: SyntaxError: missing = in destructuring declaration

tryItOut 898
Running threw: TypeError: this.zzz has no properties

tryItOut 899
Compiling threw: SyntaxError: illegal XML character

tryItOut 900
Compiling threw: SyntaxError: invalid for/in left-hand side

tryItOut 901
Running threw: TypeError: this.zzz has no properties

tryItOut 902

tryItOut 903

tryItOut 904

tryItOut 905

tryItOut 906
Compiling threw: SyntaxError: invalid increment operand

tryItOut 907
Compiling threw: TypeError: redeclaration of variable __parent__

tryItOut 908

tryItOut 909
Compiling threw: SyntaxError: illegal XML character

tryItOut 910
It's an iterator!
Iterating succeeded, iterCount == 1

tryItOut 911

tryItOut 912
Running threw: ReferenceError: reference to undefined XML name @foo

tryItOut 913

tryItOut 914

tryItOut 915
Compiling threw: SyntaxError: missing ) after argument list

tryItOut 916

tryItOut 917
Compiling threw: SyntaxError: missing variable name

tryItOut 918
Running threw: <x>
  <y/>
</x>

tryItOut 919

tryItOut 920
Compiling threw: SyntaxError: missing ) in parenthetical

tryItOut 921

tryItOut 922

tryItOut 923
Compiling threw: SyntaxError: missing ; before statement

tryItOut 924

tryItOut 925

tryItOut 926
Compiling threw: SyntaxError: missing { before function body

tryItOut 927
Compiling threw: SyntaxError: missing ) in parenthetical

tryItOut 928
Running threw: ReferenceError: reference to undefined XML name @foo

tryItOut 929

tryItOut 930
Compiling threw: SyntaxError: invalid XML name

tryItOut 931
It's an iterator!
Iterating threw!
Iterating threw: ReferenceError: x is not defined

tryItOut 932
Compiling threw: SyntaxError: invalid for/in left-hand side

tryItOut 933
Compiling threw: SyntaxError: missing variable name

tryItOut 934

tryItOut 935

tryItOut 936

tryItOut 937
Compiling threw: SyntaxError: invalid assignment left-hand side

tryItOut 938
Compiling threw: SyntaxError: missing variable name

tryItOut 939
It's an iterator!
Iterating succeeded, iterCount == 1

tryItOut 940
Compiling threw: SyntaxError: syntax error

tryItOut 941
Compiling threw: SyntaxError: syntax error

tryItOut 942
Compiling threw: SyntaxError: missing } after let block

tryItOut 943

tryItOut 944

tryItOut 945

tryItOut 946
Compiling threw: SyntaxError: invalid for/in left-hand side

tryItOut 947

tryItOut 948
Running threw: TypeError: this.zzz has no properties

tryItOut 949

tryItOut 950
Compiling threw: SyntaxError: missing } in XML expression

tryItOut 951

tryItOut 952
Compiling threw: SyntaxError: missing } after property list

tryItOut 953

tryItOut 954

tryItOut 955
Compiling threw: TypeError: generator function anonymous returns a value

tryItOut 956
Compiling threw: SyntaxError: missing variable name

tryItOut 957
It's an iterator!
Iterating succeeded, iterCount == 2

tryItOut 958

tryItOut 959
Compiling threw: SyntaxError: duplicate label

tryItOut 960
Compiling threw: SyntaxError: syntax error

tryItOut 961
Running threw: TypeError: this.zzz has no properties

tryItOut 962

tryItOut 963

tryItOut 964
Compiling threw: SyntaxError: syntax error

tryItOut 965
Running threw: ReferenceError: reference to undefined XML name *

tryItOut 966
Compiling threw: SyntaxError: missing { before function body

tryItOut 967

tryItOut 968

tryItOut 969
Running threw: TypeError: this.zzz has no properties

tryItOut 970
Compiling threw: SyntaxError: missing variable name

tryItOut 971
It's an iterator!
Iterating threw!
Iterating threw: ReferenceError: reference to undefined XML name @foo

tryItOut 972

tryItOut 973

tryItOut 974
Compiling threw: SyntaxError: missing = in destructuring declaration

tryItOut 975
Compiling threw: SyntaxError: syntax error

tryItOut 976

tryItOut 977

tryItOut 978

tryItOut 979
Running threw: TypeError: this.zzz has no properties

tryItOut 980

tryItOut 981
Compiling threw: SyntaxError: missing ; after for-loop initializer

tryItOut 982
Compiling threw: SyntaxError: missing ) in parenthetical

tryItOut 983
Running threw: [object Generator]

tryItOut 984

tryItOut 985
Compiling threw: SyntaxError: missing ) in parenthetical

tryItOut 986
Compiling threw: SyntaxError: syntax error

tryItOut 987
It's an iterator!
Iterating succeeded, iterCount == 0

tryItOut 988
Running threw: TypeError: undefined is not a function

tryItOut 989
Running threw: TypeError: this.zzz has no properties

tryItOut 990
Compiling threw: TypeError: generator function anonymous returns a value

tryItOut 991

tryItOut 992

tryItOut 993
It's an iterator!
Iterating succeeded, iterCount == 2

tryItOut 994

tryItOut 995

tryItOut 996

tryItOut 997

tryItOut 998
Compiling threw: SyntaxError: invalid for/in left-hand side

tryItOut 999
Running threw: TypeError: this.zzz has no properties

tryItOut 1000
Running threw: ReferenceError: reference to undefined XML name *::*

ALL OK

Script done on Sat 04 May 2013 06:21:21 AM PDT
