Script started on Sat 04 May 2013 06:23:21 AM PDT
***
Targeting SpiderMonkey / Gecko.

tryItOut 1
Compiling threw: SyntaxError: missing ) in parenthetical

tryItOut 2

tryItOut 3
Compiling threw: SyntaxError: syntax error

tryItOut 4
Running threw: TypeError: this.zzz has no properties

tryItOut 5
Running threw: ReferenceError: __noSuchMethod__ is not defined

tryItOut 6
Compiling threw: SyntaxError: illegal XML character

tryItOut 7
Running threw: ReferenceError: window is not defined

tryItOut 8
Running threw: ReferenceError: __noSuchMethod__ is not defined

tryItOut 9
Compiling threw: TypeError: redeclaration of var __proto__

tryItOut 10

tryItOut 11
Running threw: 

tryItOut 12

tryItOut 13

tryItOut 14
Compiling threw: SyntaxError: missing ; after for-loop initializer

tryItOut 15
Compiling threw: SyntaxError: invalid for/in left-hand side

tryItOut 16
Compiling threw: SyntaxError: syntax error

tryItOut 17
Compiling threw: SyntaxError: invalid for/in left-hand side

tryItOut 18
Running threw: ReferenceError: reference to undefined XML name *::*

tryItOut 19

tryItOut 20
Compiling threw: SyntaxError: missing variable name

tryItOut 21
Compiling threw: SyntaxError: invalid assignment left-hand side

tryItOut 22
Compiling threw: SyntaxError: invalid sharp variable definition

tryItOut 23
Compiling threw: SyntaxError: missing ) in parenthetical

tryItOut 24

tryItOut 25
Running threw: ReferenceError: prop is not defined

tryItOut 26

tryItOut 27
Compiling threw: SyntaxError: missing ; before statement

tryItOut 28

tryItOut 29
Running threw: ReferenceError: __iterator__ is not defined

tryItOut 30

tryItOut 31

tryItOut 32
Compiling threw: SyntaxError: missing { before function body

tryItOut 33
Running threw: ReferenceError: yyy is not defined

tryItOut 34
Compiling threw: SyntaxError: syntax error

tryItOut 35

tryItOut 36
Running threw: TypeError: p.z = <x><y/></x> is not a function

tryItOut 37

tryItOut 38
Compiling threw: SyntaxError: missing = in destructuring declaration

tryItOut 39

tryItOut 40
Compiling threw: SyntaxError: missing variable name

tryItOut 41
Compiling threw: SyntaxError: missing { before function body

tryItOut 42

tryItOut 43

tryItOut 44
Running threw: Error: invalid sharp variable use #1#

tryItOut 45
Running threw: SyntaxError: missing = in XML attribute

tryItOut 46

tryItOut 47
Running threw: ReferenceError: window is not defined

tryItOut 48
Compiling threw: SyntaxError: missing ; after for-loop initializer

tryItOut 49
Compiling threw: SyntaxError: missing ; after for-loop initializer

tryItOut 50

tryItOut 51
Compiling threw: SyntaxError: invalid for/in left-hand side

tryItOut 52

tryItOut 53

tryItOut 54

tryItOut 55
Compiling threw: SyntaxError: missing ) in parenthetical

tryItOut 56

tryItOut 57

tryItOut 58

tryItOut 59

tryItOut 60

tryItOut 61

tryItOut 62

tryItOut 63

tryItOut 64
Compiling threw: SyntaxError: syntax error

tryItOut 65
Compiling threw: SyntaxError: missing ) in parenthetical

tryItOut 66

tryItOut 67
Running threw: <y>
  <z/>
</y>

tryItOut 68

tryItOut 69
Running threw: ReferenceError: reference to undefined XML name @foo

tryItOut 70
Compiling threw: SyntaxError: missing ; after for-loop initializer

tryItOut 71

tryItOut 72

tryItOut 73
Compiling threw: SyntaxError: missing variable name

tryItOut 74
Compiling threw: SyntaxError: missing } in compound statement

tryItOut 75
Compiling threw: SyntaxError: missing ) in parenthetical

tryItOut 76

tryItOut 77
Compiling threw: SyntaxError: invalid for each loop

tryItOut 78

tryItOut 79
Compiling threw: SyntaxError: syntax error

tryItOut 80

tryItOut 81

tryItOut 82
Running threw: TypeError: this.zzz has no properties

tryItOut 83

tryItOut 84
Compiling threw: TypeError: redeclaration of variable __count__

tryItOut 85
Compiling threw: SyntaxError: invalid for/in left-hand side

tryItOut 86
Compiling threw: SyntaxError: invalid XML list syntax

tryItOut 87
Compiling threw: SyntaxError: missing variable name

tryItOut 88

tryItOut 89
Running threw: TypeError: this.zzz has no properties

tryItOut 90
Compiling threw: SyntaxError: syntax error

tryItOut 91

tryItOut 92
Compiling threw: SyntaxError: missing ) in parenthetical

tryItOut 93

tryItOut 94

tryItOut 95
Compiling threw: SyntaxError: missing variable name

tryItOut 96

tryItOut 97
Compiling threw: SyntaxError: invalid for/in left-hand side

tryItOut 98
Compiling threw: SyntaxError: missing { before function body

tryItOut 99
Compiling threw: SyntaxError: invalid for/in left-hand side

tryItOut 100
Compiling threw: TypeError: redeclaration of const prop

tryItOut 101
Compiling threw: SyntaxError: missing ; after for-loop initializer

tryItOut 102
Compiling threw: TypeError: redeclaration of variable prop

tryItOut 103
Running threw: Can't toString the error!!

tryItOut 104

tryItOut 105
Compiling threw: SyntaxError: invalid for/in left-hand side

tryItOut 106
Compiling threw: SyntaxError: syntax error

tryItOut 107

tryItOut 108

tryItOut 109
Compiling threw: SyntaxError: missing variable name

tryItOut 110
Compiling threw: SyntaxError: missing ) in parenthetical

tryItOut 111
Running threw: ReferenceError: reference to undefined XML name @foo

tryItOut 112

tryItOut 113

tryItOut 114

tryItOut 115

tryItOut 116

tryItOut 117
Compiling threw: SyntaxError: syntax error

tryItOut 118
Running threw: Error: invalid sharp variable use #1#

tryItOut 119

tryItOut 120

tryItOut 121

tryItOut 122
Compiling threw: SyntaxError: invalid for each loop

tryItOut 123
Compiling threw: SyntaxError: syntax error

tryItOut 124
Compiling threw: SyntaxError: missing ) in parenthetical

tryItOut 125
Running threw: 1200

tryItOut 126
Compiling threw: SyntaxError: missing variable name

tryItOut 127

tryItOut 128

tryItOut 129
Compiling threw: SyntaxError: missing ) in parenthetical

tryItOut 130
Running threw: TypeError: this.zzz has no properties

tryItOut 131

tryItOut 132
Compiling threw: SyntaxError: syntax error

tryItOut 133

tryItOut 134
Compiling threw: TypeError: redeclaration of variable __parent__

tryItOut 135
Compiling threw: SyntaxError: invalid assignment left-hand side

tryItOut 136
Compiling threw: SyntaxError: syntax error

tryItOut 137

tryItOut 138
Compiling threw: SyntaxError: missing variable name

tryItOut 139
Compiling threw: SyntaxError: invalid for/in left-hand side

tryItOut 140
Compiling threw: SyntaxError: invalid assignment left-hand side

tryItOut 141

tryItOut 142

tryItOut 143

tryItOut 144
Compiling threw: SyntaxError: missing variable name

tryItOut 145
Running threw: ReferenceError: z1 is not defined

tryItOut 146
Compiling threw: SyntaxError: invalid for/in left-hand side

tryItOut 147
Compiling threw: SyntaxError: missing ) after condition

tryItOut 148

tryItOut 149
Compiling threw: SyntaxError: missing variable name

tryItOut 150
Compiling threw: SyntaxError: missing ) in parenthetical

tryItOut 151
Compiling threw: SyntaxError: missing variable name

tryItOut 152

tryItOut 153
Running threw: TypeError: undefined has no properties

tryItOut 154

tryItOut 155
Running threw: 

tryItOut 156
Running threw: ReferenceError: __iterator__ is not defined

tryItOut 157

tryItOut 158
Compiling threw: SyntaxError: missing ) after condition

tryItOut 159
Running threw: ReferenceError: m is not defined

tryItOut 160
Running threw: 

tryItOut 161

tryItOut 162
Running threw: ReferenceError: window is not defined

tryItOut 163

tryItOut 164
Compiling threw: SyntaxError: yield expression must be parenthesized

tryItOut 165
Compiling threw: SyntaxError: syntax error

tryItOut 166

tryItOut 167

tryItOut 168

tryItOut 169
Running threw: /x/g

tryItOut 170
Compiling threw: SyntaxError: missing } after let block

tryItOut 171
Compiling threw: SyntaxError: invalid XML name

tryItOut 172

tryItOut 173
Running threw: ReferenceError: reference to undefined XML name @foo

tryItOut 174

tryItOut 175

tryItOut 176
Compiling threw: SyntaxError: invalid for/in left-hand side

tryItOut 177
Running threw: ReferenceError: reference to undefined XML name *::*

tryItOut 178
Compiling threw: SyntaxError: syntax error

tryItOut 179

tryItOut 180

tryItOut 181

tryItOut 182
Compiling threw: SyntaxError: missing ; after for-loop initializer

tryItOut 183
Compiling threw: SyntaxError: invalid XML name

tryItOut 184
Running threw: ReferenceError: reference to undefined XML name @foo

tryItOut 185
Compiling threw: SyntaxError: missing variable name

tryItOut 186

tryItOut 187
Running threw: TypeError: this.zzz has no properties

tryItOut 188

tryItOut 189
Compiling threw: SyntaxError: missing : after property id

tryItOut 190
Compiling threw: SyntaxError: syntax error

tryItOut 191
Running threw: 3

tryItOut 192

tryItOut 193
Compiling threw: SyntaxError: missing : after property id

tryItOut 194

tryItOut 195
Compiling threw: SyntaxError: missing ) in parenthetical

tryItOut 196
Compiling threw: SyntaxError: missing ; after for-loop initializer

tryItOut 197
Compiling threw: SyntaxError: syntax error

tryItOut 198

tryItOut 199

tryItOut 200
Running threw: TypeError: p.z = [1] is not a function

tryItOut 201
Compiling threw: SyntaxError: missing variable name

tryItOut 202
Compiling threw: SyntaxError: invalid assignment left-hand side

tryItOut 203

tryItOut 204

tryItOut 205
Running threw: 153

tryItOut 206

tryItOut 207
Compiling threw: SyntaxError: syntax error

tryItOut 208

tryItOut 209
Running threw: ReferenceError: reference to undefined XML name *::*

tryItOut 210
Running threw: ReferenceError: z1 is not defined

tryItOut 211
Compiling threw: SyntaxError: syntax error

tryItOut 212
Running threw: TypeError: this.__defineGetter__("__iterator__", {}.__lookupGetter__) has no properties

tryItOut 213

tryItOut 214

tryItOut 215

tryItOut 216

tryItOut 217
Compiling threw: SyntaxError: invalid for/in left-hand side

tryItOut 218
Compiling threw: TypeError: redeclaration of variable __proto__

tryItOut 219

tryItOut 220
Compiling threw: SyntaxError: syntax error

tryItOut 221

tryItOut 222
Running threw: <x>
  <y/>
</x>

tryItOut 223

tryItOut 224

tryItOut 225
Running threw: ReferenceError: reference to undefined XML name @foo

tryItOut 226
Compiling threw: TypeError: redeclaration of variable prop

tryItOut 227
Running threw: TypeError: this.zzz has no properties

tryItOut 228

tryItOut 229
Compiling threw: SyntaxError: missing } after let block

tryItOut 230

tryItOut 231
Compiling threw: SyntaxError: missing variable name

tryItOut 232

tryItOut 233
Running threw: SyntaxError: return not in function

tryItOut 234

tryItOut 235

tryItOut 236
Compiling threw: SyntaxError: missing ) in parenthetical

tryItOut 237
Compiling threw: SyntaxError: invalid for/in left-hand side

tryItOut 238
Compiling threw: SyntaxError: invalid for/in left-hand side

tryItOut 239
Compiling threw: SyntaxError: invalid for/in left-hand side

tryItOut 240

tryItOut 241
Compiling threw: SyntaxError: invalid for/in left-hand side

tryItOut 242

tryItOut 243
Compiling threw: SyntaxError: syntax error

tryItOut 244
Compiling threw: SyntaxError: missing ) after condition

tryItOut 245

tryItOut 246
Compiling threw: SyntaxError: missing ; after for-loop initializer

tryItOut 247

tryItOut 248

tryItOut 249
Running threw: <y>
  <z/>
</y>

tryItOut 250
Compiling threw: SyntaxError: missing ( before let head

tryItOut 251
Compiling threw: TypeError: redeclaration of variable __parent__

tryItOut 252
Running threw: ReferenceError: prop is not defined

tryItOut 253

tryItOut 254
Compiling threw: SyntaxError: invalid for/in left-hand side

tryItOut 255
Compiling threw: SyntaxError: missing ; after for-loop initializer

tryItOut 256
Running threw: <x>
  <y/>
</x>

tryItOut 257
It's an iterator!
Iterating succeeded, iterCount == 1

tryItOut 258
Compiling threw: SyntaxError: missing ( before let head

tryItOut 259

tryItOut 260

tryItOut 261
Running threw: ReferenceError: prop is not defined

tryItOut 262

tryItOut 263

tryItOut 264
Compiling threw: SyntaxError: invalid for/in left-hand side

tryItOut 265

tryItOut 266
Compiling threw: SyntaxError: invalid for/in left-hand side

tryItOut 267

tryItOut 268
Compiling threw: SyntaxError: invalid for/in left-hand side

tryItOut 269
Compiling threw: SyntaxError: invalid for/in left-hand side

tryItOut 270
Compiling threw: SyntaxError: invalid for/in left-hand side

tryItOut 271
Compiling threw: SyntaxError: missing ) after let head

tryItOut 272
Compiling threw: SyntaxError: missing variable name

tryItOut 273
Compiling threw: SyntaxError: invalid for/in left-hand side

tryItOut 274
Compiling threw: TypeError: redeclaration of variable __iterator__

tryItOut 275

tryItOut 276

tryItOut 277
Running threw: Error: invalid sharp variable use #1#

tryItOut 278
Compiling threw: SyntaxError: invalid for/in left-hand side

tryItOut 279

tryItOut 280
Compiling threw: SyntaxError: invalid for/in left-hand side

tryItOut 281

tryItOut 282
Compiling threw: SyntaxError: syntax error

tryItOut 283
Compiling threw: SyntaxError: syntax error

tryItOut 284
Running threw: ReferenceError: prototype is not defined

tryItOut 285

tryItOut 286

tryItOut 287

tryItOut 288
Compiling threw: SyntaxError: invalid for each loop

tryItOut 289

tryItOut 290
Compiling threw: SyntaxError: invalid for/in left-hand side

tryItOut 291

tryItOut 292

tryItOut 293

tryItOut 294

tryItOut 295
Compiling threw: SyntaxError: missing } after let block

tryItOut 296

tryItOut 297

tryItOut 298
Running threw: TypeError: this.zzz has no properties

tryItOut 299
Running threw: ReferenceError: window is not defined

tryItOut 300
Running threw: Can't toString the error!!

tryItOut 301
Running threw: ReferenceError: window is not defined

tryItOut 302
Compiling threw: SyntaxError: missing { before function body

tryItOut 303
Compiling threw: SyntaxError: invalid default XML namespace

tryItOut 304
Running threw: ReferenceError: prop is not defined

tryItOut 305
Compiling threw: SyntaxError: invalid assignment left-hand side

tryItOut 306
Running threw: ReferenceError: reference to undefined XML name *

tryItOut 307
Running threw: TypeError: p.z = <x><y/></x> is not a function

tryItOut 308

tryItOut 309
Compiling threw: TypeError: redeclaration of variable prototype

tryItOut 310
Compiling threw: SyntaxError: missing variable name

tryItOut 311

tryItOut 312

tryItOut 313

tryItOut 314
Compiling threw: SyntaxError: invalid assignment left-hand side

tryItOut 315
Compiling threw: SyntaxError: missing } after let block

tryItOut 316
Compiling threw: SyntaxError: missing variable name

tryItOut 317
Compiling threw: SyntaxError: missing { before function body

tryItOut 318

tryItOut 319

tryItOut 320

tryItOut 321

tryItOut 322

tryItOut 323

tryItOut 324
Compiling threw: SyntaxError: syntax error

tryItOut 325
Compiling threw: SyntaxError: invalid for/in left-hand side

tryItOut 326
Running threw: ReferenceError: window is not defined

tryItOut 327

tryItOut 328

tryItOut 329
Running threw: TypeError: redeclaration of var __count__

tryItOut 330

tryItOut 331
Compiling threw: SyntaxError: missing ; before statement

tryItOut 332

tryItOut 333
Compiling threw: SyntaxError: invalid increment operand

tryItOut 334
Compiling threw: SyntaxError: invalid assignment left-hand side

tryItOut 335

tryItOut 336
Compiling threw: SyntaxError: missing name after . operator

tryItOut 337
Compiling threw: SyntaxError: missing variable name

tryItOut 338

tryItOut 339
Compiling threw: SyntaxError: missing ) in parenthetical

tryItOut 340

tryItOut 341
Compiling threw: TypeError: redeclaration of const prototype

tryItOut 342
Compiling threw: SyntaxError: invalid for/in left-hand side

tryItOut 343
Running threw: ReferenceError: reference to undefined XML name @foo

tryItOut 344

tryItOut 345

tryItOut 346
Compiling threw: SyntaxError: duplicate label

tryItOut 347

tryItOut 348
Compiling threw: TypeError: redeclaration of variable __count__

tryItOut 349

tryItOut 350

tryItOut 351

tryItOut 352
Compiling threw: SyntaxError: syntax error

tryItOut 353
Compiling threw: SyntaxError: missing ; after for-loop initializer

tryItOut 354
Compiling threw: SyntaxError: missing variable name

tryItOut 355

tryItOut 356
Running threw: ReferenceError: reference to undefined XML name *

tryItOut 357

tryItOut 358
Compiling threw: SyntaxError: syntax error

tryItOut 359
Running threw: ReferenceError: prototype is not defined

tryItOut 360

tryItOut 361
Running threw: ReferenceError: prototype is not defined

tryItOut 362

tryItOut 363
Compiling threw: TypeError: redeclaration of variable __noSuchMethod__

tryItOut 364

tryItOut 365
Running threw: ReferenceError: reference to undefined XML name *

tryItOut 366

tryItOut 367

tryItOut 368

tryItOut 369
Running threw: Can't toString the error!!

tryItOut 370

tryItOut 371

tryItOut 372

tryItOut 373

tryItOut 374
Compiling threw: SyntaxError: invalid for/in left-hand side

tryItOut 375

tryItOut 376

tryItOut 377

tryItOut 378

tryItOut 379
Running threw: function ([y]) {
}

tryItOut 380
Compiling threw: SyntaxError: missing { before function body

tryItOut 381

tryItOut 382
Running threw: ReferenceError: prop is not defined

tryItOut 383

tryItOut 384
Compiling threw: SyntaxError: missing ) in parenthetical

tryItOut 385
Running threw: ReferenceError: z1 is not defined

tryItOut 386
Compiling threw: SyntaxError: missing ) in parenthetical

tryItOut 387

tryItOut 388
Running threw: ReferenceError: prototype is not defined

tryItOut 389
Compiling threw: SyntaxError: invalid for/in left-hand side

tryItOut 390
Compiling threw: SyntaxError: syntax error

tryItOut 391

tryItOut 392

tryItOut 393
Compiling threw: SyntaxError: invalid assignment left-hand side

tryItOut 394
Compiling threw: SyntaxError: missing { before function body

tryItOut 395
Compiling threw: SyntaxError: invalid for/in left-hand side

tryItOut 396
Running threw: ReferenceError: reference to undefined XML name *::*

tryItOut 397

tryItOut 398

tryItOut 399

tryItOut 400

tryItOut 401
Compiling threw: SyntaxError: missing ) in parenthetical

tryItOut 402
Compiling threw: SyntaxError: invalid assignment left-hand side

tryItOut 403

tryItOut 404
Compiling threw: SyntaxError: invalid for/in left-hand side

tryItOut 405
Compiling threw: SyntaxError: missing } after let block

tryItOut 406
Compiling threw: SyntaxError: invalid for/in left-hand side

tryItOut 407
It's an iterator!
Iterating threw!
Iterating threw: ReferenceError: prop is not defined

tryItOut 408
Compiling threw: SyntaxError: invalid for each loop

tryItOut 409
Running threw: ReferenceError: prototype is not defined

tryItOut 410
Compiling threw: SyntaxError: missing ) in parenthetical

tryItOut 411

tryItOut 412
Compiling threw: SyntaxError: invalid for/in left-hand side

tryItOut 413
It's an iterator!
Iterating threw!
Iterating threw: ReferenceError: reference to undefined XML name *

tryItOut 414
Compiling threw: SyntaxError: missing variable name

tryItOut 415

tryItOut 416
Compiling threw: SyntaxError: invalid for each loop

tryItOut 417

tryItOut 418

tryItOut 419

tryItOut 420
Compiling threw: TypeError: redeclaration of variable __parent__

tryItOut 421
Compiling threw: SyntaxError: invalid assignment left-hand side

tryItOut 422

tryItOut 423

tryItOut 424
Compiling threw: SyntaxError: invalid decrement operand

tryItOut 425
Running threw: 

tryItOut 426
Running threw: TypeError: arguments[0] has no properties

tryItOut 427
Compiling threw: SyntaxError: missing variable name

tryItOut 428
Compiling threw: SyntaxError: invalid for/in left-hand side

tryItOut 429

tryItOut 430

tryItOut 431
Compiling threw: SyntaxError: missing } after let block

tryItOut 432

tryItOut 433

tryItOut 434
Compiling threw: SyntaxError: syntax error

tryItOut 435

tryItOut 436
Compiling threw: SyntaxError: invalid assignment left-hand side

tryItOut 437

tryItOut 438
Running threw: TypeError: __noSuchMethod__ has no properties

tryItOut 439
Compiling threw: SyntaxError: missing ) in parenthetical

tryItOut 440

tryItOut 441
Compiling threw: SyntaxError: invalid for/in left-hand side

tryItOut 442
Compiling threw: SyntaxError: missing variable name

tryItOut 443

tryItOut 444
Running threw: TypeError: this.zzz has no properties

tryItOut 445
Compiling threw: SyntaxError: missing ) in parenthetical

tryItOut 446

tryItOut 447

tryItOut 448
Compiling threw: SyntaxError: missing variable name

tryItOut 449

tryItOut 450

tryItOut 451
Compiling threw: SyntaxError: missing { before function body

tryItOut 452
Compiling threw: SyntaxError: syntax error

tryItOut 453

tryItOut 454
Running threw: TypeError: __count__ is not a function

tryItOut 455
Compiling threw: SyntaxError: missing variable name

tryItOut 456

tryItOut 457

tryItOut 458

tryItOut 459
Compiling threw: SyntaxError: invalid XML name

tryItOut 460

tryItOut 461

tryItOut 462

tryItOut 463

tryItOut 464
Running threw: ReferenceError: reference to undefined XML name @foo

tryItOut 465

tryItOut 466
Compiling threw: SyntaxError: missing } after let block

tryItOut 467

tryItOut 468
Compiling threw: SyntaxError: missing variable name

tryItOut 469

tryItOut 470

tryItOut 471
Running threw: ReferenceError: reference to undefined XML name *::*

tryItOut 472

tryItOut 473
Compiling threw: SyntaxError: missing ) after with-statement object

tryItOut 474
Compiling threw: SyntaxError: missing variable name

tryItOut 475

tryItOut 476
Running threw: ReferenceError: prop is not defined

tryItOut 477
Compiling threw: SyntaxError: missing ; before statement

tryItOut 478

tryItOut 479

tryItOut 480
Compiling threw: SyntaxError: missing ) in parenthetical

tryItOut 481
Running threw: <y>
  <z/>
</y>

tryItOut 482

tryItOut 483
Compiling threw: SyntaxError: missing ) after let head

tryItOut 484
Running threw: 1e+81

tryItOut 485

tryItOut 486

tryItOut 487

tryItOut 488
Running threw: TypeError: redeclaration of var __proto__

tryItOut 489
Compiling threw: SyntaxError: missing variable name

tryItOut 490

tryItOut 491

tryItOut 492

tryItOut 493

tryItOut 494
Compiling threw: SyntaxError: missing { before function body

tryItOut 495

tryItOut 496
Compiling threw: SyntaxError: missing { before function body

tryItOut 497
Running threw: <x>
  <y/>
</x>

tryItOut 498
Compiling threw: SyntaxError: missing ) in parenthetical

tryItOut 499

tryItOut 500

tryItOut 501
Compiling threw: SyntaxError: invalid assignment left-hand side

tryItOut 502
Running threw: ReferenceError: window is not defined

tryItOut 503

tryItOut 504

tryItOut 505
Compiling threw: SyntaxError: invalid for/in left-hand side

tryItOut 506
Running threw: ReferenceError: window is not defined

tryItOut 507

tryItOut 508
Running threw: ReferenceError: reference to undefined XML name @foo

tryItOut 509

tryItOut 510

tryItOut 511
Compiling threw: SyntaxError: syntax error

tryItOut 512
Compiling threw: SyntaxError: invalid assignment left-hand side

tryItOut 513
Running threw: ReferenceError: reference to undefined XML name *

tryItOut 514

tryItOut 515
Compiling threw: SyntaxError: invalid decrement operand

tryItOut 516
Running threw: null

tryItOut 517

tryItOut 518
Running threw: TypeError: redeclaration of const __parent__

tryItOut 519
Compiling threw: SyntaxError: syntax error

tryItOut 520

tryItOut 521
Running threw: ReferenceError: reference to undefined XML name @foo

tryItOut 522
Compiling threw: SyntaxError: missing ) in parenthetical

tryItOut 523
Compiling threw: SyntaxError: missing ; after for-loop initializer

tryItOut 524

tryItOut 525
Compiling threw: SyntaxError: missing { before function body

tryItOut 526
Compiling threw: SyntaxError: invalid for/in left-hand side

tryItOut 527

tryItOut 528
Running threw: TypeError: undefined is not a function

tryItOut 529
Compiling threw: SyntaxError: syntax error

tryItOut 530

tryItOut 531
Compiling threw: SyntaxError: missing ) in parenthetical

tryItOut 532

tryItOut 533
Compiling threw: TypeError: redeclaration of variable __iterator__

tryItOut 534
Running threw: ReferenceError: reference to undefined XML name *::*

tryItOut 535
Running threw: 1e+81

tryItOut 536
Compiling threw: TypeError: redeclaration of var prop

tryItOut 537

tryItOut 538

tryItOut 539

tryItOut 540

tryItOut 541
Compiling threw: SyntaxError: invalid for each loop

tryItOut 542
Compiling threw: SyntaxError: illegal XML character

tryItOut 543

tryItOut 544
Compiling threw: SyntaxError: syntax error

tryItOut 545

tryItOut 546
Compiling threw: SyntaxError: invalid for each loop

tryItOut 547

tryItOut 548
Compiling threw: SyntaxError: syntax error

tryItOut 549

tryItOut 550
Compiling threw: SyntaxError: invalid for/in left-hand side

tryItOut 551
Compiling threw: SyntaxError: syntax error

tryItOut 552

tryItOut 553

tryItOut 554

tryItOut 555

tryItOut 556
It's an iterator!
Iterating succeeded, iterCount == 1

tryItOut 557

tryItOut 558

tryItOut 559
Running threw: TypeError: __iterator__ has no properties

tryItOut 560
Compiling threw: SyntaxError: invalid for/in left-hand side

tryItOut 561
Compiling threw: SyntaxError: invalid for/in left-hand side

tryItOut 562

tryItOut 563

tryItOut 564

tryItOut 565

tryItOut 566
Compiling threw: SyntaxError: invalid for/in left-hand side

tryItOut 567

tryItOut 568
Compiling threw: SyntaxError: missing } after let block

tryItOut 569
Compiling threw: SyntaxError: missing variable name

tryItOut 570
Compiling threw: SyntaxError: missing { before function body

tryItOut 571
Compiling threw: SyntaxError: missing ; after for-loop initializer

tryItOut 572
Compiling threw: SyntaxError: missing ) in parenthetical

tryItOut 573

tryItOut 574
Compiling threw: SyntaxError: missing ; before statement

tryItOut 575

tryItOut 576
Running threw: /x/g

tryItOut 577

tryItOut 578

tryItOut 579

tryItOut 580
Compiling threw: SyntaxError: missing { before function body

tryItOut 581
Compiling threw: SyntaxError: syntax error

tryItOut 582

tryItOut 583
Compiling threw: SyntaxError: missing ) after condition

tryItOut 584

tryItOut 585

tryItOut 586
Compiling threw: SyntaxError: missing ) in parenthetical

tryItOut 587

tryItOut 588

tryItOut 589

tryItOut 590

tryItOut 591

tryItOut 592
Compiling threw: SyntaxError: syntax error

tryItOut 593
Compiling threw: SyntaxError: missing ) after condition

tryItOut 594
Compiling threw: SyntaxError: missing { before function body

tryItOut 595
Running threw: TypeError: "".unwatch("__parent__") has no properties

tryItOut 596
Compiling threw: SyntaxError: missing ; after for-loop initializer

tryItOut 597
Compiling threw: SyntaxError: missing { before function body

tryItOut 598
Compiling threw: SyntaxError: syntax error

tryItOut 599

tryItOut 600
It's an iterator!
Iterating threw!
Iterating threw: Can't toString the error!!

tryItOut 601
Running threw: TypeError: this.zzz has no properties

tryItOut 602
Compiling threw: SyntaxError: syntax error

tryItOut 603
Running threw: 1

tryItOut 604

tryItOut 605

tryItOut 606
Compiling threw: SyntaxError: syntax error

tryItOut 607
Compiling threw: SyntaxError: invalid XML tag syntax

tryItOut 608
Running threw: Can't toString the error!!

tryItOut 609

tryItOut 610
It's an iterator!
Iterating threw!
Iterating threw: SyntaxError: invalid setter usage

tryItOut 611

tryItOut 612

tryItOut 613

tryItOut 614
Running threw: Error: invalid sharp variable use #1#

tryItOut 615
Compiling threw: SyntaxError: invalid assignment left-hand side

tryItOut 616
Compiling threw: SyntaxError: syntax error

tryItOut 617
Compiling threw: SyntaxError: missing variable name

tryItOut 618

tryItOut 619

tryItOut 620

tryItOut 621
Running threw: 112

tryItOut 622
Compiling threw: SyntaxError: invalid assignment left-hand side

tryItOut 623
Compiling threw: SyntaxError: invalid for each loop

tryItOut 624
Compiling threw: SyntaxError: missing ) after argument list

tryItOut 625
Compiling threw: SyntaxError: invalid for/in left-hand side

tryItOut 626
Compiling threw: SyntaxError: syntax error

tryItOut 627
Compiling threw: SyntaxError: missing name after . operator

tryItOut 628

tryItOut 629
Compiling threw: SyntaxError: invalid for/in left-hand side

tryItOut 630

tryItOut 631
Running threw: TypeError: __noSuchMethod__ has no properties

tryItOut 632

tryItOut 633

tryItOut 634

tryItOut 635

tryItOut 636

tryItOut 637

tryItOut 638

tryItOut 639
Compiling threw: SyntaxError: missing ; after for-loop initializer

tryItOut 640

tryItOut 641
Compiling threw: TypeError: redeclaration of var __count__

tryItOut 642

tryItOut 643
Compiling threw: SyntaxError: invalid sharp variable definition

tryItOut 644
Compiling threw: SyntaxError: missing ) after condition

tryItOut 645

tryItOut 646

tryItOut 647
Compiling threw: SyntaxError: invalid assignment left-hand side

tryItOut 648
Running threw: 

tryItOut 649

tryItOut 650
Compiling threw: SyntaxError: invalid assignment left-hand side

tryItOut 651
Compiling threw: SyntaxError: invalid assignment left-hand side

tryItOut 652
Compiling threw: TypeError: redeclaration of variable prototype

tryItOut 653
Compiling threw: SyntaxError: missing } after let block

tryItOut 654

tryItOut 655

tryItOut 656

tryItOut 657

tryItOut 658
Compiling threw: SyntaxError: missing ) in parenthetical

tryItOut 659

tryItOut 660
Compiling threw: SyntaxError: missing ) after condition

tryItOut 661
Compiling threw: SyntaxError: missing variable name

tryItOut 662

tryItOut 663
Compiling threw: SyntaxError: invalid for/in left-hand side

tryItOut 664
Compiling threw: SyntaxError: missing ) after condition

tryItOut 665

tryItOut 666

tryItOut 667
Compiling threw: SyntaxError: invalid for/in left-hand side

tryItOut 668
Compiling threw: SyntaxError: invalid assignment left-hand side

tryItOut 669

tryItOut 670
Running threw: TypeError: p.z = <y><z/></y> is not a function

tryItOut 671
Compiling threw: SyntaxError: invalid assignment left-hand side

tryItOut 672
Compiling threw: SyntaxError: missing variable name

tryItOut 673

tryItOut 674
Compiling threw: SyntaxError: syntax error

tryItOut 675
Compiling threw: SyntaxError: invalid for/in left-hand side

tryItOut 676
Compiling threw: SyntaxError: invalid for/in left-hand side

tryItOut 677
Compiling threw: SyntaxError: invalid XML name

tryItOut 678
Compiling threw: SyntaxError: invalid for/in left-hand side

tryItOut 679

tryItOut 680

tryItOut 681

tryItOut 682
Compiling threw: SyntaxError: syntax error

tryItOut 683
Compiling threw: SyntaxError: duplicate label

tryItOut 684

tryItOut 685

tryItOut 686

tryItOut 687
Compiling threw: SyntaxError: missing variable name

tryItOut 688

tryItOut 689
Compiling threw: SyntaxError: invalid assignment left-hand side

tryItOut 690
Compiling threw: SyntaxError: invalid increment operand

tryItOut 691
Compiling threw: SyntaxError: missing { before function body

tryItOut 692
Compiling threw: SyntaxError: missing variable name

tryItOut 693
Running threw: ReferenceError: reference to undefined XML name *

tryItOut 694
Compiling threw: SyntaxError: missing ; before statement

tryItOut 695
Running threw: TypeError: this.zzz has no properties

tryItOut 696
Compiling threw: SyntaxError: missing variable name

tryItOut 697
Running threw: ReferenceError: reference to undefined XML name *

tryItOut 698

tryItOut 699
Running threw: ReferenceError: reference to undefined XML name *::*

tryItOut 700
Compiling threw: SyntaxError: invalid for/in left-hand side

tryItOut 701
Compiling threw: SyntaxError: missing ) in parenthetical

tryItOut 702

tryItOut 703
Compiling threw: TypeError: redeclaration of const __proto__

tryItOut 704
Compiling threw: SyntaxError: syntax error

tryItOut 705
Compiling threw: SyntaxError: missing variable name

tryItOut 706
Compiling threw: SyntaxError: duplicate label

tryItOut 707

tryItOut 708
Compiling threw: SyntaxError: missing variable name

tryItOut 709
Running threw: ReferenceError: reference to undefined XML name *

tryItOut 710
Compiling threw: SyntaxError: invalid for/in left-hand side

tryItOut 711
Compiling threw: SyntaxError: missing ) after for-loop control

tryItOut 712

tryItOut 713

tryItOut 714

tryItOut 715

tryItOut 716
Compiling threw: SyntaxError: missing ) in parenthetical

tryItOut 717

tryItOut 718
Compiling threw: TypeError: redeclaration of const __iterator__

tryItOut 719
Compiling threw: SyntaxError: invalid for/in left-hand side

tryItOut 720
Compiling threw: SyntaxError: missing { before function body

tryItOut 721
Running threw: 1e+81

tryItOut 722

tryItOut 723
Compiling threw: SyntaxError: missing variable name

tryItOut 724

tryItOut 725

tryItOut 726
Compiling threw: SyntaxError: missing : after property id

tryItOut 727

tryItOut 728

tryItOut 729

tryItOut 730

tryItOut 731
Compiling threw: SyntaxError: missing ; after for-loop initializer

tryItOut 732

tryItOut 733

tryItOut 734
Compiling threw: SyntaxError: syntax error

tryItOut 735
Running threw: SyntaxError: invalid setter usage

tryItOut 736

tryItOut 737

tryItOut 738

tryItOut 739
Compiling threw: SyntaxError: missing variable name

tryItOut 740
Compiling threw: SyntaxError: invalid for/in left-hand side

tryItOut 741

tryItOut 742

tryItOut 743
Compiling threw: SyntaxError: missing ) in parenthetical

tryItOut 744
Compiling threw: SyntaxError: missing ) in parenthetical

tryItOut 745
Compiling threw: SyntaxError: missing { before function body

tryItOut 746
Compiling threw: SyntaxError: missing ) in parenthetical

tryItOut 747

tryItOut 748
Compiling threw: SyntaxError: missing variable name

tryItOut 749
Compiling threw: SyntaxError: invalid for/in left-hand side

tryItOut 750

tryItOut 751

tryItOut 752

tryItOut 753
Compiling threw: SyntaxError: invalid assignment left-hand side

tryItOut 754
Compiling threw: SyntaxError: missing ) in parenthetical

tryItOut 755

tryItOut 756
Compiling threw: SyntaxError: missing variable name

tryItOut 757
Running threw: ReferenceError: window is not defined

tryItOut 758
Compiling threw: SyntaxError: invalid for/in left-hand side

tryItOut 759
Compiling threw: SyntaxError: missing ) in parenthetical

tryItOut 760

tryItOut 761
Compiling threw: SyntaxError: invalid assignment left-hand side

tryItOut 762

tryItOut 763

tryItOut 764

tryItOut 765
Running threw: <x>
  <y/>
</x>

tryItOut 766

tryItOut 767
Compiling threw: SyntaxError: invalid assignment left-hand side

tryItOut 768

tryItOut 769

tryItOut 770

tryItOut 771

tryItOut 772
Running threw: TypeError: __parent__ has no properties

tryItOut 773
Running threw: ReferenceError: window is not defined

tryItOut 774
Compiling threw: SyntaxError: syntax error

tryItOut 775

tryItOut 776
Compiling threw: SyntaxError: invalid for/in left-hand side

tryItOut 777
Compiling threw: SyntaxError: missing variable name

tryItOut 778
Compiling threw: SyntaxError: illegal XML character

tryItOut 779

tryItOut 780
Running threw: Can't toString the error!!

tryItOut 781

tryItOut 782
Compiling threw: SyntaxError: syntax error

tryItOut 783

tryItOut 784

tryItOut 785
Compiling threw: SyntaxError: missing ; before statement

tryItOut 786
Running threw: /x/g

tryItOut 787
Running threw: ReferenceError: reference to undefined XML name *

tryItOut 788
Compiling threw: SyntaxError: missing ) in parenthetical

tryItOut 789
Compiling threw: SyntaxError: invalid increment operand

tryItOut 790
Compiling threw: SyntaxError: syntax error

tryItOut 791
Compiling threw: SyntaxError: syntax error

tryItOut 792

tryItOut 793

tryItOut 794

tryItOut 795

tryItOut 796

tryItOut 797
Compiling threw: SyntaxError: missing ) in parenthetical

tryItOut 798
Compiling threw: SyntaxError: missing ) in parenthetical

tryItOut 799
Compiling threw: SyntaxError: missing { before function body

tryItOut 800
Compiling threw: SyntaxError: missing variable name

tryItOut 801
Compiling threw: SyntaxError: missing ) in parenthetical

tryItOut 802
Running threw: 5

tryItOut 803
Compiling threw: SyntaxError: missing ( before let head

tryItOut 804

tryItOut 805

tryItOut 806

tryItOut 807

tryItOut 808

tryItOut 809

tryItOut 810
Compiling threw: SyntaxError: missing ) in parenthetical

tryItOut 811
Compiling threw: SyntaxError: syntax error

tryItOut 812
Compiling threw: SyntaxError: missing variable name

tryItOut 813

tryItOut 814
Compiling threw: SyntaxError: missing formal parameter

tryItOut 815
Compiling threw: SyntaxError: syntax error

tryItOut 816
Running threw: ReferenceError: window is not defined

tryItOut 817

tryItOut 818
Compiling threw: SyntaxError: illegal XML character

tryItOut 819

tryItOut 820

tryItOut 821

tryItOut 822
Compiling threw: SyntaxError: invalid for/in left-hand side

tryItOut 823
Running threw: 

tryItOut 824
Compiling threw: SyntaxError: missing ; after for-loop initializer

tryItOut 825

tryItOut 826
Compiling threw: SyntaxError: missing variable name

tryItOut 827

tryItOut 828

tryItOut 829

tryItOut 830
Compiling threw: SyntaxError: missing variable name

tryItOut 831

tryItOut 832

tryItOut 833
Compiling threw: SyntaxError: syntax error

tryItOut 834

tryItOut 835

tryItOut 836
Running threw: ReferenceError: window is not defined

tryItOut 837

tryItOut 838
Running threw: <x>
  <y/>
</x>

tryItOut 839
Compiling threw: SyntaxError: missing variable name

tryItOut 840
Running threw: undefined

tryItOut 841
Compiling threw: SyntaxError: missing { before function body

tryItOut 842
Compiling threw: SyntaxError: syntax error

tryItOut 843
Compiling threw: SyntaxError: missing ) after for-loop control

tryItOut 844
Compiling threw: SyntaxError: missing { before function body

tryItOut 845
It's an iterator!
Iterating threw!
Iterating threw: ReferenceError: reference to undefined XML name *

tryItOut 846

tryItOut 847
Running threw: undefined

tryItOut 848

tryItOut 849

tryItOut 850
Compiling threw: SyntaxError: invalid sharp variable definition

tryItOut 851

tryItOut 852
Compiling threw: SyntaxError: missing variable name

tryItOut 853

tryItOut 854

tryItOut 855

tryItOut 856
Compiling threw: SyntaxError: missing ) in parenthetical

tryItOut 857
Compiling threw: SyntaxError: invalid for/in left-hand side

tryItOut 858

tryItOut 859
Compiling threw: SyntaxError: syntax error

tryItOut 860
Compiling threw: SyntaxError: missing ) in parenthetical

tryItOut 861

tryItOut 862
Running threw: Can't toString the error!!

tryItOut 863

tryItOut 864

tryItOut 865
Compiling threw: SyntaxError: missing variable name

tryItOut 866

tryItOut 867

tryItOut 868
Running threw: ReferenceError: window is not defined

tryItOut 869
Compiling threw: TypeError: redeclaration of variable __count__

tryItOut 870

tryItOut 871

tryItOut 872
Running threw: <x>
  <y/>
</x>

tryItOut 873

tryItOut 874
Compiling threw: SyntaxError: missing variable name

tryItOut 875

tryItOut 876

tryItOut 877
Compiling threw: SyntaxError: missing ; after for-loop initializer

tryItOut 878

tryItOut 879
Compiling threw: SyntaxError: missing ; after for-loop initializer

tryItOut 880

tryItOut 881
Compiling threw: SyntaxError: missing ; after for-loop initializer

tryItOut 882
Compiling threw: SyntaxError: missing ( before switch expression

tryItOut 883
It's an iterator!
Iterating threw!
Iterating threw: 

tryItOut 884

tryItOut 885
Running threw: 

tryItOut 886

tryItOut 887

tryItOut 888
Running threw: ReferenceError: reference to undefined XML name *::*

tryItOut 889

tryItOut 890
Compiling threw: SyntaxError: illegal XML character

tryItOut 891
Compiling threw: SyntaxError: invalid assignment left-hand side

tryItOut 892
Compiling threw: SyntaxError: invalid assignment left-hand side

tryItOut 893

tryItOut 894
Running threw: TypeError: this.zzz has no properties

tryItOut 895
Compiling threw: SyntaxError: invalid assignment left-hand side

tryItOut 896

tryItOut 897

tryItOut 898

tryItOut 899

tryItOut 900
Compiling threw: SyntaxError: invalid for each loop

tryItOut 901
Running threw: ReferenceError: reference to undefined XML name *

tryItOut 902
Compiling threw: SyntaxError: syntax error

tryItOut 903
Running threw: undefined

tryItOut 904

tryItOut 905

tryItOut 906

tryItOut 907

tryItOut 908

tryItOut 909
Compiling threw: SyntaxError: invalid for/in left-hand side

tryItOut 910
Compiling threw: SyntaxError: invalid for/in left-hand side

tryItOut 911
Compiling threw: SyntaxError: missing } in compound statement

tryItOut 912
Running threw: TypeError: (27).@* has no properties

tryItOut 913
Running threw: TypeError: <x/>.yoyo is not a function

tryItOut 914
Compiling threw: SyntaxError: missing variable name

tryItOut 915
Running threw: TypeError: this.zzz has no properties

tryItOut 916
Compiling threw: SyntaxError: missing ) in parenthetical

tryItOut 917
Compiling threw: SyntaxError: syntax error

tryItOut 918
Compiling threw: SyntaxError: unterminated parenthetical

tryItOut 919

tryItOut 920
Running threw: SyntaxError: invalid setter usage

tryItOut 921

tryItOut 922
Compiling threw: SyntaxError: missing ) after argument list

tryItOut 923

tryItOut 924
Compiling threw: SyntaxError: syntax error

tryItOut 925

tryItOut 926
Compiling threw: SyntaxError: missing ) in parenthetical

tryItOut 927

tryItOut 928
Compiling threw: SyntaxError: invalid assignment left-hand side

tryItOut 929

tryItOut 930
Running threw: ReferenceError: reference to undefined XML name @foo

tryItOut 931
Running threw: ReferenceError: z1 is not defined

tryItOut 932

tryItOut 933

tryItOut 934
Running threw: <x>
  <y/>
</x>

tryItOut 935

tryItOut 936

tryItOut 937
Compiling threw: SyntaxError: missing { before function body

tryItOut 938

tryItOut 939
Compiling threw: SyntaxError: invalid for/in left-hand side

tryItOut 940
Compiling threw: SyntaxError: invalid sharp variable definition

tryItOut 941
Running threw: 0

tryItOut 942
Running threw: undefined

tryItOut 943

tryItOut 944

tryItOut 945

tryItOut 946

tryItOut 947

tryItOut 948

tryItOut 949

tryItOut 950
Running threw: ReferenceError: reference to undefined XML name *

tryItOut 951

tryItOut 952
Running threw: ReferenceError: reference to undefined XML name *::*

tryItOut 953
Compiling threw: SyntaxError: missing variable name

tryItOut 954
Compiling threw: TypeError: redeclaration of const prototype

tryItOut 955
Running threw: 

tryItOut 956
Compiling threw: SyntaxError: invalid for/in left-hand side

tryItOut 957
Compiling threw: SyntaxError: invalid assignment left-hand side

tryItOut 958
Running threw: SyntaxError: invalid setter usage

tryItOut 959
Running threw: -1

tryItOut 960

tryItOut 961

tryItOut 962
Compiling threw: SyntaxError: syntax error

tryItOut 963
Compiling threw: SyntaxError: invalid sharp variable definition

tryItOut 964
Compiling threw: SyntaxError: missing ) after condition

tryItOut 965
Running threw: undefined

tryItOut 966

tryItOut 967
Running threw: ReferenceError: __parent__return is not defined

tryItOut 968

tryItOut 969

tryItOut 970
Compiling threw: SyntaxError: invalid for/in left-hand side

tryItOut 971
Compiling threw: SyntaxError: missing : after property id

tryItOut 972
Compiling threw: SyntaxError: invalid for/in left-hand side

tryItOut 973
Compiling threw: SyntaxError: missing ) in parenthetical

tryItOut 974
Compiling threw: TypeError: redeclaration of variable prop

tryItOut 975
Running threw: ReferenceError: constructorthrow is not defined

tryItOut 976
Compiling threw: SyntaxError: illegal XML character

tryItOut 977

tryItOut 978
Compiling threw: SyntaxError: missing { before function body

tryItOut 979
Compiling threw: TypeError: redeclaration of variable __proto__

tryItOut 980
Compiling threw: SyntaxError: missing ) in parenthetical

tryItOut 981
Compiling threw: SyntaxError: invalid for/in left-hand side

tryItOut 982

tryItOut 983

tryItOut 984
Compiling threw: SyntaxError: missing ) after condition

tryItOut 985

tryItOut 986
Running threw: TypeError: __iterator__ has no properties

tryItOut 987
Compiling threw: SyntaxError: invalid for/in left-hand side

tryItOut 988

tryItOut 989
Compiling threw: SyntaxError: invalid for/in left-hand side

tryItOut 990
Running threw: TypeError: "" is not a function

tryItOut 991

tryItOut 992

tryItOut 993
Compiling threw: SyntaxError: invalid for/in left-hand side

tryItOut 994
Compiling threw: SyntaxError: invalid decrement operand

tryItOut 995
Compiling threw: SyntaxError: missing ) in parenthetical

tryItOut 996

tryItOut 997
Compiling threw: TypeError: redeclaration of const constructor

tryItOut 998

tryItOut 999

tryItOut 1000
Compiling threw: TypeError: redeclaration of variable constructor

ALL OK

Script done on Sat 04 May 2013 06:23:21 AM PDT
