Script started on Sat 04 May 2013 06:23:46 AM PDT
***
Targeting SpiderMonkey / Gecko.

tryItOut 1
Compiling threw: SyntaxError: missing ; before statement

tryItOut 2
Compiling threw: SyntaxError: missing ) in parenthetical

tryItOut 3

tryItOut 4
Running threw: ReferenceError: __noSuchMethod__ is not defined

tryItOut 5
Compiling threw: SyntaxError: syntax error

tryItOut 6
Compiling threw: SyntaxError: missing ; before statement

tryItOut 7
Compiling threw: SyntaxError: invalid for/in left-hand side

tryItOut 8
Compiling threw: SyntaxError: missing variable name

tryItOut 9

tryItOut 10
Compiling threw: SyntaxError: missing ; before statement

tryItOut 11

tryItOut 12
Compiling threw: TypeError: redeclaration of variable prototype

tryItOut 13

tryItOut 14
Running threw: ReferenceError: __iterator__ is not defined

tryItOut 15
Compiling threw: SyntaxError: missing ) after for-loop control

tryItOut 16

tryItOut 17
Compiling threw: SyntaxError: missing { before function body

tryItOut 18
Compiling threw: SyntaxError: missing ) after for-loop control

tryItOut 19
Compiling threw: SyntaxError: missing ; after for-loop initializer

tryItOut 20
Compiling threw: SyntaxError: missing { before function body

tryItOut 21
before 87200, after 87200, break 020b3000

tryItOut 22
Compiling threw: SyntaxError: missing variable name

tryItOut 23
Compiling threw: SyntaxError: invalid destructuring assignment operator

tryItOut 24

tryItOut 25

tryItOut 26
Compiling threw: TypeError: redeclaration of const prop

tryItOut 27

tryItOut 28
Compiling threw: TypeError: redeclaration of var __iterator__

tryItOut 29
Compiling threw: TypeError: redeclaration of var __iterator__

tryItOut 30

tryItOut 31
Compiling threw: SyntaxError: invalid assignment left-hand side

tryItOut 32
Compiling threw: SyntaxError: missing variable name

tryItOut 33
Compiling threw: SyntaxError: missing { before function body

tryItOut 34

tryItOut 35
Compiling threw: SyntaxError: missing { before function body

tryItOut 36
Compiling threw: SyntaxError: invalid for/in left-hand side

tryItOut 37

tryItOut 38

tryItOut 39
Compiling threw: SyntaxError: missing ) in parenthetical

tryItOut 40

tryItOut 41
Running threw: ReferenceError: __noSuchMethod__ is not defined

tryItOut 42
Compiling threw: SyntaxError: missing ; before statement

tryItOut 43
Running threw: ReferenceError: reference to undefined XML name *

tryItOut 44
Compiling threw: SyntaxError: missing variable name

tryItOut 45
Compiling threw: SyntaxError: invalid for/in left-hand side

tryItOut 46
Compiling threw: SyntaxError: syntax error

tryItOut 47

tryItOut 48

tryItOut 49

tryItOut 50

tryItOut 51
Compiling threw: SyntaxError: missing ; before statement

tryItOut 52

tryItOut 53
Compiling threw: SyntaxError: missing ; before statement

tryItOut 54

tryItOut 55

tryItOut 56
Compiling threw: SyntaxError: missing ; before statement

tryItOut 57
Compiling threw: TypeError: redeclaration of const prototype

tryItOut 58

tryItOut 59
Compiling threw: SyntaxError: missing ) in parenthetical

tryItOut 60
Compiling threw: SyntaxError: syntax error

tryItOut 61

tryItOut 62

tryItOut 63
Compiling threw: SyntaxError: missing variable name

tryItOut 64
Compiling threw: SyntaxError: missing ; before statement

tryItOut 65

tryItOut 66
Compiling threw: SyntaxError: missing ) in parenthetical

tryItOut 67
Compiling threw: SyntaxError: missing variable name

tryItOut 68

tryItOut 69
Compiling threw: SyntaxError: missing ; before statement

tryItOut 70
Compiling threw: SyntaxError: invalid for each loop

tryItOut 71
Compiling threw: SyntaxError: invalid for each loop

tryItOut 72
Running threw: ReferenceError: reference to undefined XML name @foo

tryItOut 73
Compiling threw: SyntaxError: invalid XML tag syntax

tryItOut 74
before 87200, after 87200, break 020c4000

tryItOut 75
Compiling threw: SyntaxError: missing ; before statement

tryItOut 76
Compiling threw: SyntaxError: missing name after . operator

tryItOut 77

tryItOut 78
Compiling threw: SyntaxError: missing name after . operator

tryItOut 79
before 87200, after 87200, break 020c4000

tryItOut 80
Running threw: ReferenceError: reference to undefined XML name *

tryItOut 81
Compiling threw: TypeError: redeclaration of const __iterator__

tryItOut 82
Compiling threw: SyntaxError: syntax error

tryItOut 83

tryItOut 84

tryItOut 85
Compiling threw: SyntaxError: syntax error

tryItOut 86
Compiling threw: SyntaxError: syntax error

tryItOut 87
Compiling threw: SyntaxError: missing ; before statement

tryItOut 88
Compiling threw: SyntaxError: missing ) after condition

tryItOut 89
Compiling threw: SyntaxError: missing ; after for-loop initializer

tryItOut 90
Compiling threw: SyntaxError: missing ; before statement

tryItOut 91
Compiling threw: SyntaxError: illegal XML character

tryItOut 92
Running threw: ReferenceError: __iterator__ is not defined

tryItOut 93
Compiling threw: SyntaxError: invalid for/in left-hand side

tryItOut 94
Running threw: ReferenceError: reference to undefined XML name *::*

tryItOut 95
Compiling threw: SyntaxError: missing ) after condition

tryItOut 96
Compiling threw: SyntaxError: syntax error

tryItOut 97
Compiling threw: SyntaxError: missing } after property list

tryItOut 98

tryItOut 99
Compiling threw: SyntaxError: duplicate label

tryItOut 100
Compiling threw: SyntaxError: invalid for/in left-hand side

tryItOut 101

tryItOut 102

tryItOut 103

tryItOut 104

tryItOut 105
Compiling threw: SyntaxError: missing ; before statement

tryItOut 106
Compiling threw: SyntaxError: missing ) in parenthetical

tryItOut 107
before 87200, after 87200, break 020c4000

tryItOut 108
Compiling threw: SyntaxError: syntax error

tryItOut 109
Running threw: TypeError: constructor has no properties

tryItOut 110

tryItOut 111
Compiling threw: SyntaxError: invalid assignment left-hand side

tryItOut 112
Running threw: ReferenceError: z1 is not defined

tryItOut 113
Compiling threw: TypeError: redeclaration of const __iterator__

tryItOut 114
Compiling threw: SyntaxError: missing ; before statement

tryItOut 115
before 87200, after 87200, break 020c4000

tryItOut 116
Running threw: TypeError: __count__ has no properties

tryItOut 117
Compiling threw: SyntaxError: duplicate label

tryItOut 118

tryItOut 119
Compiling threw: SyntaxError: missing { before function body

tryItOut 120
Compiling threw: SyntaxError: missing { before function body

tryItOut 121

tryItOut 122
Compiling threw: SyntaxError: syntax error

tryItOut 123

tryItOut 124
Compiling threw: SyntaxError: missing ; before statement

tryItOut 125
Compiling threw: SyntaxError: missing ; before statement

tryItOut 126
Running threw: ReferenceError: __noSuchMethod__ is not defined

tryItOut 127

tryItOut 128

tryItOut 129
Compiling threw: SyntaxError: invalid assignment left-hand side

tryItOut 130
Compiling threw: SyntaxError: illegal XML character

tryItOut 131
Compiling threw: SyntaxError: missing variable name

tryItOut 132
Compiling threw: SyntaxError: missing ) in parenthetical

tryItOut 133

tryItOut 134
Compiling threw: SyntaxError: missing = in destructuring declaration

tryItOut 135
Compiling threw: SyntaxError: missing ; before statement

tryItOut 136
Compiling threw: SyntaxError: missing name after . operator

tryItOut 137
Running threw: TypeError: this.zzz has no properties

tryItOut 138
Compiling threw: SyntaxError: missing { before function body

tryItOut 139
before 87200, after 87200, break 020c4000

tryItOut 140
Running threw: [object StopIteration]

tryItOut 141

tryItOut 142
Compiling threw: SyntaxError: invalid increment operand

tryItOut 143
Running threw: ReferenceError: reference to undefined XML name @foo

tryItOut 144
Compiling threw: SyntaxError: missing ) after condition

tryItOut 145
Running threw: TypeError: __parent__ has no properties

tryItOut 146
Compiling threw: SyntaxError: missing ( before let head

tryItOut 147
Compiling threw: TypeError: redeclaration of var constructor

tryItOut 148

tryItOut 149
Compiling threw: SyntaxError: missing ; before statement

tryItOut 150

tryItOut 151
Compiling threw: SyntaxError: missing { before function body

tryItOut 152
Compiling threw: SyntaxError: missing ; before statement

tryItOut 153

tryItOut 154
Compiling threw: SyntaxError: missing ; before statement

tryItOut 155

tryItOut 156
Compiling threw: SyntaxError: missing } after let block

tryItOut 157
Compiling threw: SyntaxError: missing ; before statement

tryItOut 158

tryItOut 159
Compiling threw: SyntaxError: invalid for/in left-hand side

tryItOut 160

tryItOut 161
Compiling threw: TypeError: redeclaration of const __parent__

tryItOut 162

tryItOut 163

tryItOut 164
Running threw: ReferenceError: reference to undefined XML name *

tryItOut 165

tryItOut 166
Running threw: ReferenceError: reference to undefined XML name *::*

tryItOut 167

tryItOut 168
before 104640, after 104640, break 020c4000

tryItOut 169
Compiling threw: SyntaxError: missing } in compound statement

tryItOut 170

tryItOut 171
Compiling threw: SyntaxError: missing } after property list

tryItOut 172

tryItOut 173

tryItOut 174
before 104640, after 104640, break 02106000

tryItOut 175
before 104640, after 104640, break 02106000
Running threw: [object StopIteration]

tryItOut 176
Compiling threw: TypeError: redeclaration of variable prototype

tryItOut 177
Compiling threw: SyntaxError: missing ; before statement

tryItOut 178
Compiling threw: SyntaxError: missing { before function body

tryItOut 179
Compiling threw: SyntaxError: missing ; before statement

tryItOut 180

tryItOut 181

tryItOut 182
Compiling threw: SyntaxError: missing ) in parenthetical

tryItOut 183
Compiling threw: SyntaxError: invalid for/in left-hand side

tryItOut 184
Compiling threw: TypeError: redeclaration of var __count__

tryItOut 185
Running threw: ReferenceError: reference to undefined XML name *

tryItOut 186

tryItOut 187

tryItOut 188

tryItOut 189
It's an iterator!
before 104640, after 104640, break 02106000
Iterating threw!
Iterating threw: ReferenceError: z1 is not defined

tryItOut 190
Running threw: ReferenceError: reference to undefined XML name *

tryItOut 191
Compiling threw: TypeError: anonymous generator function returns a value

tryItOut 192
Compiling threw: SyntaxError: invalid assignment left-hand side

tryItOut 193
Compiling threw: SyntaxError: syntax error

tryItOut 194
before 104640, after 104640, break 02106000

tryItOut 195
It's an iterator!
Iterating threw!
Iterating threw: ReferenceError: __noSuchMethod__ is not defined

tryItOut 196
Running threw: TypeError: this.zzz has no properties

tryItOut 197

tryItOut 198

tryItOut 199
Compiling threw: TypeError: redeclaration of const __proto__

tryItOut 200
Compiling threw: SyntaxError: missing } after let block

tryItOut 201
Compiling threw: TypeError: redeclaration of var prop

tryItOut 202
before 104640, after 104640, break 02106000

tryItOut 203
Compiling threw: SyntaxError: missing ; after for-loop initializer

tryItOut 204
Running threw: ReferenceError: reference to undefined XML name @foo

tryItOut 205
Running threw: ReferenceError: reference to undefined XML name *

tryItOut 206
Compiling threw: SyntaxError: missing variable name

tryItOut 207
Compiling threw: SyntaxError: missing ; before statement

tryItOut 208
before 104640, after 104640, break 02106000

tryItOut 209
Compiling threw: SyntaxError: invalid for/in left-hand side

tryItOut 210
Running threw: ReferenceError: reference to undefined XML name *::*

tryItOut 211

tryItOut 212
Compiling threw: SyntaxError: missing ( before let head

tryItOut 213
Running threw: TypeError: (10000)['throw'] is not a function

tryItOut 214

tryItOut 215
Compiling threw: SyntaxError: syntax error

tryItOut 216
Running threw: ReferenceError: constructorgc is not defined

tryItOut 217
Compiling threw: SyntaxError: missing formal parameter

tryItOut 218
before 104640, after 104640, break 02106000

tryItOut 219
Compiling threw: SyntaxError: missing ; before statement

tryItOut 220
Compiling threw: SyntaxError: missing variable name

tryItOut 221
Compiling threw: SyntaxError: invalid destructuring assignment operator

tryItOut 222

tryItOut 223
Compiling threw: SyntaxError: missing { before function body

tryItOut 224
before 104640, after 104640, break 02106000

tryItOut 225

tryItOut 226

tryItOut 227
Running threw: ReferenceError: reference to undefined XML name *

tryItOut 228
Compiling threw: SyntaxError: missing identifier in catch

tryItOut 229

tryItOut 230
Compiling threw: SyntaxError: missing ( before formal parameters

tryItOut 231
Compiling threw: SyntaxError: missing ; before statement

tryItOut 232

tryItOut 233

tryItOut 234
Compiling threw: SyntaxError: missing ; before statement

tryItOut 235
Compiling threw: SyntaxError: missing ; before statement

tryItOut 236
Compiling threw: SyntaxError: missing = in destructuring declaration

tryItOut 237
Running threw: ReferenceError: reference to undefined XML name *::*

tryItOut 238

tryItOut 239
Compiling threw: SyntaxError: missing ; after for-loop initializer

tryItOut 240
Compiling threw: SyntaxError: syntax error

tryItOut 241
Compiling threw: SyntaxError: missing ; before statement

tryItOut 242

tryItOut 243
Compiling threw: SyntaxError: missing ; before statement

tryItOut 244
Compiling threw: SyntaxError: missing variable name

tryItOut 245
Compiling threw: SyntaxError: syntax error

tryItOut 246

tryItOut 247
Compiling threw: SyntaxError: missing ) in parenthetical

tryItOut 248
Running threw: SyntaxError: illegal XML character

tryItOut 249
before 104640, after 104640, break 02106000

tryItOut 250

tryItOut 251
Compiling threw: TypeError: redeclaration of variable prototype

tryItOut 252
Compiling threw: TypeError: redeclaration of variable __proto__

tryItOut 253

tryItOut 254
Compiling threw: SyntaxError: syntax error

tryItOut 255
Compiling threw: SyntaxError: missing ] after element list

tryItOut 256

tryItOut 257

tryItOut 258
Compiling threw: SyntaxError: invalid assignment left-hand side

tryItOut 259

tryItOut 260

tryItOut 261
Compiling threw: SyntaxError: missing = in destructuring declaration

tryItOut 262
Compiling threw: SyntaxError: missing ) after condition

tryItOut 263
before 104640, after 104640, break 02106000

tryItOut 264

tryItOut 265

tryItOut 266
Compiling threw: SyntaxError: syntax error

tryItOut 267
Compiling threw: SyntaxError: missing { before function body

tryItOut 268
before 104640, after 104640, break 02106000

tryItOut 269
Compiling threw: SyntaxError: missing { before function body

tryItOut 270
Compiling threw: SyntaxError: missing ; before statement

tryItOut 271
Running threw: ReferenceError: reference to undefined XML name @foo

tryItOut 272
Compiling threw: SyntaxError: missing ; before statement

tryItOut 273

tryItOut 274
Compiling threw: SyntaxError: missing { before function body

tryItOut 275

tryItOut 276
Compiling threw: SyntaxError: missing variable name

tryItOut 277
Running threw: ReferenceError: reference to undefined XML name *

tryItOut 278
Compiling threw: SyntaxError: missing : after property id

tryItOut 279

tryItOut 280
Compiling threw: SyntaxError: missing variable name

tryItOut 281

tryItOut 282
Compiling threw: SyntaxError: missing variable name

tryItOut 283
Compiling threw: SyntaxError: syntax error

tryItOut 284

tryItOut 285
Compiling threw: SyntaxError: missing ; after for-loop initializer

tryItOut 286
Compiling threw: SyntaxError: syntax error

tryItOut 287
Compiling threw: SyntaxError: missing ; before statement

tryItOut 288
Compiling threw: SyntaxError: missing ; before statement

tryItOut 289

tryItOut 290
Compiling threw: SyntaxError: missing ; before statement

tryItOut 291
Compiling threw: SyntaxError: missing ) in parenthetical

tryItOut 292
Compiling threw: SyntaxError: missing : after property id

tryItOut 293
Compiling threw: SyntaxError: missing { before function body

tryItOut 294
Compiling threw: SyntaxError: missing ; before statement

tryItOut 295
Compiling threw: TypeError: redeclaration of var __iterator__

tryItOut 296
Compiling threw: SyntaxError: invalid destructuring assignment operator

tryItOut 297
Compiling threw: SyntaxError: missing ; before statement

tryItOut 298
Compiling threw: SyntaxError: missing ) after condition

tryItOut 299
Compiling threw: SyntaxError: missing ; before statement

tryItOut 300

tryItOut 301
Running threw: ReferenceError: z2 is not defined

tryItOut 302

tryItOut 303
Compiling threw: SyntaxError: syntax error

tryItOut 304
Running threw: TypeError: this.zzz has no properties

tryItOut 305
Compiling threw: TypeError: redeclaration of variable __proto__

tryItOut 306
Compiling threw: SyntaxError: missing variable name

tryItOut 307

tryItOut 308
Compiling threw: SyntaxError: missing } in compound statement

tryItOut 309
Compiling threw: SyntaxError: missing ; before statement

tryItOut 310

tryItOut 311
Compiling threw: SyntaxError: missing ) after condition

tryItOut 312

tryItOut 313

tryItOut 314

tryItOut 315

tryItOut 316
Compiling threw: SyntaxError: missing ; before statement

tryItOut 317
Compiling threw: SyntaxError: missing variable name

tryItOut 318

tryItOut 319
Running threw: ReferenceError: reference to undefined XML name *::*

tryItOut 320
Running threw: TypeError: this.zzz has no properties

tryItOut 321
Compiling threw: SyntaxError: missing } after let block

tryItOut 322

tryItOut 323

tryItOut 324
Compiling threw: SyntaxError: missing ) after condition

tryItOut 325
Compiling threw: SyntaxError: missing name after . operator

tryItOut 326
before 122080, after 122080, break 02106000

tryItOut 327
Running threw: ReferenceError: z2 is not defined

tryItOut 328

tryItOut 329
Compiling threw: SyntaxError: missing ] after element list

tryItOut 330

tryItOut 331
Compiling threw: SyntaxError: missing variable name

tryItOut 332

tryItOut 333

tryItOut 334
Compiling threw: SyntaxError: missing variable name

tryItOut 335

tryItOut 336
Compiling threw: SyntaxError: syntax error

tryItOut 337
Running threw: TypeError: <x>
  <y/>
</x> is not a constructor

tryItOut 338
Compiling threw: TypeError: redeclaration of const __parent__

tryItOut 339
Running threw: ReferenceError: z2 is not defined

tryItOut 340
Running threw: ReferenceError: reference to undefined XML name *::*

tryItOut 341
Compiling threw: SyntaxError: syntax error

tryItOut 342
Compiling threw: SyntaxError: missing ) in parenthetical

tryItOut 343
Compiling threw: SyntaxError: missing variable name

tryItOut 344

tryItOut 345

tryItOut 346
Compiling threw: SyntaxError: missing ) in parenthetical

tryItOut 347

tryItOut 348
before 122080, after 122080, break 02106000

tryItOut 349
Compiling threw: SyntaxError: missing ; before statement

tryItOut 350
Compiling threw: SyntaxError: missing variable name

tryItOut 351
Compiling threw: SyntaxError: invalid assignment left-hand side

tryItOut 352
Running threw: ReferenceError: reference to undefined XML name *::*

tryItOut 353
Compiling threw: SyntaxError: missing ) in parenthetical

tryItOut 354
Compiling threw: SyntaxError: invalid for/in left-hand side

tryItOut 355
Compiling threw: SyntaxError: missing variable name

tryItOut 356
Running threw: Error: invalid sharp variable use #1#

tryItOut 357

tryItOut 358
Compiling threw: SyntaxError: missing ) in parenthetical

tryItOut 359
Compiling threw: SyntaxError: invalid increment operand

tryItOut 360

tryItOut 361
Running threw: TypeError: invalid 'instanceof' operand [undefined, undefined]

tryItOut 362
Compiling threw: SyntaxError: missing } after let block

tryItOut 363
Compiling threw: SyntaxError: invalid assignment left-hand side

tryItOut 364
Running threw: [object StopIteration]

tryItOut 365
Compiling threw: SyntaxError: missing ) after for-loop control

tryItOut 366

tryItOut 367
Compiling threw: SyntaxError: missing ; before statement

tryItOut 368

tryItOut 369
Compiling threw: SyntaxError: missing ) in parenthetical

tryItOut 370

tryItOut 371
Compiling threw: SyntaxError: syntax error

tryItOut 372
Compiling threw: SyntaxError: missing ; before statement

tryItOut 373
Running threw: [object StopIteration]

tryItOut 374
Compiling threw: SyntaxError: invalid assignment left-hand side

tryItOut 375

tryItOut 376
Running threw: ReferenceError: reference to undefined XML name *::*

tryItOut 377
Running threw: ReferenceError: reference to undefined XML name *::*

tryItOut 378

tryItOut 379

tryItOut 380
Compiling threw: SyntaxError: syntax error

tryItOut 381
Compiling threw: SyntaxError: missing } after property list

tryItOut 382
Compiling threw: SyntaxError: missing { before function body

tryItOut 383

tryItOut 384
Compiling threw: TypeError: redeclaration of const prop

tryItOut 385
Compiling threw: SyntaxError: missing variable name

tryItOut 386
Running threw: ReferenceError: reference to undefined XML name @foo

tryItOut 387
Compiling threw: SyntaxError: missing ) after switch expression

tryItOut 388

tryItOut 389
Compiling threw: SyntaxError: syntax error

tryItOut 390
Running threw: TypeError: this.zzz has no properties

tryItOut 391

tryItOut 392

tryItOut 393

tryItOut 394

tryItOut 395

tryItOut 396
Compiling threw: SyntaxError: missing ) after condition

tryItOut 397
Running threw: ReferenceError: reference to undefined XML name *::*

tryItOut 398
Compiling threw: SyntaxError: missing ; before statement

tryItOut 399
Running threw: TypeError: this.zzz has no properties

tryItOut 400
Compiling threw: SyntaxError: missing { before function body

tryItOut 401
Compiling threw: SyntaxError: missing name after . operator

tryItOut 402
Running threw: ReferenceError: reference to undefined XML name @foo

tryItOut 403
It's an iterator!
Iterating succeeded, iterCount == 1

tryItOut 404

tryItOut 405
Running threw: ReferenceError: reference to undefined XML name *

tryItOut 406
Compiling threw: SyntaxError: missing ; after for-loop initializer

tryItOut 407
Compiling threw: SyntaxError: missing { before function body

tryItOut 408

tryItOut 409
Compiling threw: SyntaxError: missing { before function body

tryItOut 410

tryItOut 411
Compiling threw: SyntaxError: missing variable name

tryItOut 412
Compiling threw: SyntaxError: syntax error

tryItOut 413
before 139520, after 139520, break 02139000

tryItOut 414

tryItOut 415
Compiling threw: SyntaxError: invalid assignment left-hand side

tryItOut 416
Compiling threw: SyntaxError: invalid assignment left-hand side

tryItOut 417
Compiling threw: SyntaxError: missing ) in parenthetical

tryItOut 418
Compiling threw: SyntaxError: syntax error

tryItOut 419
Compiling threw: SyntaxError: invalid increment operand

tryItOut 420
Compiling threw: SyntaxError: missing name after . operator

tryItOut 421
Compiling threw: SyntaxError: syntax error

tryItOut 422
Compiling threw: SyntaxError: missing ; before statement

tryItOut 423
Compiling threw: SyntaxError: missing ; before statement

tryItOut 424
Running threw: ReferenceError: reference to undefined XML name *

tryItOut 425
Compiling threw: SyntaxError: syntax error

tryItOut 426
Compiling threw: SyntaxError: missing = in destructuring declaration

tryItOut 427
Compiling threw: SyntaxError: syntax error

tryItOut 428

tryItOut 429
Compiling threw: SyntaxError: missing ; before statement

tryItOut 430
Compiling threw: SyntaxError: missing ) in parenthetical

tryItOut 431
Compiling threw: SyntaxError: duplicate label

tryItOut 432
Compiling threw: SyntaxError: missing ) in parenthetical

tryItOut 433
Compiling threw: SyntaxError: duplicate label

tryItOut 434
Compiling threw: SyntaxError: syntax error

tryItOut 435
Compiling threw: SyntaxError: invalid decrement operand

tryItOut 436

tryItOut 437

tryItOut 438

tryItOut 439

tryItOut 440
Compiling threw: SyntaxError: syntax error

tryItOut 441
Running threw: [object StopIteration]

tryItOut 442
Running threw: ReferenceError: reference to undefined XML name *::*

tryItOut 443
before 139520, after 139520, break 02139000

tryItOut 444
Compiling threw: SyntaxError: invalid assignment left-hand side

tryItOut 445
Compiling threw: SyntaxError: syntax error

tryItOut 446
Compiling threw: SyntaxError: missing ] after element list

tryItOut 447
Compiling threw: SyntaxError: missing ; before statement

tryItOut 448

tryItOut 449
Compiling threw: SyntaxError: missing variable name

tryItOut 450

tryItOut 451

tryItOut 452

tryItOut 453

tryItOut 454
Compiling threw: SyntaxError: illegal XML character

tryItOut 455
Running threw: TypeError: constructor has no properties

tryItOut 456
Compiling threw: SyntaxError: syntax error

tryItOut 457

tryItOut 458
Compiling threw: SyntaxError: missing { before function body

tryItOut 459

tryItOut 460
Compiling threw: SyntaxError: missing variable name

tryItOut 461
Compiling threw: SyntaxError: unterminated string literal

tryItOut 462
before 139520, after 139520, break 02139000
before 139520, after 139520, break 02139000
before 139520, after 139520, break 02139000
before 139520, after 139520, break 02139000

tryItOut 463

tryItOut 464
Compiling threw: SyntaxError: missing = in destructuring declaration

tryItOut 465
Compiling threw: SyntaxError: missing ; before statement

tryItOut 466
Running threw: ReferenceError: reference to undefined XML name *::*

tryItOut 467
Running threw: ReferenceError: reference to undefined XML name @foo

tryItOut 468

tryItOut 469

tryItOut 470

tryItOut 471
Compiling threw: SyntaxError: missing ) in parenthetical

tryItOut 472

tryItOut 473
Compiling threw: SyntaxError: invalid assignment left-hand side

tryItOut 474
Compiling threw: SyntaxError: missing ; before statement

tryItOut 475
Compiling threw: SyntaxError: missing variable name

tryItOut 476
Compiling threw: SyntaxError: missing ; after for-loop initializer

tryItOut 477

tryItOut 478

tryItOut 479
Compiling threw: SyntaxError: missing ; before statement

tryItOut 480
Compiling threw: SyntaxError: invalid for/in left-hand side

tryItOut 481

tryItOut 482
Compiling threw: SyntaxError: missing ) in parenthetical

tryItOut 483

tryItOut 484
Compiling threw: SyntaxError: missing ] after element list

tryItOut 485
Compiling threw: SyntaxError: invalid assignment left-hand side

tryItOut 486
Compiling threw: SyntaxError: missing ; after for-loop condition

tryItOut 487

tryItOut 488
Running threw: ReferenceError: reference to undefined XML name *::*

tryItOut 489
Compiling threw: SyntaxError: missing ; before statement

tryItOut 490
Compiling threw: SyntaxError: unterminated regular expression literal

tryItOut 491
Compiling threw: SyntaxError: missing ; before statement

tryItOut 492
Compiling threw: SyntaxError: syntax error

tryItOut 493
Compiling threw: SyntaxError: missing ) after condition

tryItOut 494
Running threw: TypeError: ""['throw'] is not a function

tryItOut 495
Running threw: ReferenceError: z1 is not defined

tryItOut 496
Compiling threw: SyntaxError: invalid assignment left-hand side

tryItOut 497
Running threw: [object StopIteration]

tryItOut 498
before 139520, after 139520, break 02139000

tryItOut 499
Compiling threw: TypeError: redeclaration of const constructor

tryItOut 500

tryItOut 501

tryItOut 502

tryItOut 503

tryItOut 504
Running threw: TypeError: <x>
  <y/>
</x> is not a function

tryItOut 505
Compiling threw: SyntaxError: missing ; before statement

tryItOut 506
Compiling threw: SyntaxError: missing ; before statement

tryItOut 507
Compiling threw: SyntaxError: missing ) in parenthetical

tryItOut 508
Compiling threw: SyntaxError: invalid for each loop

tryItOut 509

tryItOut 510
Running threw: TypeError: [undefined] is not a function

tryItOut 511

tryItOut 512
Compiling threw: TypeError: redeclaration of variable constructor

tryItOut 513
before 139520, after 139520, break 02139000

tryItOut 514

tryItOut 515
Compiling threw: SyntaxError: missing ) after condition

tryItOut 516
Running threw: ReferenceError: reference to undefined XML name *::*

tryItOut 517
Running threw: TypeError: {}.call is not a function

tryItOut 518
Compiling threw: SyntaxError: missing ; before statement

tryItOut 519
Compiling threw: SyntaxError: missing } after let block

tryItOut 520
before 139520, after 139520, break 02139000

tryItOut 521
Compiling threw: SyntaxError: missing ; before statement

tryItOut 522
before 139520, after 139520, break 02139000

tryItOut 523

tryItOut 524

tryItOut 525
Compiling threw: TypeError: redeclaration of const prototype

tryItOut 526
before 139520, after 139520, break 02139000
Running threw: TypeError: [] is not a function

tryItOut 527

tryItOut 528
Compiling threw: SyntaxError: missing ; before statement

tryItOut 529
before 139520, after 139520, break 02139000

tryItOut 530
Compiling threw: SyntaxError: syntax error

tryItOut 531

tryItOut 532
Compiling threw: SyntaxError: syntax error

tryItOut 533
Running threw: TypeError: __parent__ has no properties

tryItOut 534
Compiling threw: SyntaxError: missing variable name

tryItOut 535
Compiling threw: SyntaxError: syntax error

tryItOut 536
Compiling threw: SyntaxError: missing ; before statement

tryItOut 537
Compiling threw: SyntaxError: missing = in destructuring declaration

tryItOut 538
Running threw: Error: invalid sharp variable use #1#

tryItOut 539
Compiling threw: SyntaxError: missing ; before statement

tryItOut 540
Compiling threw: SyntaxError: missing ; before statement

tryItOut 541
Compiling threw: SyntaxError: missing variable name

tryItOut 542
before 139520, after 139520, break 02139000

tryItOut 543
Compiling threw: SyntaxError: invalid for each loop

tryItOut 544

tryItOut 545

tryItOut 546
Compiling threw: TypeError: redeclaration of var __count__

tryItOut 547

tryItOut 548

tryItOut 549
before 139520, after 139520, break 02139000

tryItOut 550

tryItOut 551
Compiling threw: SyntaxError: invalid for/in left-hand side

tryItOut 552
Compiling threw: SyntaxError: missing ; before statement

tryItOut 553

tryItOut 554
Compiling threw: SyntaxError: missing ) in parenthetical

tryItOut 555
Compiling threw: SyntaxError: illegal XML character

tryItOut 556
Running threw: ReferenceError: reference to undefined XML name @foo

tryItOut 557
Compiling threw: SyntaxError: invalid for each loop

tryItOut 558

tryItOut 559
Compiling threw: TypeError: redeclaration of var constructor

tryItOut 560
Compiling threw: TypeError: redeclaration of const prototype

tryItOut 561
Compiling threw: SyntaxError: missing ) in parenthetical

tryItOut 562
Compiling threw: SyntaxError: invalid assignment left-hand side

tryItOut 563
Running threw: TypeError: this.zzz has no properties

tryItOut 564
Compiling threw: SyntaxError: missing } in XML expression

tryItOut 565

tryItOut 566

tryItOut 567
Compiling threw: SyntaxError: missing : after property id

tryItOut 568
Compiling threw: TypeError: redeclaration of var __count__

tryItOut 569
Compiling threw: TypeError: redeclaration of const prop

tryItOut 570

tryItOut 571
Compiling threw: SyntaxError: missing { before function body

tryItOut 572

tryItOut 573

tryItOut 574
Compiling threw: SyntaxError: syntax error

tryItOut 575
Compiling threw: SyntaxError: missing ] in index expression

tryItOut 576
Compiling threw: SyntaxError: missing ; before statement

tryItOut 577
before 139520, after 139520, break 02139000

tryItOut 578

tryItOut 579
Running threw: TypeError: this.zzz has no properties

tryItOut 580
Compiling threw: SyntaxError: invalid decrement operand

tryItOut 581
Compiling threw: SyntaxError: syntax error

tryItOut 582

tryItOut 583
Compiling threw: SyntaxError: missing { before function body

tryItOut 584
Compiling threw: SyntaxError: invalid increment operand

tryItOut 585

tryItOut 586

tryItOut 587
Compiling threw: SyntaxError: invalid for/in left-hand side

tryItOut 588

tryItOut 589
before 139520, after 139520, break 02139000

tryItOut 590

tryItOut 591

tryItOut 592
Running threw: Error: invalid sharp variable use #1#

tryItOut 593
Compiling threw: SyntaxError: missing { before function body

tryItOut 594
before 139520, after 139520, break 02139000

tryItOut 595

tryItOut 596
Compiling threw: SyntaxError: missing ; after for-loop condition

tryItOut 597
Compiling threw: SyntaxError: unterminated string literal

tryItOut 598
Compiling threw: SyntaxError: missing ; before statement

tryItOut 599
Compiling threw: SyntaxError: missing ) after argument list

tryItOut 600
Compiling threw: SyntaxError: missing ) after for-loop control

tryItOut 601
Compiling threw: SyntaxError: missing variable name

tryItOut 602

tryItOut 603

tryItOut 604
Compiling threw: SyntaxError: duplicate label

tryItOut 605
Running threw: Error: invalid sharp variable use #1#

tryItOut 606

tryItOut 607
Compiling threw: SyntaxError: missing ; after for-loop initializer

tryItOut 608
Compiling threw: TypeError: redeclaration of variable prototype

tryItOut 609

tryItOut 610
Compiling threw: SyntaxError: invalid label

tryItOut 611
Compiling threw: SyntaxError: invalid increment operand

tryItOut 612

tryItOut 613
Compiling threw: SyntaxError: missing { before function body

tryItOut 614
Compiling threw: SyntaxError: missing { before function body

tryItOut 615

tryItOut 616

tryItOut 617
Compiling threw: SyntaxError: missing { before function body

tryItOut 618
Compiling threw: SyntaxError: missing ; after for-loop condition

tryItOut 619
Compiling threw: SyntaxError: missing ) in parenthetical

tryItOut 620
Compiling threw: SyntaxError: missing ) in parenthetical

tryItOut 621
Running threw: ReferenceError: reference to undefined XML name *::*

tryItOut 622

tryItOut 623

tryItOut 624
Compiling threw: SyntaxError: syntax error

tryItOut 625

tryItOut 626

tryItOut 627
Compiling threw: SyntaxError: missing variable name

tryItOut 628
Compiling threw: SyntaxError: invalid for/in left-hand side

tryItOut 629

tryItOut 630
Compiling threw: SyntaxError: missing ) in parenthetical

tryItOut 631
Compiling threw: SyntaxError: syntax error

tryItOut 632
Compiling threw: SyntaxError: missing ] after element list

tryItOut 633

tryItOut 634
Compiling threw: SyntaxError: missing ) in parenthetical

tryItOut 635
before 139520, after 139520, break 02139000

tryItOut 636

tryItOut 637
Running threw: [object StopIteration]

tryItOut 638
Compiling threw: SyntaxError: syntax error

tryItOut 639
Compiling threw: SyntaxError: missing ; before statement

tryItOut 640
Compiling threw: SyntaxError: missing ] after element list

tryItOut 641
Compiling threw: SyntaxError: missing { before function body

tryItOut 642
Compiling threw: SyntaxError: missing variable name

tryItOut 643
Running threw: ReferenceError: reference to undefined XML name *

tryItOut 644
Compiling threw: SyntaxError: invalid for each loop

tryItOut 645
Compiling threw: SyntaxError: missing ; before statement

tryItOut 646
Compiling threw: SyntaxError: missing variable name

tryItOut 647
Running threw: ReferenceError: reference to undefined XML name @foo

tryItOut 648
Compiling threw: SyntaxError: syntax error

tryItOut 649

tryItOut 650
It's an iterator!
Iterating threw!
Iterating threw: TypeError: undefined has no properties

tryItOut 651
Compiling threw: SyntaxError: syntax error

tryItOut 652

tryItOut 653

tryItOut 654
Compiling threw: SyntaxError: missing ) in parenthetical

tryItOut 655
Compiling threw: SyntaxError: missing ; after for-loop initializer

tryItOut 656
Compiling threw: SyntaxError: missing ) after argument list

tryItOut 657
Compiling threw: SyntaxError: missing ; before statement

tryItOut 658
Compiling threw: SyntaxError: syntax error

tryItOut 659

tryItOut 660
Compiling threw: SyntaxError: missing ) after condition

tryItOut 661
Compiling threw: SyntaxError: syntax error

tryItOut 662
Compiling threw: SyntaxError: missing variable name

tryItOut 663
before 139520, after 139520, break 02139000

tryItOut 664

tryItOut 665
Compiling threw: TypeError: redeclaration of const __parent__

tryItOut 666

tryItOut 667

tryItOut 668
Compiling threw: SyntaxError: missing ) in parenthetical

tryItOut 669

tryItOut 670
Compiling threw: TypeError: redeclaration of var prop

tryItOut 671
Compiling threw: SyntaxError: missing ; after for-loop condition

tryItOut 672
Compiling threw: SyntaxError: missing ) in parenthetical

tryItOut 673
Compiling threw: SyntaxError: invalid for/in left-hand side

tryItOut 674

tryItOut 675

tryItOut 676
Compiling threw: SyntaxError: missing ; before statement

tryItOut 677
Compiling threw: SyntaxError: missing variable name

tryItOut 678
Compiling threw: SyntaxError: missing variable name

tryItOut 679

tryItOut 680
Compiling threw: SyntaxError: missing variable name

tryItOut 681
Compiling threw: SyntaxError: missing ] after element list

tryItOut 682
Compiling threw: SyntaxError: missing ) in parenthetical

tryItOut 683
Running threw: ReferenceError: reference to undefined XML name @foo

tryItOut 684
Compiling threw: SyntaxError: missing ; before statement

tryItOut 685

tryItOut 686
Compiling threw: SyntaxError: syntax error

tryItOut 687

tryItOut 688
Compiling threw: SyntaxError: missing variable name

tryItOut 689
before 139520, after 139520, break 02139000

tryItOut 690
Compiling threw: SyntaxError: syntax error

tryItOut 691

tryItOut 692
Compiling threw: TypeError: redeclaration of const constructor

tryItOut 693
Compiling threw: SyntaxError: missing ) after for-loop control

tryItOut 694
Compiling threw: SyntaxError: missing variable name

tryItOut 695

tryItOut 696
It's an iterator!
Iterating threw!
Iterating threw: ReferenceError: reference to undefined XML name *

tryItOut 697
Compiling threw: TypeError: redeclaration of const __proto__

tryItOut 698

tryItOut 699
Compiling threw: SyntaxError: missing ( before let head

tryItOut 700
Compiling threw: SyntaxError: missing ] after element list

tryItOut 701

tryItOut 702
Compiling threw: SyntaxError: missing variable name

tryItOut 703
Compiling threw: SyntaxError: missing : after property id

tryItOut 704
before 139520, after 139520, break 02165000

tryItOut 705

tryItOut 706
Compiling threw: SyntaxError: missing ; before statement

tryItOut 707
Compiling threw: SyntaxError: syntax error

tryItOut 708
Compiling threw: SyntaxError: missing ; before statement

tryItOut 709
Compiling threw: SyntaxError: invalid assignment left-hand side

tryItOut 710
Compiling threw: SyntaxError: missing variable name

tryItOut 711

tryItOut 712
Compiling threw: SyntaxError: invalid for/in left-hand side

tryItOut 713
Compiling threw: SyntaxError: missing ) in parenthetical

tryItOut 714

tryItOut 715
Compiling threw: SyntaxError: missing ; before statement

tryItOut 716
before 139520, after 139520, break 02165000

tryItOut 717
Compiling threw: SyntaxError: missing { before function body

tryItOut 718
Compiling threw: SyntaxError: missing ) in parenthetical

tryItOut 719
Compiling threw: SyntaxError: missing ) after condition

tryItOut 720

tryItOut 721

tryItOut 722
Compiling threw: SyntaxError: missing variable name

tryItOut 723
Compiling threw: SyntaxError: missing : after property id

tryItOut 724
Compiling threw: TypeError: redeclaration of variable constructor

tryItOut 725
Compiling threw: SyntaxError: missing variable name

tryItOut 726
Compiling threw: SyntaxError: missing ; after for-loop initializer

tryItOut 727
Compiling threw: SyntaxError: missing ) after argument list

tryItOut 728
Compiling threw: SyntaxError: missing ) after argument list

tryItOut 729
Compiling threw: SyntaxError: missing variable name

tryItOut 730

tryItOut 731
Compiling threw: SyntaxError: missing variable name

tryItOut 732
Compiling threw: SyntaxError: missing ) after condition

tryItOut 733

tryItOut 734
Compiling threw: SyntaxError: missing ; before statement

tryItOut 735
Compiling threw: SyntaxError: invalid assignment left-hand side

tryItOut 736
Compiling threw: SyntaxError: missing variable name

tryItOut 737

tryItOut 738
Compiling threw: SyntaxError: invalid assignment left-hand side

tryItOut 739
before 139520, after 139520, break 02165000
before 139520, after 139520, break 02165000

tryItOut 740
Compiling threw: SyntaxError: missing ; before statement

tryItOut 741
Compiling threw: SyntaxError: missing { before function body

tryItOut 742

tryItOut 743
Compiling threw: SyntaxError: missing ; before statement

tryItOut 744
Compiling threw: TypeError: redeclaration of var prototype

tryItOut 745
Compiling threw: SyntaxError: missing ) in parenthetical

tryItOut 746

tryItOut 747
Compiling threw: SyntaxError: invalid for/in left-hand side

tryItOut 748
Running threw: SyntaxError: invalid assignment left-hand side

tryItOut 749
Compiling threw: SyntaxError: syntax error

tryItOut 750

tryItOut 751
Compiling threw: SyntaxError: missing { before function body

tryItOut 752
Compiling threw: SyntaxError: missing ; before statement

tryItOut 753
Compiling threw: SyntaxError: duplicate label

tryItOut 754

tryItOut 755
Compiling threw: TypeError: redeclaration of const __iterator__

tryItOut 756

tryItOut 757

tryItOut 758

tryItOut 759
Compiling threw: TypeError: redeclaration of variable prototype

tryItOut 760
Compiling threw: SyntaxError: invalid destructuring assignment operator

tryItOut 761
before 156960, after 156960, break 02165000

tryItOut 762
before 156960, after 139520, break 02165000

tryItOut 763
Compiling threw: SyntaxError: missing ; before statement

tryItOut 764
Compiling threw: SyntaxError: syntax error

tryItOut 765

tryItOut 766
Compiling threw: SyntaxError: syntax error

tryItOut 767
Compiling threw: SyntaxError: missing { before function body

tryItOut 768
Compiling threw: SyntaxError: missing ; before statement

tryItOut 769

tryItOut 770
Compiling threw: SyntaxError: syntax error

tryItOut 771
before 139520, after 139520, break 02165000

tryItOut 772
Compiling threw: SyntaxError: syntax error

tryItOut 773
before 139520, after 139520, break 02165000

tryItOut 774
Compiling threw: TypeError: redeclaration of variable __iterator__

tryItOut 775
Compiling threw: SyntaxError: invalid for/in left-hand side

tryItOut 776

tryItOut 777

tryItOut 778
Compiling threw: SyntaxError: invalid assignment left-hand side

tryItOut 779

tryItOut 780
Compiling threw: SyntaxError: missing ) in parenthetical

tryItOut 781

tryItOut 782
Compiling threw: SyntaxError: missing variable name

tryItOut 783
Compiling threw: SyntaxError: missing = in destructuring declaration

tryItOut 784

tryItOut 785
Compiling threw: SyntaxError: missing ; before statement

tryItOut 786
Running threw: ReferenceError: z1 is not defined

tryItOut 787

tryItOut 788
Running threw: ReferenceError: z1 is not defined

tryItOut 789
Compiling threw: SyntaxError: syntax error

tryItOut 790
Compiling threw: SyntaxError: missing ; before statement

tryItOut 791

tryItOut 792
Running threw: [object StopIteration]

tryItOut 793
Compiling threw: SyntaxError: missing { before function body

tryItOut 794

tryItOut 795
Compiling threw: SyntaxError: syntax error

tryItOut 796
Compiling threw: SyntaxError: syntax error

tryItOut 797

tryItOut 798
before 156960, after 156960, break 02165000

tryItOut 799

tryItOut 800
Compiling threw: SyntaxError: missing ; before statement

tryItOut 801
Compiling threw: SyntaxError: missing } after let block

tryItOut 802
Running threw: ReferenceError: reference to undefined XML name @foo

tryItOut 803

tryItOut 804

tryItOut 805

tryItOut 806
Running threw: ReferenceError: reference to undefined XML name @foo

tryItOut 807

tryItOut 808

tryItOut 809
Compiling threw: SyntaxError: syntax error

tryItOut 810
Compiling threw: SyntaxError: missing { before function body

tryItOut 811

tryItOut 812
Compiling threw: SyntaxError: missing ; before statement

tryItOut 813
Compiling threw: SyntaxError: missing : after property id

tryItOut 814
Compiling threw: SyntaxError: syntax error

tryItOut 815
Compiling threw: SyntaxError: missing : after property id

tryItOut 816
Compiling threw: SyntaxError: missing ) in parenthetical

tryItOut 817
before 156960, after 156960, break 02165000

tryItOut 818
Compiling threw: SyntaxError: missing variable name

tryItOut 819
Compiling threw: SyntaxError: missing ; after for-loop initializer

tryItOut 820

tryItOut 821
Compiling threw: TypeError: redeclaration of const __count__

tryItOut 822

tryItOut 823
Compiling threw: SyntaxError: missing ; before statement

tryItOut 824
Compiling threw: SyntaxError: missing variable name

tryItOut 825
Compiling threw: TypeError: redeclaration of var __noSuchMethod__

tryItOut 826
Compiling threw: SyntaxError: missing ) in parenthetical

tryItOut 827
before 156960, after 156960, break 02165000

tryItOut 828

tryItOut 829
Compiling threw: SyntaxError: missing ; before statement

tryItOut 830
Compiling threw: SyntaxError: syntax error

tryItOut 831

tryItOut 832
Compiling threw: SyntaxError: invalid increment operand

tryItOut 833

tryItOut 834

tryItOut 835
Compiling threw: SyntaxError: invalid assignment left-hand side

tryItOut 836
Compiling threw: SyntaxError: missing ; before statement

tryItOut 837
Compiling threw: SyntaxError: syntax error

tryItOut 838
Running threw: TypeError: /x/g.* has no properties

tryItOut 839
Compiling threw: SyntaxError: missing ) in parenthetical

tryItOut 840
Running threw: [object StopIteration]

tryItOut 841
Compiling threw: SyntaxError: invalid assignment left-hand side

tryItOut 842
Compiling threw: SyntaxError: syntax error

tryItOut 843
before 156960, after 156960, break 02165000

tryItOut 844
Compiling threw: SyntaxError: missing variable name

tryItOut 845
Compiling threw: SyntaxError: missing ; before statement

tryItOut 846
Compiling threw: TypeError: redeclaration of const __iterator__

tryItOut 847
Compiling threw: SyntaxError: invalid assignment left-hand side

tryItOut 848
Compiling threw: SyntaxError: invalid for/in left-hand side

tryItOut 849
Running threw: ReferenceError: reference to undefined XML name *

tryItOut 850
Compiling threw: SyntaxError: missing { before function body

tryItOut 851

tryItOut 852
Compiling threw: SyntaxError: missing = in destructuring declaration

tryItOut 853
Compiling threw: SyntaxError: invalid for/in left-hand side

tryItOut 854
Compiling threw: SyntaxError: missing { before function body

tryItOut 855
Compiling threw: SyntaxError: invalid for/in left-hand side

tryItOut 856

tryItOut 857
Compiling threw: SyntaxError: missing ; before statement

tryItOut 858
Compiling threw: SyntaxError: missing variable name

tryItOut 859
Compiling threw: SyntaxError: syntax error

tryItOut 860
Compiling threw: SyntaxError: missing ] after element list

tryItOut 861
Compiling threw: SyntaxError: missing ; before statement

tryItOut 862

tryItOut 863

tryItOut 864
Compiling threw: SyntaxError: missing ) in parenthetical

tryItOut 865
Compiling threw: SyntaxError: missing { before function body

tryItOut 866
Compiling threw: SyntaxError: missing variable name

tryItOut 867

tryItOut 868
Compiling threw: SyntaxError: missing { before function body

tryItOut 869
Compiling threw: SyntaxError: missing ; before statement

tryItOut 870
Compiling threw: SyntaxError: missing ; before statement

tryItOut 871
Compiling threw: SyntaxError: missing { before function body

tryItOut 872
Compiling threw: SyntaxError: invalid for/in left-hand side

tryItOut 873

tryItOut 874
Compiling threw: SyntaxError: syntax error

tryItOut 875
Compiling threw: SyntaxError: invalid assignment left-hand side

tryItOut 876
Compiling threw: TypeError: redeclaration of const __noSuchMethod__

tryItOut 877
Compiling threw: SyntaxError: missing variable name

tryItOut 878
Compiling threw: SyntaxError: missing ; before statement

tryItOut 879

tryItOut 880
Compiling threw: SyntaxError: missing { before function body

tryItOut 881
Compiling threw: SyntaxError: missing ; before statement

tryItOut 882

tryItOut 883
Compiling threw: TypeError: redeclaration of const __proto__

tryItOut 884
Running threw: ReferenceError: reference to undefined XML name *::*

tryItOut 885
Compiling threw: SyntaxError: missing variable name

tryItOut 886

tryItOut 887
Running threw: ReferenceError: reference to undefined XML name @foo

tryItOut 888
before 156960, after 156960, break 02199000

tryItOut 889

tryItOut 890

tryItOut 891
Compiling threw: SyntaxError: missing ) in parenthetical

tryItOut 892
Compiling threw: SyntaxError: missing variable name

tryItOut 893
Compiling threw: SyntaxError: missing variable name

tryItOut 894
Compiling threw: SyntaxError: missing ; before statement

tryItOut 895

tryItOut 896

tryItOut 897
Compiling threw: SyntaxError: missing { before function body

tryItOut 898
Compiling threw: SyntaxError: invalid for/in left-hand side

tryItOut 899

tryItOut 900
Running threw: ReferenceError: reference to undefined XML name @foo

tryItOut 901
Compiling threw: SyntaxError: missing ; after for-loop condition

tryItOut 902

tryItOut 903
Compiling threw: SyntaxError: invalid increment operand

tryItOut 904

tryItOut 905
Compiling threw: SyntaxError: missing name after . operator

tryItOut 906
Compiling threw: SyntaxError: syntax error

tryItOut 907
Running threw: TypeError: __parent__ has no properties

tryItOut 908

tryItOut 909

tryItOut 910
Compiling threw: SyntaxError: invalid increment operand

tryItOut 911
Compiling threw: SyntaxError: missing ) after let head

tryItOut 912
Compiling threw: SyntaxError: missing ; before statement

tryItOut 913
before 156960, after 156960, break 02199000

tryItOut 914
Running threw: ReferenceError: z1 is not defined

tryItOut 915
Compiling threw: SyntaxError: missing ; before statement

tryItOut 916

tryItOut 917

tryItOut 918
Compiling threw: SyntaxError: missing variable name

tryItOut 919

tryItOut 920
Running threw: ReferenceError: reference to undefined XML name *::*

tryItOut 921

tryItOut 922
Compiling threw: SyntaxError: syntax error

tryItOut 923
Compiling threw: SyntaxError: missing { before function body

tryItOut 924
Compiling threw: SyntaxError: missing ) in parenthetical

tryItOut 925

tryItOut 926

tryItOut 927
Compiling threw: SyntaxError: missing { before function body

tryItOut 928
Compiling threw: SyntaxError: syntax error

tryItOut 929
Compiling threw: SyntaxError: missing variable name

tryItOut 930
Compiling threw: SyntaxError: invalid for/in left-hand side

tryItOut 931

tryItOut 932
Compiling threw: TypeError: redeclaration of const __parent__

tryItOut 933
It's an iterator!
Iterating threw!
Iterating threw: ReferenceError: reference to undefined XML name *::*

tryItOut 934
Compiling threw: SyntaxError: missing ; before statement

tryItOut 935
Compiling threw: SyntaxError: missing variable name

tryItOut 936
Compiling threw: SyntaxError: missing variable name

tryItOut 937
Compiling threw: SyntaxError: missing ] after element list

tryItOut 938
Compiling threw: SyntaxError: missing { before function body

tryItOut 939

tryItOut 940

tryItOut 941

tryItOut 942

tryItOut 943
Compiling threw: SyntaxError: invalid for/in left-hand side

tryItOut 944

tryItOut 945
Compiling threw: SyntaxError: invalid assignment left-hand side

tryItOut 946
Compiling threw: SyntaxError: invalid XML tag syntax

tryItOut 947
Compiling threw: SyntaxError: missing ; before statement

tryItOut 948
before 174400, after 174400, break 02199000

tryItOut 949
Compiling threw: SyntaxError: missing variable name

tryItOut 950

tryItOut 951

tryItOut 952
Compiling threw: SyntaxError: unterminated string literal

tryItOut 953
before 174400, after 174400, break 02199000

tryItOut 954
Compiling threw: TypeError: redeclaration of const __proto__

tryItOut 955
Compiling threw: SyntaxError: missing ; before statement

tryItOut 956
Compiling threw: SyntaxError: syntax error

tryItOut 957
Compiling threw: SyntaxError: syntax error

tryItOut 958

tryItOut 959

tryItOut 960
Compiling threw: SyntaxError: missing ; before statement

tryItOut 961
Compiling threw: SyntaxError: missing ) in parenthetical

tryItOut 962
Compiling threw: SyntaxError: missing ; before statement

tryItOut 963
Compiling threw: TypeError: redeclaration of const __noSuchMethod__

tryItOut 964

tryItOut 965
Compiling threw: SyntaxError: missing { before function body

tryItOut 966
Running threw: TypeError: prop has no properties

tryItOut 967
Compiling threw: SyntaxError: invalid decrement operand

tryItOut 968
Compiling threw: SyntaxError: missing ; before statement

tryItOut 969

tryItOut 970

tryItOut 971
Compiling threw: SyntaxError: missing ; after for-loop initializer

tryItOut 972

tryItOut 973
Compiling threw: SyntaxError: missing ) after argument list

tryItOut 974

tryItOut 975

tryItOut 976
Running threw: ReferenceError: reference to undefined XML name *

tryItOut 977
Running threw: TypeError: this.zzz has no properties

tryItOut 978
Compiling threw: SyntaxError: missing { before function body

tryItOut 979
Running threw: ReferenceError: reference to undefined XML name @foo

tryItOut 980
Compiling threw: SyntaxError: missing variable name

tryItOut 981

tryItOut 982
Compiling threw: SyntaxError: invalid for/in left-hand side

tryItOut 983

tryItOut 984

tryItOut 985
Compiling threw: SyntaxError: syntax error

tryItOut 986

tryItOut 987
Compiling threw: SyntaxError: missing : after case label

tryItOut 988

tryItOut 989

tryItOut 990

tryItOut 991
Running threw: [object StopIteration]

tryItOut 992
Compiling threw: SyntaxError: syntax error

tryItOut 993

tryItOut 994

tryItOut 995

tryItOut 996

tryItOut 997
Compiling threw: SyntaxError: missing ) after argument list

tryItOut 998

tryItOut 999

tryItOut 1000
Compiling threw: SyntaxError: missing = in destructuring declaration

ALL OK

Script done on Sat 04 May 2013 06:23:47 AM PDT
