Script started on Sat 04 May 2013 06:22:37 AM PDT
***
Targeting SpiderMonkey / Gecko.

tryItOut 1
Compiling threw: SyntaxError: missing variable name

tryItOut 2
Compiling threw: SyntaxError: missing variable name

tryItOut 3
Compiling threw: SyntaxError: invalid default XML namespace

tryItOut 4
It's an iterator!
Iterating threw!
Iterating threw: ReferenceError: reference to undefined XML name *::*

tryItOut 5
Compiling threw: SyntaxError: missing variable name

tryItOut 6
Compiling threw: SyntaxError: missing name after . operator

tryItOut 7
Compiling threw: SyntaxError: missing variable name

tryItOut 8

tryItOut 9

tryItOut 10
Running threw: ReferenceError: __iterator__ is not defined

tryItOut 11
Compiling threw: SyntaxError: invalid for/in left-hand side

tryItOut 12

tryItOut 13
Running threw: TypeError: arguments[0] has no properties

tryItOut 14
Running threw: ReferenceError: x is not defined

tryItOut 15

tryItOut 16

tryItOut 17
Compiling threw: SyntaxError: illegal XML character

tryItOut 18

tryItOut 19
Running threw: ReferenceError: reference to undefined XML name *::*

tryItOut 20

tryItOut 21

tryItOut 22
before 87200, after 87200, break 01520000

tryItOut 23
Compiling threw: SyntaxError: missing { before function body

tryItOut 24
Compiling threw: SyntaxError: invalid for/in left-hand side

tryItOut 25
Compiling threw: SyntaxError: invalid for/in left-hand side

tryItOut 26

tryItOut 27
before 87200, after 87200, break 01520000

tryItOut 28
before 87200, after 87200, break 01520000

tryItOut 29
Compiling threw: SyntaxError: invalid for/in left-hand side

tryItOut 30
Compiling threw: SyntaxError: duplicate label

tryItOut 31
Running threw: ReferenceError: prop is not defined

tryItOut 32

tryItOut 33
Compiling threw: SyntaxError: missing variable name

tryItOut 34

tryItOut 35

tryItOut 36

tryItOut 37
Running threw: ReferenceError: __noSuchMethod__ is not defined

tryItOut 38
Compiling threw: SyntaxError: illegal XML character

tryItOut 39
Running threw: ReferenceError: reference to undefined XML name *

tryItOut 40
Compiling threw: SyntaxError: invalid for each loop

tryItOut 41

tryItOut 42

tryItOut 43
Compiling threw: SyntaxError: missing variable name

tryItOut 44
Compiling threw: SyntaxError: duplicate label

tryItOut 45

tryItOut 46
Compiling threw: SyntaxError: invalid for/in left-hand side

tryItOut 47
Compiling threw: SyntaxError: duplicate label

tryItOut 48
It's an iterator!
Iterating succeeded, iterCount == 1

tryItOut 49

tryItOut 50
Compiling threw: SyntaxError: missing catch or finally after try

tryItOut 51

tryItOut 52

tryItOut 53
It's an iterator!
Iterating succeeded, iterCount == 1

tryItOut 54
Compiling threw: SyntaxError: missing variable name

tryItOut 55
Compiling threw: SyntaxError: missing variable name

tryItOut 56
Compiling threw: SyntaxError: missing ; after for-loop initializer

tryItOut 57
Compiling threw: SyntaxError: invalid for/in left-hand side

tryItOut 58

tryItOut 59
Compiling threw: SyntaxError: missing variable name

tryItOut 60
Running threw: ReferenceError: prototype is not defined

tryItOut 61

tryItOut 62
Compiling threw: SyntaxError: missing { before function body

tryItOut 63
Running threw: ReferenceError: window is not defined

tryItOut 64

tryItOut 65

tryItOut 66

tryItOut 67

tryItOut 68

tryItOut 69
Compiling threw: SyntaxError: syntax error

tryItOut 70

tryItOut 71

tryItOut 72
before 104640, after 104640, break 0153a000
Running threw: TypeError: gc() has no properties

tryItOut 73

tryItOut 74
before 104640, after 104640, break 0153a000

tryItOut 75

tryItOut 76
Compiling threw: SyntaxError: duplicate label

tryItOut 77

tryItOut 78
Running threw: ReferenceError: reference to undefined XML name *::*

tryItOut 79
before 104640, after 104640, break 0153a000

tryItOut 80
It's an iterator!
Iterating threw!
Iterating threw: ReferenceError: reference to undefined XML name *

tryItOut 81

tryItOut 82
Compiling threw: SyntaxError: invalid for/in left-hand side

tryItOut 83
Running threw: function Object() {
    [native code]
}

tryItOut 84

tryItOut 85

tryItOut 86
Compiling threw: SyntaxError: invalid for/in left-hand side

tryItOut 87

tryItOut 88

tryItOut 89

tryItOut 90
Compiling threw: SyntaxError: invalid for each loop

tryItOut 91
It's an iterator!
Iterating succeeded, iterCount == 2

tryItOut 92
Running threw: ReferenceError: reference to undefined XML name @foo

tryItOut 93
Compiling threw: SyntaxError: syntax error

tryItOut 94

tryItOut 95

tryItOut 96

tryItOut 97

tryItOut 98

tryItOut 99

tryItOut 100
Compiling threw: SyntaxError: missing variable name

tryItOut 101

tryItOut 102
Compiling threw: SyntaxError: missing ) after condition

tryItOut 103
It's an iterator!
Iterating threw!
Iterating threw: ReferenceError: window is not defined

tryItOut 104

tryItOut 105
Running threw: function Object() {
    [native code]
}

tryItOut 106

tryItOut 107
Compiling threw: SyntaxError: missing ; after for-loop initializer

tryItOut 108
Running threw: TypeError: arguments.__lookupGetter__("__iterator__") has no properties

tryItOut 109

tryItOut 110
Compiling threw: SyntaxError: missing : after property id

tryItOut 111
Compiling threw: SyntaxError: missing variable name

tryItOut 112

tryItOut 113
Compiling threw: SyntaxError: missing variable name

tryItOut 114
Compiling threw: SyntaxError: missing ; after for-loop initializer

tryItOut 115
Compiling threw: SyntaxError: missing variable name

tryItOut 116

tryItOut 117

tryItOut 118
Compiling threw: SyntaxError: missing ; after for-loop initializer

tryItOut 119
Compiling threw: SyntaxError: missing variable name

tryItOut 120

tryItOut 121

tryItOut 122
Compiling threw: SyntaxError: missing ; before statement

tryItOut 123

tryItOut 124
It's an iterator!
Iterating threw!
Iterating threw: ReferenceError: reference to undefined XML name @foo

tryItOut 125

tryItOut 126
Compiling threw: SyntaxError: missing variable name

tryItOut 127

tryItOut 128
Compiling threw: SyntaxError: missing { before function body

tryItOut 129
It's an iterator!
Iterating threw!
Iterating threw: ReferenceError: z2 is not defined

tryItOut 130

tryItOut 131

tryItOut 132

tryItOut 133

tryItOut 134

tryItOut 135

tryItOut 136
Running threw: function Object() {
    [native code]
}

tryItOut 137

tryItOut 138

tryItOut 139

tryItOut 140
Compiling threw: SyntaxError: syntax error

tryItOut 141

tryItOut 142
Compiling threw: SyntaxError: missing variable name

tryItOut 143
Compiling threw: SyntaxError: invalid assignment left-hand side

tryItOut 144

tryItOut 145
Compiling threw: SyntaxError: missing ; before statement

tryItOut 146
Compiling threw: SyntaxError: invalid assignment left-hand side

tryItOut 147
Compiling threw: SyntaxError: missing variable name

tryItOut 148
Compiling threw: SyntaxError: syntax error

tryItOut 149

tryItOut 150
Running threw: ReferenceError: prop is not defined

tryItOut 151
It's an iterator!
Iterating threw!
Iterating threw: ReferenceError: window is not defined

tryItOut 152

tryItOut 153

tryItOut 154
Compiling threw: SyntaxError: duplicate label

tryItOut 155
Compiling threw: SyntaxError: missing ; before statement

tryItOut 156
Running threw: function Object() {
    [native code]
}

tryItOut 157

tryItOut 158
Running threw: ReferenceError: prop is not defined

tryItOut 159
Compiling threw: SyntaxError: missing variable name

tryItOut 160

tryItOut 161

tryItOut 162
Compiling threw: SyntaxError: missing ; before statement

tryItOut 163
Compiling threw: SyntaxError: syntax error

tryItOut 164

tryItOut 165
Compiling threw: SyntaxError: syntax error

tryItOut 166

tryItOut 167

tryItOut 168

tryItOut 169

tryItOut 170
Compiling threw: SyntaxError: syntax error

tryItOut 171
Compiling threw: SyntaxError: invalid assignment left-hand side

tryItOut 172
Compiling threw: SyntaxError: duplicate label

tryItOut 173

tryItOut 174

tryItOut 175

tryItOut 176

tryItOut 177

tryItOut 178

tryItOut 179
Running threw: [object Object]

tryItOut 180

tryItOut 181

tryItOut 182

tryItOut 183
Compiling threw: SyntaxError: XML tag name mismatch (expected y)

tryItOut 184

tryItOut 185
Compiling threw: SyntaxError: invalid for each loop

tryItOut 186

tryItOut 187
Running threw: ReferenceError: reference to undefined XML name @mozilla.org/js/function::__proto__

tryItOut 188
Compiling threw: SyntaxError: invalid increment operand

tryItOut 189
It's an iterator!
Iterating threw!
Iterating threw: ReferenceError: reference to undefined XML name *

tryItOut 190
Compiling threw: SyntaxError: duplicate label

tryItOut 191

tryItOut 192
Compiling threw: SyntaxError: invalid decrement operand

tryItOut 193

tryItOut 194
Compiling threw: SyntaxError: syntax error

tryItOut 195
Compiling threw: SyntaxError: invalid for/in left-hand side

tryItOut 196

tryItOut 197
Compiling threw: SyntaxError: invalid for each loop

tryItOut 198
It's an iterator!
Iterating threw!
Iterating threw: ReferenceError: z1 is not defined

tryItOut 199
Running threw: [object Object]

tryItOut 200
Compiling threw: SyntaxError: invalid for/in left-hand side

tryItOut 201
Compiling threw: SyntaxError: missing = in destructuring declaration

tryItOut 202
Running threw: ReferenceError: prop is not defined

tryItOut 203
Compiling threw: SyntaxError: invalid for/in left-hand side

tryItOut 204
Compiling threw: SyntaxError: missing variable name

tryItOut 205
Compiling threw: SyntaxError: missing ; after for-loop initializer

tryItOut 206

tryItOut 207
Compiling threw: SyntaxError: syntax error

tryItOut 208
It's an iterator!
Iterating succeeded, iterCount == 1

tryItOut 209
before 139520, after 139520, break 015ba000

tryItOut 210
It's an iterator!
Iterating succeeded, iterCount == 1

tryItOut 211

tryItOut 212

tryItOut 213

tryItOut 214
before 139520, after 139520, break 015ba000

tryItOut 215
before 139520, after 139520, break 015ba000

tryItOut 216
It's an iterator!
Iterating threw!
Iterating threw: ReferenceError: reference to undefined XML name *

tryItOut 217
Running threw: ReferenceError: reference to undefined XML name *::*

tryItOut 218
Compiling threw: SyntaxError: invalid decrement operand

tryItOut 219
It's an iterator!
Iterating threw!
Iterating threw: ReferenceError: window is not defined

tryItOut 220

tryItOut 221

tryItOut 222
Compiling threw: SyntaxError: missing variable name

tryItOut 223

tryItOut 224
Compiling threw: SyntaxError: invalid for/in left-hand side

tryItOut 225
Compiling threw: SyntaxError: invalid for/in left-hand side

tryItOut 226
It's an iterator!
Iterating succeeded, iterCount == 1

tryItOut 227
Running threw: ReferenceError: window is not defined

tryItOut 228
Compiling threw: SyntaxError: invalid XML tag syntax

tryItOut 229

tryItOut 230
Compiling threw: SyntaxError: missing ; before statement

tryItOut 231
Running threw: 

tryItOut 232
Running threw: 108

tryItOut 233

tryItOut 234

tryItOut 235
It's an iterator!
Iterating succeeded, iterCount == 1

tryItOut 236

tryItOut 237
Compiling threw: SyntaxError: missing variable name

tryItOut 238
Compiling threw: SyntaxError: missing : after property id

tryItOut 239
Running threw: ReferenceError: reference to undefined XML name *::*

tryItOut 240
Compiling threw: SyntaxError: syntax error

tryItOut 241
Compiling threw: SyntaxError: invalid XML name

tryItOut 242
It's an iterator!
Iterating threw!
Iterating threw: ReferenceError: __iterator__ is not defined

tryItOut 243
Compiling threw: SyntaxError: missing ( before let head

tryItOut 244
Compiling threw: SyntaxError: missing variable name

tryItOut 245
Compiling threw: SyntaxError: invalid for/in left-hand side

tryItOut 246
Compiling threw: SyntaxError: missing : after property id

tryItOut 247

tryItOut 248

tryItOut 249
It's an iterator!
Iterating succeeded, iterCount == 1

tryItOut 250
Compiling threw: SyntaxError: missing = in destructuring declaration

tryItOut 251

tryItOut 252
It's an iterator!
Iterating threw!
Iterating threw: ReferenceError: window is not defined

tryItOut 253
It's an iterator!
Iterating succeeded, iterCount == 1

tryItOut 254

tryItOut 255
Compiling threw: SyntaxError: missing identifier in catch

tryItOut 256
Compiling threw: SyntaxError: missing variable name

tryItOut 257
Running threw: [object global]

tryItOut 258

tryItOut 259

tryItOut 260

tryItOut 261
Compiling threw: SyntaxError: invalid assignment left-hand side

tryItOut 262

tryItOut 263

tryItOut 264
Compiling threw: SyntaxError: invalid decrement operand

tryItOut 265
Compiling threw: SyntaxError: missing { before function body

tryItOut 266

tryItOut 267
It's an iterator!
Iterating threw!
Iterating threw: ReferenceError: reference to undefined XML name *::*

tryItOut 268
Compiling threw: SyntaxError: invalid variable initialization

tryItOut 269
Running threw: [object Object]

tryItOut 270
Compiling threw: SyntaxError: invalid for/in left-hand side

tryItOut 271
Compiling threw: SyntaxError: missing ( before let head

tryItOut 272

tryItOut 273
Compiling threw: SyntaxError: missing variable name

tryItOut 274

tryItOut 275

tryItOut 276
Compiling threw: SyntaxError: missing { before function body

tryItOut 277
Running threw: [object global]

tryItOut 278
Compiling threw: SyntaxError: missing { before function body

tryItOut 279
It's an iterator!
Iterating threw!
Iterating threw: ReferenceError: z1 is not defined

tryItOut 280
It's an iterator!
Iterating succeeded, iterCount == 1

tryItOut 281
Compiling threw: SyntaxError: syntax error

tryItOut 282
before 139520, after 139520, break 015ba000

tryItOut 283
It's an iterator!
Iterating threw!
Iterating threw: ReferenceError: __iterator__ is not defined

tryItOut 284
Running threw: ReferenceError: __iterator__ is not defined

tryItOut 285

tryItOut 286

tryItOut 287
Compiling threw: SyntaxError: missing variable name

tryItOut 288
Running threw: ReferenceError: reference to undefined XML name *

tryItOut 289

tryItOut 290
Compiling threw: SyntaxError: missing ) after condition

tryItOut 291
Running threw: <y>
  <z/>
</y>

tryItOut 292
It's an iterator!
Iterating succeeded, iterCount == 1

tryItOut 293

tryItOut 294
Compiling threw: SyntaxError: missing variable name

tryItOut 295

tryItOut 296
Compiling threw: SyntaxError: missing ; before statement

tryItOut 297

tryItOut 298
Compiling threw: SyntaxError: missing ; before statement

tryItOut 299

tryItOut 300
Compiling threw: SyntaxError: missing ; after for-loop initializer

tryItOut 301

tryItOut 302

tryItOut 303
Compiling threw: SyntaxError: missing ) after argument list

tryItOut 304
Compiling threw: SyntaxError: invalid assignment left-hand side

tryItOut 305
Compiling threw: SyntaxError: invalid for/in left-hand side

tryItOut 306
Compiling threw: SyntaxError: invalid assignment left-hand side

tryItOut 307

tryItOut 308

tryItOut 309
Running threw: 110

tryItOut 310
Running threw: ReferenceError: reference to undefined XML name @mozilla.org/js/function::__proto__

tryItOut 311
Compiling threw: SyntaxError: syntax error

tryItOut 312
Compiling threw: SyntaxError: missing { before function body

tryItOut 313

tryItOut 314

tryItOut 315
It's an iterator!
Iterating succeeded, iterCount == 1

tryItOut 316
It's an iterator!
Iterating succeeded, iterCount == 1

tryItOut 317
Compiling threw: SyntaxError: invalid property id

tryItOut 318
Compiling threw: SyntaxError: missing = in destructuring declaration

tryItOut 319

tryItOut 320

tryItOut 321
Compiling threw: SyntaxError: syntax error

tryItOut 322
Compiling threw: TypeError: redeclaration of const prop

tryItOut 323

tryItOut 324

tryItOut 325

tryItOut 326
Compiling threw: SyntaxError: invalid assignment left-hand side

tryItOut 327

tryItOut 328

tryItOut 329

tryItOut 330
Compiling threw: SyntaxError: invalid for/in left-hand side

tryItOut 331

tryItOut 332
It's an iterator!
Iterating threw!
Iterating threw: ReferenceError: reference to undefined XML name @mozilla.org/js/function::__proto__

tryItOut 333
Running threw: [object global]

tryItOut 334

tryItOut 335

tryItOut 336

tryItOut 337

tryItOut 338
Compiling threw: SyntaxError: invalid for/in left-hand side

tryItOut 339
It's an iterator!
Iterating threw!
Iterating threw: ReferenceError: window is not defined

tryItOut 340
Compiling threw: SyntaxError: missing ; before statement

tryItOut 341
Compiling threw: SyntaxError: syntax error

tryItOut 342
Running threw: [object global]

tryItOut 343

tryItOut 344

tryItOut 345

tryItOut 346

tryItOut 347
Compiling threw: SyntaxError: missing ; after for-loop initializer

tryItOut 348

tryItOut 349
Compiling threw: SyntaxError: missing ; before statement

tryItOut 350

tryItOut 351

tryItOut 352
Compiling threw: SyntaxError: invalid for each loop

tryItOut 353

tryItOut 354
It's an iterator!
Iterating succeeded, iterCount == 1

tryItOut 355
Running threw: ReferenceError: reference to undefined XML name @foo

tryItOut 356

tryItOut 357
Compiling threw: SyntaxError: missing variable name

tryItOut 358

tryItOut 359
Running threw: [object global]

tryItOut 360

tryItOut 361
Compiling threw: SyntaxError: syntax error

tryItOut 362
Compiling threw: SyntaxError: duplicate label

tryItOut 363
Compiling threw: SyntaxError: missing variable name

tryItOut 364
It's an iterator!
Iterating succeeded, iterCount == 1

tryItOut 365
It's an iterator!
Iterating threw!
Iterating threw: TypeError: arguments[0] has no properties

tryItOut 366
Compiling threw: SyntaxError: invalid XML name

tryItOut 367
Compiling threw: SyntaxError: invalid XML name

tryItOut 368
Running threw: ReferenceError: window is not defined

tryItOut 369
Compiling threw: SyntaxError: invalid for/in left-hand side

tryItOut 370
Compiling threw: SyntaxError: syntax error

tryItOut 371
Compiling threw: SyntaxError: missing { before function body

tryItOut 372

tryItOut 373

tryItOut 374

tryItOut 375

tryItOut 376
Compiling threw: SyntaxError: syntax error

tryItOut 377
Compiling threw: SyntaxError: missing variable name

tryItOut 378

tryItOut 379

tryItOut 380

tryItOut 381

tryItOut 382

tryItOut 383
Running threw: SyntaxError: invalid assignment left-hand side

tryItOut 384
It's an iterator!
Iterating succeeded, iterCount == 1

tryItOut 385

tryItOut 386

tryItOut 387
Running threw: ReferenceError: __iterator__ is not defined

tryItOut 388
It's an iterator!
Iterating threw!
Iterating threw: ReferenceError: window is not defined

tryItOut 389

tryItOut 390

tryItOut 391

tryItOut 392

tryItOut 393

tryItOut 394

tryItOut 395
Compiling threw: SyntaxError: missing ; before statement

tryItOut 396

tryItOut 397
Compiling threw: SyntaxError: missing ; before statement

tryItOut 398
Compiling threw: SyntaxError: missing variable name

tryItOut 399
Compiling threw: SyntaxError: missing { before function body

tryItOut 400

tryItOut 401

tryItOut 402

tryItOut 403
Compiling threw: SyntaxError: invalid for/in left-hand side

tryItOut 404

tryItOut 405

tryItOut 406
It's an iterator!
Iterating threw!
Iterating threw: TypeError: redeclaration of var __proto__

tryItOut 407

tryItOut 408
It's an iterator!
Iterating succeeded, iterCount == 4

tryItOut 409

tryItOut 410
It's an iterator!
Iterating threw!
Iterating threw: ReferenceError: window is not defined

tryItOut 411

tryItOut 412
Compiling threw: SyntaxError: invalid for/in left-hand side

tryItOut 413

tryItOut 414
Compiling threw: SyntaxError: missing = in destructuring declaration

tryItOut 415

tryItOut 416

tryItOut 417
It's an iterator!
Iterating succeeded, iterCount == 1

tryItOut 418
Compiling threw: SyntaxError: invalid for/in left-hand side

tryItOut 419

tryItOut 420
Compiling threw: SyntaxError: invalid for each loop

tryItOut 421
Compiling threw: SyntaxError: missing ; before statement

tryItOut 422

tryItOut 423

tryItOut 424

tryItOut 425

tryItOut 426

tryItOut 427
It's an iterator!
Iterating succeeded, iterCount == 1

tryItOut 428

tryItOut 429

tryItOut 430
Compiling threw: SyntaxError: missing ; before statement

tryItOut 431
Compiling threw: SyntaxError: illegal XML character

tryItOut 432
Compiling threw: SyntaxError: invalid for/in left-hand side

tryItOut 433

tryItOut 434
Running threw: ReferenceError: __iterator__ is not defined

tryItOut 435

tryItOut 436

tryItOut 437
Compiling threw: TypeError: redeclaration of const __proto__

tryItOut 438
It's an iterator!
Iterating threw!
Iterating threw: TypeError: undefined has no properties

tryItOut 439

tryItOut 440
Running threw: SyntaxError: invalid assignment left-hand side

tryItOut 441
Compiling threw: SyntaxError: missing { before function body

tryItOut 442

tryItOut 443
Compiling threw: SyntaxError: invalid assignment left-hand side

tryItOut 444

tryItOut 445
Compiling threw: SyntaxError: missing identifier in catch

tryItOut 446

tryItOut 447
Compiling threw: SyntaxError: missing ; before statement

tryItOut 448

tryItOut 449
Compiling threw: SyntaxError: missing variable name

tryItOut 450
It's an iterator!
Iterating succeeded, iterCount == 4

tryItOut 451
Compiling threw: SyntaxError: duplicate label

tryItOut 452
Compiling threw: SyntaxError: invalid for each loop

tryItOut 453
Compiling threw: SyntaxError: invalid XML tag syntax

tryItOut 454

tryItOut 455
It's an iterator!
Iterating threw!
Iterating threw: TypeError: Iterator(<y><z/></y>).__lookupGetter__("__parent__") has no properties

tryItOut 456
It's an iterator!
Iterating succeeded, iterCount == 2

tryItOut 457
Compiling threw: TypeError: redeclaration of const __iterator__

tryItOut 458

tryItOut 459
Compiling threw: SyntaxError: missing variable name

tryItOut 460
Compiling threw: SyntaxError: invalid XML name

tryItOut 461
Compiling threw: SyntaxError: invalid for/in left-hand side

tryItOut 462

tryItOut 463

tryItOut 464
Running threw: ReferenceError: window is not defined

tryItOut 465
Compiling threw: SyntaxError: syntax error

tryItOut 466

tryItOut 467
Compiling threw: SyntaxError: syntax error

tryItOut 468
Compiling threw: SyntaxError: missing ] after element list

tryItOut 469

tryItOut 470

tryItOut 471
Compiling threw: SyntaxError: syntax error

tryItOut 472

tryItOut 473

tryItOut 474
Compiling threw: SyntaxError: invalid decrement operand

tryItOut 475

tryItOut 476

tryItOut 477
Compiling threw: SyntaxError: missing variable name

tryItOut 478

tryItOut 479

tryItOut 480
Compiling threw: TypeError: redeclaration of variable constructor

tryItOut 481
Compiling threw: SyntaxError: missing variable name

tryItOut 482
Compiling threw: SyntaxError: invalid for each loop

tryItOut 483
Compiling threw: TypeError: redeclaration of const __noSuchMethod__

tryItOut 484
Compiling threw: SyntaxError: invalid default XML namespace

tryItOut 485

tryItOut 486

tryItOut 487

tryItOut 488
Compiling threw: SyntaxError: missing variable name

tryItOut 489
Compiling threw: SyntaxError: syntax error

tryItOut 490
Compiling threw: SyntaxError: invalid for/in left-hand side

tryItOut 491
Compiling threw: SyntaxError: missing { before function body

tryItOut 492
Running threw: ReferenceError: __iterator__ is not defined

tryItOut 493

tryItOut 494
Compiling threw: SyntaxError: invalid assignment left-hand side

tryItOut 495
Compiling threw: SyntaxError: missing variable name

tryItOut 496
Running threw: ReferenceError: window is not defined

tryItOut 497

tryItOut 498

tryItOut 499
Compiling threw: SyntaxError: missing ; after for-loop initializer

tryItOut 500
before 226720, after 226720, break 01675000
Running threw: ReferenceError: reference to undefined XML name *::*

tryItOut 501

tryItOut 502
Running threw: TypeError: <y>
  <z/>
</y> is not a function

tryItOut 503

tryItOut 504

tryItOut 505
Compiling threw: SyntaxError: invalid for/in left-hand side

tryItOut 506
Compiling threw: SyntaxError: missing variable name

tryItOut 507
It's an iterator!
Iterating succeeded, iterCount == 1

tryItOut 508
Compiling threw: SyntaxError: invalid for each loop

tryItOut 509

tryItOut 510
Compiling threw: SyntaxError: missing variable name

tryItOut 511

tryItOut 512

tryItOut 513

tryItOut 514

tryItOut 515

tryItOut 516

tryItOut 517

tryItOut 518

tryItOut 519
Compiling threw: SyntaxError: syntax error

tryItOut 520
Compiling threw: SyntaxError: missing : after property id

tryItOut 521
Compiling threw: SyntaxError: invalid destructuring assignment operator

tryItOut 522
Compiling threw: SyntaxError: duplicate label

tryItOut 523

tryItOut 524
Compiling threw: SyntaxError: invalid assignment left-hand side

tryItOut 525

tryItOut 526
Compiling threw: SyntaxError: missing formal parameter

tryItOut 527

tryItOut 528
Compiling threw: SyntaxError: syntax error

tryItOut 529

tryItOut 530
Running threw: ReferenceError: reference to undefined XML name *::*

tryItOut 531
Running threw: ReferenceError: window is not defined

tryItOut 532
Running threw: ReferenceError: reference to undefined XML name *::*

tryItOut 533
Compiling threw: SyntaxError: invalid increment operand

tryItOut 534

tryItOut 535

tryItOut 536
Compiling threw: SyntaxError: missing : after property id

tryItOut 537

tryItOut 538

tryItOut 539
Compiling threw: SyntaxError: invalid increment operand

tryItOut 540
Compiling threw: SyntaxError: missing { before function body

tryItOut 541
Compiling threw: SyntaxError: invalid for/in left-hand side

tryItOut 542
Compiling threw: SyntaxError: invalid for each loop

tryItOut 543
Compiling threw: SyntaxError: invalid for/in left-hand side

tryItOut 544
Compiling threw: SyntaxError: invalid for/in left-hand side

tryItOut 545

tryItOut 546

tryItOut 547
Compiling threw: SyntaxError: invalid destructuring assignment operator

tryItOut 548
Running threw: ReferenceError: __iterator__ is not defined

tryItOut 549

tryItOut 550
Running threw: ReferenceError: window is not defined

tryItOut 551
Compiling threw: SyntaxError: invalid for/in left-hand side

tryItOut 552

tryItOut 553

tryItOut 554

tryItOut 555
Compiling threw: SyntaxError: missing = in destructuring declaration

tryItOut 556

tryItOut 557

tryItOut 558

tryItOut 559
Running threw: null

tryItOut 560

tryItOut 561
Running threw: ReferenceError: window is not defined

tryItOut 562
Running threw: TypeError: this is not a constructor

tryItOut 563
Compiling threw: SyntaxError: missing ] after element list

tryItOut 564
Compiling threw: SyntaxError: invalid for/in left-hand side

tryItOut 565
Running threw: ReferenceError: reference to undefined XML name *::*

tryItOut 566
Compiling threw: SyntaxError: missing ; after for-loop initializer

tryItOut 567

tryItOut 568

tryItOut 569

tryItOut 570

tryItOut 571
It's an iterator!
Iterating threw!
Iterating threw: ReferenceError: z1 is not defined

tryItOut 572
Compiling threw: SyntaxError: missing ; before statement

tryItOut 573

tryItOut 574
Compiling threw: SyntaxError: duplicate label

tryItOut 575

tryItOut 576
It's an iterator!
Iterating succeeded, iterCount == 1

tryItOut 577
Compiling threw: SyntaxError: missing ; before statement

tryItOut 578

tryItOut 579
Running threw: ReferenceError: window is not defined

tryItOut 580
It's an iterator!
Iterating threw!
Iterating threw: ReferenceError: window is not defined

tryItOut 581
Compiling threw: SyntaxError: invalid destructuring assignment operator

tryItOut 582

tryItOut 583

tryItOut 584
It's an iterator!
Iterating succeeded, iterCount == 1

tryItOut 585
Compiling threw: SyntaxError: invalid decrement operand

tryItOut 586
Compiling threw: SyntaxError: invalid assignment left-hand side

tryItOut 587

tryItOut 588
It's an iterator!
Iterating succeeded, iterCount == 1

tryItOut 589

tryItOut 590

tryItOut 591
Compiling threw: SyntaxError: missing ; before statement

tryItOut 592

tryItOut 593

tryItOut 594
Compiling threw: SyntaxError: missing variable name

tryItOut 595
Compiling threw: SyntaxError: missing { before function body

tryItOut 596
Compiling threw: SyntaxError: syntax error

tryItOut 597

tryItOut 598

tryItOut 599
Compiling threw: SyntaxError: missing variable name

tryItOut 600
Compiling threw: TypeError: redeclaration of variable __count__

tryItOut 601

tryItOut 602
Compiling threw: SyntaxError: missing variable name

tryItOut 603

tryItOut 604
Compiling threw: SyntaxError: invalid assignment left-hand side

tryItOut 605

tryItOut 606
Running threw: [object Object]

tryItOut 607
Compiling threw: SyntaxError: missing variable name

tryItOut 608
Compiling threw: SyntaxError: missing variable name

tryItOut 609
Compiling threw: SyntaxError: missing variable name

tryItOut 610
before 226720, after 226720, break 0167e000

tryItOut 611

tryItOut 612
Running threw: [object global]

tryItOut 613
Compiling threw: SyntaxError: missing variable name

tryItOut 614
Compiling threw: SyntaxError: missing ) after with-statement object

tryItOut 615

tryItOut 616

tryItOut 617
Compiling threw: SyntaxError: invalid for/in left-hand side

tryItOut 618
It's an iterator!
Iterating threw!
Iterating threw: Error: invalid sharp variable use #1#

tryItOut 619
Running threw: [object Object]

tryItOut 620

tryItOut 621

tryItOut 622

tryItOut 623

tryItOut 624

tryItOut 625

tryItOut 626
Running threw: ReferenceError: reference to undefined XML name @foo

tryItOut 627

tryItOut 628
Compiling threw: SyntaxError: missing ) after condition

tryItOut 629

tryItOut 630
Compiling threw: SyntaxError: missing ; after for-loop initializer

tryItOut 631
Compiling threw: SyntaxError: missing variable name

tryItOut 632

tryItOut 633

tryItOut 634
Compiling threw: SyntaxError: syntax error

tryItOut 635
Running threw: 

tryItOut 636

tryItOut 637
It's an iterator!
Iterating threw!
Iterating threw: ReferenceError: reference to undefined XML name *

tryItOut 638
Compiling threw: SyntaxError: yield expression must be parenthesized

tryItOut 639
Compiling threw: SyntaxError: illegal character

tryItOut 640
Compiling threw: SyntaxError: invalid for/in left-hand side

tryItOut 641
Running threw: ReferenceError: reference to undefined XML name @foo

tryItOut 642

tryItOut 643
Running threw: ReferenceError: reference to undefined XML name @foo

tryItOut 644

tryItOut 645

tryItOut 646

tryItOut 647
Compiling threw: SyntaxError: missing { before function body

tryItOut 648
Compiling threw: SyntaxError: missing ; after for-loop initializer

tryItOut 649
Compiling threw: SyntaxError: syntax error

tryItOut 650
Compiling threw: SyntaxError: missing ) after with-statement object

tryItOut 651

tryItOut 652
Running threw: null

tryItOut 653
Compiling threw: SyntaxError: missing } in compound statement

tryItOut 654

tryItOut 655

tryItOut 656

tryItOut 657
Compiling threw: SyntaxError: missing ; before statement

tryItOut 658
before 226720, after 226720, break 0167e000

tryItOut 659

tryItOut 660
Compiling threw: SyntaxError: missing variable name

tryItOut 661
It's an iterator!
Iterating succeeded, iterCount == 1

tryItOut 662
Compiling threw: SyntaxError: illegal XML character

tryItOut 663

tryItOut 664

tryItOut 665

tryItOut 666

tryItOut 667
Compiling threw: SyntaxError: missing ; before statement

tryItOut 668

tryItOut 669

tryItOut 670
Compiling threw: SyntaxError: invalid for/in left-hand side

tryItOut 671

tryItOut 672

tryItOut 673
Compiling threw: SyntaxError: invalid for/in left-hand side

tryItOut 674
Compiling threw: SyntaxError: missing variable name

tryItOut 675
before 226720, after 226720, break 0167e000

tryItOut 676

tryItOut 677

tryItOut 678
Compiling threw: SyntaxError: invalid for/in left-hand side

tryItOut 679
Running threw: [object global]

tryItOut 680

tryItOut 681

tryItOut 682
It's an iterator!
Iterating threw!
Iterating threw: TypeError: arguments[0] has no properties

tryItOut 683
Running threw: 111

tryItOut 684

tryItOut 685
Compiling threw: SyntaxError: invalid label

tryItOut 686
Compiling threw: SyntaxError: missing ; after for-loop initializer

tryItOut 687
It's an iterator!
Iterating succeeded, iterCount == 1

tryItOut 688
Running threw: ReferenceError: reference to undefined XML name *

tryItOut 689

tryItOut 690
Compiling threw: SyntaxError: missing ; after for-loop initializer

tryItOut 691
Compiling threw: SyntaxError: missing { before function body

tryItOut 692
It's an iterator!
Iterating succeeded, iterCount == 1

tryItOut 693
Running threw: ReferenceError: window is not defined

tryItOut 694

tryItOut 695
Compiling threw: SyntaxError: missing ; before statement

tryItOut 696

tryItOut 697

tryItOut 698
It's an iterator!
Iterating succeeded, iterCount == 1

tryItOut 699

tryItOut 700
Running threw: Error: invalid sharp variable use #1#

tryItOut 701

tryItOut 702
Compiling threw: SyntaxError: illegal XML character

tryItOut 703
Running threw: [object Object]

tryItOut 704

tryItOut 705

tryItOut 706

tryItOut 707

tryItOut 708
Compiling threw: SyntaxError: missing variable name

tryItOut 709

tryItOut 710

tryItOut 711

tryItOut 712

tryItOut 713
Running threw: ReferenceError: z2 is not defined

tryItOut 714

tryItOut 715
Compiling threw: SyntaxError: missing ) after let head

tryItOut 716

tryItOut 717

tryItOut 718

tryItOut 719
Compiling threw: SyntaxError: invalid for/in left-hand side

tryItOut 720

tryItOut 721

tryItOut 722
Compiling threw: SyntaxError: missing variable name

tryItOut 723

tryItOut 724
Compiling threw: SyntaxError: missing identifier in catch

tryItOut 725
Compiling threw: SyntaxError: invalid for/in left-hand side

tryItOut 726
Compiling threw: SyntaxError: missing = in destructuring declaration

tryItOut 727

tryItOut 728

tryItOut 729

tryItOut 730
Compiling threw: SyntaxError: missing ; after for-loop initializer

tryItOut 731
Running threw: TypeError: <y>
  <z/>
</y> is not a constructor

tryItOut 732

tryItOut 733
Compiling threw: SyntaxError: invalid XML name

tryItOut 734

tryItOut 735

tryItOut 736

tryItOut 737
Running threw: ReferenceError: reference to undefined XML name *

tryItOut 738

tryItOut 739
Compiling threw: SyntaxError: syntax error

tryItOut 740

tryItOut 741

tryItOut 742

tryItOut 743

tryItOut 744
Compiling threw: SyntaxError: missing { before function body

tryItOut 745
Compiling threw: SyntaxError: missing variable name

tryItOut 746
Running threw: TypeError: redeclaration of var __count__

tryItOut 747

tryItOut 748
Compiling threw: SyntaxError: missing ; before statement

tryItOut 749
Compiling threw: SyntaxError: syntax error

tryItOut 750
Compiling threw: SyntaxError: syntax error

tryItOut 751
Compiling threw: SyntaxError: missing variable name

tryItOut 752

tryItOut 753

tryItOut 754
Compiling threw: SyntaxError: missing variable name

tryItOut 755
Compiling threw: SyntaxError: missing variable name

tryItOut 756
Compiling threw: SyntaxError: syntax error

tryItOut 757
Compiling threw: SyntaxError: invalid for/in left-hand side

tryItOut 758
Compiling threw: SyntaxError: missing ; before statement

tryItOut 759
Compiling threw: SyntaxError: invalid property id

tryItOut 760

tryItOut 761

tryItOut 762

tryItOut 763
It's an iterator!
Iterating threw!
Iterating threw: ReferenceError: reference to undefined XML name @foo

tryItOut 764
Running threw: <y>
  <z/>
</y>

tryItOut 765

tryItOut 766

tryItOut 767
Compiling threw: SyntaxError: missing ; before statement

tryItOut 768

tryItOut 769

tryItOut 770
Compiling threw: SyntaxError: invalid for/in left-hand side

tryItOut 771

tryItOut 772

tryItOut 773
Compiling threw: SyntaxError: missing variable name

tryItOut 774

tryItOut 775

tryItOut 776
Compiling threw: SyntaxError: invalid for/in left-hand side

tryItOut 777
Compiling threw: SyntaxError: missing ; after for-loop initializer

tryItOut 778
Compiling threw: SyntaxError: missing ; before statement

tryItOut 779
Compiling threw: SyntaxError: missing variable name

tryItOut 780

tryItOut 781

tryItOut 782

tryItOut 783
Compiling threw: SyntaxError: missing variable name

tryItOut 784

tryItOut 785
Compiling threw: SyntaxError: invalid destructuring assignment operator

tryItOut 786
Compiling threw: SyntaxError: syntax error

tryItOut 787

tryItOut 788
Compiling threw: SyntaxError: missing { before function body

tryItOut 789

tryItOut 790
Running threw: ReferenceError: reference to undefined XML name *::*

tryItOut 791
Compiling threw: SyntaxError: missing { before function body

tryItOut 792
Compiling threw: SyntaxError: syntax error

tryItOut 793
Compiling threw: SyntaxError: syntax error

tryItOut 794

tryItOut 795
It's an iterator!
Iterating succeeded, iterCount == 1

tryItOut 796

tryItOut 797
Compiling threw: SyntaxError: missing ; after for-loop initializer

tryItOut 798

tryItOut 799
Compiling threw: SyntaxError: syntax error

tryItOut 800

tryItOut 801
Compiling threw: SyntaxError: illegal XML character

tryItOut 802

tryItOut 803
Compiling threw: SyntaxError: missing ; before statement

tryItOut 804
Compiling threw: SyntaxError: missing variable name

tryItOut 805

tryItOut 806
Compiling threw: SyntaxError: invalid for/in left-hand side

tryItOut 807
Compiling threw: SyntaxError: missing ; before statement

tryItOut 808
Running threw: 

tryItOut 809
Compiling threw: SyntaxError: missing variable name

tryItOut 810
Compiling threw: TypeError: redeclaration of const __proto__

tryItOut 811

tryItOut 812

tryItOut 813

tryItOut 814
Compiling threw: SyntaxError: missing ; after for-loop initializer

tryItOut 815
Compiling threw: TypeError: redeclaration of variable __iterator__

tryItOut 816

tryItOut 817

tryItOut 818

tryItOut 819
Compiling threw: SyntaxError: invalid assignment left-hand side

tryItOut 820

tryItOut 821
It's an iterator!
Iterating threw!
Iterating threw: ReferenceError: window is not defined

tryItOut 822
Compiling threw: SyntaxError: missing ; after for-loop initializer

tryItOut 823

tryItOut 824
It's an iterator!
Iterating threw!
Iterating threw: TypeError: new String has no properties

tryItOut 825
Compiling threw: SyntaxError: invalid increment operand

tryItOut 826
It's an iterator!
Iterating threw!
Iterating threw: TypeError: undefined has no properties

tryItOut 827
Compiling threw: SyntaxError: missing { before function body

tryItOut 828
Compiling threw: SyntaxError: invalid XML name

tryItOut 829
Compiling threw: SyntaxError: invalid for/in left-hand side

tryItOut 830
Running threw: ReferenceError: reference to undefined XML name @foo

tryItOut 831
before 226720, after 226720, break 0169c000

tryItOut 832
Compiling threw: SyntaxError: syntax error

tryItOut 833
Compiling threw: SyntaxError: missing : after property id

tryItOut 834
Compiling threw: SyntaxError: missing } in XML expression

tryItOut 835

tryItOut 836
Compiling threw: SyntaxError: missing variable name

tryItOut 837

tryItOut 838

tryItOut 839

tryItOut 840

tryItOut 841

tryItOut 842
Running threw: ReferenceError: reference to undefined XML name *

tryItOut 843

tryItOut 844
Compiling threw: SyntaxError: missing { before function body

tryItOut 845
Compiling threw: SyntaxError: syntax error

tryItOut 846

tryItOut 847
Compiling threw: SyntaxError: missing ; before statement

tryItOut 848
Running threw: [object global]

tryItOut 849

tryItOut 850

tryItOut 851

tryItOut 852

tryItOut 853

tryItOut 854

tryItOut 855
Compiling threw: SyntaxError: invalid for/in left-hand side

tryItOut 856
Compiling threw: SyntaxError: invalid for/in left-hand side

tryItOut 857

tryItOut 858

tryItOut 859
Compiling threw: SyntaxError: invalid for each loop

tryItOut 860
Compiling threw: SyntaxError: missing ; before statement

tryItOut 861

tryItOut 862
before 226720, after 226720, break 0169c000

tryItOut 863

tryItOut 864
Compiling threw: SyntaxError: syntax error

tryItOut 865
Compiling threw: SyntaxError: missing variable name

tryItOut 866
It's an iterator!
Iterating threw!
Iterating threw: ReferenceError: reference to undefined XML name @foo

tryItOut 867

tryItOut 868
Running threw: null

tryItOut 869

tryItOut 870

tryItOut 871

tryItOut 872
Compiling threw: SyntaxError: missing ; before statement

tryItOut 873

tryItOut 874
Running threw: ReferenceError: window is not defined

tryItOut 875
Compiling threw: SyntaxError: syntax error

tryItOut 876

tryItOut 877

tryItOut 878
Compiling threw: SyntaxError: missing ; before statement

tryItOut 879
Compiling threw: SyntaxError: missing variable name

tryItOut 880
Compiling threw: SyntaxError: illegal XML character

tryItOut 881
It's an iterator!
before 226720, after 226720, break 0169c000
Iterating succeeded, iterCount == 1

tryItOut 882
Compiling threw: SyntaxError: syntax error

tryItOut 883
Compiling threw: SyntaxError: invalid for/in left-hand side

tryItOut 884

tryItOut 885
Compiling threw: TypeError: redeclaration of const __count__

tryItOut 886
Compiling threw: SyntaxError: invalid for/in left-hand side

tryItOut 887

tryItOut 888

tryItOut 889

tryItOut 890

tryItOut 891

tryItOut 892
Compiling threw: SyntaxError: missing { before function body

tryItOut 893
It's an iterator!
Iterating succeeded, iterCount == 1

tryItOut 894

tryItOut 895

tryItOut 896
Compiling threw: SyntaxError: syntax error

tryItOut 897

tryItOut 898
It's an iterator!
Iterating succeeded, iterCount == 1

tryItOut 899
before 226720, after 226720, break 0169c000

tryItOut 900
Compiling threw: SyntaxError: missing identifier in catch

tryItOut 901
Compiling threw: SyntaxError: invalid assignment left-hand side

tryItOut 902

tryItOut 903

tryItOut 904
It's an iterator!
Iterating threw!
Iterating threw: 

tryItOut 905
It's an iterator!
Iterating succeeded, iterCount == 1

tryItOut 906
Compiling threw: SyntaxError: duplicate label

tryItOut 907
Compiling threw: SyntaxError: missing ; before statement

tryItOut 908

tryItOut 909
Compiling threw: SyntaxError: invalid assignment left-hand side

tryItOut 910
Compiling threw: SyntaxError: invalid for/in left-hand side

tryItOut 911
Compiling threw: SyntaxError: missing ; before statement

tryItOut 912
Compiling threw: SyntaxError: invalid for/in left-hand side

tryItOut 913

tryItOut 914

tryItOut 915
Running threw: 

tryItOut 916
Compiling threw: SyntaxError: invalid decrement operand

tryItOut 917

tryItOut 918
Running threw: ReferenceError: z2 is not defined

tryItOut 919
Running threw: [object Object]

tryItOut 920

tryItOut 921
Running threw: TypeError: XML descendants internal method called on incompatible Number

tryItOut 922

tryItOut 923
Running threw: [object global]

tryItOut 924
Running threw: 111

tryItOut 925
Compiling threw: SyntaxError: missing variable name

tryItOut 926

tryItOut 927
Compiling threw: SyntaxError: missing { before function body

tryItOut 928
Compiling threw: SyntaxError: missing ) after argument list

tryItOut 929

tryItOut 930
Running threw: 111

tryItOut 931
Compiling threw: SyntaxError: syntax error

tryItOut 932
Running threw: ReferenceError: reference to undefined XML name *

tryItOut 933

tryItOut 934

tryItOut 935
Running threw: ReferenceError: window is not defined

tryItOut 936
Running threw: ReferenceError: window is not defined

tryItOut 937
Compiling threw: SyntaxError: missing { before function body

tryItOut 938
It's an iterator!
Iterating threw!
Iterating threw: ReferenceError: reference to undefined XML name @foo

tryItOut 939
Compiling threw: SyntaxError: invalid decrement operand

tryItOut 940
Compiling threw: SyntaxError: missing variable name

tryItOut 941

tryItOut 942

tryItOut 943

tryItOut 944
Compiling threw: SyntaxError: invalid destructuring assignment operator

tryItOut 945

tryItOut 946
Compiling threw: SyntaxError: duplicate label

tryItOut 947
Compiling threw: SyntaxError: invalid decrement operand

tryItOut 948
Compiling threw: SyntaxError: invalid for/in left-hand side

tryItOut 949

tryItOut 950

tryItOut 951

tryItOut 952
Running threw: ReferenceError: reference to undefined XML name *::*

tryItOut 953
It's an iterator!
Iterating threw!
Iterating threw: ReferenceError: window is not defined

tryItOut 954

tryItOut 955

tryItOut 956
It's an iterator!
Iterating threw!
Iterating threw: ReferenceError: window is not defined

tryItOut 957
It's an iterator!
Iterating succeeded, iterCount == 4

tryItOut 958

tryItOut 959
Compiling threw: SyntaxError: invalid decrement operand

tryItOut 960
Compiling threw: SyntaxError: invalid for/in left-hand side

tryItOut 961

tryItOut 962
Compiling threw: SyntaxError: invalid for/in left-hand side

tryItOut 963

tryItOut 964
Compiling threw: SyntaxError: invalid for each loop

tryItOut 965
Compiling threw: SyntaxError: missing ; before statement

tryItOut 966

tryItOut 967

tryItOut 968

tryItOut 969
Compiling threw: SyntaxError: syntax error

tryItOut 970
Compiling threw: SyntaxError: missing ; after for-loop condition

tryItOut 971

tryItOut 972
It's an iterator!
Iterating threw!
Iterating threw: TypeError: ({}) is not a function

tryItOut 973
It's an iterator!
Iterating succeeded, iterCount == 1

tryItOut 974
before 226720, after 226720, break 0169c000

tryItOut 975
Compiling threw: SyntaxError: syntax error

tryItOut 976

tryItOut 977
Compiling threw: SyntaxError: invalid for/in left-hand side

tryItOut 978
Compiling threw: SyntaxError: syntax error

tryItOut 979
Compiling threw: SyntaxError: missing ; before statement

tryItOut 980
Running threw: 111

tryItOut 981
Running threw: NaN

tryItOut 982
Running threw: [object Object]

tryItOut 983
Compiling threw: SyntaxError: missing ) after for-loop control

tryItOut 984

tryItOut 985

tryItOut 986
Compiling threw: SyntaxError: invalid default XML namespace

tryItOut 987

tryItOut 988
Compiling threw: SyntaxError: invalid destructuring assignment operator

tryItOut 989

tryItOut 990
Compiling threw: SyntaxError: invalid assignment left-hand side

tryItOut 991

tryItOut 992

tryItOut 993
Compiling threw: SyntaxError: missing variable name

tryItOut 994
Compiling threw: SyntaxError: invalid for/in left-hand side

tryItOut 995
Compiling threw: SyntaxError: missing formal parameter

tryItOut 996
Compiling threw: SyntaxError: syntax error

tryItOut 997
Running threw: [object Object]

tryItOut 998

tryItOut 999

tryItOut 1000
Compiling threw: SyntaxError: yield expression must be parenthesized

ALL OK

Script done on Sat 04 May 2013 06:22:38 AM PDT
