Script started on Sat 04 May 2013 06:40:07 AM PDT
***
Targeting SpiderMonkey / Gecko.

tryItOut 1

tryItOut 2
Running threw: ReferenceError: __noSuchMethod__ is not defined

tryItOut 3

tryItOut 4
Compiling threw: SyntaxError: missing : after property id

tryItOut 5
Running threw: TypeError: this.zzz has no properties

tryItOut 6
It's an iterator!
Iterating threw!
Iterating threw: ReferenceError: reference to undefined XML name *

tryItOut 7
Running threw: TypeError: this.zzz has no properties

tryItOut 8
It's an iterator!
Iterating succeeded, iterCount == 1

tryItOut 9

tryItOut 10
Running threw: ReferenceError: reference to undefined XML name @foo

tryItOut 11
Compiling threw: SyntaxError: invalid property id

tryItOut 12
Compiling threw: SyntaxError: syntax error

tryItOut 13
Compiling threw: SyntaxError: invalid break

tryItOut 14

tryItOut 15

tryItOut 16
Compiling threw: TypeError: redeclaration of const constructor

tryItOut 17

tryItOut 18
Compiling threw: SyntaxError: missing ) in parenthetical

tryItOut 19

tryItOut 20

tryItOut 21
Running threw: TypeError: this.zzz has no properties

tryItOut 22
Compiling threw: SyntaxError: missing formal parameter

tryItOut 23
Compiling threw: SyntaxError: missing ) in parenthetical

tryItOut 24
Compiling threw: SyntaxError: syntax error

tryItOut 25
Compiling threw: SyntaxError: syntax error

tryItOut 26
It's an iterator!
Iterating succeeded, iterCount == 1

tryItOut 27
Compiling threw: SyntaxError: invalid for/in left-hand side

tryItOut 28
Compiling threw: SyntaxError: invalid for/in left-hand side

tryItOut 29
Compiling threw: SyntaxError: invalid for/in left-hand side

tryItOut 30
Compiling threw: SyntaxError: invalid assignment left-hand side

tryItOut 31
Compiling threw: SyntaxError: invalid XML name

tryItOut 32
Compiling threw: SyntaxError: syntax error

tryItOut 33
Compiling threw: SyntaxError: invalid XML tag syntax

tryItOut 34
Compiling threw: TypeError: redeclaration of variable __count__

tryItOut 35
Compiling threw: SyntaxError: label not found

tryItOut 36

tryItOut 37
Running threw: ReferenceError: __noSuchMethod__ is not defined

tryItOut 38

tryItOut 39

tryItOut 40
Running threw: ReferenceError: reference to undefined XML name @foo

tryItOut 41
Compiling threw: SyntaxError: invalid assignment left-hand side

tryItOut 42
Running threw: ReferenceError: reference to undefined XML name *::*

tryItOut 43
Compiling threw: SyntaxError: missing variable name

tryItOut 44
It's an iterator!
Iterating threw!
Iterating threw: ReferenceError: prototype is not defined

tryItOut 45

tryItOut 46
Running threw: [object Object]

tryItOut 47

tryItOut 48
Compiling threw: SyntaxError: label not found

tryItOut 49

tryItOut 50
Running threw: TypeError: this.zzz has no properties

tryItOut 51

tryItOut 52
Compiling threw: SyntaxError: missing ) after condition

tryItOut 53
Running threw: ReferenceError: reference to undefined XML name *::*

tryItOut 54

tryItOut 55
Compiling threw: SyntaxError: duplicate label

tryItOut 56

tryItOut 57
Compiling threw: SyntaxError: illegal XML character

tryItOut 58

tryItOut 59
Running threw: function Object() {
    [native code]
}

tryItOut 60
It's an iterator!
Iterating succeeded, iterCount == 1

tryItOut 61

tryItOut 62

tryItOut 63
Running threw: TypeError: this.zzz has no properties

tryItOut 64
Compiling threw: SyntaxError: missing { before function body

tryItOut 65

tryItOut 66

tryItOut 67

tryItOut 68
Compiling threw: SyntaxError: invalid continue

tryItOut 69

tryItOut 70
Compiling threw: SyntaxError: syntax error

tryItOut 71

tryItOut 72
Running threw: 

tryItOut 73

tryItOut 74
Compiling threw: SyntaxError: invalid break

tryItOut 75
Compiling threw: SyntaxError: missing ) in parenthetical

tryItOut 76

tryItOut 77
It's an iterator!
Iterating succeeded, iterCount == 0

tryItOut 78
Running threw: TypeError: arguments[0] has no properties

tryItOut 79
It's an iterator!
Iterating succeeded, iterCount == 1

tryItOut 80

tryItOut 81

tryItOut 82
Compiling threw: SyntaxError: missing ) after condition

tryItOut 83

tryItOut 84
Compiling threw: TypeError: generator function anonymous returns a value

tryItOut 85

tryItOut 86

tryItOut 87
Compiling threw: SyntaxError: missing { before function body

tryItOut 88
Running threw: TypeError: this.zzz has no properties

tryItOut 89

tryItOut 90
It's an iterator!
Iterating threw!
Iterating threw: TypeError: this.zzz has no properties

tryItOut 91
Compiling threw: SyntaxError: missing ; before statement

tryItOut 92
Compiling threw: SyntaxError: invalid assignment left-hand side

tryItOut 93
Compiling threw: SyntaxError: invalid assignment left-hand side

tryItOut 94
Compiling threw: SyntaxError: invalid assignment left-hand side

tryItOut 95

tryItOut 96
Compiling threw: SyntaxError: invalid assignment left-hand side

tryItOut 97

tryItOut 98
Compiling threw: SyntaxError: syntax error

tryItOut 99

tryItOut 100
Compiling threw: SyntaxError: invalid for/in left-hand side

tryItOut 101
It's an iterator!
Iterating succeeded, iterCount == 1

tryItOut 102
Compiling threw: SyntaxError: syntax error

tryItOut 103
Compiling threw: SyntaxError: missing { before function body

tryItOut 104
Compiling threw: SyntaxError: invalid destructuring assignment operator

tryItOut 105
It's an iterator!
Iterating succeeded, iterCount == 1

tryItOut 106
Compiling threw: SyntaxError: missing variable name

tryItOut 107

tryItOut 108
Running threw: function Object() {
    [native code]
}

tryItOut 109
Compiling threw: SyntaxError: missing ) in parenthetical

tryItOut 110
Compiling threw: SyntaxError: syntax error

tryItOut 111
It's an iterator!
Iterating succeeded, iterCount == 1

tryItOut 112
Running threw: 107

tryItOut 113
uneval returned the string: [[1]]

tryItOut 114
It's an iterator!
Iterating succeeded, iterCount == 0

tryItOut 115

tryItOut 116
Compiling threw: SyntaxError: invalid for/in left-hand side

tryItOut 117
Compiling threw: SyntaxError: missing { before function body

tryItOut 118
Compiling threw: SyntaxError: label not found

tryItOut 119

tryItOut 120
Compiling threw: SyntaxError: missing ; before statement

tryItOut 121

tryItOut 122

tryItOut 123
Compiling threw: SyntaxError: label not found

tryItOut 124

tryItOut 125
Compiling threw: SyntaxError: missing variable name

tryItOut 126
Compiling threw: SyntaxError: missing ; after for-loop condition

tryItOut 127

tryItOut 128

tryItOut 129

tryItOut 130

tryItOut 131
Running threw: 

tryItOut 132
Compiling threw: SyntaxError: syntax error

tryItOut 133

tryItOut 134
Compiling threw: SyntaxError: invalid for/in left-hand side

tryItOut 135
Compiling threw: SyntaxError: missing { before function body

tryItOut 136
Compiling threw: TypeError: redeclaration of variable __parent__

tryItOut 137
Compiling threw: SyntaxError: illegal XML character

tryItOut 138
Compiling threw: SyntaxError: missing ) in parenthetical

tryItOut 139
Compiling threw: SyntaxError: invalid break

tryItOut 140
Compiling threw: SyntaxError: missing : in conditional expression

tryItOut 141

tryItOut 142

tryItOut 143
Compiling threw: SyntaxError: syntax error

tryItOut 144

tryItOut 145
Compiling threw: SyntaxError: label not found

tryItOut 146
Compiling threw: SyntaxError: missing ; before statement

tryItOut 147
Compiling threw: SyntaxError: syntax error

tryItOut 148
Compiling threw: SyntaxError: missing ) in parenthetical

tryItOut 149

tryItOut 150
Compiling threw: SyntaxError: missing { before function body

tryItOut 151
Compiling threw: SyntaxError: invalid assignment left-hand side

tryItOut 152
Compiling threw: SyntaxError: invalid default XML namespace

tryItOut 153

tryItOut 154
Compiling threw: SyntaxError: syntax error

tryItOut 155
Compiling threw: SyntaxError: invalid break

tryItOut 156
Compiling threw: SyntaxError: missing variable name

tryItOut 157

tryItOut 158

tryItOut 159
Compiling threw: SyntaxError: label not found

tryItOut 160
Running threw: ReferenceError: prototype is not defined

tryItOut 161

tryItOut 162

tryItOut 163
Compiling threw: TypeError: generator function anonymous returns a value

tryItOut 164
Compiling threw: SyntaxError: unterminated string literal

tryItOut 165

tryItOut 166
Compiling threw: SyntaxError: invalid for/in left-hand side

tryItOut 167
Running threw: [object Object]

tryItOut 168

tryItOut 169
Compiling threw: SyntaxError: missing variable name

tryItOut 170
It's an iterator!
Iterating threw!
Iterating threw: null

tryItOut 171
Compiling threw: SyntaxError: missing variable name

tryItOut 172
Compiling threw: SyntaxError: label not found

tryItOut 173

tryItOut 174
It's an iterator!
Iterating succeeded, iterCount == 1

tryItOut 175
Running threw: 0

tryItOut 176
Compiling threw: SyntaxError: invalid break

tryItOut 177
Compiling threw: SyntaxError: invalid assignment left-hand side

tryItOut 178
It's an iterator!
Iterating threw!
Iterating threw: TypeError: prop.__iterator__ has no properties

tryItOut 179
Compiling threw: SyntaxError: missing { before function body

tryItOut 180

tryItOut 181

tryItOut 182
Running threw: ReferenceError: z1 is not defined

tryItOut 183

tryItOut 184

tryItOut 185
Compiling threw: SyntaxError: invalid assignment left-hand side

tryItOut 186

tryItOut 187
Compiling threw: SyntaxError: invalid increment operand

tryItOut 188

tryItOut 189

tryItOut 190
Compiling threw: SyntaxError: invalid for/in left-hand side

tryItOut 191

tryItOut 192
Compiling threw: SyntaxError: syntax error

tryItOut 193
Compiling threw: SyntaxError: invalid continue

tryItOut 194

tryItOut 195

tryItOut 196
It's an iterator!
Iterating succeeded, iterCount == 1

tryItOut 197

tryItOut 198

tryItOut 199
Compiling threw: SyntaxError: invalid continue

tryItOut 200
Compiling threw: SyntaxError: missing ) in parenthetical

tryItOut 201

tryItOut 202
Compiling threw: SyntaxError: missing name in export statement

tryItOut 203

tryItOut 204
Compiling threw: SyntaxError: missing ; before statement

tryItOut 205

tryItOut 206

tryItOut 207

tryItOut 208
Compiling threw: SyntaxError: label not found

tryItOut 209
Compiling threw: TypeError: redeclaration of variable __proto__

tryItOut 210

tryItOut 211
Compiling threw: SyntaxError: missing ) in parenthetical

tryItOut 212
Compiling threw: SyntaxError: duplicate label

tryItOut 213

tryItOut 214

tryItOut 215
Compiling threw: SyntaxError: missing { before function body

tryItOut 216
Compiling threw: SyntaxError: syntax error

tryItOut 217
Compiling threw: SyntaxError: invalid for/in left-hand side

tryItOut 218

tryItOut 219
Compiling threw: SyntaxError: duplicate label

tryItOut 220
Compiling threw: SyntaxError: missing ; after for-loop initializer

tryItOut 221
Compiling threw: SyntaxError: invalid for/in left-hand side

tryItOut 222

tryItOut 223
Compiling threw: SyntaxError: syntax error

tryItOut 224
Compiling threw: SyntaxError: missing variable name

tryItOut 225

tryItOut 226
It's an iterator!
Iterating succeeded, iterCount == 1

tryItOut 227
Compiling threw: SyntaxError: label not found

tryItOut 228

tryItOut 229
Running threw: TypeError: this.zzz has no properties

tryItOut 230
Running threw: [object Object]

tryItOut 231
Compiling threw: SyntaxError: invalid assignment left-hand side

tryItOut 232
Compiling threw: SyntaxError: missing { before function body

tryItOut 233

tryItOut 234

tryItOut 235
Compiling threw: SyntaxError: illegal XML character

tryItOut 236

tryItOut 237
Compiling threw: TypeError: generator function anonymous returns a value

tryItOut 238
Compiling threw: SyntaxError: missing { before function body

tryItOut 239
Compiling threw: SyntaxError: syntax error

tryItOut 240

tryItOut 241

tryItOut 242

tryItOut 243

tryItOut 244
Compiling threw: TypeError: generator function anonymous returns a value

tryItOut 245
Compiling threw: TypeError: redeclaration of variable __count__

tryItOut 246
Compiling threw: SyntaxError: invalid for/in left-hand side

tryItOut 247
It's an iterator!
Iterating succeeded, iterCount == 1

tryItOut 248

tryItOut 249

tryItOut 250

tryItOut 251

tryItOut 252
Compiling threw: SyntaxError: invalid break

tryItOut 253
It's an iterator!
Iterating succeeded, iterCount == 1

tryItOut 254
Running threw: null

tryItOut 255
Running threw: ReferenceError: reference to undefined XML name *::*

tryItOut 256
Compiling threw: SyntaxError: label not found

tryItOut 257
Running threw: TypeError: this.zzz has no properties

tryItOut 258
Compiling threw: SyntaxError: missing { before function body

tryItOut 259

tryItOut 260

tryItOut 261
Compiling threw: SyntaxError: syntax error

tryItOut 262

tryItOut 263

tryItOut 264

tryItOut 265

tryItOut 266
Compiling threw: SyntaxError: missing variable name

tryItOut 267

tryItOut 268
Running threw: TypeError: /a/gi.call has no properties

tryItOut 269

tryItOut 270

tryItOut 271
Running threw: TypeError: this.zzz has no properties

tryItOut 272
Compiling threw: SyntaxError: missing ) in parenthetical

tryItOut 273

tryItOut 274
Compiling threw: SyntaxError: invalid continue

tryItOut 275
Compiling threw: TypeError: generator function anonymous returns a value

tryItOut 276

tryItOut 277
It's an iterator!
Iterating succeeded, iterCount == 0

tryItOut 278
Running threw: ReferenceError: Exception is not defined

tryItOut 279
It's an iterator!
Iterating succeeded, iterCount == 1

tryItOut 280

tryItOut 281
Compiling threw: SyntaxError: missing { before function body

tryItOut 282
Running threw: 

tryItOut 283

tryItOut 284

tryItOut 285
Compiling threw: SyntaxError: missing ; before statement

tryItOut 286
Compiling threw: SyntaxError: syntax error

tryItOut 287
Compiling threw: SyntaxError: missing { before function body

tryItOut 288
Running threw: null

tryItOut 289
It's an iterator!
Iterating succeeded, iterCount == 1

tryItOut 290
Compiling threw: SyntaxError: missing ; before statement

tryItOut 291

tryItOut 292
Compiling threw: SyntaxError: invalid for/in left-hand side

tryItOut 293
Running threw: TypeError: [undefined, undefined] is not a constructor

tryItOut 294
Compiling threw: SyntaxError: missing ; before statement

tryItOut 295
Compiling threw: SyntaxError: syntax error

tryItOut 296

tryItOut 297
Compiling threw: SyntaxError: illegal XML character

tryItOut 298
It's an iterator!
Iterating succeeded, iterCount == 1

tryItOut 299

tryItOut 300
Compiling threw: SyntaxError: syntax error

tryItOut 301
Compiling threw: SyntaxError: missing ; before statement

tryItOut 302

tryItOut 303

tryItOut 304
Compiling threw: SyntaxError: missing ) in parenthetical

tryItOut 305

tryItOut 306
Compiling threw: SyntaxError: syntax error

tryItOut 307

tryItOut 308
Compiling threw: SyntaxError: missing variable name

tryItOut 309
It's an iterator!
Iterating threw!
Iterating threw: ReferenceError: z1 is not defined

tryItOut 310
Compiling threw: SyntaxError: missing variable name

tryItOut 311
Compiling threw: TypeError: redeclaration of const __noSuchMethod__

tryItOut 312
Compiling threw: SyntaxError: invalid increment operand

tryItOut 313
Compiling threw: SyntaxError: invalid break

tryItOut 314
Compiling threw: SyntaxError: missing ) in parenthetical

tryItOut 315
Running threw: TypeError: this.zzz has no properties

tryItOut 316

tryItOut 317
Running threw: [object Object]

tryItOut 318
Compiling threw: SyntaxError: invalid assignment left-hand side

tryItOut 319
Running threw: [object Iterator]

tryItOut 320
Compiling threw: SyntaxError: missing : after property id

tryItOut 321
It's an iterator!
Iterating threw!
Iterating threw: ReferenceError: x is not defined

tryItOut 322
Running threw: ReferenceError: Exception is not defined

tryItOut 323
Compiling threw: SyntaxError: label not found

tryItOut 324
Compiling threw: SyntaxError: missing variable name

tryItOut 325
Compiling threw: SyntaxError: invalid break

tryItOut 326
Compiling threw: SyntaxError: invalid for/in left-hand side

tryItOut 327

tryItOut 328
Compiling threw: SyntaxError: missing variable name

tryItOut 329
It's an iterator!
Iterating succeeded, iterCount == 1

tryItOut 330
Compiling threw: SyntaxError: invalid break

tryItOut 331
Compiling threw: SyntaxError: missing = in destructuring declaration

tryItOut 332
Compiling threw: SyntaxError: label not found

tryItOut 333

tryItOut 334
Compiling threw: SyntaxError: missing identifier in catch

tryItOut 335

tryItOut 336

tryItOut 337
It's an iterator!
Iterating succeeded, iterCount == 0

tryItOut 338

tryItOut 339
Compiling threw: SyntaxError: syntax error

tryItOut 340

tryItOut 341
Compiling threw: SyntaxError: label not found

tryItOut 342

tryItOut 343

tryItOut 344
It's an iterator!
Iterating succeeded, iterCount == 1

tryItOut 345

tryItOut 346
Running threw: <x>
  <y/>
</x>

tryItOut 347
It's an iterator!
Iterating succeeded, iterCount == 1

tryItOut 348
Compiling threw: SyntaxError: invalid assignment left-hand side

tryItOut 349
Compiling threw: SyntaxError: missing variable name

tryItOut 350
It's an iterator!
Iterating succeeded, iterCount == 1

tryItOut 351

tryItOut 352
Compiling threw: SyntaxError: invalid for/in left-hand side

tryItOut 353

tryItOut 354
Compiling threw: SyntaxError: missing variable name

tryItOut 355

tryItOut 356
Compiling threw: SyntaxError: invalid for/in left-hand side

tryItOut 357
Running threw: null

tryItOut 358
Compiling threw: SyntaxError: label not found

tryItOut 359
Compiling threw: SyntaxError: invalid XML name

tryItOut 360
Compiling threw: SyntaxError: invalid for/in left-hand side

tryItOut 361
Compiling threw: SyntaxError: missing { before function body

tryItOut 362
Compiling threw: SyntaxError: invalid for/in left-hand side

tryItOut 363
It's an iterator!
Iterating succeeded, iterCount == 1

tryItOut 364

tryItOut 365
Compiling threw: SyntaxError: missing variable name

tryItOut 366
Running threw: TypeError: this.zzz has no properties

tryItOut 367

tryItOut 368
Compiling threw: SyntaxError: illegal XML character

tryItOut 369

tryItOut 370
It's an iterator!
Iterating succeeded, iterCount == 1

tryItOut 371
Compiling threw: SyntaxError: missing : after property id

tryItOut 372
Running threw: Error: invalid sharp variable use #1#

tryItOut 373

tryItOut 374
Compiling threw: SyntaxError: invalid assignment left-hand side

tryItOut 375
Compiling threw: SyntaxError: missing name after . operator

tryItOut 376
Compiling threw: SyntaxError: invalid for/in left-hand side

tryItOut 377
It's an iterator!
Iterating threw!
Iterating threw: ReferenceError: reference to undefined XML name @foo

tryItOut 378
Compiling threw: SyntaxError: invalid decrement operand

tryItOut 379
Compiling threw: SyntaxError: syntax error

tryItOut 380
Compiling threw: SyntaxError: missing ) in parenthetical

tryItOut 381
Compiling threw: SyntaxError: catch without try

tryItOut 382
Running threw: ReferenceError: z1 is not defined

tryItOut 383

tryItOut 384
Running threw: undefined

tryItOut 385
Running threw: ReferenceError: reference to undefined XML name @foo

tryItOut 386
Compiling threw: SyntaxError: invalid increment operand

tryItOut 387
Compiling threw: SyntaxError: missing ) after condition

tryItOut 388
Compiling threw: SyntaxError: missing = in destructuring declaration

tryItOut 389
Running threw: function ([y]) {
}

tryItOut 390
Compiling threw: SyntaxError: label not found

tryItOut 391
Compiling threw: SyntaxError: syntax error

tryItOut 392
Compiling threw: SyntaxError: syntax error

tryItOut 393

tryItOut 394
Compiling threw: SyntaxError: missing ) in parenthetical

tryItOut 395
Compiling threw: SyntaxError: syntax error

tryItOut 396
Compiling threw: SyntaxError: missing ) in parenthetical

tryItOut 397
Compiling threw: SyntaxError: invalid assignment left-hand side

tryItOut 398
Compiling threw: SyntaxError: missing { before function body

tryItOut 399
Compiling threw: SyntaxError: syntax error

tryItOut 400
Compiling threw: SyntaxError: syntax error

tryItOut 401

tryItOut 402

tryItOut 403
Compiling threw: SyntaxError: syntax error

tryItOut 404
Compiling threw: SyntaxError: invalid continue

tryItOut 405
Compiling threw: SyntaxError: missing ) after argument list

tryItOut 406
It's an iterator!
Iterating succeeded, iterCount == 2

tryItOut 407

tryItOut 408
Compiling threw: SyntaxError: syntax error

tryItOut 409
It's an iterator!
Iterating succeeded, iterCount == 1

tryItOut 410
Compiling threw: SyntaxError: missing ) in parenthetical

tryItOut 411
Compiling threw: SyntaxError: missing { before function body

tryItOut 412

tryItOut 413
Compiling threw: SyntaxError: missing variable name

tryItOut 414

tryItOut 415
Running threw: <x>
  <y/>
</x>

tryItOut 416

tryItOut 417
Compiling threw: SyntaxError: missing ; before statement

tryItOut 418
Running threw: true

tryItOut 419
Compiling threw: SyntaxError: label not found

tryItOut 420
Running threw: TypeError: this.zzz has no properties

tryItOut 421

tryItOut 422
Running threw: SyntaxError: illegal XML character

tryItOut 423

tryItOut 424
Compiling threw: SyntaxError: missing variable name

tryItOut 425
Compiling threw: TypeError: redeclaration of variable constructor

tryItOut 426

tryItOut 427
Compiling threw: SyntaxError: syntax error

tryItOut 428
Compiling threw: SyntaxError: missing { before function body

tryItOut 429
Compiling threw: SyntaxError: missing ) in parenthetical

tryItOut 430
Running threw: TypeError: this.zzz has no properties

tryItOut 431
Compiling threw: SyntaxError: invalid increment operand

tryItOut 432
Compiling threw: SyntaxError: invalid assignment left-hand side

tryItOut 433
It's an iterator!
Iterating threw!
Iterating threw: TypeError: true is not a function

tryItOut 434

tryItOut 435

tryItOut 436
Compiling threw: SyntaxError: syntax error

tryItOut 437
Compiling threw: SyntaxError: label not found

tryItOut 438

tryItOut 439

tryItOut 440
Compiling threw: SyntaxError: missing ) after switch expression

tryItOut 441

tryItOut 442

tryItOut 443
Compiling threw: SyntaxError: missing variable name

tryItOut 444

tryItOut 445

tryItOut 446
It's an iterator!
Iterating succeeded, iterCount == 1

tryItOut 447
Compiling threw: SyntaxError: missing ) in parenthetical

tryItOut 448
Compiling threw: SyntaxError: label not found

tryItOut 449
Compiling threw: SyntaxError: missing variable name

tryItOut 450
Compiling threw: SyntaxError: missing ) in parenthetical

tryItOut 451
Compiling threw: SyntaxError: invalid sharp variable definition

tryItOut 452
Compiling threw: SyntaxError: invalid continue

tryItOut 453

tryItOut 454

tryItOut 455
Compiling threw: SyntaxError: invalid break

tryItOut 456

tryItOut 457
uneval returned the string: []

tryItOut 458
Compiling threw: SyntaxError: invalid for/in left-hand side

tryItOut 459
Compiling threw: SyntaxError: missing variable name

tryItOut 460

tryItOut 461
Running threw: ReferenceError: reference to undefined XML name @foo

tryItOut 462
Running threw: <x>
  <y/>
</x>

tryItOut 463

tryItOut 464
Compiling threw: SyntaxError: missing name after . operator

tryItOut 465
Compiling threw: SyntaxError: missing { before function body

tryItOut 466
It's an iterator!
Iterating succeeded, iterCount == 2

tryItOut 467

tryItOut 468
Compiling threw: SyntaxError: invalid continue

tryItOut 469
Compiling threw: SyntaxError: missing ; before statement

tryItOut 470
Compiling threw: SyntaxError: missing variable name

tryItOut 471

tryItOut 472
Compiling threw: SyntaxError: syntax error

tryItOut 473

tryItOut 474

tryItOut 475
Compiling threw: SyntaxError: invalid for/in left-hand side

tryItOut 476

tryItOut 477
Compiling threw: SyntaxError: illegal XML character

tryItOut 478

tryItOut 479

tryItOut 480

tryItOut 481

tryItOut 482
Running threw: TypeError: this.zzz has no properties

tryItOut 483

tryItOut 484

tryItOut 485

tryItOut 486
Compiling threw: SyntaxError: missing variable name

tryItOut 487
It's an iterator!
Iterating succeeded, iterCount == 1

tryItOut 488
It's an iterator!
Iterating succeeded, iterCount == 1

tryItOut 489
Compiling threw: SyntaxError: syntax error

tryItOut 490
Compiling threw: SyntaxError: duplicate label

tryItOut 491
Compiling threw: SyntaxError: illegal XML character

tryItOut 492
It's an iterator!
Iterating threw!
Iterating threw: ReferenceError: reference to undefined XML name @mozilla.org/js/function::__iterator__

tryItOut 493
Compiling threw: SyntaxError: missing formal parameter

tryItOut 494
Compiling threw: SyntaxError: invalid for/in left-hand side

tryItOut 495

tryItOut 496

tryItOut 497

tryItOut 498

tryItOut 499
It's an iterator!
Iterating succeeded, iterCount == 1

tryItOut 500
Compiling threw: SyntaxError: syntax error

tryItOut 501

tryItOut 502

tryItOut 503
Compiling threw: SyntaxError: missing { before function body

tryItOut 504
Running threw: TypeError: p.z = #1=[, #1#] is not a function

tryItOut 505
Compiling threw: SyntaxError: missing formal parameter

tryItOut 506
It's an iterator!
Iterating threw!
Iterating threw: ReferenceError: reference to undefined XML name *::*

tryItOut 507
Running threw: NaN

tryItOut 508

tryItOut 509

tryItOut 510
Compiling threw: SyntaxError: missing variable name

tryItOut 511

tryItOut 512
Running threw: ReferenceError: __proto__ is not defined

tryItOut 513
Running threw: TypeError: this.zzz has no properties

tryItOut 514
Compiling threw: TypeError: generator function anonymous returns a value

tryItOut 515

tryItOut 516
It's an iterator!
Iterating succeeded, iterCount == 1

tryItOut 517
Compiling threw: SyntaxError: label not found

tryItOut 518

tryItOut 519
Running threw: ReferenceError: __parent__ is not defined

tryItOut 520

tryItOut 521
Running threw: TypeError: constructor is not a function

tryItOut 522
It's an iterator!
before 366240, after 366240, break 023f9000
Iterating succeeded, iterCount == 1

tryItOut 523
Compiling threw: SyntaxError: invalid continue

tryItOut 524
Compiling threw: SyntaxError: invalid for/in left-hand side

tryItOut 525
Compiling threw: SyntaxError: syntax error

tryItOut 526

tryItOut 527
Running threw: ReferenceError: __parent__ is not defined

tryItOut 528

tryItOut 529

tryItOut 530
Running threw: ReferenceError: __proto__ is not defined

tryItOut 531
Running threw: TypeError: this.zzz has no properties

tryItOut 532
uneval returned the string: [[]]

tryItOut 533

tryItOut 534

tryItOut 535

tryItOut 536

tryItOut 537

tryItOut 538
Compiling threw: SyntaxError: missing ; after for-loop initializer

tryItOut 539

tryItOut 540

tryItOut 541
Compiling threw: SyntaxError: missing : after property id

tryItOut 542
It's an iterator!
Iterating succeeded, iterCount == 2

tryItOut 543

tryItOut 544
Compiling threw: SyntaxError: invalid for/in left-hand side

tryItOut 545

tryItOut 546

tryItOut 547

tryItOut 548
Running threw: 

tryItOut 549
Running threw: ReferenceError: __proto__ is not defined

tryItOut 550

tryItOut 551
Running threw: TypeError: p.z = prototype is not a function

tryItOut 552
Running threw: undefined

tryItOut 553

tryItOut 554

tryItOut 555
Compiling threw: SyntaxError: invalid destructuring assignment operator

tryItOut 556

tryItOut 557

tryItOut 558

tryItOut 559
Compiling threw: SyntaxError: missing { before function body

tryItOut 560
Compiling threw: SyntaxError: syntax error

tryItOut 561
It's an iterator!
Iterating threw!
Iterating threw: ReferenceError: reference to undefined XML name *::*

tryItOut 562

tryItOut 563
Running threw: ReferenceError: __proto__ is not defined

tryItOut 564
Compiling threw: SyntaxError: missing ) in parenthetical

tryItOut 565
Compiling threw: SyntaxError: syntax error

tryItOut 566

tryItOut 567
Compiling threw: SyntaxError: syntax error

tryItOut 568
Running threw: ReferenceError: reference to undefined XML name *::*

tryItOut 569
It's an iterator!
Iterating succeeded, iterCount == 1

tryItOut 570

tryItOut 571
Running threw: ReferenceError: x is not defined

tryItOut 572
Running threw: TypeError: XML filtering predicate operator called on incompatible Number

tryItOut 573
Compiling threw: SyntaxError: missing ; before statement

tryItOut 574

tryItOut 575
Running threw: null

tryItOut 576
Compiling threw: SyntaxError: missing { before function body

tryItOut 577
Running threw: ReferenceError: reference to undefined XML name *

tryItOut 578
Compiling threw: SyntaxError: missing ) after condition

tryItOut 579

tryItOut 580
Running threw: TypeError: this.zzz has no properties

tryItOut 581
Compiling threw: SyntaxError: syntax error

tryItOut 582
Compiling threw: SyntaxError: invalid XML name

tryItOut 583

tryItOut 584

tryItOut 585
Compiling threw: SyntaxError: syntax error

tryItOut 586

tryItOut 587

tryItOut 588
Compiling threw: SyntaxError: invalid continue

tryItOut 589
Compiling threw: SyntaxError: invalid for/in left-hand side

tryItOut 590
Compiling threw: SyntaxError: missing variable name

tryItOut 591
Compiling threw: SyntaxError: missing ) in parenthetical

tryItOut 592

tryItOut 593
Compiling threw: SyntaxError: invalid for/in left-hand side

tryItOut 594

tryItOut 595
Compiling threw: SyntaxError: missing { before function body

tryItOut 596

tryItOut 597
It's an iterator!
Iterating succeeded, iterCount == 1

tryItOut 598
Compiling threw: SyntaxError: invalid for/in left-hand side

tryItOut 599
Running threw: TypeError: this.zzz has no properties

tryItOut 600

tryItOut 601

tryItOut 602

tryItOut 603
Compiling threw: SyntaxError: label not found

tryItOut 604
Compiling threw: SyntaxError: invalid default XML namespace

tryItOut 605
Running threw: null

tryItOut 606
Compiling threw: SyntaxError: missing { before function body

tryItOut 607
Running threw: 107

tryItOut 608
It's an iterator!
Iterating threw!
Iterating threw: TypeError: p.z = __iterator__-- is not a function

tryItOut 609
Running threw: <y>
  <z/>
</y>

tryItOut 610
Compiling threw: SyntaxError: missing ; before statement

tryItOut 611

tryItOut 612

tryItOut 613
Compiling threw: SyntaxError: syntax error

tryItOut 614
Running threw: ReferenceError: z2 is not defined

tryItOut 615
Compiling threw: SyntaxError: missing ) after condition

tryItOut 616
It's an iterator!
Iterating threw!
Iterating threw: ReferenceError: z1 is not defined

tryItOut 617
Compiling threw: SyntaxError: missing variable name

tryItOut 618
Compiling threw: SyntaxError: missing ( before formal parameters

tryItOut 619
Compiling threw: SyntaxError: syntax error

tryItOut 620
It's an iterator!
Iterating succeeded, iterCount == 1

tryItOut 621
Running threw: TypeError: [[1]] is not a constructor

tryItOut 622
Compiling threw: SyntaxError: illegal XML character

tryItOut 623

tryItOut 624
Running threw: 110

tryItOut 625
It's an iterator!
Iterating succeeded, iterCount == 1

tryItOut 626
Compiling threw: SyntaxError: invalid for/in left-hand side

tryItOut 627

tryItOut 628
It's an iterator!
before 366240, after 366240, break 02445000
before 366240, after 366240, break 02445000
before 366240, after 366240, break 02445000
before 366240, after 366240, break 02445000
Iterating succeeded, iterCount == 1

tryItOut 629
Running threw: ReferenceError: __proto__ is not defined

tryItOut 630

tryItOut 631
Running threw: Error: invalid sharp variable use #1#

tryItOut 632

tryItOut 633

tryItOut 634

tryItOut 635
Compiling threw: SyntaxError: syntax error

tryItOut 636

tryItOut 637
Running threw: null

tryItOut 638

tryItOut 639

tryItOut 640
Running threw: TypeError: <y>
  <z/>
</y> is not a function

tryItOut 641

tryItOut 642

tryItOut 643
Running threw: ReferenceError: reference to undefined XML name *

tryItOut 644

tryItOut 645
Compiling threw: SyntaxError: invalid break

tryItOut 646
Compiling threw: SyntaxError: missing ) in parenthetical

tryItOut 647
Compiling threw: SyntaxError: label not found

tryItOut 648
Compiling threw: SyntaxError: label not found

tryItOut 649
Compiling threw: SyntaxError: syntax error

tryItOut 650

tryItOut 651

tryItOut 652

tryItOut 653

tryItOut 654

tryItOut 655

tryItOut 656
Compiling threw: SyntaxError: invalid increment operand

tryItOut 657

tryItOut 658

tryItOut 659
Compiling threw: SyntaxError: missing variable name

tryItOut 660

tryItOut 661

tryItOut 662

tryItOut 663
Running threw: ReferenceError: reference to undefined XML name *::*

tryItOut 664

tryItOut 665

tryItOut 666
Compiling threw: SyntaxError: syntax error

tryItOut 667

tryItOut 668
Running threw: undefined

tryItOut 669
Compiling threw: SyntaxError: missing ; after for-loop condition

tryItOut 670
Compiling threw: SyntaxError: syntax error

tryItOut 671

tryItOut 672
Compiling threw: SyntaxError: missing : after property id

tryItOut 673

tryItOut 674

tryItOut 675

tryItOut 676
Compiling threw: SyntaxError: duplicate label

tryItOut 677

tryItOut 678
Running threw: TypeError: __parent__ has no properties

tryItOut 679
Compiling threw: SyntaxError: label not found

tryItOut 680
Compiling threw: SyntaxError: missing variable name

tryItOut 681
Running threw: TypeError: this.zzz has no properties

tryItOut 682

tryItOut 683
Running threw: TypeError: this.zzz has no properties

tryItOut 684
Running threw: 108

tryItOut 685
Compiling threw: SyntaxError: invalid break

tryItOut 686
Compiling threw: SyntaxError: illegal XML character

tryItOut 687
Compiling threw: SyntaxError: missing ; before statement

tryItOut 688
Compiling threw: SyntaxError: missing { before function body

tryItOut 689

tryItOut 690
Compiling threw: SyntaxError: missing : after property id

tryItOut 691

tryItOut 692
Compiling threw: SyntaxError: duplicate label

tryItOut 693
Compiling threw: SyntaxError: label not found

tryItOut 694
Running threw: undefined

tryItOut 695

tryItOut 696
Compiling threw: SyntaxError: syntax error

tryItOut 697
Compiling threw: SyntaxError: label not found

tryItOut 698

tryItOut 699

tryItOut 700

tryItOut 701

tryItOut 702
Compiling threw: SyntaxError: missing variable name

tryItOut 703
Running threw: 113

tryItOut 704
Running threw: 114

tryItOut 705

tryItOut 706

tryItOut 707
Running threw: TypeError: this.zzz has no properties

tryItOut 708
It's an iterator!
Iterating succeeded, iterCount == 1

tryItOut 709
It's an iterator!
Iterating succeeded, iterCount == 0

tryItOut 710
Running threw: ReferenceError: reference to undefined XML name *::*

tryItOut 711
Compiling threw: SyntaxError: missing ) after catch

tryItOut 712

tryItOut 713
Compiling threw: SyntaxError: missing = in destructuring declaration

tryItOut 714

tryItOut 715
Compiling threw: SyntaxError: invalid property id

tryItOut 716
It's an iterator!
Iterating threw!
Iterating threw: ReferenceError: reference to undefined XML name @foo

tryItOut 717

tryItOut 718
Compiling threw: SyntaxError: missing variable name

tryItOut 719

tryItOut 720
Compiling threw: SyntaxError: missing ) after condition

tryItOut 721

tryItOut 722
Compiling threw: SyntaxError: missing { before function body

tryItOut 723

tryItOut 724

tryItOut 725

tryItOut 726
Running threw: ReferenceError: z1 is not defined

tryItOut 727
Compiling threw: SyntaxError: invalid increment operand

tryItOut 728

tryItOut 729
Compiling threw: SyntaxError: missing = in destructuring declaration

tryItOut 730
Compiling threw: SyntaxError: syntax error

tryItOut 731

tryItOut 732

tryItOut 733
Compiling threw: SyntaxError: invalid continue

tryItOut 734

tryItOut 735
Running threw: TypeError: this.zzz has no properties

tryItOut 736
Running threw: TypeError: this.zzz has no properties

tryItOut 737

tryItOut 738
Compiling threw: SyntaxError: missing { before function body

tryItOut 739
Compiling threw: TypeError: generator function anonymous returns a value

tryItOut 740

tryItOut 741

tryItOut 742
Compiling threw: SyntaxError: missing { before function body

tryItOut 743

tryItOut 744

tryItOut 745
Compiling threw: SyntaxError: syntax error

tryItOut 746
It's an iterator!
Iterating succeeded, iterCount == 1

tryItOut 747
Running threw: <x>
  <y/>
</x>

tryItOut 748
Compiling threw: SyntaxError: invalid assignment left-hand side

tryItOut 749

tryItOut 750
Compiling threw: SyntaxError: syntax error

tryItOut 751
Compiling threw: SyntaxError: invalid decrement operand

tryItOut 752

tryItOut 753

tryItOut 754

tryItOut 755
Compiling threw: SyntaxError: label not found

tryItOut 756
Compiling threw: SyntaxError: syntax error

tryItOut 757
Compiling threw: SyntaxError: invalid sharp variable definition

tryItOut 758
Compiling threw: SyntaxError: missing ) after argument list

tryItOut 759

tryItOut 760
Compiling threw: SyntaxError: missing ) in parenthetical

tryItOut 761
Compiling threw: SyntaxError: illegal XML character

tryItOut 762
Compiling threw: SyntaxError: invalid assignment left-hand side

tryItOut 763
Compiling threw: TypeError: redeclaration of variable __parent__

tryItOut 764
Running threw: 114

tryItOut 765
Compiling threw: SyntaxError: invalid break

tryItOut 766
Compiling threw: SyntaxError: invalid assignment left-hand side

tryItOut 767
Compiling threw: SyntaxError: missing ) in parenthetical

tryItOut 768
Running threw: 114

tryItOut 769

tryItOut 770
It's an iterator!
Iterating succeeded, iterCount == 1

tryItOut 771

tryItOut 772
Compiling threw: TypeError: generator function anonymous returns a value

tryItOut 773
Compiling threw: SyntaxError: illegal XML character

tryItOut 774

tryItOut 775
Compiling threw: SyntaxError: missing ) after condition

tryItOut 776
Compiling threw: SyntaxError: missing variable name

tryItOut 777
Compiling threw: SyntaxError: invalid for/in left-hand side

tryItOut 778
Compiling threw: TypeError: redeclaration of const __iterator__

tryItOut 779

tryItOut 780

tryItOut 781
Compiling threw: SyntaxError: invalid default XML namespace

tryItOut 782

tryItOut 783
Compiling threw: SyntaxError: invalid break

tryItOut 784

tryItOut 785

tryItOut 786
Compiling threw: SyntaxError: illegal XML character

tryItOut 787
Compiling threw: SyntaxError: missing variable name

tryItOut 788
Compiling threw: TypeError: redeclaration of const constructor

tryItOut 789
Compiling threw: SyntaxError: invalid XML name

tryItOut 790
Compiling threw: SyntaxError: missing ) after argument list

tryItOut 791

tryItOut 792

tryItOut 793
Running threw: undefined

tryItOut 794
Compiling threw: SyntaxError: invalid label

tryItOut 795
Running threw: 

tryItOut 796
Running threw: TypeError: prototype has no properties

tryItOut 797
It's an iterator!
Iterating succeeded, iterCount == 1

tryItOut 798
Compiling threw: SyntaxError: invalid XML name

tryItOut 799

tryItOut 800
Compiling threw: TypeError: anonymous generator function returns a value

tryItOut 801
Compiling threw: SyntaxError: syntax error

tryItOut 802

tryItOut 803

tryItOut 804
Compiling threw: SyntaxError: missing { before function body

tryItOut 805
Compiling threw: SyntaxError: invalid increment operand

tryItOut 806
Running threw: ReferenceError: reference to undefined XML name @mozilla.org/js/function::__proto__

tryItOut 807

tryItOut 808
Compiling threw: SyntaxError: missing variable name

tryItOut 809
Running threw: TypeError: __proto__ has no properties

tryItOut 810

tryItOut 811

tryItOut 812

tryItOut 813
Compiling threw: SyntaxError: missing name in export statement

tryItOut 814

tryItOut 815
It's an iterator!
Iterating succeeded, iterCount == 1

tryItOut 816
It's an iterator!
Iterating threw!
Iterating threw: TypeError: undefined has no properties

tryItOut 817
It's an iterator!
Iterating succeeded, iterCount == 1

tryItOut 818

tryItOut 819

tryItOut 820
Compiling threw: SyntaxError: invalid assignment left-hand side

tryItOut 821

tryItOut 822
Compiling threw: SyntaxError: missing { before function body

tryItOut 823

tryItOut 824
Compiling threw: SyntaxError: label not found

tryItOut 825
Compiling threw: SyntaxError: missing ; before statement

tryItOut 826
Compiling threw: SyntaxError: missing name in export statement

tryItOut 827

tryItOut 828

tryItOut 829

tryItOut 830

tryItOut 831
Compiling threw: SyntaxError: label not found

tryItOut 832
Running threw: TypeError: this.zzz has no properties

tryItOut 833
Compiling threw: SyntaxError: missing ) in parenthetical

tryItOut 834

tryItOut 835
Compiling threw: SyntaxError: invalid for/in left-hand side

tryItOut 836
Compiling threw: SyntaxError: label not found

tryItOut 837
Running threw: ReferenceError: reference to undefined XML name *::*

tryItOut 838
Running threw: undefined

tryItOut 839

tryItOut 840
Compiling threw: SyntaxError: syntax error

tryItOut 841

tryItOut 842

tryItOut 843
Running threw: <x>
  <y/>
</x>

tryItOut 844
Compiling threw: SyntaxError: label not found

tryItOut 845
Compiling threw: SyntaxError: missing { before function body

tryItOut 846

tryItOut 847

tryItOut 848
Compiling threw: SyntaxError: missing variable name

tryItOut 849

tryItOut 850
Compiling threw: SyntaxError: invalid XML name

tryItOut 851
Compiling threw: SyntaxError: missing ; before statement

tryItOut 852

tryItOut 853

tryItOut 854

tryItOut 855
It's an iterator!
Iterating succeeded, iterCount == 1

tryItOut 856
Compiling threw: SyntaxError: invalid continue

tryItOut 857

tryItOut 858
Compiling threw: SyntaxError: missing { before function body

tryItOut 859
Compiling threw: SyntaxError: invalid sharp variable definition

tryItOut 860
Running threw: TypeError: this.zzz has no properties

tryItOut 861

tryItOut 862
Compiling threw: SyntaxError: missing variable name

tryItOut 863
Compiling threw: SyntaxError: missing { before function body

tryItOut 864

tryItOut 865

tryItOut 866
It's an iterator!
Iterating succeeded, iterCount == 0

tryItOut 867
Compiling threw: SyntaxError: invalid assignment left-hand side

tryItOut 868
Running threw: ReferenceError: reference to undefined XML name *::*

tryItOut 869
Compiling threw: SyntaxError: invalid break

tryItOut 870
It's an iterator!
Iterating threw!
Iterating threw: <y>
  <z/>
</y>

tryItOut 871

tryItOut 872

tryItOut 873
Compiling threw: SyntaxError: syntax error

tryItOut 874
Compiling threw: SyntaxError: syntax error

tryItOut 875
Compiling threw: SyntaxError: missing ) after switch expression

tryItOut 876
Running threw: 114

tryItOut 877
Running threw: ReferenceError: z2 is not defined

tryItOut 878

tryItOut 879
Compiling threw: SyntaxError: syntax error

tryItOut 880
It's an iterator!
Iterating threw!
Iterating threw: ReferenceError: reference to undefined XML name @foo

tryItOut 881
Running threw: TypeError: this.zzz has no properties

tryItOut 882
Compiling threw: SyntaxError: label not found

tryItOut 883
Compiling threw: SyntaxError: illegal XML character

tryItOut 884

tryItOut 885

tryItOut 886
Compiling threw: SyntaxError: missing formal parameter

tryItOut 887

tryItOut 888

tryItOut 889
It's an iterator!
Iterating threw!
Iterating threw: ReferenceError: z1 is not defined

tryItOut 890

tryItOut 891
Running threw: ReferenceError: reference to undefined XML name @foo

tryItOut 892

tryItOut 893
Compiling threw: SyntaxError: invalid continue

tryItOut 894

tryItOut 895
Compiling threw: SyntaxError: invalid increment operand

tryItOut 896
Compiling threw: SyntaxError: invalid for/in left-hand side

tryItOut 897
Compiling threw: SyntaxError: illegal XML character

tryItOut 898
Compiling threw: SyntaxError: syntax error

tryItOut 899
Compiling threw: SyntaxError: invalid assignment left-hand side

tryItOut 900

tryItOut 901
Compiling threw: SyntaxError: invalid continue

tryItOut 902
Compiling threw: SyntaxError: syntax error

tryItOut 903

tryItOut 904
Compiling threw: SyntaxError: missing variable name

tryItOut 905

tryItOut 906

tryItOut 907
It's an iterator!
Iterating succeeded, iterCount == 1

tryItOut 908
Compiling threw: SyntaxError: illegal XML character

tryItOut 909
Compiling threw: SyntaxError: invalid increment operand

tryItOut 910
Compiling threw: SyntaxError: invalid assignment left-hand side

tryItOut 911
Compiling threw: TypeError: redeclaration of variable __noSuchMethod__

tryItOut 912

tryItOut 913

tryItOut 914
Compiling threw: SyntaxError: missing ) in parenthetical

tryItOut 915

tryItOut 916
Compiling threw: SyntaxError: missing ) after condition

tryItOut 917
Running threw: Error: invalid sharp variable use #1#

tryItOut 918
Compiling threw: SyntaxError: missing variable name

tryItOut 919
Running threw: ReferenceError: reference to undefined XML name @foo

tryItOut 920
Compiling threw: SyntaxError: syntax error

tryItOut 921
Compiling threw: SyntaxError: label not found

tryItOut 922

tryItOut 923
Running threw: ReferenceError: reference to undefined XML name *

tryItOut 924
Compiling threw: SyntaxError: invalid assignment left-hand side

tryItOut 925
Compiling threw: SyntaxError: invalid assignment left-hand side

tryItOut 926
Running threw: ReferenceError: reference to undefined XML name *

tryItOut 927
Running threw: ReferenceError: reference to undefined XML name @foo

tryItOut 928

tryItOut 929
Compiling threw: SyntaxError: missing identifier in catch

tryItOut 930

tryItOut 931

tryItOut 932
Compiling threw: SyntaxError: invalid break

tryItOut 933
Compiling threw: SyntaxError: invalid sharp variable definition

tryItOut 934

tryItOut 935

tryItOut 936

tryItOut 937

tryItOut 938

tryItOut 939
Compiling threw: SyntaxError: invalid for/in left-hand side

tryItOut 940

tryItOut 941
Compiling threw: SyntaxError: syntax error

tryItOut 942
Compiling threw: SyntaxError: missing { before function body

tryItOut 943

tryItOut 944
Running threw: 

tryItOut 945

tryItOut 946

tryItOut 947
Compiling threw: SyntaxError: syntax error

tryItOut 948
Compiling threw: SyntaxError: missing ) after condition

tryItOut 949
Compiling threw: SyntaxError: missing { before function body

tryItOut 950

tryItOut 951

tryItOut 952

tryItOut 953

tryItOut 954

tryItOut 955
Compiling threw: SyntaxError: invalid XML name

tryItOut 956

tryItOut 957

tryItOut 958

tryItOut 959
Compiling threw: SyntaxError: label not found

tryItOut 960

tryItOut 961
Compiling threw: SyntaxError: missing { before function body

tryItOut 962
Compiling threw: SyntaxError: missing ; before statement

tryItOut 963
Compiling threw: SyntaxError: invalid assignment left-hand side

tryItOut 964
Compiling threw: SyntaxError: syntax error

tryItOut 965
Compiling threw: SyntaxError: invalid continue

tryItOut 966
Compiling threw: SyntaxError: syntax error

tryItOut 967
Compiling threw: SyntaxError: invalid increment operand

tryItOut 968
Running threw: ReferenceError: reference to undefined XML name *

tryItOut 969
Compiling threw: SyntaxError: missing { before function body

tryItOut 970
Compiling threw: SyntaxError: missing = in destructuring declaration

tryItOut 971

tryItOut 972
Compiling threw: SyntaxError: missing variable name

tryItOut 973

tryItOut 974

tryItOut 975

tryItOut 976

tryItOut 977

tryItOut 978
Compiling threw: SyntaxError: invalid sharp variable definition

tryItOut 979
Compiling threw: SyntaxError: invalid for/in left-hand side

tryItOut 980

tryItOut 981
Compiling threw: SyntaxError: missing { before function body

tryItOut 982
Compiling threw: SyntaxError: invalid decrement operand

tryItOut 983
Compiling threw: SyntaxError: label not found

tryItOut 984

tryItOut 985
Compiling threw: SyntaxError: missing ; after for-loop initializer

tryItOut 986
Compiling threw: SyntaxError: invalid for/in left-hand side

tryItOut 987
It's an iterator!
Iterating threw!
Iterating threw: ReferenceError: z2 is not defined

tryItOut 988
Compiling threw: SyntaxError: missing ) after condition

tryItOut 989
Compiling threw: SyntaxError: missing = in destructuring declaration

tryItOut 990

tryItOut 991

tryItOut 992

tryItOut 993

tryItOut 994

tryItOut 995
Compiling threw: SyntaxError: invalid for/in left-hand side

tryItOut 996
Compiling threw: SyntaxError: invalid increment operand

tryItOut 997

tryItOut 998
Compiling threw: SyntaxError: syntax error

tryItOut 999
Compiling threw: SyntaxError: missing variable name

tryItOut 1000
Compiling threw: SyntaxError: syntax error

ALL OK

Script done on Sat 04 May 2013 06:40:08 AM PDT
