Script started on Sat 04 May 2013 06:40:23 AM PDT
***
Targeting SpiderMonkey / Gecko.

tryItOut 1
Compiling threw: SyntaxError: syntax error

tryItOut 2

tryItOut 3
Compiling threw: SyntaxError: missing ; before statement

tryItOut 4

tryItOut 5
Compiling threw: SyntaxError: invalid break

tryItOut 6
before 69760, after 69760, break 01ce2000

tryItOut 7

tryItOut 8
Compiling threw: SyntaxError: label not found

tryItOut 9
It's an iterator!
Iterating threw!
Iterating threw: ReferenceError: reference to undefined XML name *

tryItOut 10
Compiling threw: SyntaxError: label not found

tryItOut 11

tryItOut 12
Compiling threw: SyntaxError: missing ; before statement

tryItOut 13

tryItOut 14
Compiling threw: SyntaxError: missing ; after for-loop initializer

tryItOut 15
Compiling threw: SyntaxError: invalid for/in left-hand side

tryItOut 16
Compiling threw: SyntaxError: label not found

tryItOut 17
Compiling threw: SyntaxError: invalid destructuring assignment operator

tryItOut 18
Compiling threw: SyntaxError: missing ) in parenthetical

tryItOut 19

tryItOut 20
Compiling threw: SyntaxError: missing ; before statement

tryItOut 21
Compiling threw: SyntaxError: missing ; after for-loop initializer

tryItOut 22
Compiling threw: SyntaxError: label not found

tryItOut 23
Compiling threw: SyntaxError: invalid continue

tryItOut 24
Running threw: ReferenceError: prototype is not defined

tryItOut 25
Compiling threw: SyntaxError: missing ; before statement

tryItOut 26
It's an iterator!
Iterating succeeded, iterCount == 1

tryItOut 27
Compiling threw: SyntaxError: missing ; before statement

tryItOut 28
Compiling threw: SyntaxError: invalid assignment left-hand side

tryItOut 29
Compiling threw: SyntaxError: missing ; before statement

tryItOut 30

tryItOut 31
Compiling threw: SyntaxError: missing ( before let head

tryItOut 32

tryItOut 33

tryItOut 34
Compiling threw: SyntaxError: label not found

tryItOut 35
Running threw: ReferenceError: reference to undefined XML name @foo

tryItOut 36
Compiling threw: SyntaxError: missing ; before statement

tryItOut 37
Compiling threw: SyntaxError: invalid continue

tryItOut 38

tryItOut 39
Compiling threw: SyntaxError: invalid assignment left-hand side

tryItOut 40

tryItOut 41

tryItOut 42

tryItOut 43
Compiling threw: TypeError: generator function anonymous returns a value

tryItOut 44
Compiling threw: SyntaxError: syntax error

tryItOut 45
Compiling threw: SyntaxError: label not found

tryItOut 46
Compiling threw: SyntaxError: syntax error

tryItOut 47

tryItOut 48
Compiling threw: SyntaxError: syntax error

tryItOut 49
Compiling threw: SyntaxError: missing ; before statement

tryItOut 50
Compiling threw: SyntaxError: syntax error

tryItOut 51
Compiling threw: TypeError: generator function anonymous returns a value

tryItOut 52

tryItOut 53

tryItOut 54
Compiling threw: SyntaxError: missing ; before statement

tryItOut 55
It's an iterator!
Iterating succeeded, iterCount == 1

tryItOut 56
Running threw: [object StopIteration]

tryItOut 57
Compiling threw: SyntaxError: syntax error

tryItOut 58
Compiling threw: SyntaxError: syntax error

tryItOut 59
Compiling threw: SyntaxError: invalid for/in left-hand side

tryItOut 60
Compiling threw: SyntaxError: invalid break

tryItOut 61
It's an iterator!
Iterating threw!
Iterating threw: ReferenceError: prop is not defined

tryItOut 62

tryItOut 63
Running threw: ReferenceError: reference to undefined XML name *::*

tryItOut 64

tryItOut 65
Running threw: ReferenceError: reference to undefined XML name @foo

tryItOut 66
Compiling threw: SyntaxError: invalid break

tryItOut 67
Compiling threw: SyntaxError: illegal XML character

tryItOut 68
Running threw: SyntaxError: invalid assignment left-hand side

tryItOut 69
Compiling threw: SyntaxError: label not found

tryItOut 70
Compiling threw: SyntaxError: missing ; before statement

tryItOut 71

tryItOut 72
Compiling threw: SyntaxError: missing ; before statement

tryItOut 73
Compiling threw: SyntaxError: label not found

tryItOut 74

tryItOut 75
Compiling threw: SyntaxError: invalid continue

tryItOut 76

tryItOut 77
Compiling threw: SyntaxError: missing ; before statement

tryItOut 78
Compiling threw: SyntaxError: missing ; before statement

tryItOut 79
It's an iterator!
Iterating succeeded, iterCount == 1

tryItOut 80
Compiling threw: SyntaxError: label not found

tryItOut 81
Compiling threw: SyntaxError: invalid continue

tryItOut 82

tryItOut 83
Compiling threw: SyntaxError: invalid for/in left-hand side

tryItOut 84
Compiling threw: SyntaxError: invalid continue

tryItOut 85

tryItOut 86

tryItOut 87
Running threw: SyntaxError: yield not in function

tryItOut 88

tryItOut 89
Compiling threw: SyntaxError: syntax error

tryItOut 90
Compiling threw: SyntaxError: missing ; after for-loop condition

tryItOut 91
Compiling threw: SyntaxError: missing ) in parenthetical

tryItOut 92

tryItOut 93
Compiling threw: SyntaxError: label not found

tryItOut 94
Compiling threw: SyntaxError: syntax error

tryItOut 95
Compiling threw: SyntaxError: invalid assignment left-hand side

tryItOut 96
Compiling threw: SyntaxError: missing ; before statement

tryItOut 97
Compiling threw: SyntaxError: label not found

tryItOut 98
Compiling threw: SyntaxError: invalid for/in left-hand side

tryItOut 99
Compiling threw: SyntaxError: missing ; before statement

tryItOut 100
Compiling threw: SyntaxError: invalid break

tryItOut 101
Compiling threw: SyntaxError: invalid for/in left-hand side

tryItOut 102
Compiling threw: SyntaxError: syntax error

tryItOut 103

tryItOut 104
Compiling threw: SyntaxError: label not found

tryItOut 105
Compiling threw: SyntaxError: missing ) in parenthetical

tryItOut 106

tryItOut 107
Compiling threw: SyntaxError: illegal character

tryItOut 108

tryItOut 109
Compiling threw: SyntaxError: invalid for/in left-hand side

tryItOut 110
Compiling threw: SyntaxError: missing variable name

tryItOut 111

tryItOut 112

tryItOut 113

tryItOut 114

tryItOut 115
Compiling threw: SyntaxError: invalid assignment left-hand side

tryItOut 116
Compiling threw: SyntaxError: missing ) in parenthetical

tryItOut 117
Compiling threw: SyntaxError: missing ; after for-loop initializer

tryItOut 118

tryItOut 119
Compiling threw: SyntaxError: missing } after property list

tryItOut 120
Compiling threw: SyntaxError: missing ) after condition

tryItOut 121
Running threw: ReferenceError: reference to undefined XML name *

tryItOut 122
Compiling threw: SyntaxError: missing : after case label

tryItOut 123
Compiling threw: SyntaxError: missing ; after for-loop initializer

tryItOut 124
Compiling threw: TypeError: generator function anonymous returns a value

tryItOut 125

tryItOut 126
Compiling threw: SyntaxError: invalid for/in left-hand side

tryItOut 127
Compiling threw: SyntaxError: invalid continue

tryItOut 128
Compiling threw: SyntaxError: invalid assignment left-hand side

tryItOut 129
Compiling threw: SyntaxError: syntax error

tryItOut 130
Compiling threw: SyntaxError: invalid break

tryItOut 131
Compiling threw: SyntaxError: invalid for/in left-hand side

tryItOut 132
Compiling threw: SyntaxError: missing ) in parenthetical

tryItOut 133
Compiling threw: SyntaxError: illegal XML character

tryItOut 134
Compiling threw: SyntaxError: missing ; after for-loop initializer

tryItOut 135
Running threw: ReferenceError: reference to undefined XML name *::*

tryItOut 136
Compiling threw: SyntaxError: syntax error

tryItOut 137
Compiling threw: SyntaxError: syntax error

tryItOut 138

tryItOut 139
Compiling threw: SyntaxError: missing ) after condition

tryItOut 140

tryItOut 141
Compiling threw: SyntaxError: invalid break

tryItOut 142
Compiling threw: SyntaxError: unterminated regular expression literal

tryItOut 143
Compiling threw: SyntaxError: missing ; before statement

tryItOut 144
Compiling threw: SyntaxError: label not found

tryItOut 145
Compiling threw: SyntaxError: missing variable name

tryItOut 146

tryItOut 147
Compiling threw: SyntaxError: duplicate label

tryItOut 148

tryItOut 149

tryItOut 150
Compiling threw: SyntaxError: missing ; before statement

tryItOut 151
Compiling threw: SyntaxError: invalid continue

tryItOut 152
Compiling threw: SyntaxError: label not found

tryItOut 153
before 122080, after 122080, break 01d52000

tryItOut 154

tryItOut 155
Compiling threw: SyntaxError: syntax error

tryItOut 156

tryItOut 157
Compiling threw: SyntaxError: label not found

tryItOut 158

tryItOut 159
Compiling threw: SyntaxError: invalid for/in left-hand side

tryItOut 160

tryItOut 161
Compiling threw: SyntaxError: label not found

tryItOut 162
Compiling threw: SyntaxError: invalid assignment left-hand side

tryItOut 163

tryItOut 164

tryItOut 165
Compiling threw: SyntaxError: label not found

tryItOut 166

tryItOut 167

tryItOut 168
Running threw: TypeError: this.zzz has no properties

tryItOut 169
Compiling threw: SyntaxError: invalid assignment left-hand side

tryItOut 170
Compiling threw: SyntaxError: invalid assignment left-hand side

tryItOut 171
Running threw: TypeError: ({}) is not a function

tryItOut 172
Compiling threw: SyntaxError: missing ; before statement

tryItOut 173
It's an iterator!
Iterating succeeded, iterCount == 0

tryItOut 174
Compiling threw: SyntaxError: invalid XML name

tryItOut 175
Compiling threw: SyntaxError: missing ) after switch expression

tryItOut 176
Compiling threw: SyntaxError: syntax error

tryItOut 177
Compiling threw: SyntaxError: missing ) in parenthetical

tryItOut 178

tryItOut 179

tryItOut 180

tryItOut 181
Compiling threw: SyntaxError: invalid for/in left-hand side

tryItOut 182
Compiling threw: SyntaxError: missing ; before statement

tryItOut 183
Compiling threw: SyntaxError: missing ; before statement

tryItOut 184

tryItOut 185
Compiling threw: SyntaxError: invalid for/in left-hand side

tryItOut 186

tryItOut 187
Compiling threw: TypeError: generator function anonymous returns a value

tryItOut 188

tryItOut 189
Compiling threw: SyntaxError: missing ; before statement

tryItOut 190
Compiling threw: SyntaxError: label not found

tryItOut 191
Compiling threw: SyntaxError: invalid assignment left-hand side

tryItOut 192
Compiling threw: SyntaxError: invalid assignment left-hand side

tryItOut 193
Compiling threw: SyntaxError: syntax error

tryItOut 194
Compiling threw: SyntaxError: missing ; before statement

tryItOut 195
Compiling threw: SyntaxError: syntax error

tryItOut 196

tryItOut 197

tryItOut 198
Running threw: TypeError: XML filtering predicate operator called on incompatible Number

tryItOut 199
Compiling threw: SyntaxError: missing ) in parenthetical

tryItOut 200
Compiling threw: SyntaxError: missing ; before statement

tryItOut 201
Running threw: TypeError: this.zzz has no properties

tryItOut 202
Compiling threw: SyntaxError: missing ) in parenthetical

tryItOut 203

tryItOut 204

tryItOut 205
Compiling threw: SyntaxError: invalid default XML namespace

tryItOut 206
It's an iterator!
Iterating succeeded, iterCount == 1

tryItOut 207
Compiling threw: SyntaxError: invalid for/in left-hand side

tryItOut 208
Compiling threw: SyntaxError: invalid continue

tryItOut 209

tryItOut 210
Compiling threw: SyntaxError: label not found

tryItOut 211
Compiling threw: SyntaxError: missing ) in parenthetical

tryItOut 212
Compiling threw: SyntaxError: invalid assignment left-hand side

tryItOut 213
Compiling threw: SyntaxError: invalid for/in left-hand side

tryItOut 214
Compiling threw: SyntaxError: missing ) in parenthetical

tryItOut 215
Compiling threw: SyntaxError: missing ) in parenthetical

tryItOut 216
Compiling threw: SyntaxError: invalid for/in left-hand side

tryItOut 217
Compiling threw: TypeError: generator function anonymous returns a value

tryItOut 218

tryItOut 219

tryItOut 220

tryItOut 221
Compiling threw: TypeError: generator function anonymous returns a value

tryItOut 222
Compiling threw: SyntaxError: syntax error

tryItOut 223
Compiling threw: SyntaxError: label not found

tryItOut 224
Compiling threw: SyntaxError: missing ; before statement

tryItOut 225
Compiling threw: SyntaxError: missing name after . operator

tryItOut 226
Compiling threw: SyntaxError: missing ; before statement

tryItOut 227

tryItOut 228
Compiling threw: SyntaxError: missing ) in parenthetical

tryItOut 229
Compiling threw: SyntaxError: invalid break

tryItOut 230
Compiling threw: SyntaxError: missing ; before statement

tryItOut 231
Compiling threw: SyntaxError: label not found

tryItOut 232

tryItOut 233
Compiling threw: SyntaxError: label not found

tryItOut 234

tryItOut 235
uneval returned the string: [undefined, undefined]

tryItOut 236
Compiling threw: SyntaxError: label not found

tryItOut 237

tryItOut 238
Compiling threw: SyntaxError: syntax error

tryItOut 239

tryItOut 240

tryItOut 241

tryItOut 242
Compiling threw: SyntaxError: missing ; before statement

tryItOut 243

tryItOut 244
Compiling threw: SyntaxError: invalid continue

tryItOut 245

tryItOut 246

tryItOut 247
Compiling threw: TypeError: generator function anonymous returns a value

tryItOut 248

tryItOut 249
Compiling threw: SyntaxError: missing ; before statement

tryItOut 250
Compiling threw: SyntaxError: invalid assignment left-hand side

tryItOut 251
Compiling threw: SyntaxError: missing ) in parenthetical

tryItOut 252

tryItOut 253
Compiling threw: SyntaxError: missing variable name

tryItOut 254
Compiling threw: SyntaxError: missing ) after condition

tryItOut 255
Compiling threw: SyntaxError: invalid for/in left-hand side

tryItOut 256

tryItOut 257

tryItOut 258

tryItOut 259
Compiling threw: SyntaxError: label not found

tryItOut 260
Compiling threw: SyntaxError: missing ; before statement

tryItOut 261

tryItOut 262
Compiling threw: TypeError: generator function anonymous returns a value

tryItOut 263
Compiling threw: SyntaxError: missing ) in parenthetical

tryItOut 264

tryItOut 265

tryItOut 266
Compiling threw: TypeError: generator function anonymous returns a value

tryItOut 267
Compiling threw: SyntaxError: invalid for/in left-hand side

tryItOut 268
Compiling threw: SyntaxError: missing ) in parenthetical

tryItOut 269
Compiling threw: SyntaxError: missing ; before statement

tryItOut 270
Compiling threw: SyntaxError: syntax error

tryItOut 271
Compiling threw: SyntaxError: label not found

tryItOut 272
Compiling threw: SyntaxError: label not found

tryItOut 273
Compiling threw: SyntaxError: label not found

tryItOut 274
Compiling threw: SyntaxError: label not found

tryItOut 275

tryItOut 276
Compiling threw: SyntaxError: missing ) after condition

tryItOut 277

tryItOut 278
Compiling threw: SyntaxError: label not found

tryItOut 279
Compiling threw: SyntaxError: label not found

tryItOut 280
Compiling threw: SyntaxError: missing : after case label

tryItOut 281
Compiling threw: SyntaxError: syntax error

tryItOut 282
Compiling threw: SyntaxError: invalid continue

tryItOut 283
Compiling threw: SyntaxError: missing ; before statement

tryItOut 284
Compiling threw: SyntaxError: missing while after do-loop body

tryItOut 285

tryItOut 286
Compiling threw: SyntaxError: missing ; before statement

tryItOut 287
Compiling threw: SyntaxError: label not found

tryItOut 288
Compiling threw: TypeError: redeclaration of const __parent__

tryItOut 289
Compiling threw: SyntaxError: missing name after . operator

tryItOut 290
Compiling threw: SyntaxError: invalid assignment left-hand side

tryItOut 291
Compiling threw: SyntaxError: missing ) in parenthetical

tryItOut 292
Compiling threw: TypeError: generator function anonymous returns a value

tryItOut 293
Compiling threw: SyntaxError: invalid continue

tryItOut 294

tryItOut 295
Compiling threw: SyntaxError: missing ) after condition

tryItOut 296

tryItOut 297
Running threw: TypeError: __parent__ has no properties

tryItOut 298
Compiling threw: SyntaxError: missing ) in parenthetical

tryItOut 299
Compiling threw: SyntaxError: missing ) after condition

tryItOut 300

tryItOut 301
Compiling threw: SyntaxError: missing ; before statement

tryItOut 302
Compiling threw: SyntaxError: syntax error

tryItOut 303
It's an iterator!
Iterating succeeded, iterCount == 0

tryItOut 304

tryItOut 305
Compiling threw: SyntaxError: missing variable name

tryItOut 306

tryItOut 307
Compiling threw: SyntaxError: label not found

tryItOut 308
Compiling threw: SyntaxError: missing ; after for-loop initializer

tryItOut 309
Compiling threw: SyntaxError: invalid assignment left-hand side

tryItOut 310
Compiling threw: SyntaxError: invalid continue

tryItOut 311
Compiling threw: SyntaxError: missing ; before statement

tryItOut 312

tryItOut 313
Compiling threw: SyntaxError: missing ; before statement

tryItOut 314
It's an iterator!
before 139520, after 139520, break 01da7000
Iterating succeeded, iterCount == 1

tryItOut 315

tryItOut 316
Running threw: ReferenceError: reference to undefined XML name *

tryItOut 317
Compiling threw: SyntaxError: invalid break

tryItOut 318
Compiling threw: SyntaxError: syntax error

tryItOut 319
Compiling threw: SyntaxError: invalid assignment left-hand side

tryItOut 320
Compiling threw: SyntaxError: label not found

tryItOut 321
Compiling threw: SyntaxError: invalid XML name

tryItOut 322
Compiling threw: TypeError: redeclaration of const prototype

tryItOut 323
Running threw: TypeError: this.zzz has no properties

tryItOut 324
Compiling threw: SyntaxError: missing ; after for-loop initializer

tryItOut 325
Compiling threw: SyntaxError: invalid destructuring assignment operator

tryItOut 326
Compiling threw: TypeError: generator function anonymous returns a value

tryItOut 327

tryItOut 328
It's an iterator!
Iterating succeeded, iterCount == 1

tryItOut 329
Running threw: ReferenceError: reference to undefined XML name *::*

tryItOut 330
Compiling threw: SyntaxError: label not found

tryItOut 331
It's an iterator!
Iterating succeeded, iterCount == 1

tryItOut 332
Compiling threw: SyntaxError: invalid assignment left-hand side

tryItOut 333

tryItOut 334
Compiling threw: SyntaxError: invalid for/in left-hand side

tryItOut 335
Compiling threw: TypeError: generator function anonymous returns a value

tryItOut 336

tryItOut 337
Compiling threw: SyntaxError: syntax error

tryItOut 338

tryItOut 339
Compiling threw: SyntaxError: invalid assignment left-hand side

tryItOut 340
Compiling threw: SyntaxError: invalid break

tryItOut 341
Compiling threw: SyntaxError: syntax error

tryItOut 342
Compiling threw: SyntaxError: label not found

tryItOut 343

tryItOut 344
Compiling threw: SyntaxError: label not found

tryItOut 345
Running threw: ReferenceError: reference to undefined XML name *::*

tryItOut 346
Compiling threw: TypeError: generator function anonymous returns a value

tryItOut 347
Compiling threw: SyntaxError: invalid for/in left-hand side

tryItOut 348
Compiling threw: SyntaxError: missing ; before statement

tryItOut 349

tryItOut 350
Compiling threw: SyntaxError: label not found

tryItOut 351
It's an iterator!
Iterating succeeded, iterCount == 0

tryItOut 352

tryItOut 353
before 139520, after 139520, break 01da7000

tryItOut 354
Compiling threw: SyntaxError: missing name after . operator

tryItOut 355

tryItOut 356
Compiling threw: SyntaxError: label not found

tryItOut 357
It's an iterator!
Iterating succeeded, iterCount == 1

tryItOut 358

tryItOut 359
Compiling threw: SyntaxError: syntax error

tryItOut 360
Compiling threw: SyntaxError: invalid for/in left-hand side

tryItOut 361
Compiling threw: SyntaxError: missing ; before statement

tryItOut 362
Compiling threw: SyntaxError: invalid for/in left-hand side

tryItOut 363
Compiling threw: SyntaxError: syntax error

tryItOut 364
Compiling threw: SyntaxError: missing ( before let head

tryItOut 365
Compiling threw: SyntaxError: invalid assignment left-hand side

tryItOut 366
Compiling threw: SyntaxError: syntax error

tryItOut 367

tryItOut 368
Compiling threw: SyntaxError: missing ) in parenthetical

tryItOut 369

tryItOut 370
Compiling threw: SyntaxError: syntax error

tryItOut 371
Compiling threw: TypeError: generator function anonymous returns a value

tryItOut 372
Compiling threw: SyntaxError: missing ; before statement

tryItOut 373
Compiling threw: SyntaxError: missing ; before statement

tryItOut 374
Compiling threw: SyntaxError: missing ; before statement

tryItOut 375
It's an iterator!
Iterating succeeded, iterCount == 1

tryItOut 376
Compiling threw: TypeError: generator function anonymous returns a value

tryItOut 377

tryItOut 378
Running threw: TypeError: "" is not a function

tryItOut 379
Running threw: TypeError: undefined has no properties

tryItOut 380
Compiling threw: SyntaxError: label not found

tryItOut 381
Compiling threw: SyntaxError: invalid continue

tryItOut 382

tryItOut 383
Compiling threw: SyntaxError: invalid continue

tryItOut 384
Running threw: ReferenceError: __iterator__ is not defined

tryItOut 385
Compiling threw: SyntaxError: invalid for/in left-hand side

tryItOut 386

tryItOut 387
Compiling threw: SyntaxError: missing ; before statement

tryItOut 388

tryItOut 389
Compiling threw: TypeError: redeclaration of var __count__

tryItOut 390
Compiling threw: SyntaxError: invalid continue

tryItOut 391

tryItOut 392
Compiling threw: SyntaxError: invalid assignment left-hand side

tryItOut 393

tryItOut 394
Compiling threw: SyntaxError: invalid assignment left-hand side

tryItOut 395

tryItOut 396
Compiling threw: SyntaxError: syntax error

tryItOut 397

tryItOut 398
before 139520, after 139520, break 01da7000

tryItOut 399
Compiling threw: SyntaxError: syntax error

tryItOut 400

tryItOut 401
Compiling threw: SyntaxError: label not found

tryItOut 402
It's an iterator!
Iterating succeeded, iterCount == 1

tryItOut 403
before 139520, after 139520, break 01da7000

tryItOut 404
Compiling threw: SyntaxError: missing ; before statement

tryItOut 405

tryItOut 406

tryItOut 407
Compiling threw: SyntaxError: label not found

tryItOut 408

tryItOut 409
Compiling threw: SyntaxError: invalid assignment left-hand side

tryItOut 410
Compiling threw: SyntaxError: label not found

tryItOut 411
Compiling threw: SyntaxError: missing ) in parenthetical

tryItOut 412
Compiling threw: SyntaxError: label not found

tryItOut 413
Compiling threw: SyntaxError: missing ; before statement

tryItOut 414
Compiling threw: SyntaxError: missing ) in parenthetical

tryItOut 415
Compiling threw: TypeError: generator function anonymous returns a value

tryItOut 416
Compiling threw: SyntaxError: missing ; before statement

tryItOut 417
Compiling threw: TypeError: redeclaration of const __iterator__

tryItOut 418
Compiling threw: SyntaxError: invalid continue

tryItOut 419

tryItOut 420
Compiling threw: SyntaxError: duplicate label

tryItOut 421
Compiling threw: SyntaxError: syntax error

tryItOut 422
Compiling threw: SyntaxError: invalid default XML namespace

tryItOut 423
Compiling threw: SyntaxError: missing ) in parenthetical

tryItOut 424
Compiling threw: SyntaxError: missing ; before statement

tryItOut 425

tryItOut 426
Compiling threw: SyntaxError: invalid break

tryItOut 427

tryItOut 428

tryItOut 429
Compiling threw: SyntaxError: missing ; before statement

tryItOut 430

tryItOut 431
It's an iterator!
Iterating threw!
Iterating threw: ReferenceError: reference to undefined XML name *::*

tryItOut 432
Compiling threw: SyntaxError: missing ; before statement

tryItOut 433
Running threw: ReferenceError: reference to undefined XML name @foo

tryItOut 434
It's an iterator!
Iterating succeeded, iterCount == 0

tryItOut 435

tryItOut 436
Compiling threw: SyntaxError: syntax error

tryItOut 437
Compiling threw: SyntaxError: invalid decrement operand

tryItOut 438
uneval returned the string: [1]

tryItOut 439
Compiling threw: SyntaxError: syntax error

tryItOut 440
Running threw: ReferenceError: reference to undefined XML name *

tryItOut 441
before 139520, after 139520, break 01da7000

tryItOut 442
Compiling threw: SyntaxError: invalid continue

tryItOut 443
Compiling threw: SyntaxError: missing ; before statement

tryItOut 444
Compiling threw: SyntaxError: missing ; before statement

tryItOut 445
Running threw: Error: invalid sharp variable use #1#

tryItOut 446
Compiling threw: SyntaxError: missing ) after argument list

tryItOut 447
Compiling threw: SyntaxError: missing ; after for-loop condition

tryItOut 448
Compiling threw: TypeError: generator function anonymous returns a value

tryItOut 449
Compiling threw: SyntaxError: syntax error

tryItOut 450
Running threw: ReferenceError: reference to undefined XML name @foo

tryItOut 451
Running threw: [object StopIteration]

tryItOut 452
It's an iterator!
Iterating threw!
Iterating threw: TypeError: undefined has no properties

tryItOut 453

tryItOut 454

tryItOut 455
Compiling threw: SyntaxError: invalid for/in left-hand side

tryItOut 456

tryItOut 457

tryItOut 458
Compiling threw: SyntaxError: invalid assignment left-hand side

tryItOut 459
Compiling threw: SyntaxError: invalid for/in left-hand side

tryItOut 460
Compiling threw: SyntaxError: missing ; before statement

tryItOut 461
It's an iterator!
Iterating threw!
Iterating threw: ReferenceError: reference to undefined XML name *::*

tryItOut 462
Compiling threw: SyntaxError: invalid continue

tryItOut 463

tryItOut 464
Compiling threw: SyntaxError: missing name in export statement

tryItOut 465
Compiling threw: SyntaxError: missing ; before statement

tryItOut 466
Compiling threw: SyntaxError: syntax error

tryItOut 467
It's an iterator!
Iterating threw!
Iterating threw: ReferenceError: z2 is not defined

tryItOut 468
Compiling threw: SyntaxError: invalid continue

tryItOut 469

tryItOut 470

tryItOut 471
It's an iterator!
Iterating succeeded, iterCount == 0

tryItOut 472

tryItOut 473
Compiling threw: SyntaxError: missing variable name

tryItOut 474
Compiling threw: SyntaxError: missing ) after condition

tryItOut 475
Compiling threw: SyntaxError: missing ) in parenthetical

tryItOut 476

tryItOut 477
Compiling threw: TypeError: generator function anonymous returns a value

tryItOut 478
Compiling threw: SyntaxError: syntax error

tryItOut 479
Compiling threw: SyntaxError: missing } in XML expression

tryItOut 480

tryItOut 481

tryItOut 482
Compiling threw: SyntaxError: syntax error

tryItOut 483
Compiling threw: SyntaxError: label not found

tryItOut 484
Compiling threw: SyntaxError: missing variable name

tryItOut 485
Compiling threw: SyntaxError: missing ; before statement

tryItOut 486
Compiling threw: SyntaxError: missing ; before statement

tryItOut 487
Running threw: [object StopIteration]

tryItOut 488
Compiling threw: SyntaxError: missing ) in parenthetical

tryItOut 489

tryItOut 490

tryItOut 491
Compiling threw: TypeError: generator function anonymous returns a value

tryItOut 492
Compiling threw: SyntaxError: missing variable name

tryItOut 493
Compiling threw: SyntaxError: missing ) in parenthetical

tryItOut 494
Compiling threw: SyntaxError: invalid assignment left-hand side

tryItOut 495

tryItOut 496
Compiling threw: SyntaxError: invalid decrement operand

tryItOut 497
It's an iterator!
Iterating succeeded, iterCount == 1

tryItOut 498
Compiling threw: SyntaxError: label not found

tryItOut 499
Compiling threw: SyntaxError: label not found

tryItOut 500

tryItOut 501
It's an iterator!
Iterating succeeded, iterCount == 1

tryItOut 502
It's an iterator!
Iterating threw!
Iterating threw: ReferenceError: reference to undefined XML name @foo

tryItOut 503
It's an iterator!
Iterating succeeded, iterCount == 1

tryItOut 504

tryItOut 505
Compiling threw: SyntaxError: invalid for/in left-hand side

tryItOut 506

tryItOut 507
uneval returned the string: [[1]]

tryItOut 508
Compiling threw: SyntaxError: missing ) in parenthetical

tryItOut 509

tryItOut 510
Compiling threw: SyntaxError: missing ) in parenthetical

tryItOut 511
Running threw: ReferenceError: reference to undefined XML name *

tryItOut 512
Compiling threw: SyntaxError: missing ; before statement

tryItOut 513
Running threw: ReferenceError: reference to undefined XML name @foo

tryItOut 514
It's an iterator!
Iterating threw!
Iterating threw: ReferenceError: reference to undefined XML name *

tryItOut 515
Compiling threw: SyntaxError: label not found

tryItOut 516
Compiling threw: SyntaxError: invalid for/in left-hand side

tryItOut 517
Running threw: ReferenceError: reference to undefined XML name *::*

tryItOut 518
Compiling threw: SyntaxError: syntax error

tryItOut 519

tryItOut 520
It's an iterator!
Iterating succeeded, iterCount == 1

tryItOut 521
Running threw: TypeError: __parent__ has no properties

tryItOut 522
Running threw: SyntaxError: invalid getter usage

tryItOut 523

tryItOut 524
Compiling threw: SyntaxError: invalid XML name

tryItOut 525
Compiling threw: SyntaxError: syntax error

tryItOut 526
Compiling threw: SyntaxError: missing ; before statement

tryItOut 527
Compiling threw: SyntaxError: invalid XML list syntax

tryItOut 528

tryItOut 529
Compiling threw: SyntaxError: missing ) after argument list

tryItOut 530

tryItOut 531
Compiling threw: SyntaxError: missing ) after for-loop control

tryItOut 532
Compiling threw: SyntaxError: missing : after property id

tryItOut 533
Compiling threw: SyntaxError: syntax error

tryItOut 534

tryItOut 535

tryItOut 536
Running threw: [object StopIteration]

tryItOut 537
Compiling threw: SyntaxError: invalid break

tryItOut 538
Compiling threw: SyntaxError: missing ; before statement

tryItOut 539

tryItOut 540
It's an iterator!
Iterating succeeded, iterCount == 1

tryItOut 541

tryItOut 542
Compiling threw: SyntaxError: invalid for/in left-hand side

tryItOut 543

tryItOut 544

tryItOut 545
Compiling threw: SyntaxError: missing ) in parenthetical

tryItOut 546
Compiling threw: SyntaxError: missing ) after argument list

tryItOut 547
Compiling threw: SyntaxError: missing ; before statement

tryItOut 548
It's an iterator!
Iterating succeeded, iterCount == 1

tryItOut 549
Compiling threw: TypeError: generator function anonymous returns a value

tryItOut 550
Compiling threw: SyntaxError: missing variable name

tryItOut 551

tryItOut 552
before 156960, after 156960, break 01db8000

tryItOut 553
Compiling threw: SyntaxError: missing ; before statement

tryItOut 554
Compiling threw: SyntaxError: missing ) in parenthetical

tryItOut 555

tryItOut 556

tryItOut 557
Compiling threw: TypeError: generator function anonymous returns a value

tryItOut 558
It's an iterator!
Iterating succeeded, iterCount == 0

tryItOut 559
Compiling threw: SyntaxError: missing ) in parenthetical

tryItOut 560
Compiling threw: SyntaxError: syntax error

tryItOut 561
Compiling threw: SyntaxError: label not found

tryItOut 562
Compiling threw: SyntaxError: invalid for/in left-hand side

tryItOut 563
Compiling threw: SyntaxError: syntax error

tryItOut 564

tryItOut 565

tryItOut 566
Running threw: [object Object]

tryItOut 567
Compiling threw: SyntaxError: missing ) in parenthetical

tryItOut 568
Compiling threw: SyntaxError: invalid assignment left-hand side

tryItOut 569

tryItOut 570

tryItOut 571
Compiling threw: SyntaxError: missing ) after condition

tryItOut 572
Compiling threw: SyntaxError: label not found

tryItOut 573
Compiling threw: SyntaxError: missing ; before statement

tryItOut 574
It's an iterator!
Iterating succeeded, iterCount == 1

tryItOut 575
Compiling threw: SyntaxError: invalid for/in left-hand side

tryItOut 576
Compiling threw: SyntaxError: missing ) in parenthetical

tryItOut 577
Compiling threw: SyntaxError: label not found

tryItOut 578
Running threw: ReferenceError: reference to undefined XML name @foo

tryItOut 579
Compiling threw: SyntaxError: missing ; before statement

tryItOut 580
Compiling threw: SyntaxError: invalid for/in left-hand side

tryItOut 581
Compiling threw: SyntaxError: invalid label

tryItOut 582
Compiling threw: SyntaxError: illegal XML character

tryItOut 583
Compiling threw: SyntaxError: syntax error

tryItOut 584

tryItOut 585
Compiling threw: TypeError: generator function anonymous returns a value

tryItOut 586
Compiling threw: SyntaxError: missing ; before statement

tryItOut 587

tryItOut 588

tryItOut 589
Compiling threw: SyntaxError: invalid assignment left-hand side

tryItOut 590
Compiling threw: SyntaxError: label not found

tryItOut 591

tryItOut 592
Compiling threw: TypeError: generator function anonymous returns a value

tryItOut 593
Compiling threw: SyntaxError: missing ; before statement

tryItOut 594

tryItOut 595
Compiling threw: SyntaxError: syntax error

tryItOut 596
Compiling threw: TypeError: generator function anonymous returns a value

tryItOut 597
Compiling threw: SyntaxError: syntax error

tryItOut 598
Compiling threw: SyntaxError: duplicate label

tryItOut 599
Compiling threw: TypeError: generator function anonymous returns a value

tryItOut 600

tryItOut 601
Compiling threw: SyntaxError: invalid break

tryItOut 602
Running threw: TypeError: (<{__parent__}></{__parent__}>).(__parent__).yoyo is not a function

tryItOut 603
Compiling threw: SyntaxError: missing ; before statement

tryItOut 604
Compiling threw: SyntaxError: missing ; before statement

tryItOut 605
Compiling threw: SyntaxError: missing ; before statement

tryItOut 606

tryItOut 607
Compiling threw: SyntaxError: missing ; before statement

tryItOut 608
Compiling threw: SyntaxError: missing ; before statement

tryItOut 609
Running threw: TypeError: prop is not a function

tryItOut 610

tryItOut 611
Compiling threw: SyntaxError: missing ; after for-loop initializer

tryItOut 612
Compiling threw: SyntaxError: invalid for/in left-hand side

tryItOut 613
Compiling threw: SyntaxError: label not found

tryItOut 614
Compiling threw: SyntaxError: label not found

tryItOut 615
Compiling threw: SyntaxError: missing ; before statement

tryItOut 616
Compiling threw: SyntaxError: missing while after do-loop body

tryItOut 617
Compiling threw: SyntaxError: missing ; before statement

tryItOut 618
Compiling threw: SyntaxError: missing ; before statement

tryItOut 619

tryItOut 620
Compiling threw: SyntaxError: invalid assignment left-hand side

tryItOut 621
Compiling threw: SyntaxError: missing ) in parenthetical

tryItOut 622
It's an iterator!
Iterating threw!
Iterating threw: ReferenceError: reference to undefined XML name @foo

tryItOut 623

tryItOut 624
Compiling threw: SyntaxError: syntax error

tryItOut 625
Running threw: [object StopIteration]

tryItOut 626

tryItOut 627

tryItOut 628
Compiling threw: SyntaxError: invalid for/in left-hand side

tryItOut 629
Running threw: [object Object]

tryItOut 630
Compiling threw: SyntaxError: missing : after case label

tryItOut 631
Compiling threw: SyntaxError: label not found

tryItOut 632

tryItOut 633
Compiling threw: SyntaxError: syntax error

tryItOut 634

tryItOut 635
Compiling threw: SyntaxError: invalid break

tryItOut 636

tryItOut 637

tryItOut 638

tryItOut 639
Compiling threw: SyntaxError: missing name after . operator

tryItOut 640
Compiling threw: SyntaxError: missing ; before statement

tryItOut 641
Compiling threw: SyntaxError: label not found

tryItOut 642
Compiling threw: SyntaxError: label not found

tryItOut 643
Compiling threw: SyntaxError: invalid assignment left-hand side

tryItOut 644

tryItOut 645
It's an iterator!
Iterating succeeded, iterCount == 1

tryItOut 646

tryItOut 647

tryItOut 648
Compiling threw: TypeError: generator function anonymous returns a value

tryItOut 649
Compiling threw: SyntaxError: label not found

tryItOut 650
It's an iterator!
Iterating succeeded, iterCount == 1

tryItOut 651
Compiling threw: SyntaxError: label not found

tryItOut 652

tryItOut 653
Compiling threw: SyntaxError: invalid break

tryItOut 654
It's an iterator!
before 156960, after 156960, break 01dbd000
Iterating succeeded, iterCount == 1

tryItOut 655
before 156960, after 156960, break 01dbd000

tryItOut 656
It's an iterator!
before 156960, after 156960, break 01dbd000
Iterating succeeded, iterCount == 0

tryItOut 657
Compiling threw: SyntaxError: invalid continue

tryItOut 658
Compiling threw: TypeError: generator function anonymous returns a value

tryItOut 659
Compiling threw: SyntaxError: invalid continue

tryItOut 660
Running threw: [object StopIteration]

tryItOut 661

tryItOut 662
Compiling threw: SyntaxError: syntax error

tryItOut 663
It's an iterator!
Iterating succeeded, iterCount == 1

tryItOut 664

tryItOut 665
Running threw: ReferenceError: reference to undefined XML name @foo

tryItOut 666

tryItOut 667
Compiling threw: SyntaxError: invalid continue

tryItOut 668

tryItOut 669
Compiling threw: SyntaxError: missing ) in parenthetical

tryItOut 670
Compiling threw: TypeError: generator function anonymous returns a value

tryItOut 671
Running threw: SyntaxError: illegal XML character

tryItOut 672
Compiling threw: SyntaxError: invalid decrement operand

tryItOut 673
Running threw: TypeError: this.zzz has no properties

tryItOut 674

tryItOut 675
Compiling threw: TypeError: generator function anonymous returns a value

tryItOut 676
Compiling threw: SyntaxError: missing ) in parenthetical

tryItOut 677

tryItOut 678
Running threw: ReferenceError: reference to undefined XML name @foo

tryItOut 679
Compiling threw: SyntaxError: missing ) in parenthetical

tryItOut 680
Compiling threw: SyntaxError: invalid continue

tryItOut 681
Compiling threw: SyntaxError: missing ) in parenthetical

tryItOut 682
Compiling threw: SyntaxError: invalid destructuring assignment operator

tryItOut 683
Compiling threw: SyntaxError: missing ; before statement

tryItOut 684
Compiling threw: SyntaxError: invalid assignment left-hand side

tryItOut 685
Compiling threw: SyntaxError: syntax error

tryItOut 686

tryItOut 687
Compiling threw: TypeError: redeclaration of const __noSuchMethod__

tryItOut 688
Compiling threw: SyntaxError: label not found

tryItOut 689
Compiling threw: SyntaxError: missing ) in parenthetical

tryItOut 690
Running threw: ReferenceError: reference to undefined XML name *::*

tryItOut 691

tryItOut 692
Compiling threw: SyntaxError: invalid continue

tryItOut 693

tryItOut 694

tryItOut 695
Compiling threw: SyntaxError: label not found

tryItOut 696

tryItOut 697
Compiling threw: SyntaxError: label not found

tryItOut 698

tryItOut 699
Compiling threw: SyntaxError: missing ; before statement

tryItOut 700
Compiling threw: TypeError: generator function anonymous returns a value

tryItOut 701
Compiling threw: SyntaxError: invalid for/in left-hand side

tryItOut 702
Compiling threw: TypeError: generator function anonymous returns a value

tryItOut 703

tryItOut 704

tryItOut 705

tryItOut 706

tryItOut 707
Running threw: ReferenceError: reference to undefined XML name *

tryItOut 708

tryItOut 709

tryItOut 710
Compiling threw: SyntaxError: invalid for/in left-hand side

tryItOut 711

tryItOut 712
Compiling threw: TypeError: redeclaration of variable __iterator__

tryItOut 713

tryItOut 714
Compiling threw: SyntaxError: label not found

tryItOut 715
Compiling threw: SyntaxError: label not found

tryItOut 716
Compiling threw: SyntaxError: missing ; before statement

tryItOut 717
Compiling threw: SyntaxError: missing variable name

tryItOut 718
Compiling threw: TypeError: generator function anonymous returns a value

tryItOut 719

tryItOut 720
Running threw: ReferenceError: reference to undefined XML name @foo

tryItOut 721

tryItOut 722

tryItOut 723
Compiling threw: SyntaxError: yield expression must be parenthesized

tryItOut 724
Compiling threw: SyntaxError: missing ) after condition

tryItOut 725

tryItOut 726

tryItOut 727

tryItOut 728
Compiling threw: SyntaxError: missing ) in parenthetical

tryItOut 729

tryItOut 730
Compiling threw: SyntaxError: syntax error

tryItOut 731
Compiling threw: SyntaxError: invalid assignment left-hand side

tryItOut 732
Compiling threw: SyntaxError: syntax error

tryItOut 733
Compiling threw: SyntaxError: invalid continue

tryItOut 734
Compiling threw: TypeError: generator function anonymous returns a value

tryItOut 735
Compiling threw: SyntaxError: label not found

tryItOut 736
Compiling threw: SyntaxError: invalid break

tryItOut 737

tryItOut 738

tryItOut 739
Compiling threw: TypeError: generator function anonymous returns a value

tryItOut 740
Compiling threw: SyntaxError: missing ; before statement

tryItOut 741
Running threw: ReferenceError: reference to undefined XML name *

tryItOut 742
Compiling threw: SyntaxError: invalid break

tryItOut 743

tryItOut 744

tryItOut 745
Compiling threw: SyntaxError: invalid break

tryItOut 746

tryItOut 747

tryItOut 748
Compiling threw: SyntaxError: invalid continue

tryItOut 749
Compiling threw: TypeError: generator function anonymous returns a value

tryItOut 750
Compiling threw: SyntaxError: label not found

tryItOut 751
Compiling threw: SyntaxError: invalid assignment left-hand side

tryItOut 752
It's an iterator!
Iterating succeeded, iterCount == 0

tryItOut 753
Compiling threw: SyntaxError: missing ; before statement

tryItOut 754

tryItOut 755
Compiling threw: SyntaxError: missing ; before statement

tryItOut 756
Compiling threw: SyntaxError: invalid for/in left-hand side

tryItOut 757

tryItOut 758
Compiling threw: SyntaxError: invalid assignment left-hand side

tryItOut 759
Compiling threw: SyntaxError: missing ; before statement

tryItOut 760

tryItOut 761
Compiling threw: SyntaxError: missing ) in parenthetical

tryItOut 762
Running threw: x

tryItOut 763
Compiling threw: SyntaxError: invalid assignment left-hand side

tryItOut 764

tryItOut 765
Compiling threw: TypeError: generator function anonymous returns a value

tryItOut 766
Compiling threw: SyntaxError: invalid for/in left-hand side

tryItOut 767
before 174400, after 174400, break 01dd6000

tryItOut 768

tryItOut 769

tryItOut 770
Compiling threw: SyntaxError: label not found

tryItOut 771
Compiling threw: SyntaxError: illegal XML character

tryItOut 772

tryItOut 773
before 174400, after 174400, break 01dd6000

tryItOut 774

tryItOut 775
Compiling threw: TypeError: generator function anonymous returns a value

tryItOut 776
Compiling threw: SyntaxError: missing ) after argument list

tryItOut 777
before 174400, after 174400, break 01dd6000

tryItOut 778

tryItOut 779

tryItOut 780

tryItOut 781

tryItOut 782
Compiling threw: TypeError: generator function anonymous returns a value

tryItOut 783

tryItOut 784
Compiling threw: TypeError: generator function anonymous returns a value

tryItOut 785
Compiling threw: TypeError: generator function anonymous returns a value

tryItOut 786

tryItOut 787
Compiling threw: SyntaxError: syntax error

tryItOut 788
Compiling threw: SyntaxError: missing ; before statement

tryItOut 789
Compiling threw: SyntaxError: invalid continue

tryItOut 790
Compiling threw: SyntaxError: syntax error

tryItOut 791
Compiling threw: SyntaxError: missing ; before statement

tryItOut 792
Compiling threw: SyntaxError: missing name after . operator

tryItOut 793
Compiling threw: SyntaxError: missing ; before statement

tryItOut 794
Compiling threw: SyntaxError: illegal XML character

tryItOut 795

tryItOut 796
Compiling threw: SyntaxError: syntax error

tryItOut 797

tryItOut 798

tryItOut 799
Compiling threw: SyntaxError: missing ) after argument list

tryItOut 800
Compiling threw: SyntaxError: label not found

tryItOut 801

tryItOut 802
It's an iterator!
Iterating succeeded, iterCount == 1

tryItOut 803
Running threw: TypeError: this.zzz has no properties

tryItOut 804

tryItOut 805
Compiling threw: SyntaxError: missing ; before statement

tryItOut 806

tryItOut 807
Compiling threw: SyntaxError: syntax error

tryItOut 808
Compiling threw: SyntaxError: missing ; before statement

tryItOut 809
Compiling threw: SyntaxError: invalid XML name

tryItOut 810

tryItOut 811
Compiling threw: SyntaxError: invalid assignment left-hand side

tryItOut 812
Compiling threw: SyntaxError: missing ; before statement

tryItOut 813

tryItOut 814
Compiling threw: SyntaxError: invalid assignment left-hand side

tryItOut 815
Compiling threw: SyntaxError: syntax error

tryItOut 816
Compiling threw: SyntaxError: syntax error

tryItOut 817
Compiling threw: SyntaxError: syntax error

tryItOut 818
Compiling threw: SyntaxError: invalid for/in left-hand side

tryItOut 819
Compiling threw: SyntaxError: missing ; before statement

tryItOut 820
Compiling threw: SyntaxError: missing ) in parenthetical

tryItOut 821
Compiling threw: TypeError: redeclaration of variable __count__

tryItOut 822

tryItOut 823
Compiling threw: TypeError: generator function anonymous returns a value

tryItOut 824

tryItOut 825
Compiling threw: SyntaxError: missing ; before statement

tryItOut 826
Compiling threw: SyntaxError: invalid for/in left-hand side

tryItOut 827
Compiling threw: SyntaxError: invalid continue

tryItOut 828
Compiling threw: SyntaxError: missing ; after for-loop initializer

tryItOut 829

tryItOut 830
Compiling threw: SyntaxError: invalid assignment left-hand side

tryItOut 831
Compiling threw: SyntaxError: illegal XML character

tryItOut 832
Compiling threw: SyntaxError: invalid assignment left-hand side

tryItOut 833
Compiling threw: SyntaxError: label not found

tryItOut 834

tryItOut 835

tryItOut 836

tryItOut 837

tryItOut 838

tryItOut 839
Running threw: ReferenceError: z1 is not defined

tryItOut 840
before 174400, after 174400, break 01dd6000

tryItOut 841
Compiling threw: SyntaxError: syntax error

tryItOut 842

tryItOut 843

tryItOut 844
Compiling threw: TypeError: generator function anonymous returns a value

tryItOut 845
Running threw: ReferenceError: reference to undefined XML name @foo

tryItOut 846
Compiling threw: SyntaxError: syntax error

tryItOut 847
Compiling threw: SyntaxError: invalid continue

tryItOut 848
Running threw: [object StopIteration]

tryItOut 849

tryItOut 850
Compiling threw: SyntaxError: missing ; after for-loop initializer

tryItOut 851
Compiling threw: SyntaxError: missing ; before statement

tryItOut 852
Compiling threw: TypeError: generator function anonymous returns a value

tryItOut 853
Compiling threw: SyntaxError: missing variable name

tryItOut 854
Compiling threw: SyntaxError: missing ) in parenthetical

tryItOut 855
Compiling threw: SyntaxError: syntax error

tryItOut 856
Compiling threw: SyntaxError: missing ) in parenthetical

tryItOut 857

tryItOut 858
Compiling threw: SyntaxError: missing ; after for-loop initializer

tryItOut 859
Running threw: TypeError: XML filtering predicate operator called on incompatible Boolean

tryItOut 860
It's an iterator!
Iterating threw!
Iterating threw: TypeError: null has no properties

tryItOut 861
before 174400, after 174400, break 01dd6000

tryItOut 862
Compiling threw: SyntaxError: invalid break

tryItOut 863
It's an iterator!
Iterating succeeded, iterCount == 1

tryItOut 864

tryItOut 865
Running threw: TypeError: this.zzz has no properties

tryItOut 866

tryItOut 867
Compiling threw: SyntaxError: label not found

tryItOut 868
It's an iterator!
Iterating succeeded, iterCount == 1

tryItOut 869

tryItOut 870
Compiling threw: SyntaxError: invalid assignment left-hand side

tryItOut 871

tryItOut 872
Compiling threw: SyntaxError: missing ) in parenthetical

tryItOut 873

tryItOut 874
Compiling threw: TypeError: generator function anonymous returns a value

tryItOut 875

tryItOut 876
Compiling threw: SyntaxError: invalid for/in left-hand side

tryItOut 877

tryItOut 878
Compiling threw: SyntaxError: invalid break

tryItOut 879
Running threw: TypeError: invalid Array.prototype.sort argument

tryItOut 880
Compiling threw: SyntaxError: label not found

tryItOut 881

tryItOut 882
Running threw: ReferenceError: reference to undefined XML name *::*

tryItOut 883
Compiling threw: SyntaxError: invalid assignment left-hand side

tryItOut 884

tryItOut 885
Compiling threw: SyntaxError: missing ) after condition

tryItOut 886
Compiling threw: SyntaxError: label not found

tryItOut 887

tryItOut 888
Compiling threw: SyntaxError: syntax error

tryItOut 889

tryItOut 890
Compiling threw: SyntaxError: invalid continue

tryItOut 891

tryItOut 892
Running threw: TypeError: <x>
  <y/>
</x> is not a constructor

tryItOut 893

tryItOut 894

tryItOut 895

tryItOut 896
Compiling threw: SyntaxError: missing ) after argument list

tryItOut 897
Compiling threw: TypeError: generator function anonymous returns a value

tryItOut 898
Compiling threw: SyntaxError: missing = in destructuring declaration

tryItOut 899
Compiling threw: SyntaxError: missing ; before statement

tryItOut 900

tryItOut 901

tryItOut 902

tryItOut 903
Compiling threw: SyntaxError: label not found

tryItOut 904
Compiling threw: SyntaxError: missing } in XML expression

tryItOut 905

tryItOut 906
Compiling threw: SyntaxError: yield expression must be parenthesized

tryItOut 907
Compiling threw: SyntaxError: missing ) in parenthetical

tryItOut 908
Compiling threw: SyntaxError: invalid assignment left-hand side

tryItOut 909
It's an iterator!
Iterating succeeded, iterCount == 1

tryItOut 910
Compiling threw: SyntaxError: invalid assignment left-hand side

tryItOut 911

tryItOut 912
Compiling threw: SyntaxError: illegal XML character

tryItOut 913

tryItOut 914

tryItOut 915
Compiling threw: SyntaxError: syntax error

tryItOut 916
Compiling threw: SyntaxError: invalid for/in left-hand side

tryItOut 917
Compiling threw: SyntaxError: invalid assignment left-hand side

tryItOut 918
Compiling threw: SyntaxError: invalid for/in left-hand side

tryItOut 919

tryItOut 920
It's an iterator!
Iterating succeeded, iterCount == 1

tryItOut 921
Compiling threw: TypeError: generator function anonymous returns a value

tryItOut 922
Compiling threw: SyntaxError: missing ) in parenthetical

tryItOut 923
It's an iterator!
Iterating succeeded, iterCount == 1

tryItOut 924
Compiling threw: TypeError: generator function anonymous returns a value

tryItOut 925
before 174400, after 174400, break 01deb000

tryItOut 926

tryItOut 927
Compiling threw: SyntaxError: missing ; before statement

tryItOut 928
Compiling threw: SyntaxError: missing ) in parenthetical

tryItOut 929
Compiling threw: SyntaxError: missing } in XML expression

tryItOut 930
Compiling threw: SyntaxError: syntax error

tryItOut 931
Compiling threw: SyntaxError: missing ) after switch expression

tryItOut 932
Compiling threw: SyntaxError: invalid for/in left-hand side

tryItOut 933
Running threw: true

tryItOut 934
Compiling threw: TypeError: generator function anonymous returns a value

tryItOut 935

tryItOut 936
Compiling threw: SyntaxError: label not found

tryItOut 937
Compiling threw: SyntaxError: label not found

tryItOut 938
Running threw: ReferenceError: reference to undefined XML name *::*

tryItOut 939

tryItOut 940
Compiling threw: SyntaxError: missing ; before statement

tryItOut 941
Compiling threw: SyntaxError: invalid continue

tryItOut 942
Compiling threw: SyntaxError: syntax error

tryItOut 943

tryItOut 944
Compiling threw: SyntaxError: label not found

tryItOut 945
Compiling threw: SyntaxError: invalid for/in left-hand side

tryItOut 946
Compiling threw: SyntaxError: invalid break

tryItOut 947
It's an iterator!
Iterating threw!
Iterating threw: TypeError: undefined has no properties

tryItOut 948
Compiling threw: SyntaxError: invalid continue

tryItOut 949
Compiling threw: SyntaxError: missing = in destructuring declaration

tryItOut 950
Compiling threw: SyntaxError: invalid assignment left-hand side

tryItOut 951

tryItOut 952
Compiling threw: SyntaxError: missing ; before statement

tryItOut 953
Compiling threw: SyntaxError: label not found

tryItOut 954
Compiling threw: SyntaxError: yield expression must be parenthesized

tryItOut 955
Compiling threw: SyntaxError: missing ; before statement

tryItOut 956

tryItOut 957
Compiling threw: SyntaxError: missing ; before statement

tryItOut 958
Compiling threw: SyntaxError: missing ) in parenthetical

tryItOut 959

tryItOut 960
Compiling threw: SyntaxError: illegal XML character

tryItOut 961
Compiling threw: SyntaxError: syntax error

tryItOut 962
Compiling threw: SyntaxError: label not found

tryItOut 963
Compiling threw: SyntaxError: missing ; before statement

tryItOut 964

tryItOut 965
Compiling threw: SyntaxError: invalid continue

tryItOut 966

tryItOut 967

tryItOut 968
Compiling threw: SyntaxError: missing name after . operator

tryItOut 969

tryItOut 970
Compiling threw: TypeError: generator function anonymous returns a value

tryItOut 971
Compiling threw: SyntaxError: label not found

tryItOut 972

tryItOut 973
Compiling threw: SyntaxError: invalid continue

tryItOut 974
Compiling threw: SyntaxError: missing variable name

tryItOut 975
Compiling threw: SyntaxError: invalid for/in left-hand side

tryItOut 976
Compiling threw: SyntaxError: missing ) in parenthetical

tryItOut 977
Compiling threw: TypeError: generator function anonymous returns a value

tryItOut 978
Compiling threw: SyntaxError: missing ) in parenthetical

tryItOut 979

tryItOut 980
Running threw: ReferenceError: reference to undefined XML name @foo

tryItOut 981
Compiling threw: TypeError: generator function anonymous returns a value

tryItOut 982

tryItOut 983
Compiling threw: SyntaxError: invalid for/in left-hand side

tryItOut 984

tryItOut 985
Compiling threw: SyntaxError: label not found

tryItOut 986
Compiling threw: SyntaxError: label not found

tryItOut 987
Compiling threw: SyntaxError: missing ( before let head

tryItOut 988
Compiling threw: SyntaxError: missing ; before statement

tryItOut 989
Compiling threw: SyntaxError: label not found

tryItOut 990
Compiling threw: SyntaxError: label not found

tryItOut 991
Compiling threw: SyntaxError: missing ; before statement

tryItOut 992
Compiling threw: TypeError: redeclaration of const __parent__

tryItOut 993
Running threw: ReferenceError: reference to undefined XML name *::*

tryItOut 994

tryItOut 995

tryItOut 996
Compiling threw: SyntaxError: missing variable name

tryItOut 997

tryItOut 998
It's an iterator!
before 174400, after 174400, break 01deb000
Iterating succeeded, iterCount == 0

tryItOut 999
Compiling threw: SyntaxError: invalid assignment left-hand side

tryItOut 1000
Compiling threw: SyntaxError: missing variable name

ALL OK

Script done on Sat 04 May 2013 06:40:23 AM PDT
