Script started on Sat 04 May 2013 06:40:45 AM PDT
***
Targeting SpiderMonkey / Gecko.

tryItOut 1

tryItOut 2

tryItOut 3

tryItOut 4
Compiling threw: SyntaxError: missing ; before statement

tryItOut 5
Compiling threw: SyntaxError: label not found

tryItOut 6

tryItOut 7
Compiling threw: SyntaxError: syntax error

tryItOut 8
Compiling threw: SyntaxError: invalid decrement operand

tryItOut 9
Compiling threw: SyntaxError: label not found

tryItOut 10
Compiling threw: SyntaxError: missing { before function body

tryItOut 11

tryItOut 12
Running threw: ReferenceError: z2 is not defined

tryItOut 13

tryItOut 14

tryItOut 15
Compiling threw: SyntaxError: missing ; before statement

tryItOut 16
Compiling threw: SyntaxError: missing variable name

tryItOut 17
Compiling threw: SyntaxError: invalid break

tryItOut 18
Compiling threw: SyntaxError: missing { before function body

tryItOut 19

tryItOut 20
before 87200, after 87200, break 017a8000

tryItOut 21

tryItOut 22
Compiling threw: SyntaxError: invalid assignment left-hand side

tryItOut 23

tryItOut 24
Compiling threw: SyntaxError: missing ) after formal parameters

tryItOut 25
Compiling threw: SyntaxError: syntax error

tryItOut 26

tryItOut 27
It's an iterator!
Iterating succeeded, iterCount == 1

tryItOut 28
Compiling threw: SyntaxError: syntax error

tryItOut 29
Compiling threw: SyntaxError: missing ; before statement

tryItOut 30
before 87200, after 87200, break 017a8000

tryItOut 31
Running threw: <x>
  <y/>
</x>

tryItOut 32
Compiling threw: SyntaxError: syntax error

tryItOut 33

tryItOut 34
It's an iterator!
Iterating succeeded, iterCount == 0

tryItOut 35

tryItOut 36
Compiling threw: SyntaxError: label not found

tryItOut 37

tryItOut 38

tryItOut 39

tryItOut 40

tryItOut 41

tryItOut 42

tryItOut 43

tryItOut 44
Compiling threw: SyntaxError: syntax error

tryItOut 45

tryItOut 46

tryItOut 47

tryItOut 48

tryItOut 49
It's an iterator!
Iterating threw!
Iterating threw: ReferenceError: reference to undefined property "set"

tryItOut 50
Compiling threw: SyntaxError: syntax error

tryItOut 51
Compiling threw: SyntaxError: missing variable name

tryItOut 52
Compiling threw: SyntaxError: missing variable name

tryItOut 53

tryItOut 54

tryItOut 55

tryItOut 56
Compiling threw: SyntaxError: syntax error

tryItOut 57

tryItOut 58

tryItOut 59
Compiling threw: SyntaxError: missing variable name

tryItOut 60
It's an iterator!
Iterating threw!
Iterating threw: ReferenceError: window is not defined

tryItOut 61
Compiling threw: SyntaxError: invalid break

tryItOut 62
Compiling threw: SyntaxError: syntax error

tryItOut 63

tryItOut 64
Compiling threw: SyntaxError: missing ) after let head

tryItOut 65

tryItOut 66
Compiling threw: SyntaxError: invalid assignment left-hand side

tryItOut 67

tryItOut 68

tryItOut 69

tryItOut 70
Compiling threw: SyntaxError: label not found

tryItOut 71
Compiling threw: SyntaxError: invalid continue

tryItOut 72
Running threw: [object global]

tryItOut 73
Compiling threw: SyntaxError: invalid decrement operand

tryItOut 74

tryItOut 75
Compiling threw: SyntaxError: missing variable name

tryItOut 76
Compiling threw: SyntaxError: missing ; before statement

tryItOut 77

tryItOut 78
Running threw: ReferenceError: window is not defined

tryItOut 79

tryItOut 80
Compiling threw: SyntaxError: invalid break

tryItOut 81

tryItOut 82
Compiling threw: SyntaxError: missing variable name

tryItOut 83
Compiling threw: SyntaxError: label not found

tryItOut 84
It's an iterator!
Iterating threw!
Iterating threw: ReferenceError: get is not defined

tryItOut 85

tryItOut 86
Running threw: TypeError: <x><y/></x>.watch is not a function

tryItOut 87
Compiling threw: SyntaxError: invalid for/in left-hand side

tryItOut 88

tryItOut 89

tryItOut 90
Compiling threw: SyntaxError: missing ; before statement

tryItOut 91

tryItOut 92
Compiling threw: SyntaxError: duplicate label

tryItOut 93
It's an iterator!
Iterating succeeded, iterCount == 1

tryItOut 94

tryItOut 95
Compiling threw: SyntaxError: missing = in destructuring declaration

tryItOut 96
It's an iterator!
Iterating succeeded, iterCount == 1

tryItOut 97
It's an iterator!
Iterating threw!
Iterating threw: ReferenceError: __noSuchMethod__ is not defined

tryItOut 98
Compiling threw: SyntaxError: invalid continue

tryItOut 99
Compiling threw: SyntaxError: invalid increment operand

tryItOut 100
Compiling threw: SyntaxError: label not found

tryItOut 101
Compiling threw: SyntaxError: syntax error

tryItOut 102

tryItOut 103

tryItOut 104
Compiling threw: SyntaxError: invalid break

tryItOut 105

tryItOut 106
Compiling threw: SyntaxError: missing ; before statement

tryItOut 107
It's an iterator!
Iterating threw!
Iterating threw: ReferenceError: prop is not defined

tryItOut 108

tryItOut 109
Compiling threw: SyntaxError: syntax error

tryItOut 110
Compiling threw: SyntaxError: missing = in destructuring declaration

tryItOut 111
Compiling threw: SyntaxError: missing ) in parenthetical

tryItOut 112
Compiling threw: SyntaxError: label not found

tryItOut 113
Compiling threw: SyntaxError: label not found

tryItOut 114
It's an iterator!
Iterating threw!
Iterating threw: ReferenceError: prototype is not defined

tryItOut 115

tryItOut 116

tryItOut 117
Running threw: [object global]

tryItOut 118
Running threw: ReferenceError: window is not defined

tryItOut 119

tryItOut 120
Compiling threw: SyntaxError: label not found

tryItOut 121
Compiling threw: SyntaxError: syntax error

tryItOut 122
Compiling threw: SyntaxError: syntax error

tryItOut 123

tryItOut 124
Compiling threw: SyntaxError: syntax error

tryItOut 125

tryItOut 126
Running threw: [object Object]

tryItOut 127

tryItOut 128

tryItOut 129
Compiling threw: SyntaxError: missing = in destructuring declaration

tryItOut 130

tryItOut 131
Compiling threw: SyntaxError: missing { before function body

tryItOut 132

tryItOut 133
before 122080, after 122080, break 017fd000
Running threw: TypeError: gc() is not a function

tryItOut 134
Compiling threw: SyntaxError: invalid continue

tryItOut 135
Compiling threw: SyntaxError: missing : after property id

tryItOut 136

tryItOut 137

tryItOut 138

tryItOut 139
before 122080, after 122080, break 017fd000

tryItOut 140
Compiling threw: SyntaxError: syntax error

tryItOut 141

tryItOut 142
Compiling threw: SyntaxError: syntax error

tryItOut 143

tryItOut 144
Compiling threw: SyntaxError: missing } after let block

tryItOut 145

tryItOut 146

tryItOut 147

tryItOut 148

tryItOut 149
Compiling threw: SyntaxError: missing ) in parenthetical

tryItOut 150
Compiling threw: SyntaxError: missing variable name

tryItOut 151

tryItOut 152
It's an iterator!
Iterating succeeded, iterCount == 1

tryItOut 153
Compiling threw: SyntaxError: syntax error

tryItOut 154

tryItOut 155
Compiling threw: SyntaxError: invalid break

tryItOut 156

tryItOut 157
Compiling threw: SyntaxError: invalid decrement operand

tryItOut 158
Compiling threw: SyntaxError: invalid assignment left-hand side

tryItOut 159

tryItOut 160
Compiling threw: SyntaxError: label not found

tryItOut 161

tryItOut 162
Compiling threw: SyntaxError: invalid decrement operand

tryItOut 163

tryItOut 164
Compiling threw: SyntaxError: invalid break

tryItOut 165

tryItOut 166

tryItOut 167
Compiling threw: SyntaxError: invalid continue

tryItOut 168
Compiling threw: SyntaxError: syntax error

tryItOut 169
Compiling threw: SyntaxError: missing ; before statement

tryItOut 170

tryItOut 171
Compiling threw: SyntaxError: label not found

tryItOut 172
Compiling threw: SyntaxError: label not found

tryItOut 173

tryItOut 174

tryItOut 175

tryItOut 176
It's an iterator!
Iterating succeeded, iterCount == 1

tryItOut 177
Compiling threw: SyntaxError: syntax error

tryItOut 178

tryItOut 179

tryItOut 180
Compiling threw: SyntaxError: catch without try

tryItOut 181

tryItOut 182
Compiling threw: SyntaxError: missing variable name

tryItOut 183
Compiling threw: SyntaxError: missing variable name

tryItOut 184
Compiling threw: SyntaxError: missing variable name

tryItOut 185

tryItOut 186
Compiling threw: SyntaxError: missing ) in parenthetical

tryItOut 187
Compiling threw: SyntaxError: missing variable name

tryItOut 188
Compiling threw: SyntaxError: invalid continue

tryItOut 189

tryItOut 190

tryItOut 191
Compiling threw: SyntaxError: invalid destructuring assignment operator

tryItOut 192
Compiling threw: SyntaxError: missing { before function body

tryItOut 193

tryItOut 194

tryItOut 195
Compiling threw: SyntaxError: missing variable name

tryItOut 196
Compiling threw: SyntaxError: missing : after property id

tryItOut 197

tryItOut 198

tryItOut 199

tryItOut 200

tryItOut 201
Compiling threw: SyntaxError: missing { before function body

tryItOut 202

tryItOut 203

tryItOut 204

tryItOut 205
Running threw: TypeError: arguments[0] has no properties

tryItOut 206

tryItOut 207

tryItOut 208
It's an iterator!
Iterating succeeded, iterCount == 1

tryItOut 209

tryItOut 210
Compiling threw: SyntaxError: invalid break

tryItOut 211

tryItOut 212
Compiling threw: SyntaxError: syntax error

tryItOut 213
Running threw: ReferenceError: prototype is not defined

tryItOut 214
Compiling threw: SyntaxError: syntax error

tryItOut 215
Compiling threw: SyntaxError: label not found

tryItOut 216

tryItOut 217
Running threw: <x>
  <y/>
</x>

tryItOut 218
Compiling threw: SyntaxError: label not found

tryItOut 219
It's an iterator!
Iterating threw!
Iterating threw: ReferenceError: window is not defined

tryItOut 220

tryItOut 221
Running threw: ReferenceError: reference to undefined property "prototype"

tryItOut 222
Compiling threw: SyntaxError: missing { before function body

tryItOut 223
Compiling threw: SyntaxError: invalid break

tryItOut 224
Compiling threw: SyntaxError: missing ; before statement

tryItOut 225
It's an iterator!
Iterating threw!
Iterating threw: ReferenceError: window is not defined

tryItOut 226

tryItOut 227

tryItOut 228

tryItOut 229

tryItOut 230

tryItOut 231
Compiling threw: SyntaxError: invalid assignment left-hand side

tryItOut 232

tryItOut 233

tryItOut 234
Compiling threw: SyntaxError: missing variable name

tryItOut 235

tryItOut 236
Compiling threw: SyntaxError: missing ) in parenthetical

tryItOut 237
Compiling threw: SyntaxError: label not found

tryItOut 238
Compiling threw: SyntaxError: invalid XML name

tryItOut 239
Compiling threw: SyntaxError: invalid for/in left-hand side

tryItOut 240
Running threw: ReferenceError: window is not defined

tryItOut 241
Compiling threw: SyntaxError: syntax error

tryItOut 242
Compiling threw: SyntaxError: invalid continue

tryItOut 243

tryItOut 244

tryItOut 245

tryItOut 246
before 139520, after 139520, break 01812000

tryItOut 247
Compiling threw: SyntaxError: invalid assignment left-hand side

tryItOut 248

tryItOut 249
Compiling threw: SyntaxError: invalid continue

tryItOut 250

tryItOut 251
Compiling threw: SyntaxError: invalid assignment left-hand side

tryItOut 252

tryItOut 253

tryItOut 254
Running threw: TypeError: arguments[0] has no properties

tryItOut 255
Compiling threw: SyntaxError: missing ) in parenthetical

tryItOut 256
Compiling threw: SyntaxError: missing ) in parenthetical

tryItOut 257
Compiling threw: SyntaxError: invalid for/in left-hand side

tryItOut 258

tryItOut 259
Compiling threw: SyntaxError: illegal XML character

tryItOut 260
Running threw: ReferenceError: setter is not defined

tryItOut 261
Compiling threw: SyntaxError: invalid break

tryItOut 262
Compiling threw: SyntaxError: syntax error

tryItOut 263
Compiling threw: SyntaxError: missing variable name

tryItOut 264
Compiling threw: SyntaxError: invalid continue

tryItOut 265
Running threw: [object global]

tryItOut 266

tryItOut 267

tryItOut 268

tryItOut 269

tryItOut 270
Compiling threw: SyntaxError: label not found

tryItOut 271

tryItOut 272
Compiling threw: SyntaxError: invalid break

tryItOut 273

tryItOut 274
Running threw: ReferenceError: window is not defined

tryItOut 275

tryItOut 276

tryItOut 277
Compiling threw: SyntaxError: invalid break

tryItOut 278
Compiling threw: SyntaxError: label not found

tryItOut 279

tryItOut 280

tryItOut 281
Compiling threw: SyntaxError: missing variable name

tryItOut 282
Compiling threw: SyntaxError: invalid assignment left-hand side

tryItOut 283
Compiling threw: SyntaxError: invalid for/in left-hand side

tryItOut 284
Compiling threw: SyntaxError: missing ; before statement

tryItOut 285
It's an iterator!
Iterating threw!
Iterating threw: ReferenceError: __count__ is not defined

tryItOut 286

tryItOut 287
Running threw: ReferenceError: __proto__ is not defined

tryItOut 288
Running threw: <x>
  <y/>
</x>

tryItOut 289
Running threw: ReferenceError: z1 is not defined

tryItOut 290
Compiling threw: SyntaxError: label not found

tryItOut 291
Compiling threw: SyntaxError: invalid XML name

tryItOut 292
Compiling threw: SyntaxError: missing { before function body

tryItOut 293
Running threw: ReferenceError: window is not defined

tryItOut 294

tryItOut 295

tryItOut 296
Compiling threw: SyntaxError: invalid continue

tryItOut 297
before 139520, after 139520, break 0183d000

tryItOut 298

tryItOut 299

tryItOut 300
Compiling threw: SyntaxError: invalid assignment left-hand side

tryItOut 301

tryItOut 302
Running threw: TypeError: this[1, 2, 3, 4] has no properties

tryItOut 303
Running threw: ReferenceError: __iterator__ is not defined

tryItOut 304
Running threw: <x>
  <y/>
</x>

tryItOut 305
Compiling threw: SyntaxError: syntax error

tryItOut 306
Compiling threw: SyntaxError: missing name after . operator

tryItOut 307
Compiling threw: SyntaxError: unterminated regular expression literal

tryItOut 308
before 139520, after 139520, break 01831000

tryItOut 309
Compiling threw: SyntaxError: missing = in destructuring declaration

tryItOut 310

tryItOut 311

tryItOut 312

tryItOut 313

tryItOut 314
It's an iterator!
Iterating threw!
Iterating threw: ReferenceError: __proto__ is not defined

tryItOut 315

tryItOut 316

tryItOut 317
Compiling threw: SyntaxError: missing } after let block

tryItOut 318

tryItOut 319
Compiling threw: SyntaxError: missing = in destructuring declaration

tryItOut 320

tryItOut 321
Compiling threw: TypeError: redeclaration of variable constructor

tryItOut 322
Running threw: ReferenceError: window is not defined

tryItOut 323
Compiling threw: SyntaxError: missing = in destructuring declaration

tryItOut 324

tryItOut 325
Compiling threw: SyntaxError: missing variable name

tryItOut 326
Compiling threw: SyntaxError: missing ) in parenthetical

tryItOut 327

tryItOut 328
Compiling threw: SyntaxError: invalid XML list syntax

tryItOut 329
Compiling threw: SyntaxError: invalid break

tryItOut 330
Running threw: ReferenceError: __proto__ is not defined

tryItOut 331

tryItOut 332
Running threw: ReferenceError: __parent__ is not defined

tryItOut 333

tryItOut 334
Running threw: ReferenceError: __iterator__ is not defined

tryItOut 335

tryItOut 336

tryItOut 337
Compiling threw: SyntaxError: syntax error

tryItOut 338

tryItOut 339
Compiling threw: SyntaxError: invalid break

tryItOut 340

tryItOut 341
Compiling threw: SyntaxError: invalid XML tag syntax

tryItOut 342
Compiling threw: TypeError: redeclaration of const __iterator__

tryItOut 343
Compiling threw: SyntaxError: duplicate label

tryItOut 344
Compiling threw: SyntaxError: missing ; before statement

tryItOut 345
Running threw: ReferenceError: window is not defined

tryItOut 346

tryItOut 347
Compiling threw: SyntaxError: missing } after let block

tryItOut 348
Compiling threw: SyntaxError: syntax error

tryItOut 349

tryItOut 350
before 156960, after 156960, break 0184e000

tryItOut 351
Compiling threw: SyntaxError: syntax error

tryItOut 352

tryItOut 353
Compiling threw: SyntaxError: missing variable name

tryItOut 354
Compiling threw: SyntaxError: illegal XML character

tryItOut 355

tryItOut 356
Running threw: ReferenceError: window is not defined

tryItOut 357
Compiling threw: SyntaxError: finally without try

tryItOut 358
Compiling threw: SyntaxError: missing variable name

tryItOut 359
It's an iterator!
Iterating threw!
Iterating threw: ReferenceError: __parent__ is not defined

tryItOut 360
It's an iterator!
Iterating threw!
Iterating threw: ReferenceError: __count__ is not defined

tryItOut 361
Compiling threw: SyntaxError: missing variable name

tryItOut 362

tryItOut 363

tryItOut 364

tryItOut 365
Compiling threw: SyntaxError: invalid break

tryItOut 366
Compiling threw: SyntaxError: label not found

tryItOut 367

tryItOut 368
It's an iterator!
Iterating succeeded, iterCount == 1

tryItOut 369

tryItOut 370

tryItOut 371

tryItOut 372

tryItOut 373

tryItOut 374
Compiling threw: SyntaxError: illegal XML character

tryItOut 375

tryItOut 376
Compiling threw: SyntaxError: invalid assignment left-hand side

tryItOut 377

tryItOut 378
Compiling threw: SyntaxError: invalid break

tryItOut 379

tryItOut 380

tryItOut 381

tryItOut 382
Compiling threw: SyntaxError: missing variable name

tryItOut 383

tryItOut 384
Compiling threw: SyntaxError: missing } after let block

tryItOut 385
Compiling threw: TypeError: redeclaration of variable prototype

tryItOut 386
It's an iterator!
Iterating threw!
Iterating threw: ReferenceError: window is not defined

tryItOut 387
Running threw: ReferenceError: window is not defined

tryItOut 388
Running threw: ReferenceError: __proto__ is not defined

tryItOut 389
Compiling threw: SyntaxError: missing variable name

tryItOut 390
Compiling threw: SyntaxError: missing { before function body

tryItOut 391

tryItOut 392

tryItOut 393
Compiling threw: SyntaxError: missing variable name

tryItOut 394
Compiling threw: SyntaxError: duplicate label

tryItOut 395

tryItOut 396
Compiling threw: SyntaxError: invalid assignment left-hand side

tryItOut 397
Compiling threw: SyntaxError: invalid continue

tryItOut 398
Compiling threw: SyntaxError: invalid continue

tryItOut 399

tryItOut 400
Compiling threw: SyntaxError: missing ) after for-loop control

tryItOut 401
Compiling threw: SyntaxError: missing ; before statement

tryItOut 402

tryItOut 403
Compiling threw: TypeError: redeclaration of const __noSuchMethod__

tryItOut 404

tryItOut 405

tryItOut 406
Running threw: ReferenceError: z2 is not defined

tryItOut 407

tryItOut 408
Compiling threw: SyntaxError: invalid break

tryItOut 409

tryItOut 410

tryItOut 411

tryItOut 412
Compiling threw: SyntaxError: missing ; before statement

tryItOut 413

tryItOut 414
Running threw: ReferenceError: window is not defined

tryItOut 415
Compiling threw: SyntaxError: invalid increment operand

tryItOut 416

tryItOut 417

tryItOut 418
Compiling threw: SyntaxError: invalid increment operand

tryItOut 419
Compiling threw: SyntaxError: missing ; before statement

tryItOut 420

tryItOut 421
Compiling threw: SyntaxError: missing } after let block

tryItOut 422

tryItOut 423
Compiling threw: SyntaxError: label not found

tryItOut 424
Compiling threw: SyntaxError: missing variable name

tryItOut 425
It's an iterator!
Iterating threw!
Iterating threw: ReferenceError: window is not defined

tryItOut 426
Running threw: 

tryItOut 427

tryItOut 428
Compiling threw: SyntaxError: syntax error

tryItOut 429

tryItOut 430

tryItOut 431
Compiling threw: SyntaxError: missing { before function body

tryItOut 432
Compiling threw: TypeError: redeclaration of const __count__

tryItOut 433

tryItOut 434
Compiling threw: SyntaxError: missing ; before statement

tryItOut 435
Compiling threw: SyntaxError: invalid XML name

tryItOut 436
Compiling threw: SyntaxError: missing { before function body

tryItOut 437
Running threw: ReferenceError: __parent__ is not defined

tryItOut 438
Compiling threw: SyntaxError: missing ; before statement

tryItOut 439
Compiling threw: SyntaxError: missing ) in parenthetical

tryItOut 440

tryItOut 441
Compiling threw: SyntaxError: missing ; before statement

tryItOut 442

tryItOut 443
Compiling threw: SyntaxError: missing ; before statement

tryItOut 444
Compiling threw: SyntaxError: syntax error

tryItOut 445

tryItOut 446
It's an iterator!
Iterating succeeded, iterCount == 1

tryItOut 447
Compiling threw: SyntaxError: missing ; before statement

tryItOut 448

tryItOut 449

tryItOut 450

tryItOut 451

tryItOut 452
Compiling threw: SyntaxError: missing ; before statement

tryItOut 453
Compiling threw: SyntaxError: missing variable name

tryItOut 454
Compiling threw: SyntaxError: missing ; before statement

tryItOut 455
Running threw: TypeError: [undefined] is not a function

tryItOut 456
Compiling threw: SyntaxError: missing variable name

tryItOut 457
Compiling threw: SyntaxError: missing { before function body

tryItOut 458

tryItOut 459
Compiling threw: SyntaxError: missing } after let block

tryItOut 460
before 226720, after 191840, break 018e6000

tryItOut 461

tryItOut 462

tryItOut 463
Compiling threw: SyntaxError: missing ; before statement

tryItOut 464
Compiling threw: SyntaxError: label not found

tryItOut 465

tryItOut 466
before 191840, after 174400, break 018e6000

tryItOut 467
Compiling threw: SyntaxError: missing { before function body

tryItOut 468
Compiling threw: SyntaxError: missing variable name

tryItOut 469
Compiling threw: SyntaxError: syntax error

tryItOut 470

tryItOut 471
Compiling threw: SyntaxError: missing variable name

tryItOut 472
Compiling threw: SyntaxError: invalid continue

tryItOut 473
Compiling threw: SyntaxError: duplicate label

tryItOut 474
Compiling threw: SyntaxError: label not found

tryItOut 475
Compiling threw: SyntaxError: missing ; before statement

tryItOut 476
Compiling threw: SyntaxError: missing variable name

tryItOut 477

tryItOut 478

tryItOut 479

tryItOut 480

tryItOut 481
Compiling threw: SyntaxError: invalid assignment left-hand side

tryItOut 482
Compiling threw: SyntaxError: duplicate label

tryItOut 483

tryItOut 484
Running threw: TypeError: undefined is not a function

tryItOut 485
Compiling threw: SyntaxError: missing } in XML expression

tryItOut 486

tryItOut 487

tryItOut 488
Running threw: ReferenceError: z1 is not defined

tryItOut 489

tryItOut 490
Compiling threw: SyntaxError: invalid break

tryItOut 491
It's an iterator!
Iterating succeeded, iterCount == 1

tryItOut 492

tryItOut 493

tryItOut 494

tryItOut 495

tryItOut 496

tryItOut 497
before 174400, after 174400, break 018e6000

tryItOut 498

tryItOut 499

tryItOut 500

tryItOut 501
It's an iterator!
Iterating threw!
Iterating threw: ReferenceError: window is not defined

tryItOut 502
Running threw: ReferenceError: __iterator__ is not defined

tryItOut 503
Running threw: ReferenceError: __count__ is not defined

tryItOut 504
Compiling threw: SyntaxError: missing ) after argument list

tryItOut 505

tryItOut 506
Compiling threw: SyntaxError: unterminated regular expression literal

tryItOut 507
Compiling threw: SyntaxError: missing ) in parenthetical

tryItOut 508
Compiling threw: SyntaxError: missing variable name

tryItOut 509
Compiling threw: SyntaxError: label not found

tryItOut 510
Running threw: ReferenceError: __iterator__ is not defined

tryItOut 511
It's an iterator!
Iterating succeeded, iterCount == 0

tryItOut 512

tryItOut 513
Compiling threw: SyntaxError: missing ) in parenthetical

tryItOut 514
before 174400, after 156960, break 018e6000

tryItOut 515
Compiling threw: SyntaxError: missing ; before statement

tryItOut 516
Compiling threw: SyntaxError: syntax error

tryItOut 517
Compiling threw: SyntaxError: missing ) in parenthetical

tryItOut 518

tryItOut 519
Compiling threw: SyntaxError: missing ; before statement

tryItOut 520
Compiling threw: SyntaxError: invalid decrement operand

tryItOut 521
Compiling threw: SyntaxError: invalid decrement operand

tryItOut 522

tryItOut 523
Compiling threw: SyntaxError: invalid for/in left-hand side

tryItOut 524
Compiling threw: SyntaxError: invalid break

tryItOut 525
Compiling threw: SyntaxError: catch without try

tryItOut 526
Compiling threw: SyntaxError: missing variable name

tryItOut 527
Compiling threw: SyntaxError: missing { before function body

tryItOut 528

tryItOut 529
Compiling threw: SyntaxError: missing ; before statement

tryItOut 530

tryItOut 531
Compiling threw: SyntaxError: missing } after let block

tryItOut 532

tryItOut 533
Compiling threw: SyntaxError: missing { before function body

tryItOut 534
Compiling threw: SyntaxError: missing ; before statement

tryItOut 535
Running threw: ReferenceError: __proto__ is not defined

tryItOut 536

tryItOut 537
Compiling threw: SyntaxError: missing = in destructuring declaration

tryItOut 538

tryItOut 539
Compiling threw: SyntaxError: missing ; after for-loop condition

tryItOut 540

tryItOut 541
It's an iterator!
Iterating threw!
Iterating threw: ReferenceError: z1 is not defined

tryItOut 542
Running threw: ReferenceError: __parent__ is not defined

tryItOut 543
before 156960, after 156960, break 018e6000

tryItOut 544

tryItOut 545
It's an iterator!
Iterating succeeded, iterCount == 1

tryItOut 546

tryItOut 547
Compiling threw: SyntaxError: missing variable name

tryItOut 548
Compiling threw: SyntaxError: syntax error

tryItOut 549

tryItOut 550
Compiling threw: SyntaxError: missing ; before statement

tryItOut 551
Running threw: ReferenceError: prototype is not defined

tryItOut 552
Compiling threw: SyntaxError: label not found

tryItOut 553
before 156960, after 156960, break 018e6000

tryItOut 554

tryItOut 555
Compiling threw: SyntaxError: missing ; before statement

tryItOut 556
Running threw: TypeError: [undefined] is not a function

tryItOut 557
Running threw: TypeError: [undefined] is not a function

tryItOut 558
Compiling threw: SyntaxError: missing ) in parenthetical

tryItOut 559
Compiling threw: SyntaxError: syntax error

tryItOut 560
Compiling threw: SyntaxError: missing ; before statement

tryItOut 561
Compiling threw: SyntaxError: label not found

tryItOut 562
Compiling threw: SyntaxError: missing ; before statement

tryItOut 563
Compiling threw: SyntaxError: illegal XML character

tryItOut 564

tryItOut 565
Compiling threw: SyntaxError: missing { before function body

tryItOut 566

tryItOut 567
Compiling threw: SyntaxError: label not found

tryItOut 568
Compiling threw: SyntaxError: missing ; before statement

tryItOut 569

tryItOut 570
Running threw: ReferenceError: constructor is not defined

tryItOut 571
Compiling threw: SyntaxError: invalid destructuring assignment operator

tryItOut 572
Compiling threw: SyntaxError: syntax error

tryItOut 573

tryItOut 574
Compiling threw: SyntaxError: missing : after property id

tryItOut 575

tryItOut 576
Compiling threw: SyntaxError: label not found

tryItOut 577
Compiling threw: SyntaxError: syntax error

tryItOut 578

tryItOut 579

tryItOut 580
Compiling threw: SyntaxError: missing variable name

tryItOut 581
before 156960, after 156960, break 018e6000

tryItOut 582
Compiling threw: SyntaxError: label not found

tryItOut 583
Compiling threw: SyntaxError: missing ; before statement

tryItOut 584

tryItOut 585
It's an iterator!
Iterating succeeded, iterCount == 1

tryItOut 586

tryItOut 587
Compiling threw: SyntaxError: invalid continue

tryItOut 588

tryItOut 589
Running threw: <x>
  <y/>
</x>

tryItOut 590
Compiling threw: SyntaxError: missing variable name

tryItOut 591
Compiling threw: SyntaxError: missing ) after let head

tryItOut 592
Compiling threw: SyntaxError: missing = in destructuring declaration

tryItOut 593

tryItOut 594
before 156960, after 156960, break 018e6000

tryItOut 595
Compiling threw: SyntaxError: missing ) in parenthetical

tryItOut 596

tryItOut 597

tryItOut 598
Compiling threw: SyntaxError: missing ; before statement

tryItOut 599
Running threw: [object Object]

tryItOut 600
Running threw: ReferenceError: __count__ is not defined

tryItOut 601
Compiling threw: SyntaxError: missing { before function body

tryItOut 602
It's an iterator!
Iterating threw!
Iterating threw: ReferenceError: constructor is not defined

tryItOut 603
Running threw: ReferenceError: __parent__ is not defined

tryItOut 604

tryItOut 605
Compiling threw: SyntaxError: illegal XML character

tryItOut 606
Compiling threw: SyntaxError: missing ; before statement

tryItOut 607
Compiling threw: SyntaxError: invalid continue

tryItOut 608

tryItOut 609
before 156960, after 156960, break 018e6000

tryItOut 610
Compiling threw: SyntaxError: missing { before function body

tryItOut 611
Running threw: ReferenceError: __parent__ is not defined

tryItOut 612
Compiling threw: SyntaxError: missing variable name

tryItOut 613
Running threw: ReferenceError: __count__ is not defined

tryItOut 614
Compiling threw: SyntaxError: missing variable name

tryItOut 615
Compiling threw: SyntaxError: missing variable name

tryItOut 616

tryItOut 617
Compiling threw: SyntaxError: missing variable name

tryItOut 618
It's an iterator!
Iterating threw!
Iterating threw: ReferenceError: prototype is not defined

tryItOut 619
Compiling threw: SyntaxError: label not found

tryItOut 620
It's an iterator!
Iterating succeeded, iterCount == 1

tryItOut 621
Compiling threw: SyntaxError: missing variable name

tryItOut 622
Compiling threw: SyntaxError: illegal XML character

tryItOut 623
Compiling threw: SyntaxError: invalid decrement operand

tryItOut 624
Compiling threw: SyntaxError: missing ) in parenthetical

tryItOut 625

tryItOut 626
Compiling threw: SyntaxError: missing variable name

tryItOut 627
Compiling threw: SyntaxError: missing { before function body

tryItOut 628

tryItOut 629
Compiling threw: SyntaxError: missing variable name

tryItOut 630
It's an iterator!
Iterating threw!
Iterating threw: ReferenceError: window is not defined

tryItOut 631
Compiling threw: SyntaxError: invalid assignment left-hand side

tryItOut 632

tryItOut 633
Compiling threw: SyntaxError: invalid continue

tryItOut 634
before 156960, after 156960, break 018e6000

tryItOut 635
Compiling threw: SyntaxError: label not found

tryItOut 636
Compiling threw: SyntaxError: syntax error

tryItOut 637
Compiling threw: SyntaxError: label not found

tryItOut 638
Compiling threw: SyntaxError: missing ; before statement

tryItOut 639

tryItOut 640
Compiling threw: SyntaxError: missing ; before statement

tryItOut 641
Compiling threw: SyntaxError: missing ) in parenthetical

tryItOut 642

tryItOut 643
It's an iterator!
Iterating threw!
Iterating threw: ReferenceError: __parent__ is not defined

tryItOut 644
Compiling threw: SyntaxError: invalid break

tryItOut 645

tryItOut 646
Compiling threw: TypeError: redeclaration of const prototype

tryItOut 647

tryItOut 648

tryItOut 649

tryItOut 650

tryItOut 651

tryItOut 652

tryItOut 653
Compiling threw: SyntaxError: missing = in destructuring declaration

tryItOut 654

tryItOut 655

tryItOut 656
Compiling threw: SyntaxError: syntax error

tryItOut 657

tryItOut 658

tryItOut 659
Compiling threw: SyntaxError: invalid for/in left-hand side

tryItOut 660
Compiling threw: SyntaxError: invalid XML tag syntax

tryItOut 661
Compiling threw: SyntaxError: missing variable name

tryItOut 662

tryItOut 663

tryItOut 664

tryItOut 665

tryItOut 666

tryItOut 667

tryItOut 668

tryItOut 669
Compiling threw: SyntaxError: invalid break

tryItOut 670

tryItOut 671
Compiling threw: SyntaxError: duplicate label

tryItOut 672
Compiling threw: SyntaxError: invalid for each loop

tryItOut 673

tryItOut 674

tryItOut 675
Compiling threw: SyntaxError: missing ; before statement

tryItOut 676

tryItOut 677

tryItOut 678

tryItOut 679
It's an iterator!
Iterating threw!
Iterating threw: ReferenceError: __iterator__ is not defined

tryItOut 680

tryItOut 681

tryItOut 682

tryItOut 683

tryItOut 684

tryItOut 685

tryItOut 686

tryItOut 687

tryItOut 688
Compiling threw: SyntaxError: missing ) after argument list

tryItOut 689

tryItOut 690
Compiling threw: SyntaxError: missing ; before statement

tryItOut 691
Compiling threw: SyntaxError: invalid break

tryItOut 692
Compiling threw: SyntaxError: invalid assignment left-hand side

tryItOut 693

tryItOut 694
Compiling threw: SyntaxError: missing = in destructuring declaration

tryItOut 695
Compiling threw: SyntaxError: syntax error

tryItOut 696
Compiling threw: SyntaxError: missing ; before statement

tryItOut 697
Compiling threw: SyntaxError: missing = in destructuring declaration

tryItOut 698
Running threw: Error: invalid sharp variable use #1#

tryItOut 699
It's an iterator!
Iterating threw!
Iterating threw: ReferenceError: z1 is not defined

tryItOut 700
Compiling threw: SyntaxError: missing = in destructuring declaration

tryItOut 701

tryItOut 702
Compiling threw: SyntaxError: invalid continue

tryItOut 703
Compiling threw: SyntaxError: missing variable name

tryItOut 704
Compiling threw: SyntaxError: label not found

tryItOut 705
Compiling threw: SyntaxError: duplicate label

tryItOut 706

tryItOut 707
before 191840, after 174400, break 018e6000

tryItOut 708
Compiling threw: SyntaxError: label not found

tryItOut 709
Running threw: ReferenceError: window is not defined

tryItOut 710

tryItOut 711
Compiling threw: SyntaxError: missing ; before statement

tryItOut 712
Compiling threw: SyntaxError: missing variable name

tryItOut 713
Running threw: ReferenceError: __count__ is not defined

tryItOut 714
Compiling threw: SyntaxError: missing variable name

tryItOut 715
Compiling threw: SyntaxError: missing ; before statement

tryItOut 716
Compiling threw: SyntaxError: invalid assignment left-hand side

tryItOut 717
Compiling threw: SyntaxError: syntax error

tryItOut 718
It's an iterator!
Iterating threw!
Iterating threw: Error: invalid sharp variable use #1#

tryItOut 719

tryItOut 720

tryItOut 721
Running threw: TypeError: can't convert this to number

tryItOut 722

tryItOut 723
Compiling threw: SyntaxError: invalid for/in left-hand side

tryItOut 724

tryItOut 725
Running threw: ReferenceError: window is not defined

tryItOut 726

tryItOut 727
Compiling threw: SyntaxError: missing variable name

tryItOut 728
Compiling threw: SyntaxError: missing ; before statement

tryItOut 729
Running threw: TypeError: <x><y/></x>['throw'] is not a function

tryItOut 730
Running threw: ReferenceError: __proto__ is not defined

tryItOut 731

tryItOut 732
Compiling threw: SyntaxError: invalid assignment left-hand side

tryItOut 733
Compiling threw: SyntaxError: invalid assignment left-hand side

tryItOut 734
Running threw: ReferenceError: __count__ is not defined

tryItOut 735
Compiling threw: SyntaxError: label not found

tryItOut 736
Compiling threw: SyntaxError: missing } in compound statement

tryItOut 737
Running threw: undefined

tryItOut 738
Compiling threw: SyntaxError: label not found

tryItOut 739
Compiling threw: SyntaxError: missing } after let block

tryItOut 740
Running threw: ReferenceError: z1 is not defined

tryItOut 741

tryItOut 742
Compiling threw: SyntaxError: label not found

tryItOut 743
Compiling threw: SyntaxError: missing variable name

tryItOut 744
Compiling threw: SyntaxError: missing ) in parenthetical

tryItOut 745
Running threw: ReferenceError: __iterator__ is not defined

tryItOut 746
It's an iterator!
Iterating threw!
Iterating threw: SyntaxError: invalid getter usage

tryItOut 747

tryItOut 748

tryItOut 749
Compiling threw: SyntaxError: missing = in destructuring declaration

tryItOut 750
Compiling threw: SyntaxError: missing ) after for-loop control

tryItOut 751
Compiling threw: SyntaxError: missing variable name

tryItOut 752
Compiling threw: SyntaxError: missing ; before statement

tryItOut 753

tryItOut 754
Compiling threw: SyntaxError: missing ; before statement

tryItOut 755

tryItOut 756
Compiling threw: SyntaxError: invalid assignment left-hand side

tryItOut 757
Compiling threw: SyntaxError: invalid for/in left-hand side

tryItOut 758

tryItOut 759
before 174400, after 174400, break 018e6000

tryItOut 760

tryItOut 761
Compiling threw: SyntaxError: label not found

tryItOut 762
Compiling threw: SyntaxError: missing ; before statement

tryItOut 763

tryItOut 764
before 174400, after 156960, break 018e6000
Running threw: ReferenceError: __iterator__ is not defined

tryItOut 765

tryItOut 766
Compiling threw: SyntaxError: invalid break

tryItOut 767
Compiling threw: SyntaxError: invalid for/in left-hand side

tryItOut 768
Compiling threw: SyntaxError: syntax error

tryItOut 769
Compiling threw: SyntaxError: missing ) after formal parameters

tryItOut 770
before 156960, after 156960, break 018e6000

tryItOut 771
Compiling threw: SyntaxError: missing name in export statement

tryItOut 772
Compiling threw: SyntaxError: invalid destructuring assignment operator

tryItOut 773
Compiling threw: SyntaxError: invalid break

tryItOut 774
Running threw: Can't toString the error!!

tryItOut 775

tryItOut 776

tryItOut 777
Compiling threw: SyntaxError: invalid assignment left-hand side

tryItOut 778
Compiling threw: SyntaxError: syntax error

tryItOut 779
Compiling threw: SyntaxError: invalid continue

tryItOut 780

tryItOut 781
Compiling threw: SyntaxError: syntax error

tryItOut 782
Compiling threw: SyntaxError: syntax error

tryItOut 783

tryItOut 784

tryItOut 785
Compiling threw: SyntaxError: invalid XML list syntax

tryItOut 786

tryItOut 787
Running threw: ReferenceError: window is not defined

tryItOut 788

tryItOut 789

tryItOut 790

tryItOut 791
Compiling threw: SyntaxError: invalid continue

tryItOut 792

tryItOut 793

tryItOut 794
Compiling threw: SyntaxError: syntax error

tryItOut 795
Compiling threw: SyntaxError: label not found

tryItOut 796
Compiling threw: SyntaxError: label not found

tryItOut 797
Compiling threw: SyntaxError: label not found

tryItOut 798

tryItOut 799

tryItOut 800

tryItOut 801

tryItOut 802
Compiling threw: SyntaxError: duplicate label

tryItOut 803

tryItOut 804

tryItOut 805
Compiling threw: SyntaxError: label not found

tryItOut 806

tryItOut 807
Compiling threw: SyntaxError: invalid assignment left-hand side

tryItOut 808
Compiling threw: SyntaxError: invalid for/in left-hand side

tryItOut 809

tryItOut 810
It's an iterator!
Iterating threw!
Iterating threw: ReferenceError: window is not defined

tryItOut 811

tryItOut 812
Compiling threw: SyntaxError: syntax error

tryItOut 813
Running threw: <x>
  <y/>
</x>

tryItOut 814
before 156960, after 156960, break 018e6000

tryItOut 815

tryItOut 816
Compiling threw: SyntaxError: missing ( before let head

tryItOut 817
Running threw: ReferenceError: __proto__ is not defined

tryItOut 818

tryItOut 819

tryItOut 820

tryItOut 821
Compiling threw: SyntaxError: invalid continue

tryItOut 822

tryItOut 823
Compiling threw: SyntaxError: invalid continue

tryItOut 824

tryItOut 825
Compiling threw: SyntaxError: missing = in destructuring declaration

tryItOut 826

tryItOut 827

tryItOut 828
Running threw: ReferenceError: __proto__ is not defined

tryItOut 829
before 156960, after 156960, break 018e6000

tryItOut 830
Running threw: ReferenceError: window is not defined

tryItOut 831

tryItOut 832
Compiling threw: SyntaxError: label not found

tryItOut 833
Compiling threw: SyntaxError: label not found

tryItOut 834
Compiling threw: SyntaxError: invalid increment operand

tryItOut 835
Compiling threw: SyntaxError: missing ; before statement

tryItOut 836

tryItOut 837

tryItOut 838
Running threw: ReferenceError: __iterator__ is not defined

tryItOut 839
It's an iterator!
Iterating threw!
Iterating threw: ReferenceError: window is not defined

tryItOut 840
Compiling threw: SyntaxError: label not found

tryItOut 841
Compiling threw: SyntaxError: missing { before function body

tryItOut 842

tryItOut 843
Compiling threw: SyntaxError: missing } after let block

tryItOut 844
It's an iterator!
Iterating succeeded, iterCount == 1

tryItOut 845
Compiling threw: SyntaxError: missing { before function body

tryItOut 846
Compiling threw: SyntaxError: syntax error

tryItOut 847
Compiling threw: SyntaxError: missing variable name

tryItOut 848
Compiling threw: SyntaxError: missing variable name

tryItOut 849

tryItOut 850
Compiling threw: SyntaxError: invalid assignment left-hand side

tryItOut 851

tryItOut 852

tryItOut 853
Compiling threw: SyntaxError: syntax error

tryItOut 854

tryItOut 855

tryItOut 856

tryItOut 857

tryItOut 858
Running threw: Can't toString the error!!

tryItOut 859
Compiling threw: SyntaxError: syntax error

tryItOut 860
Running threw: ReferenceError: window is not defined

tryItOut 861

tryItOut 862

tryItOut 863

tryItOut 864
Running threw: ReferenceError: window is not defined

tryItOut 865
Compiling threw: SyntaxError: invalid decrement operand

tryItOut 866
Compiling threw: SyntaxError: missing ) in parenthetical

tryItOut 867

tryItOut 868

tryItOut 869
Compiling threw: SyntaxError: missing ; before statement

tryItOut 870

tryItOut 871

tryItOut 872
Compiling threw: SyntaxError: missing ) after let head

tryItOut 873
Compiling threw: SyntaxError: illegal XML character

tryItOut 874
Compiling threw: SyntaxError: invalid XML list syntax

tryItOut 875
Compiling threw: SyntaxError: missing ; before statement

tryItOut 876

tryItOut 877
Compiling threw: SyntaxError: label not found

tryItOut 878

tryItOut 879
Compiling threw: SyntaxError: label not found

tryItOut 880
Running threw: Can't toString the error!!

tryItOut 881
Compiling threw: SyntaxError: label not found

tryItOut 882

tryItOut 883
before 174400, after 174400, break 018e6000

tryItOut 884
Compiling threw: SyntaxError: syntax error

tryItOut 885

tryItOut 886
Running threw: 

tryItOut 887
Compiling threw: SyntaxError: missing ; before statement

tryItOut 888
Running threw: ReferenceError: __iterator__ is not defined

tryItOut 889

tryItOut 890

tryItOut 891
It's an iterator!
Iterating succeeded, iterCount == 0

tryItOut 892
Compiling threw: SyntaxError: invalid flag after regular expression

tryItOut 893

tryItOut 894

tryItOut 895
Compiling threw: SyntaxError: missing : after property id

tryItOut 896
Compiling threw: SyntaxError: missing ; before statement

tryItOut 897
Compiling threw: SyntaxError: missing } in compound statement

tryItOut 898

tryItOut 899
Compiling threw: SyntaxError: invalid assignment left-hand side

tryItOut 900
Compiling threw: SyntaxError: invalid flag after regular expression

tryItOut 901
Compiling threw: SyntaxError: invalid for/in left-hand side

tryItOut 902
Compiling threw: SyntaxError: missing ; before statement

tryItOut 903
Running threw: ReferenceError: __proto__ is not defined

tryItOut 904
Compiling threw: SyntaxError: invalid break

tryItOut 905
Running threw: ReferenceError: reference to undefined property "__proto__"

tryItOut 906

tryItOut 907
Compiling threw: SyntaxError: invalid assignment left-hand side

tryItOut 908
Running threw: ReferenceError: z is not defined

tryItOut 909
Compiling threw: SyntaxError: missing ; before statement

tryItOut 910
Compiling threw: SyntaxError: missing variable name

tryItOut 911

tryItOut 912
Compiling threw: SyntaxError: invalid break

tryItOut 913

tryItOut 914

tryItOut 915
Compiling threw: SyntaxError: missing ) in parenthetical

tryItOut 916

tryItOut 917

tryItOut 918

tryItOut 919
Running threw: TypeError: ({a1:1}) is not a function

tryItOut 920
Compiling threw: SyntaxError: invalid increment operand

tryItOut 921
Compiling threw: SyntaxError: missing ) after argument list

tryItOut 922

tryItOut 923

tryItOut 924

tryItOut 925
Compiling threw: SyntaxError: label not found

tryItOut 926
Running threw: ReferenceError: __proto__ is not defined

tryItOut 927
Compiling threw: SyntaxError: label not found

tryItOut 928

tryItOut 929
It's an iterator!
Iterating threw!
Iterating threw: ReferenceError: window is not defined

tryItOut 930
It's an iterator!
Iterating threw!
Iterating threw: ReferenceError: window is not defined

tryItOut 931

tryItOut 932
Compiling threw: SyntaxError: missing } after let block

tryItOut 933

tryItOut 934
before 174400, after 174400, break 018e6000

tryItOut 935

tryItOut 936

tryItOut 937
Compiling threw: SyntaxError: missing ) in parenthetical

tryItOut 938
Compiling threw: SyntaxError: syntax error

tryItOut 939
Compiling threw: SyntaxError: invalid XML list syntax

tryItOut 940

tryItOut 941

tryItOut 942
Running threw: ReferenceError: __proto__ is not defined

tryItOut 943
Running threw: [object Object]

tryItOut 944

tryItOut 945

tryItOut 946
It's an iterator!
Iterating threw!
Iterating threw: ReferenceError: z1 is not defined

tryItOut 947

tryItOut 948

tryItOut 949
Compiling threw: SyntaxError: invalid assignment left-hand side

tryItOut 950
Compiling threw: SyntaxError: label not found

tryItOut 951

tryItOut 952

tryItOut 953
Compiling threw: SyntaxError: missing ; before statement

tryItOut 954

tryItOut 955

tryItOut 956

tryItOut 957
before 174400, after 174400, break 018e6000

tryItOut 958
Compiling threw: SyntaxError: label not found

tryItOut 959

tryItOut 960
It's an iterator!
Iterating succeeded, iterCount == 1

tryItOut 961
Compiling threw: SyntaxError: label not found

tryItOut 962
Running threw: ReferenceError: z1 is not defined

tryItOut 963
It's an iterator!
Iterating threw!
Iterating threw: TypeError: XML filtering predicate operator called on incompatible global

tryItOut 964

tryItOut 965

tryItOut 966

tryItOut 967

tryItOut 968
It's an iterator!
Iterating succeeded, iterCount == 1

tryItOut 969

tryItOut 970
Running threw: ReferenceError: window is not defined

tryItOut 971
Compiling threw: SyntaxError: invalid break

tryItOut 972

tryItOut 973
Compiling threw: SyntaxError: missing } after let block

tryItOut 974
Compiling threw: SyntaxError: label not found

tryItOut 975

tryItOut 976

tryItOut 977
Compiling threw: SyntaxError: label not found

tryItOut 978
Compiling threw: TypeError: redeclaration of const __iterator__

tryItOut 979
Compiling threw: SyntaxError: label not found

tryItOut 980
Compiling threw: SyntaxError: missing ; before statement

tryItOut 981
Compiling threw: SyntaxError: missing { before function body

tryItOut 982

tryItOut 983
It's an iterator!
Iterating threw!
Iterating threw: ReferenceError: window is not defined

tryItOut 984

tryItOut 985
Running threw: 

tryItOut 986
Compiling threw: SyntaxError: illegal XML character

tryItOut 987

tryItOut 988
Running threw: ReferenceError: __proto__ is not defined

tryItOut 989
Running threw: ReferenceError: __iterator__ is not defined

tryItOut 990
Compiling threw: SyntaxError: label not found

tryItOut 991
Running threw: TypeError: [undefined] is not a function

tryItOut 992

tryItOut 993
Compiling threw: SyntaxError: missing ) after argument list

tryItOut 994
Compiling threw: SyntaxError: missing ; before statement

tryItOut 995
Compiling threw: SyntaxError: invalid increment operand

tryItOut 996
Compiling threw: SyntaxError: missing } after let block

tryItOut 997
It's an iterator!
Iterating threw!
Iterating threw: ReferenceError: window is not defined

tryItOut 998
Running threw: ReferenceError: __iterator__ is not defined

tryItOut 999
Compiling threw: SyntaxError: syntax error

tryItOut 1000

ALL OK

Script done on Sat 04 May 2013 06:40:46 AM PDT
