Script started on Sat 04 May 2013 06:42:24 AM PDT
***
Targeting SpiderMonkey / Gecko.

tryItOut 1
It's an iterator!
Iterating threw!
Iterating threw: ReferenceError: z1 is not defined

tryItOut 2
It's an iterator!
Iterating succeeded, iterCount == 1

tryItOut 3

tryItOut 4

tryItOut 5
before 69760, after 69760, break 00dc5000

tryItOut 6
Running threw: TypeError: __parent__ has no properties

tryItOut 7
Compiling threw: SyntaxError: invalid assignment left-hand side

tryItOut 8
Compiling threw: SyntaxError: invalid for/in left-hand side

tryItOut 9
It's an iterator!
Iterating succeeded, iterCount == 1

tryItOut 10

tryItOut 11
Compiling threw: SyntaxError: invalid for/in left-hand side

tryItOut 12
It's an iterator!
Iterating succeeded, iterCount == 0

tryItOut 13

tryItOut 14
Running threw: ReferenceError: window is not defined

tryItOut 15
Compiling threw: SyntaxError: missing ; before statement

tryItOut 16
before 87200, after 87200, break 00dc5000

tryItOut 17
It's an iterator!
Iterating threw!
Iterating threw: TypeError: arguments.@foo has no properties

tryItOut 18

tryItOut 19
Compiling threw: SyntaxError: invalid continue

tryItOut 20
Compiling threw: SyntaxError: syntax error

tryItOut 21
Compiling threw: SyntaxError: syntax error

tryItOut 22
Running threw: ReferenceError: window is not defined

tryItOut 23
Compiling threw: SyntaxError: syntax error

tryItOut 24
Compiling threw: SyntaxError: illegal XML character

tryItOut 25
Compiling threw: TypeError: generator function anonymous returns a value

tryItOut 26
It's an iterator!
Iterating succeeded, iterCount == 1

tryItOut 27

tryItOut 28
Compiling threw: SyntaxError: label not found

tryItOut 29
Compiling threw: SyntaxError: syntax error

tryItOut 30

tryItOut 31
It's an iterator!
Iterating succeeded, iterCount == 1

tryItOut 32
before 87200, after 87200, break 00dc5000

tryItOut 33
Compiling threw: SyntaxError: missing ) after argument list

tryItOut 34
It's an iterator!
Iterating succeeded, iterCount == 0

tryItOut 35

tryItOut 36
Compiling threw: SyntaxError: invalid assignment left-hand side

tryItOut 37
Compiling threw: SyntaxError: missing ; before statement

tryItOut 38
Running threw: [object StopIteration]

tryItOut 39
Compiling threw: SyntaxError: missing ; after for-loop condition

tryItOut 40

tryItOut 41
Compiling threw: SyntaxError: missing { before function body

tryItOut 42

tryItOut 43
Compiling threw: SyntaxError: missing } after let block

tryItOut 44
Compiling threw: SyntaxError: missing : after property id

tryItOut 45
It's an iterator!
Iterating threw!
Iterating threw: Error: invalid sharp variable use #1#

tryItOut 46

tryItOut 47
Compiling threw: SyntaxError: syntax error

tryItOut 48

tryItOut 49
Compiling threw: SyntaxError: missing variable name

tryItOut 50
Compiling threw: SyntaxError: invalid break

tryItOut 51
It's an iterator!
Iterating succeeded, iterCount == 1

tryItOut 52
Running threw: [object StopIteration]

tryItOut 53

tryItOut 54
Compiling threw: SyntaxError: missing { before function body

tryItOut 55

tryItOut 56
Compiling threw: SyntaxError: missing ; after for-loop initializer

tryItOut 57
Compiling threw: SyntaxError: invalid for/in left-hand side

tryItOut 58

tryItOut 59

tryItOut 60
Compiling threw: SyntaxError: missing ) in parenthetical

tryItOut 61

tryItOut 62
Compiling threw: SyntaxError: missing variable name

tryItOut 63
Compiling threw: SyntaxError: invalid for/in left-hand side

tryItOut 64
Running threw: TypeError: undefined has no properties

tryItOut 65
Compiling threw: SyntaxError: missing ; after for-loop initializer

tryItOut 66
Compiling threw: SyntaxError: illegal XML character

tryItOut 67

tryItOut 68
Compiling threw: SyntaxError: missing formal parameter

tryItOut 69
Compiling threw: SyntaxError: invalid continue

tryItOut 70
Compiling threw: SyntaxError: missing ; before statement

tryItOut 71
Compiling threw: SyntaxError: syntax error

tryItOut 72

tryItOut 73
Compiling threw: SyntaxError: missing ; before statement

tryItOut 74
Compiling threw: SyntaxError: invalid for/in left-hand side

tryItOut 75
It's an iterator!
Iterating succeeded, iterCount == 1

tryItOut 76
Compiling threw: SyntaxError: invalid increment operand

tryItOut 77

tryItOut 78
Running threw: ReferenceError: window is not defined

tryItOut 79
Compiling threw: SyntaxError: missing } after let block

tryItOut 80
Compiling threw: SyntaxError: missing { before function body

tryItOut 81
Compiling threw: SyntaxError: missing variable name

tryItOut 82

tryItOut 83
Compiling threw: SyntaxError: label not found

tryItOut 84
Compiling threw: SyntaxError: missing variable name

tryItOut 85

tryItOut 86
Compiling threw: SyntaxError: invalid for/in left-hand side

tryItOut 87
Compiling threw: SyntaxError: missing { before function body

tryItOut 88

tryItOut 89

tryItOut 90

tryItOut 91

tryItOut 92
Compiling threw: SyntaxError: syntax error

tryItOut 93

tryItOut 94
Compiling threw: SyntaxError: missing ) in parenthetical

tryItOut 95
It's an iterator!
Iterating succeeded, iterCount == 1

tryItOut 96
Compiling threw: SyntaxError: missing variable name

tryItOut 97
Compiling threw: SyntaxError: syntax error

tryItOut 98
Compiling threw: SyntaxError: syntax error

tryItOut 99
It's an iterator!
Iterating succeeded, iterCount == 1

tryItOut 100
Compiling threw: SyntaxError: missing variable name

tryItOut 101
Compiling threw: SyntaxError: illegal XML character

tryItOut 102
It's an iterator!
Iterating succeeded, iterCount == 1

tryItOut 103
Compiling threw: SyntaxError: label not found

tryItOut 104
It's an iterator!
before 104640, after 104640, break 00dfa000
Iterating succeeded, iterCount == 0

tryItOut 105
Compiling threw: SyntaxError: label not found

tryItOut 106
It's an iterator!
Iterating succeeded, iterCount == 1

tryItOut 107
Compiling threw: SyntaxError: label not found

tryItOut 108
It's an iterator!
Iterating threw!
Iterating threw: TypeError: redeclaration of var __proto__

tryItOut 109

tryItOut 110

tryItOut 111

tryItOut 112
before 104640, after 104640, break 00dfa000

tryItOut 113
It's an iterator!
Iterating threw!
Iterating threw: TypeError: XML filtering predicate operator called on incompatible Number

tryItOut 114
Compiling threw: SyntaxError: syntax error

tryItOut 115

tryItOut 116
Compiling threw: SyntaxError: label not found

tryItOut 117
Compiling threw: SyntaxError: missing ] after element list

tryItOut 118
Compiling threw: SyntaxError: missing { before function body

tryItOut 119
Compiling threw: SyntaxError: missing variable name

tryItOut 120
before 104640, after 104640, break 00dfa000

tryItOut 121
Compiling threw: SyntaxError: syntax error

tryItOut 122
Compiling threw: SyntaxError: invalid for/in left-hand side

tryItOut 123
Compiling threw: SyntaxError: missing ; before statement

tryItOut 124

tryItOut 125
Compiling threw: SyntaxError: missing variable name

tryItOut 126

tryItOut 127

tryItOut 128
It's an iterator!
Iterating succeeded, iterCount == 1

tryItOut 129
Compiling threw: SyntaxError: missing ; after for-loop initializer

tryItOut 130

tryItOut 131

tryItOut 132
Running threw: ReferenceError: window is not defined

tryItOut 133
Compiling threw: SyntaxError: syntax error

tryItOut 134
Compiling threw: SyntaxError: invalid break

tryItOut 135
Compiling threw: SyntaxError: syntax error

tryItOut 136
It's an iterator!
before 104640, after 104640, break 00dfa000
Iterating succeeded, iterCount == 0

tryItOut 137
It's an iterator!
Iterating succeeded, iterCount == 1

tryItOut 138
Compiling threw: SyntaxError: missing ; before statement

tryItOut 139

tryItOut 140
Compiling threw: SyntaxError: missing ; before statement

tryItOut 141
It's an iterator!
Iterating threw!
Iterating threw: ReferenceError: window is not defined

tryItOut 142
It's an iterator!
Iterating succeeded, iterCount == 1

tryItOut 143
Compiling threw: SyntaxError: missing variable name

tryItOut 144
Compiling threw: SyntaxError: missing variable name

tryItOut 145
Compiling threw: SyntaxError: missing : after property id

tryItOut 146
Compiling threw: SyntaxError: invalid break

tryItOut 147
Compiling threw: SyntaxError: missing ) after for-loop control

tryItOut 148
Running threw: [object StopIteration]

tryItOut 149

tryItOut 150
Compiling threw: SyntaxError: syntax error

tryItOut 151
Compiling threw: SyntaxError: missing ; before statement

tryItOut 152

tryItOut 153
It's an iterator!
Iterating succeeded, iterCount == 1

tryItOut 154
Compiling threw: SyntaxError: invalid continue

tryItOut 155
Compiling threw: SyntaxError: missing ) after condition

tryItOut 156
before 104640, after 104640, break 00dfa000

tryItOut 157
Compiling threw: SyntaxError: invalid continue

tryItOut 158
Compiling threw: SyntaxError: invalid for/in left-hand side

tryItOut 159

tryItOut 160
Compiling threw: SyntaxError: invalid continue

tryItOut 161
Compiling threw: SyntaxError: missing { before function body

tryItOut 162

tryItOut 163
Compiling threw: SyntaxError: invalid break

tryItOut 164

tryItOut 165
It's an iterator!
Iterating succeeded, iterCount == 1

tryItOut 166
It's an iterator!
Iterating succeeded, iterCount == 1

tryItOut 167
Compiling threw: SyntaxError: missing name after . operator

tryItOut 168
Compiling threw: SyntaxError: missing ] after element list

tryItOut 169
Running threw: TypeError: p.z = prototype = {a1:1} is not a function

tryItOut 170
Compiling threw: SyntaxError: invalid assignment left-hand side

tryItOut 171
Compiling threw: SyntaxError: label not found

tryItOut 172
Compiling threw: SyntaxError: missing ) after argument list

tryItOut 173
Compiling threw: SyntaxError: invalid for/in left-hand side

tryItOut 174
Compiling threw: SyntaxError: missing ; before statement

tryItOut 175
Compiling threw: SyntaxError: missing } after let block

tryItOut 176
Compiling threw: SyntaxError: missing } after let block

tryItOut 177
Running threw: SyntaxError: illegal XML character

tryItOut 178
It's an iterator!
Iterating succeeded, iterCount == 1

tryItOut 179
Compiling threw: SyntaxError: syntax error

tryItOut 180
Compiling threw: SyntaxError: label not found

tryItOut 181
Running threw: ReferenceError: window is not defined

tryItOut 182
Compiling threw: SyntaxError: syntax error

tryItOut 183
Running threw: ReferenceError: window is not defined

tryItOut 184
It's an iterator!
Iterating succeeded, iterCount == 2

tryItOut 185
Compiling threw: SyntaxError: invalid break

tryItOut 186
Compiling threw: SyntaxError: missing ) in parenthetical

tryItOut 187

tryItOut 188

tryItOut 189
It's an iterator!
before 104640, after 104640, break 00dfa000
Iterating succeeded, iterCount == 1

tryItOut 190
Running threw: ReferenceError: z1 is not defined

tryItOut 191
Compiling threw: SyntaxError: invalid increment operand

tryItOut 192
Compiling threw: SyntaxError: invalid for/in left-hand side

tryItOut 193

tryItOut 194
Running threw: ReferenceError: z2 is not defined

tryItOut 195
Compiling threw: SyntaxError: invalid assignment left-hand side

tryItOut 196

tryItOut 197
Compiling threw: SyntaxError: invalid for/in left-hand side

tryItOut 198

tryItOut 199

tryItOut 200
Compiling threw: SyntaxError: missing : after property id

tryItOut 201

tryItOut 202
Compiling threw: SyntaxError: invalid assignment left-hand side

tryItOut 203
Compiling threw: SyntaxError: invalid for/in left-hand side

tryItOut 204
Compiling threw: SyntaxError: invalid break

tryItOut 205
Compiling threw: SyntaxError: missing ) in parenthetical

tryItOut 206

tryItOut 207
It's an iterator!
Iterating succeeded, iterCount == 0

tryItOut 208
before 104640, after 104640, break 00dfa000

tryItOut 209

tryItOut 210
Compiling threw: SyntaxError: invalid default XML namespace

tryItOut 211

tryItOut 212
Compiling threw: SyntaxError: missing ] after element list

tryItOut 213
Compiling threw: SyntaxError: invalid for/in left-hand side

tryItOut 214
Running threw: TypeError: this.zzz has no properties

tryItOut 215

tryItOut 216
Compiling threw: SyntaxError: missing ] after element list

tryItOut 217
Compiling threw: SyntaxError: invalid sharp variable definition

tryItOut 218
Compiling threw: SyntaxError: label not found

tryItOut 219
Running threw: ReferenceError: window is not defined

tryItOut 220
Running threw: [object StopIteration]

tryItOut 221
It's an iterator!
Iterating succeeded, iterCount == 1

tryItOut 222

tryItOut 223
Compiling threw: SyntaxError: label not found

tryItOut 224
Compiling threw: SyntaxError: label not found

tryItOut 225
It's an iterator!
Iterating succeeded, iterCount == 1

tryItOut 226

tryItOut 227
Compiling threw: SyntaxError: missing { before function body

tryItOut 228
Compiling threw: SyntaxError: missing { before function body

tryItOut 229

tryItOut 230
Running threw: [object StopIteration]

tryItOut 231
Compiling threw: SyntaxError: missing variable name

tryItOut 232
Compiling threw: SyntaxError: missing } after finally block

tryItOut 233
Compiling threw: SyntaxError: missing ; before statement

tryItOut 234
Compiling threw: SyntaxError: invalid assignment left-hand side

tryItOut 235
Compiling threw: SyntaxError: label not found

tryItOut 236

tryItOut 237
It's an iterator!
Iterating succeeded, iterCount == 1

tryItOut 238
Running threw: ReferenceError: window is not defined

tryItOut 239
It's an iterator!
Iterating succeeded, iterCount == 1

tryItOut 240

tryItOut 241
Compiling threw: SyntaxError: missing variable name

tryItOut 242
Running threw: [object StopIteration]

tryItOut 243
It's an iterator!
Iterating succeeded, iterCount == 1

tryItOut 244
Compiling threw: SyntaxError: invalid assignment left-hand side

tryItOut 245
Compiling threw: SyntaxError: invalid assignment left-hand side

tryItOut 246
Compiling threw: SyntaxError: missing variable name

tryItOut 247
before 122080, after 122080, break 00e13000
before 122080, after 122080, break 00e13000

tryItOut 248
Compiling threw: SyntaxError: syntax error

tryItOut 249

tryItOut 250

tryItOut 251

tryItOut 252

tryItOut 253

tryItOut 254

tryItOut 255
Compiling threw: SyntaxError: missing : after property id

tryItOut 256
Compiling threw: SyntaxError: missing { before function body

tryItOut 257
Running threw: [object StopIteration]

tryItOut 258

tryItOut 259

tryItOut 260
Compiling threw: SyntaxError: missing = in destructuring declaration

tryItOut 261

tryItOut 262
Running threw: ReferenceError: z1 is not defined

tryItOut 263
Compiling threw: SyntaxError: syntax error

tryItOut 264
Compiling threw: SyntaxError: invalid decrement operand

tryItOut 265
before 122080, after 122080, break 00e13000

tryItOut 266
Compiling threw: SyntaxError: missing while after do-loop body

tryItOut 267
Compiling threw: SyntaxError: invalid decrement operand

tryItOut 268

tryItOut 269
Compiling threw: SyntaxError: syntax error

tryItOut 270
Compiling threw: SyntaxError: invalid decrement operand

tryItOut 271

tryItOut 272
Running threw: [object StopIteration]

tryItOut 273
Compiling threw: SyntaxError: label not found

tryItOut 274

tryItOut 275
Compiling threw: SyntaxError: invalid break

tryItOut 276
Compiling threw: SyntaxError: syntax error

tryItOut 277
Running threw: ReferenceError: window is not defined

tryItOut 278
It's an iterator!
Iterating succeeded, iterCount == 1

tryItOut 279

tryItOut 280
Compiling threw: SyntaxError: missing ; before statement

tryItOut 281
Running threw: ReferenceError: window is not defined

tryItOut 282
Running threw: ReferenceError: window is not defined

tryItOut 283
Compiling threw: SyntaxError: syntax error

tryItOut 284

tryItOut 285
Compiling threw: SyntaxError: missing { before function body

tryItOut 286

tryItOut 287

tryItOut 288
Compiling threw: SyntaxError: invalid assignment left-hand side

tryItOut 289
Running threw: [object StopIteration]

tryItOut 290
It's an iterator!
Iterating succeeded, iterCount == 1

tryItOut 291
Compiling threw: SyntaxError: missing ) in parenthetical

tryItOut 292
It's an iterator!
Iterating succeeded, iterCount == 1

tryItOut 293
Compiling threw: SyntaxError: invalid continue

tryItOut 294
Compiling threw: SyntaxError: missing ) after argument list

tryItOut 295

tryItOut 296
It's an iterator!
Iterating succeeded, iterCount == 1

tryItOut 297
Compiling threw: SyntaxError: invalid for/in left-hand side

tryItOut 298
Compiling threw: SyntaxError: invalid assignment left-hand side

tryItOut 299
Compiling threw: SyntaxError: missing in after for

tryItOut 300
It's an iterator!
Iterating succeeded, iterCount == 1

tryItOut 301
Compiling threw: SyntaxError: missing variable name

tryItOut 302
Compiling threw: SyntaxError: invalid continue

tryItOut 303
Compiling threw: SyntaxError: missing { before function body

tryItOut 304

tryItOut 305

tryItOut 306
Running threw: [object StopIteration]

tryItOut 307

tryItOut 308

tryItOut 309
Compiling threw: SyntaxError: missing ; before statement

tryItOut 310
Compiling threw: SyntaxError: missing variable name

tryItOut 311
Compiling threw: SyntaxError: missing variable name

tryItOut 312
Compiling threw: SyntaxError: invalid decrement operand

tryItOut 313
Compiling threw: SyntaxError: missing variable name

tryItOut 314
Compiling threw: SyntaxError: syntax error

tryItOut 315

tryItOut 316
Running threw: TypeError: arguments[0] has no properties

tryItOut 317

tryItOut 318
before 139520, after 139520, break 00e2f000
Running threw: ReferenceError: window is not defined

tryItOut 319
It's an iterator!
Iterating threw!
Iterating threw: TypeError: XML filtering predicate operator called on incompatible global

tryItOut 320
Compiling threw: SyntaxError: missing ) after condition

tryItOut 321

tryItOut 322
Running threw: ReferenceError: z2 is not defined

tryItOut 323

tryItOut 324
Compiling threw: SyntaxError: invalid XML qualified name

tryItOut 325
It's an iterator!
Iterating succeeded, iterCount == 1

tryItOut 326

tryItOut 327
It's an iterator!
Iterating threw!
Iterating threw: TypeError: this.yoyo is not a function

tryItOut 328

tryItOut 329
Compiling threw: SyntaxError: missing ) in parenthetical

tryItOut 330

tryItOut 331
Running threw: TypeError: __parent__ has no properties

tryItOut 332
It's an iterator!
Iterating threw!
Iterating threw: ReferenceError: window is not defined

tryItOut 333

tryItOut 334
It's an iterator!
Iterating threw!
Iterating threw: ReferenceError: window is not defined

tryItOut 335
Compiling threw: SyntaxError: invalid continue

tryItOut 336

tryItOut 337
Compiling threw: SyntaxError: missing variable name

tryItOut 338
Compiling threw: SyntaxError: invalid for/in left-hand side

tryItOut 339
Compiling threw: SyntaxError: label not found

tryItOut 340
Compiling threw: SyntaxError: invalid break

tryItOut 341
Compiling threw: SyntaxError: syntax error

tryItOut 342
Compiling threw: SyntaxError: invalid increment operand

tryItOut 343
Compiling threw: SyntaxError: invalid destructuring assignment operator

tryItOut 344

tryItOut 345
Compiling threw: SyntaxError: missing ; after for-loop initializer

tryItOut 346
It's an iterator!
Iterating succeeded, iterCount == 1

tryItOut 347
Compiling threw: SyntaxError: missing ) after condition

tryItOut 348

tryItOut 349
It's an iterator!
Iterating succeeded, iterCount == 1

tryItOut 350
Compiling threw: SyntaxError: missing } after let block

tryItOut 351
Compiling threw: SyntaxError: missing } after let block

tryItOut 352
Running threw: ReferenceError: window is not defined

tryItOut 353
Running threw: ReferenceError: window is not defined

tryItOut 354
Compiling threw: SyntaxError: invalid assignment left-hand side

tryItOut 355
Compiling threw: SyntaxError: invalid break

tryItOut 356

tryItOut 357
Compiling threw: SyntaxError: missing ] after element list

tryItOut 358
Compiling threw: SyntaxError: syntax error

tryItOut 359

tryItOut 360
Compiling threw: SyntaxError: missing variable name

tryItOut 361

tryItOut 362

tryItOut 363

tryItOut 364

tryItOut 365
Compiling threw: SyntaxError: label not found

tryItOut 366
Compiling threw: SyntaxError: missing ; after for-loop initializer

tryItOut 367

tryItOut 368

tryItOut 369
Compiling threw: SyntaxError: missing ] after element list

tryItOut 370
Compiling threw: SyntaxError: syntax error

tryItOut 371
Compiling threw: SyntaxError: syntax error

tryItOut 372
Compiling threw: SyntaxError: invalid continue

tryItOut 373

tryItOut 374
before 139520, after 139520, break 00e2f000

tryItOut 375

tryItOut 376
Compiling threw: SyntaxError: missing ; after for-loop initializer

tryItOut 377

tryItOut 378
Compiling threw: SyntaxError: invalid continue

tryItOut 379

tryItOut 380
Running threw: ReferenceError: window is not defined

tryItOut 381

tryItOut 382
Compiling threw: SyntaxError: missing { before function body

tryItOut 383
It's an iterator!
Iterating succeeded, iterCount == 1

tryItOut 384
before 139520, after 139520, break 00e2f000

tryItOut 385
Compiling threw: SyntaxError: missing ; before statement

tryItOut 386
It's an iterator!
Iterating threw!
Iterating threw: ReferenceError: window is not defined

tryItOut 387
Compiling threw: SyntaxError: missing { before function body

tryItOut 388
Compiling threw: SyntaxError: missing ] after element list

tryItOut 389
Compiling threw: SyntaxError: missing while after do-loop body

tryItOut 390
It's an iterator!
Iterating succeeded, iterCount == 1

tryItOut 391
Compiling threw: SyntaxError: invalid destructuring assignment operator

tryItOut 392
Compiling threw: SyntaxError: missing in after for

tryItOut 393
Compiling threw: SyntaxError: label not found

tryItOut 394
Compiling threw: SyntaxError: missing } after let block

tryItOut 395
It's an iterator!
Iterating threw!
Iterating threw: ReferenceError: z2 is not defined

tryItOut 396
Compiling threw: SyntaxError: illegal XML character

tryItOut 397
Compiling threw: SyntaxError: illegal XML character

tryItOut 398
Compiling threw: SyntaxError: missing = in destructuring declaration

tryItOut 399

tryItOut 400
Compiling threw: SyntaxError: missing { before function body

tryItOut 401
It's an iterator!
Iterating succeeded, iterCount == 1

tryItOut 402
Running threw: ReferenceError: window is not defined

tryItOut 403
Compiling threw: SyntaxError: missing ) in parenthetical

tryItOut 404
Compiling threw: SyntaxError: missing ] after element list

tryItOut 405
Compiling threw: SyntaxError: missing { before function body

tryItOut 406
before 139520, after 139520, break 00e40000

tryItOut 407

tryItOut 408
Compiling threw: SyntaxError: invalid for/in left-hand side

tryItOut 409
Compiling threw: SyntaxError: invalid destructuring assignment operator

tryItOut 410
Compiling threw: SyntaxError: syntax error

tryItOut 411

tryItOut 412

tryItOut 413
Compiling threw: SyntaxError: missing variable name

tryItOut 414
Compiling threw: SyntaxError: missing ) in parenthetical

tryItOut 415

tryItOut 416

tryItOut 417
It's an iterator!
Iterating threw!
Iterating threw: ReferenceError: window is not defined

tryItOut 418

tryItOut 419

tryItOut 420
Running threw: ReferenceError: z1 is not defined

tryItOut 421
Compiling threw: SyntaxError: missing in after for

tryItOut 422
Compiling threw: SyntaxError: syntax error

tryItOut 423
Compiling threw: SyntaxError: invalid for/in left-hand side

tryItOut 424
Compiling threw: SyntaxError: missing { before function body

tryItOut 425

tryItOut 426
Compiling threw: SyntaxError: missing { before function body

tryItOut 427

tryItOut 428
Compiling threw: SyntaxError: invalid for/in left-hand side

tryItOut 429

tryItOut 430
Compiling threw: SyntaxError: missing { before function body

tryItOut 431

tryItOut 432
It's an iterator!
Iterating succeeded, iterCount == 1

tryItOut 433

tryItOut 434

tryItOut 435

tryItOut 436
Running threw: ReferenceError: z1 is not defined

tryItOut 437
Compiling threw: SyntaxError: illegal XML character

tryItOut 438

tryItOut 439
It's an iterator!
Iterating succeeded, iterCount == 1

tryItOut 440
Compiling threw: SyntaxError: missing { before function body

tryItOut 441
Compiling threw: SyntaxError: unterminated string literal

tryItOut 442
Compiling threw: SyntaxError: missing variable name

tryItOut 443
Compiling threw: SyntaxError: syntax error

tryItOut 444

tryItOut 445
Running threw: [object StopIteration]

tryItOut 446

tryItOut 447
Running threw: TypeError: 3.141592653589793 is not a function

tryItOut 448
Compiling threw: SyntaxError: missing ) in parenthetical

tryItOut 449
Compiling threw: SyntaxError: missing variable name

tryItOut 450

tryItOut 451

tryItOut 452
Compiling threw: SyntaxError: invalid continue

tryItOut 453

tryItOut 454
Compiling threw: SyntaxError: missing variable name

tryItOut 455
Compiling threw: SyntaxError: invalid for/in left-hand side

tryItOut 456
Compiling threw: SyntaxError: missing { before function body

tryItOut 457
Compiling threw: SyntaxError: invalid increment operand

tryItOut 458
Compiling threw: TypeError: generator function anonymous returns a value

tryItOut 459
Running threw: ReferenceError: window is not defined

tryItOut 460
Compiling threw: SyntaxError: missing } after let block

tryItOut 461

tryItOut 462
Compiling threw: SyntaxError: missing ; before statement

tryItOut 463
Compiling threw: SyntaxError: syntax error

tryItOut 464

tryItOut 465
Compiling threw: SyntaxError: invalid for/in left-hand side

tryItOut 466

tryItOut 467
Compiling threw: SyntaxError: missing : after property id

tryItOut 468

tryItOut 469

tryItOut 470
Compiling threw: SyntaxError: missing = in destructuring declaration

tryItOut 471
Compiling threw: SyntaxError: invalid continue

tryItOut 472
Compiling threw: SyntaxError: label not found

tryItOut 473
Compiling threw: SyntaxError: invalid for/in left-hand side

tryItOut 474

tryItOut 475

tryItOut 476
Compiling threw: SyntaxError: missing ) in parenthetical

tryItOut 477
Compiling threw: SyntaxError: label not found

tryItOut 478
Compiling threw: SyntaxError: invalid assignment left-hand side

tryItOut 479
Compiling threw: SyntaxError: invalid continue

tryItOut 480
Compiling threw: SyntaxError: invalid assignment left-hand side

tryItOut 481
Compiling threw: SyntaxError: missing ; before statement

tryItOut 482
Compiling threw: SyntaxError: syntax error

tryItOut 483
Compiling threw: SyntaxError: label not found

tryItOut 484
Compiling threw: SyntaxError: syntax error

tryItOut 485
Compiling threw: SyntaxError: missing ] after element list

tryItOut 486
Running threw: ReferenceError: z2 is not defined

tryItOut 487

tryItOut 488
Compiling threw: SyntaxError: duplicate label

tryItOut 489

tryItOut 490

tryItOut 491
Compiling threw: SyntaxError: invalid continue

tryItOut 492
Compiling threw: SyntaxError: missing ) after condition

tryItOut 493

tryItOut 494
Compiling threw: SyntaxError: illegal XML character

tryItOut 495
Compiling threw: SyntaxError: label not found

tryItOut 496
Compiling threw: SyntaxError: missing ) in parenthetical

tryItOut 497

tryItOut 498

tryItOut 499

tryItOut 500
Compiling threw: SyntaxError: missing variable name

tryItOut 501

tryItOut 502
Compiling threw: SyntaxError: missing ; before statement

tryItOut 503

tryItOut 504
Compiling threw: SyntaxError: missing { before function body

tryItOut 505
Compiling threw: SyntaxError: syntax error

tryItOut 506

tryItOut 507
It's an iterator!
Iterating threw!
Iterating threw: ReferenceError: window is not defined

tryItOut 508
Compiling threw: SyntaxError: syntax error

tryItOut 509
Compiling threw: SyntaxError: label not found

tryItOut 510
Compiling threw: SyntaxError: syntax error

tryItOut 511
Compiling threw: SyntaxError: missing variable name

tryItOut 512

tryItOut 513
Compiling threw: SyntaxError: missing ; before statement

tryItOut 514

tryItOut 515
It's an iterator!
Iterating threw!
Iterating threw: ReferenceError: window is not defined

tryItOut 516
Running threw: TypeError: arguments[0] has no properties

tryItOut 517

tryItOut 518

tryItOut 519
Compiling threw: SyntaxError: missing ; after for-loop initializer

tryItOut 520

tryItOut 521
Compiling threw: SyntaxError: syntax error

tryItOut 522
Compiling threw: SyntaxError: missing formal parameter

tryItOut 523

tryItOut 524

tryItOut 525

tryItOut 526
Compiling threw: SyntaxError: missing { before function body

tryItOut 527
Compiling threw: SyntaxError: syntax error

tryItOut 528
Compiling threw: SyntaxError: missing while after do-loop body

tryItOut 529

tryItOut 530
Compiling threw: SyntaxError: invalid break

tryItOut 531
Compiling threw: SyntaxError: missing variable name

tryItOut 532
It's an iterator!
Iterating succeeded, iterCount == 1

tryItOut 533
Compiling threw: SyntaxError: syntax error

tryItOut 534

tryItOut 535
Compiling threw: SyntaxError: syntax error

tryItOut 536
Compiling threw: SyntaxError: missing variable name

tryItOut 537
Compiling threw: SyntaxError: syntax error

tryItOut 538

tryItOut 539
Compiling threw: SyntaxError: missing variable name

tryItOut 540
Compiling threw: SyntaxError: label not found

tryItOut 541
Compiling threw: SyntaxError: invalid for/in left-hand side

tryItOut 542
Compiling threw: SyntaxError: invalid continue

tryItOut 543
Compiling threw: SyntaxError: missing variable name

tryItOut 544

tryItOut 545

tryItOut 546
Compiling threw: SyntaxError: syntax error

tryItOut 547
Compiling threw: SyntaxError: unterminated regular expression literal

tryItOut 548

tryItOut 549

tryItOut 550
Compiling threw: SyntaxError: missing variable name

tryItOut 551
Compiling threw: SyntaxError: missing { before function body

tryItOut 552
Running threw: TypeError: __parent__ has no properties

tryItOut 553
Compiling threw: SyntaxError: missing { before function body

tryItOut 554
Compiling threw: SyntaxError: invalid decrement operand

tryItOut 555
Compiling threw: SyntaxError: syntax error

tryItOut 556
Compiling threw: SyntaxError: missing } after let block

tryItOut 557
Compiling threw: SyntaxError: missing formal parameter

tryItOut 558
Compiling threw: SyntaxError: invalid continue

tryItOut 559
Compiling threw: SyntaxError: invalid assignment left-hand side

tryItOut 560

tryItOut 561
It's an iterator!
Iterating threw!
Iterating threw: ReferenceError: window is not defined

tryItOut 562
Running threw: ReferenceError: window is not defined

tryItOut 563
Running threw: ReferenceError: window is not defined

tryItOut 564
Compiling threw: TypeError: generator function anonymous returns a value

tryItOut 565
Running threw: ReferenceError: window is not defined

tryItOut 566
It's an iterator!
Iterating succeeded, iterCount == 1

tryItOut 567
Compiling threw: SyntaxError: invalid XML tag syntax

tryItOut 568
It's an iterator!
before 191840, after 191840, break 00eda000
Iterating succeeded, iterCount == 1

tryItOut 569
Compiling threw: SyntaxError: missing ) in parenthetical

tryItOut 570
Running threw: ReferenceError: window is not defined

tryItOut 571
Compiling threw: SyntaxError: invalid for/in left-hand side

tryItOut 572
Compiling threw: SyntaxError: catch without try

tryItOut 573
Compiling threw: SyntaxError: invalid continue

tryItOut 574
Compiling threw: SyntaxError: syntax error

tryItOut 575
Compiling threw: SyntaxError: missing variable name

tryItOut 576
Compiling threw: SyntaxError: missing ; after for-loop initializer

tryItOut 577

tryItOut 578

tryItOut 579
It's an iterator!
Iterating threw!
Iterating threw: TypeError: <x><y/></x>.__defineSetter__gc is not a function

tryItOut 580
Running threw: [object StopIteration]

tryItOut 581
Compiling threw: SyntaxError: invalid destructuring assignment operator

tryItOut 582

tryItOut 583
It's an iterator!
Iterating succeeded, iterCount == 1

tryItOut 584

tryItOut 585
Running threw: [object StopIteration]

tryItOut 586

tryItOut 587
Compiling threw: SyntaxError: invalid increment operand

tryItOut 588
Compiling threw: SyntaxError: label not found

tryItOut 589
It's an iterator!
Iterating threw!
Iterating threw: ReferenceError: window is not defined

tryItOut 590
before 191840, after 191840, break 00eda000

tryItOut 591

tryItOut 592

tryItOut 593

tryItOut 594

tryItOut 595
Compiling threw: SyntaxError: syntax error

tryItOut 596
Running threw: TypeError: this.zzz has no properties

tryItOut 597
before 191840, after 191840, break 00eda000

tryItOut 598
Compiling threw: SyntaxError: invalid for/in left-hand side

tryItOut 599
Compiling threw: SyntaxError: label not found

tryItOut 600

tryItOut 601

tryItOut 602

tryItOut 603
Compiling threw: SyntaxError: label not found

tryItOut 604
Compiling threw: SyntaxError: missing } after let block

tryItOut 605
Compiling threw: SyntaxError: invalid for/in left-hand side

tryItOut 606
Compiling threw: SyntaxError: syntax error

tryItOut 607
Compiling threw: SyntaxError: syntax error

tryItOut 608
Compiling threw: SyntaxError: invalid break

tryItOut 609

tryItOut 610
Compiling threw: SyntaxError: missing = in destructuring declaration

tryItOut 611
Compiling threw: SyntaxError: missing ) after let head

tryItOut 612
It's an iterator!
Iterating succeeded, iterCount == 1

tryItOut 613

tryItOut 614

tryItOut 615
It's an iterator!
Iterating succeeded, iterCount == 1

tryItOut 616
Compiling threw: SyntaxError: syntax error

tryItOut 617
Compiling threw: SyntaxError: missing ) in parenthetical

tryItOut 618
Compiling threw: SyntaxError: label not found

tryItOut 619
Compiling threw: SyntaxError: missing variable name

tryItOut 620
Compiling threw: SyntaxError: illegal XML character

tryItOut 621
Compiling threw: SyntaxError: missing ) in parenthetical

tryItOut 622
Compiling threw: TypeError: generator function anonymous returns a value

tryItOut 623

tryItOut 624
Compiling threw: SyntaxError: missing ; before statement

tryItOut 625

tryItOut 626
Running threw: [object StopIteration]

tryItOut 627
It's an iterator!
Iterating succeeded, iterCount == 1

tryItOut 628
Compiling threw: SyntaxError: syntax error

tryItOut 629
Compiling threw: SyntaxError: missing { before function body

tryItOut 630
Compiling threw: SyntaxError: invalid break

tryItOut 631

tryItOut 632

tryItOut 633
Compiling threw: SyntaxError: missing identifier in catch

tryItOut 634
Compiling threw: SyntaxError: missing ) in parenthetical

tryItOut 635
Compiling threw: SyntaxError: missing : after property id

tryItOut 636

tryItOut 637

tryItOut 638

tryItOut 639
Compiling threw: SyntaxError: missing { before function body

tryItOut 640
Running threw: ReferenceError: window is not defined

tryItOut 641
Running threw: [object StopIteration]

tryItOut 642
Running threw: ReferenceError: window is not defined

tryItOut 643
It's an iterator!
Iterating succeeded, iterCount == 2

tryItOut 644
Compiling threw: SyntaxError: label not found

tryItOut 645
Running threw: [object StopIteration]

tryItOut 646

tryItOut 647

tryItOut 648
Running threw: TypeError: <x><y/></x>.__defineSetter__("constructor", function (y) {yield y;yield y;}) has no properties

tryItOut 649

tryItOut 650

tryItOut 651
Compiling threw: SyntaxError: missing ; before statement

tryItOut 652
Compiling threw: SyntaxError: missing ) in parenthetical

tryItOut 653
Compiling threw: SyntaxError: label not found

tryItOut 654

tryItOut 655
Compiling threw: SyntaxError: invalid for/in left-hand side

tryItOut 656

tryItOut 657
Compiling threw: SyntaxError: missing formal parameter

tryItOut 658
Compiling threw: SyntaxError: missing ; after for-loop initializer

tryItOut 659
Compiling threw: SyntaxError: missing ; before statement

tryItOut 660

tryItOut 661
It's an iterator!
Iterating succeeded, iterCount == 0

tryItOut 662
Compiling threw: SyntaxError: label not found

tryItOut 663

tryItOut 664
Compiling threw: SyntaxError: invalid assignment left-hand side

tryItOut 665
Compiling threw: SyntaxError: missing ; before statement

tryItOut 666

tryItOut 667
Running threw: [object StopIteration]

tryItOut 668
It's an iterator!
Iterating succeeded, iterCount == 1

tryItOut 669

tryItOut 670
Compiling threw: SyntaxError: missing ; before statement

tryItOut 671

tryItOut 672

tryItOut 673
Compiling threw: SyntaxError: syntax error

tryItOut 674
Running threw: ReferenceError: z1 is not defined

tryItOut 675
Compiling threw: SyntaxError: missing ) after switch expression

tryItOut 676
Compiling threw: SyntaxError: invalid for/in left-hand side

tryItOut 677
Compiling threw: SyntaxError: invalid for/in left-hand side

tryItOut 678

tryItOut 679
before 191840, after 191840, break 00eda000

tryItOut 680
Compiling threw: SyntaxError: syntax error

tryItOut 681

tryItOut 682
Compiling threw: SyntaxError: missing { before function body

tryItOut 683
Running threw: TypeError: (function (id) {return id;})['throw'] is not a function

tryItOut 684
Compiling threw: SyntaxError: missing : after property id

tryItOut 685
Running threw: ReferenceError: window is not defined

tryItOut 686
Running threw: ReferenceError: window is not defined

tryItOut 687

tryItOut 688
Compiling threw: SyntaxError: invalid break

tryItOut 689
Compiling threw: SyntaxError: missing ] after element list

tryItOut 690
Compiling threw: SyntaxError: syntax error

tryItOut 691

tryItOut 692
Running threw: ReferenceError: window is not defined

tryItOut 693
Compiling threw: SyntaxError: missing ; before statement

tryItOut 694
Compiling threw: SyntaxError: missing variable name

tryItOut 695
Compiling threw: SyntaxError: missing variable name

tryItOut 696
Compiling threw: SyntaxError: missing variable name

tryItOut 697
Compiling threw: SyntaxError: missing identifier in catch

tryItOut 698
Compiling threw: SyntaxError: missing ; before statement

tryItOut 699

tryItOut 700
Compiling threw: SyntaxError: syntax error

tryItOut 701
Compiling threw: SyntaxError: more than one switch default

tryItOut 702

tryItOut 703
Running threw: [object StopIteration]

tryItOut 704

tryItOut 705
Compiling threw: TypeError: redeclaration of variable prototype

tryItOut 706

tryItOut 707
Compiling threw: SyntaxError: label not found

tryItOut 708
Running threw: TypeError: this.zzz has no properties

tryItOut 709
Compiling threw: SyntaxError: missing { before function body

tryItOut 710

tryItOut 711

tryItOut 712
Compiling threw: SyntaxError: syntax error

tryItOut 713
It's an iterator!
Iterating threw!
Iterating threw: ReferenceError: z1 is not defined

tryItOut 714
Compiling threw: SyntaxError: duplicate label

tryItOut 715
Compiling threw: SyntaxError: missing variable name

tryItOut 716

tryItOut 717
Compiling threw: SyntaxError: invalid switch statement

tryItOut 718
Running threw: ReferenceError: window is not defined

tryItOut 719
Running threw: ReferenceError: window is not defined

tryItOut 720
Compiling threw: SyntaxError: label not found

tryItOut 721
Compiling threw: SyntaxError: invalid assignment left-hand side

tryItOut 722
Compiling threw: SyntaxError: missing ) in parenthetical

tryItOut 723
Compiling threw: SyntaxError: missing ; after for-loop initializer

tryItOut 724
Compiling threw: SyntaxError: syntax error

tryItOut 725

tryItOut 726
Compiling threw: SyntaxError: syntax error

tryItOut 727
Compiling threw: SyntaxError: invalid break

tryItOut 728

tryItOut 729
Compiling threw: SyntaxError: missing } after let block

tryItOut 730
Compiling threw: SyntaxError: missing ; before statement

tryItOut 731

tryItOut 732
It's an iterator!
Iterating succeeded, iterCount == 1

tryItOut 733
Compiling threw: SyntaxError: missing ; before statement

tryItOut 734
Compiling threw: SyntaxError: invalid assignment left-hand side

tryItOut 735

tryItOut 736
Running threw: ReferenceError: window is not defined

tryItOut 737

tryItOut 738
Compiling threw: SyntaxError: label not found

tryItOut 739

tryItOut 740
Running threw: ReferenceError: window is not defined

tryItOut 741

tryItOut 742
Compiling threw: SyntaxError: invalid continue

tryItOut 743

tryItOut 744

tryItOut 745

tryItOut 746
Compiling threw: SyntaxError: syntax error

tryItOut 747
Compiling threw: SyntaxError: invalid break

tryItOut 748
Compiling threw: SyntaxError: invalid for/in left-hand side

tryItOut 749
Compiling threw: SyntaxError: invalid for/in left-hand side

tryItOut 750

tryItOut 751
It's an iterator!
Iterating succeeded, iterCount == 1

tryItOut 752

tryItOut 753

tryItOut 754
Compiling threw: SyntaxError: invalid assignment left-hand side

tryItOut 755
Compiling threw: SyntaxError: syntax error

tryItOut 756
Running threw: [object StopIteration]

tryItOut 757
It's an iterator!
Iterating succeeded, iterCount == 1

tryItOut 758
before 191840, after 191840, break 00eef000

tryItOut 759
Compiling threw: SyntaxError: missing ] after element list

tryItOut 760
Compiling threw: SyntaxError: missing ; before statement

tryItOut 761
Compiling threw: SyntaxError: invalid for/in left-hand side

tryItOut 762
Compiling threw: SyntaxError: missing ) after for-loop control

tryItOut 763
Compiling threw: SyntaxError: invalid assignment left-hand side

tryItOut 764
Compiling threw: SyntaxError: invalid assignment left-hand side

tryItOut 765
It's an iterator!
Iterating succeeded, iterCount == 1

tryItOut 766
Compiling threw: SyntaxError: invalid for/in left-hand side

tryItOut 767
Compiling threw: SyntaxError: illegal XML character

tryItOut 768
Compiling threw: SyntaxError: syntax error

tryItOut 769
Compiling threw: SyntaxError: label not found

tryItOut 770

tryItOut 771
Compiling threw: SyntaxError: invalid default XML namespace

tryItOut 772

tryItOut 773
Compiling threw: SyntaxError: illegal XML character

tryItOut 774
Running threw: ReferenceError: window is not defined

tryItOut 775

tryItOut 776

tryItOut 777
It's an iterator!
Iterating threw!
Iterating threw: ReferenceError: window is not defined

tryItOut 778

tryItOut 779

tryItOut 780
Compiling threw: SyntaxError: missing variable name

tryItOut 781

tryItOut 782

tryItOut 783
before 191840, after 191840, break 00eef000

tryItOut 784
Compiling threw: SyntaxError: missing { before function body

tryItOut 785
Compiling threw: SyntaxError: missing ; before statement

tryItOut 786
Compiling threw: SyntaxError: missing ; before statement

tryItOut 787
Compiling threw: SyntaxError: missing ( before let head

tryItOut 788

tryItOut 789
Compiling threw: SyntaxError: label not found

tryItOut 790
Compiling threw: SyntaxError: missing ] after element list

tryItOut 791

tryItOut 792
Compiling threw: SyntaxError: label not found

tryItOut 793

tryItOut 794
before 191840, after 191840, break 00eef000

tryItOut 795
Running threw: ReferenceError: getter is not defined

tryItOut 796
Compiling threw: SyntaxError: invalid for/in left-hand side

tryItOut 797

tryItOut 798
Compiling threw: SyntaxError: missing ) in parenthetical

tryItOut 799
Compiling threw: SyntaxError: syntax error

tryItOut 800
It's an iterator!
Iterating succeeded, iterCount == 1

tryItOut 801
Compiling threw: SyntaxError: missing ; before statement

tryItOut 802
Compiling threw: SyntaxError: missing ) in parenthetical

tryItOut 803

tryItOut 804
Compiling threw: SyntaxError: missing variable name

tryItOut 805

tryItOut 806
Compiling threw: SyntaxError: syntax error

tryItOut 807
Compiling threw: SyntaxError: missing } in XML expression

tryItOut 808
It's an iterator!
Iterating succeeded, iterCount == 1

tryItOut 809

tryItOut 810
Compiling threw: SyntaxError: missing { before function body

tryItOut 811

tryItOut 812

tryItOut 813
It's an iterator!
Iterating succeeded, iterCount == 1

tryItOut 814
It's an iterator!
Iterating threw!
Iterating threw: ReferenceError: window is not defined

tryItOut 815

tryItOut 816

tryItOut 817
Compiling threw: SyntaxError: label not found

tryItOut 818
Compiling threw: SyntaxError: syntax error

tryItOut 819
Compiling threw: SyntaxError: invalid continue

tryItOut 820

tryItOut 821

tryItOut 822
Compiling threw: SyntaxError: label not found

tryItOut 823
Compiling threw: SyntaxError: label not found

tryItOut 824
Running threw: ReferenceError: z2 is not defined

tryItOut 825
Compiling threw: SyntaxError: missing ) in parenthetical

tryItOut 826
It's an iterator!
Iterating threw!
Iterating threw: ReferenceError: window is not defined

tryItOut 827
Compiling threw: SyntaxError: invalid for/in left-hand side

tryItOut 828

tryItOut 829
before 191840, after 191840, break 00eef000

tryItOut 830

tryItOut 831
Compiling threw: SyntaxError: missing variable name

tryItOut 832
It's an iterator!
Iterating succeeded, iterCount == 1

tryItOut 833
It's an iterator!
Iterating threw!
Iterating threw: ReferenceError: window is not defined

tryItOut 834
Compiling threw: SyntaxError: missing = in destructuring declaration

tryItOut 835
Compiling threw: SyntaxError: missing { before function body

tryItOut 836

tryItOut 837
Compiling threw: SyntaxError: syntax error

tryItOut 838

tryItOut 839
Compiling threw: SyntaxError: missing variable name

tryItOut 840
Compiling threw: SyntaxError: missing variable name

tryItOut 841
Compiling threw: SyntaxError: missing ; before statement

tryItOut 842

tryItOut 843
Running threw: SyntaxError: invalid getter usage

tryItOut 844
Compiling threw: SyntaxError: missing ; before statement

tryItOut 845

tryItOut 846

tryItOut 847
Compiling threw: SyntaxError: invalid for/in left-hand side

tryItOut 848
It's an iterator!
Iterating succeeded, iterCount == 1

tryItOut 849
Compiling threw: SyntaxError: invalid for/in left-hand side

tryItOut 850
Compiling threw: SyntaxError: label not found

tryItOut 851
Compiling threw: SyntaxError: syntax error

tryItOut 852
Compiling threw: SyntaxError: invalid default XML namespace

tryItOut 853
Compiling threw: SyntaxError: syntax error

tryItOut 854
Running threw: [object StopIteration]

tryItOut 855
Compiling threw: SyntaxError: syntax error

tryItOut 856
before 191840, after 191840, break 00f04000

tryItOut 857
Compiling threw: SyntaxError: missing ] after element list

tryItOut 858
Compiling threw: SyntaxError: invalid destructuring assignment operator

tryItOut 859
Compiling threw: SyntaxError: syntax error

tryItOut 860
It's an iterator!
Iterating succeeded, iterCount == 1

tryItOut 861
Running threw: ReferenceError: z1 is not defined

tryItOut 862
Compiling threw: SyntaxError: syntax error

tryItOut 863
It's an iterator!
Iterating threw!
Iterating threw: TypeError: XML filtering predicate operator called on incompatible Number

tryItOut 864

tryItOut 865

tryItOut 866
Compiling threw: TypeError: redeclaration of variable __parent__

tryItOut 867
Compiling threw: SyntaxError: missing = in destructuring declaration

tryItOut 868
Compiling threw: SyntaxError: missing ; after for-loop initializer

tryItOut 869
Compiling threw: SyntaxError: invalid continue

tryItOut 870
Compiling threw: SyntaxError: missing ; before statement

tryItOut 871
Compiling threw: SyntaxError: invalid assignment left-hand side

tryItOut 872

tryItOut 873
Compiling threw: SyntaxError: missing variable name

tryItOut 874
Compiling threw: SyntaxError: missing = in destructuring declaration

tryItOut 875

tryItOut 876
Compiling threw: SyntaxError: missing ] after element list

tryItOut 877
It's an iterator!
Iterating threw!
Iterating threw: Error: invalid sharp variable use #1#

tryItOut 878
It's an iterator!
Iterating succeeded, iterCount == 1

tryItOut 879
Compiling threw: SyntaxError: syntax error

tryItOut 880

tryItOut 881
Compiling threw: SyntaxError: syntax error

tryItOut 882
Compiling threw: SyntaxError: missing ) in parenthetical

tryItOut 883
Compiling threw: SyntaxError: missing { before function body

tryItOut 884
Compiling threw: SyntaxError: syntax error

tryItOut 885
Compiling threw: SyntaxError: syntax error

tryItOut 886
Running threw: TypeError: XML filtering predicate operator called on incompatible global

tryItOut 887

tryItOut 888

tryItOut 889
Compiling threw: SyntaxError: missing ] after element list

tryItOut 890
It's an iterator!
Iterating succeeded, iterCount == 0

tryItOut 891
Compiling threw: SyntaxError: syntax error

tryItOut 892
Compiling threw: SyntaxError: missing ] after element list

tryItOut 893
Compiling threw: SyntaxError: invalid break

tryItOut 894
It's an iterator!
Iterating threw!
Iterating threw: ReferenceError: window is not defined

tryItOut 895
Compiling threw: SyntaxError: missing ; before statement

tryItOut 896
Running threw: ReferenceError: window is not defined

tryItOut 897

tryItOut 898
Compiling threw: SyntaxError: syntax error

tryItOut 899
Compiling threw: SyntaxError: missing ; after for-loop initializer

tryItOut 900

tryItOut 901
Compiling threw: SyntaxError: missing ; before statement

tryItOut 902
Compiling threw: SyntaxError: missing ; before statement

tryItOut 903
Compiling threw: SyntaxError: invalid assignment left-hand side

tryItOut 904
It's an iterator!
Iterating succeeded, iterCount == 0

tryItOut 905
Running threw: ReferenceError: window is not defined

tryItOut 906
Compiling threw: SyntaxError: missing ; before statement

tryItOut 907
Compiling threw: SyntaxError: missing while after do-loop body

tryItOut 908

tryItOut 909
Running threw: TypeError: [[1]] is not a constructor

tryItOut 910

tryItOut 911

tryItOut 912

tryItOut 913
Compiling threw: SyntaxError: invalid continue

tryItOut 914

tryItOut 915
It's an iterator!
Iterating succeeded, iterCount == 0

tryItOut 916
Compiling threw: SyntaxError: missing ; before statement

tryItOut 917
Compiling threw: SyntaxError: invalid continue

tryItOut 918
Compiling threw: SyntaxError: invalid for/in left-hand side

tryItOut 919
Running threw: ReferenceError: window is not defined

tryItOut 920
Running threw: [object StopIteration]

tryItOut 921
Compiling threw: SyntaxError: missing ) in parenthetical

tryItOut 922
Compiling threw: SyntaxError: missing ) in parenthetical

tryItOut 923

tryItOut 924

tryItOut 925

tryItOut 926
Compiling threw: SyntaxError: invalid continue

tryItOut 927
Compiling threw: SyntaxError: missing = in destructuring declaration

tryItOut 928

tryItOut 929
Compiling threw: SyntaxError: missing formal parameter

tryItOut 930
Compiling threw: SyntaxError: missing ; before statement

tryItOut 931

tryItOut 932
It's an iterator!
Iterating succeeded, iterCount == 1

tryItOut 933
Compiling threw: SyntaxError: missing = in destructuring declaration

tryItOut 934
Running threw: [object StopIteration]

tryItOut 935
Compiling threw: SyntaxError: syntax error

tryItOut 936
Compiling threw: SyntaxError: missing ) in parenthetical

tryItOut 937

tryItOut 938

tryItOut 939
Compiling threw: SyntaxError: missing ] after element list

tryItOut 940
Running threw: ReferenceError: z1 is not defined

tryItOut 941
Running threw: [object StopIteration]

tryItOut 942

tryItOut 943
Running threw: [object StopIteration]

tryItOut 944
Compiling threw: SyntaxError: missing { before function body

tryItOut 945
Compiling threw: SyntaxError: syntax error

tryItOut 946
Compiling threw: SyntaxError: invalid continue

tryItOut 947
Compiling threw: SyntaxError: missing ; after for-loop initializer

tryItOut 948
Running threw: TypeError: this is not a function

tryItOut 949
Compiling threw: SyntaxError: missing while after do-loop body

tryItOut 950

tryItOut 951

tryItOut 952
Compiling threw: SyntaxError: invalid for/in left-hand side

tryItOut 953
Compiling threw: SyntaxError: missing variable name

tryItOut 954

tryItOut 955
Compiling threw: SyntaxError: missing { before function body

tryItOut 956
Compiling threw: SyntaxError: label not found

tryItOut 957

tryItOut 958

tryItOut 959
Compiling threw: SyntaxError: duplicate label

tryItOut 960

tryItOut 961
before 226720, after 226720, break 00f26000

tryItOut 962
It's an iterator!
Iterating succeeded, iterCount == 1

tryItOut 963
It's an iterator!
Iterating succeeded, iterCount == 1

tryItOut 964
before 226720, after 226720, break 00f26000

tryItOut 965
Compiling threw: SyntaxError: label not found

tryItOut 966
Compiling threw: SyntaxError: finally without try

tryItOut 967

tryItOut 968
Compiling threw: SyntaxError: syntax error

tryItOut 969
Compiling threw: SyntaxError: syntax error

tryItOut 970
Compiling threw: SyntaxError: label not found

tryItOut 971
It's an iterator!
Iterating succeeded, iterCount == 1

tryItOut 972
Compiling threw: SyntaxError: invalid increment operand

tryItOut 973

tryItOut 974
Compiling threw: SyntaxError: syntax error

tryItOut 975
Compiling threw: SyntaxError: invalid for/in left-hand side

tryItOut 976

tryItOut 977

tryItOut 978
Compiling threw: SyntaxError: missing ; before statement

tryItOut 979
Compiling threw: SyntaxError: missing { before function body

tryItOut 980
Compiling threw: SyntaxError: syntax error

tryItOut 981
before 226720, after 226720, break 00f26000

tryItOut 982
It's an iterator!
Iterating succeeded, iterCount == 0

tryItOut 983
Compiling threw: SyntaxError: invalid decrement operand

tryItOut 984

tryItOut 985
Compiling threw: SyntaxError: missing ( before let head

tryItOut 986

tryItOut 987

tryItOut 988
It's an iterator!
Iterating succeeded, iterCount == 1

tryItOut 989
Compiling threw: SyntaxError: missing variable name

tryItOut 990

tryItOut 991

tryItOut 992
Compiling threw: SyntaxError: missing ; before statement

tryItOut 993
Compiling threw: SyntaxError: invalid increment operand

tryItOut 994

tryItOut 995
Compiling threw: SyntaxError: invalid for/in left-hand side

tryItOut 996
Compiling threw: SyntaxError: syntax error

tryItOut 997
It's an iterator!
Iterating threw!
Iterating threw: Error: invalid sharp variable use #1#

tryItOut 998

tryItOut 999
Compiling threw: SyntaxError: missing ; before statement

tryItOut 1000

ALL OK

Script done on Sat 04 May 2013 06:42:24 AM PDT
