Script started on Sat 04 May 2013 06:45:54 AM PDT
***
Targeting SpiderMonkey / Gecko.

tryItOut 1
Running threw: ReferenceError: prop is not defined

tryItOut 2

tryItOut 3

tryItOut 4
Compiling threw: SyntaxError: invalid for/in left-hand side

tryItOut 5
It's an iterator!
Iterating threw!
Iterating threw: ReferenceError: z2 is not defined

tryItOut 6

tryItOut 7
Compiling threw: SyntaxError: invalid for/in left-hand side

tryItOut 8

tryItOut 9
Compiling threw: SyntaxError: syntax error

tryItOut 10
Compiling threw: SyntaxError: missing ) in parenthetical

tryItOut 11
Compiling threw: SyntaxError: missing { before function body

tryItOut 12
Running threw: ReferenceError: _ is not defined

tryItOut 13

tryItOut 14

tryItOut 15
Compiling threw: SyntaxError: invalid for/in left-hand side

tryItOut 16
Compiling threw: SyntaxError: missing variable name

tryItOut 17
It's an iterator!
Iterating threw!
Iterating threw: ReferenceError: prototype is not defined

tryItOut 18
Compiling threw: SyntaxError: missing ; before statement

tryItOut 19
Compiling threw: SyntaxError: missing variable name

tryItOut 20

tryItOut 21

tryItOut 22
Compiling threw: SyntaxError: invalid destructuring assignment operator

tryItOut 23
Compiling threw: SyntaxError: invalid switch statement

tryItOut 24
Compiling threw: SyntaxError: missing variable name

tryItOut 25

tryItOut 26
Compiling threw: SyntaxError: missing ) in parenthetical

tryItOut 27
Running threw: [object StopIteration]

tryItOut 28

tryItOut 29

tryItOut 30
It's an iterator!
Iterating succeeded, iterCount == 0

tryItOut 31
Compiling threw: SyntaxError: invalid assignment left-hand side

tryItOut 32
Running threw: SyntaxError: invalid setter usage

tryItOut 33

tryItOut 34
It's an iterator!
Iterating succeeded, iterCount == 1

tryItOut 35
Compiling threw: TypeError: redeclaration of const prop

tryItOut 36
Compiling threw: SyntaxError: missing : after property id

tryItOut 37

tryItOut 38
Running threw: TypeError: invalid 'instanceof' operand 1200

tryItOut 39

tryItOut 40
Running threw: ReferenceError: prop is not defined

tryItOut 41
It's an iterator!
Iterating succeeded, iterCount == 0

tryItOut 42

tryItOut 43
Compiling threw: SyntaxError: missing { before function body

tryItOut 44
Compiling threw: SyntaxError: missing variable name

tryItOut 45
Compiling threw: SyntaxError: missing variable name

tryItOut 46

tryItOut 47
Running threw: TypeError: this.zzz has no properties

tryItOut 48
Compiling threw: SyntaxError: missing variable name

tryItOut 49
before 87200, after 87200, break 00ff0000

tryItOut 50

tryItOut 51
Compiling threw: SyntaxError: missing ; after for-loop initializer

tryItOut 52

tryItOut 53
Compiling threw: SyntaxError: invalid for/in left-hand side

tryItOut 54
Running threw: TypeError: this.zzz has no properties

tryItOut 55

tryItOut 56

tryItOut 57

tryItOut 58
Compiling threw: SyntaxError: invalid for/in left-hand side

tryItOut 59
Running threw: TypeError: arguments[0] has no properties

tryItOut 60
Compiling threw: SyntaxError: missing ] after element list

tryItOut 61
Compiling threw: SyntaxError: missing ; before statement

tryItOut 62

tryItOut 63

tryItOut 64
Compiling threw: TypeError: redeclaration of variable __iterator__

tryItOut 65
Compiling threw: SyntaxError: invalid break

tryItOut 66
Compiling threw: SyntaxError: missing ; after for-loop initializer

tryItOut 67
Compiling threw: SyntaxError: invalid assignment left-hand side

tryItOut 68
Running threw: TypeError: __proto__['throw'] is not a function

tryItOut 69
Compiling threw: SyntaxError: missing ; after for-loop initializer

tryItOut 70

tryItOut 71

tryItOut 72
Running threw: ReferenceError: prop is not defined

tryItOut 73
Compiling threw: SyntaxError: missing ) in parenthetical

tryItOut 74
Compiling threw: SyntaxError: invalid property id

tryItOut 75

tryItOut 76

tryItOut 77

tryItOut 78
Compiling threw: SyntaxError: syntax error

tryItOut 79
Running threw: ReferenceError: prototype is not defined

tryItOut 80

tryItOut 81
Compiling threw: SyntaxError: missing variable name

tryItOut 82
Compiling threw: SyntaxError: invalid assignment left-hand side

tryItOut 83
Running threw: TypeError: [].yoyo is not a function

tryItOut 84

tryItOut 85
Compiling threw: TypeError: redeclaration of const __count__

tryItOut 86

tryItOut 87
Compiling threw: SyntaxError: invalid property id

tryItOut 88

tryItOut 89
Compiling threw: SyntaxError: invalid assignment left-hand side

tryItOut 90
Compiling threw: SyntaxError: syntax error

tryItOut 91
It's an iterator!
Iterating succeeded, iterCount == 1

tryItOut 92
Compiling threw: SyntaxError: missing { before function body

tryItOut 93
Running threw: ReferenceError: __noSuchMethod__ is not defined

tryItOut 94
Compiling threw: SyntaxError: missing ) in parenthetical

tryItOut 95
Compiling threw: SyntaxError: missing variable name

tryItOut 96
Compiling threw: SyntaxError: missing { before function body

tryItOut 97

tryItOut 98
Running threw: ReferenceError: z1 is not defined

tryItOut 99
Compiling threw: SyntaxError: syntax error

tryItOut 100
Running threw: ReferenceError: prototype is not defined

tryItOut 101
Running threw: function ([y]) {
}

tryItOut 102
Running threw: TypeError: arguments[0] has no properties

tryItOut 103

tryItOut 104
Compiling threw: SyntaxError: missing ; after for-loop initializer

tryItOut 105
Compiling threw: SyntaxError: missing variable name

tryItOut 106
Compiling threw: SyntaxError: missing = in destructuring declaration

tryItOut 107
Running threw: TypeError: __parent__ has no properties

tryItOut 108
Compiling threw: SyntaxError: missing { before function body

tryItOut 109

tryItOut 110
Compiling threw: SyntaxError: missing = in destructuring declaration

tryItOut 111
Compiling threw: SyntaxError: missing variable name

tryItOut 112
Compiling threw: SyntaxError: invalid for/in left-hand side

tryItOut 113
It's an iterator!
Iterating succeeded, iterCount == 1

tryItOut 114
Compiling threw: SyntaxError: invalid for/in left-hand side

tryItOut 115
Compiling threw: SyntaxError: missing while after do-loop body

tryItOut 116

tryItOut 117
Compiling threw: SyntaxError: invalid for/in left-hand side

tryItOut 118
It's an iterator!
Iterating succeeded, iterCount == 1

tryItOut 119

tryItOut 120
Compiling threw: SyntaxError: syntax error

tryItOut 121

tryItOut 122
Compiling threw: SyntaxError: invalid for/in left-hand side

tryItOut 123
Compiling threw: SyntaxError: invalid destructuring assignment operator

tryItOut 124

tryItOut 125

tryItOut 126

tryItOut 127

tryItOut 128
Compiling threw: SyntaxError: invalid assignment left-hand side

tryItOut 129
It's an iterator!
Iterating threw!
Iterating threw: Error: invalid sharp variable use #1#

tryItOut 130

tryItOut 131
It's an iterator!
Iterating threw!
Iterating threw: ReferenceError: prop is not defined

tryItOut 132

tryItOut 133

tryItOut 134
Compiling threw: SyntaxError: missing variable name

tryItOut 135
Compiling threw: SyntaxError: invalid switch statement

tryItOut 136

tryItOut 137
Compiling threw: SyntaxError: missing { before function body

tryItOut 138
Running threw: TypeError: arguments[0] has no properties

tryItOut 139

tryItOut 140
Compiling threw: SyntaxError: missing { before function body

tryItOut 141
Running threw: Error: invalid sharp variable use #1#

tryItOut 142

tryItOut 143
Compiling threw: SyntaxError: missing { before function body

tryItOut 144
It's an iterator!
Iterating threw!
Iterating threw: function ([y]) {
}

tryItOut 145
It's an iterator!
Iterating succeeded, iterCount == 1

tryItOut 146
Compiling threw: SyntaxError: missing name after . operator

tryItOut 147
It's an iterator!
Iterating succeeded, iterCount == 0

tryItOut 148
Compiling threw: SyntaxError: missing ] after element list

tryItOut 149
Compiling threw: SyntaxError: missing variable name

tryItOut 150
It's an iterator!
Iterating succeeded, iterCount == 0

tryItOut 151
Compiling threw: SyntaxError: missing variable name

tryItOut 152
Running threw: ReferenceError: z2 is not defined

tryItOut 153

tryItOut 154
before 122080, after 122080, break 01059000

tryItOut 155
Running threw: TypeError: this.zzz has no properties

tryItOut 156
Compiling threw: SyntaxError: invalid assignment left-hand side

tryItOut 157
Running threw: TypeError: this.zzz has no properties

tryItOut 158

tryItOut 159
It's an iterator!
Iterating succeeded, iterCount == 0

tryItOut 160

tryItOut 161
Compiling threw: SyntaxError: missing variable name

tryItOut 162
Compiling threw: SyntaxError: label not found

tryItOut 163

tryItOut 164

tryItOut 165

tryItOut 166
Running threw: ReferenceError: z1 is not defined

tryItOut 167
Compiling threw: SyntaxError: missing ) in parenthetical

tryItOut 168
Running threw: TypeError: this.zzz has no properties

tryItOut 169
Compiling threw: SyntaxError: missing ) after for-loop control

tryItOut 170

tryItOut 171
Running threw: 107

tryItOut 172
It's an iterator!
Iterating succeeded, iterCount == 1

tryItOut 173

tryItOut 174
It's an iterator!
Iterating threw!
Iterating threw: ReferenceError: __noSuchMethod__ is not defined

tryItOut 175
Running threw: ReferenceError: Exception is not defined

tryItOut 176

tryItOut 177
It's an iterator!
Iterating threw!
Iterating threw: ReferenceError: prop is not defined

tryItOut 178
Compiling threw: SyntaxError: missing ; after for-loop initializer

tryItOut 179
Compiling threw: TypeError: redeclaration of const __noSuchMethod__

tryItOut 180
Running threw: [object StopIteration]

tryItOut 181
Compiling threw: SyntaxError: missing variable name

tryItOut 182
Compiling threw: SyntaxError: invalid assignment left-hand side

tryItOut 183

tryItOut 184
Compiling threw: SyntaxError: missing ; after for-loop initializer

tryItOut 185

tryItOut 186
Compiling threw: SyntaxError: invalid destructuring assignment operator

tryItOut 187
It's an iterator!
Iterating succeeded, iterCount == 1

tryItOut 188

tryItOut 189
Compiling threw: SyntaxError: label not found

tryItOut 190
Compiling threw: SyntaxError: missing variable name

tryItOut 191
before 122080, after 122080, break 01059000

tryItOut 192

tryItOut 193

tryItOut 194

tryItOut 195
Compiling threw: SyntaxError: missing { before function body

tryItOut 196
Compiling threw: SyntaxError: missing { before function body

tryItOut 197
Running threw: ReferenceError: z1 is not defined

tryItOut 198

tryItOut 199
Compiling threw: SyntaxError: syntax error

tryItOut 200

tryItOut 201
Running threw: ReferenceError: reference to undefined XML name @mozilla.org/js/function::__count__

tryItOut 202
Running threw: ReferenceError: z1 is not defined

tryItOut 203
It's an iterator!
Iterating threw!
Iterating threw: TypeError: this.zzz has no properties

tryItOut 204
Compiling threw: SyntaxError: label not found

tryItOut 205
Compiling threw: SyntaxError: missing ) in parenthetical

tryItOut 206
Compiling threw: SyntaxError: invalid XML list syntax

tryItOut 207

tryItOut 208
Compiling threw: SyntaxError: missing variable name

tryItOut 209
Compiling threw: SyntaxError: missing variable name

tryItOut 210

tryItOut 211
Running threw: undefined

tryItOut 212
Compiling threw: SyntaxError: missing { before function body

tryItOut 213

tryItOut 214
Compiling threw: SyntaxError: missing ; before statement

tryItOut 215
Compiling threw: SyntaxError: missing ; before statement

tryItOut 216
Compiling threw: SyntaxError: missing ; after for-loop initializer

tryItOut 217
Compiling threw: SyntaxError: syntax error

tryItOut 218
Compiling threw: TypeError: generator function anonymous returns a value

tryItOut 219

tryItOut 220
Compiling threw: SyntaxError: missing { before function body

tryItOut 221
It's an iterator!
Iterating succeeded, iterCount == 1

tryItOut 222
Compiling threw: SyntaxError: syntax error

tryItOut 223
Compiling threw: SyntaxError: invalid for/in left-hand side

tryItOut 224
It's an iterator!
Iterating succeeded, iterCount == 1

tryItOut 225
Running threw: 1

tryItOut 226
Compiling threw: SyntaxError: invalid for/in left-hand side

tryItOut 227
It's an iterator!
Iterating threw!
Iterating threw: TypeError: 10000 is not a function

tryItOut 228
Compiling threw: SyntaxError: invalid for/in left-hand side

tryItOut 229
Running threw: 105

tryItOut 230
Running threw: ReferenceError: z1 is not defined

tryItOut 231
Compiling threw: SyntaxError: missing ) in parenthetical

tryItOut 232
Compiling threw: SyntaxError: invalid continue

tryItOut 233
Running threw: TypeError: this.zzz has no properties

tryItOut 234

tryItOut 235
Compiling threw: SyntaxError: label not found

tryItOut 236
Compiling threw: SyntaxError: invalid for/in left-hand side

tryItOut 237
Compiling threw: SyntaxError: missing formal parameter

tryItOut 238
Compiling threw: SyntaxError: syntax error

tryItOut 239

tryItOut 240

tryItOut 241

tryItOut 242

tryItOut 243
Compiling threw: SyntaxError: syntax error

tryItOut 244

tryItOut 245
Compiling threw: SyntaxError: invalid for/in left-hand side

tryItOut 246

tryItOut 247
Compiling threw: SyntaxError: missing { before function body

tryItOut 248

tryItOut 249
Compiling threw: SyntaxError: missing variable name

tryItOut 250

tryItOut 251
Compiling threw: SyntaxError: missing variable name

tryItOut 252
Compiling threw: SyntaxError: missing variable name

tryItOut 253
Compiling threw: TypeError: redeclaration of variable constructor

tryItOut 254
Compiling threw: SyntaxError: missing variable name

tryItOut 255
Compiling threw: SyntaxError: missing formal parameter

tryItOut 256

tryItOut 257
Compiling threw: SyntaxError: invalid sharp variable definition

tryItOut 258

tryItOut 259

tryItOut 260
Compiling threw: SyntaxError: missing { before function body

tryItOut 261
Compiling threw: SyntaxError: syntax error

tryItOut 262
Running threw: [object StopIteration]

tryItOut 263
Compiling threw: SyntaxError: invalid for/in left-hand side

tryItOut 264
Compiling threw: SyntaxError: missing variable name

tryItOut 265

tryItOut 266
Compiling threw: SyntaxError: invalid for/in left-hand side

tryItOut 267
Running threw: TypeError: 5 is not a function

tryItOut 268
Compiling threw: SyntaxError: missing ) in parenthetical

tryItOut 269
It's an iterator!
Iterating threw!
Iterating threw: ReferenceError: z1 is not defined

tryItOut 270

tryItOut 271
Compiling threw: SyntaxError: invalid increment operand

tryItOut 272
It's an iterator!
Iterating threw!
Iterating threw: TypeError: prototype has no properties

tryItOut 273

tryItOut 274
Compiling threw: SyntaxError: missing variable name

tryItOut 275
Compiling threw: SyntaxError: missing ) in parenthetical

tryItOut 276

tryItOut 277

tryItOut 278
Compiling threw: TypeError: redeclaration of variable prop

tryItOut 279
Compiling threw: SyntaxError: syntax error

tryItOut 280

tryItOut 281
Compiling threw: SyntaxError: missing = in destructuring declaration

tryItOut 282
Compiling threw: SyntaxError: duplicate label

tryItOut 283
Running threw: -1

tryItOut 284
Compiling threw: SyntaxError: syntax error

tryItOut 285
Compiling threw: SyntaxError: invalid increment operand

tryItOut 286
Compiling threw: SyntaxError: missing { before function body

tryItOut 287

tryItOut 288

tryItOut 289
Compiling threw: SyntaxError: invalid assignment left-hand side

tryItOut 290
Compiling threw: SyntaxError: invalid for/in left-hand side

tryItOut 291
Compiling threw: SyntaxError: invalid for/in left-hand side

tryItOut 292
Compiling threw: SyntaxError: invalid destructuring assignment operator

tryItOut 293

tryItOut 294
It's an iterator!
Iterating threw!
Iterating threw: undefined

tryItOut 295
Compiling threw: SyntaxError: invalid for/in left-hand side

tryItOut 296
Compiling threw: TypeError: redeclaration of const __noSuchMethod__

tryItOut 297

tryItOut 298
Running threw: ReferenceError: prop is not defined

tryItOut 299

tryItOut 300

tryItOut 301
Compiling threw: SyntaxError: missing { before function body

tryItOut 302
Compiling threw: SyntaxError: missing variable name

tryItOut 303
Compiling threw: SyntaxError: missing variable name

tryItOut 304
before 156960, after 156960, break 01085000

tryItOut 305
Compiling threw: SyntaxError: missing ) in parenthetical

tryItOut 306
Compiling threw: SyntaxError: missing variable name

tryItOut 307
Compiling threw: SyntaxError: missing variable name

tryItOut 308
Compiling threw: SyntaxError: missing ; after for-loop initializer

tryItOut 309
Compiling threw: SyntaxError: invalid default XML namespace

tryItOut 310

tryItOut 311
Compiling threw: TypeError: redeclaration of var __noSuchMethod__

tryItOut 312

tryItOut 313
Compiling threw: SyntaxError: missing ) in parenthetical

tryItOut 314

tryItOut 315
Compiling threw: SyntaxError: invalid assignment left-hand side

tryItOut 316
Compiling threw: SyntaxError: invalid for/in left-hand side

tryItOut 317
Compiling threw: SyntaxError: missing { before function body

tryItOut 318
Compiling threw: SyntaxError: missing = in destructuring declaration

tryItOut 319
Compiling threw: SyntaxError: invalid destructuring assignment operator

tryItOut 320
Running threw: TypeError: this.zzz has no properties

tryItOut 321
Running threw: ReferenceError: z2 is not defined

tryItOut 322
Compiling threw: SyntaxError: missing ) after condition

tryItOut 323

tryItOut 324

tryItOut 325
Compiling threw: SyntaxError: invalid for/in left-hand side

tryItOut 326
Compiling threw: SyntaxError: invalid property id

tryItOut 327

tryItOut 328
Compiling threw: SyntaxError: invalid assignment left-hand side

tryItOut 329

tryItOut 330

tryItOut 331
Compiling threw: SyntaxError: missing { before function body

tryItOut 332

tryItOut 333
Compiling threw: SyntaxError: missing variable name

tryItOut 334
Compiling threw: TypeError: redeclaration of variable __iterator__

tryItOut 335
Compiling threw: SyntaxError: missing variable name

tryItOut 336

tryItOut 337

tryItOut 338
Compiling threw: TypeError: redeclaration of var __count__

tryItOut 339
Compiling threw: SyntaxError: missing { before function body

tryItOut 340

tryItOut 341

tryItOut 342
Compiling threw: SyntaxError: missing ; before statement

tryItOut 343
Compiling threw: SyntaxError: syntax error

tryItOut 344
Compiling threw: SyntaxError: invalid for/in left-hand side

tryItOut 345
Compiling threw: SyntaxError: missing variable name

tryItOut 346
Running threw: TypeError: undefined has no properties

tryItOut 347

tryItOut 348
It's an iterator!
Iterating succeeded, iterCount == 2

tryItOut 349
Compiling threw: TypeError: redeclaration of var constructor

tryItOut 350
Compiling threw: SyntaxError: invalid for/in left-hand side

tryItOut 351

tryItOut 352
Compiling threw: SyntaxError: missing { before function body

tryItOut 353
Compiling threw: SyntaxError: invalid for/in left-hand side

tryItOut 354
Compiling threw: SyntaxError: missing variable name

tryItOut 355
Compiling threw: SyntaxError: missing ; before statement

tryItOut 356

tryItOut 357
Compiling threw: SyntaxError: invalid assignment left-hand side

tryItOut 358
Running threw: TypeError: this.zzz has no properties

tryItOut 359
Compiling threw: SyntaxError: missing variable name

tryItOut 360
Compiling threw: SyntaxError: invalid for/in left-hand side

tryItOut 361
Running threw: [object StopIteration]

tryItOut 362
Compiling threw: SyntaxError: syntax error

tryItOut 363
Running threw: ReferenceError: z1 is not defined

tryItOut 364
It's an iterator!
Iterating succeeded, iterCount == 0

tryItOut 365

tryItOut 366
Running threw: ReferenceError: prop is not defined

tryItOut 367
Compiling threw: SyntaxError: missing variable name

tryItOut 368
Compiling threw: SyntaxError: invalid for/in left-hand side

tryItOut 369
Compiling threw: TypeError: redeclaration of variable constructor

tryItOut 370

tryItOut 371

tryItOut 372
Compiling threw: SyntaxError: missing variable name

tryItOut 373

tryItOut 374
Compiling threw: SyntaxError: syntax error

tryItOut 375
Compiling threw: SyntaxError: invalid continue

tryItOut 376
Compiling threw: SyntaxError: label not found

tryItOut 377

tryItOut 378

tryItOut 379
Compiling threw: SyntaxError: missing ; before statement

tryItOut 380
Compiling threw: SyntaxError: invalid increment operand

tryItOut 381
Compiling threw: SyntaxError: syntax error

tryItOut 382
before 156960, after 139520, break 01094000

tryItOut 383
It's an iterator!
Iterating threw!
Iterating threw: TypeError: arguments[0] has no properties

tryItOut 384

tryItOut 385
Compiling threw: SyntaxError: syntax error

tryItOut 386
Running threw: TypeError: this.zzz has no properties

tryItOut 387
Compiling threw: TypeError: redeclaration of const __proto__

tryItOut 388
Compiling threw: SyntaxError: invalid continue

tryItOut 389
Compiling threw: SyntaxError: invalid break

tryItOut 390
Running threw: TypeError: __proto__ is not a function

tryItOut 391

tryItOut 392
before 139520, after 139520, break 01094000

tryItOut 393

tryItOut 394

tryItOut 395

tryItOut 396
Compiling threw: SyntaxError: missing ; before statement

tryItOut 397
Running threw: TypeError: this.zzz has no properties

tryItOut 398
Compiling threw: SyntaxError: missing ) in parenthetical

tryItOut 399
Compiling threw: SyntaxError: syntax error

tryItOut 400
Compiling threw: SyntaxError: missing variable name

tryItOut 401
before 139520, after 139520, break 01094000
Running threw: TypeError: gc() has no properties

tryItOut 402
Compiling threw: SyntaxError: missing = in destructuring declaration

tryItOut 403

tryItOut 404

tryItOut 405

tryItOut 406

tryItOut 407

tryItOut 408
It's an iterator!
Iterating threw!
Iterating threw: ReferenceError: prop is not defined

tryItOut 409
before 139520, after 139520, break 01094000

tryItOut 410
Compiling threw: SyntaxError: missing variable name

tryItOut 411
Compiling threw: SyntaxError: missing variable name

tryItOut 412
It's an iterator!
Iterating threw!
Iterating threw: TypeError: Function.prototype.call called on incompatible [object global]

tryItOut 413
Compiling threw: SyntaxError: missing variable name

tryItOut 414

tryItOut 415
Compiling threw: SyntaxError: label not found

tryItOut 416

tryItOut 417

tryItOut 418

tryItOut 419
Running threw: [object StopIteration]

tryItOut 420

tryItOut 421
Compiling threw: SyntaxError: invalid decrement operand

tryItOut 422

tryItOut 423
Compiling threw: SyntaxError: syntax error

tryItOut 424
Compiling threw: SyntaxError: missing variable name

tryItOut 425
It's an iterator!
Iterating threw!
Iterating threw: ReferenceError: z2 is not defined

tryItOut 426

tryItOut 427
Compiling threw: SyntaxError: missing ) in parenthetical

tryItOut 428

tryItOut 429
Compiling threw: SyntaxError: missing { before function body

tryItOut 430
Compiling threw: SyntaxError: missing variable name

tryItOut 431

tryItOut 432
Compiling threw: SyntaxError: invalid for/in left-hand side

tryItOut 433

tryItOut 434

tryItOut 435

tryItOut 436

tryItOut 437
It's an iterator!
Iterating threw!
Iterating threw: ReferenceError: z1 is not defined

tryItOut 438
Compiling threw: SyntaxError: missing { before function body

tryItOut 439

tryItOut 440

tryItOut 441
Compiling threw: SyntaxError: missing { before function body

tryItOut 442

tryItOut 443

tryItOut 444
Compiling threw: SyntaxError: invalid for/in left-hand side

tryItOut 445

tryItOut 446

tryItOut 447
Running threw: 153

tryItOut 448
Running threw: ReferenceError: reference to undefined property "t"

tryItOut 449
It's an iterator!
Iterating threw!
Iterating threw: TypeError: arguments[0] has no properties

tryItOut 450
Compiling threw: SyntaxError: missing ) in parenthetical

tryItOut 451
Compiling threw: SyntaxError: invalid for/in left-hand side

tryItOut 452

tryItOut 453
Compiling threw: SyntaxError: invalid destructuring assignment operator

tryItOut 454
Compiling threw: SyntaxError: invalid assignment left-hand side

tryItOut 455

tryItOut 456
Running threw: ReferenceError: prop is not defined

tryItOut 457
Compiling threw: SyntaxError: invalid assignment left-hand side

tryItOut 458

tryItOut 459

tryItOut 460
Compiling threw: TypeError: redeclaration of const __parent__

tryItOut 461
Compiling threw: SyntaxError: label not found

tryItOut 462
It's an iterator!
Iterating succeeded, iterCount == 1

tryItOut 463
It's an iterator!
Iterating threw!
Iterating threw: TypeError: setting a property that has only a getter

tryItOut 464
Compiling threw: SyntaxError: syntax error

tryItOut 465
Compiling threw: SyntaxError: missing ) in parenthetical

tryItOut 466

tryItOut 467
It's an iterator!
Iterating succeeded, iterCount == 1

tryItOut 468
Compiling threw: SyntaxError: label not found

tryItOut 469
Compiling threw: SyntaxError: label not found

tryItOut 470
Compiling threw: SyntaxError: missing ; after for-loop initializer

tryItOut 471
Compiling threw: SyntaxError: invalid continue

tryItOut 472
Compiling threw: SyntaxError: missing = in destructuring declaration

tryItOut 473
Running threw: 0

tryItOut 474
Compiling threw: SyntaxError: syntax error

tryItOut 475
Compiling threw: SyntaxError: label not found

tryItOut 476
Compiling threw: SyntaxError: missing variable name

tryItOut 477

tryItOut 478

tryItOut 479
Compiling threw: SyntaxError: missing ) after for-loop control

tryItOut 480
Compiling threw: SyntaxError: missing ) after switch expression

tryItOut 481

tryItOut 482
Running threw: TypeError: __count__ has no properties

tryItOut 483
Compiling threw: SyntaxError: missing variable name

tryItOut 484
Compiling threw: SyntaxError: missing ) in parenthetical

tryItOut 485

tryItOut 486
Compiling threw: TypeError: redeclaration of variable __iterator__

tryItOut 487

tryItOut 488
Compiling threw: SyntaxError: missing = in destructuring declaration

tryItOut 489
Compiling threw: SyntaxError: missing { before function body

tryItOut 490
Compiling threw: SyntaxError: invalid for/in left-hand side

tryItOut 491

tryItOut 492
Compiling threw: SyntaxError: invalid for/in left-hand side

tryItOut 493
Compiling threw: SyntaxError: missing { before function body

tryItOut 494
Compiling threw: SyntaxError: missing variable name

tryItOut 495
Compiling threw: SyntaxError: syntax error

tryItOut 496
It's an iterator!
Iterating succeeded, iterCount == 1

tryItOut 497
Compiling threw: SyntaxError: missing { before function body

tryItOut 498
Running threw: TypeError: prototype has no properties

tryItOut 499
It's an iterator!
Iterating threw!
Iterating threw: ReferenceError: prop is not defined

tryItOut 500
Compiling threw: SyntaxError: missing : after property id

tryItOut 501
Compiling threw: SyntaxError: missing ) in parenthetical

tryItOut 502
It's an iterator!
Iterating succeeded, iterCount == 1

tryItOut 503
Running threw: TypeError: Function.prototype.call called on incompatible [object global]

tryItOut 504
Compiling threw: SyntaxError: invalid for/in left-hand side

tryItOut 505
Running threw: TypeError: this.zzz has no properties

tryItOut 506
Compiling threw: SyntaxError: missing ) in parenthetical

tryItOut 507
Compiling threw: SyntaxError: missing variable name

tryItOut 508

tryItOut 509

tryItOut 510

tryItOut 511
before 174400, after 174400, break 010c6000

tryItOut 512

tryItOut 513

tryItOut 514

tryItOut 515
Running threw: 

tryItOut 516
Compiling threw: SyntaxError: syntax error

tryItOut 517
Compiling threw: SyntaxError: invalid assignment left-hand side

tryItOut 518
Compiling threw: SyntaxError: missing ; before statement

tryItOut 519

tryItOut 520
Compiling threw: SyntaxError: invalid decrement operand

tryItOut 521

tryItOut 522
Running threw: TypeError: Function.prototype.call called on incompatible [object global]

tryItOut 523
It's an iterator!
Iterating succeeded, iterCount == 1

tryItOut 524
Running threw: [object Object]

tryItOut 525

tryItOut 526
Compiling threw: SyntaxError: invalid continue

tryItOut 527
Compiling threw: SyntaxError: missing ) in parenthetical

tryItOut 528

tryItOut 529
Compiling threw: SyntaxError: duplicate label

tryItOut 530
Compiling threw: TypeError: redeclaration of const __iterator__

tryItOut 531
Compiling threw: SyntaxError: missing { before function body

tryItOut 532
It's an iterator!
Iterating threw!
Iterating threw: TypeError: undefined has no properties

tryItOut 533
Compiling threw: SyntaxError: invalid for/in left-hand side

tryItOut 534

tryItOut 535
Compiling threw: SyntaxError: label not found

tryItOut 536
Running threw: TypeError: Function.prototype.call called on incompatible [object global]

tryItOut 537
Running threw: [object StopIteration]

tryItOut 538

tryItOut 539
Compiling threw: SyntaxError: label not found

tryItOut 540
Running threw: TypeError: this.zzz has no properties

tryItOut 541

tryItOut 542
Compiling threw: SyntaxError: label not found

tryItOut 543
Running threw: [object StopIteration]

tryItOut 544

tryItOut 545
Compiling threw: SyntaxError: missing ] after element list

tryItOut 546
Compiling threw: SyntaxError: missing variable name

tryItOut 547
It's an iterator!
Iterating succeeded, iterCount == 0

tryItOut 548

tryItOut 549
Running threw: TypeError: Function.prototype.call called on incompatible [object global]

tryItOut 550

tryItOut 551

tryItOut 552
Compiling threw: SyntaxError: missing { before function body

tryItOut 553
Compiling threw: SyntaxError: missing variable name

tryItOut 554

tryItOut 555
Compiling threw: SyntaxError: missing variable name

tryItOut 556
Compiling threw: SyntaxError: invalid assignment left-hand side

tryItOut 557
Compiling threw: SyntaxError: missing variable name

tryItOut 558

tryItOut 559
Compiling threw: SyntaxError: invalid for/in left-hand side

tryItOut 560

tryItOut 561
Compiling threw: SyntaxError: syntax error

tryItOut 562

tryItOut 563
before 174400, after 174400, break 010c6000

tryItOut 564

tryItOut 565
Compiling threw: SyntaxError: invalid for/in left-hand side

tryItOut 566
Compiling threw: SyntaxError: missing name after . operator

tryItOut 567

tryItOut 568
Compiling threw: SyntaxError: invalid assignment left-hand side

tryItOut 569
Compiling threw: SyntaxError: invalid for/in left-hand side

tryItOut 570
It's an iterator!
Iterating threw!
Iterating threw: TypeError: 0 is not a constructor

tryItOut 571
Compiling threw: SyntaxError: syntax error

tryItOut 572
Compiling threw: SyntaxError: invalid for/in left-hand side

tryItOut 573
Running threw: TypeError: undefined has no properties

tryItOut 574

tryItOut 575
It's an iterator!
Iterating succeeded, iterCount == 1

tryItOut 576

tryItOut 577
Compiling threw: SyntaxError: missing { before function body

tryItOut 578

tryItOut 579
Compiling threw: SyntaxError: missing ] after element list

tryItOut 580
Running threw: TypeError: this.zzz has no properties

tryItOut 581
Running threw: ReferenceError: z1 is not defined

tryItOut 582

tryItOut 583
Compiling threw: SyntaxError: syntax error

tryItOut 584
Compiling threw: SyntaxError: missing : after property id

tryItOut 585
Compiling threw: SyntaxError: missing { before function body

tryItOut 586
Running threw: TypeError: Function.prototype.call called on incompatible [object Object]

tryItOut 587
Compiling threw: SyntaxError: missing { before function body

tryItOut 588
Compiling threw: SyntaxError: syntax error

tryItOut 589
Compiling threw: SyntaxError: missing variable name

tryItOut 590
Running threw: ReferenceError: z2 is not defined

tryItOut 591
Compiling threw: SyntaxError: missing variable name

tryItOut 592

tryItOut 593

tryItOut 594
Compiling threw: SyntaxError: syntax error

tryItOut 595

tryItOut 596
Compiling threw: SyntaxError: invalid for/in left-hand side

tryItOut 597

tryItOut 598
Compiling threw: SyntaxError: invalid for/in left-hand side

tryItOut 599

tryItOut 600
Compiling threw: SyntaxError: missing ) in parenthetical

tryItOut 601

tryItOut 602

tryItOut 603

tryItOut 604
Running threw: TypeError: prototype has no properties

tryItOut 605
Compiling threw: SyntaxError: missing variable name

tryItOut 606
Compiling threw: SyntaxError: missing variable name

tryItOut 607

tryItOut 608
Compiling threw: SyntaxError: missing : after property id

tryItOut 609
Compiling threw: SyntaxError: invalid decrement operand

tryItOut 610
Compiling threw: SyntaxError: invalid decrement operand

tryItOut 611

tryItOut 612
Compiling threw: SyntaxError: missing ; after for-loop initializer

tryItOut 613
Compiling threw: SyntaxError: missing ) in parenthetical

tryItOut 614
Compiling threw: SyntaxError: missing ) in parenthetical

tryItOut 615
It's an iterator!
Iterating succeeded, iterCount == 1

tryItOut 616

tryItOut 617
Compiling threw: SyntaxError: invalid for/in left-hand side

tryItOut 618
Compiling threw: SyntaxError: missing ; before statement

tryItOut 619

tryItOut 620
Compiling threw: SyntaxError: missing ) after condition

tryItOut 621
Compiling threw: SyntaxError: missing { before function body

tryItOut 622
Compiling threw: SyntaxError: missing : after case label

tryItOut 623

tryItOut 624
Running threw: Infinity

tryItOut 625
Compiling threw: SyntaxError: invalid assignment left-hand side

tryItOut 626
Compiling threw: SyntaxError: invalid for/in left-hand side

tryItOut 627
Compiling threw: SyntaxError: syntax error

tryItOut 628
It's an iterator!
Iterating succeeded, iterCount == 1

tryItOut 629
Compiling threw: SyntaxError: missing ; before statement

tryItOut 630
Compiling threw: SyntaxError: label not found

tryItOut 631
Compiling threw: SyntaxError: invalid for/in left-hand side

tryItOut 632

tryItOut 633

tryItOut 634
Compiling threw: SyntaxError: syntax error

tryItOut 635
Running threw: TypeError: __count__ has no properties

tryItOut 636
Compiling threw: SyntaxError: missing ; before statement

tryItOut 637
Compiling threw: SyntaxError: invalid for/in left-hand side

tryItOut 638

tryItOut 639
Compiling threw: SyntaxError: syntax error

tryItOut 640

tryItOut 641
Compiling threw: SyntaxError: missing variable name

tryItOut 642
Compiling threw: SyntaxError: missing ) after condition

tryItOut 643

tryItOut 644
Compiling threw: SyntaxError: invalid for/in left-hand side

tryItOut 645
Compiling threw: SyntaxError: invalid assignment left-hand side

tryItOut 646
Running threw: ReferenceError: z2 is not defined

tryItOut 647

tryItOut 648
Compiling threw: SyntaxError: invalid for/in left-hand side

tryItOut 649
Compiling threw: SyntaxError: invalid assignment left-hand side

tryItOut 650
Compiling threw: SyntaxError: invalid decrement operand

tryItOut 651
Running threw: TypeError: __parent__ has no properties

tryItOut 652
Compiling threw: SyntaxError: missing { before function body

tryItOut 653

tryItOut 654

tryItOut 655
Compiling threw: SyntaxError: missing ) in parenthetical

tryItOut 656
Compiling threw: SyntaxError: invalid for/in left-hand side

tryItOut 657

tryItOut 658
It's an iterator!
Iterating succeeded, iterCount == 0

tryItOut 659

tryItOut 660
Compiling threw: SyntaxError: invalid for/in left-hand side

tryItOut 661
Running threw: Infinity

tryItOut 662

tryItOut 663
Compiling threw: SyntaxError: invalid increment operand

tryItOut 664
uneval returned the string: [undefined, undefined]

tryItOut 665
Running threw: TypeError: [[1]].prop has no properties

tryItOut 666
Running threw: [object StopIteration]

tryItOut 667
Compiling threw: TypeError: generator function anonymous returns a value

tryItOut 668

tryItOut 669

tryItOut 670

tryItOut 671

tryItOut 672
It's an iterator!
Iterating threw!
Iterating threw: Error: invalid sharp variable use #1#

tryItOut 673

tryItOut 674
Running threw: TypeError: this.zzz has no properties

tryItOut 675
Running threw: ReferenceError: z1 is not defined

tryItOut 676
Running threw: TypeError: this.zzz has no properties

tryItOut 677
Compiling threw: SyntaxError: syntax error

tryItOut 678
Compiling threw: SyntaxError: invalid for/in left-hand side

tryItOut 679
Running threw: TypeError: this.zzz has no properties

tryItOut 680
Compiling threw: SyntaxError: label not found

tryItOut 681

tryItOut 682
Compiling threw: SyntaxError: missing ] after element list

tryItOut 683

tryItOut 684
Running threw: ReferenceError: x is not defined

tryItOut 685
Compiling threw: SyntaxError: syntax error

tryItOut 686
Compiling threw: SyntaxError: missing variable name

tryItOut 687
Compiling threw: SyntaxError: invalid assignment left-hand side

tryItOut 688
Running threw: TypeError: arguments[0] has no properties

tryItOut 689
Running threw: ReferenceError: Exception is not defined

tryItOut 690

tryItOut 691

tryItOut 692
Compiling threw: SyntaxError: missing { before function body

tryItOut 693
Compiling threw: SyntaxError: missing variable name

tryItOut 694

tryItOut 695

tryItOut 696
Compiling threw: SyntaxError: missing variable name

tryItOut 697
Compiling threw: SyntaxError: syntax error

tryItOut 698
It's an iterator!
Iterating succeeded, iterCount == 1

tryItOut 699

tryItOut 700

tryItOut 701
Compiling threw: SyntaxError: label not found

tryItOut 702
Compiling threw: SyntaxError: invalid destructuring assignment operator

tryItOut 703
Compiling threw: SyntaxError: invalid for/in left-hand side

tryItOut 704
Compiling threw: SyntaxError: missing variable name

tryItOut 705
Compiling threw: SyntaxError: missing { before function body

tryItOut 706
Compiling threw: SyntaxError: invalid for/in left-hand side

tryItOut 707

tryItOut 708

tryItOut 709

tryItOut 710
It's an iterator!
Iterating succeeded, iterCount == 0

tryItOut 711

tryItOut 712
Running threw: ReferenceError: z1 is not defined

tryItOut 713
Compiling threw: TypeError: redeclaration of const __iterator__

tryItOut 714
Compiling threw: SyntaxError: invalid assignment left-hand side

tryItOut 715

tryItOut 716

tryItOut 717
Compiling threw: SyntaxError: syntax error

tryItOut 718
Compiling threw: SyntaxError: missing { before function body

tryItOut 719
Compiling threw: SyntaxError: missing variable name

tryItOut 720
Compiling threw: SyntaxError: syntax error

tryItOut 721

tryItOut 722
It's an iterator!
Iterating succeeded, iterCount == 1

tryItOut 723
before 209280, after 209280, break 0114c000

tryItOut 724
Compiling threw: SyntaxError: syntax error

tryItOut 725
Compiling threw: SyntaxError: missing { before function body

tryItOut 726
Compiling threw: SyntaxError: missing ) in parenthetical

tryItOut 727
Compiling threw: SyntaxError: missing ; after for-loop initializer

tryItOut 728
Running threw: TypeError: __parent__ has no properties

tryItOut 729

tryItOut 730
Compiling threw: SyntaxError: missing ) in parenthetical

tryItOut 731
Compiling threw: SyntaxError: missing variable name

tryItOut 732

tryItOut 733
It's an iterator!
Iterating succeeded, iterCount == 0

tryItOut 734
Compiling threw: SyntaxError: invalid continue

tryItOut 735
Compiling threw: SyntaxError: missing { before function body

tryItOut 736

tryItOut 737

tryItOut 738

tryItOut 739
It's an iterator!
Iterating succeeded, iterCount == 0

tryItOut 740
It's an iterator!
Iterating threw!
Iterating threw: TypeError: __noSuchMethod__ has no properties

tryItOut 741
Running threw: TypeError: __parent__ has no properties

tryItOut 742
Compiling threw: SyntaxError: missing variable name

tryItOut 743
Compiling threw: SyntaxError: invalid for/in left-hand side

tryItOut 744
Compiling threw: SyntaxError: missing variable name

tryItOut 745
Running threw: ReferenceError: a is not defined

tryItOut 746
Running threw: TypeError: Function.prototype.call called on incompatible [object global]

tryItOut 747
Compiling threw: SyntaxError: invalid for/in left-hand side

tryItOut 748
Compiling threw: SyntaxError: syntax error

tryItOut 749
Running threw: TypeError: Function.prototype.call called on incompatible [object global]

tryItOut 750
Compiling threw: SyntaxError: label not found

tryItOut 751
Compiling threw: SyntaxError: missing variable name

tryItOut 752
Compiling threw: SyntaxError: illegal XML character

tryItOut 753
Compiling threw: SyntaxError: missing variable name

tryItOut 754
Compiling threw: SyntaxError: missing { before function body

tryItOut 755
Compiling threw: SyntaxError: missing ; after for-loop initializer

tryItOut 756

tryItOut 757
Compiling threw: SyntaxError: missing ; before statement

tryItOut 758
Compiling threw: SyntaxError: syntax error

tryItOut 759
Running threw: TypeError: Function.prototype.call called on incompatible [object global]

tryItOut 760
Compiling threw: SyntaxError: label not found

tryItOut 761
Compiling threw: SyntaxError: label not found

tryItOut 762
Compiling threw: SyntaxError: invalid destructuring assignment operator

tryItOut 763
Compiling threw: SyntaxError: missing ; before statement

tryItOut 764
Compiling threw: SyntaxError: syntax error

tryItOut 765
Compiling threw: SyntaxError: invalid increment operand

tryItOut 766
Compiling threw: SyntaxError: invalid for/in left-hand side

tryItOut 767
before 209280, after 209280, break 0114c000

tryItOut 768

tryItOut 769
Running threw: ReferenceError: z1 is not defined

tryItOut 770
Compiling threw: SyntaxError: invalid for/in left-hand side

tryItOut 771

tryItOut 772
Compiling threw: SyntaxError: invalid destructuring assignment operator

tryItOut 773
Running threw: TypeError: prop has no properties

tryItOut 774
Compiling threw: SyntaxError: missing ; before statement

tryItOut 775
Running threw: ReferenceError: z1 is not defined

tryItOut 776
Running threw: Error: invalid sharp variable use #1#

tryItOut 777

tryItOut 778

tryItOut 779
Compiling threw: SyntaxError: invalid break

tryItOut 780

tryItOut 781
before 209280, after 209280, break 0114c000
Running threw: SyntaxError: invalid setter usage

tryItOut 782
Compiling threw: SyntaxError: label not found

tryItOut 783
Compiling threw: SyntaxError: syntax error

tryItOut 784
Running threw: ,

tryItOut 785

tryItOut 786

tryItOut 787
Running threw: TypeError: Function.prototype.call called on incompatible [object global]

tryItOut 788

tryItOut 789
Compiling threw: SyntaxError: missing ) after let head

tryItOut 790
Compiling threw: SyntaxError: missing { before function body

tryItOut 791
Compiling threw: SyntaxError: invalid break

tryItOut 792

tryItOut 793
Compiling threw: SyntaxError: invalid for/in left-hand side

tryItOut 794
Running threw: TypeError: __noSuchMethod__ is not a constructor

tryItOut 795

tryItOut 796
Compiling threw: SyntaxError: missing { before function body

tryItOut 797
Compiling threw: SyntaxError: missing variable name

tryItOut 798
Running threw: TypeError: Function.prototype.call called on incompatible [object global]

tryItOut 799
Compiling threw: SyntaxError: missing ; before statement

tryItOut 800

tryItOut 801
Compiling threw: SyntaxError: missing ; before statement

tryItOut 802
Compiling threw: SyntaxError: missing = in destructuring declaration

tryItOut 803

tryItOut 804
Compiling threw: SyntaxError: label not found

tryItOut 805
Running threw: SyntaxError: invalid setter usage

tryItOut 806
Compiling threw: SyntaxError: missing variable name

tryItOut 807
It's an iterator!
Iterating succeeded, iterCount == 1

tryItOut 808

tryItOut 809
Compiling threw: SyntaxError: missing variable name

tryItOut 810
Compiling threw: SyntaxError: invalid default XML namespace

tryItOut 811
Compiling threw: SyntaxError: missing formal parameter

tryItOut 812
Compiling threw: SyntaxError: missing variable name

tryItOut 813
Compiling threw: SyntaxError: invalid for/in left-hand side

tryItOut 814

tryItOut 815

tryItOut 816

tryItOut 817
Compiling threw: SyntaxError: invalid assignment left-hand side

tryItOut 818

tryItOut 819

tryItOut 820
It's an iterator!
Iterating succeeded, iterCount == 1

tryItOut 821
Compiling threw: SyntaxError: invalid for/in left-hand side

tryItOut 822

tryItOut 823

tryItOut 824
Running threw: Error: invalid sharp variable definition #1=

tryItOut 825
Compiling threw: TypeError: redeclaration of variable __noSuchMethod__

tryItOut 826

tryItOut 827
Compiling threw: SyntaxError: missing { before function body

tryItOut 828

tryItOut 829
Compiling threw: SyntaxError: missing ) in parenthetical

tryItOut 830
Compiling threw: SyntaxError: missing ; before statement

tryItOut 831

tryItOut 832
Compiling threw: SyntaxError: syntax error

tryItOut 833
Running threw: TypeError: prototype has no properties

tryItOut 834
Compiling threw: SyntaxError: missing ) after condition

tryItOut 835
before 209280, after 209280, break 0114c000

tryItOut 836
Compiling threw: SyntaxError: missing = in destructuring declaration

tryItOut 837
Compiling threw: SyntaxError: missing variable name

tryItOut 838
Compiling threw: SyntaxError: missing ; before statement

tryItOut 839
Compiling threw: SyntaxError: missing = in destructuring declaration

tryItOut 840
uneval returned the string: [[1]]

tryItOut 841

tryItOut 842
Compiling threw: SyntaxError: missing ; after for-loop initializer

tryItOut 843

tryItOut 844
Running threw: TypeError: redeclaration of const __parent__

tryItOut 845

tryItOut 846
Compiling threw: SyntaxError: syntax error

tryItOut 847
Compiling threw: SyntaxError: missing = in destructuring declaration

tryItOut 848
Compiling threw: SyntaxError: invalid sharp variable definition

tryItOut 849
Running threw: TypeError: this.zzz has no properties

tryItOut 850
Running threw: [object StopIteration]

tryItOut 851
Compiling threw: SyntaxError: missing ) in parenthetical

tryItOut 852
Compiling threw: SyntaxError: missing { before function body

tryItOut 853
Running threw: TypeError: Function.prototype.call called on incompatible [object global]

tryItOut 854
Running threw: TypeError: Function.prototype.call called on incompatible [object global]

tryItOut 855

tryItOut 856
Compiling threw: SyntaxError: missing in after for

tryItOut 857
Compiling threw: SyntaxError: syntax error

tryItOut 858
Compiling threw: SyntaxError: missing variable name

tryItOut 859

tryItOut 860
Compiling threw: SyntaxError: invalid for/in left-hand side

tryItOut 861
Compiling threw: TypeError: generator function anonymous returns a value

tryItOut 862
Compiling threw: SyntaxError: invalid for/in left-hand side

tryItOut 863
It's an iterator!
Iterating threw!
Iterating threw: ReferenceError: x is not defined

tryItOut 864
Compiling threw: SyntaxError: syntax error

tryItOut 865
Compiling threw: SyntaxError: missing : after case label

tryItOut 866
Compiling threw: TypeError: redeclaration of variable prototype

tryItOut 867
Running threw: TypeError: (27).watch(0) is not a function

tryItOut 868
Compiling threw: SyntaxError: syntax error

tryItOut 869
Compiling threw: SyntaxError: missing = in destructuring declaration

tryItOut 870
Compiling threw: SyntaxError: invalid assignment left-hand side

tryItOut 871
Compiling threw: SyntaxError: missing ; after for-loop initializer

tryItOut 872
Compiling threw: SyntaxError: invalid increment operand

tryItOut 873
Compiling threw: TypeError: redeclaration of const __count__

tryItOut 874
Compiling threw: SyntaxError: missing variable name

tryItOut 875

tryItOut 876

tryItOut 877
Compiling threw: SyntaxError: missing { before function body

tryItOut 878

tryItOut 879

tryItOut 880

tryItOut 881
It's an iterator!
Iterating succeeded, iterCount == 1

tryItOut 882
Running threw: 5

tryItOut 883

tryItOut 884
Compiling threw: SyntaxError: missing { before function body

tryItOut 885

tryItOut 886
Compiling threw: SyntaxError: invalid for/in left-hand side

tryItOut 887

tryItOut 888
Running threw: TypeError: invalid XML namespace ccc

tryItOut 889
Compiling threw: SyntaxError: missing ) after argument list

tryItOut 890
Compiling threw: SyntaxError: missing ) in parenthetical

tryItOut 891
Compiling threw: SyntaxError: missing ; after for-loop initializer

tryItOut 892
Compiling threw: SyntaxError: missing ] after element list

tryItOut 893

tryItOut 894
Compiling threw: SyntaxError: missing variable name

tryItOut 895
Compiling threw: SyntaxError: syntax error

tryItOut 896

tryItOut 897
Running threw: [object StopIteration]

tryItOut 898
Compiling threw: SyntaxError: missing { before function body

tryItOut 899
It's an iterator!
Iterating threw!
Iterating threw: TypeError: Function.prototype.call called on incompatible [object global]

tryItOut 900
Running threw: ReferenceError: z1 is not defined

tryItOut 901

tryItOut 902
Compiling threw: SyntaxError: invalid for/in left-hand side

tryItOut 903

tryItOut 904
It's an iterator!
Iterating succeeded, iterCount == 0

tryItOut 905
It's an iterator!
Iterating succeeded, iterCount == 0

tryItOut 906

tryItOut 907
Running threw: null

tryItOut 908
Running threw: ReferenceError: z1 is not defined

tryItOut 909
Compiling threw: SyntaxError: missing ) in parenthetical

tryItOut 910
Running threw: ReferenceError: z1 is not defined

tryItOut 911
Compiling threw: SyntaxError: missing ) in parenthetical

tryItOut 912
Compiling threw: SyntaxError: syntax error

tryItOut 913

tryItOut 914
Compiling threw: SyntaxError: invalid for/in left-hand side

tryItOut 915
Running threw: TypeError: __iterator__ has no properties

tryItOut 916

tryItOut 917

tryItOut 918
Running threw: [object Object]

tryItOut 919
Compiling threw: SyntaxError: missing ) after argument list

tryItOut 920

tryItOut 921
Compiling threw: SyntaxError: label not found

tryItOut 922

tryItOut 923
Running threw: ReferenceError: z2 is not defined

tryItOut 924
It's an iterator!
Iterating threw!
Iterating threw: TypeError: __noSuchMethod__ has no properties

tryItOut 925

tryItOut 926
Compiling threw: SyntaxError: missing ; before statement

tryItOut 927

tryItOut 928
Compiling threw: SyntaxError: syntax error

tryItOut 929
Compiling threw: SyntaxError: missing ; before statement

tryItOut 930
Running threw: TypeError: this.zzz has no properties

tryItOut 931
Compiling threw: SyntaxError: missing variable name

tryItOut 932
Compiling threw: SyntaxError: missing variable name

tryItOut 933
Compiling threw: SyntaxError: missing variable name

tryItOut 934

tryItOut 935
Compiling threw: SyntaxError: missing ; before statement

tryItOut 936
Running threw: TypeError: -1 is not a constructor

tryItOut 937

tryItOut 938
Compiling threw: SyntaxError: syntax error

tryItOut 939
Compiling threw: SyntaxError: missing { before function body

tryItOut 940
Compiling threw: SyntaxError: syntax error

tryItOut 941

tryItOut 942

tryItOut 943
It's an iterator!
Iterating threw!
Iterating threw: TypeError: arguments[0] has no properties

tryItOut 944

tryItOut 945
Compiling threw: SyntaxError: invalid for/in left-hand side

tryItOut 946

tryItOut 947
Compiling threw: SyntaxError: missing ; before statement

tryItOut 948
Compiling threw: SyntaxError: missing { before function body

tryItOut 949
Running threw: TypeError: this.zzz has no properties

tryItOut 950
Compiling threw: SyntaxError: missing variable name

tryItOut 951
It's an iterator!
Iterating succeeded, iterCount == 1

tryItOut 952

tryItOut 953
Compiling threw: SyntaxError: invalid assignment left-hand side

tryItOut 954
Running threw: ReferenceError: z2 is not defined

tryItOut 955

tryItOut 956
It's an iterator!
Iterating threw!
Iterating threw: TypeError: __noSuchMethod__ has no properties

tryItOut 957
Compiling threw: TypeError: redeclaration of variable prototype

tryItOut 958
Compiling threw: SyntaxError: invalid assignment left-hand side

tryItOut 959
Compiling threw: SyntaxError: missing { before function body

tryItOut 960
It's an iterator!
Iterating threw!
Iterating threw: TypeError: Function.prototype.call called on incompatible [object global]

tryItOut 961

tryItOut 962
Running threw: ReferenceError: x is not defined

tryItOut 963

tryItOut 964

tryItOut 965
before 226720, after 226720, break 01173000

tryItOut 966

tryItOut 967

tryItOut 968
It's an iterator!
Iterating succeeded, iterCount == 1

tryItOut 969

tryItOut 970
Compiling threw: SyntaxError: label not found

tryItOut 971
Compiling threw: SyntaxError: invalid assignment left-hand side

tryItOut 972
Compiling threw: SyntaxError: label not found

tryItOut 973
Compiling threw: SyntaxError: label not found

tryItOut 974
Compiling threw: SyntaxError: invalid for/in left-hand side

tryItOut 975

tryItOut 976
It's an iterator!
Iterating threw!
Iterating threw: TypeError: Function.prototype.call called on incompatible [object global]

tryItOut 977
Running threw: TypeError: this.zzz has no properties

tryItOut 978
Compiling threw: SyntaxError: invalid for/in left-hand side

tryItOut 979

tryItOut 980
Compiling threw: SyntaxError: syntax error

tryItOut 981
Running threw: TypeError: this.zzz has no properties

tryItOut 982
Running threw: ReferenceError: z2 is not defined

tryItOut 983
Compiling threw: SyntaxError: invalid default XML namespace

tryItOut 984

tryItOut 985
Compiling threw: SyntaxError: invalid property id

tryItOut 986
Compiling threw: SyntaxError: missing ; before statement

tryItOut 987
Compiling threw: SyntaxError: missing variable name

tryItOut 988

tryItOut 989

tryItOut 990
Compiling threw: SyntaxError: missing { before function body

tryItOut 991
Compiling threw: SyntaxError: missing ; before statement

tryItOut 992

tryItOut 993

tryItOut 994
Compiling threw: SyntaxError: missing ; after for-loop initializer

tryItOut 995
Compiling threw: SyntaxError: invalid for/in left-hand side

tryItOut 996

tryItOut 997
Compiling threw: SyntaxError: missing ) in parenthetical

tryItOut 998

tryItOut 999
Compiling threw: SyntaxError: missing variable name

tryItOut 1000
It's an iterator!
Iterating threw!
Iterating threw: TypeError: this.zzz has no properties

ALL OK

Script done on Sat 04 May 2013 06:45:55 AM PDT
