Script started on Sat 04 May 2013 06:52:23 AM PDT
***
Targeting SpiderMonkey / Gecko.

tryItOut 1
Compiling threw: TypeError: redeclaration of variable __proto__

tryItOut 2
Compiling threw: SyntaxError: missing { before function body

tryItOut 3

tryItOut 4
Compiling threw: SyntaxError: missing variable name

tryItOut 5
Compiling threw: SyntaxError: missing name in export statement

tryItOut 6
Compiling threw: SyntaxError: syntax error

tryItOut 7
Running threw: ReferenceError: __noSuchMethod__ is not defined

tryItOut 8
Running threw: TypeError: <x>
  <y/>
</x> is not a function

tryItOut 9
Compiling threw: SyntaxError: missing = in destructuring declaration

tryItOut 10

tryItOut 11
Compiling threw: SyntaxError: invalid assignment left-hand side

tryItOut 12
Compiling threw: SyntaxError: invalid XML tag syntax

tryItOut 13

tryItOut 14
Compiling threw: SyntaxError: missing ) after argument list

tryItOut 15
Compiling threw: SyntaxError: missing ; after for-loop condition

tryItOut 16
Compiling threw: SyntaxError: missing variable name

tryItOut 17
Compiling threw: SyntaxError: invalid assignment left-hand side

tryItOut 18
Running threw: ReferenceError: __noSuchMethod__ is not defined

tryItOut 19
Compiling threw: SyntaxError: invalid break

tryItOut 20
Compiling threw: TypeError: generator function anonymous returns a value

tryItOut 21
Compiling threw: SyntaxError: label not found

tryItOut 22

tryItOut 23
Compiling threw: SyntaxError: invalid assignment left-hand side

tryItOut 24
Compiling threw: SyntaxError: syntax error

tryItOut 25
It's an iterator!
Iterating succeeded, iterCount == 1

tryItOut 26
Compiling threw: SyntaxError: duplicate label

tryItOut 27
Compiling threw: SyntaxError: invalid continue

tryItOut 28
Compiling threw: SyntaxError: missing formal parameter

tryItOut 29
Compiling threw: SyntaxError: missing ) in parenthetical

tryItOut 30
Running threw: ReferenceError: z1 is not defined

tryItOut 31

tryItOut 32

tryItOut 33
Running threw: ReferenceError: __iterator__ is not defined

tryItOut 34
Compiling threw: SyntaxError: invalid continue

tryItOut 35
Compiling threw: SyntaxError: label not found

tryItOut 36
It's an iterator!
Iterating threw!
Iterating threw: TypeError: undefined has no properties

tryItOut 37

tryItOut 38
Compiling threw: SyntaxError: missing identifier in catch

tryItOut 39
Running threw: ReferenceError: reference to undefined XML name @foo

tryItOut 40
Compiling threw: SyntaxError: label not found

tryItOut 41
Compiling threw: SyntaxError: invalid assignment left-hand side

tryItOut 42
Compiling threw: SyntaxError: missing ) after condition

tryItOut 43

tryItOut 44
Compiling threw: SyntaxError: invalid break

tryItOut 45
Compiling threw: SyntaxError: missing variable name

tryItOut 46
Compiling threw: TypeError: redeclaration of variable prototype

tryItOut 47
Compiling threw: SyntaxError: syntax error

tryItOut 48
Compiling threw: SyntaxError: missing variable name

tryItOut 49
It's an iterator!
Iterating threw!
Iterating threw: SyntaxError: invalid assignment left-hand side

tryItOut 50
Compiling threw: SyntaxError: missing variable name

tryItOut 51
Compiling threw: TypeError: generator function anonymous returns a value

tryItOut 52

tryItOut 53
Compiling threw: SyntaxError: missing ) in parenthetical

tryItOut 54
Compiling threw: SyntaxError: invalid XML name

tryItOut 55
Compiling threw: SyntaxError: missing variable name

tryItOut 56
Running threw: ReferenceError: reference to undefined XML name *::*

tryItOut 57
Compiling threw: SyntaxError: invalid assignment left-hand side

tryItOut 58

tryItOut 59
Compiling threw: SyntaxError: invalid continue

tryItOut 60
Running threw: TypeError: redeclaration of const __parent__

tryItOut 61

tryItOut 62
Compiling threw: SyntaxError: invalid decrement operand

tryItOut 63

tryItOut 64
Compiling threw: SyntaxError: missing ( before let head

tryItOut 65
Running threw: ReferenceError: __iterator__ is not defined

tryItOut 66
Compiling threw: SyntaxError: syntax error

tryItOut 67
Compiling threw: SyntaxError: syntax error

tryItOut 68
Compiling threw: SyntaxError: invalid assignment left-hand side

tryItOut 69
before 104640, after 104640, break 00b9b000

tryItOut 70
Compiling threw: SyntaxError: missing ) in parenthetical

tryItOut 71

tryItOut 72
Compiling threw: SyntaxError: missing { before function body

tryItOut 73
Compiling threw: TypeError: redeclaration of const __noSuchMethod__

tryItOut 74
Compiling threw: SyntaxError: missing } after let block

tryItOut 75

tryItOut 76
Compiling threw: SyntaxError: invalid destructuring assignment operator

tryItOut 77
Compiling threw: SyntaxError: missing variable name

tryItOut 78
Running threw: ReferenceError: __iterator__ is not defined

tryItOut 79
Compiling threw: SyntaxError: missing ) in parenthetical

tryItOut 80
Compiling threw: SyntaxError: missing ) in parenthetical

tryItOut 81

tryItOut 82

tryItOut 83
Compiling threw: SyntaxError: missing ) in parenthetical

tryItOut 84
Compiling threw: SyntaxError: missing ) after with-statement object

tryItOut 85

tryItOut 86
Running threw: TypeError: false is not a function

tryItOut 87
Compiling threw: SyntaxError: missing variable name

tryItOut 88
Compiling threw: SyntaxError: invalid assignment left-hand side

tryItOut 89

tryItOut 90

tryItOut 91
Compiling threw: SyntaxError: syntax error

tryItOut 92
It's an iterator!
Iterating threw!
Iterating threw: TypeError: arguments[0] has no properties

tryItOut 93
Compiling threw: SyntaxError: illegal XML character

tryItOut 94
Compiling threw: SyntaxError: missing ) in parenthetical

tryItOut 95
Compiling threw: SyntaxError: invalid break

tryItOut 96

tryItOut 97
Compiling threw: SyntaxError: invalid destructuring assignment operator

tryItOut 98
Compiling threw: SyntaxError: missing variable name

tryItOut 99
Compiling threw: SyntaxError: missing : after property id

tryItOut 100

tryItOut 101
It's an iterator!
Iterating succeeded, iterCount == 1

tryItOut 102
Compiling threw: SyntaxError: missing ) in parenthetical

tryItOut 103

tryItOut 104
Running threw: ReferenceError: z1 is not defined

tryItOut 105
Compiling threw: SyntaxError: missing : after property id

tryItOut 106

tryItOut 107
Compiling threw: SyntaxError: unterminated string literal

tryItOut 108

tryItOut 109
It's an iterator!
Iterating threw!
Iterating threw: ReferenceError: __iterator__ is not defined

tryItOut 110
before 104640, after 104640, break 00b9b000

tryItOut 111
Compiling threw: SyntaxError: invalid assignment left-hand side

tryItOut 112
Compiling threw: SyntaxError: missing { before function body

tryItOut 113
Running threw: TypeError: redeclaration of var __proto__

tryItOut 114
Running threw: ReferenceError: __iterator__ is not defined

tryItOut 115

tryItOut 116
Compiling threw: SyntaxError: missing ) in parenthetical

tryItOut 117
Compiling threw: SyntaxError: illegal XML character

tryItOut 118

tryItOut 119
Compiling threw: SyntaxError: label not found

tryItOut 120
Compiling threw: TypeError: redeclaration of const __noSuchMethod__

tryItOut 121

tryItOut 122

tryItOut 123
Compiling threw: SyntaxError: invalid for/in left-hand side

tryItOut 124
Compiling threw: SyntaxError: label not found

tryItOut 125

tryItOut 126
Compiling threw: SyntaxError: invalid for/in left-hand side

tryItOut 127

tryItOut 128

tryItOut 129
Running threw: 108

tryItOut 130
Compiling threw: SyntaxError: missing = in destructuring declaration

tryItOut 131
Compiling threw: SyntaxError: invalid for/in left-hand side

tryItOut 132

tryItOut 133
Running threw: ReferenceError: z1 is not defined

tryItOut 134

tryItOut 135
Running threw: ReferenceError: __iterator__ is not defined

tryItOut 136
Compiling threw: SyntaxError: missing { before function body

tryItOut 137

tryItOut 138
Compiling threw: SyntaxError: missing formal parameter

tryItOut 139
Compiling threw: SyntaxError: missing ) in parenthetical

tryItOut 140
Running threw: ReferenceError: prop is not defined

tryItOut 141
Running threw: ReferenceError: reference to undefined XML name *::*

tryItOut 142
Running threw: TypeError: arguments[0] has no properties

tryItOut 143
Running threw: ReferenceError: prop is not defined

tryItOut 144

tryItOut 145

tryItOut 146

tryItOut 147
Compiling threw: SyntaxError: missing ; after for-loop initializer

tryItOut 148
Compiling threw: SyntaxError: missing ) in parenthetical

tryItOut 149
Running threw: ReferenceError: z2 is not defined

tryItOut 150

tryItOut 151
Compiling threw: TypeError: redeclaration of var prototype

tryItOut 152
Compiling threw: SyntaxError: missing ) in parenthetical

tryItOut 153
Compiling threw: SyntaxError: syntax error

tryItOut 154
Compiling threw: SyntaxError: label not found

tryItOut 155

tryItOut 156
before 104640, after 104640, break 00ba9000

tryItOut 157
Compiling threw: SyntaxError: missing ) in parenthetical

tryItOut 158
Compiling threw: SyntaxError: missing ) in parenthetical

tryItOut 159

tryItOut 160

tryItOut 161
Compiling threw: SyntaxError: invalid assignment left-hand side

tryItOut 162
before 104640, after 104640, break 00ba9000

tryItOut 163

tryItOut 164
Compiling threw: SyntaxError: label not found

tryItOut 165

tryItOut 166
Compiling threw: SyntaxError: missing ) in parenthetical

tryItOut 167

tryItOut 168
Compiling threw: SyntaxError: syntax error

tryItOut 169
Compiling threw: SyntaxError: invalid continue

tryItOut 170
Compiling threw: SyntaxError: invalid break

tryItOut 171
Compiling threw: SyntaxError: invalid for/in left-hand side

tryItOut 172
Compiling threw: SyntaxError: missing } after let block

tryItOut 173
Compiling threw: SyntaxError: missing ) in parenthetical

tryItOut 174

tryItOut 175
Compiling threw: SyntaxError: duplicate label

tryItOut 176
Running threw: ReferenceError: z1 is not defined

tryItOut 177

tryItOut 178

tryItOut 179
It's an iterator!
Iterating succeeded, iterCount == 1

tryItOut 180
Running threw: ReferenceError: reference to undefined XML name @foo

tryItOut 181
Compiling threw: SyntaxError: missing { before function body

tryItOut 182
Compiling threw: SyntaxError: missing { before function body

tryItOut 183
Compiling threw: SyntaxError: syntax error

tryItOut 184
Compiling threw: SyntaxError: missing ; after for-loop initializer

tryItOut 185
Compiling threw: SyntaxError: label not found

tryItOut 186

tryItOut 187
before 104640, after 104640, break 00ba9000
Running threw: ReferenceError: reference to undefined XML name @foo

tryItOut 188
Compiling threw: SyntaxError: invalid for/in left-hand side

tryItOut 189
Compiling threw: SyntaxError: label not found

tryItOut 190

tryItOut 191
Compiling threw: SyntaxError: unterminated comment

tryItOut 192
Running threw: ReferenceError: reference to undefined XML name *::*

tryItOut 193

tryItOut 194
Compiling threw: SyntaxError: missing : after property id

tryItOut 195

tryItOut 196
Compiling threw: SyntaxError: invalid for/in left-hand side

tryItOut 197
Running threw: 1,

tryItOut 198
Compiling threw: SyntaxError: missing ) in parenthetical

tryItOut 199

tryItOut 200
Compiling threw: SyntaxError: syntax error

tryItOut 201
Compiling threw: SyntaxError: invalid for/in left-hand side

tryItOut 202

tryItOut 203
Running threw: [object Object]

tryItOut 204
Compiling threw: SyntaxError: missing variable name

tryItOut 205
Compiling threw: SyntaxError: invalid increment operand

tryItOut 206

tryItOut 207
Compiling threw: SyntaxError: missing { before function body

tryItOut 208
Running threw: TypeError: {a1:1}.__defineGetter__("__iterator__", "haha".split) has no properties

tryItOut 209

tryItOut 210
Compiling threw: SyntaxError: invalid assignment left-hand side

tryItOut 211
Compiling threw: SyntaxError: invalid for/in left-hand side

tryItOut 212
Compiling threw: SyntaxError: missing variable name

tryItOut 213

tryItOut 214

tryItOut 215
Compiling threw: SyntaxError: missing : after property id

tryItOut 216
Running threw: ReferenceError: reference to undefined XML name @foo

tryItOut 217
Compiling threw: SyntaxError: label not found

tryItOut 218
before 104640, after 104640, break 00ba9000

tryItOut 219
Compiling threw: SyntaxError: label not found

tryItOut 220

tryItOut 221
It's an iterator!
Iterating succeeded, iterCount == 1

tryItOut 222
Running threw: 1

tryItOut 223
Compiling threw: SyntaxError: invalid continue

tryItOut 224
Compiling threw: SyntaxError: missing { before function body

tryItOut 225

tryItOut 226
Compiling threw: SyntaxError: missing variable name

tryItOut 227
Compiling threw: SyntaxError: missing ) in parenthetical

tryItOut 228
Running threw: ReferenceError: reference to undefined XML name *

tryItOut 229
Compiling threw: SyntaxError: missing formal parameter

tryItOut 230
Compiling threw: SyntaxError: missing variable name

tryItOut 231
Compiling threw: SyntaxError: missing ) in parenthetical

tryItOut 232
Compiling threw: SyntaxError: invalid for/in left-hand side

tryItOut 233

tryItOut 234

tryItOut 235
Compiling threw: SyntaxError: missing { before function body

tryItOut 236
Running threw: ReferenceError: reference to undefined XML name *

tryItOut 237
Compiling threw: SyntaxError: invalid assignment left-hand side

tryItOut 238

tryItOut 239

tryItOut 240

tryItOut 241

tryItOut 242

tryItOut 243
It's an iterator!
Iterating threw!
Iterating threw: TypeError: null has no properties

tryItOut 244

tryItOut 245
Compiling threw: SyntaxError: missing } after let block

tryItOut 246
Compiling threw: SyntaxError: invalid assignment left-hand side

tryItOut 247
Compiling threw: SyntaxError: missing ) in parenthetical

tryItOut 248
Compiling threw: SyntaxError: label not found

tryItOut 249

tryItOut 250
Compiling threw: SyntaxError: label not found

tryItOut 251
Compiling threw: SyntaxError: missing ) in parenthetical

tryItOut 252
Compiling threw: SyntaxError: missing } after let block

tryItOut 253
Running threw: TypeError: (new "haha".split).__iterator__ has no properties

tryItOut 254
Compiling threw: SyntaxError: illegal XML character

tryItOut 255

tryItOut 256

tryItOut 257
Compiling threw: SyntaxError: missing ) in parenthetical

tryItOut 258
Compiling threw: SyntaxError: label not found

tryItOut 259
Compiling threw: SyntaxError: invalid break

tryItOut 260
Compiling threw: SyntaxError: missing variable name

tryItOut 261
Compiling threw: SyntaxError: missing ) in parenthetical

tryItOut 262
Running threw: TypeError: redeclaration of var __proto__

tryItOut 263

tryItOut 264
Compiling threw: SyntaxError: missing ) after argument list

tryItOut 265

tryItOut 266
Compiling threw: SyntaxError: invalid decrement operand

tryItOut 267
Compiling threw: SyntaxError: missing { before function body

tryItOut 268
Compiling threw: SyntaxError: syntax error

tryItOut 269
Compiling threw: SyntaxError: invalid assignment left-hand side

tryItOut 270
Compiling threw: SyntaxError: missing ; after for-loop initializer

tryItOut 271

tryItOut 272

tryItOut 273
Compiling threw: SyntaxError: invalid for/in left-hand side

tryItOut 274
Compiling threw: TypeError: redeclaration of variable __noSuchMethod__

tryItOut 275
Compiling threw: SyntaxError: missing = in destructuring declaration

tryItOut 276
Compiling threw: SyntaxError: missing ) in parenthetical

tryItOut 277

tryItOut 278
Compiling threw: SyntaxError: missing variable name

tryItOut 279

tryItOut 280
Compiling threw: SyntaxError: syntax error

tryItOut 281

tryItOut 282
Running threw: ReferenceError: prop is not defined

tryItOut 283

tryItOut 284
Compiling threw: SyntaxError: missing ) in parenthetical

tryItOut 285
Compiling threw: SyntaxError: missing ) after argument list

tryItOut 286
Compiling threw: SyntaxError: missing = in destructuring declaration

tryItOut 287
It's an iterator!
Iterating threw!
Iterating threw: ReferenceError: prop is not defined

tryItOut 288

tryItOut 289

tryItOut 290

tryItOut 291
Compiling threw: SyntaxError: missing : after property id

tryItOut 292

tryItOut 293

tryItOut 294

tryItOut 295
It's an iterator!
Iterating succeeded, iterCount == 1

tryItOut 296
Running threw: TypeError: <x>
  <y/>
</x> is not a function

tryItOut 297
Compiling threw: SyntaxError: invalid for/in left-hand side

tryItOut 298
Compiling threw: SyntaxError: missing { before function body

tryItOut 299
Compiling threw: SyntaxError: unterminated regular expression literal

tryItOut 300

tryItOut 301
Compiling threw: SyntaxError: missing formal parameter

tryItOut 302
Compiling threw: SyntaxError: missing ) after catch

tryItOut 303
Compiling threw: TypeError: generator function anonymous returns a value

tryItOut 304
Compiling threw: SyntaxError: syntax error

tryItOut 305

tryItOut 306
Running threw: TypeError: arguments[0] has no properties

tryItOut 307
Compiling threw: SyntaxError: missing : after property id

tryItOut 308
Compiling threw: SyntaxError: label not found

tryItOut 309
Running threw: TypeError: <x>
  <y/>
</x> is not a function

tryItOut 310

tryItOut 311
Compiling threw: SyntaxError: label not found

tryItOut 312
Compiling threw: SyntaxError: syntax error

tryItOut 313
Compiling threw: SyntaxError: missing ) after condition

tryItOut 314
Compiling threw: SyntaxError: invalid for/in left-hand side

tryItOut 315
Compiling threw: SyntaxError: missing } after property list

tryItOut 316

tryItOut 317
Compiling threw: SyntaxError: label not found

tryItOut 318
Compiling threw: SyntaxError: invalid assignment left-hand side

tryItOut 319
Compiling threw: SyntaxError: invalid for/in left-hand side

tryItOut 320
Compiling threw: SyntaxError: missing : after property id

tryItOut 321
Compiling threw: SyntaxError: syntax error

tryItOut 322

tryItOut 323
Compiling threw: SyntaxError: missing variable name

tryItOut 324
Compiling threw: SyntaxError: invalid assignment left-hand side

tryItOut 325
Compiling threw: SyntaxError: label not found

tryItOut 326
Compiling threw: SyntaxError: invalid for/in left-hand side

tryItOut 327
Running threw: 0.2

tryItOut 328
Compiling threw: SyntaxError: invalid assignment left-hand side

tryItOut 329

tryItOut 330

tryItOut 331

tryItOut 332
It's an iterator!
Iterating succeeded, iterCount == 1

tryItOut 333

tryItOut 334
Compiling threw: SyntaxError: invalid break

tryItOut 335
before 139520, after 139520, break 00c0d000

tryItOut 336

tryItOut 337

tryItOut 338
Running threw: undefined

tryItOut 339
Compiling threw: SyntaxError: duplicate label

tryItOut 340
Running threw: ReferenceError: reference to undefined XML name *

tryItOut 341
Compiling threw: SyntaxError: missing ( before condition

tryItOut 342
Compiling threw: SyntaxError: missing variable name

tryItOut 343
Compiling threw: SyntaxError: label not found

tryItOut 344
Running threw: TypeError: undefined has no properties

tryItOut 345
Compiling threw: SyntaxError: invalid destructuring assignment operator

tryItOut 346

tryItOut 347
Compiling threw: SyntaxError: invalid break

tryItOut 348

tryItOut 349
Compiling threw: SyntaxError: missing ) after with-statement object

tryItOut 350
Compiling threw: SyntaxError: missing ) in parenthetical

tryItOut 351
Compiling threw: SyntaxError: missing variable name

tryItOut 352
Compiling threw: SyntaxError: missing { before function body

tryItOut 353
Compiling threw: SyntaxError: missing variable name

tryItOut 354
Compiling threw: SyntaxError: missing variable name

tryItOut 355
Compiling threw: SyntaxError: unterminated comment

tryItOut 356
Compiling threw: SyntaxError: invalid for/in left-hand side

tryItOut 357
It's an iterator!
Iterating succeeded, iterCount == 0

tryItOut 358

tryItOut 359
Compiling threw: SyntaxError: missing name after . operator

tryItOut 360
Running threw: ReferenceError: reference to undefined XML name *::*

tryItOut 361
Compiling threw: SyntaxError: missing ) after argument list

tryItOut 362
Compiling threw: SyntaxError: missing { before function body

tryItOut 363
Compiling threw: SyntaxError: missing { before function body

tryItOut 364
Compiling threw: SyntaxError: missing variable name

tryItOut 365
Compiling threw: SyntaxError: missing ) in parenthetical

tryItOut 366

tryItOut 367

tryItOut 368
Compiling threw: SyntaxError: missing ; before statement

tryItOut 369
Compiling threw: SyntaxError: missing variable name

tryItOut 370
Compiling threw: SyntaxError: label not found

tryItOut 371
Running threw: TypeError: undefined has no properties

tryItOut 372
Compiling threw: SyntaxError: finally without try

tryItOut 373
Compiling threw: SyntaxError: missing { before function body

tryItOut 374
Compiling threw: SyntaxError: syntax error

tryItOut 375
Running threw: ReferenceError: reference to undefined XML name @foo

tryItOut 376
Compiling threw: SyntaxError: invalid for/in left-hand side

tryItOut 377
before 139520, after 139520, break 00c0d000

tryItOut 378

tryItOut 379

tryItOut 380
Compiling threw: SyntaxError: invalid assignment left-hand side

tryItOut 381
Running threw: ReferenceError: reference to undefined XML name *::*

tryItOut 382
Running threw: function Object() {
    [native code]
}

tryItOut 383
Running threw: ReferenceError: reference to undefined XML name @foo

tryItOut 384

tryItOut 385
Compiling threw: SyntaxError: label not found

tryItOut 386

tryItOut 387
Compiling threw: SyntaxError: missing variable name

tryItOut 388
Compiling threw: SyntaxError: missing variable name

tryItOut 389

tryItOut 390
Compiling threw: SyntaxError: invalid destructuring assignment operator

tryItOut 391
Compiling threw: SyntaxError: missing { before function body

tryItOut 392

tryItOut 393
Compiling threw: SyntaxError: missing ) after let head

tryItOut 394
Compiling threw: SyntaxError: syntax error

tryItOut 395
Compiling threw: SyntaxError: invalid assignment left-hand side

tryItOut 396
Compiling threw: SyntaxError: missing ) in parenthetical

tryItOut 397
Compiling threw: SyntaxError: invalid continue

tryItOut 398

tryItOut 399
It's an iterator!
Iterating succeeded, iterCount == 1

tryItOut 400

tryItOut 401
Compiling threw: SyntaxError: invalid destructuring assignment operator

tryItOut 402

tryItOut 403
It's an iterator!
Iterating succeeded, iterCount == 1

tryItOut 404
Compiling threw: SyntaxError: invalid increment operand

tryItOut 405
Compiling threw: SyntaxError: invalid for/in left-hand side

tryItOut 406
Compiling threw: SyntaxError: syntax error

tryItOut 407
Compiling threw: SyntaxError: missing variable name

tryItOut 408
Compiling threw: SyntaxError: invalid assignment left-hand side

tryItOut 409
Compiling threw: SyntaxError: missing { before function body

tryItOut 410
Compiling threw: SyntaxError: invalid assignment left-hand side

tryItOut 411

tryItOut 412
Compiling threw: SyntaxError: missing variable name

tryItOut 413
Running threw: ReferenceError: reference to undefined XML name *

tryItOut 414

tryItOut 415
It's an iterator!
Iterating threw!
Iterating threw: TypeError: 3 is not a constructor

tryItOut 416
Compiling threw: SyntaxError: invalid for/in left-hand side

tryItOut 417

tryItOut 418
Compiling threw: SyntaxError: unterminated parenthetical

tryItOut 419

tryItOut 420
Compiling threw: SyntaxError: label not found

tryItOut 421
Compiling threw: SyntaxError: missing variable name

tryItOut 422
It's an iterator!
Iterating succeeded, iterCount == 1

tryItOut 423
Compiling threw: SyntaxError: missing } after let block

tryItOut 424
Compiling threw: SyntaxError: illegal XML character

tryItOut 425
Compiling threw: SyntaxError: missing variable name

tryItOut 426
Compiling threw: SyntaxError: missing { before function body

tryItOut 427

tryItOut 428

tryItOut 429
Compiling threw: SyntaxError: invalid assignment left-hand side

tryItOut 430

tryItOut 431
Compiling threw: SyntaxError: missing = in destructuring declaration

tryItOut 432
Compiling threw: SyntaxError: invalid continue

tryItOut 433
Compiling threw: SyntaxError: invalid for/in left-hand side

tryItOut 434
It's an iterator!
Iterating threw!
Iterating threw: TypeError: this.__defineSetter__("__noSuchMethod__", Function) has no properties

tryItOut 435
Compiling threw: SyntaxError: missing ) in parenthetical

tryItOut 436
Compiling threw: SyntaxError: invalid assignment left-hand side

tryItOut 437
It's an iterator!
before 139520, after 139520, break 00c15000
Iterating succeeded, iterCount == 0

tryItOut 438

tryItOut 439

tryItOut 440
Compiling threw: TypeError: redeclaration of variable constructor

tryItOut 441
Running threw: TypeError: this.zzz has no properties

tryItOut 442

tryItOut 443
It's an iterator!
Iterating succeeded, iterCount == 1

tryItOut 444

tryItOut 445

tryItOut 446

tryItOut 447
Running threw: ReferenceError: reference to undefined XML name *

tryItOut 448
Compiling threw: SyntaxError: invalid assignment left-hand side

tryItOut 449

tryItOut 450
Running threw: TypeError: <x>
  <y/>
</x> is not a function

tryItOut 451

tryItOut 452
before 139520, after 139520, break 00c15000

tryItOut 453

tryItOut 454
Compiling threw: SyntaxError: missing : after property id

tryItOut 455
Compiling threw: SyntaxError: missing = in destructuring declaration

tryItOut 456
Compiling threw: SyntaxError: invalid continue

tryItOut 457
Running threw: ReferenceError: reference to undefined XML name @foo

tryItOut 458
Compiling threw: SyntaxError: missing : after property id

tryItOut 459
It's an iterator!
Iterating threw!
Iterating threw: TypeError: arguments[0] has no properties

tryItOut 460
Compiling threw: SyntaxError: missing variable name

tryItOut 461
Compiling threw: SyntaxError: label not found

tryItOut 462
Compiling threw: SyntaxError: missing ) after condition

tryItOut 463

tryItOut 464
Compiling threw: TypeError: redeclaration of variable __iterator__

tryItOut 465
Compiling threw: SyntaxError: invalid XML name

tryItOut 466

tryItOut 467
before 139520, after 139520, break 00c15000
Running threw: ReferenceError: z2 is not defined

tryItOut 468
Running threw: ReferenceError: reference to undefined XML name *::*

tryItOut 469
Compiling threw: SyntaxError: syntax error

tryItOut 470
It's an iterator!
Iterating threw!
Iterating threw: ReferenceError: z1 is not defined

tryItOut 471
Compiling threw: SyntaxError: invalid assignment left-hand side

tryItOut 472
Compiling threw: SyntaxError: missing ) after argument list

tryItOut 473

tryItOut 474
Compiling threw: TypeError: generator function anonymous returns a value

tryItOut 475
Compiling threw: SyntaxError: missing { before function body

tryItOut 476
Compiling threw: TypeError: redeclaration of variable prototype

tryItOut 477
Compiling threw: SyntaxError: syntax error

tryItOut 478
Compiling threw: SyntaxError: missing } after let block

tryItOut 479

tryItOut 480

tryItOut 481

tryItOut 482
Compiling threw: SyntaxError: invalid continue

tryItOut 483

tryItOut 484

tryItOut 485
before 139520, after 139520, break 00c15000

tryItOut 486
Compiling threw: SyntaxError: missing ) after for-loop control

tryItOut 487
Compiling threw: SyntaxError: missing variable name

tryItOut 488

tryItOut 489
Running threw: ReferenceError: reference to undefined XML name *

tryItOut 490
Compiling threw: SyntaxError: invalid assignment left-hand side

tryItOut 491
Compiling threw: SyntaxError: missing ; after for-loop initializer

tryItOut 492
Compiling threw: SyntaxError: missing ) in parenthetical

tryItOut 493
Compiling threw: SyntaxError: missing ) in parenthetical

tryItOut 494
Compiling threw: SyntaxError: missing ) in parenthetical

tryItOut 495

tryItOut 496
Compiling threw: SyntaxError: invalid destructuring assignment operator

tryItOut 497

tryItOut 498
Compiling threw: SyntaxError: syntax error

tryItOut 499
Compiling threw: SyntaxError: missing ; before statement

tryItOut 500
Compiling threw: SyntaxError: syntax error

tryItOut 501
Compiling threw: TypeError: generator function anonymous returns a value

tryItOut 502
Compiling threw: SyntaxError: missing } after let block

tryItOut 503
Compiling threw: SyntaxError: invalid for/in left-hand side

tryItOut 504
before 139520, after 139520, break 00c15000

tryItOut 505
Running threw: ReferenceError: z1 is not defined

tryItOut 506

tryItOut 507
Compiling threw: SyntaxError: missing ) in parenthetical

tryItOut 508
Compiling threw: SyntaxError: missing { before function body

tryItOut 509
Compiling threw: SyntaxError: invalid for/in left-hand side

tryItOut 510
Running threw: TypeError: true is not a constructor

tryItOut 511
Compiling threw: SyntaxError: invalid for/in left-hand side

tryItOut 512

tryItOut 513

tryItOut 514
Compiling threw: SyntaxError: label not found

tryItOut 515
Running threw: 

tryItOut 516
Running threw: TypeError: XML filtering predicate operator called on incompatible Number

tryItOut 517
Running threw: ReferenceError: reference to undefined XML name *

tryItOut 518
Compiling threw: SyntaxError: invalid increment operand

tryItOut 519
Compiling threw: SyntaxError: invalid increment operand

tryItOut 520
Compiling threw: SyntaxError: missing ) in parenthetical

tryItOut 521

tryItOut 522
Compiling threw: SyntaxError: label not found

tryItOut 523
Running threw: TypeError: 1e-81 is not a constructor

tryItOut 524
Running threw: 0

tryItOut 525

tryItOut 526
Running threw: ReferenceError: reference to undefined XML name *

tryItOut 527

tryItOut 528
Compiling threw: SyntaxError: syntax error

tryItOut 529

tryItOut 530
Compiling threw: SyntaxError: missing variable name

tryItOut 531
Compiling threw: SyntaxError: missing ( before formal parameters

tryItOut 532
Compiling threw: SyntaxError: invalid continue

tryItOut 533
Compiling threw: SyntaxError: missing ) after argument list

tryItOut 534
before 139520, after 139520, break 00c15000

tryItOut 535

tryItOut 536
Compiling threw: SyntaxError: missing { before function body

tryItOut 537

tryItOut 538
Compiling threw: SyntaxError: label not found

tryItOut 539

tryItOut 540
Compiling threw: SyntaxError: missing ) after catch

tryItOut 541
Compiling threw: SyntaxError: missing { before function body

tryItOut 542
Running threw: TypeError: __parent__ has no properties

tryItOut 543
It's an iterator!
Iterating succeeded, iterCount == 1

tryItOut 544
It's an iterator!
Iterating succeeded, iterCount == 1

tryItOut 545

tryItOut 546

tryItOut 547
It's an iterator!
Iterating threw!
Iterating threw: TypeError: arguments[0] has no properties

tryItOut 548

tryItOut 549

tryItOut 550

tryItOut 551
before 139520, after 139520, break 00c15000

tryItOut 552
It's an iterator!
Iterating threw!
Iterating threw: TypeError: redeclaration of var __proto__

tryItOut 553
Compiling threw: SyntaxError: missing ) in parenthetical

tryItOut 554
Compiling threw: SyntaxError: missing variable name

tryItOut 555

tryItOut 556

tryItOut 557
Compiling threw: SyntaxError: invalid for/in left-hand side

tryItOut 558
Compiling threw: SyntaxError: missing } after let block

tryItOut 559
Compiling threw: SyntaxError: missing variable name

tryItOut 560
Compiling threw: SyntaxError: missing } after catch block

tryItOut 561

tryItOut 562

tryItOut 563

tryItOut 564
Compiling threw: SyntaxError: missing { before function body

tryItOut 565
Compiling threw: SyntaxError: missing ) in parenthetical

tryItOut 566
Compiling threw: SyntaxError: invalid property id

tryItOut 567
Compiling threw: SyntaxError: label not found

tryItOut 568

tryItOut 569
Compiling threw: SyntaxError: label not found

tryItOut 570

tryItOut 571
Compiling threw: SyntaxError: syntax error

tryItOut 572

tryItOut 573
Running threw: ReferenceError: reference to undefined XML name @mozilla.org/js/function::__count__

tryItOut 574
Running threw: ReferenceError: reference to undefined XML name *::*

tryItOut 575
Compiling threw: TypeError: generator function anonymous returns a value

tryItOut 576
Compiling threw: SyntaxError: missing ) in parenthetical

tryItOut 577
Compiling threw: SyntaxError: syntax error

tryItOut 578
Compiling threw: SyntaxError: missing { before function body

tryItOut 579

tryItOut 580
Compiling threw: SyntaxError: invalid continue

tryItOut 581
Compiling threw: SyntaxError: missing formal parameter

tryItOut 582
Compiling threw: SyntaxError: invalid assignment left-hand side

tryItOut 583
Compiling threw: SyntaxError: invalid for/in left-hand side

tryItOut 584

tryItOut 585

tryItOut 586

tryItOut 587

tryItOut 588
Compiling threw: SyntaxError: invalid destructuring assignment operator

tryItOut 589
Compiling threw: SyntaxError: missing variable name

tryItOut 590
Compiling threw: SyntaxError: missing } after let block

tryItOut 591

tryItOut 592
Compiling threw: SyntaxError: invalid for/in left-hand side

tryItOut 593

tryItOut 594
Compiling threw: SyntaxError: invalid for/in left-hand side

tryItOut 595
Compiling threw: SyntaxError: missing : after property id

tryItOut 596
Compiling threw: SyntaxError: invalid destructuring assignment operator

tryItOut 597
Compiling threw: SyntaxError: missing ) in parenthetical

tryItOut 598
Compiling threw: SyntaxError: finally without try

tryItOut 599

tryItOut 600
Compiling threw: SyntaxError: invalid for/in left-hand side

tryItOut 601
Compiling threw: SyntaxError: missing variable name

tryItOut 602
Running threw: ReferenceError: reference to undefined XML name @foo

tryItOut 603

tryItOut 604
Running threw: ReferenceError: reference to undefined XML name *

tryItOut 605
Compiling threw: SyntaxError: missing ) after condition

tryItOut 606
Running threw: ReferenceError: z1 is not defined

tryItOut 607
Compiling threw: SyntaxError: missing ) in parenthetical

tryItOut 608

tryItOut 609
Running threw: SyntaxError: missing ] after element list

tryItOut 610
Compiling threw: SyntaxError: invalid for/in left-hand side

tryItOut 611

tryItOut 612
Compiling threw: SyntaxError: invalid for/in left-hand side

tryItOut 613
Compiling threw: SyntaxError: missing : after property id

tryItOut 614

tryItOut 615

tryItOut 616
Compiling threw: SyntaxError: syntax error

tryItOut 617

tryItOut 618

tryItOut 619
Compiling threw: SyntaxError: missing variable name

tryItOut 620

tryItOut 621
It's an iterator!
Iterating succeeded, iterCount == 1

tryItOut 622
Compiling threw: SyntaxError: invalid break

tryItOut 623

tryItOut 624
function anonymous() {
    (Infinity).__proto__ = function::__noSuchMethod__;
}
    vs    
function anonymous() {
    Infinity.__proto__ = function::__noSuchMethod__;
}
Both decompile as:
function anonymous() {
    Infinity.__proto__ = function::__noSuchMethod__;
}
Running threw: ReferenceError: reference to undefined XML name @mozilla.org/js/function::__noSuchMethod__

tryItOut 625
Running threw: ReferenceError: reference to undefined XML name *::*

tryItOut 626
Running threw: ReferenceError: reference to undefined XML name @foo

tryItOut 627

tryItOut 628
Compiling threw: SyntaxError: syntax error

tryItOut 629

tryItOut 630
Running threw: TypeError: [15, 16, 17, 18].sort(false.watch, {}) is not a function

tryItOut 631
Running threw: ReferenceError: reference to undefined XML name @foo

tryItOut 632
uneval returned the string: []

tryItOut 633
Compiling threw: SyntaxError: label not found

tryItOut 634

tryItOut 635
Compiling threw: SyntaxError: missing ) in parenthetical

tryItOut 636
Compiling threw: SyntaxError: missing variable name

tryItOut 637
Compiling threw: SyntaxError: syntax error

tryItOut 638
Compiling threw: TypeError: generator function anonymous returns a value

tryItOut 639
Compiling threw: SyntaxError: syntax error

tryItOut 640
Running threw: ReferenceError: z1 is not defined

tryItOut 641
Running threw: ReferenceError: reference to undefined XML name *

tryItOut 642

tryItOut 643
Running threw: ReferenceError: reference to undefined XML name *::*

tryItOut 644
Compiling threw: SyntaxError: missing { before function body

tryItOut 645
Compiling threw: SyntaxError: missing ) after for-loop control

tryItOut 646

tryItOut 647

tryItOut 648

tryItOut 649
Compiling threw: SyntaxError: label not found

tryItOut 650

tryItOut 651
Compiling threw: SyntaxError: invalid decrement operand

tryItOut 652

tryItOut 653
Compiling threw: SyntaxError: invalid assignment left-hand side

tryItOut 654

tryItOut 655
Compiling threw: SyntaxError: missing variable name

tryItOut 656
Compiling threw: SyntaxError: missing ) in parenthetical

tryItOut 657

tryItOut 658
Compiling threw: SyntaxError: invalid assignment left-hand side

tryItOut 659
It's an iterator!
Iterating succeeded, iterCount == 1

tryItOut 660
Compiling threw: SyntaxError: missing : after property id

tryItOut 661
Compiling threw: SyntaxError: missing variable name

tryItOut 662
Compiling threw: SyntaxError: missing ; after for-loop initializer

tryItOut 663
Running threw: ReferenceError: reference to undefined XML name *

tryItOut 664
Compiling threw: SyntaxError: missing ) after with-statement object

tryItOut 665
Compiling threw: SyntaxError: syntax error

tryItOut 666
Compiling threw: SyntaxError: invalid continue

tryItOut 667
Running threw: ReferenceError: reference to undefined XML name *

tryItOut 668

tryItOut 669
Compiling threw: SyntaxError: label not found

tryItOut 670
Compiling threw: SyntaxError: syntax error

tryItOut 671
Compiling threw: SyntaxError: invalid for/in left-hand side

tryItOut 672
before 174400, after 174400, break 00c6b000

tryItOut 673
Compiling threw: SyntaxError: missing variable name

tryItOut 674

tryItOut 675
before 174400, after 174400, break 00c6b000

tryItOut 676
It's an iterator!
Iterating threw!
Iterating threw: ReferenceError: z2 is not defined

tryItOut 677

tryItOut 678

tryItOut 679
Compiling threw: SyntaxError: missing variable name

tryItOut 680
Compiling threw: SyntaxError: missing ; after for-loop condition

tryItOut 681
Compiling threw: SyntaxError: missing ) in parenthetical

tryItOut 682
Compiling threw: SyntaxError: invalid assignment left-hand side

tryItOut 683
Compiling threw: SyntaxError: invalid break

tryItOut 684

tryItOut 685

tryItOut 686
Compiling threw: SyntaxError: missing } in compound statement

tryItOut 687

tryItOut 688

tryItOut 689
Compiling threw: SyntaxError: missing variable name

tryItOut 690
Compiling threw: SyntaxError: invalid continue

tryItOut 691

tryItOut 692

tryItOut 693
Compiling threw: SyntaxError: label not found

tryItOut 694
Compiling threw: SyntaxError: missing ) after for-loop control

tryItOut 695

tryItOut 696
It's an iterator!
Iterating threw!
Iterating threw: TypeError: XML filtering predicate operator called on incompatible Number

tryItOut 697
Compiling threw: SyntaxError: missing ) in parenthetical

tryItOut 698

tryItOut 699
Compiling threw: SyntaxError: invalid break

tryItOut 700

tryItOut 701

tryItOut 702
Running threw: ReferenceError: reference to undefined XML name *::*

tryItOut 703
Running threw: TypeError: 1e+81 is not a constructor

tryItOut 704
Compiling threw: SyntaxError: syntax error

tryItOut 705
Running threw: undefined

tryItOut 706

tryItOut 707
Running threw: ReferenceError: reference to undefined XML name @foo

tryItOut 708
Compiling threw: SyntaxError: missing : after property id

tryItOut 709
Compiling threw: SyntaxError: missing { before function body

tryItOut 710

tryItOut 711
Compiling threw: SyntaxError: missing : after property id

tryItOut 712
Compiling threw: SyntaxError: label not found

tryItOut 713
Compiling threw: SyntaxError: invalid for/in left-hand side

tryItOut 714

tryItOut 715

tryItOut 716
It's an iterator!
Iterating threw!
Iterating threw: ReferenceError: reference to undefined XML name *::*

tryItOut 717
Compiling threw: SyntaxError: label not found

tryItOut 718
Running threw: TypeError: null is not a function

tryItOut 719
before 174400, after 174400, break 00c6b000

tryItOut 720

tryItOut 721

tryItOut 722

tryItOut 723
Compiling threw: SyntaxError: invalid assignment left-hand side

tryItOut 724
It's an iterator!
Iterating succeeded, iterCount == 0

tryItOut 725
Compiling threw: SyntaxError: label not found

tryItOut 726

tryItOut 727
Compiling threw: SyntaxError: missing ) in parenthetical

tryItOut 728

tryItOut 729
It's an iterator!
Iterating succeeded, iterCount == 1

tryItOut 730
Compiling threw: SyntaxError: label not found

tryItOut 731
Compiling threw: SyntaxError: label not found

tryItOut 732
Compiling threw: SyntaxError: invalid break

tryItOut 733
before 174400, after 174400, break 00c6b000

tryItOut 734
Compiling threw: SyntaxError: missing : after property id

tryItOut 735
Compiling threw: SyntaxError: label not found

tryItOut 736
Compiling threw: SyntaxError: syntax error

tryItOut 737
Compiling threw: SyntaxError: invalid for/in left-hand side

tryItOut 738
Running threw: TypeError: arguments[0] has no properties

tryItOut 739
Compiling threw: SyntaxError: invalid for/in left-hand side

tryItOut 740

tryItOut 741

tryItOut 742
Compiling threw: SyntaxError: missing ; before statement

tryItOut 743
Compiling threw: SyntaxError: missing ) in parenthetical

tryItOut 744
Compiling threw: SyntaxError: missing { before function body

tryItOut 745

tryItOut 746

tryItOut 747
Compiling threw: SyntaxError: syntax error

tryItOut 748
Compiling threw: SyntaxError: invalid assignment left-hand side

tryItOut 749

tryItOut 750

tryItOut 751
Compiling threw: SyntaxError: missing ; before statement

tryItOut 752
Compiling threw: SyntaxError: missing { before function body

tryItOut 753
Compiling threw: SyntaxError: invalid assignment left-hand side

tryItOut 754
Compiling threw: SyntaxError: missing ) in parenthetical

tryItOut 755
Compiling threw: SyntaxError: missing variable name

tryItOut 756
Running threw: TypeError: undefined is not a function

tryItOut 757

tryItOut 758

tryItOut 759

tryItOut 760
Compiling threw: SyntaxError: missing } after property list

tryItOut 761
Compiling threw: SyntaxError: invalid XML name

tryItOut 762
Compiling threw: SyntaxError: missing ) after for-loop control

tryItOut 763
Compiling threw: SyntaxError: missing ) in parenthetical

tryItOut 764
Compiling threw: SyntaxError: illegal XML character

tryItOut 765

tryItOut 766

tryItOut 767
It's an iterator!
Iterating threw!
Iterating threw: TypeError: this.zzz has no properties

tryItOut 768

tryItOut 769
Running threw: TypeError: this.zzz has no properties

tryItOut 770
Compiling threw: SyntaxError: missing : after property id

tryItOut 771
Compiling threw: SyntaxError: invalid for/in left-hand side

tryItOut 772
It's an iterator!
Iterating succeeded, iterCount == 1

tryItOut 773

tryItOut 774
Compiling threw: TypeError: redeclaration of variable __noSuchMethod__

tryItOut 775

tryItOut 776
Compiling threw: SyntaxError: missing ) in parenthetical

tryItOut 777
Compiling threw: SyntaxError: missing ) in parenthetical

tryItOut 778

tryItOut 779
Compiling threw: SyntaxError: label not found

tryItOut 780

tryItOut 781
Compiling threw: SyntaxError: invalid for/in left-hand side

tryItOut 782
Compiling threw: SyntaxError: missing variable name

tryItOut 783
Compiling threw: SyntaxError: missing variable name

tryItOut 784

tryItOut 785
Compiling threw: SyntaxError: invalid break

tryItOut 786
Compiling threw: SyntaxError: invalid break

tryItOut 787
It's an iterator!
Iterating succeeded, iterCount == 1

tryItOut 788

tryItOut 789
Compiling threw: SyntaxError: invalid for/in left-hand side

tryItOut 790

tryItOut 791
Compiling threw: SyntaxError: invalid break

tryItOut 792
Compiling threw: SyntaxError: invalid for/in left-hand side

tryItOut 793
Compiling threw: SyntaxError: invalid for/in left-hand side

tryItOut 794
It's an iterator!
Iterating succeeded, iterCount == 1

tryItOut 795

tryItOut 796
Compiling threw: SyntaxError: label not found

tryItOut 797

tryItOut 798
Compiling threw: SyntaxError: illegal XML character

tryItOut 799
Compiling threw: SyntaxError: invalid for/in left-hand side

tryItOut 800
Compiling threw: SyntaxError: missing { before function body

tryItOut 801
Running threw: ReferenceError: Exception is not defined

tryItOut 802
Compiling threw: SyntaxError: missing ) in parenthetical

tryItOut 803
Compiling threw: SyntaxError: missing ) in parenthetical

tryItOut 804
It's an iterator!
Iterating threw!
Iterating threw: TypeError: arguments.__noSuchMethod__ has no properties

tryItOut 805
Compiling threw: SyntaxError: missing ) after argument list

tryItOut 806
Compiling threw: SyntaxError: missing ) in parenthetical

tryItOut 807
Compiling threw: SyntaxError: invalid assignment left-hand side

tryItOut 808
Compiling threw: SyntaxError: missing ) in parenthetical

tryItOut 809

tryItOut 810

tryItOut 811
Running threw: ReferenceError: reference to undefined XML name *

tryItOut 812
Compiling threw: SyntaxError: invalid assignment left-hand side

tryItOut 813

tryItOut 814

tryItOut 815

tryItOut 816

tryItOut 817
It's an iterator!
Iterating succeeded, iterCount == 1

tryItOut 818
Running threw: ReferenceError: reference to undefined XML name *

tryItOut 819

tryItOut 820
Running threw: 

tryItOut 821

tryItOut 822

tryItOut 823
Running threw: 111

tryItOut 824
Running threw: ReferenceError: reference to undefined XML name *

tryItOut 825
It's an iterator!
Iterating succeeded, iterCount == 1

tryItOut 826
Compiling threw: SyntaxError: missing formal parameter

tryItOut 827
Compiling threw: SyntaxError: missing } after let block

tryItOut 828
Compiling threw: SyntaxError: missing ) after condition

tryItOut 829
Compiling threw: SyntaxError: syntax error

tryItOut 830
Compiling threw: SyntaxError: invalid continue

tryItOut 831
Running threw: TypeError: arguments[0] has no properties

tryItOut 832
Compiling threw: SyntaxError: missing } after let block

tryItOut 833
Compiling threw: SyntaxError: missing ; after for-loop initializer

tryItOut 834
Compiling threw: SyntaxError: missing { before function body

tryItOut 835
It's an iterator!
Iterating succeeded, iterCount == 1

tryItOut 836
Compiling threw: SyntaxError: missing variable name

tryItOut 837

tryItOut 838
Compiling threw: SyntaxError: missing } after property list

tryItOut 839
Compiling threw: TypeError: redeclaration of var constructor

tryItOut 840
Compiling threw: SyntaxError: invalid assignment left-hand side

tryItOut 841
Compiling threw: SyntaxError: invalid continue

tryItOut 842
Compiling threw: SyntaxError: missing ) after with-statement object

tryItOut 843

tryItOut 844
Compiling threw: SyntaxError: syntax error

tryItOut 845
Running threw: 

tryItOut 846
Compiling threw: SyntaxError: syntax error

tryItOut 847
Running threw: TypeError: (10000).prop has no properties

tryItOut 848
Compiling threw: SyntaxError: missing variable name

tryItOut 849
It's an iterator!
before 191840, after 191840, break 00ca2000
Iterating succeeded, iterCount == 0

tryItOut 850
Compiling threw: SyntaxError: invalid for/in left-hand side

tryItOut 851
Running threw: TypeError: __noSuchMethod__ has no properties

tryItOut 852
Running threw: ReferenceError: reference to undefined XML name @foo

tryItOut 853
Compiling threw: SyntaxError: illegal XML character

tryItOut 854
Compiling threw: SyntaxError: invalid assignment left-hand side

tryItOut 855

tryItOut 856
Compiling threw: SyntaxError: syntax error

tryItOut 857
Compiling threw: SyntaxError: missing = in destructuring declaration

tryItOut 858
Compiling threw: SyntaxError: missing : after property id

tryItOut 859
Compiling threw: SyntaxError: duplicate label

tryItOut 860

tryItOut 861
Compiling threw: SyntaxError: syntax error

tryItOut 862
Compiling threw: SyntaxError: invalid increment operand

tryItOut 863
Running threw: 

tryItOut 864
Compiling threw: SyntaxError: missing ) after for-loop control

tryItOut 865
Running threw: ReferenceError: reference to undefined XML name @foo

tryItOut 866
Compiling threw: SyntaxError: syntax error

tryItOut 867
before 191840, after 191840, break 00ca2000

tryItOut 868

tryItOut 869

tryItOut 870

tryItOut 871

tryItOut 872
before 191840, after 191840, break 00ca2000

tryItOut 873
Running threw: ReferenceError: reference to undefined XML name *::*

tryItOut 874
Running threw: ReferenceError: reference to undefined XML name *

tryItOut 875
Compiling threw: SyntaxError: illegal XML character

tryItOut 876

tryItOut 877
Compiling threw: SyntaxError: invalid assignment left-hand side

tryItOut 878
Running threw: ReferenceError: reference to undefined XML name *

tryItOut 879
Compiling threw: SyntaxError: invalid for/in left-hand side

tryItOut 880

tryItOut 881
Running threw: ReferenceError: reference to undefined XML name *

tryItOut 882
Running threw: undefined

tryItOut 883
Compiling threw: SyntaxError: invalid for/in left-hand side

tryItOut 884

tryItOut 885
Compiling threw: SyntaxError: syntax error

tryItOut 886

tryItOut 887
Compiling threw: SyntaxError: label not found

tryItOut 888
Compiling threw: SyntaxError: label not found

tryItOut 889

tryItOut 890

tryItOut 891
before 191840, after 191840, break 00ca2000

tryItOut 892
It's an iterator!
Iterating threw!
Iterating threw: TypeError: __parent__ has no properties

tryItOut 893
Compiling threw: SyntaxError: invalid for/in left-hand side

tryItOut 894
Compiling threw: SyntaxError: missing variable name

tryItOut 895
Compiling threw: SyntaxError: missing ) in parenthetical

tryItOut 896

tryItOut 897

tryItOut 898

tryItOut 899
Compiling threw: SyntaxError: missing ) after condition

tryItOut 900
Compiling threw: SyntaxError: missing { before function body

tryItOut 901

tryItOut 902

tryItOut 903

tryItOut 904
Compiling threw: SyntaxError: invalid property id

tryItOut 905

tryItOut 906
Compiling threw: SyntaxError: syntax error

tryItOut 907
before 191840, after 191840, break 00ca2000

tryItOut 908

tryItOut 909
Running threw: SyntaxError: invalid setter usage

tryItOut 910

tryItOut 911

tryItOut 912
Compiling threw: SyntaxError: missing formal parameter

tryItOut 913
Compiling threw: SyntaxError: invalid assignment left-hand side

tryItOut 914
Compiling threw: SyntaxError: invalid property id

tryItOut 915
Compiling threw: SyntaxError: missing ) in parenthetical

tryItOut 916
Running threw: ReferenceError: reference to undefined XML name @foo

tryItOut 917
Compiling threw: SyntaxError: missing ) in parenthetical

tryItOut 918

tryItOut 919

tryItOut 920

tryItOut 921

tryItOut 922

tryItOut 923
Compiling threw: SyntaxError: syntax error

tryItOut 924
Compiling threw: SyntaxError: missing ) in parenthetical

tryItOut 925
Compiling threw: SyntaxError: missing formal parameter

tryItOut 926
Compiling threw: SyntaxError: invalid for/in left-hand side

tryItOut 927
Compiling threw: SyntaxError: label not found

tryItOut 928
Compiling threw: SyntaxError: invalid property id

tryItOut 929

tryItOut 930
before 191840, after 191840, break 00ca2000

tryItOut 931

tryItOut 932
Compiling threw: SyntaxError: invalid for/in left-hand side

tryItOut 933
Running threw: SyntaxError: missing ] after element list

tryItOut 934

tryItOut 935
Compiling threw: SyntaxError: label not found

tryItOut 936

tryItOut 937
Compiling threw: SyntaxError: missing variable name

tryItOut 938
Running threw: TypeError: arguments[0] has no properties

tryItOut 939
Compiling threw: SyntaxError: invalid decrement operand

tryItOut 940
Compiling threw: SyntaxError: label not found

tryItOut 941

tryItOut 942

tryItOut 943
before 191840, after 191840, break 00ca2000

tryItOut 944
Compiling threw: SyntaxError: missing { before function body

tryItOut 945
Compiling threw: SyntaxError: missing ) in parenthetical

tryItOut 946
Compiling threw: SyntaxError: invalid for/in left-hand side

tryItOut 947

tryItOut 948

tryItOut 949
It's an iterator!
Iterating succeeded, iterCount == 1

tryItOut 950
Compiling threw: SyntaxError: missing = in destructuring declaration

tryItOut 951

tryItOut 952

tryItOut 953
Compiling threw: SyntaxError: label not found

tryItOut 954
Running threw: TypeError: this.__defineSetter__("constructor", (function (id) {return id;} & false).watch) has no properties

tryItOut 955
Running threw: TypeError: undefined is not a function

tryItOut 956
Running threw: TypeError: undefined is not a function

tryItOut 957
Compiling threw: SyntaxError: missing { before function body

tryItOut 958
Running threw: ReferenceError: z2 is not defined

tryItOut 959
Compiling threw: SyntaxError: missing variable name

tryItOut 960
Compiling threw: SyntaxError: syntax error

tryItOut 961
Running threw: TypeError: <x>
  <y/>
</x> is not a function

tryItOut 962

tryItOut 963

tryItOut 964
Compiling threw: SyntaxError: invalid increment operand

tryItOut 965
It's an iterator!
Iterating threw!
Iterating threw: ReferenceError: z1 is not defined

tryItOut 966
Compiling threw: SyntaxError: missing ) in parenthetical

tryItOut 967

tryItOut 968
Running threw: ReferenceError: reference to undefined XML name @foo

tryItOut 969
Compiling threw: SyntaxError: illegal XML character

tryItOut 970
Compiling threw: SyntaxError: invalid for/in left-hand side

tryItOut 971

tryItOut 972
Compiling threw: SyntaxError: missing variable name

tryItOut 973
Compiling threw: SyntaxError: invalid for/in left-hand side

tryItOut 974

tryItOut 975

tryItOut 976

tryItOut 977
Compiling threw: SyntaxError: invalid continue

tryItOut 978

tryItOut 979
It's an iterator!
Iterating succeeded, iterCount == 1

tryItOut 980

tryItOut 981
Compiling threw: SyntaxError: illegal XML character

tryItOut 982

tryItOut 983
Running threw: TypeError: null has no properties

tryItOut 984
Running threw: ReferenceError: reference to undefined XML name *::*

tryItOut 985
It's an iterator!
Iterating succeeded, iterCount == 1

tryItOut 986
Compiling threw: SyntaxError: missing variable name

tryItOut 987

tryItOut 988

tryItOut 989
Running threw: TypeError: this.__defineGetter__("prototype", Function) has no properties

tryItOut 990
Compiling threw: SyntaxError: missing { before function body

tryItOut 991
Compiling threw: TypeError: redeclaration of var prototype

tryItOut 992

tryItOut 993
Compiling threw: SyntaxError: missing ; before statement

tryItOut 994
Compiling threw: SyntaxError: invalid break

tryItOut 995

tryItOut 996

tryItOut 997

tryItOut 998
Compiling threw: SyntaxError: missing variable name

tryItOut 999
Compiling threw: SyntaxError: missing : after property id

tryItOut 1000
Compiling threw: SyntaxError: missing variable name

ALL OK

Script done on Sat 04 May 2013 06:52:24 AM PDT
