Script started on Sat 04 May 2013 06:52:13 AM PDT
***
Targeting SpiderMonkey / Gecko.

tryItOut 1
Compiling threw: SyntaxError: invalid for/in left-hand side

tryItOut 2
Compiling threw: SyntaxError: missing ; before statement

tryItOut 3
It's an iterator!
Iterating succeeded, iterCount == 1

tryItOut 4
Compiling threw: SyntaxError: missing { before function body

tryItOut 5
Compiling threw: SyntaxError: invalid for/in left-hand side

tryItOut 6

tryItOut 7
Compiling threw: SyntaxError: missing ) after condition

tryItOut 8
It's an iterator!
before 69760, after 69760, break 01f08000
Iterating threw!
Iterating threw: TypeError: <x><y/></x>.(/x/).yoyo is not a function

tryItOut 9

tryItOut 10

tryItOut 11

tryItOut 12

tryItOut 13

tryItOut 14

tryItOut 15
Compiling threw: SyntaxError: invalid assignment left-hand side

tryItOut 16
Compiling threw: SyntaxError: syntax error

tryItOut 17
Compiling threw: SyntaxError: invalid assignment left-hand side

tryItOut 18

tryItOut 19
It's an iterator!
Iterating succeeded, iterCount == 1

tryItOut 20

tryItOut 21

tryItOut 22
Compiling threw: SyntaxError: missing = in destructuring declaration

tryItOut 23
Compiling threw: SyntaxError: missing { before function body

tryItOut 24

tryItOut 25
Compiling threw: SyntaxError: label not found

tryItOut 26
Compiling threw: SyntaxError: missing ) in parenthetical

tryItOut 27
Compiling threw: SyntaxError: missing { before function body

tryItOut 28

tryItOut 29

tryItOut 30
Compiling threw: SyntaxError: invalid for/in left-hand side

tryItOut 31
Compiling threw: SyntaxError: label not found

tryItOut 32

tryItOut 33

tryItOut 34
Running threw: ReferenceError: __iterator__ is not defined

tryItOut 35
Compiling threw: SyntaxError: invalid destructuring assignment operator

tryItOut 36

tryItOut 37
It's an iterator!
Iterating threw!
Iterating threw: SyntaxError: invalid assignment left-hand side

tryItOut 38
Compiling threw: SyntaxError: syntax error

tryItOut 39
Compiling threw: SyntaxError: missing while after do-loop body

tryItOut 40
Compiling threw: SyntaxError: syntax error

tryItOut 41

tryItOut 42
Compiling threw: SyntaxError: label not found

tryItOut 43

tryItOut 44
Compiling threw: SyntaxError: illegal XML character

tryItOut 45

tryItOut 46

tryItOut 47

tryItOut 48
Compiling threw: SyntaxError: invalid for/in left-hand side

tryItOut 49

tryItOut 50

tryItOut 51

tryItOut 52
Compiling threw: SyntaxError: syntax error

tryItOut 53
Compiling threw: SyntaxError: syntax error

tryItOut 54
Compiling threw: SyntaxError: invalid assignment left-hand side

tryItOut 55
Compiling threw: SyntaxError: syntax error

tryItOut 56
Compiling threw: SyntaxError: missing while after do-loop body

tryItOut 57
Running threw: ReferenceError: z1 is not defined

tryItOut 58

tryItOut 59

tryItOut 60

tryItOut 61
Compiling threw: SyntaxError: missing ; before statement

tryItOut 62
Compiling threw: SyntaxError: syntax error

tryItOut 63
Compiling threw: SyntaxError: syntax error

tryItOut 64
Compiling threw: SyntaxError: missing ( before let head

tryItOut 65

tryItOut 66
Compiling threw: SyntaxError: missing ; after for-loop initializer

tryItOut 67

tryItOut 68
Compiling threw: SyntaxError: invalid increment operand

tryItOut 69

tryItOut 70

tryItOut 71
Compiling threw: SyntaxError: invalid increment operand

tryItOut 72
Compiling threw: SyntaxError: invalid assignment left-hand side

tryItOut 73
Compiling threw: TypeError: redeclaration of variable __proto__

tryItOut 74
Compiling threw: SyntaxError: invalid break

tryItOut 75
Compiling threw: SyntaxError: syntax error

tryItOut 76

tryItOut 77

tryItOut 78

tryItOut 79

tryItOut 80
Compiling threw: SyntaxError: label not found

tryItOut 81

tryItOut 82
Compiling threw: SyntaxError: syntax error

tryItOut 83

tryItOut 84

tryItOut 85

tryItOut 86

tryItOut 87
Compiling threw: SyntaxError: syntax error

tryItOut 88
Compiling threw: SyntaxError: missing ) in parenthetical

tryItOut 89

tryItOut 90
Compiling threw: SyntaxError: missing { before function body

tryItOut 91

tryItOut 92

tryItOut 93

tryItOut 94
Compiling threw: SyntaxError: duplicate label

tryItOut 95
Compiling threw: SyntaxError: missing = in destructuring declaration

tryItOut 96
Compiling threw: SyntaxError: label not found

tryItOut 97
Compiling threw: SyntaxError: missing ) in parenthetical

tryItOut 98

tryItOut 99
Compiling threw: SyntaxError: invalid assignment left-hand side

tryItOut 100
Compiling threw: SyntaxError: syntax error

tryItOut 101
Compiling threw: SyntaxError: invalid for/in left-hand side

tryItOut 102
Compiling threw: SyntaxError: missing ; after for-loop initializer

tryItOut 103
It's an iterator!
Iterating succeeded, iterCount == 1

tryItOut 104
Compiling threw: SyntaxError: invalid for/in left-hand side

tryItOut 105
Compiling threw: SyntaxError: syntax error

tryItOut 106
Compiling threw: SyntaxError: missing ) in parenthetical

tryItOut 107

tryItOut 108

tryItOut 109

tryItOut 110
Compiling threw: SyntaxError: missing ; before statement

tryItOut 111
Compiling threw: SyntaxError: syntax error

tryItOut 112

tryItOut 113
It's an iterator!
Iterating succeeded, iterCount == 1

tryItOut 114
Compiling threw: SyntaxError: missing ) in parenthetical

tryItOut 115
Compiling threw: SyntaxError: syntax error

tryItOut 116
Compiling threw: SyntaxError: invalid for/in left-hand side

tryItOut 117
Compiling threw: SyntaxError: missing variable name

tryItOut 118
Compiling threw: SyntaxError: missing variable name

tryItOut 119

tryItOut 120
Compiling threw: SyntaxError: syntax error

tryItOut 121
Compiling threw: SyntaxError: invalid for/in left-hand side

tryItOut 122
Compiling threw: SyntaxError: missing ; after for-loop initializer

tryItOut 123
Compiling threw: SyntaxError: missing ) in parenthetical

tryItOut 124

tryItOut 125
Compiling threw: SyntaxError: invalid for/in left-hand side

tryItOut 126
Compiling threw: SyntaxError: syntax error

tryItOut 127

tryItOut 128

tryItOut 129

tryItOut 130

tryItOut 131

tryItOut 132

tryItOut 133

tryItOut 134
Compiling threw: SyntaxError: syntax error

tryItOut 135
Compiling threw: SyntaxError: missing = in destructuring declaration

tryItOut 136
Compiling threw: SyntaxError: invalid for/in left-hand side

tryItOut 137
Compiling threw: SyntaxError: label not found

tryItOut 138
Compiling threw: SyntaxError: missing { before function body

tryItOut 139
It's an iterator!
Iterating succeeded, iterCount == 1

tryItOut 140

tryItOut 141
Compiling threw: SyntaxError: invalid assignment left-hand side

tryItOut 142
Compiling threw: SyntaxError: missing ; after for-loop initializer

tryItOut 143
Compiling threw: SyntaxError: syntax error

tryItOut 144
Compiling threw: SyntaxError: illegal XML character

tryItOut 145

tryItOut 146
Running threw: ReferenceError: prototype is not defined

tryItOut 147

tryItOut 148
Compiling threw: SyntaxError: invalid XML name

tryItOut 149
Compiling threw: SyntaxError: syntax error

tryItOut 150

tryItOut 151
Compiling threw: SyntaxError: invalid for/in left-hand side

tryItOut 152
Compiling threw: SyntaxError: invalid assignment left-hand side

tryItOut 153
Compiling threw: SyntaxError: missing { before function body

tryItOut 154
Compiling threw: SyntaxError: syntax error

tryItOut 155
Compiling threw: SyntaxError: syntax error

tryItOut 156
It's an iterator!
Iterating succeeded, iterCount == 1

tryItOut 157
Compiling threw: SyntaxError: missing ) in parenthetical

tryItOut 158
Compiling threw: SyntaxError: invalid continue

tryItOut 159
Compiling threw: SyntaxError: missing ; before statement

tryItOut 160
It's an iterator!
Iterating succeeded, iterCount == 0

tryItOut 161
Compiling threw: SyntaxError: syntax error

tryItOut 162

tryItOut 163
Compiling threw: SyntaxError: missing variable name

tryItOut 164

tryItOut 165
Compiling threw: SyntaxError: missing ; before statement

tryItOut 166
Compiling threw: SyntaxError: missing ; before statement

tryItOut 167
Compiling threw: SyntaxError: syntax error

tryItOut 168

tryItOut 169
Compiling threw: SyntaxError: missing { before function body

tryItOut 170
Compiling threw: SyntaxError: syntax error

tryItOut 171

tryItOut 172

tryItOut 173

tryItOut 174
Compiling threw: SyntaxError: invalid for/in left-hand side

tryItOut 175
It's an iterator!
Iterating succeeded, iterCount == 1

tryItOut 176
It's an iterator!
Iterating succeeded, iterCount == 1

tryItOut 177
Compiling threw: SyntaxError: invalid for/in left-hand side

tryItOut 178

tryItOut 179

tryItOut 180
Compiling threw: SyntaxError: syntax error

tryItOut 181
It's an iterator!
Iterating succeeded, iterCount == 1

tryItOut 182

tryItOut 183
Compiling threw: SyntaxError: missing ; before statement

tryItOut 184
Compiling threw: SyntaxError: missing ; before statement

tryItOut 185
Compiling threw: SyntaxError: label not found

tryItOut 186

tryItOut 187
Compiling threw: SyntaxError: invalid for/in left-hand side

tryItOut 188
Compiling threw: SyntaxError: label not found

tryItOut 189
Compiling threw: SyntaxError: invalid for/in left-hand side

tryItOut 190

tryItOut 191
Compiling threw: SyntaxError: missing ; after for-loop initializer

tryItOut 192

tryItOut 193
Compiling threw: SyntaxError: missing ) after condition

tryItOut 194

tryItOut 195
Compiling threw: SyntaxError: missing ; before statement

tryItOut 196
Running threw: ReferenceError: z2 is not defined

tryItOut 197

tryItOut 198

tryItOut 199
Compiling threw: SyntaxError: invalid assignment left-hand side

tryItOut 200
Running threw: /x/g

tryItOut 201

tryItOut 202
Compiling threw: SyntaxError: missing } in XML expression

tryItOut 203
Compiling threw: SyntaxError: invalid for/in left-hand side

tryItOut 204
Compiling threw: SyntaxError: syntax error

tryItOut 205
Compiling threw: SyntaxError: missing ; before statement

tryItOut 206
Running threw: TypeError: undefined has no properties

tryItOut 207
Compiling threw: SyntaxError: invalid for/in left-hand side

tryItOut 208
Compiling threw: SyntaxError: missing variable name

tryItOut 209

tryItOut 210
Compiling threw: SyntaxError: missing { before function body

tryItOut 211
Compiling threw: SyntaxError: missing { before function body

tryItOut 212
Compiling threw: SyntaxError: missing { before function body

tryItOut 213

tryItOut 214
It's an iterator!
Iterating threw!
Iterating threw: TypeError: undefined has no properties

tryItOut 215

tryItOut 216
Compiling threw: SyntaxError: invalid property id

tryItOut 217
Compiling threw: SyntaxError: invalid for/in left-hand side

tryItOut 218

tryItOut 219
Compiling threw: SyntaxError: invalid for/in left-hand side

tryItOut 220
It's an iterator!
Iterating succeeded, iterCount == 1

tryItOut 221

tryItOut 222
It's an iterator!
Iterating succeeded, iterCount == 1

tryItOut 223
Compiling threw: SyntaxError: missing ) in parenthetical

tryItOut 224

tryItOut 225
Compiling threw: SyntaxError: missing { before function body

tryItOut 226
Compiling threw: SyntaxError: syntax error

tryItOut 227
Compiling threw: SyntaxError: syntax error

tryItOut 228
Compiling threw: SyntaxError: syntax error

tryItOut 229
Compiling threw: SyntaxError: missing ) in parenthetical

tryItOut 230
Compiling threw: SyntaxError: invalid for each loop

tryItOut 231
Compiling threw: SyntaxError: label not found

tryItOut 232
Compiling threw: SyntaxError: invalid for/in left-hand side

tryItOut 233
Compiling threw: SyntaxError: syntax error

tryItOut 234

tryItOut 235
Compiling threw: SyntaxError: missing variable name

tryItOut 236

tryItOut 237

tryItOut 238
Running threw: ReferenceError: z2 is not defined

tryItOut 239
Compiling threw: SyntaxError: syntax error

tryItOut 240
Compiling threw: SyntaxError: syntax error

tryItOut 241

tryItOut 242

tryItOut 243
Compiling threw: SyntaxError: missing ) in parenthetical

tryItOut 244
Running threw: null

tryItOut 245
Compiling threw: SyntaxError: missing ) after condition

tryItOut 246

tryItOut 247
It's an iterator!
Iterating succeeded, iterCount == 1

tryItOut 248
Compiling threw: SyntaxError: missing variable name

tryItOut 249
Compiling threw: SyntaxError: missing variable name

tryItOut 250

tryItOut 251

tryItOut 252
It's an iterator!
Iterating succeeded, iterCount == 1

tryItOut 253
Compiling threw: SyntaxError: invalid for/in left-hand side

tryItOut 254
Compiling threw: SyntaxError: invalid for/in left-hand side

tryItOut 255
Running threw: SyntaxError: invalid setter usage

tryItOut 256
Compiling threw: SyntaxError: label not found

tryItOut 257

tryItOut 258
Compiling threw: SyntaxError: syntax error

tryItOut 259
Compiling threw: SyntaxError: invalid for/in left-hand side

tryItOut 260
Compiling threw: SyntaxError: invalid continue

tryItOut 261
Compiling threw: SyntaxError: invalid for/in left-hand side

tryItOut 262
Compiling threw: SyntaxError: missing variable name

tryItOut 263

tryItOut 264
It's an iterator!
Iterating threw!
Iterating threw: TypeError: "".unwatch("__iterator__") has no properties

tryItOut 265
Compiling threw: SyntaxError: missing { before function body

tryItOut 266
Compiling threw: SyntaxError: syntax error

tryItOut 267

tryItOut 268
Compiling threw: SyntaxError: syntax error

tryItOut 269
Compiling threw: SyntaxError: missing variable name

tryItOut 270
Running threw: TypeError: undefined has no properties

tryItOut 271
Compiling threw: SyntaxError: missing ( after for

tryItOut 272
It's an iterator!
Iterating threw!
Iterating threw: TypeError: __parent__ has no properties

tryItOut 273
Compiling threw: SyntaxError: invalid for/in left-hand side

tryItOut 274

tryItOut 275

tryItOut 276
Compiling threw: SyntaxError: syntax error

tryItOut 277
Compiling threw: SyntaxError: illegal XML character

tryItOut 278

tryItOut 279
Compiling threw: SyntaxError: missing { before function body

tryItOut 280
Compiling threw: SyntaxError: missing ; after for-loop initializer

tryItOut 281
Compiling threw: SyntaxError: invalid for/in left-hand side

tryItOut 282
Compiling threw: SyntaxError: syntax error

tryItOut 283
Compiling threw: SyntaxError: illegal XML character

tryItOut 284
Compiling threw: SyntaxError: syntax error

tryItOut 285

tryItOut 286
Compiling threw: SyntaxError: invalid for/in left-hand side

tryItOut 287
Compiling threw: TypeError: redeclaration of variable __count__

tryItOut 288
Compiling threw: SyntaxError: missing variable name

tryItOut 289

tryItOut 290
Compiling threw: SyntaxError: invalid for/in left-hand side

tryItOut 291
Compiling threw: SyntaxError: duplicate label

tryItOut 292
Compiling threw: SyntaxError: missing while after do-loop body

tryItOut 293
Compiling threw: SyntaxError: missing variable name

tryItOut 294
Compiling threw: SyntaxError: missing variable name

tryItOut 295

tryItOut 296

tryItOut 297

tryItOut 298

tryItOut 299
Compiling threw: SyntaxError: invalid for each loop

tryItOut 300
Compiling threw: SyntaxError: missing ; after for-loop initializer

tryItOut 301
Compiling threw: SyntaxError: missing ; before statement

tryItOut 302
Compiling threw: SyntaxError: syntax error

tryItOut 303
Compiling threw: SyntaxError: missing variable name

tryItOut 304

tryItOut 305
Running threw: TypeError: this.zzz has no properties

tryItOut 306
Compiling threw: SyntaxError: invalid assignment left-hand side

tryItOut 307
Compiling threw: SyntaxError: invalid continue

tryItOut 308
Compiling threw: SyntaxError: invalid assignment left-hand side

tryItOut 309
Compiling threw: SyntaxError: syntax error

tryItOut 310
Compiling threw: SyntaxError: label not found

tryItOut 311

tryItOut 312

tryItOut 313
Compiling threw: SyntaxError: invalid decrement operand

tryItOut 314
Compiling threw: SyntaxError: syntax error

tryItOut 315
Compiling threw: SyntaxError: missing variable name

tryItOut 316
It's an iterator!
Iterating threw!
Iterating threw: TypeError: arguments[0] has no properties

tryItOut 317

tryItOut 318

tryItOut 319
Compiling threw: SyntaxError: invalid assignment left-hand side

tryItOut 320

tryItOut 321
Compiling threw: SyntaxError: duplicate label

tryItOut 322
Compiling threw: SyntaxError: missing formal parameter

tryItOut 323

tryItOut 324
Compiling threw: SyntaxError: missing ; before statement

tryItOut 325

tryItOut 326
Compiling threw: SyntaxError: missing = in destructuring declaration

tryItOut 327
It's an iterator!
Iterating succeeded, iterCount == 1

tryItOut 328
It's an iterator!
Iterating succeeded, iterCount == 1

tryItOut 329

tryItOut 330
Compiling threw: SyntaxError: missing ) in parenthetical

tryItOut 331

tryItOut 332
Compiling threw: SyntaxError: missing { before function body

tryItOut 333
Running threw: false

tryItOut 334
Compiling threw: SyntaxError: missing { before function body

tryItOut 335
Compiling threw: SyntaxError: missing ; before statement

tryItOut 336

tryItOut 337

tryItOut 338

tryItOut 339

tryItOut 340
It's an iterator!
Iterating succeeded, iterCount == 1

tryItOut 341
Compiling threw: SyntaxError: missing ) in parenthetical

tryItOut 342

tryItOut 343
It's an iterator!
Iterating succeeded, iterCount == 1

tryItOut 344
Compiling threw: SyntaxError: syntax error

tryItOut 345
Compiling threw: SyntaxError: illegal XML character

tryItOut 346

tryItOut 347

tryItOut 348
Compiling threw: SyntaxError: missing ; before statement

tryItOut 349
Compiling threw: SyntaxError: missing ) in parenthetical

tryItOut 350
Compiling threw: SyntaxError: syntax error

tryItOut 351
Compiling threw: SyntaxError: missing : after property id

tryItOut 352
Compiling threw: SyntaxError: invalid for/in left-hand side

tryItOut 353

tryItOut 354
Compiling threw: SyntaxError: missing { before function body

tryItOut 355

tryItOut 356
Compiling threw: TypeError: redeclaration of const __noSuchMethod__

tryItOut 357
Compiling threw: SyntaxError: syntax error

tryItOut 358
Compiling threw: SyntaxError: syntax error

tryItOut 359
It's an iterator!
Iterating threw!
Iterating threw: 

tryItOut 360

tryItOut 361
Compiling threw: SyntaxError: missing ) in parenthetical

tryItOut 362
Compiling threw: SyntaxError: missing ) in parenthetical

tryItOut 363
Compiling threw: SyntaxError: invalid assignment left-hand side

tryItOut 364
Compiling threw: SyntaxError: invalid assignment left-hand side

tryItOut 365
Compiling threw: SyntaxError: syntax error

tryItOut 366

tryItOut 367
Compiling threw: SyntaxError: invalid assignment left-hand side

tryItOut 368

tryItOut 369
Compiling threw: SyntaxError: syntax error

tryItOut 370
Compiling threw: SyntaxError: syntax error

tryItOut 371
Compiling threw: SyntaxError: missing formal parameter

tryItOut 372
Compiling threw: SyntaxError: syntax error

tryItOut 373

tryItOut 374
Running threw: TypeError: Function.prototype.apply called on incompatible [object global]

tryItOut 375

tryItOut 376
Compiling threw: SyntaxError: missing ) in parenthetical

tryItOut 377

tryItOut 378
It's an iterator!
Iterating succeeded, iterCount == 1

tryItOut 379

tryItOut 380
Compiling threw: SyntaxError: label not found

tryItOut 381
Compiling threw: SyntaxError: missing ; after for-loop initializer

tryItOut 382

tryItOut 383
It's an iterator!
Iterating succeeded, iterCount == 1

tryItOut 384
Running threw: ReferenceError: z1 is not defined

tryItOut 385
Compiling threw: SyntaxError: missing ) in parenthetical

tryItOut 386

tryItOut 387
Compiling threw: SyntaxError: missing ) in parenthetical

tryItOut 388
Compiling threw: SyntaxError: missing ) in parenthetical

tryItOut 389

tryItOut 390

tryItOut 391

tryItOut 392

tryItOut 393
It's an iterator!
Iterating succeeded, iterCount == 1

tryItOut 394
Compiling threw: SyntaxError: invalid break

tryItOut 395

tryItOut 396

tryItOut 397

tryItOut 398

tryItOut 399
Compiling threw: SyntaxError: syntax error

tryItOut 400
Compiling threw: SyntaxError: invalid for/in left-hand side

tryItOut 401

tryItOut 402

tryItOut 403

tryItOut 404
Compiling threw: SyntaxError: missing ; after for-loop initializer

tryItOut 405

tryItOut 406
Compiling threw: SyntaxError: missing ; before statement

tryItOut 407
Compiling threw: SyntaxError: invalid property id

tryItOut 408
Compiling threw: SyntaxError: syntax error

tryItOut 409

tryItOut 410
Compiling threw: SyntaxError: missing variable name

tryItOut 411
Compiling threw: SyntaxError: syntax error

tryItOut 412
Compiling threw: SyntaxError: missing ; before statement

tryItOut 413
Compiling threw: SyntaxError: missing ; before statement

tryItOut 414
Compiling threw: SyntaxError: invalid for/in left-hand side

tryItOut 415

tryItOut 416
Compiling threw: SyntaxError: missing variable name

tryItOut 417

tryItOut 418

tryItOut 419
Compiling threw: SyntaxError: syntax error

tryItOut 420
Compiling threw: SyntaxError: missing { before function body

tryItOut 421

tryItOut 422
It's an iterator!
Iterating threw!
Iterating threw: ReferenceError: z1 is not defined

tryItOut 423

tryItOut 424

tryItOut 425
Compiling threw: SyntaxError: invalid for/in left-hand side

tryItOut 426

tryItOut 427
Compiling threw: SyntaxError: syntax error

tryItOut 428

tryItOut 429

tryItOut 430
Compiling threw: SyntaxError: syntax error

tryItOut 431
Compiling threw: SyntaxError: missing : after property id

tryItOut 432

tryItOut 433
Compiling threw: SyntaxError: missing { before function body

tryItOut 434
Compiling threw: SyntaxError: invalid for/in left-hand side

tryItOut 435
Compiling threw: SyntaxError: syntax error

tryItOut 436
Compiling threw: SyntaxError: syntax error

tryItOut 437
Compiling threw: SyntaxError: invalid break

tryItOut 438

tryItOut 439
Compiling threw: SyntaxError: invalid continue

tryItOut 440
Compiling threw: SyntaxError: syntax error

tryItOut 441
Compiling threw: SyntaxError: syntax error

tryItOut 442
Compiling threw: SyntaxError: syntax error

tryItOut 443
Compiling threw: SyntaxError: invalid for/in left-hand side

tryItOut 444
It's an iterator!
Iterating succeeded, iterCount == 1

tryItOut 445

tryItOut 446
Compiling threw: SyntaxError: label not found

tryItOut 447
Compiling threw: SyntaxError: missing ; before statement

tryItOut 448
Compiling threw: SyntaxError: missing variable name

tryItOut 449
Compiling threw: SyntaxError: label not found

tryItOut 450

tryItOut 451

tryItOut 452
Compiling threw: SyntaxError: invalid for/in left-hand side

tryItOut 453

tryItOut 454
Compiling threw: SyntaxError: label not found

tryItOut 455

tryItOut 456
Compiling threw: SyntaxError: missing ) in parenthetical

tryItOut 457

tryItOut 458
Compiling threw: SyntaxError: missing ) in parenthetical

tryItOut 459
Compiling threw: SyntaxError: missing variable name

tryItOut 460
Compiling threw: SyntaxError: syntax error

tryItOut 461
It's an iterator!
Iterating succeeded, iterCount == 1

tryItOut 462
Compiling threw: SyntaxError: syntax error

tryItOut 463

tryItOut 464
Compiling threw: SyntaxError: label not found

tryItOut 465
Compiling threw: SyntaxError: invalid for each loop

tryItOut 466
Compiling threw: TypeError: redeclaration of variable __noSuchMethod__

tryItOut 467
It's an iterator!
Iterating threw!
Iterating threw: TypeError: undefined has no properties

tryItOut 468

tryItOut 469
Compiling threw: SyntaxError: missing ) after condition

tryItOut 470
It's an iterator!
Iterating succeeded, iterCount == 1

tryItOut 471

tryItOut 472
Compiling threw: SyntaxError: syntax error

tryItOut 473
Compiling threw: SyntaxError: syntax error

tryItOut 474
Compiling threw: SyntaxError: invalid assignment left-hand side

tryItOut 475
Compiling threw: SyntaxError: missing { before function body

tryItOut 476
Compiling threw: SyntaxError: missing ) in parenthetical

tryItOut 477
Compiling threw: SyntaxError: missing ; before statement

tryItOut 478
It's an iterator!
Iterating succeeded, iterCount == 1

tryItOut 479
Compiling threw: SyntaxError: invalid for/in left-hand side

tryItOut 480

tryItOut 481

tryItOut 482
It's an iterator!
Iterating succeeded, iterCount == 1

tryItOut 483
Compiling threw: SyntaxError: syntax error

tryItOut 484
Compiling threw: SyntaxError: invalid for/in left-hand side

tryItOut 485
Compiling threw: SyntaxError: missing { before function body

tryItOut 486
It's an iterator!
Iterating succeeded, iterCount == 1

tryItOut 487
Compiling threw: SyntaxError: invalid for/in left-hand side

tryItOut 488

tryItOut 489
Compiling threw: SyntaxError: missing ; before statement

tryItOut 490
Compiling threw: SyntaxError: missing ) in parenthetical

tryItOut 491

tryItOut 492
Compiling threw: SyntaxError: invalid assignment left-hand side

tryItOut 493
Compiling threw: SyntaxError: syntax error

tryItOut 494
Compiling threw: SyntaxError: invalid assignment left-hand side

tryItOut 495
Compiling threw: TypeError: redeclaration of variable constructor

tryItOut 496

tryItOut 497
Compiling threw: SyntaxError: syntax error

tryItOut 498
Compiling threw: SyntaxError: missing variable name

tryItOut 499

tryItOut 500
Compiling threw: SyntaxError: illegal XML character

tryItOut 501

tryItOut 502
Running threw: ReferenceError: z1 is not defined

tryItOut 503

tryItOut 504
Compiling threw: SyntaxError: syntax error

tryItOut 505
Compiling threw: SyntaxError: illegal XML character

tryItOut 506
Compiling threw: SyntaxError: missing { before function body

tryItOut 507
Compiling threw: SyntaxError: missing ; before statement

tryItOut 508
Compiling threw: SyntaxError: missing variable name

tryItOut 509
Compiling threw: SyntaxError: syntax error

tryItOut 510
Compiling threw: SyntaxError: invalid break

tryItOut 511
Compiling threw: SyntaxError: syntax error

tryItOut 512

tryItOut 513
Compiling threw: SyntaxError: syntax error

tryItOut 514

tryItOut 515
Compiling threw: SyntaxError: missing ) in parenthetical

tryItOut 516
Compiling threw: SyntaxError: missing { before function body

tryItOut 517

tryItOut 518

tryItOut 519

tryItOut 520

tryItOut 521

tryItOut 522
Compiling threw: SyntaxError: invalid increment operand

tryItOut 523
Compiling threw: SyntaxError: invalid for/in left-hand side

tryItOut 524
Compiling threw: SyntaxError: invalid for each loop

tryItOut 525
Compiling threw: SyntaxError: illegal XML character

tryItOut 526
Compiling threw: SyntaxError: invalid assignment left-hand side

tryItOut 527
Compiling threw: TypeError: redeclaration of const constructor

tryItOut 528
It's an iterator!
Iterating threw!
Iterating threw: TypeError: XML filtering predicate operator called on incompatible Function

tryItOut 529
Compiling threw: SyntaxError: missing ) in parenthetical

tryItOut 530
Compiling threw: SyntaxError: syntax error

tryItOut 531
Compiling threw: SyntaxError: illegal XML character

tryItOut 532

tryItOut 533
Compiling threw: SyntaxError: missing { before function body

tryItOut 534

tryItOut 535

tryItOut 536
Compiling threw: SyntaxError: missing while after do-loop body

tryItOut 537
Compiling threw: SyntaxError: missing ( before formal parameters

tryItOut 538
Compiling threw: SyntaxError: invalid increment operand

tryItOut 539
Compiling threw: SyntaxError: missing ; before statement

tryItOut 540
Compiling threw: SyntaxError: missing variable name

tryItOut 541
Compiling threw: SyntaxError: invalid for/in left-hand side

tryItOut 542
Compiling threw: SyntaxError: syntax error

tryItOut 543
Compiling threw: SyntaxError: missing { before function body

tryItOut 544
Compiling threw: SyntaxError: syntax error

tryItOut 545

tryItOut 546
Compiling threw: SyntaxError: missing ) in parenthetical

tryItOut 547
Compiling threw: SyntaxError: missing variable name

tryItOut 548

tryItOut 549

tryItOut 550
Compiling threw: SyntaxError: syntax error

tryItOut 551

tryItOut 552

tryItOut 553

tryItOut 554
Compiling threw: SyntaxError: invalid break

tryItOut 555
Compiling threw: SyntaxError: missing ) in parenthetical

tryItOut 556
Compiling threw: SyntaxError: syntax error

tryItOut 557
Compiling threw: SyntaxError: syntax error

tryItOut 558

tryItOut 559
Compiling threw: SyntaxError: syntax error

tryItOut 560

tryItOut 561
Compiling threw: SyntaxError: missing ) in parenthetical

tryItOut 562

tryItOut 563
It's an iterator!
Iterating succeeded, iterCount == 1

tryItOut 564

tryItOut 565
Compiling threw: SyntaxError: invalid assignment left-hand side

tryItOut 566

tryItOut 567
Compiling threw: SyntaxError: missing ; before statement

tryItOut 568
Compiling threw: SyntaxError: missing { before function body

tryItOut 569

tryItOut 570

tryItOut 571
Compiling threw: SyntaxError: syntax error

tryItOut 572
Compiling threw: SyntaxError: missing variable name

tryItOut 573
Compiling threw: SyntaxError: label not found

tryItOut 574
Compiling threw: TypeError: redeclaration of const __proto__

tryItOut 575
Compiling threw: SyntaxError: missing ; before statement

tryItOut 576

tryItOut 577
Compiling threw: SyntaxError: invalid increment operand

tryItOut 578
Compiling threw: SyntaxError: missing ; before statement

tryItOut 579
Compiling threw: SyntaxError: syntax error

tryItOut 580
Compiling threw: TypeError: redeclaration of variable __parent__

tryItOut 581
Compiling threw: SyntaxError: invalid assignment left-hand side

tryItOut 582
Compiling threw: SyntaxError: syntax error

tryItOut 583

tryItOut 584
It's an iterator!
Iterating threw!
Iterating threw: TypeError: undefined has no properties

tryItOut 585

tryItOut 586
Compiling threw: SyntaxError: label not found

tryItOut 587

tryItOut 588
Compiling threw: SyntaxError: invalid for/in left-hand side

tryItOut 589
Compiling threw: SyntaxError: missing ; before statement

tryItOut 590
Compiling threw: SyntaxError: syntax error

tryItOut 591
Compiling threw: SyntaxError: missing ] in index expression

tryItOut 592
It's an iterator!
Iterating succeeded, iterCount == 1

tryItOut 593

tryItOut 594
Compiling threw: SyntaxError: missing ; before statement

tryItOut 595

tryItOut 596
Compiling threw: SyntaxError: syntax error

tryItOut 597
Compiling threw: SyntaxError: missing ; before statement

tryItOut 598
Compiling threw: SyntaxError: missing ) in parenthetical

tryItOut 599
Compiling threw: SyntaxError: syntax error

tryItOut 600
Compiling threw: SyntaxError: label not found

tryItOut 601

tryItOut 602

tryItOut 603
Compiling threw: SyntaxError: invalid continue

tryItOut 604
Compiling threw: TypeError: redeclaration of const prototype

tryItOut 605
Compiling threw: TypeError: redeclaration of var __proto__

tryItOut 606

tryItOut 607

tryItOut 608

tryItOut 609
Compiling threw: SyntaxError: invalid for/in left-hand side

tryItOut 610
Compiling threw: TypeError: redeclaration of variable __noSuchMethod__

tryItOut 611

tryItOut 612

tryItOut 613

tryItOut 614
Compiling threw: SyntaxError: invalid break

tryItOut 615

tryItOut 616
Compiling threw: SyntaxError: missing ) in parenthetical

tryItOut 617

tryItOut 618
Compiling threw: SyntaxError: missing variable name

tryItOut 619
Compiling threw: SyntaxError: missing { before function body

tryItOut 620
Running threw: ReferenceError: z2 is not defined

tryItOut 621
Compiling threw: SyntaxError: missing { before function body

tryItOut 622
Compiling threw: SyntaxError: syntax error

tryItOut 623
Compiling threw: SyntaxError: syntax error

tryItOut 624

tryItOut 625

tryItOut 626
Compiling threw: SyntaxError: missing while after do-loop body

tryItOut 627

tryItOut 628
Compiling threw: SyntaxError: syntax error

tryItOut 629
Compiling threw: SyntaxError: missing ; before statement

tryItOut 630
Compiling threw: SyntaxError: syntax error

tryItOut 631
Compiling threw: SyntaxError: invalid increment operand

tryItOut 632

tryItOut 633

tryItOut 634

tryItOut 635

tryItOut 636
Compiling threw: SyntaxError: missing variable name

tryItOut 637
It's an iterator!
Iterating threw!
Iterating threw: TypeError: arguments[0] has no properties

tryItOut 638
It's an iterator!
Iterating succeeded, iterCount == 1

tryItOut 639
Compiling threw: SyntaxError: missing ) in parenthetical

tryItOut 640
Compiling threw: SyntaxError: missing variable name

tryItOut 641
Compiling threw: SyntaxError: missing ) in parenthetical

tryItOut 642
Compiling threw: SyntaxError: label not found

tryItOut 643

tryItOut 644
Compiling threw: SyntaxError: missing name after . operator

tryItOut 645

tryItOut 646

tryItOut 647
Compiling threw: SyntaxError: invalid for/in left-hand side

tryItOut 648
Compiling threw: SyntaxError: missing ) in parenthetical

tryItOut 649
Compiling threw: SyntaxError: missing variable name

tryItOut 650
Compiling threw: SyntaxError: invalid for/in left-hand side

tryItOut 651
Compiling threw: SyntaxError: syntax error

tryItOut 652

tryItOut 653
Compiling threw: SyntaxError: syntax error

tryItOut 654

tryItOut 655
Compiling threw: SyntaxError: label not found

tryItOut 656
Compiling threw: SyntaxError: invalid for/in left-hand side

tryItOut 657

tryItOut 658
Compiling threw: SyntaxError: missing ) in parenthetical

tryItOut 659
Compiling threw: SyntaxError: syntax error

tryItOut 660

tryItOut 661

tryItOut 662

tryItOut 663
Compiling threw: SyntaxError: invalid assignment left-hand side

tryItOut 664
Compiling threw: SyntaxError: syntax error

tryItOut 665
Compiling threw: SyntaxError: label not found

tryItOut 666
Compiling threw: SyntaxError: syntax error

tryItOut 667
Compiling threw: SyntaxError: missing ; before statement

tryItOut 668
Compiling threw: SyntaxError: syntax error

tryItOut 669

tryItOut 670

tryItOut 671
uneval returned the string: (new Error("", "run.js", 434))
Skipping re-eval test

tryItOut 672
Compiling threw: SyntaxError: missing ; before statement

tryItOut 673
Compiling threw: SyntaxError: duplicate label

tryItOut 674

tryItOut 675

tryItOut 676
Compiling threw: SyntaxError: missing = in destructuring declaration

tryItOut 677
Compiling threw: SyntaxError: missing variable name

tryItOut 678

tryItOut 679
It's an iterator!
Iterating threw!
Iterating threw: true

tryItOut 680
Compiling threw: SyntaxError: missing ; before statement

tryItOut 681

tryItOut 682

tryItOut 683
Compiling threw: SyntaxError: missing variable name

tryItOut 684
Compiling threw: SyntaxError: missing { before function body

tryItOut 685
Compiling threw: SyntaxError: missing ) in parenthetical

tryItOut 686
Compiling threw: SyntaxError: syntax error

tryItOut 687

tryItOut 688
Compiling threw: SyntaxError: invalid for/in left-hand side

tryItOut 689
Compiling threw: SyntaxError: invalid for/in left-hand side

tryItOut 690
Compiling threw: SyntaxError: missing { before function body

tryItOut 691
Running threw: ReferenceError: __iterator__ is not defined

tryItOut 692
Compiling threw: SyntaxError: missing name after . operator

tryItOut 693

tryItOut 694
Compiling threw: SyntaxError: syntax error

tryItOut 695

tryItOut 696
Compiling threw: SyntaxError: syntax error

tryItOut 697

tryItOut 698
Compiling threw: SyntaxError: invalid continue

tryItOut 699
Compiling threw: SyntaxError: invalid for/in left-hand side

tryItOut 700
It's an iterator!
Iterating succeeded, iterCount == 1

tryItOut 701
It's an iterator!
Iterating threw!
Iterating threw: Error: invalid sharp variable use #1#

tryItOut 702
Compiling threw: SyntaxError: invalid continue

tryItOut 703

tryItOut 704

tryItOut 705
Running threw: undefined

tryItOut 706
Compiling threw: SyntaxError: missing variable name

tryItOut 707
Compiling threw: SyntaxError: missing while after do-loop body

tryItOut 708

tryItOut 709

tryItOut 710
Compiling threw: SyntaxError: syntax error

tryItOut 711
Compiling threw: SyntaxError: syntax error

tryItOut 712

tryItOut 713
Compiling threw: SyntaxError: yield expression must be parenthesized

tryItOut 714
It's an iterator!
Iterating succeeded, iterCount == 1

tryItOut 715
Compiling threw: TypeError: redeclaration of const __parent__

tryItOut 716

tryItOut 717
Compiling threw: SyntaxError: invalid assignment left-hand side

tryItOut 718

tryItOut 719

tryItOut 720
It's an iterator!
Iterating succeeded, iterCount == 0

tryItOut 721

tryItOut 722
Compiling threw: SyntaxError: invalid for/in left-hand side

tryItOut 723
It's an iterator!
Iterating threw!
Iterating threw: TypeError: undefined has no properties

tryItOut 724
Compiling threw: SyntaxError: label not found

tryItOut 725

tryItOut 726

tryItOut 727
It's an iterator!
Iterating succeeded, iterCount == 1

tryItOut 728
Compiling threw: SyntaxError: invalid for/in left-hand side

tryItOut 729
Compiling threw: SyntaxError: missing { before function body

tryItOut 730
Compiling threw: SyntaxError: missing ) in parenthetical

tryItOut 731

tryItOut 732
Compiling threw: SyntaxError: invalid for/in left-hand side

tryItOut 733

tryItOut 734

tryItOut 735

tryItOut 736
Compiling threw: SyntaxError: missing ; before statement

tryItOut 737
Compiling threw: SyntaxError: invalid for/in left-hand side

tryItOut 738
Compiling threw: SyntaxError: invalid continue

tryItOut 739

tryItOut 740
Compiling threw: SyntaxError: invalid decrement operand

tryItOut 741
Compiling threw: SyntaxError: duplicate label

tryItOut 742
Compiling threw: SyntaxError: unmatched ) in regular expression

tryItOut 743
Compiling threw: SyntaxError: syntax error

tryItOut 744
Running threw: ReferenceError: __proto__ is not defined

tryItOut 745
Compiling threw: SyntaxError: invalid break

tryItOut 746
Compiling threw: SyntaxError: label not found

tryItOut 747

tryItOut 748
Compiling threw: SyntaxError: missing { before function body

tryItOut 749

tryItOut 750
Compiling threw: SyntaxError: syntax error

tryItOut 751
Compiling threw: SyntaxError: missing { before function body

tryItOut 752

tryItOut 753
Compiling threw: SyntaxError: missing ) in parenthetical

tryItOut 754
Compiling threw: SyntaxError: missing variable name

tryItOut 755

tryItOut 756
Compiling threw: SyntaxError: missing ; before statement

tryItOut 757
Compiling threw: SyntaxError: missing ) in parenthetical

tryItOut 758

tryItOut 759
Compiling threw: SyntaxError: syntax error

tryItOut 760

tryItOut 761
Running threw: 

tryItOut 762
Compiling threw: SyntaxError: missing ) in parenthetical

tryItOut 763
Compiling threw: SyntaxError: invalid assignment left-hand side

tryItOut 764
Compiling threw: SyntaxError: invalid assignment left-hand side

tryItOut 765
Compiling threw: SyntaxError: missing ) in parenthetical

tryItOut 766
Compiling threw: SyntaxError: label not found

tryItOut 767
Compiling threw: SyntaxError: invalid assignment left-hand side

tryItOut 768
Compiling threw: SyntaxError: invalid for/in left-hand side

tryItOut 769
Compiling threw: SyntaxError: syntax error

tryItOut 770
Compiling threw: SyntaxError: missing ) in parenthetical

tryItOut 771
Compiling threw: SyntaxError: missing ) in parenthetical

tryItOut 772
Running threw: /x/g

tryItOut 773

tryItOut 774
Compiling threw: SyntaxError: invalid for/in left-hand side

tryItOut 775

tryItOut 776
Compiling threw: SyntaxError: syntax error

tryItOut 777
Compiling threw: SyntaxError: missing ; before statement

tryItOut 778
Compiling threw: SyntaxError: label not found

tryItOut 779
Compiling threw: SyntaxError: missing ; after for-loop initializer

tryItOut 780
Compiling threw: SyntaxError: invalid decrement operand

tryItOut 781

tryItOut 782
Compiling threw: SyntaxError: invalid for/in left-hand side

tryItOut 783
Compiling threw: SyntaxError: invalid XML name

tryItOut 784

tryItOut 785

tryItOut 786
Compiling threw: SyntaxError: syntax error

tryItOut 787

tryItOut 788

tryItOut 789

tryItOut 790

tryItOut 791
Compiling threw: SyntaxError: invalid flag after regular expression

tryItOut 792
Compiling threw: SyntaxError: missing variable name

tryItOut 793

tryItOut 794
Compiling threw: SyntaxError: syntax error

tryItOut 795
Compiling threw: SyntaxError: missing ( before let head

tryItOut 796

tryItOut 797
Compiling threw: SyntaxError: illegal XML character

tryItOut 798
Compiling threw: SyntaxError: invalid assignment left-hand side

tryItOut 799
Compiling threw: SyntaxError: syntax error

tryItOut 800
Compiling threw: SyntaxError: missing ) in parenthetical

tryItOut 801
Compiling threw: SyntaxError: missing ; after for-loop initializer

tryItOut 802
It's an iterator!
Iterating threw!
Iterating threw: TypeError: "" is not a function

tryItOut 803

tryItOut 804
Compiling threw: SyntaxError: missing ) in parenthetical

tryItOut 805

tryItOut 806

tryItOut 807

tryItOut 808
Compiling threw: SyntaxError: duplicate label

tryItOut 809

tryItOut 810
Compiling threw: SyntaxError: invalid for/in left-hand side

tryItOut 811

tryItOut 812
Compiling threw: SyntaxError: missing ) in parenthetical

tryItOut 813

tryItOut 814

tryItOut 815

tryItOut 816
Compiling threw: SyntaxError: invalid increment operand

tryItOut 817

tryItOut 818
Compiling threw: SyntaxError: missing { before function body

tryItOut 819
Compiling threw: SyntaxError: syntax error

tryItOut 820
Compiling threw: SyntaxError: invalid for/in left-hand side

tryItOut 821
Compiling threw: SyntaxError: label not found

tryItOut 822

tryItOut 823

tryItOut 824

tryItOut 825

tryItOut 826

tryItOut 827

tryItOut 828

tryItOut 829
Compiling threw: SyntaxError: missing ; before statement

tryItOut 830

tryItOut 831

tryItOut 832
Compiling threw: SyntaxError: missing { before function body

tryItOut 833
Compiling threw: SyntaxError: invalid for/in left-hand side

tryItOut 834
Compiling threw: SyntaxError: invalid for each loop

tryItOut 835
Compiling threw: SyntaxError: missing variable name

tryItOut 836
It's an iterator!
Iterating succeeded, iterCount == 1

tryItOut 837
It's an iterator!
Iterating succeeded, iterCount == 1

tryItOut 838
Compiling threw: SyntaxError: missing ) after condition

tryItOut 839

tryItOut 840
Compiling threw: SyntaxError: missing { before function body

tryItOut 841
Compiling threw: SyntaxError: invalid destructuring assignment operator

tryItOut 842
Running threw: ReferenceError: yyy is not defined

tryItOut 843
Compiling threw: SyntaxError: invalid for/in left-hand side

tryItOut 844

tryItOut 845
Compiling threw: SyntaxError: missing variable name

tryItOut 846

tryItOut 847

tryItOut 848

tryItOut 849
Compiling threw: SyntaxError: illegal character

tryItOut 850
Compiling threw: SyntaxError: invalid assignment left-hand side

tryItOut 851
Compiling threw: SyntaxError: invalid decrement operand

tryItOut 852

tryItOut 853
Compiling threw: SyntaxError: missing variable name

tryItOut 854

tryItOut 855

tryItOut 856

tryItOut 857
Compiling threw: SyntaxError: missing while after do-loop body

tryItOut 858
Compiling threw: SyntaxError: invalid for/in left-hand side

tryItOut 859
Compiling threw: SyntaxError: syntax error

tryItOut 860
It's an iterator!
Iterating threw!
Iterating threw: ReferenceError: __proto__ is not defined

tryItOut 861
It's an iterator!
Iterating succeeded, iterCount == 0

tryItOut 862

tryItOut 863
Compiling threw: SyntaxError: missing variable name

tryItOut 864
Compiling threw: SyntaxError: missing variable name

tryItOut 865

tryItOut 866
Compiling threw: SyntaxError: illegal XML character

tryItOut 867

tryItOut 868
Compiling threw: SyntaxError: syntax error

tryItOut 869
Compiling threw: SyntaxError: missing ) in parenthetical

tryItOut 870
Compiling threw: SyntaxError: invalid assignment left-hand side

tryItOut 871
Compiling threw: SyntaxError: syntax error

tryItOut 872

tryItOut 873

tryItOut 874
Compiling threw: SyntaxError: syntax error

tryItOut 875
Compiling threw: SyntaxError: missing ; after for-loop initializer

tryItOut 876
Compiling threw: SyntaxError: missing ) in parenthetical

tryItOut 877
Compiling threw: SyntaxError: missing ) in parenthetical

tryItOut 878
Compiling threw: SyntaxError: missing name after . operator

tryItOut 879

tryItOut 880

tryItOut 881

tryItOut 882
Compiling threw: SyntaxError: invalid for/in left-hand side

tryItOut 883

tryItOut 884
Compiling threw: SyntaxError: syntax error

tryItOut 885

tryItOut 886
Compiling threw: SyntaxError: missing ) in parenthetical

tryItOut 887

tryItOut 888
Compiling threw: SyntaxError: syntax error

tryItOut 889
Compiling threw: SyntaxError: missing ; after for-loop initializer

tryItOut 890
Compiling threw: SyntaxError: missing while after do-loop body

tryItOut 891
Compiling threw: SyntaxError: missing while after do-loop body

tryItOut 892
Compiling threw: SyntaxError: missing : after property id

tryItOut 893
Compiling threw: SyntaxError: missing = in destructuring declaration

tryItOut 894
Compiling threw: SyntaxError: syntax error

tryItOut 895

tryItOut 896
Compiling threw: SyntaxError: missing ) in parenthetical

tryItOut 897

tryItOut 898
Compiling threw: SyntaxError: missing ) in parenthetical

tryItOut 899

tryItOut 900
Compiling threw: SyntaxError: label not found

tryItOut 901
Compiling threw: SyntaxError: invalid break

tryItOut 902
Compiling threw: SyntaxError: invalid for/in left-hand side

tryItOut 903
Compiling threw: SyntaxError: missing ; before statement

tryItOut 904
Compiling threw: SyntaxError: invalid XML name

tryItOut 905
Compiling threw: SyntaxError: syntax error

tryItOut 906
Compiling threw: SyntaxError: missing ) in parenthetical

tryItOut 907
Compiling threw: SyntaxError: missing ) in parenthetical

tryItOut 908

tryItOut 909
Compiling threw: SyntaxError: missing variable name

tryItOut 910
It's an iterator!
Iterating threw!
Iterating threw: TypeError: null has no properties

tryItOut 911

tryItOut 912
Compiling threw: SyntaxError: missing { before function body

tryItOut 913
Compiling threw: SyntaxError: syntax error

tryItOut 914
Compiling threw: SyntaxError: missing ( before let head

tryItOut 915
Compiling threw: SyntaxError: syntax error

tryItOut 916
Compiling threw: SyntaxError: missing ) in parenthetical

tryItOut 917

tryItOut 918
Compiling threw: SyntaxError: missing variable name

tryItOut 919

tryItOut 920
Compiling threw: SyntaxError: missing while after do-loop body

tryItOut 921

tryItOut 922
Compiling threw: SyntaxError: missing { before function body

tryItOut 923

tryItOut 924
Compiling threw: SyntaxError: invalid for/in left-hand side

tryItOut 925
Compiling threw: SyntaxError: syntax error

tryItOut 926
Compiling threw: SyntaxError: missing ( before let head

tryItOut 927

tryItOut 928

tryItOut 929
Compiling threw: SyntaxError: syntax error

tryItOut 930

tryItOut 931
Compiling threw: SyntaxError: missing ) in parenthetical

tryItOut 932

tryItOut 933
Compiling threw: SyntaxError: missing = in destructuring declaration

tryItOut 934
Compiling threw: SyntaxError: syntax error

tryItOut 935
Compiling threw: SyntaxError: missing { before function body

tryItOut 936

tryItOut 937

tryItOut 938
Compiling threw: SyntaxError: invalid for/in left-hand side

tryItOut 939
Compiling threw: TypeError: redeclaration of var constructor

tryItOut 940
Compiling threw: SyntaxError: missing ; before statement

tryItOut 941
Compiling threw: SyntaxError: label not found

tryItOut 942
Compiling threw: SyntaxError: missing { before function body

tryItOut 943
Running threw: ReferenceError: z2 is not defined

tryItOut 944
Compiling threw: SyntaxError: invalid for/in left-hand side

tryItOut 945
Compiling threw: SyntaxError: missing ) after condition

tryItOut 946
Compiling threw: SyntaxError: invalid assignment left-hand side

tryItOut 947

tryItOut 948
Compiling threw: SyntaxError: syntax error

tryItOut 949

tryItOut 950

tryItOut 951

tryItOut 952
Compiling threw: SyntaxError: missing { before function body

tryItOut 953
Compiling threw: SyntaxError: missing ; before statement

tryItOut 954
Compiling threw: SyntaxError: label not found

tryItOut 955

tryItOut 956

tryItOut 957

tryItOut 958

tryItOut 959

tryItOut 960

tryItOut 961

tryItOut 962
Compiling threw: SyntaxError: syntax error

tryItOut 963

tryItOut 964
Compiling threw: SyntaxError: syntax error

tryItOut 965

tryItOut 966

tryItOut 967

tryItOut 968

tryItOut 969

tryItOut 970
Compiling threw: SyntaxError: syntax error

tryItOut 971

tryItOut 972
Compiling threw: SyntaxError: missing ) in parenthetical

tryItOut 973
Compiling threw: SyntaxError: illegal XML character

tryItOut 974
Compiling threw: SyntaxError: syntax error

tryItOut 975
Compiling threw: SyntaxError: syntax error

tryItOut 976

tryItOut 977
Compiling threw: SyntaxError: missing ; before statement

tryItOut 978
Compiling threw: SyntaxError: syntax error

tryItOut 979
Compiling threw: SyntaxError: invalid for/in left-hand side

tryItOut 980

tryItOut 981
Compiling threw: SyntaxError: syntax error

tryItOut 982
Compiling threw: SyntaxError: invalid continue

tryItOut 983

tryItOut 984
Compiling threw: SyntaxError: invalid for/in left-hand side

tryItOut 985
Compiling threw: SyntaxError: invalid for/in left-hand side

tryItOut 986
Compiling threw: SyntaxError: syntax error

tryItOut 987
Compiling threw: SyntaxError: missing variable name

tryItOut 988
Compiling threw: SyntaxError: invalid for/in left-hand side

tryItOut 989
Compiling threw: SyntaxError: syntax error

tryItOut 990

tryItOut 991

tryItOut 992
Compiling threw: SyntaxError: missing ) in parenthetical

tryItOut 993

tryItOut 994
Compiling threw: SyntaxError: invalid assignment left-hand side

tryItOut 995
Compiling threw: SyntaxError: missing ; before statement

tryItOut 996

tryItOut 997
It's an iterator!
Iterating succeeded, iterCount == 1

tryItOut 998
Compiling threw: SyntaxError: invalid for/in left-hand side

tryItOut 999
Compiling threw: SyntaxError: syntax error

tryItOut 1000
Compiling threw: SyntaxError: syntax error

ALL OK

Script done on Sat 04 May 2013 06:52:14 AM PDT
