Script started on Sat 04 May 2013 06:53:23 AM PDT
***
Targeting SpiderMonkey / Gecko.

tryItOut 1
Compiling threw: SyntaxError: missing variable name

tryItOut 2

tryItOut 3

tryItOut 4
It's an iterator!
Iterating succeeded, iterCount == 1

tryItOut 5

tryItOut 6

tryItOut 7
Compiling threw: SyntaxError: missing { before function body

tryItOut 8
Compiling threw: SyntaxError: syntax error

tryItOut 9
Running threw: ReferenceError: z1 is not defined

tryItOut 10
Compiling threw: SyntaxError: syntax error

tryItOut 11
It's an iterator!
Iterating succeeded, iterCount == 1

tryItOut 12
Running threw: TypeError: invalid XML namespace ccc

tryItOut 13
Running threw: null

tryItOut 14

tryItOut 15
Running threw: [object StopIteration]

tryItOut 16

tryItOut 17

tryItOut 18
Running threw: TypeError: this is not a function

tryItOut 19

tryItOut 20

tryItOut 21
It's an iterator!
Iterating succeeded, iterCount == 1

tryItOut 22
It's an iterator!
Iterating succeeded, iterCount == 0

tryItOut 23

tryItOut 24
Compiling threw: SyntaxError: unterminated regular expression literal

tryItOut 25

tryItOut 26
It's an iterator!
Iterating succeeded, iterCount == 1

tryItOut 27
Compiling threw: SyntaxError: missing = in destructuring declaration

tryItOut 28
Compiling threw: SyntaxError: syntax error

tryItOut 29
It's an iterator!
Iterating threw!
Iterating threw: TypeError: __parent__ has no properties

tryItOut 30

tryItOut 31

tryItOut 32

tryItOut 33
Compiling threw: SyntaxError: invalid for/in left-hand side

tryItOut 34
Compiling threw: SyntaxError: invalid assignment left-hand side

tryItOut 35

tryItOut 36

tryItOut 37
Running threw: ReferenceError: reference to undefined XML name *

tryItOut 38
It's an iterator!
Iterating succeeded, iterCount == 4

tryItOut 39
Compiling threw: SyntaxError: syntax error

tryItOut 40
Compiling threw: SyntaxError: invalid for/in left-hand side

tryItOut 41
Compiling threw: SyntaxError: missing ; after for-loop initializer

tryItOut 42
Compiling threw: TypeError: generator function anonymous returns a value

tryItOut 43
Compiling threw: SyntaxError: syntax error

tryItOut 44

tryItOut 45

tryItOut 46
Compiling threw: SyntaxError: syntax error

tryItOut 47
Compiling threw: SyntaxError: invalid assignment left-hand side

tryItOut 48

tryItOut 49
Running threw: TypeError: this.__defineGetter__("prototype", gc) has no properties

tryItOut 50
Compiling threw: SyntaxError: missing ) in parenthetical

tryItOut 51

tryItOut 52

tryItOut 53

tryItOut 54

tryItOut 55
Compiling threw: SyntaxError: invalid for/in left-hand side

tryItOut 56

tryItOut 57

tryItOut 58
Compiling threw: SyntaxError: missing while after do-loop body

tryItOut 59

tryItOut 60

tryItOut 61
Compiling threw: SyntaxError: invalid assignment left-hand side

tryItOut 62
It's an iterator!
Iterating succeeded, iterCount == 0

tryItOut 63

tryItOut 64

tryItOut 65

tryItOut 66
Compiling threw: TypeError: generator function anonymous returns a value

tryItOut 67

tryItOut 68
It's an iterator!
Iterating succeeded, iterCount == 1

tryItOut 69
Running threw: ReferenceError: reference to undefined XML name *::*

tryItOut 70
It's an iterator!
Iterating succeeded, iterCount == 1

tryItOut 71
Running threw: [object StopIteration]

tryItOut 72
Running threw: TypeError: null has no properties

tryItOut 73

tryItOut 74

tryItOut 75

tryItOut 76

tryItOut 77
Compiling threw: SyntaxError: syntax error

tryItOut 78

tryItOut 79

tryItOut 80
Running threw: TypeError: invalid 'instanceof' operand constructor

tryItOut 81
Compiling threw: SyntaxError: invalid for/in left-hand side

tryItOut 82
It's an iterator!
Iterating succeeded, iterCount == 1

tryItOut 83

tryItOut 84
Compiling threw: SyntaxError: invalid for/in left-hand side

tryItOut 85
Compiling threw: SyntaxError: missing while after do-loop body

tryItOut 86
Running threw: [object Object]

tryItOut 87
It's an iterator!
Iterating succeeded, iterCount == 1

tryItOut 88

tryItOut 89

tryItOut 90

tryItOut 91

tryItOut 92
Compiling threw: SyntaxError: syntax error

tryItOut 93

tryItOut 94
It's an iterator!
Iterating succeeded, iterCount == 0

tryItOut 95
Compiling threw: SyntaxError: syntax error

tryItOut 96

tryItOut 97
Running threw: TypeError: redeclaration of var __proto__

tryItOut 98

tryItOut 99

tryItOut 100
Compiling threw: SyntaxError: missing while after do-loop body

tryItOut 101
Compiling threw: SyntaxError: invalid for/in left-hand side

tryItOut 102
Running threw: ReferenceError: reference to undefined XML name @mozilla.org/js/function::prototype

tryItOut 103
Compiling threw: SyntaxError: syntax error

tryItOut 104

tryItOut 105

tryItOut 106
Compiling threw: SyntaxError: invalid assignment left-hand side

tryItOut 107
Compiling threw: SyntaxError: invalid for/in left-hand side

tryItOut 108

tryItOut 109

tryItOut 110
Compiling threw: SyntaxError: syntax error

tryItOut 111
It's an iterator!
Iterating threw!
Iterating threw: ReferenceError: reference to undefined XML name *::*

tryItOut 112

tryItOut 113

tryItOut 114

tryItOut 115

tryItOut 116

tryItOut 117

tryItOut 118
Compiling threw: SyntaxError: syntax error

tryItOut 119

tryItOut 120
Compiling threw: SyntaxError: syntax error

tryItOut 121

tryItOut 122
Compiling threw: SyntaxError: syntax error

tryItOut 123
Compiling threw: SyntaxError: syntax error

tryItOut 124
Compiling threw: SyntaxError: syntax error

tryItOut 125

tryItOut 126
Compiling threw: SyntaxError: missing variable name

tryItOut 127

tryItOut 128

tryItOut 129
Compiling threw: SyntaxError: invalid decrement operand

tryItOut 130
Compiling threw: SyntaxError: missing ; before statement

tryItOut 131
Compiling threw: SyntaxError: syntax error

tryItOut 132

tryItOut 133

tryItOut 134

tryItOut 135
It's an iterator!
Iterating succeeded, iterCount == 1

tryItOut 136
Compiling threw: SyntaxError: invalid assignment left-hand side

tryItOut 137

tryItOut 138

tryItOut 139
It's an iterator!
Iterating succeeded, iterCount == 1

tryItOut 140

tryItOut 141

tryItOut 142

tryItOut 143

tryItOut 144
Compiling threw: SyntaxError: syntax error

tryItOut 145
Compiling threw: SyntaxError: missing ) after let head

tryItOut 146
Compiling threw: SyntaxError: invalid for/in left-hand side

tryItOut 147
Compiling threw: SyntaxError: missing ) in parenthetical

tryItOut 148
Running threw: ReferenceError: window is not defined

tryItOut 149
Running threw: ReferenceError: reference to undefined XML name *

tryItOut 150
Compiling threw: SyntaxError: syntax error

tryItOut 151
Compiling threw: SyntaxError: invalid for/in left-hand side

tryItOut 152
Compiling threw: SyntaxError: invalid for/in left-hand side

tryItOut 153
Compiling threw: SyntaxError: invalid assignment left-hand side

tryItOut 154

tryItOut 155

tryItOut 156
It's an iterator!
Iterating succeeded, iterCount == 0

tryItOut 157
Compiling threw: SyntaxError: syntax error

tryItOut 158

tryItOut 159

tryItOut 160

tryItOut 161
Compiling threw: SyntaxError: syntax error

tryItOut 162
Compiling threw: SyntaxError: invalid for/in left-hand side

tryItOut 163

tryItOut 164

tryItOut 165

tryItOut 166

tryItOut 167

tryItOut 168
Running threw: TypeError: (new Function("5.0000000000000000000000;"))(true || null, [[]]) has no properties

tryItOut 169
Compiling threw: SyntaxError: invalid assignment left-hand side

tryItOut 170
Compiling threw: SyntaxError: missing ) in parenthetical

tryItOut 171
Compiling threw: SyntaxError: syntax error

tryItOut 172
Compiling threw: SyntaxError: invalid for/in left-hand side

tryItOut 173
It's an iterator!
Iterating succeeded, iterCount == 1

tryItOut 174
Running threw: TypeError: arguments[0] has no properties

tryItOut 175

tryItOut 176
Running threw: ReferenceError: reference to undefined XML name *

tryItOut 177

tryItOut 178
It's an iterator!
Iterating succeeded, iterCount == 0

tryItOut 179

tryItOut 180

tryItOut 181

tryItOut 182

tryItOut 183

tryItOut 184
Compiling threw: SyntaxError: invalid for/in left-hand side

tryItOut 185

tryItOut 186

tryItOut 187
It's an iterator!
Iterating succeeded, iterCount == 1

tryItOut 188
Compiling threw: SyntaxError: invalid increment operand

tryItOut 189
Running threw: TypeError: 3 is not a constructor

tryItOut 190

tryItOut 191

tryItOut 192
It's an iterator!
Iterating threw!
Iterating threw: TypeError: XML filtering predicate operator called on incompatible Object

tryItOut 193

tryItOut 194

tryItOut 195
It's an iterator!
Iterating succeeded, iterCount == 1

tryItOut 196

tryItOut 197

tryItOut 198
Compiling threw: SyntaxError: missing = in destructuring declaration

tryItOut 199
Running threw: ReferenceError: z1 is not defined

tryItOut 200

tryItOut 201

tryItOut 202
Compiling threw: SyntaxError: invalid increment operand

tryItOut 203

tryItOut 204
It's an iterator!
Iterating succeeded, iterCount == 1

tryItOut 205

tryItOut 206

tryItOut 207

tryItOut 208
It's an iterator!
Iterating succeeded, iterCount == 1

tryItOut 209

tryItOut 210
Compiling threw: SyntaxError: invalid for/in left-hand side

tryItOut 211
Compiling threw: SyntaxError: syntax error

tryItOut 212
It's an iterator!
Iterating threw!
Iterating threw: TypeError: invalid XML namespace ccc

tryItOut 213
Compiling threw: SyntaxError: missing variable name

tryItOut 214
It's an iterator!
Iterating succeeded, iterCount == 1

tryItOut 215
Running threw: ReferenceError: reference to undefined XML name *

tryItOut 216

tryItOut 217

tryItOut 218

tryItOut 219

tryItOut 220
Compiling threw: SyntaxError: syntax error

tryItOut 221

tryItOut 222

tryItOut 223

tryItOut 224

tryItOut 225
Compiling threw: SyntaxError: invalid increment operand

tryItOut 226
Running threw: ReferenceError: reference to undefined XML name @foo

tryItOut 227
Running threw: ReferenceError: reference to undefined XML name *::*

tryItOut 228

tryItOut 229
Compiling threw: SyntaxError: syntax error

tryItOut 230

tryItOut 231
Running threw: ReferenceError: reference to undefined XML name @foo

tryItOut 232
It's an iterator!
Iterating succeeded, iterCount == 1

tryItOut 233
It's an iterator!
Iterating succeeded, iterCount == 1

tryItOut 234
Compiling threw: SyntaxError: invalid XML tag syntax

tryItOut 235
Running threw: ReferenceError: z1 is not defined

tryItOut 236
Compiling threw: SyntaxError: duplicate label

tryItOut 237

tryItOut 238

tryItOut 239

tryItOut 240

tryItOut 241
Compiling threw: SyntaxError: syntax error

tryItOut 242
Running threw: TypeError: null is not a function

tryItOut 243
Compiling threw: SyntaxError: invalid assignment left-hand side

tryItOut 244
It's an iterator!
Iterating succeeded, iterCount == 1

tryItOut 245

tryItOut 246
Compiling threw: TypeError: redeclaration of var prototype

tryItOut 247
It's an iterator!
before 226720, after 226720, break 02190000
Iterating succeeded, iterCount == 1

tryItOut 248
Running threw: TypeError: 1200 is not a constructor

tryItOut 249

tryItOut 250
It's an iterator!
Iterating succeeded, iterCount == 0

tryItOut 251
Compiling threw: SyntaxError: invalid for/in left-hand side

tryItOut 252
Compiling threw: SyntaxError: invalid for each loop

tryItOut 253

tryItOut 254

tryItOut 255

tryItOut 256

tryItOut 257

tryItOut 258

tryItOut 259

tryItOut 260

tryItOut 261
Compiling threw: SyntaxError: missing while after do-loop body

tryItOut 262
It's an iterator!
Iterating threw!
Iterating threw: ReferenceError: window is not defined

tryItOut 263

tryItOut 264
Compiling threw: SyntaxError: invalid assignment left-hand side

tryItOut 265
Compiling threw: SyntaxError: invalid for/in left-hand side

tryItOut 266
It's an iterator!
Iterating succeeded, iterCount == 0

tryItOut 267
Compiling threw: SyntaxError: invalid for/in left-hand side

tryItOut 268
Compiling threw: TypeError: redeclaration of variable __iterator__

tryItOut 269
It's an iterator!
Iterating succeeded, iterCount == 1

tryItOut 270
Compiling threw: SyntaxError: syntax error

tryItOut 271
Compiling threw: SyntaxError: syntax error

tryItOut 272

tryItOut 273

tryItOut 274
Compiling threw: SyntaxError: invalid for/in left-hand side

tryItOut 275
Compiling threw: SyntaxError: missing ) after for-loop control

tryItOut 276

tryItOut 277
Compiling threw: SyntaxError: missing = in destructuring declaration

tryItOut 278
It's an iterator!
Iterating succeeded, iterCount == 1

tryItOut 279
Compiling threw: SyntaxError: invalid for/in left-hand side

tryItOut 280
Running threw: ReferenceError: z1 is not defined

tryItOut 281

tryItOut 282
Compiling threw: SyntaxError: invalid for/in left-hand side

tryItOut 283

tryItOut 284

tryItOut 285
Compiling threw: SyntaxError: missing variable name

tryItOut 286
Compiling threw: SyntaxError: invalid for/in left-hand side

tryItOut 287

tryItOut 288
Running threw: 

tryItOut 289
Running threw: [object StopIteration]

tryItOut 290

tryItOut 291

tryItOut 292
Compiling threw: SyntaxError: syntax error

tryItOut 293

tryItOut 294
Compiling threw: SyntaxError: invalid for/in left-hand side

tryItOut 295

tryItOut 296
It's an iterator!
Iterating succeeded, iterCount == 1

tryItOut 297
Compiling threw: SyntaxError: invalid for/in left-hand side

tryItOut 298

tryItOut 299
Running threw: ReferenceError: window is not defined

tryItOut 300
Compiling threw: SyntaxError: syntax error

tryItOut 301

tryItOut 302
It's an iterator!
Iterating succeeded, iterCount == 1

tryItOut 303
Compiling threw: SyntaxError: syntax error

tryItOut 304

tryItOut 305
Compiling threw: SyntaxError: invalid for/in left-hand side

tryItOut 306

tryItOut 307

tryItOut 308

tryItOut 309
It's an iterator!
Iterating threw!
Iterating threw: ReferenceError: reference to undefined XML name @foo

tryItOut 310

tryItOut 311
It's an iterator!
Iterating succeeded, iterCount == 1

tryItOut 312
Running threw: TypeError: __parent__ has no properties

tryItOut 313
It's an iterator!
Iterating succeeded, iterCount == 1

tryItOut 314

tryItOut 315
Compiling threw: SyntaxError: missing ; before statement

tryItOut 316

tryItOut 317
Running threw: 

tryItOut 318
Compiling threw: SyntaxError: missing variable name

tryItOut 319
Running threw: ReferenceError: reference to undefined XML name @foo

tryItOut 320
Compiling threw: SyntaxError: invalid for/in left-hand side

tryItOut 321
Compiling threw: SyntaxError: missing variable name

tryItOut 322

tryItOut 323

tryItOut 324
It's an iterator!
Iterating threw!
Iterating threw: ReferenceError: reference to undefined XML name *::*

tryItOut 325

tryItOut 326
Compiling threw: SyntaxError: invalid for/in left-hand side

tryItOut 327
Running threw: ReferenceError: window is not defined

tryItOut 328
Compiling threw: SyntaxError: syntax error

tryItOut 329
Compiling threw: SyntaxError: invalid assignment left-hand side

tryItOut 330
Running threw: SyntaxError: yield not in function

tryItOut 331

tryItOut 332

tryItOut 333
Running threw: [object StopIteration]

tryItOut 334

tryItOut 335
Compiling threw: SyntaxError: syntax error

tryItOut 336

tryItOut 337
It's an iterator!
Iterating threw!
Iterating threw: TypeError: arguments[0] has no properties

tryItOut 338

tryItOut 339
Compiling threw: SyntaxError: syntax error

tryItOut 340

tryItOut 341

tryItOut 342
Compiling threw: SyntaxError: missing ; before statement

tryItOut 343

tryItOut 344

tryItOut 345
It's an iterator!
Iterating threw!
Iterating threw: 

tryItOut 346

tryItOut 347
Compiling threw: SyntaxError: missing while after do-loop body

tryItOut 348

tryItOut 349
Running threw: ReferenceError: reference to undefined XML name @foo

tryItOut 350

tryItOut 351

tryItOut 352
It's an iterator!
Iterating succeeded, iterCount == 1

tryItOut 353
Compiling threw: SyntaxError: syntax error

tryItOut 354
Running threw: SyntaxError: invalid setter usage

tryItOut 355

tryItOut 356
Compiling threw: SyntaxError: missing ; before statement

tryItOut 357
Compiling threw: SyntaxError: missing ) after for-loop control

tryItOut 358

tryItOut 359
Compiling threw: SyntaxError: missing variable name

tryItOut 360
Compiling threw: SyntaxError: syntax error

tryItOut 361
Compiling threw: SyntaxError: missing ; before statement

tryItOut 362
Compiling threw: SyntaxError: syntax error

tryItOut 363
Compiling threw: SyntaxError: syntax error

tryItOut 364

tryItOut 365

tryItOut 366

tryItOut 367

tryItOut 368

tryItOut 369
Compiling threw: SyntaxError: illegal XML character

tryItOut 370

tryItOut 371
Running threw: ReferenceError: window is not defined

tryItOut 372

tryItOut 373

tryItOut 374
Compiling threw: SyntaxError: invalid assignment left-hand side

tryItOut 375

tryItOut 376
Compiling threw: SyntaxError: syntax error

tryItOut 377
Compiling threw: TypeError: redeclaration of variable __count__

tryItOut 378

tryItOut 379
Running threw: [object StopIteration]

tryItOut 380

tryItOut 381

tryItOut 382
Running threw: ReferenceError: reference to undefined XML name *::*

tryItOut 383
It's an iterator!
Iterating succeeded, iterCount == 1

tryItOut 384
Compiling threw: SyntaxError: invalid for/in left-hand side

tryItOut 385

tryItOut 386

tryItOut 387
Compiling threw: SyntaxError: syntax error

tryItOut 388
Compiling threw: SyntaxError: syntax error

tryItOut 389
Compiling threw: SyntaxError: invalid for/in left-hand side

tryItOut 390
Running threw: [object StopIteration]

tryItOut 391
It's an iterator!
Iterating succeeded, iterCount == 1

tryItOut 392

tryItOut 393

tryItOut 394

tryItOut 395

tryItOut 396
Compiling threw: SyntaxError: syntax error

tryItOut 397
Compiling threw: SyntaxError: invalid for each loop

tryItOut 398
Running threw: [object StopIteration]

tryItOut 399
Compiling threw: SyntaxError: invalid decrement operand

tryItOut 400
Compiling threw: TypeError: redeclaration of variable prototype

tryItOut 401

tryItOut 402
It's an iterator!
Iterating succeeded, iterCount == 1

tryItOut 403

tryItOut 404
Running threw: [object StopIteration]

tryItOut 405
Running threw: ReferenceError: reference to undefined XML name @foo

tryItOut 406
Compiling threw: SyntaxError: missing = in destructuring declaration

tryItOut 407
Running threw: [object StopIteration]

tryItOut 408
Running threw: SyntaxError: syntax error

tryItOut 409

tryItOut 410
It's an iterator!
Iterating succeeded, iterCount == 0

tryItOut 411

tryItOut 412

tryItOut 413

tryItOut 414

tryItOut 415
Compiling threw: SyntaxError: invalid for/in left-hand side

tryItOut 416

tryItOut 417

tryItOut 418
It's an iterator!
before 226720, after 226720, break 02190000
Iterating threw!
Iterating threw: TypeError: prototype has no properties

tryItOut 419

tryItOut 420

tryItOut 421

tryItOut 422
Running threw: TypeError: XML filtering predicate operator called on incompatible Boolean

tryItOut 423

tryItOut 424
Running threw: ReferenceError: reference to undefined XML name @foo

tryItOut 425

tryItOut 426
Compiling threw: SyntaxError: invalid for/in left-hand side

tryItOut 427
Compiling threw: SyntaxError: missing ) in parenthetical

tryItOut 428
Compiling threw: SyntaxError: invalid sharp variable definition

tryItOut 429
Compiling threw: SyntaxError: syntax error

tryItOut 430

tryItOut 431
before 226720, after 226720, break 02190000
before 226720, after 226720, break 02190000
before 226720, after 226720, break 02190000
before 226720, after 226720, break 02190000

tryItOut 432

tryItOut 433

tryItOut 434
Compiling threw: SyntaxError: missing variable name

tryItOut 435
Running threw: ReferenceError: reference to undefined XML name @foo

tryItOut 436
Compiling threw: SyntaxError: invalid for/in left-hand side

tryItOut 437
Compiling threw: SyntaxError: invalid for/in left-hand side

tryItOut 438

tryItOut 439
Running threw: ReferenceError: reference to undefined XML name @foo

tryItOut 440
Compiling threw: SyntaxError: invalid assignment left-hand side

tryItOut 441
It's an iterator!
Iterating threw!
Iterating threw: ReferenceError: reference to undefined XML name *::*

tryItOut 442
Compiling threw: SyntaxError: syntax error

tryItOut 443

tryItOut 444
Running threw: SyntaxError: invalid setter usage

tryItOut 445
It's an iterator!
Iterating succeeded, iterCount == 0

tryItOut 446
Compiling threw: SyntaxError: missing { before function body

tryItOut 447
Compiling threw: SyntaxError: syntax error

tryItOut 448

tryItOut 449
Compiling threw: SyntaxError: invalid assignment left-hand side

tryItOut 450
Compiling threw: SyntaxError: invalid increment operand

tryItOut 451
Compiling threw: SyntaxError: invalid sharp variable definition

tryItOut 452

tryItOut 453

tryItOut 454

tryItOut 455

tryItOut 456
It's an iterator!
Iterating succeeded, iterCount == 1

tryItOut 457
Running threw: [object StopIteration]

tryItOut 458

tryItOut 459
Compiling threw: SyntaxError: missing variable name

tryItOut 460
Compiling threw: SyntaxError: syntax error

tryItOut 461
It's an iterator!
Iterating succeeded, iterCount == 1

tryItOut 462
Running threw: ReferenceError: reference to undefined XML name @foo

tryItOut 463

tryItOut 464

tryItOut 465

tryItOut 466

tryItOut 467

tryItOut 468
It's an iterator!
Iterating succeeded, iterCount == 1

tryItOut 469
Compiling threw: SyntaxError: invalid XML tag syntax

tryItOut 470

tryItOut 471

tryItOut 472
It's an iterator!
Iterating succeeded, iterCount == 1

tryItOut 473
Compiling threw: SyntaxError: invalid increment operand

tryItOut 474
It's an iterator!
Iterating succeeded, iterCount == 1

tryItOut 475
Running threw: ReferenceError: reference to undefined XML name @foo

tryItOut 476
Running threw: ReferenceError: reference to undefined XML name @mozilla.org/js/function::__proto__

tryItOut 477
Compiling threw: SyntaxError: missing } after property list

tryItOut 478
Running threw: 

tryItOut 479
Compiling threw: SyntaxError: syntax error

tryItOut 480

tryItOut 481
Compiling threw: SyntaxError: syntax error

tryItOut 482
Running threw: 

tryItOut 483
Running threw: [object StopIteration]

tryItOut 484
Compiling threw: SyntaxError: invalid assignment left-hand side

tryItOut 485

tryItOut 486

tryItOut 487
Running threw: ReferenceError: window is not defined

tryItOut 488

tryItOut 489
Running threw: [object StopIteration]

tryItOut 490
Compiling threw: SyntaxError: syntax error

tryItOut 491
It's an iterator!
Iterating succeeded, iterCount == 2

tryItOut 492

tryItOut 493
Compiling threw: SyntaxError: yield expression must be parenthesized

tryItOut 494
Compiling threw: SyntaxError: syntax error

tryItOut 495
Compiling threw: SyntaxError: invalid for/in left-hand side

tryItOut 496

tryItOut 497

tryItOut 498
It's an iterator!
Iterating succeeded, iterCount == 1

tryItOut 499
Running threw: ReferenceError: window is not defined

tryItOut 500
Compiling threw: SyntaxError: missing = in destructuring declaration

tryItOut 501
before 226720, after 226720, break 02190000

tryItOut 502

tryItOut 503
Compiling threw: SyntaxError: missing while after do-loop body

tryItOut 504
before 226720, after 226720, break 02190000
before 226720, after 226720, break 02190000
before 226720, after 226720, break 02190000

tryItOut 505

tryItOut 506

tryItOut 507
It's an iterator!
Iterating succeeded, iterCount == 1

tryItOut 508

tryItOut 509

tryItOut 510

tryItOut 511
Compiling threw: SyntaxError: missing { before function body

tryItOut 512

tryItOut 513
It's an iterator!
Iterating threw!
Iterating threw: ReferenceError: Exception is not defined

tryItOut 514
Compiling threw: SyntaxError: missing ) after for-loop control

tryItOut 515
before 226720, after 226720, break 02190000

tryItOut 516

tryItOut 517
Compiling threw: SyntaxError: invalid assignment left-hand side

tryItOut 518
Compiling threw: SyntaxError: invalid increment operand

tryItOut 519

tryItOut 520
Compiling threw: SyntaxError: syntax error

tryItOut 521

tryItOut 522

tryItOut 523
Compiling threw: SyntaxError: invalid increment operand

tryItOut 524

tryItOut 525
It's an iterator!
Iterating succeeded, iterCount == 0

tryItOut 526
Compiling threw: SyntaxError: invalid assignment left-hand side

tryItOut 527
Compiling threw: SyntaxError: illegal XML character

tryItOut 528
Compiling threw: SyntaxError: missing { before function body

tryItOut 529
Compiling threw: SyntaxError: invalid for/in left-hand side

tryItOut 530
Running threw: [object StopIteration]

tryItOut 531
Compiling threw: SyntaxError: duplicate label

tryItOut 532

tryItOut 533
Compiling threw: SyntaxError: missing while after do-loop body

tryItOut 534
It's an iterator!
Iterating threw!
Iterating threw: TypeError: invalid XML namespace ccc

tryItOut 535

tryItOut 536

tryItOut 537
It's an iterator!
Iterating succeeded, iterCount == 1

tryItOut 538

tryItOut 539
Compiling threw: SyntaxError: invalid assignment left-hand side

tryItOut 540
Running threw: TypeError: __noSuchMethod__ has no properties

tryItOut 541

tryItOut 542
It's an iterator!
before 226720, after 226720, break 02190000
Iterating succeeded, iterCount == 1

tryItOut 543
Compiling threw: SyntaxError: invalid assignment left-hand side

tryItOut 544

tryItOut 545

tryItOut 546
It's an iterator!
Iterating succeeded, iterCount == 1

tryItOut 547
Compiling threw: SyntaxError: syntax error

tryItOut 548

tryItOut 549
Compiling threw: SyntaxError: invalid decrement operand

tryItOut 550
Running threw: ReferenceError: reference to undefined XML name *::*

tryItOut 551
Compiling threw: SyntaxError: missing : after property id

tryItOut 552
It's an iterator!
Iterating threw!
Iterating threw: TypeError: undefined is not a constructor

tryItOut 553
Compiling threw: SyntaxError: missing variable name

tryItOut 554

tryItOut 555
Compiling threw: SyntaxError: invalid assignment left-hand side

tryItOut 556

tryItOut 557
Compiling threw: SyntaxError: invalid assignment left-hand side

tryItOut 558
Compiling threw: SyntaxError: syntax error

tryItOut 559

tryItOut 560

tryItOut 561

tryItOut 562

tryItOut 563

tryItOut 564

tryItOut 565
It's an iterator!
Iterating succeeded, iterCount == 0

tryItOut 566
Compiling threw: SyntaxError: syntax error

tryItOut 567
Compiling threw: SyntaxError: missing variable name

tryItOut 568
Compiling threw: SyntaxError: missing ) after for-loop control

tryItOut 569
Running threw: ReferenceError: reference to undefined XML name @foo

tryItOut 570
It's an iterator!
Iterating succeeded, iterCount == 1

tryItOut 571

tryItOut 572
Compiling threw: SyntaxError: missing ; before statement

tryItOut 573

tryItOut 574

tryItOut 575

tryItOut 576

tryItOut 577
Compiling threw: SyntaxError: syntax error

tryItOut 578

tryItOut 579

tryItOut 580

tryItOut 581

tryItOut 582
Compiling threw: SyntaxError: invalid for/in left-hand side

tryItOut 583
Compiling threw: SyntaxError: invalid for each loop

tryItOut 584
It's an iterator!
Iterating succeeded, iterCount == 1

tryItOut 585

tryItOut 586
It's an iterator!
Iterating threw!
Iterating threw: ReferenceError: reference to undefined XML name *

tryItOut 587

tryItOut 588
It's an iterator!
Iterating succeeded, iterCount == 0

tryItOut 589
Compiling threw: SyntaxError: missing formal parameter

tryItOut 590

tryItOut 591
Compiling threw: SyntaxError: syntax error

tryItOut 592

tryItOut 593

tryItOut 594
It's an iterator!
Iterating succeeded, iterCount == 0

tryItOut 595
It's an iterator!
Iterating succeeded, iterCount == 1

tryItOut 596

tryItOut 597
Compiling threw: SyntaxError: invalid increment operand

tryItOut 598

tryItOut 599
Compiling threw: SyntaxError: invalid for/in left-hand side

tryItOut 600

tryItOut 601
Running threw: [object StopIteration]

tryItOut 602
Running threw: [object StopIteration]

tryItOut 603

tryItOut 604

tryItOut 605
Compiling threw: SyntaxError: syntax error

tryItOut 606
Compiling threw: SyntaxError: missing ; after for-loop condition

tryItOut 607

tryItOut 608
Running threw: [object StopIteration]

tryItOut 609

tryItOut 610

tryItOut 611

tryItOut 612
Compiling threw: SyntaxError: invalid for/in left-hand side

tryItOut 613
Compiling threw: SyntaxError: syntax error

tryItOut 614

tryItOut 615

tryItOut 616
Compiling threw: SyntaxError: missing ; before statement

tryItOut 617
before 226720, after 226720, break 02190000
before 226720, after 226720, break 02190000
before 226720, after 226720, break 02190000
before 226720, after 226720, break 02190000

tryItOut 618
Running threw: null

tryItOut 619
before 226720, after 226720, break 02190000
Running threw: undefined

tryItOut 620

tryItOut 621
Compiling threw: SyntaxError: invalid assignment left-hand side

tryItOut 622
It's an iterator!
Iterating succeeded, iterCount == 1

tryItOut 623
Compiling threw: SyntaxError: missing while after do-loop body

tryItOut 624

tryItOut 625

tryItOut 626
Compiling threw: SyntaxError: missing : after property id

tryItOut 627
Compiling threw: SyntaxError: missing while after do-loop body

tryItOut 628

tryItOut 629

tryItOut 630

tryItOut 631

tryItOut 632
Running threw: 

tryItOut 633

tryItOut 634

tryItOut 635

tryItOut 636

tryItOut 637
Compiling threw: SyntaxError: invalid for/in left-hand side

tryItOut 638

tryItOut 639
Compiling threw: SyntaxError: syntax error

tryItOut 640
Running threw: 

tryItOut 641
Compiling threw: SyntaxError: missing variable name

tryItOut 642

tryItOut 643

tryItOut 644
Running threw: TypeError: __iterator__ is not a constructor

tryItOut 645
Running threw: ReferenceError: s is not defined

tryItOut 646
Running threw: false

tryItOut 647

tryItOut 648

tryItOut 649

tryItOut 650
Compiling threw: SyntaxError: syntax error

tryItOut 651

tryItOut 652
Compiling threw: SyntaxError: invalid decrement operand

tryItOut 653

tryItOut 654

tryItOut 655

tryItOut 656
Compiling threw: SyntaxError: invalid for/in left-hand side

tryItOut 657

tryItOut 658
Compiling threw: SyntaxError: syntax error

tryItOut 659
Running threw: ReferenceError: reference to undefined property "window"

tryItOut 660

tryItOut 661
It's an iterator!
Iterating succeeded, iterCount == 1

tryItOut 662

tryItOut 663
Compiling threw: SyntaxError: invalid assignment left-hand side

tryItOut 664

tryItOut 665

tryItOut 666

tryItOut 667

tryItOut 668
Compiling threw: SyntaxError: invalid increment operand

tryItOut 669
It's an iterator!
Iterating succeeded, iterCount == 0

tryItOut 670

tryItOut 671
Compiling threw: SyntaxError: invalid decrement operand

tryItOut 672
Compiling threw: SyntaxError: yield expression must be parenthesized

tryItOut 673
Compiling threw: SyntaxError: syntax error

tryItOut 674

tryItOut 675

tryItOut 676
Compiling threw: SyntaxError: syntax error

tryItOut 677

tryItOut 678

tryItOut 679

tryItOut 680

tryItOut 681

tryItOut 682
It's an iterator!
Iterating threw!
Iterating threw: SyntaxError: invalid assignment left-hand side

tryItOut 683
Compiling threw: SyntaxError: syntax error

tryItOut 684

tryItOut 685
Compiling threw: SyntaxError: invalid for/in left-hand side

tryItOut 686

tryItOut 687
Compiling threw: SyntaxError: invalid XML tag syntax

tryItOut 688

tryItOut 689

tryItOut 690

tryItOut 691
Compiling threw: SyntaxError: syntax error

tryItOut 692
Compiling threw: SyntaxError: syntax error

tryItOut 693
It's an iterator!
Iterating succeeded, iterCount == 1

tryItOut 694
Compiling threw: SyntaxError: invalid for each loop

tryItOut 695
Compiling threw: SyntaxError: invalid assignment left-hand side

tryItOut 696
Running threw: TypeError: __parent__ has no properties

tryItOut 697

tryItOut 698

tryItOut 699
Compiling threw: SyntaxError: missing variable name

tryItOut 700

tryItOut 701
Compiling threw: SyntaxError: missing variable name

tryItOut 702

tryItOut 703
It's an iterator!
Iterating threw!
Iterating threw: TypeError: __count__.prototype has no properties

tryItOut 704

tryItOut 705
Running threw: [object StopIteration]

tryItOut 706

tryItOut 707
Running threw: false

tryItOut 708
Running threw: ReferenceError: window is not defined

tryItOut 709
It's an iterator!
Iterating succeeded, iterCount == 1

tryItOut 710
It's an iterator!
Iterating threw!
Iterating threw: ReferenceError: reference to undefined XML name @foo

tryItOut 711

tryItOut 712
It's an iterator!
Iterating succeeded, iterCount == 1

tryItOut 713

tryItOut 714
Compiling threw: SyntaxError: invalid increment operand

tryItOut 715
Compiling threw: SyntaxError: syntax error

tryItOut 716

tryItOut 717
Compiling threw: SyntaxError: invalid for each loop

tryItOut 718

tryItOut 719
Compiling threw: SyntaxError: invalid assignment left-hand side

tryItOut 720
It's an iterator!
Iterating succeeded, iterCount == 0

tryItOut 721
Compiling threw: SyntaxError: invalid increment operand

tryItOut 722

tryItOut 723

tryItOut 724

tryItOut 725
Compiling threw: SyntaxError: missing ( before formal parameters

tryItOut 726
before 244160, after 244160, break 02190000
Running threw: undefined

tryItOut 727
It's an iterator!
Iterating succeeded, iterCount == 1

tryItOut 728

tryItOut 729

tryItOut 730

tryItOut 731

tryItOut 732
Compiling threw: SyntaxError: missing { before function body

tryItOut 733
Running threw: [object StopIteration]

tryItOut 734
It's an iterator!
Iterating succeeded, iterCount == 1

tryItOut 735
Compiling threw: SyntaxError: syntax error

tryItOut 736

tryItOut 737

tryItOut 738
It's an iterator!
Iterating succeeded, iterCount == 1

tryItOut 739
Compiling threw: SyntaxError: invalid for/in left-hand side

tryItOut 740
Running threw: ReferenceError: reference to undefined XML name *::*

tryItOut 741

tryItOut 742
Running threw: ReferenceError: reference to undefined XML name *::*

tryItOut 743
It's an iterator!
Iterating succeeded, iterCount == 2

tryItOut 744
Running threw: 

tryItOut 745
Compiling threw: SyntaxError: missing while after do-loop body

tryItOut 746

tryItOut 747

tryItOut 748

tryItOut 749

tryItOut 750
Compiling threw: SyntaxError: syntax error

tryItOut 751
Compiling threw: SyntaxError: invalid for/in left-hand side

tryItOut 752
It's an iterator!
Iterating succeeded, iterCount == 1

tryItOut 753
Compiling threw: TypeError: redeclaration of const constructor

tryItOut 754

tryItOut 755

tryItOut 756
Running threw: SyntaxError: invalid setter usage

tryItOut 757
uneval returned the string: [1]

tryItOut 758
Compiling threw: SyntaxError: invalid assignment left-hand side

tryItOut 759

tryItOut 760

tryItOut 761

tryItOut 762
It's an iterator!
Iterating succeeded, iterCount == 0

tryItOut 763
Compiling threw: SyntaxError: syntax error

tryItOut 764
Running threw: ReferenceError: window is not defined

tryItOut 765

tryItOut 766
Compiling threw: TypeError: redeclaration of variable __noSuchMethod__

tryItOut 767
It's an iterator!
Iterating succeeded, iterCount == 1

tryItOut 768

tryItOut 769
Compiling threw: SyntaxError: missing ) after for-loop control

tryItOut 770
Compiling threw: SyntaxError: missing name after . operator

tryItOut 771

tryItOut 772
It's an iterator!
Iterating succeeded, iterCount == 1

tryItOut 773
Compiling threw: SyntaxError: invalid for/in left-hand side

tryItOut 774

tryItOut 775

tryItOut 776

tryItOut 777
Compiling threw: SyntaxError: syntax error

tryItOut 778
Compiling threw: SyntaxError: missing variable name

tryItOut 779

tryItOut 780

tryItOut 781
Compiling threw: SyntaxError: invalid for/in left-hand side

tryItOut 782
It's an iterator!
Iterating succeeded, iterCount == 0

tryItOut 783

tryItOut 784
It's an iterator!
Iterating succeeded, iterCount == 1

tryItOut 785
It's an iterator!
Iterating succeeded, iterCount == 1

tryItOut 786
before 244160, after 244160, break 021ab000
Running threw: TypeError: [1] is not a function

tryItOut 787
before 244160, after 244160, break 021ab000

tryItOut 788
It's an iterator!
Iterating threw!
Iterating threw: TypeError: redeclaration of var __count__

tryItOut 789
Compiling threw: SyntaxError: illegal XML character

tryItOut 790
It's an iterator!
Iterating succeeded, iterCount == 1

tryItOut 791
Compiling threw: SyntaxError: missing ; before statement

tryItOut 792
It's an iterator!
Iterating succeeded, iterCount == 1

tryItOut 793

tryItOut 794
Compiling threw: SyntaxError: invalid assignment left-hand side

tryItOut 795

tryItOut 796
It's an iterator!
Iterating succeeded, iterCount == 1

tryItOut 797
Running threw: TypeError: ({}) is not a constructor

tryItOut 798

tryItOut 799
Compiling threw: SyntaxError: missing ) in parenthetical

tryItOut 800

tryItOut 801
Compiling threw: SyntaxError: yield expression must be parenthesized

tryItOut 802
It's an iterator!
Iterating threw!
Iterating threw: ReferenceError: reference to undefined XML name @foo

tryItOut 803

tryItOut 804
It's an iterator!
Iterating threw!
Iterating threw: Error: invalid sharp variable definition #2=

tryItOut 805
Compiling threw: SyntaxError: invalid assignment left-hand side

tryItOut 806

tryItOut 807

tryItOut 808

tryItOut 809

tryItOut 810
Compiling threw: SyntaxError: syntax error

tryItOut 811
Compiling threw: SyntaxError: missing while after do-loop body

tryItOut 812

tryItOut 813
Compiling threw: SyntaxError: syntax error

tryItOut 814
Compiling threw: SyntaxError: missing variable name

tryItOut 815

tryItOut 816
Running threw: ReferenceError: window is not defined

tryItOut 817
It's an iterator!
Iterating succeeded, iterCount == 16

tryItOut 818
Running threw: ReferenceError: window is not defined

tryItOut 819

tryItOut 820
Compiling threw: SyntaxError: missing ; before statement

tryItOut 821
Compiling threw: SyntaxError: missing variable name

tryItOut 822
Compiling threw: SyntaxError: missing { before function body

tryItOut 823

tryItOut 824

tryItOut 825

tryItOut 826
Compiling threw: SyntaxError: syntax error

tryItOut 827
Running threw: 

tryItOut 828
Compiling threw: SyntaxError: missing variable name

tryItOut 829

tryItOut 830
Compiling threw: SyntaxError: missing { before function body

tryItOut 831
Running threw: [object StopIteration]

tryItOut 832
Compiling threw: SyntaxError: invalid for each loop

tryItOut 833

tryItOut 834
Running threw: ReferenceError: z1 is not defined

tryItOut 835
Compiling threw: SyntaxError: invalid for/in left-hand side

tryItOut 836
Compiling threw: SyntaxError: missing : after property id

tryItOut 837

tryItOut 838
Running threw: [object StopIteration]

tryItOut 839
Compiling threw: SyntaxError: syntax error

tryItOut 840
Compiling threw: SyntaxError: missing ] after element list

tryItOut 841
Running threw: ReferenceError: reference to undefined XML name *

tryItOut 842

tryItOut 843

tryItOut 844

tryItOut 845
Compiling threw: SyntaxError: missing variable name

tryItOut 846

tryItOut 847

tryItOut 848
It's an iterator!
Iterating succeeded, iterCount == 0

tryItOut 849
Running threw: [object StopIteration]

tryItOut 850

tryItOut 851

tryItOut 852

tryItOut 853

tryItOut 854

tryItOut 855

tryItOut 856
Compiling threw: SyntaxError: missing variable name

tryItOut 857

tryItOut 858
Running threw: ReferenceError: window is not defined

tryItOut 859
Compiling threw: SyntaxError: missing ; before statement

tryItOut 860
It's an iterator!
Iterating threw!
Iterating threw: ReferenceError: reference to undefined XML name @foo

tryItOut 861

tryItOut 862

tryItOut 863

tryItOut 864

tryItOut 865
It's an iterator!
Iterating succeeded, iterCount == 1

tryItOut 866
It's an iterator!
Iterating succeeded, iterCount == 1

tryItOut 867

tryItOut 868

tryItOut 869
Running threw: 

tryItOut 870
Running threw: ReferenceError: reference to undefined XML name @foo

tryItOut 871
Compiling threw: SyntaxError: missing ) after for-loop control

tryItOut 872

tryItOut 873
Running threw: ReferenceError: reference to undefined XML name *

tryItOut 874
Compiling threw: SyntaxError: syntax error

tryItOut 875

tryItOut 876
Compiling threw: SyntaxError: missing = in destructuring declaration

tryItOut 877

tryItOut 878

tryItOut 879
Running threw: ReferenceError: reference to undefined XML name @foo

tryItOut 880
Compiling threw: SyntaxError: invalid property id

tryItOut 881
It's an iterator!
Iterating threw!
Iterating threw: ReferenceError: reference to undefined XML name @foo

tryItOut 882

tryItOut 883
It's an iterator!
Iterating threw!
Iterating threw: TypeError: arguments[0] has no properties

tryItOut 884

tryItOut 885
Compiling threw: SyntaxError: missing ; before statement

tryItOut 886

tryItOut 887
Running threw: ReferenceError: reference to undefined XML name *::*

tryItOut 888
It's an iterator!
Iterating succeeded, iterCount == 1

tryItOut 889
Compiling threw: SyntaxError: illegal XML character

tryItOut 890

tryItOut 891
Compiling threw: SyntaxError: syntax error

tryItOut 892

tryItOut 893
Compiling threw: SyntaxError: invalid for/in left-hand side

tryItOut 894

tryItOut 895

tryItOut 896

tryItOut 897

tryItOut 898
Compiling threw: SyntaxError: syntax error

tryItOut 899

tryItOut 900

tryItOut 901

tryItOut 902
Compiling threw: SyntaxError: missing ) in parenthetical

tryItOut 903

tryItOut 904
Compiling threw: SyntaxError: syntax error

tryItOut 905
Running threw: 

tryItOut 906

tryItOut 907
It's an iterator!
Iterating threw!
Iterating threw: ReferenceError: window is not defined

tryItOut 908

tryItOut 909
Running threw: <x>
  <y/>
</x>

tryItOut 910
Compiling threw: SyntaxError: invalid assignment left-hand side

tryItOut 911
Compiling threw: SyntaxError: missing ) after for-loop control

tryItOut 912
Compiling threw: SyntaxError: invalid XML qualified name

tryItOut 913
It's an iterator!
Iterating threw!
Iterating threw: ReferenceError: reference to undefined XML name @foo

tryItOut 914
Running threw: ReferenceError: __proto____parent__ is not defined

tryItOut 915

tryItOut 916
Running threw: TypeError: __parent__ has no properties

tryItOut 917
Running threw: 

tryItOut 918

tryItOut 919

tryItOut 920
It's an iterator!
Iterating succeeded, iterCount == 1

tryItOut 921
It's an iterator!
Iterating succeeded, iterCount == 0

tryItOut 922

tryItOut 923
Compiling threw: SyntaxError: missing ) after for-loop control

tryItOut 924

tryItOut 925
It's an iterator!
Iterating succeeded, iterCount == 1

tryItOut 926

tryItOut 927
It's an iterator!
Iterating succeeded, iterCount == 1

tryItOut 928
Running threw: SyntaxError: invalid setter usage

tryItOut 929

tryItOut 930

tryItOut 931
Compiling threw: SyntaxError: missing ) after argument list

tryItOut 932

tryItOut 933
Compiling threw: SyntaxError: invalid sharp variable definition

tryItOut 934

tryItOut 935
Compiling threw: SyntaxError: syntax error

tryItOut 936
Compiling threw: SyntaxError: invalid for/in left-hand side

tryItOut 937
Compiling threw: SyntaxError: syntax error

tryItOut 938
It's an iterator!
Iterating succeeded, iterCount == 1

tryItOut 939
It's an iterator!
Iterating succeeded, iterCount == 1

tryItOut 940

tryItOut 941

tryItOut 942
Compiling threw: TypeError: redeclaration of const __noSuchMethod__

tryItOut 943

tryItOut 944
Compiling threw: SyntaxError: missing variable name

tryItOut 945
Compiling threw: SyntaxError: invalid for each loop

tryItOut 946

tryItOut 947

tryItOut 948
Compiling threw: SyntaxError: invalid default XML namespace

tryItOut 949
Compiling threw: SyntaxError: invalid for/in left-hand side

tryItOut 950
It's an iterator!
Iterating threw!
Iterating threw: ReferenceError: window is not defined

tryItOut 951

tryItOut 952
It's an iterator!
Iterating threw!
Iterating threw: TypeError: redeclaration of var __proto__

tryItOut 953

tryItOut 954
Compiling threw: SyntaxError: syntax error

tryItOut 955

tryItOut 956

tryItOut 957

tryItOut 958

tryItOut 959
Compiling threw: SyntaxError: invalid assignment left-hand side

tryItOut 960
Compiling threw: SyntaxError: syntax error

tryItOut 961

tryItOut 962

tryItOut 963

tryItOut 964
Compiling threw: SyntaxError: invalid for/in left-hand side

tryItOut 965

tryItOut 966
Compiling threw: SyntaxError: missing ) after let head

tryItOut 967

tryItOut 968

tryItOut 969
Compiling threw: SyntaxError: invalid property id

tryItOut 970
It's an iterator!
Iterating succeeded, iterCount == 1

tryItOut 971
It's an iterator!
Iterating succeeded, iterCount == 1

tryItOut 972
It's an iterator!
Iterating succeeded, iterCount == 1

tryItOut 973
Compiling threw: SyntaxError: invalid for each loop

tryItOut 974
It's an iterator!
Iterating succeeded, iterCount == 1

tryItOut 975
Compiling threw: SyntaxError: missing ; after for-loop initializer

tryItOut 976
It's an iterator!
Iterating succeeded, iterCount == 1

tryItOut 977
It's an iterator!
Iterating succeeded, iterCount == 4

tryItOut 978
Compiling threw: SyntaxError: missing ] after element list

tryItOut 979

tryItOut 980
Running threw: TypeError: XML filtering predicate operator called on incompatible Array

tryItOut 981

tryItOut 982

tryItOut 983

tryItOut 984

tryItOut 985
Compiling threw: SyntaxError: illegal XML character

tryItOut 986
It's an iterator!
Iterating succeeded, iterCount == 1

tryItOut 987
Compiling threw: SyntaxError: invalid for/in left-hand side

tryItOut 988
Running threw: 

tryItOut 989
Compiling threw: SyntaxError: syntax error

tryItOut 990
Running threw: SyntaxError: invalid setter usage

tryItOut 991

tryItOut 992

tryItOut 993
Compiling threw: TypeError: redeclaration of const __parent__

tryItOut 994
Compiling threw: SyntaxError: invalid for/in left-hand side

tryItOut 995

tryItOut 996
Compiling threw: SyntaxError: syntax error

tryItOut 997

tryItOut 998
Compiling threw: SyntaxError: invalid assignment left-hand side

tryItOut 999
Running threw: SyntaxError: invalid setter usage

tryItOut 1000

ALL OK

Script done on Sat 04 May 2013 06:53:23 AM PDT
