Script started on Sat 04 May 2013 06:54:05 AM PDT
***
Targeting SpiderMonkey / Gecko.

tryItOut 1
Compiling threw: SyntaxError: invalid for/in left-hand side

tryItOut 2
Compiling threw: SyntaxError: syntax error

tryItOut 3

tryItOut 4
Running threw: ReferenceError: reference to undefined XML name *::*

tryItOut 5

tryItOut 6

tryItOut 7
Compiling threw: SyntaxError: invalid continue

tryItOut 8
Compiling threw: SyntaxError: missing ; after for-loop initializer

tryItOut 9
Compiling threw: SyntaxError: missing while after do-loop body

tryItOut 10
Compiling threw: SyntaxError: invalid flag after regular expression

tryItOut 11
It's an iterator!
Iterating succeeded, iterCount == 1

tryItOut 12
Compiling threw: SyntaxError: label not found

tryItOut 13
Compiling threw: SyntaxError: label not found

tryItOut 14
Compiling threw: SyntaxError: invalid for/in left-hand side

tryItOut 15
It's an iterator!
Iterating threw!
Iterating threw: ReferenceError: reference to undefined XML name @foo

tryItOut 16
Compiling threw: SyntaxError: invalid assignment left-hand side

tryItOut 17

tryItOut 18

tryItOut 19

tryItOut 20

tryItOut 21
Compiling threw: TypeError: redeclaration of variable __proto__

tryItOut 22
Compiling threw: SyntaxError: syntax error

tryItOut 23
It's an iterator!
Iterating succeeded, iterCount == 1

tryItOut 24

tryItOut 25
Compiling threw: SyntaxError: missing variable name

tryItOut 26
Compiling threw: SyntaxError: invalid assignment left-hand side

tryItOut 27

tryItOut 28

tryItOut 29

tryItOut 30
Running threw: ReferenceError: reference to undefined XML name *

tryItOut 31
Compiling threw: SyntaxError: missing = in destructuring declaration

tryItOut 32
Running threw: ReferenceError: reference to undefined XML name *::*

tryItOut 33
Compiling threw: SyntaxError: syntax error

tryItOut 34

tryItOut 35
Compiling threw: SyntaxError: missing variable name

tryItOut 36
Compiling threw: SyntaxError: syntax error

tryItOut 37

tryItOut 38

tryItOut 39
Compiling threw: SyntaxError: missing ; before statement

tryItOut 40
Compiling threw: SyntaxError: missing variable name

tryItOut 41
Compiling threw: SyntaxError: invalid assignment left-hand side

tryItOut 42

tryItOut 43
Compiling threw: SyntaxError: invalid for/in left-hand side

tryItOut 44

tryItOut 45
Compiling threw: SyntaxError: missing variable name

tryItOut 46

tryItOut 47
Compiling threw: SyntaxError: missing : after property id

tryItOut 48

tryItOut 49
Running threw: TypeError: false is not a function

tryItOut 50
before 87200, after 87200, break 02733000

tryItOut 51

tryItOut 52
Compiling threw: SyntaxError: missing ) in parenthetical

tryItOut 53
Compiling threw: SyntaxError: missing ) after condition

tryItOut 54
Compiling threw: SyntaxError: missing ( before let head

tryItOut 55
Compiling threw: TypeError: anonymous generator function returns a value

tryItOut 56
Running threw: ReferenceError: reference to undefined XML name *::*

tryItOut 57
Compiling threw: SyntaxError: invalid for/in left-hand side

tryItOut 58
Compiling threw: SyntaxError: missing ) in parenthetical

tryItOut 59

tryItOut 60
It's an iterator!
Iterating succeeded, iterCount == 0

tryItOut 61
Compiling threw: SyntaxError: syntax error

tryItOut 62

tryItOut 63

tryItOut 64
Compiling threw: TypeError: generator function anonymous returns a value

tryItOut 65
Compiling threw: SyntaxError: syntax error

tryItOut 66
Running threw: ReferenceError: reference to undefined XML name @foo

tryItOut 67

tryItOut 68
Compiling threw: SyntaxError: invalid for/in left-hand side

tryItOut 69

tryItOut 70
Compiling threw: SyntaxError: invalid decrement operand

tryItOut 71

tryItOut 72

tryItOut 73

tryItOut 74

tryItOut 75

tryItOut 76

tryItOut 77
It's an iterator!
Iterating succeeded, iterCount == 0

tryItOut 78

tryItOut 79

tryItOut 80
Compiling threw: SyntaxError: missing ; before statement

tryItOut 81
Compiling threw: SyntaxError: missing ; before statement

tryItOut 82

tryItOut 83
Running threw: ReferenceError: prototype is not defined

tryItOut 84
It's an iterator!
Iterating threw!
Iterating threw: ReferenceError: reference to undefined XML name *

tryItOut 85
Compiling threw: SyntaxError: label not found

tryItOut 86

tryItOut 87
Compiling threw: SyntaxError: missing ) in parenthetical

tryItOut 88
Compiling threw: SyntaxError: syntax error

tryItOut 89

tryItOut 90
Compiling threw: SyntaxError: invalid for/in left-hand side

tryItOut 91
Compiling threw: SyntaxError: missing } after property list

tryItOut 92

tryItOut 93
It's an iterator!
Iterating threw!
Iterating threw: ReferenceError: z2 is not defined

tryItOut 94
Compiling threw: SyntaxError: missing ; before statement

tryItOut 95
Compiling threw: SyntaxError: missing ) in parenthetical

tryItOut 96

tryItOut 97

tryItOut 98
before 104640, after 104640, break 02733000

tryItOut 99

tryItOut 100
Compiling threw: SyntaxError: invalid destructuring assignment operator

tryItOut 101

tryItOut 102

tryItOut 103

tryItOut 104
Compiling threw: SyntaxError: invalid continue

tryItOut 105
Running threw: ReferenceError: prototype is not defined

tryItOut 106
Running threw: ReferenceError: reference to undefined XML name *

tryItOut 107
Compiling threw: SyntaxError: duplicate label

tryItOut 108
Compiling threw: TypeError: redeclaration of const __noSuchMethod__

tryItOut 109
Compiling threw: SyntaxError: invalid assignment left-hand side

tryItOut 110
Running threw: ReferenceError: evalgc is not defined

tryItOut 111

tryItOut 112
Running threw: ReferenceError: reference to undefined XML name @foo

tryItOut 113
Compiling threw: SyntaxError: invalid assignment left-hand side

tryItOut 114
Compiling threw: SyntaxError: missing variable name

tryItOut 115
Compiling threw: SyntaxError: invalid destructuring assignment operator

tryItOut 116
Compiling threw: SyntaxError: missing ; after for-loop initializer

tryItOut 117
Running threw: ReferenceError: reference to undefined XML name *::*

tryItOut 118
It's an iterator!
Iterating succeeded, iterCount == 0

tryItOut 119

tryItOut 120

tryItOut 121
Compiling threw: SyntaxError: invalid for/in left-hand side

tryItOut 122
Compiling threw: SyntaxError: invalid assignment left-hand side

tryItOut 123
Compiling threw: SyntaxError: missing ; before statement

tryItOut 124
It's an iterator!
Iterating succeeded, iterCount == 1

tryItOut 125
Running threw: ReferenceError: reference to undefined XML name *::*

tryItOut 126
Running threw: ReferenceError: prop is not defined

tryItOut 127
Running threw: ReferenceError: reference to undefined XML name *::*

tryItOut 128
Compiling threw: SyntaxError: missing ) in parenthetical

tryItOut 129
Compiling threw: SyntaxError: syntax error

tryItOut 130
It's an iterator!
Iterating threw!
Iterating threw: TypeError: __parent__ has no properties

tryItOut 131
Running threw: ReferenceError: window is not defined

tryItOut 132
Running threw: [object StopIteration]

tryItOut 133
Running threw: ReferenceError: z1 is not defined

tryItOut 134

tryItOut 135
Compiling threw: TypeError: generator function anonymous returns a value

tryItOut 136
Compiling threw: SyntaxError: missing variable name

tryItOut 137
before 104640, after 104640, break 02751000
Running threw: ReferenceError: window is not defined

tryItOut 138

tryItOut 139
Compiling threw: SyntaxError: invalid sharp variable definition

tryItOut 140
It's an iterator!
Iterating succeeded, iterCount == 1

tryItOut 141

tryItOut 142

tryItOut 143
Compiling threw: SyntaxError: missing { before function body

tryItOut 144

tryItOut 145
Running threw: SyntaxError: yield not in function

tryItOut 146
Compiling threw: SyntaxError: missing variable name

tryItOut 147

tryItOut 148
Compiling threw: SyntaxError: missing ) after condition

tryItOut 149
It's an iterator!
Iterating threw!
Iterating threw: ReferenceError: window is not defined

tryItOut 150
Compiling threw: SyntaxError: syntax error

tryItOut 151
Compiling threw: SyntaxError: missing ; before statement

tryItOut 152

tryItOut 153

tryItOut 154
Compiling threw: SyntaxError: missing variable name

tryItOut 155
It's an iterator!
Iterating succeeded, iterCount == 1

tryItOut 156

tryItOut 157
Compiling threw: SyntaxError: label not found

tryItOut 158

tryItOut 159

tryItOut 160
Compiling threw: SyntaxError: missing variable name

tryItOut 161
It's an iterator!
Iterating succeeded, iterCount == 1

tryItOut 162
before 104640, after 104640, break 02751000

tryItOut 163

tryItOut 164

tryItOut 165

tryItOut 166
Compiling threw: SyntaxError: missing = in destructuring declaration

tryItOut 167
Running threw: SyntaxError: invalid assignment left-hand side

tryItOut 168
Compiling threw: SyntaxError: missing variable name

tryItOut 169

tryItOut 170

tryItOut 171
Compiling threw: SyntaxError: invalid for/in left-hand side

tryItOut 172

tryItOut 173

tryItOut 174
Compiling threw: SyntaxError: invalid break

tryItOut 175
Compiling threw: SyntaxError: missing ; before statement

tryItOut 176
Compiling threw: SyntaxError: missing name after . operator

tryItOut 177
before 104640, after 104640, break 02751000

tryItOut 178
It's an iterator!
Iterating succeeded, iterCount == 1

tryItOut 179
It's an iterator!
Iterating threw!
Iterating threw: TypeError: __proto__ has no properties

tryItOut 180

tryItOut 181
Compiling threw: TypeError: generator function anonymous returns a value

tryItOut 182
Running threw: ReferenceError: reference to undefined XML name @foo

tryItOut 183
Compiling threw: SyntaxError: missing { before function body

tryItOut 184
Compiling threw: SyntaxError: invalid for/in left-hand side

tryItOut 185
Compiling threw: SyntaxError: invalid assignment left-hand side

tryItOut 186
Compiling threw: SyntaxError: syntax error

tryItOut 187

tryItOut 188

tryItOut 189
Compiling threw: SyntaxError: syntax error

tryItOut 190
Compiling threw: SyntaxError: duplicate label

tryItOut 191
Compiling threw: SyntaxError: invalid for each loop

tryItOut 192

tryItOut 193
Running threw: ReferenceError: __proto__ is not defined

tryItOut 194
Compiling threw: SyntaxError: label not found

tryItOut 195
Compiling threw: SyntaxError: invalid assignment left-hand side

tryItOut 196

tryItOut 197
It's an iterator!
before 122080, after 122080, break 02751000
Iterating succeeded, iterCount == 1

tryItOut 198
Compiling threw: SyntaxError: invalid continue

tryItOut 199
Running threw: ReferenceError: prop is not defined

tryItOut 200
Running threw: SyntaxError: invalid getter usage

tryItOut 201
It's an iterator!
Iterating threw!
Iterating threw: ReferenceError: __proto__ is not defined

tryItOut 202

tryItOut 203
Running threw: [object StopIteration]

tryItOut 204

tryItOut 205

tryItOut 206
It's an iterator!
Iterating threw!
Iterating threw: ReferenceError: window is not defined

tryItOut 207
It's an iterator!
Iterating succeeded, iterCount == 0

tryItOut 208

tryItOut 209

tryItOut 210
It's an iterator!
Iterating succeeded, iterCount == 1

tryItOut 211
Compiling threw: TypeError: generator function anonymous returns a value

tryItOut 212

tryItOut 213

tryItOut 214
Compiling threw: SyntaxError: missing ) after condition

tryItOut 215
Compiling threw: SyntaxError: missing name after . operator

tryItOut 216

tryItOut 217

tryItOut 218

tryItOut 219
Compiling threw: SyntaxError: duplicate label

tryItOut 220
Compiling threw: SyntaxError: illegal character

tryItOut 221

tryItOut 222
Compiling threw: SyntaxError: invalid assignment left-hand side

tryItOut 223
before 156960, after 139520, break 02791000

tryItOut 224

tryItOut 225
before 139520, after 122080, break 02791000

tryItOut 226

tryItOut 227
Compiling threw: SyntaxError: invalid for/in left-hand side

tryItOut 228
before 122080, after 122080, break 02791000
before 122080, after 122080, break 02791000

tryItOut 229
Compiling threw: SyntaxError: label not found

tryItOut 230

tryItOut 231
It's an iterator!
before 122080, after 122080, break 02791000
Iterating succeeded, iterCount == 0

tryItOut 232

tryItOut 233
Compiling threw: SyntaxError: missing ) after condition

tryItOut 234
Compiling threw: SyntaxError: invalid for/in left-hand side

tryItOut 235
Running threw: ReferenceError: prop is not defined

tryItOut 236

tryItOut 237

tryItOut 238
uneval returned the string: [undefined]

tryItOut 239
Compiling threw: SyntaxError: missing : after property id

tryItOut 240
Compiling threw: SyntaxError: missing ; before statement

tryItOut 241
Compiling threw: SyntaxError: invalid break

tryItOut 242
Compiling threw: SyntaxError: label not found

tryItOut 243
Compiling threw: SyntaxError: missing = in destructuring declaration

tryItOut 244

tryItOut 245

tryItOut 246
Compiling threw: SyntaxError: label not found

tryItOut 247

tryItOut 248
Compiling threw: SyntaxError: syntax error

tryItOut 249
It's an iterator!
Iterating threw!
Iterating threw: ReferenceError: __parent__ is not defined

tryItOut 250
Compiling threw: SyntaxError: invalid for/in left-hand side

tryItOut 251
Compiling threw: SyntaxError: missing variable name

tryItOut 252

tryItOut 253

tryItOut 254
Compiling threw: TypeError: redeclaration of variable constructor

tryItOut 255

tryItOut 256
Compiling threw: SyntaxError: label not found

tryItOut 257

tryItOut 258

tryItOut 259
Compiling threw: SyntaxError: invalid assignment left-hand side

tryItOut 260
It's an iterator!
Iterating succeeded, iterCount == 1

tryItOut 261

tryItOut 262

tryItOut 263
Compiling threw: TypeError: redeclaration of variable prop

tryItOut 264

tryItOut 265

tryItOut 266

tryItOut 267
Compiling threw: SyntaxError: missing variable name

tryItOut 268

tryItOut 269

tryItOut 270
Compiling threw: SyntaxError: invalid increment operand

tryItOut 271
Compiling threw: SyntaxError: illegal XML character

tryItOut 272
It's an iterator!
Iterating succeeded, iterCount == 1

tryItOut 273
Running threw: ReferenceError: window is not defined

tryItOut 274

tryItOut 275
It's an iterator!
Iterating succeeded, iterCount == 1

tryItOut 276
Compiling threw: SyntaxError: missing ; before statement

tryItOut 277

tryItOut 278
Running threw: TypeError: can't convert this to string

tryItOut 279

tryItOut 280

tryItOut 281

tryItOut 282
Running threw: [object StopIteration]

tryItOut 283

tryItOut 284

tryItOut 285
Running threw: ReferenceError: window is not defined

tryItOut 286
Compiling threw: SyntaxError: invalid for each loop

tryItOut 287
Compiling threw: SyntaxError: missing ) after condition

tryItOut 288
Running threw: TypeError: (4)[false] has no properties

tryItOut 289
It's an iterator!
Iterating succeeded, iterCount == 0

tryItOut 290

tryItOut 291

tryItOut 292
Compiling threw: SyntaxError: missing { before function body

tryItOut 293
Compiling threw: SyntaxError: missing ; before statement

tryItOut 294

tryItOut 295
It's an iterator!
Iterating threw!
Iterating threw: ReferenceError: z1 is not defined

tryItOut 296
Running threw: Error: invalid sharp variable use #1#

tryItOut 297

tryItOut 298
It's an iterator!
Iterating succeeded, iterCount == 1

tryItOut 299

tryItOut 300
Compiling threw: SyntaxError: missing ; after for-loop initializer

tryItOut 301
Compiling threw: SyntaxError: missing ) in parenthetical

tryItOut 302
Running threw: [object StopIteration]

tryItOut 303
Compiling threw: SyntaxError: missing ) in parenthetical

tryItOut 304
Compiling threw: SyntaxError: label not found

tryItOut 305
Compiling threw: TypeError: generator function anonymous returns a value

tryItOut 306
Compiling threw: SyntaxError: invalid for/in left-hand side

tryItOut 307
Running threw: ReferenceError: reference to undefined XML name @foo

tryItOut 308
before 226720, after 191840, break 02868000

tryItOut 309

tryItOut 310

tryItOut 311
Compiling threw: SyntaxError: missing ; after for-loop initializer

tryItOut 312

tryItOut 313
Compiling threw: SyntaxError: missing ; after for-loop initializer

tryItOut 314
Running threw: [object StopIteration]

tryItOut 315

tryItOut 316
Compiling threw: SyntaxError: missing ) in parenthetical

tryItOut 317
Compiling threw: SyntaxError: label not found

tryItOut 318
Compiling threw: SyntaxError: syntax error

tryItOut 319
Compiling threw: SyntaxError: missing name in export statement

tryItOut 320
Compiling threw: SyntaxError: missing ; after for-loop initializer

tryItOut 321
before 191840, after 174400, break 02865000

tryItOut 322
Compiling threw: SyntaxError: missing ) in parenthetical

tryItOut 323
Compiling threw: SyntaxError: missing ; before statement

tryItOut 324
Running threw: TypeError: XML filtering predicate operator called on incompatible Function

tryItOut 325
Running threw: ReferenceError: z1 is not defined

tryItOut 326
Running threw: ReferenceError: reference to undefined XML name *::*

tryItOut 327
It's an iterator!
Iterating threw!
Iterating threw: ReferenceError: reference to undefined XML name *

tryItOut 328
Compiling threw: SyntaxError: invalid for/in left-hand side

tryItOut 329
It's an iterator!
Iterating succeeded, iterCount == 0

tryItOut 330
Compiling threw: SyntaxError: label not found

tryItOut 331
Compiling threw: TypeError: generator function anonymous returns a value

tryItOut 332

tryItOut 333
Compiling threw: SyntaxError: missing name in export statement

tryItOut 334
Compiling threw: SyntaxError: missing ; after for-loop initializer

tryItOut 335

tryItOut 336
Compiling threw: SyntaxError: missing ; after for-loop initializer

tryItOut 337

tryItOut 338

tryItOut 339
Running threw: ReferenceError: reference to undefined XML name @foo

tryItOut 340
Running threw: ReferenceError: reference to undefined XML name *::*

tryItOut 341

tryItOut 342
Compiling threw: SyntaxError: invalid for/in left-hand side

tryItOut 343
Compiling threw: SyntaxError: invalid continue

tryItOut 344
Compiling threw: SyntaxError: invalid assignment left-hand side

tryItOut 345

tryItOut 346
Running threw: ReferenceError: window is not defined

tryItOut 347

tryItOut 348

tryItOut 349
Compiling threw: SyntaxError: syntax error

tryItOut 350
Compiling threw: SyntaxError: invalid assignment left-hand side

tryItOut 351
Running threw: ReferenceError: __parent__ is not defined

tryItOut 352

tryItOut 353
Compiling threw: SyntaxError: missing variable name

tryItOut 354

tryItOut 355
Compiling threw: SyntaxError: missing ; after for-loop initializer

tryItOut 356
Running threw: TypeError: redeclaration of const __parent__

tryItOut 357
Compiling threw: SyntaxError: invalid assignment left-hand side

tryItOut 358
It's an iterator!
Iterating succeeded, iterCount == 1

tryItOut 359
Running threw: [object StopIteration]

tryItOut 360
Compiling threw: SyntaxError: missing ) in parenthetical

tryItOut 361
Compiling threw: SyntaxError: syntax error

tryItOut 362
Compiling threw: SyntaxError: invalid continue

tryItOut 363
Compiling threw: SyntaxError: invalid continue

tryItOut 364
Compiling threw: SyntaxError: invalid break

tryItOut 365

tryItOut 366
Compiling threw: SyntaxError: missing : after property id

tryItOut 367
before 174400, after 174400, break 02865000

tryItOut 368
It's an iterator!
Iterating succeeded, iterCount == 1

tryItOut 369

tryItOut 370
Compiling threw: SyntaxError: missing ; before statement

tryItOut 371
Compiling threw: SyntaxError: missing ] in index expression

tryItOut 372
Compiling threw: SyntaxError: missing ) in parenthetical

tryItOut 373
Compiling threw: SyntaxError: missing ; before statement

tryItOut 374
Compiling threw: SyntaxError: invalid assignment left-hand side

tryItOut 375
Compiling threw: SyntaxError: invalid assignment left-hand side

tryItOut 376
Compiling threw: SyntaxError: illegal XML character

tryItOut 377

tryItOut 378

tryItOut 379

tryItOut 380
It's an iterator!
Iterating succeeded, iterCount == 2

tryItOut 381
Compiling threw: SyntaxError: missing variable name

tryItOut 382
Error while trying to determine whether it's an iterator!
The error was: TypeError: false.__iterator__ returned a primitive value
uneval returned the string: null

tryItOut 383

tryItOut 384

tryItOut 385

tryItOut 386
Running threw: ReferenceError: reference to undefined XML name @foo

tryItOut 387
It's an iterator!
Iterating succeeded, iterCount == 1

tryItOut 388

tryItOut 389
before 174400, after 174400, break 02865000

tryItOut 390

tryItOut 391
It's an iterator!
Iterating succeeded, iterCount == 1

tryItOut 392

tryItOut 393
Compiling threw: SyntaxError: missing ; after for-loop initializer

tryItOut 394
Compiling threw: SyntaxError: missing name after . operator

tryItOut 395

tryItOut 396

tryItOut 397

tryItOut 398
Compiling threw: SyntaxError: missing variable name

tryItOut 399
Compiling threw: SyntaxError: missing ) in parenthetical

tryItOut 400

tryItOut 401
Compiling threw: SyntaxError: label not found

tryItOut 402
Compiling threw: SyntaxError: missing { before function body

tryItOut 403
Compiling threw: SyntaxError: invalid property id

tryItOut 404

tryItOut 405

tryItOut 406
Compiling threw: SyntaxError: label not found

tryItOut 407
Compiling threw: SyntaxError: invalid for/in left-hand side

tryItOut 408
Compiling threw: SyntaxError: invalid default XML namespace

tryItOut 409
Running threw: ReferenceError: window is not defined

tryItOut 410

tryItOut 411
Compiling threw: SyntaxError: invalid for each loop

tryItOut 412
Running threw: ReferenceError: z1 is not defined

tryItOut 413
Compiling threw: SyntaxError: invalid assignment left-hand side

tryItOut 414
Compiling threw: SyntaxError: invalid for each loop

tryItOut 415
It's an iterator!
Iterating threw!
Iterating threw: ReferenceError: window is not defined

tryItOut 416
It's an iterator!
Iterating succeeded, iterCount == 1

tryItOut 417

tryItOut 418

tryItOut 419
Running threw: ReferenceError: window is not defined

tryItOut 420

tryItOut 421

tryItOut 422
Compiling threw: SyntaxError: missing variable name

tryItOut 423

tryItOut 424

tryItOut 425
Compiling threw: SyntaxError: syntax error

tryItOut 426

tryItOut 427

tryItOut 428

tryItOut 429

tryItOut 430
Compiling threw: SyntaxError: syntax error

tryItOut 431
Compiling threw: TypeError: generator function anonymous returns a value

tryItOut 432
It's an iterator!
Iterating succeeded, iterCount == 1

tryItOut 433
Compiling threw: SyntaxError: label not found

tryItOut 434
Compiling threw: TypeError: redeclaration of const __iterator__

tryItOut 435
It's an iterator!
Iterating threw!
Iterating threw: TypeError: redeclaration of const __parent__

tryItOut 436

tryItOut 437
Compiling threw: SyntaxError: invalid assignment left-hand side

tryItOut 438

tryItOut 439
It's an iterator!
Iterating succeeded, iterCount == 1

tryItOut 440
Running threw: ReferenceError: reference to undefined XML name @foo

tryItOut 441

tryItOut 442
Compiling threw: SyntaxError: duplicate label

tryItOut 443
Compiling threw: SyntaxError: missing : after property id

tryItOut 444
Compiling threw: SyntaxError: invalid break

tryItOut 445
It's an iterator!
Iterating succeeded, iterCount == 1

tryItOut 446
Compiling threw: SyntaxError: syntax error

tryItOut 447
Compiling threw: SyntaxError: syntax error

tryItOut 448

tryItOut 449
Running threw: ReferenceError: reference to undefined XML name *::*

tryItOut 450
Compiling threw: SyntaxError: invalid continue

tryItOut 451
Running threw: ReferenceError: reference to undefined XML name *::*

tryItOut 452

tryItOut 453
Running threw: TypeError: undefined has no properties

tryItOut 454
It's an iterator!
Iterating threw!
Iterating threw: ReferenceError: reference to undefined XML name *::*

tryItOut 455
It's an iterator!
Iterating succeeded, iterCount == 1

tryItOut 456

tryItOut 457

tryItOut 458
It's an iterator!
Iterating succeeded, iterCount == 1

tryItOut 459
Running threw: TypeError: XML descendants internal method called on incompatible Error

tryItOut 460
Compiling threw: SyntaxError: illegal XML character

tryItOut 461

tryItOut 462
Compiling threw: SyntaxError: invalid for/in left-hand side

tryItOut 463
before 226720, after 209280, break 02865000

tryItOut 464
Compiling threw: SyntaxError: invalid for/in left-hand side

tryItOut 465
Compiling threw: SyntaxError: label not found

tryItOut 466

tryItOut 467

tryItOut 468

tryItOut 469
It's an iterator!
Iterating succeeded, iterCount == 1

tryItOut 470
Compiling threw: SyntaxError: invalid for/in left-hand side

tryItOut 471
Running threw: ReferenceError: window is not defined

tryItOut 472
It's an iterator!
Iterating threw!
Iterating threw: TypeError: XML filtering predicate operator called on incompatible RegExp

tryItOut 473

tryItOut 474
Compiling threw: SyntaxError: syntax error

tryItOut 475
Compiling threw: SyntaxError: missing ) after condition

tryItOut 476
Running threw: ReferenceError: z1 is not defined

tryItOut 477

tryItOut 478

tryItOut 479
Compiling threw: SyntaxError: invalid for/in left-hand side

tryItOut 480

tryItOut 481

tryItOut 482
Running threw: ReferenceError: window is not defined

tryItOut 483

tryItOut 484

tryItOut 485

tryItOut 486
Compiling threw: SyntaxError: invalid assignment left-hand side

tryItOut 487
Compiling threw: SyntaxError: label not found

tryItOut 488
Running threw: [object StopIteration]

tryItOut 489
Compiling threw: SyntaxError: label not found

tryItOut 490
Compiling threw: SyntaxError: syntax error

tryItOut 491
Compiling threw: SyntaxError: missing ; before statement

tryItOut 492

tryItOut 493
Compiling threw: SyntaxError: invalid default XML namespace

tryItOut 494
It's an iterator!
Iterating threw!
Iterating threw: TypeError: ({constructor:{}}) is not a constructor

tryItOut 495

tryItOut 496

tryItOut 497
Compiling threw: SyntaxError: missing name after . operator

tryItOut 498
Running threw: [object StopIteration]

tryItOut 499

tryItOut 500
It's an iterator!
Iterating succeeded, iterCount == 1

tryItOut 501

tryItOut 502

tryItOut 503
Compiling threw: SyntaxError: missing ) after condition

tryItOut 504

tryItOut 505
Compiling threw: SyntaxError: missing ; before statement

tryItOut 506
Compiling threw: SyntaxError: invalid for/in left-hand side

tryItOut 507

tryItOut 508

tryItOut 509
It's an iterator!
Iterating succeeded, iterCount == 1

tryItOut 510

tryItOut 511
Compiling threw: SyntaxError: invalid for/in left-hand side

tryItOut 512
Compiling threw: SyntaxError: missing ; before statement

tryItOut 513
Compiling threw: SyntaxError: missing ; before statement

tryItOut 514
Compiling threw: SyntaxError: missing ) in parenthetical

tryItOut 515
Compiling threw: SyntaxError: invalid for/in left-hand side

tryItOut 516
Compiling threw: TypeError: generator function anonymous returns a value

tryItOut 517

tryItOut 518
Compiling threw: SyntaxError: missing ; after for-loop initializer

tryItOut 519
Compiling threw: SyntaxError: syntax error

tryItOut 520

tryItOut 521
Compiling threw: SyntaxError: syntax error

tryItOut 522
Compiling threw: SyntaxError: missing ; after for-loop initializer

tryItOut 523

tryItOut 524
Running threw: TypeError: null has no properties

tryItOut 525

tryItOut 526
Compiling threw: SyntaxError: missing ; after for-loop initializer

tryItOut 527
Compiling threw: SyntaxError: missing ; before statement

tryItOut 528
Running threw: [object StopIteration]

tryItOut 529

tryItOut 530
It's an iterator!
Iterating threw!
Iterating threw: ReferenceError: window is not defined

tryItOut 531

tryItOut 532
Compiling threw: SyntaxError: missing ) after let head

tryItOut 533
Compiling threw: SyntaxError: invalid assignment left-hand side

tryItOut 534
Running threw: ReferenceError: Exception is not defined

tryItOut 535
Compiling threw: SyntaxError: syntax error

tryItOut 536

tryItOut 537
Compiling threw: SyntaxError: invalid property id

tryItOut 538

tryItOut 539
Compiling threw: SyntaxError: missing ) after argument list

tryItOut 540
Compiling threw: SyntaxError: missing variable name

tryItOut 541

tryItOut 542
Compiling threw: TypeError: generator function anonymous returns a value

tryItOut 543
Compiling threw: SyntaxError: missing ; after for-loop initializer

tryItOut 544
Compiling threw: SyntaxError: missing ; before statement

tryItOut 545
Compiling threw: SyntaxError: syntax error

tryItOut 546

tryItOut 547
before 226720, after 191840, break 02865000

tryItOut 548
It's an iterator!
Iterating threw!
Iterating threw: ReferenceError: window is not defined

tryItOut 549

tryItOut 550
Running threw: TypeError: arguments[0] has no properties

tryItOut 551
Compiling threw: SyntaxError: invalid continue

tryItOut 552
Compiling threw: SyntaxError: syntax error

tryItOut 553
It's an iterator!
Iterating succeeded, iterCount == 1

tryItOut 554
Compiling threw: SyntaxError: label not found

tryItOut 555
Compiling threw: TypeError: generator function anonymous returns a value

tryItOut 556

tryItOut 557
It's an iterator!
Iterating succeeded, iterCount == 1

tryItOut 558
Running threw: ReferenceError: window is not defined

tryItOut 559

tryItOut 560

tryItOut 561

tryItOut 562
Compiling threw: SyntaxError: invalid continue

tryItOut 563
Compiling threw: SyntaxError: label not found

tryItOut 564

tryItOut 565
It's an iterator!
Iterating succeeded, iterCount == 1

tryItOut 566

tryItOut 567
Compiling threw: SyntaxError: illegal XML character

tryItOut 568
before 191840, after 174400, break 02865000

tryItOut 569
Running threw: ReferenceError: window is not defined

tryItOut 570

tryItOut 571
Compiling threw: SyntaxError: syntax error

tryItOut 572

tryItOut 573
Compiling threw: SyntaxError: missing ) in parenthetical

tryItOut 574

tryItOut 575
Compiling threw: SyntaxError: missing ] after element list

tryItOut 576
Running threw: TypeError: __parent__ is not a function

tryItOut 577
Compiling threw: SyntaxError: invalid for each loop

tryItOut 578

tryItOut 579

tryItOut 580

tryItOut 581
It's an iterator!
Iterating succeeded, iterCount == 2

tryItOut 582
Compiling threw: SyntaxError: syntax error

tryItOut 583
Compiling threw: SyntaxError: missing ) after condition

tryItOut 584

tryItOut 585
Compiling threw: SyntaxError: syntax error

tryItOut 586
Compiling threw: SyntaxError: missing ) in parenthetical

tryItOut 587
Compiling threw: SyntaxError: invalid continue

tryItOut 588

tryItOut 589

tryItOut 590

tryItOut 591
Compiling threw: SyntaxError: invalid continue

tryItOut 592

tryItOut 593
It's an iterator!
Iterating succeeded, iterCount == 1

tryItOut 594

tryItOut 595
Running threw: ReferenceError: reference to undefined XML name *::*

tryItOut 596

tryItOut 597

tryItOut 598
Compiling threw: SyntaxError: syntax error

tryItOut 599

tryItOut 600

tryItOut 601
Running threw: ReferenceError: reference to undefined XML name @foo

tryItOut 602

tryItOut 603

tryItOut 604
Compiling threw: SyntaxError: label not found

tryItOut 605
Compiling threw: SyntaxError: syntax error

tryItOut 606
Compiling threw: SyntaxError: missing ; after for-loop initializer

tryItOut 607
Compiling threw: SyntaxError: unterminated comment

tryItOut 608

tryItOut 609
Compiling threw: SyntaxError: missing ) in parenthetical

tryItOut 610
Compiling threw: SyntaxError: invalid for/in left-hand side

tryItOut 611

tryItOut 612
Compiling threw: SyntaxError: missing : after property id

tryItOut 613

tryItOut 614
Compiling threw: SyntaxError: invalid for/in left-hand side

tryItOut 615
Compiling threw: SyntaxError: label not found

tryItOut 616
before 174400, after 174400, break 02865000

tryItOut 617

tryItOut 618

tryItOut 619

tryItOut 620
Compiling threw: TypeError: redeclaration of variable prop

tryItOut 621
It's an iterator!
Iterating threw!
Iterating threw: ReferenceError: window is not defined

tryItOut 622

tryItOut 623
Compiling threw: SyntaxError: invalid break

tryItOut 624

tryItOut 625
Compiling threw: SyntaxError: invalid for/in left-hand side

tryItOut 626

tryItOut 627

tryItOut 628

tryItOut 629
It's an iterator!
Iterating succeeded, iterCount == 1

tryItOut 630
Compiling threw: SyntaxError: invalid break

tryItOut 631
Compiling threw: SyntaxError: invalid continue

tryItOut 632
Compiling threw: SyntaxError: invalid assignment left-hand side

tryItOut 633
It's an iterator!
Iterating threw!
Iterating threw: ReferenceError: window is not defined

tryItOut 634

tryItOut 635
Compiling threw: SyntaxError: syntax error

tryItOut 636

tryItOut 637

tryItOut 638
Running threw: [object StopIteration]

tryItOut 639
Compiling threw: SyntaxError: missing ; after for-loop initializer

tryItOut 640

tryItOut 641

tryItOut 642

tryItOut 643
before 174400, after 174400, break 02865000
Running threw: TypeError: gc() is not a function

tryItOut 644
Compiling threw: SyntaxError: missing variable name

tryItOut 645
Running threw: ReferenceError: reference to undefined XML name @foo

tryItOut 646
Compiling threw: SyntaxError: syntax error

tryItOut 647
Compiling threw: SyntaxError: invalid for/in left-hand side

tryItOut 648
Compiling threw: SyntaxError: invalid for each loop

tryItOut 649
Running threw: TypeError: null has no properties

tryItOut 650
Running threw: [object StopIteration]

tryItOut 651
Compiling threw: SyntaxError: missing ; before statement

tryItOut 652
Compiling threw: SyntaxError: invalid for/in left-hand side

tryItOut 653
Compiling threw: SyntaxError: missing variable name

tryItOut 654

tryItOut 655

tryItOut 656

tryItOut 657
Compiling threw: SyntaxError: syntax error

tryItOut 658

tryItOut 659
It's an iterator!
Iterating threw!
Iterating threw: Error: invalid sharp variable use #1#

tryItOut 660

tryItOut 661
Compiling threw: SyntaxError: missing ; after for-loop initializer

tryItOut 662

tryItOut 663
Compiling threw: SyntaxError: missing ; after for-loop initializer

tryItOut 664

tryItOut 665
Compiling threw: SyntaxError: syntax error

tryItOut 666
Compiling threw: SyntaxError: syntax error

tryItOut 667
Compiling threw: SyntaxError: invalid assignment left-hand side

tryItOut 668
Compiling threw: SyntaxError: missing ) in parenthetical

tryItOut 669

tryItOut 670

tryItOut 671

tryItOut 672

tryItOut 673
It's an iterator!
Iterating threw!
Iterating threw: ReferenceError: reference to undefined XML name @foo

tryItOut 674
Compiling threw: SyntaxError: invalid break

tryItOut 675
Compiling threw: SyntaxError: invalid default XML namespace

tryItOut 676
Compiling threw: TypeError: generator function anonymous returns a value

tryItOut 677

tryItOut 678

tryItOut 679

tryItOut 680
Compiling threw: TypeError: generator function anonymous returns a value

tryItOut 681
Compiling threw: SyntaxError: label not found

tryItOut 682
Compiling threw: SyntaxError: missing ) in parenthetical

tryItOut 683

tryItOut 684
It's an iterator!
Iterating succeeded, iterCount == 1

tryItOut 685

tryItOut 686
before 174400, after 174400, break 02865000

tryItOut 687
Compiling threw: SyntaxError: syntax error

tryItOut 688
Compiling threw: TypeError: generator function anonymous returns a value

tryItOut 689

tryItOut 690

tryItOut 691
Compiling threw: TypeError: generator function anonymous returns a value

tryItOut 692
Compiling threw: SyntaxError: syntax error

tryItOut 693

tryItOut 694
It's an iterator!
Iterating succeeded, iterCount == 1

tryItOut 695
Compiling threw: SyntaxError: missing ) after with-statement object

tryItOut 696

tryItOut 697

tryItOut 698
before 174400, after 174400, break 02865000

tryItOut 699

tryItOut 700
Running threw: SyntaxError: invalid setter usage

tryItOut 701
before 174400, after 174400, break 02865000

tryItOut 702
Compiling threw: TypeError: anonymous generator function returns a value

tryItOut 703
Compiling threw: SyntaxError: duplicate label

tryItOut 704
Running threw: ReferenceError: z1 is not defined

tryItOut 705
Compiling threw: SyntaxError: yield expression must be parenthesized

tryItOut 706

tryItOut 707

tryItOut 708
Running threw: TypeError: 10000 is not a constructor

tryItOut 709

tryItOut 710

tryItOut 711
Compiling threw: SyntaxError: invalid assignment left-hand side

tryItOut 712
Compiling threw: SyntaxError: syntax error

tryItOut 713

tryItOut 714

tryItOut 715
Compiling threw: SyntaxError: invalid for/in left-hand side

tryItOut 716

tryItOut 717

tryItOut 718

tryItOut 719

tryItOut 720
Compiling threw: SyntaxError: invalid break

tryItOut 721
Compiling threw: SyntaxError: missing variable name

tryItOut 722
Compiling threw: SyntaxError: missing } after property list

tryItOut 723
Running threw: [object StopIteration]

tryItOut 724
Compiling threw: TypeError: redeclaration of variable __proto__

tryItOut 725
Compiling threw: SyntaxError: syntax error

tryItOut 726
Running threw: ReferenceError: window is not defined

tryItOut 727
Compiling threw: SyntaxError: invalid assignment left-hand side

tryItOut 728

tryItOut 729
before 174400, after 156960, break 02865000

tryItOut 730

tryItOut 731
before 156960, after 156960, break 02865000

tryItOut 732
Compiling threw: SyntaxError: invalid assignment left-hand side

tryItOut 733

tryItOut 734
Compiling threw: SyntaxError: missing ) in parenthetical

tryItOut 735

tryItOut 736
It's an iterator!
Iterating succeeded, iterCount == 1

tryItOut 737
Compiling threw: SyntaxError: invalid for/in left-hand side

tryItOut 738

tryItOut 739

tryItOut 740
Compiling threw: SyntaxError: missing ) in parenthetical

tryItOut 741

tryItOut 742
Compiling threw: SyntaxError: label not found

tryItOut 743

tryItOut 744
Compiling threw: SyntaxError: missing ; before statement

tryItOut 745
Compiling threw: SyntaxError: missing ; before statement

tryItOut 746
Running threw: TypeError: /x/g is not a constructor

tryItOut 747
Compiling threw: SyntaxError: missing variable name

tryItOut 748
It's an iterator!
Iterating succeeded, iterCount == 1

tryItOut 749
Compiling threw: SyntaxError: invalid decrement operand

tryItOut 750

tryItOut 751

tryItOut 752
Compiling threw: SyntaxError: missing } after property list

tryItOut 753
Compiling threw: SyntaxError: label not found

tryItOut 754
Compiling threw: SyntaxError: label not found

tryItOut 755
It's an iterator!
Iterating threw!
Iterating threw: TypeError: undefined has no properties

tryItOut 756

tryItOut 757

tryItOut 758
Compiling threw: SyntaxError: invalid for/in left-hand side

tryItOut 759
It's an iterator!
Iterating succeeded, iterCount == 1

tryItOut 760

tryItOut 761

tryItOut 762

tryItOut 763
Compiling threw: SyntaxError: missing ( before let head

tryItOut 764

tryItOut 765

tryItOut 766

tryItOut 767
It's an iterator!
Iterating succeeded, iterCount == 1

tryItOut 768
Compiling threw: SyntaxError: missing ; after for-loop initializer

tryItOut 769

tryItOut 770
Compiling threw: SyntaxError: invalid for/in left-hand side

tryItOut 771
before 174400, after 174400, break 02865000

tryItOut 772
Compiling threw: SyntaxError: label not found

tryItOut 773
Compiling threw: SyntaxError: missing ; after for-loop initializer

tryItOut 774
Compiling threw: SyntaxError: label not found

tryItOut 775
before 174400, after 156960, break 02865000
before 156960, after 156960, break 02865000
before 156960, after 156960, break 02865000
Error while trying to determine whether it's an iterator!
The error was: TypeError: false.__iterator__ returned a primitive value

tryItOut 776
Compiling threw: SyntaxError: syntax error

tryItOut 777
Compiling threw: TypeError: redeclaration of variable __proto__

tryItOut 778
Compiling threw: SyntaxError: invalid decrement operand

tryItOut 779
Compiling threw: SyntaxError: missing ; after for-loop initializer

tryItOut 780

tryItOut 781
Compiling threw: SyntaxError: missing ; after for-loop initializer

tryItOut 782

tryItOut 783
Compiling threw: TypeError: generator function anonymous returns a value

tryItOut 784
Error while trying to determine whether it's an iterator!
The error was: TypeError: false.__iterator__ returned a primitive value
uneval returned the string: null

tryItOut 785

tryItOut 786
Compiling threw: SyntaxError: missing ) in parenthetical

tryItOut 787
It's an iterator!
Iterating threw!
Iterating threw: TypeError: (function (id) {return id;}).prop has no properties

tryItOut 788

tryItOut 789
Compiling threw: SyntaxError: missing ; before statement

tryItOut 790
Compiling threw: SyntaxError: invalid for/in left-hand side

tryItOut 791
Compiling threw: SyntaxError: missing { before function body

tryItOut 792
Compiling threw: SyntaxError: invalid break

tryItOut 793

tryItOut 794
It's an iterator!
Iterating succeeded, iterCount == 1

tryItOut 795
Compiling threw: SyntaxError: label not found

tryItOut 796

tryItOut 797
Compiling threw: SyntaxError: missing variable name

tryItOut 798

tryItOut 799

tryItOut 800
Compiling threw: SyntaxError: missing variable name

tryItOut 801
Compiling threw: SyntaxError: missing ) in parenthetical

tryItOut 802
Running threw: ReferenceError: reference to undefined XML name @foo

tryItOut 803

tryItOut 804
It's an iterator!
Iterating threw!
Iterating threw: ReferenceError: reference to undefined XML name @foo

tryItOut 805

tryItOut 806

tryItOut 807
Error while trying to determine whether it's an iterator!
The error was: TypeError: Iterator(rv) has invalid __iterator__ value null
uneval returned the string: ({__iterator__:null})
Skipping re-eval test

tryItOut 808
Compiling threw: SyntaxError: missing ; before statement

tryItOut 809
Compiling threw: SyntaxError: label not found

tryItOut 810

tryItOut 811
It's an iterator!
Iterating threw!
Iterating threw: ReferenceError: reference to undefined XML name *::*

tryItOut 812
Running threw: ReferenceError: evalprop is not defined

tryItOut 813

tryItOut 814
It's an iterator!
Iterating threw!
Iterating threw: ReferenceError: a is not defined

tryItOut 815
Compiling threw: SyntaxError: syntax error

tryItOut 816
Compiling threw: SyntaxError: missing ; after for-loop initializer

tryItOut 817
Compiling threw: SyntaxError: syntax error

tryItOut 818
Compiling threw: SyntaxError: missing ) after condition

tryItOut 819
Compiling threw: SyntaxError: missing variable name

tryItOut 820

tryItOut 821

tryItOut 822

tryItOut 823
Compiling threw: SyntaxError: invalid assignment left-hand side

tryItOut 824

tryItOut 825

tryItOut 826

tryItOut 827
It's an iterator!
Iterating succeeded, iterCount == 1

tryItOut 828
It's an iterator!
Iterating succeeded, iterCount == 1

tryItOut 829
before 191840, after 191840, break 02865000

tryItOut 830

tryItOut 831

tryItOut 832
It's an iterator!
Iterating threw!
Iterating threw: ReferenceError: reference to undefined XML name *

tryItOut 833
before 191840, after 174400, break 02865000

tryItOut 834

tryItOut 835
Running threw: [object StopIteration]

tryItOut 836

tryItOut 837
Compiling threw: SyntaxError: missing ) in parenthetical

tryItOut 838

tryItOut 839
It's an iterator!
Iterating succeeded, iterCount == 1

tryItOut 840
Compiling threw: SyntaxError: missing ) in parenthetical

tryItOut 841
Compiling threw: SyntaxError: syntax error

tryItOut 842
Compiling threw: SyntaxError: invalid increment operand

tryItOut 843

tryItOut 844
Compiling threw: SyntaxError: invalid for/in left-hand side

tryItOut 845

tryItOut 846
Running threw: Error: invalid sharp variable use #1#

tryItOut 847
Compiling threw: TypeError: generator function anonymous returns a value

tryItOut 848
Running threw: ReferenceError: reference to undefined XML name @foo

tryItOut 849
Compiling threw: SyntaxError: invalid assignment left-hand side

tryItOut 850
It's an iterator!
Iterating succeeded, iterCount == 1

tryItOut 851
Compiling threw: SyntaxError: missing ) after let head

tryItOut 852
Compiling threw: SyntaxError: missing ) in parenthetical

tryItOut 853
Compiling threw: SyntaxError: missing ; before statement

tryItOut 854

tryItOut 855

tryItOut 856

tryItOut 857
Compiling threw: SyntaxError: invalid break

tryItOut 858
Compiling threw: SyntaxError: missing ; after for-loop initializer

tryItOut 859
Running threw: Error: invalid sharp variable use #1#

tryItOut 860
Running threw: ReferenceError: window is not defined

tryItOut 861
Compiling threw: SyntaxError: invalid continue

tryItOut 862
Compiling threw: SyntaxError: invalid property id

tryItOut 863

tryItOut 864

tryItOut 865
Compiling threw: TypeError: redeclaration of variable __count__

tryItOut 866

tryItOut 867
Compiling threw: SyntaxError: missing ) in parenthetical

tryItOut 868
Compiling threw: SyntaxError: syntax error

tryItOut 869
Compiling threw: SyntaxError: missing ; after for-loop initializer

tryItOut 870

tryItOut 871

tryItOut 872
Compiling threw: SyntaxError: missing variable name

tryItOut 873

tryItOut 874
Compiling threw: SyntaxError: invalid continue

tryItOut 875
It's an iterator!
Iterating threw!
Iterating threw: ReferenceError: reference to undefined XML name @foo

tryItOut 876
Compiling threw: TypeError: generator function anonymous returns a value

tryItOut 877
Compiling threw: SyntaxError: invalid increment operand

tryItOut 878

tryItOut 879
Compiling threw: TypeError: generator function anonymous returns a value

tryItOut 880
Running threw: ReferenceError: Exception is not defined

tryItOut 881
It's an iterator!
Iterating succeeded, iterCount == 0

tryItOut 882
It's an iterator!
Iterating succeeded, iterCount == 1

tryItOut 883

tryItOut 884
It's an iterator!
Iterating succeeded, iterCount == 1

tryItOut 885

tryItOut 886
Compiling threw: SyntaxError: label not found

tryItOut 887

tryItOut 888
Compiling threw: SyntaxError: missing ; before statement

tryItOut 889

tryItOut 890

tryItOut 891

tryItOut 892

tryItOut 893
Compiling threw: TypeError: generator function anonymous returns a value

tryItOut 894
Compiling threw: SyntaxError: syntax error

tryItOut 895
Compiling threw: SyntaxError: invalid for/in left-hand side

tryItOut 896

tryItOut 897
Compiling threw: TypeError: generator function anonymous returns a value

tryItOut 898

tryItOut 899

tryItOut 900

tryItOut 901
It's an iterator!
Iterating succeeded, iterCount == 1

tryItOut 902
It's an iterator!
Iterating threw!
Iterating threw: ReferenceError: window is not defined

tryItOut 903

tryItOut 904

tryItOut 905

tryItOut 906
It's an iterator!
Iterating succeeded, iterCount == 1

tryItOut 907
Compiling threw: SyntaxError: syntax error

tryItOut 908

tryItOut 909

tryItOut 910

tryItOut 911

tryItOut 912
Compiling threw: SyntaxError: label not found

tryItOut 913

tryItOut 914
It's an iterator!
Iterating threw!
Iterating threw: ReferenceError: window is not defined

tryItOut 915

tryItOut 916
It's an iterator!
Iterating threw!
Iterating threw: ReferenceError: reference to undefined XML name *

tryItOut 917
Compiling threw: SyntaxError: invalid for/in left-hand side

tryItOut 918

tryItOut 919

tryItOut 920
Compiling threw: SyntaxError: missing ) in parenthetical

tryItOut 921
Compiling threw: SyntaxError: label not found

tryItOut 922

tryItOut 923
Compiling threw: SyntaxError: missing : after property id

tryItOut 924

tryItOut 925
Compiling threw: SyntaxError: missing ; before statement

tryItOut 926
Compiling threw: SyntaxError: missing variable name

tryItOut 927
It's an iterator!
Iterating succeeded, iterCount == 1

tryItOut 928

tryItOut 929

tryItOut 930

tryItOut 931
Compiling threw: SyntaxError: missing ; after for-loop initializer

tryItOut 932
Compiling threw: SyntaxError: syntax error

tryItOut 933
Compiling threw: SyntaxError: duplicate label

tryItOut 934

tryItOut 935
It's an iterator!
Iterating threw!
Iterating threw: ReferenceError: z1 is not defined

tryItOut 936

tryItOut 937

tryItOut 938

tryItOut 939

tryItOut 940
Compiling threw: SyntaxError: syntax error

tryItOut 941
Compiling threw: SyntaxError: invalid assignment left-hand side

tryItOut 942
Running threw: ReferenceError: reference to undefined XML name @foo

tryItOut 943

tryItOut 944
Compiling threw: SyntaxError: invalid for/in left-hand side

tryItOut 945
Compiling threw: SyntaxError: invalid break

tryItOut 946
Running threw: TypeError: can't convert this to number

tryItOut 947
Compiling threw: SyntaxError: label not found

tryItOut 948

tryItOut 949

tryItOut 950
Compiling threw: SyntaxError: invalid continue

tryItOut 951
Compiling threw: SyntaxError: invalid for/in left-hand side

tryItOut 952
Compiling threw: SyntaxError: invalid decrement operand

tryItOut 953
Compiling threw: SyntaxError: missing ; before statement

tryItOut 954
Compiling threw: SyntaxError: missing ) in parenthetical

tryItOut 955

tryItOut 956
Compiling threw: SyntaxError: label not found

tryItOut 957

tryItOut 958

tryItOut 959

tryItOut 960
Compiling threw: SyntaxError: missing variable name

tryItOut 961
Compiling threw: SyntaxError: missing variable name

tryItOut 962

tryItOut 963

tryItOut 964
Running threw: ReferenceError: reference to undefined XML name @foo

tryItOut 965
Compiling threw: SyntaxError: invalid assignment left-hand side

tryItOut 966
Compiling threw: TypeError: generator function anonymous returns a value

tryItOut 967
before 296480, after 209280, break 02921000

tryItOut 968

tryItOut 969

tryItOut 970

tryItOut 971
Compiling threw: SyntaxError: syntax error

tryItOut 972

tryItOut 973
Compiling threw: SyntaxError: invalid for each loop

tryItOut 974
Compiling threw: SyntaxError: invalid assignment left-hand side

tryItOut 975
Compiling threw: SyntaxError: missing variable name

tryItOut 976
Compiling threw: TypeError: anonymous generator function returns a value

tryItOut 977
Compiling threw: SyntaxError: syntax error

tryItOut 978
Running threw: TypeError: <x><y/></x>.call is not a function

tryItOut 979
Compiling threw: SyntaxError: invalid for/in left-hand side

tryItOut 980
It's an iterator!
before 209280, after 191840, break 02921000
Iterating succeeded, iterCount == 1

tryItOut 981
Compiling threw: SyntaxError: missing ; before statement

tryItOut 982
Compiling threw: SyntaxError: syntax error

tryItOut 983

tryItOut 984
Running threw: ReferenceError: z2 is not defined

tryItOut 985
Compiling threw: SyntaxError: invalid assignment left-hand side

tryItOut 986
Compiling threw: TypeError: generator function anonymous returns a value

tryItOut 987

tryItOut 988
Compiling threw: SyntaxError: illegal XML character

tryItOut 989
Compiling threw: SyntaxError: missing ) after argument list

tryItOut 990
Compiling threw: SyntaxError: missing ) in parenthetical

tryItOut 991
Running threw: [object StopIteration]

tryItOut 992
Compiling threw: SyntaxError: label not found

tryItOut 993

tryItOut 994

tryItOut 995

tryItOut 996
Compiling threw: SyntaxError: syntax error

tryItOut 997

tryItOut 998

tryItOut 999
Running threw: TypeError: arguments[0] has no properties

tryItOut 1000
Compiling threw: SyntaxError: invalid assignment left-hand side

ALL OK

Script done on Sat 04 May 2013 06:54:06 AM PDT
