Script started on Sat 04 May 2013 06:56:35 AM PDT
***
Targeting SpiderMonkey / Gecko.

tryItOut 1

tryItOut 2
Compiling threw: SyntaxError: missing ; before statement

tryItOut 3
Compiling threw: SyntaxError: missing ; before statement

tryItOut 4
Compiling threw: TypeError: redeclaration of var prototype

tryItOut 5
Compiling threw: SyntaxError: missing ; before statement

tryItOut 6

tryItOut 7
Running threw: ReferenceError: reference to undefined XML name *

tryItOut 8
Compiling threw: SyntaxError: syntax error

tryItOut 9
Compiling threw: SyntaxError: missing ] after element list

tryItOut 10

tryItOut 11
Compiling threw: SyntaxError: invalid break

tryItOut 12

tryItOut 13

tryItOut 14
Compiling threw: SyntaxError: missing : after property id

tryItOut 15
Compiling threw: SyntaxError: invalid for/in left-hand side

tryItOut 16
Compiling threw: SyntaxError: missing variable name

tryItOut 17
Compiling threw: SyntaxError: missing ; before statement

tryItOut 18
Compiling threw: SyntaxError: missing { before function body

tryItOut 19
Compiling threw: SyntaxError: invalid assignment left-hand side

tryItOut 20
Compiling threw: SyntaxError: syntax error

tryItOut 21
Compiling threw: SyntaxError: invalid assignment left-hand side

tryItOut 22

tryItOut 23

tryItOut 24

tryItOut 25

tryItOut 26
Compiling threw: SyntaxError: missing ) in parenthetical

tryItOut 27

tryItOut 28
Compiling threw: SyntaxError: missing variable name

tryItOut 29
Running threw: ReferenceError: reference to undefined XML name *

tryItOut 30

tryItOut 31

tryItOut 32
Compiling threw: SyntaxError: missing ; before statement

tryItOut 33
Compiling threw: SyntaxError: invalid break

tryItOut 34
Running threw: ReferenceError: reference to undefined XML name *::*

tryItOut 35
Compiling threw: SyntaxError: invalid for/in left-hand side

tryItOut 36
Compiling threw: SyntaxError: invalid assignment left-hand side

tryItOut 37
Running threw: [object StopIteration]

tryItOut 38

tryItOut 39

tryItOut 40

tryItOut 41
It's an iterator!
Iterating threw!
Iterating threw: ReferenceError: reference to undefined XML name *

tryItOut 42
Running threw: ReferenceError: prop is not defined

tryItOut 43

tryItOut 44
Compiling threw: SyntaxError: label not found

tryItOut 45

tryItOut 46
Running threw: ReferenceError: z1 is not defined

tryItOut 47
Compiling threw: SyntaxError: syntax error

tryItOut 48
Compiling threw: SyntaxError: invalid break

tryItOut 49
Compiling threw: SyntaxError: syntax error

tryItOut 50

tryItOut 51

tryItOut 52

tryItOut 53

tryItOut 54
Compiling threw: SyntaxError: label not found

tryItOut 55
Compiling threw: SyntaxError: syntax error

tryItOut 56
Compiling threw: SyntaxError: label not found

tryItOut 57
Compiling threw: SyntaxError: invalid for/in left-hand side

tryItOut 58

tryItOut 59
Compiling threw: SyntaxError: invalid continue

tryItOut 60

tryItOut 61
Running threw: <y>
  <z/>
</y>

tryItOut 62
Compiling threw: SyntaxError: syntax error

tryItOut 63

tryItOut 64
Running threw: <y>
  <z/>
</y>

tryItOut 65
Compiling threw: SyntaxError: syntax error

tryItOut 66
Compiling threw: SyntaxError: label not found

tryItOut 67

tryItOut 68
Compiling threw: SyntaxError: missing } after let block

tryItOut 69

tryItOut 70
It's an iterator!
Iterating threw!
Iterating threw: ReferenceError: reference to undefined XML name *

tryItOut 71
Compiling threw: SyntaxError: label not found

tryItOut 72
Running threw: ReferenceError: reference to undefined XML name *::*

tryItOut 73
Compiling threw: SyntaxError: missing ( before let head

tryItOut 74

tryItOut 75
Running threw: ReferenceError: reference to undefined XML name *

tryItOut 76
Compiling threw: SyntaxError: invalid assignment left-hand side

tryItOut 77
Running threw: [object StopIteration]

tryItOut 78
Running threw: ReferenceError: reference to undefined XML name *::*

tryItOut 79
Compiling threw: SyntaxError: syntax error

tryItOut 80

tryItOut 81
It's an iterator!
Iterating threw!
Iterating threw: SyntaxError: invalid getter usage

tryItOut 82
Compiling threw: SyntaxError: invalid assignment left-hand side

tryItOut 83
Compiling threw: SyntaxError: syntax error

tryItOut 84

tryItOut 85

tryItOut 86
Compiling threw: SyntaxError: missing { before function body

tryItOut 87
Compiling threw: SyntaxError: syntax error

tryItOut 88
Compiling threw: SyntaxError: syntax error

tryItOut 89
before 122080, after 122080, break 01eb4000

tryItOut 90
Compiling threw: SyntaxError: missing variable name

tryItOut 91

tryItOut 92

tryItOut 93

tryItOut 94
Compiling threw: SyntaxError: missing ; before statement

tryItOut 95
Running threw: [object StopIteration]

tryItOut 96
Compiling threw: SyntaxError: missing variable name

tryItOut 97
Compiling threw: SyntaxError: invalid for/in left-hand side

tryItOut 98

tryItOut 99

tryItOut 100
Compiling threw: SyntaxError: label not found

tryItOut 101
Compiling threw: SyntaxError: invalid for/in left-hand side

tryItOut 102
Compiling threw: TypeError: redeclaration of variable constructor

tryItOut 103

tryItOut 104
before 122080, after 122080, break 01eb4000

tryItOut 105
Compiling threw: SyntaxError: invalid for/in left-hand side

tryItOut 106
Compiling threw: SyntaxError: missing = in destructuring declaration

tryItOut 107
Compiling threw: SyntaxError: invalid destructuring assignment operator

tryItOut 108
Compiling threw: SyntaxError: duplicate label

tryItOut 109
Compiling threw: SyntaxError: invalid for/in left-hand side

tryItOut 110
Compiling threw: TypeError: redeclaration of variable constructor

tryItOut 111
Compiling threw: SyntaxError: missing variable name

tryItOut 112
Compiling threw: SyntaxError: label not found

tryItOut 113
Compiling threw: SyntaxError: label not found

tryItOut 114
Compiling threw: SyntaxError: label not found

tryItOut 115

tryItOut 116

tryItOut 117
Compiling threw: SyntaxError: label not found

tryItOut 118

tryItOut 119

tryItOut 120
It's an iterator!
Iterating succeeded, iterCount == 4

tryItOut 121
Running threw: ReferenceError: reference to undefined XML name *::*

tryItOut 122
Compiling threw: SyntaxError: invalid for/in left-hand side

tryItOut 123
Compiling threw: SyntaxError: invalid break

tryItOut 124
Compiling threw: SyntaxError: missing { before function body

tryItOut 125

tryItOut 126
Running threw: ReferenceError: reference to undefined XML name *::*

tryItOut 127
Compiling threw: SyntaxError: missing ) in parenthetical

tryItOut 128
Compiling threw: SyntaxError: invalid continue

tryItOut 129

tryItOut 130
Compiling threw: SyntaxError: missing ) in parenthetical

tryItOut 131
Compiling threw: SyntaxError: missing ; before statement

tryItOut 132
Running threw: ReferenceError: z1 is not defined

tryItOut 133
Running threw: SyntaxError: invalid setter usage

tryItOut 134
Compiling threw: TypeError: redeclaration of const prop

tryItOut 135
Compiling threw: SyntaxError: missing variable name

tryItOut 136

tryItOut 137
Compiling threw: SyntaxError: invalid continue

tryItOut 138

tryItOut 139
Compiling threw: SyntaxError: invalid break

tryItOut 140
Compiling threw: SyntaxError: missing ; after for-loop initializer

tryItOut 141
Compiling threw: SyntaxError: invalid increment operand

tryItOut 142
Running threw: [object StopIteration]

tryItOut 143
Running threw: TypeError: <y>
  <z/>
</y> is not a constructor

tryItOut 144

tryItOut 145
Running threw: TypeError: arguments[0] has no properties

tryItOut 146
Running threw: ReferenceError: __noSuchMethod__ is not defined

tryItOut 147
Compiling threw: SyntaxError: invalid break

tryItOut 148

tryItOut 149

tryItOut 150
Compiling threw: SyntaxError: invalid continue

tryItOut 151
Compiling threw: SyntaxError: invalid for/in left-hand side

tryItOut 152
Compiling threw: SyntaxError: invalid break

tryItOut 153
Compiling threw: TypeError: anonymous generator function returns a value

tryItOut 154

tryItOut 155

tryItOut 156

tryItOut 157
Running threw: 

tryItOut 158

tryItOut 159
Compiling threw: SyntaxError: invalid continue

tryItOut 160
Compiling threw: SyntaxError: invalid decrement operand

tryItOut 161
Running threw: ReferenceError: reference to undefined XML name *

tryItOut 162
Compiling threw: SyntaxError: missing ; before statement

tryItOut 163
Compiling threw: SyntaxError: syntax error

tryItOut 164

tryItOut 165
Compiling threw: SyntaxError: invalid continue

tryItOut 166
Running threw: ReferenceError: reference to undefined XML name *

tryItOut 167
Compiling threw: SyntaxError: missing variable name

tryItOut 168

tryItOut 169
Compiling threw: SyntaxError: missing ; before statement

tryItOut 170
Compiling threw: SyntaxError: missing variable name

tryItOut 171
Compiling threw: SyntaxError: syntax error

tryItOut 172
Compiling threw: SyntaxError: label not found

tryItOut 173
Compiling threw: SyntaxError: missing ; before statement

tryItOut 174
Compiling threw: SyntaxError: invalid continue

tryItOut 175
Compiling threw: SyntaxError: label not found

tryItOut 176
Compiling threw: SyntaxError: invalid destructuring assignment operator

tryItOut 177
Compiling threw: SyntaxError: missing ) in parenthetical

tryItOut 178
Compiling threw: SyntaxError: syntax error

tryItOut 179
Compiling threw: SyntaxError: invalid break

tryItOut 180
Compiling threw: SyntaxError: unterminated regular expression literal

tryItOut 181
Compiling threw: SyntaxError: invalid increment operand

tryItOut 182
Running threw: ReferenceError: z1 is not defined

tryItOut 183
Compiling threw: SyntaxError: missing ] after element list

tryItOut 184
Compiling threw: SyntaxError: syntax error

tryItOut 185
Compiling threw: SyntaxError: label not found

tryItOut 186
Compiling threw: SyntaxError: syntax error

tryItOut 187
Compiling threw: SyntaxError: missing ; before statement

tryItOut 188

tryItOut 189
Compiling threw: SyntaxError: label not found

tryItOut 190
Compiling threw: SyntaxError: missing { before function body

tryItOut 191
Compiling threw: SyntaxError: syntax error

tryItOut 192
Compiling threw: SyntaxError: invalid break

tryItOut 193
Compiling threw: SyntaxError: label not found

tryItOut 194

tryItOut 195
Compiling threw: SyntaxError: missing variable name

tryItOut 196

tryItOut 197
Compiling threw: SyntaxError: label not found

tryItOut 198

tryItOut 199
Running threw: ReferenceError: reference to undefined XML name @foo

tryItOut 200
Compiling threw: SyntaxError: unterminated regular expression literal

tryItOut 201
Compiling threw: SyntaxError: missing variable name

tryItOut 202
Compiling threw: SyntaxError: missing variable name

tryItOut 203

tryItOut 204
Compiling threw: SyntaxError: label not found

tryItOut 205
Compiling threw: SyntaxError: invalid break

tryItOut 206

tryItOut 207

tryItOut 208
Running threw: ReferenceError: reference to undefined XML name *

tryItOut 209

tryItOut 210
Running threw: ReferenceError: P is not defined

tryItOut 211
Running threw: function ([y]) {
}

tryItOut 212
Compiling threw: SyntaxError: syntax error

tryItOut 213

tryItOut 214
Compiling threw: SyntaxError: syntax error

tryItOut 215
Running threw: ReferenceError: reference to undefined XML name *

tryItOut 216
Compiling threw: SyntaxError: syntax error

tryItOut 217
Compiling threw: SyntaxError: missing ; before statement

tryItOut 218
Running threw: ReferenceError: reference to undefined XML name *::*

tryItOut 219

tryItOut 220
Compiling threw: SyntaxError: label not found

tryItOut 221
Compiling threw: SyntaxError: missing ; before statement

tryItOut 222
Compiling threw: SyntaxError: missing in after for

tryItOut 223
Running threw: ReferenceError: reference to undefined XML name *::*

tryItOut 224
Compiling threw: SyntaxError: missing variable name

tryItOut 225
Compiling threw: SyntaxError: invalid for/in left-hand side

tryItOut 226
Compiling threw: SyntaxError: invalid for/in left-hand side

tryItOut 227
Compiling threw: SyntaxError: syntax error

tryItOut 228

tryItOut 229
Compiling threw: SyntaxError: label not found

tryItOut 230
Compiling threw: SyntaxError: invalid destructuring assignment operator

tryItOut 231
Compiling threw: SyntaxError: label not found

tryItOut 232

tryItOut 233
Compiling threw: SyntaxError: syntax error

tryItOut 234
Compiling threw: SyntaxError: syntax error

tryItOut 235
Compiling threw: SyntaxError: invalid continue

tryItOut 236
Compiling threw: SyntaxError: missing variable name

tryItOut 237
It's an iterator!
Iterating succeeded, iterCount == 1

tryItOut 238
Running threw: [object StopIteration]

tryItOut 239
Compiling threw: SyntaxError: missing = in destructuring declaration

tryItOut 240
Compiling threw: SyntaxError: invalid for/in left-hand side

tryItOut 241

tryItOut 242
Compiling threw: SyntaxError: invalid for/in left-hand side

tryItOut 243
Compiling threw: SyntaxError: missing while after do-loop body

tryItOut 244
Compiling threw: SyntaxError: missing ; before statement

tryItOut 245
Compiling threw: SyntaxError: missing ; before statement

tryItOut 246
Running threw: ReferenceError: reference to undefined XML name @foo

tryItOut 247
Running threw: 

tryItOut 248

tryItOut 249

tryItOut 250
Compiling threw: SyntaxError: missing ; after for-loop initializer

tryItOut 251
Compiling threw: SyntaxError: invalid break

tryItOut 252
Compiling threw: SyntaxError: syntax error

tryItOut 253
Running threw: ReferenceError: reference to undefined XML name *::*

tryItOut 254
Compiling threw: SyntaxError: syntax error

tryItOut 255

tryItOut 256

tryItOut 257
Running threw: ReferenceError: reference to undefined XML name @foo

tryItOut 258
Running threw: ReferenceError: reference to undefined XML name *::*

tryItOut 259
Compiling threw: SyntaxError: missing ; before statement

tryItOut 260
Compiling threw: SyntaxError: invalid assignment left-hand side

tryItOut 261
Running threw: ReferenceError: __iterator__ is not defined

tryItOut 262
Compiling threw: SyntaxError: missing ; before statement

tryItOut 263
Running threw: ReferenceError: z2 is not defined

tryItOut 264
Compiling threw: SyntaxError: invalid continue

tryItOut 265
Running threw: ReferenceError: reference to undefined XML name *::*

tryItOut 266
Compiling threw: SyntaxError: label not found

tryItOut 267
Compiling threw: SyntaxError: missing ; before statement

tryItOut 268
Compiling threw: SyntaxError: label not found

tryItOut 269
Compiling threw: TypeError: redeclaration of variable __noSuchMethod__

tryItOut 270
Compiling threw: SyntaxError: syntax error

tryItOut 271
Compiling threw: SyntaxError: missing variable name

tryItOut 272
Compiling threw: SyntaxError: invalid continue

tryItOut 273
Running threw: ReferenceError: z1 is not defined

tryItOut 274
Running threw: ReferenceError: z2 is not defined

tryItOut 275
Compiling threw: SyntaxError: missing name after . operator

tryItOut 276
Running threw: TypeError: <x/>['throw'] is not a function

tryItOut 277
Compiling threw: SyntaxError: missing ; before statement

tryItOut 278

tryItOut 279

tryItOut 280
Compiling threw: SyntaxError: invalid break

tryItOut 281
Running threw: ReferenceError: reference to undefined XML name *

tryItOut 282

tryItOut 283
Compiling threw: SyntaxError: invalid for/in left-hand side

tryItOut 284
Compiling threw: SyntaxError: missing } after let block

tryItOut 285

tryItOut 286
Compiling threw: SyntaxError: invalid for/in left-hand side

tryItOut 287
Running threw: TypeError: <x/>['throw'] is not a function

tryItOut 288

tryItOut 289

tryItOut 290
Compiling threw: SyntaxError: syntax error

tryItOut 291

tryItOut 292
Compiling threw: SyntaxError: label not found

tryItOut 293
Compiling threw: SyntaxError: invalid assignment left-hand side

tryItOut 294

tryItOut 295

tryItOut 296
Compiling threw: SyntaxError: missing = in destructuring declaration

tryItOut 297
Compiling threw: SyntaxError: missing variable name

tryItOut 298
Compiling threw: TypeError: redeclaration of variable prop

tryItOut 299
Running threw: 

tryItOut 300
Running threw: ReferenceError: reference to undefined XML name *

tryItOut 301

tryItOut 302
Compiling threw: SyntaxError: syntax error

tryItOut 303
Compiling threw: SyntaxError: label not found

tryItOut 304
Running threw: ReferenceError: reference to undefined XML name *

tryItOut 305
Running threw: ReferenceError: __noSuchMethod__ is not defined

tryItOut 306

tryItOut 307
Running threw: ReferenceError: reference to undefined XML name *

tryItOut 308

tryItOut 309

tryItOut 310

tryItOut 311

tryItOut 312

tryItOut 313
Compiling threw: SyntaxError: missing ; before statement

tryItOut 314
Compiling threw: SyntaxError: missing while after do-loop body

tryItOut 315

tryItOut 316
Running threw: ReferenceError: prototype is not defined

tryItOut 317

tryItOut 318
Compiling threw: SyntaxError: missing ; before statement

tryItOut 319
Running threw: ReferenceError: reference to undefined XML name @foo

tryItOut 320
Compiling threw: SyntaxError: invalid sharp variable definition

tryItOut 321
Running threw: ReferenceError: N is not defined

tryItOut 322

tryItOut 323
Compiling threw: SyntaxError: missing { before function body

tryItOut 324
Compiling threw: SyntaxError: label not found

tryItOut 325
Compiling threw: TypeError: redeclaration of var __count__

tryItOut 326
Compiling threw: SyntaxError: missing = in destructuring declaration

tryItOut 327

tryItOut 328
Running threw: ReferenceError: reference to undefined XML name @foo

tryItOut 329
Compiling threw: SyntaxError: label not found

tryItOut 330

tryItOut 331
Compiling threw: SyntaxError: invalid continue

tryItOut 332

tryItOut 333
Compiling threw: SyntaxError: invalid increment operand

tryItOut 334
Compiling threw: SyntaxError: invalid for/in left-hand side

tryItOut 335
Compiling threw: SyntaxError: invalid continue

tryItOut 336
Compiling threw: SyntaxError: missing } in compound statement

tryItOut 337
Compiling threw: SyntaxError: missing ) in parenthetical

tryItOut 338
Compiling threw: SyntaxError: label not found

tryItOut 339
Running threw: ReferenceError: reference to undefined XML name *

tryItOut 340
Compiling threw: SyntaxError: invalid default XML namespace

tryItOut 341
Running threw: ReferenceError: z1 is not defined

tryItOut 342

tryItOut 343

tryItOut 344
Running threw: ReferenceError: z1 is not defined

tryItOut 345
Compiling threw: SyntaxError: syntax error

tryItOut 346
Compiling threw: SyntaxError: missing variable name

tryItOut 347
Compiling threw: SyntaxError: invalid sharp variable definition

tryItOut 348
Compiling threw: SyntaxError: missing { before function body

tryItOut 349
Compiling threw: SyntaxError: invalid for/in left-hand side

tryItOut 350
Compiling threw: SyntaxError: invalid break

tryItOut 351

tryItOut 352

tryItOut 353
Running threw: ReferenceError: z1 is not defined

tryItOut 354
Compiling threw: SyntaxError: syntax error

tryItOut 355
Compiling threw: SyntaxError: syntax error

tryItOut 356
Running threw: ReferenceError: reference to undefined XML name *

tryItOut 357

tryItOut 358
Compiling threw: SyntaxError: label not found

tryItOut 359

tryItOut 360
Compiling threw: SyntaxError: label not found

tryItOut 361
Compiling threw: SyntaxError: missing variable name

tryItOut 362

tryItOut 363
Compiling threw: SyntaxError: missing ; before statement

tryItOut 364

tryItOut 365

tryItOut 366
Compiling threw: SyntaxError: invalid increment operand

tryItOut 367
Running threw: ReferenceError: reference to undefined XML name *

tryItOut 368

tryItOut 369
uneval returned the string: [undefined, undefined]

tryItOut 370

tryItOut 371

tryItOut 372
Compiling threw: SyntaxError: label not found

tryItOut 373
Compiling threw: SyntaxError: invalid for/in left-hand side

tryItOut 374

tryItOut 375
Compiling threw: TypeError: redeclaration of variable prop

tryItOut 376
Compiling threw: SyntaxError: invalid continue

tryItOut 377
Running threw: ReferenceError: z1 is not defined

tryItOut 378
Compiling threw: SyntaxError: missing { before function body

tryItOut 379
Compiling threw: SyntaxError: invalid sharp variable definition

tryItOut 380

tryItOut 381
Running threw: ReferenceError: reference to undefined XML name *::*

tryItOut 382
Running threw: ReferenceError: reference to undefined XML name *

tryItOut 383

tryItOut 384
Running threw: ReferenceError: __noSuchMethod__ is not defined

tryItOut 385
Compiling threw: SyntaxError: missing ) in parenthetical

tryItOut 386
Running threw: [object StopIteration]

tryItOut 387

tryItOut 388
Compiling threw: SyntaxError: missing ) in parenthetical

tryItOut 389
Compiling threw: SyntaxError: missing variable name

tryItOut 390
Compiling threw: SyntaxError: missing { before function body

tryItOut 391
Running threw: TypeError: arguments[0] has no properties

tryItOut 392
Running threw: TypeError: redeclaration of var __proto__

tryItOut 393
Compiling threw: SyntaxError: catch without try

tryItOut 394

tryItOut 395

tryItOut 396
Compiling threw: SyntaxError: invalid break

tryItOut 397
Compiling threw: SyntaxError: invalid for/in left-hand side

tryItOut 398

tryItOut 399
Running threw: Error: invalid sharp variable use #1#

tryItOut 400
Compiling threw: SyntaxError: invalid for/in left-hand side

tryItOut 401
Compiling threw: SyntaxError: invalid for/in left-hand side

tryItOut 402

tryItOut 403

tryItOut 404
Compiling threw: SyntaxError: missing { before function body

tryItOut 405

tryItOut 406
Compiling threw: SyntaxError: missing ] after element list

tryItOut 407
Compiling threw: SyntaxError: missing variable name

tryItOut 408

tryItOut 409
Compiling threw: SyntaxError: invalid for each loop

tryItOut 410
Compiling threw: SyntaxError: duplicate label

tryItOut 411

tryItOut 412

tryItOut 413
Compiling threw: SyntaxError: missing ] after element list

tryItOut 414
Running threw: ReferenceError: reference to undefined XML name *

tryItOut 415

tryItOut 416
Compiling threw: SyntaxError: missing = in destructuring declaration

tryItOut 417
Running threw: ReferenceError: reference to undefined XML name @foo

tryItOut 418
Running threw: ReferenceError: reference to undefined XML name *::*

tryItOut 419

tryItOut 420

tryItOut 421
Compiling threw: SyntaxError: missing ; before statement

tryItOut 422
It's an iterator!
Iterating threw!
Iterating threw: ReferenceError: reference to undefined XML name *::*

tryItOut 423

tryItOut 424
Running threw: ReferenceError: z1 is not defined

tryItOut 425
Compiling threw: SyntaxError: missing ; before statement

tryItOut 426
Compiling threw: SyntaxError: missing ) after condition

tryItOut 427
Compiling threw: SyntaxError: invalid for/in left-hand side

tryItOut 428
Compiling threw: SyntaxError: missing ; before statement

tryItOut 429
Compiling threw: SyntaxError: label not found

tryItOut 430
Running threw: TypeError: arguments[0] has no properties

tryItOut 431

tryItOut 432

tryItOut 433
Compiling threw: SyntaxError: missing : after property id

tryItOut 434

tryItOut 435
Compiling threw: SyntaxError: missing variable name

tryItOut 436
Running threw: ReferenceError: reference to undefined XML name *

tryItOut 437
Running threw: ReferenceError: reference to undefined XML name *

tryItOut 438
Compiling threw: SyntaxError: missing ) in parenthetical

tryItOut 439

tryItOut 440
Running threw: TypeError: arguments[0] has no properties

tryItOut 441
Compiling threw: SyntaxError: invalid break

tryItOut 442

tryItOut 443

tryItOut 444

tryItOut 445
Compiling threw: SyntaxError: missing : after property id

tryItOut 446
Running threw: ReferenceError: reference to undefined XML name @foo

tryItOut 447
Compiling threw: TypeError: redeclaration of variable constructor

tryItOut 448

tryItOut 449
Running threw: ReferenceError: reference to undefined XML name *

tryItOut 450

tryItOut 451
Compiling threw: SyntaxError: label not found

tryItOut 452
Compiling threw: SyntaxError: invalid for/in left-hand side

tryItOut 453

tryItOut 454
Running threw: ReferenceError: reference to undefined XML name *

tryItOut 455
Compiling threw: SyntaxError: invalid assignment left-hand side

tryItOut 456

tryItOut 457
before 244160, after 244160, break 0203a000

tryItOut 458
Compiling threw: SyntaxError: invalid break

tryItOut 459
Compiling threw: SyntaxError: missing ) after argument list

tryItOut 460
Compiling threw: SyntaxError: missing ; after for-loop initializer

tryItOut 461
Compiling threw: SyntaxError: syntax error

tryItOut 462
Compiling threw: SyntaxError: label not found

tryItOut 463
Running threw: Error: invalid sharp variable use #1#

tryItOut 464
Compiling threw: SyntaxError: syntax error

tryItOut 465
Compiling threw: SyntaxError: missing ) in parenthetical

tryItOut 466

tryItOut 467
Compiling threw: SyntaxError: syntax error

tryItOut 468

tryItOut 469

tryItOut 470

tryItOut 471
Running threw: TypeError: XML filtering predicate operator called on incompatible Function

tryItOut 472
Compiling threw: SyntaxError: invalid sharp variable definition

tryItOut 473

tryItOut 474

tryItOut 475

tryItOut 476
Compiling threw: SyntaxError: missing ; after for-loop initializer

tryItOut 477

tryItOut 478

tryItOut 479
Compiling threw: SyntaxError: invalid for/in left-hand side

tryItOut 480
Running threw: ReferenceError: reference to undefined XML name *::*

tryItOut 481

tryItOut 482
Compiling threw: SyntaxError: missing ] after element list

tryItOut 483
Compiling threw: SyntaxError: syntax error

tryItOut 484

tryItOut 485

tryItOut 486

tryItOut 487
Compiling threw: SyntaxError: invalid for/in left-hand side

tryItOut 488
Compiling threw: SyntaxError: syntax error

tryItOut 489

tryItOut 490
Compiling threw: SyntaxError: invalid for each loop

tryItOut 491
Compiling threw: SyntaxError: invalid for/in left-hand side

tryItOut 492
Compiling threw: SyntaxError: syntax error

tryItOut 493

tryItOut 494
Compiling threw: SyntaxError: invalid break

tryItOut 495
Compiling threw: SyntaxError: missing ; before statement

tryItOut 496
Compiling threw: SyntaxError: label not found

tryItOut 497
Compiling threw: SyntaxError: syntax error

tryItOut 498
Running threw: TypeError: <y><z/></y>['throw'] is not a function

tryItOut 499
Compiling threw: SyntaxError: missing variable name

tryItOut 500

tryItOut 501

tryItOut 502
Compiling threw: SyntaxError: label not found

tryItOut 503
Compiling threw: SyntaxError: invalid increment operand

tryItOut 504
Compiling threw: SyntaxError: syntax error

tryItOut 505
Compiling threw: SyntaxError: missing variable name

tryItOut 506
Compiling threw: SyntaxError: missing ] after element list

tryItOut 507
Compiling threw: SyntaxError: invalid destructuring assignment operator

tryItOut 508
Compiling threw: SyntaxError: missing variable name

tryItOut 509
Running threw: [object StopIteration]

tryItOut 510
Running threw: ReferenceError: reference to undefined XML name *

tryItOut 511
Compiling threw: SyntaxError: syntax error

tryItOut 512

tryItOut 513

tryItOut 514

tryItOut 515
Compiling threw: SyntaxError: missing ( before let head

tryItOut 516
Compiling threw: SyntaxError: invalid continue

tryItOut 517
Compiling threw: SyntaxError: missing ) in parenthetical

tryItOut 518
Running threw: ReferenceError: reference to undefined XML name @foo

tryItOut 519
Running threw: ReferenceError: z1 is not defined

tryItOut 520

tryItOut 521
Compiling threw: SyntaxError: missing ) after switch expression

tryItOut 522
Compiling threw: SyntaxError: invalid for/in left-hand side

tryItOut 523

tryItOut 524
Compiling threw: SyntaxError: missing ; before statement

tryItOut 525

tryItOut 526

tryItOut 527
Running threw: <y>
  <z/>
</y>

tryItOut 528
Compiling threw: SyntaxError: syntax error

tryItOut 529
Compiling threw: SyntaxError: syntax error

tryItOut 530

tryItOut 531

tryItOut 532
Running threw: ReferenceError: reference to undefined XML name *::*

tryItOut 533

tryItOut 534
Compiling threw: SyntaxError: missing ) in parenthetical

tryItOut 535
Running threw: TypeError: <y><z/></y>.__lookupSetter__("prop") has no properties

tryItOut 536

tryItOut 537
It's an iterator!
Iterating threw!
Iterating threw: TypeError: prop has no properties

tryItOut 538

tryItOut 539
Compiling threw: SyntaxError: missing variable name

tryItOut 540
Compiling threw: SyntaxError: missing ; before statement

tryItOut 541
Compiling threw: SyntaxError: invalid for/in left-hand side

tryItOut 542

tryItOut 543

tryItOut 544
Compiling threw: SyntaxError: label not found

tryItOut 545
Compiling threw: SyntaxError: invalid assignment left-hand side

tryItOut 546
Compiling threw: SyntaxError: missing = in destructuring declaration

tryItOut 547

tryItOut 548
Compiling threw: SyntaxError: missing : after property id

tryItOut 549

tryItOut 550

tryItOut 551

tryItOut 552

tryItOut 553

tryItOut 554
Compiling threw: SyntaxError: missing ) in parenthetical

tryItOut 555

tryItOut 556
Running threw: ReferenceError: reference to undefined XML name *::*

tryItOut 557
Running threw: ReferenceError: z1 is not defined

tryItOut 558
Compiling threw: SyntaxError: missing ) in parenthetical

tryItOut 559

tryItOut 560
Compiling threw: SyntaxError: invalid for/in left-hand side

tryItOut 561
Compiling threw: SyntaxError: missing ; before statement

tryItOut 562
Compiling threw: SyntaxError: missing ; after for-loop initializer

tryItOut 563
Compiling threw: SyntaxError: missing ) in parenthetical

tryItOut 564
Running threw: ReferenceError: reference to undefined XML name @foo

tryItOut 565
before 244160, after 244160, break 0204c000

tryItOut 566
Compiling threw: SyntaxError: label not found

tryItOut 567
Compiling threw: SyntaxError: invalid increment operand

tryItOut 568
Running threw: ReferenceError: reference to undefined XML name *

tryItOut 569
Compiling threw: SyntaxError: missing ; before statement

tryItOut 570
Compiling threw: SyntaxError: invalid destructuring assignment operator

tryItOut 571
Compiling threw: SyntaxError: missing ) in parenthetical

tryItOut 572
Compiling threw: SyntaxError: invalid continue

tryItOut 573
Compiling threw: SyntaxError: label not found

tryItOut 574
Compiling threw: SyntaxError: invalid for/in left-hand side

tryItOut 575

tryItOut 576
Running threw: ReferenceError: reference to undefined XML name @foo

tryItOut 577
Compiling threw: SyntaxError: invalid for/in left-hand side

tryItOut 578
Compiling threw: SyntaxError: invalid break

tryItOut 579

tryItOut 580
Compiling threw: TypeError: redeclaration of variable prop

tryItOut 581
Running threw: ReferenceError: z1 is not defined

tryItOut 582
Compiling threw: SyntaxError: missing ; before statement

tryItOut 583

tryItOut 584
Running threw: ReferenceError: reference to undefined XML name @foo

tryItOut 585

tryItOut 586
before 244160, after 244160, break 0204c000
Running threw: ReferenceError: z2 is not defined

tryItOut 587
Compiling threw: SyntaxError: duplicate label

tryItOut 588
Compiling threw: SyntaxError: missing ) in parenthetical

tryItOut 589

tryItOut 590
Compiling threw: SyntaxError: missing ; before statement

tryItOut 591
Running threw: ReferenceError: reference to undefined XML name *::*

tryItOut 592
Compiling threw: SyntaxError: syntax error

tryItOut 593
Compiling threw: SyntaxError: syntax error

tryItOut 594

tryItOut 595
Compiling threw: SyntaxError: missing ; before statement

tryItOut 596

tryItOut 597
Compiling threw: SyntaxError: missing ; before statement

tryItOut 598
Running threw: ReferenceError: reference to undefined XML name @foo

tryItOut 599
Compiling threw: SyntaxError: invalid for/in left-hand side

tryItOut 600
Compiling threw: SyntaxError: syntax error

tryItOut 601
Compiling threw: SyntaxError: missing ] after element list

tryItOut 602
Compiling threw: SyntaxError: missing = in destructuring declaration

tryItOut 603

tryItOut 604

tryItOut 605
Compiling threw: SyntaxError: missing variable name

tryItOut 606
Compiling threw: SyntaxError: invalid for/in left-hand side

tryItOut 607
Compiling threw: SyntaxError: invalid continue

tryItOut 608

tryItOut 609
Compiling threw: SyntaxError: invalid assignment left-hand side

tryItOut 610
Compiling threw: SyntaxError: label not found

tryItOut 611
Compiling threw: SyntaxError: missing ) in parenthetical

tryItOut 612
Compiling threw: SyntaxError: duplicate label

tryItOut 613
Running threw: ReferenceError: reference to undefined XML name @foo

tryItOut 614
Running threw: <y>
  <z/>
</y>

tryItOut 615
Compiling threw: SyntaxError: missing variable name

tryItOut 616

tryItOut 617

tryItOut 618

tryItOut 619

tryItOut 620

tryItOut 621
Compiling threw: SyntaxError: invalid break

tryItOut 622
Running threw: Error: invalid sharp variable use #1#

tryItOut 623
Running threw: ReferenceError: reference to undefined XML name *

tryItOut 624

tryItOut 625
Compiling threw: SyntaxError: label not found

tryItOut 626
Running threw: ReferenceError: reference to undefined XML name @foo

tryItOut 627
Compiling threw: SyntaxError: syntax error

tryItOut 628
Compiling threw: SyntaxError: missing variable name

tryItOut 629
Compiling threw: SyntaxError: missing ; before statement

tryItOut 630
Compiling threw: SyntaxError: invalid default XML namespace

tryItOut 631
Compiling threw: SyntaxError: missing ) after condition

tryItOut 632
Running threw: ReferenceError: reference to undefined XML name *

tryItOut 633
Compiling threw: SyntaxError: missing } after let block

tryItOut 634
Compiling threw: SyntaxError: missing ; before statement

tryItOut 635

tryItOut 636
Compiling threw: SyntaxError: syntax error

tryItOut 637

tryItOut 638
Compiling threw: SyntaxError: missing variable name

tryItOut 639
Compiling threw: SyntaxError: missing ) in parenthetical

tryItOut 640

tryItOut 641
Compiling threw: SyntaxError: invalid for/in left-hand side

tryItOut 642
Compiling threw: SyntaxError: missing { before function body

tryItOut 643
Running threw: ReferenceError: reference to undefined XML name @foo

tryItOut 644
Running threw: ReferenceError: z1 is not defined

tryItOut 645
Compiling threw: SyntaxError: missing ; before statement

tryItOut 646
Compiling threw: SyntaxError: missing variable name

tryItOut 647

tryItOut 648
Compiling threw: SyntaxError: syntax error

tryItOut 649
Compiling threw: SyntaxError: label not found

tryItOut 650
Compiling threw: SyntaxError: missing { before function body

tryItOut 651
Running threw: ReferenceError: reference to undefined XML name @foo

tryItOut 652
Compiling threw: SyntaxError: syntax error

tryItOut 653
Compiling threw: SyntaxError: missing ] after element list

tryItOut 654
Compiling threw: SyntaxError: invalid assignment left-hand side

tryItOut 655
Compiling threw: SyntaxError: syntax error

tryItOut 656

tryItOut 657
Compiling threw: SyntaxError: missing variable name

tryItOut 658

tryItOut 659

tryItOut 660
Compiling threw: SyntaxError: invalid for/in left-hand side

tryItOut 661
Running threw: ReferenceError: reference to undefined XML name *::*

tryItOut 662
before 244160, after 244160, break 0204c000
before 244160, after 244160, break 0204c000

tryItOut 663
Compiling threw: SyntaxError: invalid for/in left-hand side

tryItOut 664
Compiling threw: SyntaxError: missing ) in parenthetical

tryItOut 665
Compiling threw: SyntaxError: missing variable name

tryItOut 666
Compiling threw: SyntaxError: syntax error

tryItOut 667

tryItOut 668
Compiling threw: SyntaxError: missing ) in parenthetical

tryItOut 669
Compiling threw: TypeError: redeclaration of variable constructor

tryItOut 670

tryItOut 671
Running threw: SyntaxError: return not in function

tryItOut 672
Running threw: ReferenceError: reference to undefined XML name @foo

tryItOut 673

tryItOut 674
Compiling threw: SyntaxError: missing ; before statement

tryItOut 675
Compiling threw: SyntaxError: missing ; after for-loop initializer

tryItOut 676

tryItOut 677
Running threw: TypeError: XML filtering predicate operator called on incompatible Function

tryItOut 678
Compiling threw: SyntaxError: invalid decrement operand

tryItOut 679
Running threw: ReferenceError: reference to undefined XML name *::*

tryItOut 680

tryItOut 681
Running threw: ReferenceError: reference to undefined XML name @foo

tryItOut 682
Compiling threw: SyntaxError: label not found

tryItOut 683

tryItOut 684

tryItOut 685
Running threw: ReferenceError: z2 is not defined

tryItOut 686
Compiling threw: SyntaxError: missing variable name

tryItOut 687
Compiling threw: SyntaxError: invalid assignment left-hand side

tryItOut 688

tryItOut 689
Compiling threw: SyntaxError: syntax error

tryItOut 690
Compiling threw: SyntaxError: duplicate label

tryItOut 691
Running threw: ReferenceError: reference to undefined XML name @foo

tryItOut 692
Compiling threw: SyntaxError: label not found

tryItOut 693

tryItOut 694
Running threw: TypeError: #1=[#1#] is not a function

tryItOut 695
Compiling threw: SyntaxError: missing variable name

tryItOut 696
Running threw: ReferenceError: reference to undefined XML name *::*

tryItOut 697

tryItOut 698

tryItOut 699
Compiling threw: SyntaxError: missing ; before statement

tryItOut 700

tryItOut 701
Compiling threw: SyntaxError: missing ) after argument list

tryItOut 702
Running threw: [object Object]

tryItOut 703
Compiling threw: SyntaxError: duplicate label

tryItOut 704

tryItOut 705
Compiling threw: SyntaxError: syntax error

tryItOut 706
Compiling threw: SyntaxError: invalid continue

tryItOut 707
Compiling threw: SyntaxError: invalid for/in left-hand side

tryItOut 708
Compiling threw: SyntaxError: invalid for/in left-hand side

tryItOut 709
Compiling threw: SyntaxError: invalid for/in left-hand side

tryItOut 710
Running threw: [object StopIteration]

tryItOut 711

tryItOut 712
Compiling threw: SyntaxError: missing ; before statement

tryItOut 713
uneval returned the string: [[]]

tryItOut 714
Compiling threw: SyntaxError: missing formal parameter

tryItOut 715
Compiling threw: SyntaxError: invalid sharp variable definition

tryItOut 716

tryItOut 717
before 244160, after 244160, break 0204c000

tryItOut 718

tryItOut 719
Compiling threw: SyntaxError: invalid assignment left-hand side

tryItOut 720
Running threw: ReferenceError: reference to undefined XML name @foo

tryItOut 721
before 244160, after 244160, break 0204c000

tryItOut 722
Compiling threw: SyntaxError: label not found

tryItOut 723

tryItOut 724

tryItOut 725
Compiling threw: SyntaxError: syntax error

tryItOut 726
before 244160, after 244160, break 0204c000

tryItOut 727
Running threw: 

tryItOut 728
Running threw: ReferenceError: reference to undefined XML name *::*

tryItOut 729
Compiling threw: SyntaxError: invalid for each loop

tryItOut 730

tryItOut 731
Running threw: Error: invalid sharp variable use #1#

tryItOut 732
Running threw: ReferenceError: reference to undefined XML name *

tryItOut 733
Compiling threw: SyntaxError: missing ; before statement

tryItOut 734
Compiling threw: SyntaxError: invalid continue

tryItOut 735

tryItOut 736
Compiling threw: SyntaxError: missing ; after for-loop initializer

tryItOut 737
Running threw: ReferenceError: reference to undefined XML name *::*

tryItOut 738

tryItOut 739
Compiling threw: SyntaxError: missing ; before statement

tryItOut 740

tryItOut 741
Compiling threw: SyntaxError: syntax error

tryItOut 742
Compiling threw: SyntaxError: invalid assignment left-hand side

tryItOut 743
Running threw: TypeError: XML filtering predicate operator called on incompatible Function

tryItOut 744
Compiling threw: SyntaxError: missing ; before statement

tryItOut 745
Running threw: <y>
  <z/>
</y>

tryItOut 746
Compiling threw: SyntaxError: invalid for/in left-hand side

tryItOut 747
Running threw: ReferenceError: reference to undefined XML name *

tryItOut 748
Compiling threw: SyntaxError: missing ; before statement

tryItOut 749
Compiling threw: SyntaxError: invalid for/in left-hand side

tryItOut 750
Compiling threw: SyntaxError: missing ( before let head

tryItOut 751

tryItOut 752

tryItOut 753

tryItOut 754

tryItOut 755

tryItOut 756
Running threw: ReferenceError: reference to undefined XML name @foo

tryItOut 757
Compiling threw: SyntaxError: missing ] after element list

tryItOut 758

tryItOut 759
Compiling threw: SyntaxError: syntax error

tryItOut 760
Compiling threw: SyntaxError: invalid continue

tryItOut 761
Compiling threw: SyntaxError: label not found

tryItOut 762
Compiling threw: SyntaxError: syntax error

tryItOut 763
Running threw: ReferenceError: reference to undefined XML name *

tryItOut 764

tryItOut 765

tryItOut 766
Compiling threw: SyntaxError: invalid for/in left-hand side

tryItOut 767
Compiling threw: SyntaxError: invalid for/in left-hand side

tryItOut 768
Running threw: ReferenceError: reference to undefined XML name *::*

tryItOut 769

tryItOut 770
Compiling threw: SyntaxError: missing } after let block

tryItOut 771

tryItOut 772
Compiling threw: SyntaxError: invalid break

tryItOut 773

tryItOut 774
Compiling threw: SyntaxError: missing ; before statement

tryItOut 775
Running threw: ReferenceError: reference to undefined XML name *

tryItOut 776

tryItOut 777

tryItOut 778

tryItOut 779
Running threw: <y>
  <z/>
</y>

tryItOut 780
Compiling threw: SyntaxError: invalid destructuring assignment operator

tryItOut 781
Compiling threw: SyntaxError: illegal XML character

tryItOut 782

tryItOut 783
Running threw: 

tryItOut 784
Compiling threw: SyntaxError: missing ] after element list

tryItOut 785
Compiling threw: SyntaxError: missing variable name

tryItOut 786

tryItOut 787
Compiling threw: SyntaxError: missing ; before statement

tryItOut 788

tryItOut 789

tryItOut 790
Compiling threw: SyntaxError: syntax error

tryItOut 791
Running threw: ReferenceError: reference to undefined XML name @foo

tryItOut 792
Compiling threw: SyntaxError: syntax error

tryItOut 793
Compiling threw: SyntaxError: missing ) after argument list

tryItOut 794
Compiling threw: SyntaxError: syntax error

tryItOut 795
Compiling threw: SyntaxError: invalid assignment left-hand side

tryItOut 796
Running threw: ReferenceError: reference to undefined XML name *::*

tryItOut 797
Running threw: <y>
  <z/>
</y>

tryItOut 798
Compiling threw: SyntaxError: missing ; before statement

tryItOut 799
Compiling threw: SyntaxError: invalid break

tryItOut 800

tryItOut 801

tryItOut 802

tryItOut 803
Compiling threw: SyntaxError: unterminated regular expression literal

tryItOut 804
Compiling threw: SyntaxError: label not found

tryItOut 805
Compiling threw: SyntaxError: invalid continue

tryItOut 806
Compiling threw: SyntaxError: syntax error

tryItOut 807
Running threw: ReferenceError: z1 is not defined

tryItOut 808
Compiling threw: SyntaxError: missing ; before statement

tryItOut 809
Compiling threw: SyntaxError: invalid for/in left-hand side

tryItOut 810
before 244160, after 244160, break 02049000

tryItOut 811
Running threw: SyntaxError: invalid setter usage

tryItOut 812
Compiling threw: SyntaxError: invalid for/in left-hand side

tryItOut 813
Running threw: ReferenceError: reference to undefined XML name @foo

tryItOut 814

tryItOut 815
Compiling threw: SyntaxError: syntax error

tryItOut 816

tryItOut 817

tryItOut 818
Running threw: ReferenceError: reference to undefined XML name *

tryItOut 819
Compiling threw: SyntaxError: invalid break

tryItOut 820
Compiling threw: SyntaxError: missing ) in parenthetical

tryItOut 821
Compiling threw: SyntaxError: syntax error

tryItOut 822
Compiling threw: TypeError: redeclaration of variable __noSuchMethod__

tryItOut 823
Compiling threw: SyntaxError: label not found

tryItOut 824

tryItOut 825

tryItOut 826
Compiling threw: SyntaxError: invalid sharp variable definition

tryItOut 827
Compiling threw: SyntaxError: invalid for each loop

tryItOut 828
Compiling threw: SyntaxError: label not found

tryItOut 829
Compiling threw: SyntaxError: missing ; after for-loop initializer

tryItOut 830
Compiling threw: SyntaxError: missing variable name

tryItOut 831
Running threw: ReferenceError: z2 is not defined

tryItOut 832
Compiling threw: SyntaxError: missing ) in parenthetical

tryItOut 833

tryItOut 834
Compiling threw: SyntaxError: missing ) in parenthetical

tryItOut 835
Compiling threw: SyntaxError: label not found

tryItOut 836
Compiling threw: SyntaxError: label not found

tryItOut 837
Running threw: ReferenceError: z1 is not defined

tryItOut 838

tryItOut 839
Running threw: ReferenceError: reference to undefined XML name @foo

tryItOut 840
Running threw: TypeError: redeclaration of var __count__

tryItOut 841
Compiling threw: SyntaxError: missing variable name

tryItOut 842
Compiling threw: SyntaxError: missing variable name

tryItOut 843
Running threw: TypeError: prop has no properties

tryItOut 844
Compiling threw: SyntaxError: invalid for/in left-hand side

tryItOut 845

tryItOut 846
Compiling threw: SyntaxError: label not found

tryItOut 847

tryItOut 848
Running threw: ReferenceError: reference to undefined XML name *

tryItOut 849
Compiling threw: SyntaxError: missing ; after for-loop initializer

tryItOut 850
Compiling threw: SyntaxError: invalid destructuring assignment operator

tryItOut 851
Compiling threw: SyntaxError: missing variable name

tryItOut 852
Compiling threw: SyntaxError: invalid break

tryItOut 853

tryItOut 854
Compiling threw: SyntaxError: missing ; before statement

tryItOut 855
Compiling threw: SyntaxError: missing ] after element list

tryItOut 856

tryItOut 857

tryItOut 858
Compiling threw: SyntaxError: syntax error

tryItOut 859
Compiling threw: SyntaxError: missing ) in parenthetical

tryItOut 860
before 244160, after 244160, break 02049000

tryItOut 861
Compiling threw: SyntaxError: missing : after property id

tryItOut 862
Compiling threw: SyntaxError: syntax error

tryItOut 863
Compiling threw: TypeError: redeclaration of variable __parent__

tryItOut 864
Running threw: [object StopIteration]

tryItOut 865
before 244160, after 244160, break 02049000

tryItOut 866

tryItOut 867

tryItOut 868
Compiling threw: SyntaxError: syntax error

tryItOut 869
Compiling threw: SyntaxError: invalid assignment left-hand side

tryItOut 870
Compiling threw: SyntaxError: invalid break

tryItOut 871

tryItOut 872

tryItOut 873
Compiling threw: SyntaxError: missing { before function body

tryItOut 874

tryItOut 875
Compiling threw: SyntaxError: syntax error

tryItOut 876

tryItOut 877
Compiling threw: SyntaxError: invalid sharp variable definition

tryItOut 878

tryItOut 879
Compiling threw: SyntaxError: invalid for/in left-hand side

tryItOut 880

tryItOut 881
Compiling threw: SyntaxError: missing { before function body

tryItOut 882
Compiling threw: SyntaxError: missing ) in parenthetical

tryItOut 883
Compiling threw: SyntaxError: invalid continue

tryItOut 884
Compiling threw: SyntaxError: invalid continue

tryItOut 885
Compiling threw: SyntaxError: syntax error

tryItOut 886

tryItOut 887
Running threw: ReferenceError: reference to undefined XML name @foo

tryItOut 888

tryItOut 889
Compiling threw: SyntaxError: missing } after property list

tryItOut 890

tryItOut 891
Running threw: ReferenceError: z1 is not defined

tryItOut 892
Compiling threw: SyntaxError: syntax error

tryItOut 893
Compiling threw: SyntaxError: syntax error

tryItOut 894

tryItOut 895
Running threw: ReferenceError: reference to undefined XML name *::*

tryItOut 896
Compiling threw: SyntaxError: duplicate label

tryItOut 897
Compiling threw: SyntaxError: invalid for/in left-hand side

tryItOut 898
Running threw: <y>
  <z/>
</y>

tryItOut 899
Compiling threw: SyntaxError: invalid for/in left-hand side

tryItOut 900
Compiling threw: SyntaxError: missing ] after element list

tryItOut 901

tryItOut 902
Compiling threw: SyntaxError: missing ; before statement

tryItOut 903
Compiling threw: SyntaxError: syntax error

tryItOut 904
Running threw: ReferenceError: reference to undefined XML name @foo

tryItOut 905

tryItOut 906
Compiling threw: SyntaxError: label not found

tryItOut 907

tryItOut 908
Compiling threw: SyntaxError: missing ; before statement

tryItOut 909

tryItOut 910
Compiling threw: SyntaxError: label not found

tryItOut 911
Compiling threw: SyntaxError: syntax error

tryItOut 912
Compiling threw: TypeError: redeclaration of variable __proto__

tryItOut 913
before 244160, after 244160, break 02049000
Running threw: TypeError: gc() has no properties

tryItOut 914
Compiling threw: SyntaxError: syntax error

tryItOut 915
Compiling threw: SyntaxError: label not found

tryItOut 916

tryItOut 917

tryItOut 918

tryItOut 919

tryItOut 920
Running threw: ReferenceError: reference to undefined XML name *

tryItOut 921
Compiling threw: SyntaxError: syntax error

tryItOut 922
Compiling threw: SyntaxError: syntax error

tryItOut 923

tryItOut 924
Compiling threw: SyntaxError: missing ; after for-loop initializer

tryItOut 925
Compiling threw: SyntaxError: invalid break

tryItOut 926
Compiling threw: SyntaxError: invalid for each loop

tryItOut 927
Compiling threw: SyntaxError: syntax error

tryItOut 928
Compiling threw: SyntaxError: invalid continue

tryItOut 929
Compiling threw: SyntaxError: invalid for/in left-hand side

tryItOut 930
Running threw: ReferenceError: reference to undefined XML name *::*

tryItOut 931
Compiling threw: SyntaxError: missing = in destructuring declaration

tryItOut 932

tryItOut 933
Running threw: ReferenceError: z1 is not defined

tryItOut 934
Compiling threw: SyntaxError: missing = in destructuring declaration

tryItOut 935
Compiling threw: SyntaxError: invalid for/in left-hand side

tryItOut 936
Compiling threw: SyntaxError: label not found

tryItOut 937

tryItOut 938
Compiling threw: SyntaxError: missing ; after for-loop initializer

tryItOut 939
Compiling threw: SyntaxError: missing ) after argument list

tryItOut 940

tryItOut 941
Compiling threw: SyntaxError: label not found

tryItOut 942
Running threw: 

tryItOut 943

tryItOut 944
Compiling threw: SyntaxError: missing ; before statement

tryItOut 945
Compiling threw: SyntaxError: invalid destructuring assignment operator

tryItOut 946

tryItOut 947
Compiling threw: SyntaxError: invalid property id

tryItOut 948
Running threw: ReferenceError: reference to undefined XML name *

tryItOut 949
Running threw: TypeError: redeclaration of var __proto__

tryItOut 950
Compiling threw: SyntaxError: label not found

tryItOut 951
Compiling threw: SyntaxError: invalid continue

tryItOut 952
Compiling threw: SyntaxError: missing ) after argument list

tryItOut 953

tryItOut 954
Running threw: <y>
  <z/>
</y>

tryItOut 955

tryItOut 956
Running threw: Error: invalid sharp variable use #1#

tryItOut 957
Compiling threw: SyntaxError: label not found

tryItOut 958
Compiling threw: SyntaxError: missing variable name

tryItOut 959

tryItOut 960
Running threw: ReferenceError: z1 is not defined

tryItOut 961

tryItOut 962
Compiling threw: SyntaxError: invalid destructuring assignment operator

tryItOut 963
Compiling threw: SyntaxError: missing ; after for-loop initializer

tryItOut 964

tryItOut 965
Compiling threw: SyntaxError: invalid for/in left-hand side

tryItOut 966

tryItOut 967
Compiling threw: SyntaxError: label not found

tryItOut 968

tryItOut 969
Running threw: ReferenceError: reference to undefined XML name *::*

tryItOut 970

tryItOut 971
Running threw: ReferenceError: reference to undefined XML name @foo

tryItOut 972

tryItOut 973
Running threw: ReferenceError: reference to undefined XML name @foo

tryItOut 974
Compiling threw: SyntaxError: invalid for/in left-hand side

tryItOut 975
Compiling threw: SyntaxError: invalid for/in left-hand side

tryItOut 976
Compiling threw: SyntaxError: invalid for/in left-hand side

tryItOut 977

tryItOut 978

tryItOut 979
Running threw: ReferenceError: reference to undefined XML name *

tryItOut 980
before 244160, after 244160, break 02049000

tryItOut 981
Compiling threw: SyntaxError: syntax error

tryItOut 982
Compiling threw: SyntaxError: missing ; before statement

tryItOut 983

tryItOut 984
Compiling threw: SyntaxError: label not found

tryItOut 985
Running threw: ReferenceError: reference to undefined XML name *::*

tryItOut 986

tryItOut 987
Compiling threw: SyntaxError: missing { before function body

tryItOut 988
Compiling threw: TypeError: anonymous generator function returns a value

tryItOut 989
before 244160, after 244160, break 02049000

tryItOut 990
Compiling threw: SyntaxError: invalid for/in left-hand side

tryItOut 991

tryItOut 992
Running threw: SyntaxError: invalid assignment left-hand side

tryItOut 993
Compiling threw: SyntaxError: invalid break

tryItOut 994
Compiling threw: SyntaxError: syntax error

tryItOut 995
Compiling threw: SyntaxError: missing ) in parenthetical

tryItOut 996
Compiling threw: SyntaxError: invalid for/in left-hand side

tryItOut 997
Running threw: TypeError: prop has no properties

tryItOut 998
Compiling threw: SyntaxError: missing ] after element list

tryItOut 999
Running threw: ReferenceError: reference to undefined XML name *

tryItOut 1000
Compiling threw: SyntaxError: missing { before function body

ALL OK

Script done on Sat 04 May 2013 06:56:36 AM PDT
