Script started on Sat 04 May 2013 04:56:03 AM PDT
***
Targeting SpiderMonkey / Gecko.

tryItOut 1
Compiling threw: SyntaxError: invalid decrement operand

tryItOut 2
Running threw: ReferenceError: z1 is not defined

tryItOut 3

tryItOut 4
Compiling threw: SyntaxError: invalid assignment left-hand side

tryItOut 5
Compiling threw: SyntaxError: invalid default XML namespace

tryItOut 6
Compiling threw: SyntaxError: missing ; after for-loop initializer

tryItOut 7
Compiling threw: SyntaxError: missing : after property id

tryItOut 8
Compiling threw: SyntaxError: missing ] after element list

tryItOut 9
Compiling threw: SyntaxError: missing variable name

tryItOut 10
Running threw: 

tryItOut 11
Compiling threw: SyntaxError: invalid continue

tryItOut 12
Compiling threw: SyntaxError: invalid sharp variable definition

tryItOut 13
Compiling threw: SyntaxError: invalid continue

tryItOut 14

tryItOut 15
Running threw: TypeError: constructor has no properties

tryItOut 16

tryItOut 17
Running threw: ReferenceError: x is not defined

tryItOut 18
Compiling threw: SyntaxError: invalid for/in left-hand side

tryItOut 19

tryItOut 20
Compiling threw: SyntaxError: invalid continue

tryItOut 21
Compiling threw: SyntaxError: missing variable name

tryItOut 22
Compiling threw: SyntaxError: invalid break

tryItOut 23

tryItOut 24
Running threw: ReferenceError: prototype is not defined

tryItOut 25

tryItOut 26

tryItOut 27
Compiling threw: SyntaxError: missing variable name

tryItOut 28

tryItOut 29

tryItOut 30

tryItOut 31
It's an iterator!
Iterating threw!
Iterating threw: TypeError: arguments[0] has no properties

tryItOut 32

tryItOut 33
It's an iterator!
Iterating succeeded, iterCount == 1

tryItOut 34

tryItOut 35
It's an iterator!
Iterating succeeded, iterCount == 1

tryItOut 36

tryItOut 37
Compiling threw: SyntaxError: missing variable name

tryItOut 38

tryItOut 39
Compiling threw: SyntaxError: label not found

tryItOut 40
Compiling threw: SyntaxError: missing variable name

tryItOut 41

tryItOut 42
Running threw: [object StopIteration]

tryItOut 43
Compiling threw: SyntaxError: invalid for/in left-hand side

tryItOut 44
It's an iterator!
Iterating succeeded, iterCount == 0

tryItOut 45
It's an iterator!
Iterating succeeded, iterCount == 1

tryItOut 46
Compiling threw: TypeError: generator function anonymous returns a value

tryItOut 47
Compiling threw: TypeError: redeclaration of variable __iterator__

tryItOut 48
Compiling threw: SyntaxError: duplicate label

tryItOut 49
Compiling threw: SyntaxError: missing variable name

tryItOut 50
Compiling threw: SyntaxError: missing variable name

tryItOut 51
Compiling threw: SyntaxError: missing ] after element list

tryItOut 52
Compiling threw: SyntaxError: invalid increment operand

tryItOut 53
Compiling threw: SyntaxError: illegal XML character

tryItOut 54

tryItOut 55
Compiling threw: SyntaxError: missing = in destructuring declaration

tryItOut 56

tryItOut 57
Compiling threw: SyntaxError: missing variable name

tryItOut 58
It's an iterator!
Iterating threw!
Iterating threw: ReferenceError: z1 is not defined

tryItOut 59
Compiling threw: SyntaxError: invalid continue

tryItOut 60

tryItOut 61
Compiling threw: SyntaxError: invalid XML tag syntax

tryItOut 62
Compiling threw: SyntaxError: syntax error

tryItOut 63
Compiling threw: SyntaxError: missing ] after element list

tryItOut 64
Compiling threw: SyntaxError: invalid XML name

tryItOut 65
Compiling threw: TypeError: anonymous generator function returns a value

tryItOut 66
Compiling threw: SyntaxError: syntax error

tryItOut 67
Compiling threw: SyntaxError: missing variable name

tryItOut 68

tryItOut 69

tryItOut 70

tryItOut 71
Compiling threw: SyntaxError: syntax error

tryItOut 72

tryItOut 73

tryItOut 74

tryItOut 75
Compiling threw: SyntaxError: label not found

tryItOut 76
Compiling threw: SyntaxError: missing variable name

tryItOut 77

tryItOut 78
Compiling threw: SyntaxError: invalid destructuring assignment operator

tryItOut 79

tryItOut 80
Compiling threw: SyntaxError: missing = in destructuring declaration

tryItOut 81
Compiling threw: SyntaxError: missing ] after element list

tryItOut 82

tryItOut 83
Running threw: TypeError: "".@* has no properties

tryItOut 84
Compiling threw: SyntaxError: label not found

tryItOut 85
Compiling threw: TypeError: redeclaration of variable prop

tryItOut 86
Compiling threw: SyntaxError: syntax error

tryItOut 87
Compiling threw: SyntaxError: missing ] after element list

tryItOut 88

tryItOut 89
Compiling threw: SyntaxError: missing ] after element list

tryItOut 90
Running threw: ReferenceError: r is not defined

tryItOut 91

tryItOut 92
It's an iterator!
Iterating succeeded, iterCount == 4

tryItOut 93
Running threw: undefined

tryItOut 94

tryItOut 95
Compiling threw: SyntaxError: invalid increment operand

tryItOut 96

tryItOut 97

tryItOut 98
Compiling threw: TypeError: redeclaration of variable prototype

tryItOut 99
Compiling threw: SyntaxError: invalid destructuring assignment operator

tryItOut 100
It's an iterator!
Iterating succeeded, iterCount == 1

tryItOut 101

tryItOut 102
Compiling threw: SyntaxError: invalid break

tryItOut 103
Compiling threw: SyntaxError: missing ] after element list

tryItOut 104

tryItOut 105

tryItOut 106
Running threw: [object StopIteration]

tryItOut 107
Running threw: TypeError: undefined has no properties

tryItOut 108

tryItOut 109
Compiling threw: SyntaxError: invalid break

tryItOut 110

tryItOut 111
Compiling threw: SyntaxError: syntax error

tryItOut 112
Compiling threw: SyntaxError: invalid assignment left-hand side

tryItOut 113
Compiling threw: SyntaxError: missing ] after element list

tryItOut 114
Compiling threw: SyntaxError: syntax error

tryItOut 115

tryItOut 116

tryItOut 117
Compiling threw: SyntaxError: invalid break

tryItOut 118
Compiling threw: SyntaxError: invalid assignment left-hand side

tryItOut 119
Compiling threw: SyntaxError: invalid for/in left-hand side

tryItOut 120
Compiling threw: SyntaxError: missing variable name

tryItOut 121

tryItOut 122

tryItOut 123

tryItOut 124
Compiling threw: SyntaxError: syntax error

tryItOut 125
It's an iterator!
Iterating succeeded, iterCount == 1

tryItOut 126
It's an iterator!
Iterating succeeded, iterCount == 1

tryItOut 127
It's an iterator!
Iterating threw!
Iterating threw: TypeError: {}.@* has no properties

tryItOut 128
Compiling threw: SyntaxError: invalid continue

tryItOut 129
Running threw: ReferenceError: prop is not defined

tryItOut 130
Running threw: TypeError: arguments[0] has no properties

tryItOut 131
Compiling threw: SyntaxError: syntax error

tryItOut 132
Compiling threw: SyntaxError: syntax error

tryItOut 133
Compiling threw: SyntaxError: missing : after property id

tryItOut 134

tryItOut 135
Compiling threw: TypeError: generator function anonymous returns a value

tryItOut 136

tryItOut 137
Compiling threw: SyntaxError: invalid continue

tryItOut 138
Compiling threw: SyntaxError: duplicate label

tryItOut 139
Running threw: TypeError: null has no properties

tryItOut 140
It's an iterator!
Iterating succeeded, iterCount == 1

tryItOut 141
It's an iterator!
Iterating succeeded, iterCount == 1

tryItOut 142
Compiling threw: SyntaxError: missing variable name

tryItOut 143

tryItOut 144

tryItOut 145
Compiling threw: SyntaxError: missing ) in parenthetical

tryItOut 146
Compiling threw: TypeError: redeclaration of const constructor

tryItOut 147
Compiling threw: SyntaxError: illegal XML character

tryItOut 148
Compiling threw: SyntaxError: missing = in destructuring declaration

tryItOut 149

tryItOut 150
Compiling threw: SyntaxError: invalid break

tryItOut 151

tryItOut 152
Compiling threw: SyntaxError: syntax error

tryItOut 153

tryItOut 154

tryItOut 155
Compiling threw: TypeError: redeclaration of variable __proto__

tryItOut 156

tryItOut 157

tryItOut 158
Running threw: ReferenceError: z1 is not defined

tryItOut 159
Compiling threw: SyntaxError: invalid property id

tryItOut 160
Compiling threw: SyntaxError: invalid XML name

tryItOut 161

tryItOut 162

tryItOut 163
Compiling threw: SyntaxError: duplicate label

tryItOut 164
Compiling threw: SyntaxError: missing { before function body

tryItOut 165

tryItOut 166

tryItOut 167
Compiling threw: SyntaxError: invalid continue

tryItOut 168
It's an iterator!
Iterating succeeded, iterCount == 1

tryItOut 169

tryItOut 170
Compiling threw: SyntaxError: invalid assignment left-hand side

tryItOut 171
It's an iterator!
Iterating succeeded, iterCount == 1

tryItOut 172

tryItOut 173

tryItOut 174

tryItOut 175

tryItOut 176
Compiling threw: SyntaxError: syntax error

tryItOut 177
Compiling threw: SyntaxError: syntax error

tryItOut 178
Running threw: [object StopIteration]

tryItOut 179

tryItOut 180

tryItOut 181
Compiling threw: SyntaxError: syntax error

tryItOut 182
Compiling threw: SyntaxError: missing ; before statement

tryItOut 183
Compiling threw: SyntaxError: invalid break

tryItOut 184
Compiling threw: SyntaxError: invalid XML name

tryItOut 185
Compiling threw: SyntaxError: syntax error

tryItOut 186

tryItOut 187

tryItOut 188
It's an iterator!
Iterating succeeded, iterCount == 1

tryItOut 189
Compiling threw: SyntaxError: syntax error

tryItOut 190

tryItOut 191
Compiling threw: SyntaxError: illegal XML character

tryItOut 192

tryItOut 193
Compiling threw: SyntaxError: invalid increment operand

tryItOut 194

tryItOut 195
Compiling threw: SyntaxError: invalid for/in left-hand side

tryItOut 196
Running threw: [object StopIteration]

tryItOut 197

tryItOut 198
Running threw: ReferenceError: __noSuchMethod__ is not defined

tryItOut 199
Compiling threw: SyntaxError: invalid for/in left-hand side

tryItOut 200

tryItOut 201
It's an iterator!
Iterating succeeded, iterCount == 1

tryItOut 202
Compiling threw: SyntaxError: invalid XML tag syntax

tryItOut 203

tryItOut 204
Compiling threw: SyntaxError: missing ) in parenthetical

tryItOut 205
Compiling threw: SyntaxError: syntax error

tryItOut 206

tryItOut 207

tryItOut 208
Compiling threw: SyntaxError: missing variable name

tryItOut 209

tryItOut 210
Running threw: ReferenceError: __parent__ is not defined

tryItOut 211
Compiling threw: SyntaxError: invalid decrement operand

tryItOut 212

tryItOut 213

tryItOut 214

tryItOut 215
Compiling threw: SyntaxError: label not found

tryItOut 216
Compiling threw: SyntaxError: missing { before function body

tryItOut 217

tryItOut 218

tryItOut 219
Compiling threw: SyntaxError: duplicate label

tryItOut 220

tryItOut 221
Compiling threw: SyntaxError: missing ) after argument list

tryItOut 222
It's an iterator!
Iterating threw!
Iterating threw: ReferenceError: z1 is not defined

tryItOut 223
Compiling threw: SyntaxError: invalid XML name

tryItOut 224

tryItOut 225
Compiling threw: SyntaxError: invalid for/in left-hand side

tryItOut 226
Compiling threw: SyntaxError: syntax error

tryItOut 227

tryItOut 228
Compiling threw: SyntaxError: invalid continue

tryItOut 229
Compiling threw: TypeError: generator function anonymous returns a value

tryItOut 230
Compiling threw: SyntaxError: missing variable name

tryItOut 231

tryItOut 232
Compiling threw: SyntaxError: missing ) after for-loop control

tryItOut 233
Running threw: [object StopIteration]

tryItOut 234

tryItOut 235
It's an iterator!
Iterating threw!
Iterating threw: <x>
  <y/>
</x>

tryItOut 236
Compiling threw: SyntaxError: invalid assignment left-hand side

tryItOut 237

tryItOut 238
Compiling threw: SyntaxError: invalid assignment left-hand side

tryItOut 239
Compiling threw: SyntaxError: invalid property id

tryItOut 240
Compiling threw: SyntaxError: missing variable name

tryItOut 241
Compiling threw: SyntaxError: invalid XML tag syntax

tryItOut 242
Running threw: [object Object]

tryItOut 243
Compiling threw: SyntaxError: invalid property id

tryItOut 244

tryItOut 245
Compiling threw: SyntaxError: invalid for/in left-hand side

tryItOut 246
Compiling threw: SyntaxError: missing : after property id

tryItOut 247
Compiling threw: TypeError: generator function anonymous returns a value

tryItOut 248
Compiling threw: SyntaxError: label not found

tryItOut 249
It's an iterator!
Iterating succeeded, iterCount == 1

tryItOut 250
Compiling threw: SyntaxError: duplicate label

tryItOut 251
Compiling threw: SyntaxError: label not found

tryItOut 252
Running threw: [object Object]

tryItOut 253
Compiling threw: SyntaxError: invalid continue

tryItOut 254
Compiling threw: SyntaxError: duplicate label

tryItOut 255
Compiling threw: SyntaxError: missing ; after for-loop initializer

tryItOut 256
Compiling threw: SyntaxError: missing ) after argument list

tryItOut 257
Compiling threw: SyntaxError: invalid decrement operand

tryItOut 258

tryItOut 259

tryItOut 260

tryItOut 261
Compiling threw: SyntaxError: missing ] after element list

tryItOut 262

tryItOut 263

tryItOut 264
Compiling threw: SyntaxError: illegal XML character

tryItOut 265
Compiling threw: TypeError: generator function anonymous returns a value

tryItOut 266
Compiling threw: SyntaxError: missing ] after element list

tryItOut 267
Running threw: <x>
  <y/>
</x>

tryItOut 268
It's an iterator!
Iterating succeeded, iterCount == 1

tryItOut 269
Running threw: [object StopIteration]

tryItOut 270
Compiling threw: SyntaxError: illegal character

tryItOut 271
Compiling threw: SyntaxError: invalid for/in left-hand side

tryItOut 272
It's an iterator!
Iterating succeeded, iterCount == 1

tryItOut 273
Compiling threw: SyntaxError: invalid for/in left-hand side

tryItOut 274
Compiling threw: SyntaxError: missing variable name

tryItOut 275
Compiling threw: SyntaxError: missing ] after element list

tryItOut 276

tryItOut 277

tryItOut 278
Compiling threw: SyntaxError: syntax error

tryItOut 279

tryItOut 280

tryItOut 281

tryItOut 282
Compiling threw: SyntaxError: invalid for/in left-hand side

tryItOut 283
Compiling threw: SyntaxError: missing variable name

tryItOut 284
Compiling threw: SyntaxError: missing identifier in catch

tryItOut 285

tryItOut 286
Running threw: <x>
  <y/>
</x>

tryItOut 287
Compiling threw: SyntaxError: invalid for/in left-hand side

tryItOut 288
Compiling threw: SyntaxError: invalid break

tryItOut 289

tryItOut 290

tryItOut 291
Compiling threw: SyntaxError: missing : after property id

tryItOut 292
Compiling threw: SyntaxError: illegal XML character

tryItOut 293

tryItOut 294

tryItOut 295
Compiling threw: SyntaxError: invalid increment operand

tryItOut 296
Compiling threw: SyntaxError: missing ] after element list

tryItOut 297

tryItOut 298
Compiling threw: SyntaxError: syntax error

tryItOut 299

tryItOut 300
Running threw: ReferenceError: __proto__ is not defined

tryItOut 301

tryItOut 302
Compiling threw: SyntaxError: yield expression must be parenthesized

tryItOut 303
Compiling threw: SyntaxError: invalid for/in left-hand side

tryItOut 304
Compiling threw: SyntaxError: label not found

tryItOut 305
Compiling threw: SyntaxError: label not found

tryItOut 306
Compiling threw: SyntaxError: missing variable name

tryItOut 307

tryItOut 308

tryItOut 309
Running threw: <x>
  <y/>
</x>

tryItOut 310
Compiling threw: SyntaxError: label not found

tryItOut 311

tryItOut 312

tryItOut 313
Compiling threw: SyntaxError: missing variable name

tryItOut 314

tryItOut 315

tryItOut 316

tryItOut 317

tryItOut 318
Compiling threw: SyntaxError: missing variable name

tryItOut 319
It's an iterator!
Iterating succeeded, iterCount == 1

tryItOut 320
Compiling threw: SyntaxError: invalid for/in left-hand side

tryItOut 321
Compiling threw: SyntaxError: invalid XML name

tryItOut 322
Compiling threw: SyntaxError: invalid break

tryItOut 323

tryItOut 324

tryItOut 325
Compiling threw: SyntaxError: label not found

tryItOut 326
Running threw: undefined

tryItOut 327
Compiling threw: SyntaxError: missing ] after element list

tryItOut 328
Compiling threw: SyntaxError: invalid for/in left-hand side

tryItOut 329
Compiling threw: SyntaxError: missing ) in parenthetical

tryItOut 330
It's an iterator!
Iterating threw!
Iterating threw: TypeError: XML filtering predicate operator called on incompatible RegExp

tryItOut 331

tryItOut 332

tryItOut 333

tryItOut 334
It's an iterator!
Iterating succeeded, iterCount == 1

tryItOut 335

tryItOut 336

tryItOut 337
Running threw: TypeError: <x>
  <y/>
</x> is not a function

tryItOut 338

tryItOut 339
Compiling threw: SyntaxError: label not found

tryItOut 340

tryItOut 341
Running threw: TypeError: null has no properties

tryItOut 342
Compiling threw: SyntaxError: invalid continue

tryItOut 343

tryItOut 344
Compiling threw: SyntaxError: missing variable name

tryItOut 345
Compiling threw: SyntaxError: syntax error

tryItOut 346
Compiling threw: SyntaxError: invalid decrement operand

tryItOut 347
Compiling threw: SyntaxError: invalid property id

tryItOut 348
Running threw: /x/

tryItOut 349

tryItOut 350
Running threw: [object StopIteration]

tryItOut 351
It's an iterator!
Iterating threw!
Iterating threw: TypeError: arguments[0] has no properties

tryItOut 352

tryItOut 353
Compiling threw: SyntaxError: label not found

tryItOut 354
Compiling threw: SyntaxError: missing variable name

tryItOut 355

tryItOut 356
Running threw: ReferenceError: reference to undefined XML name @mozilla.org/js/function::constructor

tryItOut 357
Compiling threw: SyntaxError: invalid for/in left-hand side

tryItOut 358

tryItOut 359
It's an iterator!
Iterating threw!
Iterating threw: TypeError: null has no properties

tryItOut 360
It's an iterator!
Iterating succeeded, iterCount == 1

tryItOut 361
Compiling threw: SyntaxError: missing variable name

tryItOut 362

tryItOut 363
It's an iterator!
Iterating threw!
Iterating threw: TypeError: <x>
  <y/>
</x> is not a function

tryItOut 364
Running threw: /x/g

tryItOut 365

tryItOut 366
Compiling threw: SyntaxError: missing ] after element list

tryItOut 367
It's an iterator!
Iterating succeeded, iterCount == 1

tryItOut 368
Compiling threw: TypeError: redeclaration of variable __parent__

tryItOut 369
Compiling threw: SyntaxError: missing variable name

tryItOut 370
Compiling threw: SyntaxError: missing ] after element list

tryItOut 371

tryItOut 372

tryItOut 373
Compiling threw: SyntaxError: illegal XML character

tryItOut 374
Compiling threw: SyntaxError: syntax error

tryItOut 375

tryItOut 376
Compiling threw: SyntaxError: syntax error

tryItOut 377
Compiling threw: SyntaxError: syntax error

tryItOut 378
It's an iterator!
Iterating succeeded, iterCount == 1

tryItOut 379

tryItOut 380
Compiling threw: SyntaxError: invalid increment operand

tryItOut 381
Compiling threw: SyntaxError: syntax error

tryItOut 382

tryItOut 383
Compiling threw: SyntaxError: invalid for/in left-hand side

tryItOut 384
Compiling threw: TypeError: generator function anonymous returns a value

tryItOut 385

tryItOut 386

tryItOut 387
Running threw: [object StopIteration]

tryItOut 388

tryItOut 389
Compiling threw: SyntaxError: missing formal parameter

tryItOut 390
Compiling threw: SyntaxError: label not found

tryItOut 391

tryItOut 392

tryItOut 393
Compiling threw: SyntaxError: invalid decrement operand

tryItOut 394

tryItOut 395

tryItOut 396

tryItOut 397
Compiling threw: SyntaxError: syntax error

tryItOut 398
Compiling threw: SyntaxError: missing ) in parenthetical

tryItOut 399
Running threw: TypeError: "" is not a constructor

tryItOut 400

tryItOut 401

tryItOut 402
Running threw: [object StopIteration]

tryItOut 403
Compiling threw: SyntaxError: invalid assignment left-hand side

tryItOut 404
It's an iterator!
Iterating succeeded, iterCount == 1

tryItOut 405

tryItOut 406
Compiling threw: SyntaxError: missing = in destructuring declaration

tryItOut 407
Compiling threw: TypeError: redeclaration of const constructor

tryItOut 408
Compiling threw: SyntaxError: syntax error

tryItOut 409
It's an iterator!
Iterating succeeded, iterCount == 1

tryItOut 410
It's an iterator!
Iterating succeeded, iterCount == 1

tryItOut 411
Compiling threw: SyntaxError: label not found

tryItOut 412
It's an iterator!
Iterating succeeded, iterCount == 1

tryItOut 413
Running threw: <x>
  <y/>
</x>

tryItOut 414

tryItOut 415
Compiling threw: SyntaxError: label not found

tryItOut 416

tryItOut 417
Compiling threw: SyntaxError: missing ) in parenthetical

tryItOut 418
It's an iterator!
Iterating succeeded, iterCount == 1

tryItOut 419

tryItOut 420
Compiling threw: SyntaxError: missing : after property id

tryItOut 421
Running threw: Error: invalid sharp variable use #1#

tryItOut 422

tryItOut 423
Compiling threw: SyntaxError: syntax error

tryItOut 424
Compiling threw: SyntaxError: missing : after property id

tryItOut 425
Compiling threw: TypeError: redeclaration of var __parent__

tryItOut 426
Compiling threw: SyntaxError: invalid break

tryItOut 427
Compiling threw: SyntaxError: label not found

tryItOut 428
Compiling threw: SyntaxError: label not found

tryItOut 429
Compiling threw: SyntaxError: missing ) in parenthetical

tryItOut 430
Running threw: ReferenceError: __parent__ is not defined

tryItOut 431

tryItOut 432

tryItOut 433

tryItOut 434

tryItOut 435

tryItOut 436
Running threw: ReferenceError: __parent__ is not defined

tryItOut 437
Compiling threw: SyntaxError: label not found

tryItOut 438
Compiling threw: SyntaxError: invalid decrement operand

tryItOut 439
Running threw: <x>
  <y/>
</x>

tryItOut 440
Compiling threw: SyntaxError: syntax error

tryItOut 441

tryItOut 442

tryItOut 443
Compiling threw: SyntaxError: missing variable name

tryItOut 444
Running threw: TypeError: /x/ is not a constructor

tryItOut 445
Compiling threw: SyntaxError: syntax error

tryItOut 446

tryItOut 447

tryItOut 448

tryItOut 449

tryItOut 450

tryItOut 451
Compiling threw: SyntaxError: syntax error

tryItOut 452
Compiling threw: SyntaxError: illegal XML character

tryItOut 453
Compiling threw: TypeError: generator function anonymous returns a value

tryItOut 454
Compiling threw: SyntaxError: missing ; before statement

tryItOut 455
Compiling threw: SyntaxError: invalid assignment left-hand side

tryItOut 456
Compiling threw: SyntaxError: syntax error

tryItOut 457

tryItOut 458
Running threw: 

tryItOut 459

tryItOut 460

tryItOut 461

tryItOut 462
Compiling threw: SyntaxError: label not found

tryItOut 463

tryItOut 464
Running threw: ReferenceError: __proto__ is not defined

tryItOut 465
Running threw: <x>
  <y/>
</x>

tryItOut 466

tryItOut 467

tryItOut 468

tryItOut 469

tryItOut 470
Compiling threw: SyntaxError: syntax error

tryItOut 471

tryItOut 472

tryItOut 473
Running threw: <x>
  <y/>
</x>

tryItOut 474

tryItOut 475

tryItOut 476

tryItOut 477
Compiling threw: TypeError: generator function anonymous returns a value

tryItOut 478

tryItOut 479
It's an iterator!
Iterating threw!
Iterating threw: ReferenceError: z2 is not defined

tryItOut 480
Compiling threw: SyntaxError: invalid break

tryItOut 481
Compiling threw: SyntaxError: label not found

tryItOut 482

tryItOut 483
Compiling threw: SyntaxError: invalid for/in left-hand side

tryItOut 484
It's an iterator!
Iterating succeeded, iterCount == 1

tryItOut 485

tryItOut 486
Compiling threw: SyntaxError: invalid break

tryItOut 487
Running threw: TypeError: <x>
  <y/>
</x> is not a function

tryItOut 488

tryItOut 489

tryItOut 490

tryItOut 491
Compiling threw: SyntaxError: missing : after property id

tryItOut 492
Compiling threw: SyntaxError: invalid XML name

tryItOut 493
Compiling threw: SyntaxError: duplicate label

tryItOut 494
Compiling threw: SyntaxError: missing : after property id

tryItOut 495

tryItOut 496
Compiling threw: SyntaxError: syntax error

tryItOut 497

tryItOut 498

tryItOut 499

tryItOut 500
Compiling threw: SyntaxError: syntax error

tryItOut 501
It's an iterator!
Iterating threw!
Iterating threw: ReferenceError: z1 is not defined

tryItOut 502

tryItOut 503
Running threw: <x>
  <y/>
</x>

tryItOut 504
It's an iterator!
Iterating threw!
Iterating threw: TypeError: arguments[0] has no properties

tryItOut 505
Compiling threw: SyntaxError: missing ) in parenthetical

tryItOut 506

tryItOut 507
It's an iterator!
Iterating succeeded, iterCount == 1

tryItOut 508

tryItOut 509
Compiling threw: TypeError: generator function anonymous returns a value

tryItOut 510

tryItOut 511

tryItOut 512
Compiling threw: SyntaxError: missing name after . operator

tryItOut 513

tryItOut 514
Compiling threw: SyntaxError: label not found

tryItOut 515

tryItOut 516

tryItOut 517

tryItOut 518

tryItOut 519
Compiling threw: TypeError: generator function anonymous returns a value

tryItOut 520
Compiling threw: SyntaxError: label not found

tryItOut 521
Compiling threw: TypeError: redeclaration of variable prop

tryItOut 522

tryItOut 523
Compiling threw: SyntaxError: invalid increment operand

tryItOut 524

tryItOut 525
Compiling threw: SyntaxError: missing ; after for-loop initializer

tryItOut 526
Running threw: [object StopIteration]

tryItOut 527
Compiling threw: SyntaxError: syntax error

tryItOut 528
Compiling threw: SyntaxError: missing ] after element list

tryItOut 529
Running threw: SyntaxError: invalid setter usage

tryItOut 530
Compiling threw: SyntaxError: invalid for/in left-hand side

tryItOut 531
It's an iterator!
Iterating succeeded, iterCount == 1

tryItOut 532
Compiling threw: SyntaxError: missing ] after element list

tryItOut 533
Compiling threw: TypeError: redeclaration of var prop

tryItOut 534
Compiling threw: SyntaxError: invalid destructuring assignment operator

tryItOut 535
Compiling threw: SyntaxError: syntax error

tryItOut 536

tryItOut 537
Running threw: TypeError: false is not a function

tryItOut 538
Compiling threw: SyntaxError: invalid for/in left-hand side

tryItOut 539

tryItOut 540
Running threw: [object StopIteration]

tryItOut 541

tryItOut 542
Compiling threw: SyntaxError: missing { before function body

tryItOut 543
Compiling threw: SyntaxError: missing ; before statement

tryItOut 544

tryItOut 545

tryItOut 546

tryItOut 547
Compiling threw: SyntaxError: illegal XML character

tryItOut 548

tryItOut 549
Running threw: TypeError: undefined has no properties

tryItOut 550
It's an iterator!
Iterating succeeded, iterCount == 1

tryItOut 551

tryItOut 552
Compiling threw: SyntaxError: missing variable name

tryItOut 553
Compiling threw: SyntaxError: duplicate label

tryItOut 554
Running threw: [object Object]

tryItOut 555

tryItOut 556
Compiling threw: SyntaxError: invalid XML tag syntax

tryItOut 557
Compiling threw: SyntaxError: missing ] after element list

tryItOut 558
Running threw: [object StopIteration]

tryItOut 559

tryItOut 560

tryItOut 561

tryItOut 562

tryItOut 563
Compiling threw: SyntaxError: invalid for/in left-hand side

tryItOut 564

tryItOut 565
Compiling threw: SyntaxError: label not found

tryItOut 566

tryItOut 567
Compiling threw: SyntaxError: invalid decrement operand

tryItOut 568
Compiling threw: SyntaxError: invalid for/in left-hand side

tryItOut 569

tryItOut 570
It's an iterator!
Iterating succeeded, iterCount == 1

tryItOut 571

tryItOut 572

tryItOut 573
Compiling threw: SyntaxError: missing variable name

tryItOut 574
Running threw: TypeError: false.__lookupGetter__("__noSuchMethod__") has no properties

tryItOut 575

tryItOut 576

tryItOut 577
Compiling threw: SyntaxError: invalid break

tryItOut 578
Compiling threw: SyntaxError: invalid assignment left-hand side

tryItOut 579
Compiling threw: SyntaxError: syntax error

tryItOut 580
Running threw: TypeError: <x>
  <y/>
</x> is not a function

tryItOut 581

tryItOut 582

tryItOut 583

tryItOut 584
Compiling threw: TypeError: generator function anonymous returns a value

tryItOut 585

tryItOut 586

tryItOut 587
Running threw: TypeError: arguments[0] has no properties

tryItOut 588
Compiling threw: SyntaxError: invalid continue

tryItOut 589
Compiling threw: SyntaxError: invalid property id

tryItOut 590
Compiling threw: SyntaxError: missing variable name

tryItOut 591
Running threw: [object Object]

tryItOut 592
It's an iterator!
Iterating threw!
Iterating threw: null

tryItOut 593
Running threw: <x>
  <y/>
</x>

tryItOut 594
Compiling threw: SyntaxError: missing variable name

tryItOut 595
Compiling threw: SyntaxError: invalid continue

tryItOut 596
Compiling threw: SyntaxError: missing variable name

tryItOut 597
Compiling threw: SyntaxError: missing ) in parenthetical

tryItOut 598
Compiling threw: TypeError: generator function anonymous returns a value

tryItOut 599

tryItOut 600
Compiling threw: SyntaxError: duplicate label

tryItOut 601
Compiling threw: SyntaxError: invalid sharp variable definition

tryItOut 602

tryItOut 603
Compiling threw: SyntaxError: illegal XML character

tryItOut 604
Compiling threw: SyntaxError: invalid for/in left-hand side

tryItOut 605

tryItOut 606

tryItOut 607
Compiling threw: SyntaxError: missing variable name

tryItOut 608
Compiling threw: SyntaxError: missing variable name

tryItOut 609
It's an iterator!
Iterating threw!
Iterating threw: TypeError: null has no properties

tryItOut 610
Compiling threw: SyntaxError: missing variable name

tryItOut 611
Compiling threw: TypeError: generator function anonymous returns a value

tryItOut 612

tryItOut 613
Compiling threw: SyntaxError: missing ; after for-loop initializer

tryItOut 614

tryItOut 615
Compiling threw: SyntaxError: invalid decrement operand

tryItOut 616

tryItOut 617
Running threw: <x>
  <y/>
</x>

tryItOut 618
Compiling threw: TypeError: redeclaration of var __parent__

tryItOut 619
Running threw: <x>
  <y/>
</x>

tryItOut 620
Compiling threw: SyntaxError: duplicate label

tryItOut 621
Compiling threw: SyntaxError: invalid assignment left-hand side

tryItOut 622
Compiling threw: SyntaxError: missing : after property id

tryItOut 623

tryItOut 624

tryItOut 625
Compiling threw: SyntaxError: invalid assignment left-hand side

tryItOut 626
Compiling threw: SyntaxError: invalid assignment left-hand side

tryItOut 627
Compiling threw: SyntaxError: label not found

tryItOut 628

tryItOut 629
Compiling threw: SyntaxError: syntax error

tryItOut 630
It's an iterator!
Iterating succeeded, iterCount == 2

tryItOut 631
Compiling threw: SyntaxError: missing ; after for-loop initializer

tryItOut 632
Compiling threw: SyntaxError: invalid property id

tryItOut 633
Compiling threw: SyntaxError: missing ) in parenthetical

tryItOut 634

tryItOut 635

tryItOut 636
Compiling threw: SyntaxError: missing ] after element list

tryItOut 637

tryItOut 638
Compiling threw: SyntaxError: missing variable name

tryItOut 639

tryItOut 640
Compiling threw: SyntaxError: missing variable name

tryItOut 641

tryItOut 642

tryItOut 643

tryItOut 644

tryItOut 645

tryItOut 646
uneval returned the string: ({a1:1})
Skipping re-eval test

tryItOut 647

tryItOut 648

tryItOut 649
Running threw: ReferenceError: yyy is not defined

tryItOut 650
Compiling threw: SyntaxError: missing variable name

tryItOut 651
Compiling threw: SyntaxError: invalid for/in left-hand side

tryItOut 652
It's an iterator!
Iterating succeeded, iterCount == 1

tryItOut 653
Compiling threw: SyntaxError: invalid break

tryItOut 654
Compiling threw: SyntaxError: missing ) after condition

tryItOut 655
It's an iterator!
Iterating succeeded, iterCount == 1

tryItOut 656

tryItOut 657
Compiling threw: SyntaxError: invalid assignment left-hand side

tryItOut 658

tryItOut 659
Compiling threw: SyntaxError: invalid break

tryItOut 660
Compiling threw: SyntaxError: illegal XML character

tryItOut 661

tryItOut 662
Compiling threw: SyntaxError: invalid continue

tryItOut 663
Compiling threw: SyntaxError: invalid assignment left-hand side

tryItOut 664

tryItOut 665
It's an iterator!
Iterating succeeded, iterCount == 1

tryItOut 666

tryItOut 667
Compiling threw: SyntaxError: invalid assignment left-hand side

tryItOut 668

tryItOut 669
Compiling threw: SyntaxError: missing variable name

tryItOut 670
Compiling threw: SyntaxError: missing ) in parenthetical

tryItOut 671

tryItOut 672
Compiling threw: SyntaxError: missing variable name

tryItOut 673
Compiling threw: SyntaxError: label not found

tryItOut 674

tryItOut 675
Compiling threw: SyntaxError: missing ; before statement

tryItOut 676

tryItOut 677
Compiling threw: SyntaxError: missing variable name

tryItOut 678

tryItOut 679
Compiling threw: SyntaxError: syntax error

tryItOut 680
Running threw: ReferenceError: z1 is not defined

tryItOut 681
Running threw: ReferenceError: z1 is not defined

tryItOut 682
Compiling threw: SyntaxError: label not found

tryItOut 683

tryItOut 684

tryItOut 685
Running threw: 

tryItOut 686
Compiling threw: SyntaxError: missing : after property id

tryItOut 687

tryItOut 688
Compiling threw: SyntaxError: missing = in destructuring declaration

tryItOut 689

tryItOut 690

tryItOut 691
Compiling threw: SyntaxError: invalid continue

tryItOut 692

tryItOut 693

tryItOut 694

tryItOut 695
Compiling threw: SyntaxError: label not found

tryItOut 696
Compiling threw: SyntaxError: syntax error

tryItOut 697
Compiling threw: TypeError: generator function anonymous returns a value

tryItOut 698

tryItOut 699
Compiling threw: SyntaxError: missing ; before statement

tryItOut 700
Compiling threw: SyntaxError: duplicate label

tryItOut 701

tryItOut 702

tryItOut 703

tryItOut 704
Compiling threw: SyntaxError: invalid continue

tryItOut 705
Compiling threw: SyntaxError: invalid increment operand

tryItOut 706

tryItOut 707
Running threw: Error: invalid sharp variable use #1#

tryItOut 708
Compiling threw: SyntaxError: invalid for/in left-hand side

tryItOut 709
Running threw: ReferenceError: z1 is not defined

tryItOut 710

tryItOut 711
Compiling threw: SyntaxError: label not found

tryItOut 712
Running threw: undefined

tryItOut 713
It's an iterator!
Iterating threw!
Iterating threw: Error: invalid sharp variable use #1#

tryItOut 714
Compiling threw: SyntaxError: invalid increment operand

tryItOut 715
Compiling threw: SyntaxError: invalid break

tryItOut 716
Compiling threw: SyntaxError: invalid assignment left-hand side

tryItOut 717
Compiling threw: TypeError: generator function anonymous returns a value

tryItOut 718
Compiling threw: SyntaxError: syntax error

tryItOut 719
It's an iterator!
Iterating threw!
Iterating threw: TypeError: undefined has no properties

tryItOut 720

tryItOut 721

tryItOut 722
Compiling threw: SyntaxError: syntax error

tryItOut 723

tryItOut 724

tryItOut 725
Compiling threw: SyntaxError: invalid for/in left-hand side

tryItOut 726
Compiling threw: SyntaxError: missing variable name

tryItOut 727

tryItOut 728

tryItOut 729
Running threw: true

tryItOut 730
It's an iterator!
Iterating succeeded, iterCount == 0

tryItOut 731
Compiling threw: SyntaxError: missing = in destructuring declaration

tryItOut 732
Compiling threw: SyntaxError: missing variable name

tryItOut 733

tryItOut 734
Compiling threw: SyntaxError: illegal XML character

tryItOut 735
It's an iterator!
Iterating succeeded, iterCount == 1

tryItOut 736
Compiling threw: SyntaxError: missing ] after element list

tryItOut 737

tryItOut 738

tryItOut 739
Compiling threw: SyntaxError: duplicate label

tryItOut 740
Compiling threw: SyntaxError: invalid decrement operand

tryItOut 741

tryItOut 742
Compiling threw: SyntaxError: invalid continue

tryItOut 743

tryItOut 744
Compiling threw: SyntaxError: missing ; before statement

tryItOut 745
Running threw: [object StopIteration]

tryItOut 746
Compiling threw: SyntaxError: syntax error

tryItOut 747

tryItOut 748
It's an iterator!
Iterating succeeded, iterCount == 2

tryItOut 749

tryItOut 750

tryItOut 751
Compiling threw: SyntaxError: syntax error

tryItOut 752
Compiling threw: SyntaxError: missing variable name

tryItOut 753

tryItOut 754
Compiling threw: SyntaxError: missing ] after element list

tryItOut 755
It's an iterator!
Iterating succeeded, iterCount == 1

tryItOut 756
Compiling threw: SyntaxError: invalid for/in left-hand side

tryItOut 757

tryItOut 758
Compiling threw: SyntaxError: missing ; after for-loop initializer

tryItOut 759
Compiling threw: SyntaxError: missing ] after element list

tryItOut 760
Compiling threw: TypeError: generator function anonymous returns a value

tryItOut 761
Compiling threw: SyntaxError: invalid for/in left-hand side

tryItOut 762
Compiling threw: SyntaxError: syntax error

tryItOut 763
Compiling threw: SyntaxError: missing : after property id

tryItOut 764

tryItOut 765
Compiling threw: SyntaxError: missing variable name

tryItOut 766

tryItOut 767
Compiling threw: SyntaxError: invalid sharp variable definition

tryItOut 768

tryItOut 769
Compiling threw: SyntaxError: missing ; before statement

tryItOut 770
Compiling threw: SyntaxError: missing variable name

tryItOut 771
Compiling threw: SyntaxError: syntax error

tryItOut 772
Compiling threw: SyntaxError: duplicate label

tryItOut 773

tryItOut 774

tryItOut 775
Compiling threw: SyntaxError: label not found

tryItOut 776
Compiling threw: TypeError: generator function anonymous returns a value

tryItOut 777

tryItOut 778
Running threw: [object Object]

tryItOut 779
Compiling threw: SyntaxError: invalid decrement operand

tryItOut 780
Compiling threw: SyntaxError: syntax error

tryItOut 781

tryItOut 782
Compiling threw: SyntaxError: missing : after property id

tryItOut 783
It's an iterator!
Iterating succeeded, iterCount == 1

tryItOut 784
Compiling threw: SyntaxError: invalid assignment left-hand side

tryItOut 785
Compiling threw: SyntaxError: invalid continue

tryItOut 786
Compiling threw: SyntaxError: invalid break

tryItOut 787

tryItOut 788

tryItOut 789
Running threw: [object Object]

tryItOut 790
Compiling threw: TypeError: redeclaration of const __count__

tryItOut 791
Running threw: <x>
  <y/>
</x>

tryItOut 792
Compiling threw: TypeError: generator function anonymous returns a value

tryItOut 793
Compiling threw: SyntaxError: missing variable name

tryItOut 794
It's an iterator!
Iterating succeeded, iterCount == 0

tryItOut 795

tryItOut 796

tryItOut 797

tryItOut 798
Compiling threw: TypeError: generator function anonymous returns a value

tryItOut 799

tryItOut 800
Compiling threw: SyntaxError: invalid decrement operand

tryItOut 801

tryItOut 802

tryItOut 803
Compiling threw: SyntaxError: syntax error

tryItOut 804
Compiling threw: SyntaxError: invalid XML name

tryItOut 805

tryItOut 806
Compiling threw: TypeError: generator function anonymous returns a value

tryItOut 807

tryItOut 808
Compiling threw: SyntaxError: invalid break

tryItOut 809
Compiling threw: SyntaxError: label not found

tryItOut 810

tryItOut 811
Compiling threw: SyntaxError: missing formal parameter

tryItOut 812
It's an iterator!
Iterating succeeded, iterCount == 1

tryItOut 813
Running threw: [object StopIteration]

tryItOut 814

tryItOut 815
Compiling threw: SyntaxError: duplicate label

tryItOut 816

tryItOut 817
Compiling threw: SyntaxError: missing { before function body

tryItOut 818

tryItOut 819
Compiling threw: SyntaxError: syntax error

tryItOut 820
Compiling threw: SyntaxError: invalid for/in left-hand side

tryItOut 821
Compiling threw: SyntaxError: invalid for/in left-hand side

tryItOut 822

tryItOut 823
Running threw: ReferenceError: z1 is not defined

tryItOut 824
Compiling threw: SyntaxError: missing variable name

tryItOut 825

tryItOut 826
It's an iterator!
Iterating threw!
Iterating threw: TypeError: null has no properties

tryItOut 827
Compiling threw: SyntaxError: missing = in destructuring declaration

tryItOut 828

tryItOut 829

tryItOut 830

tryItOut 831
Compiling threw: SyntaxError: missing ] after element list

tryItOut 832
Running threw: TypeError: <x><y/></x>.__lookupSetter__("__iterator__") has no properties

tryItOut 833

tryItOut 834
Compiling threw: SyntaxError: missing ) in parenthetical

tryItOut 835
Compiling threw: SyntaxError: missing ; before statement

tryItOut 836
Running threw: [object Object]

tryItOut 837
Compiling threw: SyntaxError: missing variable name

tryItOut 838
It's an iterator!
Iterating succeeded, iterCount == 1

tryItOut 839

tryItOut 840
It's an iterator!
Iterating succeeded, iterCount == 1

tryItOut 841
Compiling threw: SyntaxError: invalid XML name

tryItOut 842

tryItOut 843
Compiling threw: SyntaxError: syntax error

tryItOut 844

tryItOut 845

tryItOut 846
Compiling threw: SyntaxError: syntax error

tryItOut 847
Compiling threw: SyntaxError: invalid continue

tryItOut 848
Compiling threw: SyntaxError: syntax error

tryItOut 849
Running threw: <x>
  <y/>
</x>

tryItOut 850

tryItOut 851
Compiling threw: SyntaxError: syntax error

tryItOut 852
Compiling threw: SyntaxError: illegal XML character

tryItOut 853

tryItOut 854
Compiling threw: SyntaxError: missing ] after element list

tryItOut 855
It's an iterator!
Iterating succeeded, iterCount == 1

tryItOut 856

tryItOut 857
Compiling threw: SyntaxError: missing ) in parenthetical

tryItOut 858
Compiling threw: SyntaxError: duplicate label

tryItOut 859
Compiling threw: SyntaxError: missing ] after element list

tryItOut 860

tryItOut 861

tryItOut 862
It's an iterator!
Iterating succeeded, iterCount == 1

tryItOut 863

tryItOut 864
Compiling threw: SyntaxError: invalid for/in left-hand side

tryItOut 865
Compiling threw: SyntaxError: syntax error

tryItOut 866
It's an iterator!
Iterating threw!
Iterating threw: ReferenceError: z2 is not defined

tryItOut 867
It's an iterator!
Iterating succeeded, iterCount == 4

tryItOut 868

tryItOut 869
Compiling threw: TypeError: generator function anonymous returns a value

tryItOut 870
It's an iterator!
Iterating succeeded, iterCount == 0

tryItOut 871

tryItOut 872
Compiling threw: SyntaxError: syntax error

tryItOut 873
Compiling threw: SyntaxError: duplicate label

tryItOut 874
It's an iterator!
Iterating threw!
Iterating threw: ReferenceError: z1 is not defined

tryItOut 875

tryItOut 876
Compiling threw: SyntaxError: invalid decrement operand

tryItOut 877

tryItOut 878
It's an iterator!
Iterating succeeded, iterCount == 0

tryItOut 879

tryItOut 880
Compiling threw: SyntaxError: syntax error

tryItOut 881
Compiling threw: SyntaxError: label not found

tryItOut 882

tryItOut 883

tryItOut 884

tryItOut 885

tryItOut 886
Compiling threw: SyntaxError: invalid for/in left-hand side

tryItOut 887
Compiling threw: SyntaxError: invalid for/in left-hand side

tryItOut 888
Compiling threw: SyntaxError: syntax error

tryItOut 889
Compiling threw: SyntaxError: invalid for/in left-hand side

tryItOut 890
Compiling threw: SyntaxError: missing formal parameter

tryItOut 891
Compiling threw: SyntaxError: missing : after property id

tryItOut 892
Running threw: 1

tryItOut 893
Compiling threw: SyntaxError: invalid decrement operand

tryItOut 894
Compiling threw: SyntaxError: label not found

tryItOut 895

tryItOut 896
Compiling threw: SyntaxError: missing variable name

tryItOut 897
Compiling threw: SyntaxError: syntax error

tryItOut 898
Compiling threw: TypeError: generator function anonymous returns a value

tryItOut 899
Compiling threw: SyntaxError: invalid for/in left-hand side

tryItOut 900
Compiling threw: SyntaxError: syntax error

tryItOut 901
Compiling threw: SyntaxError: missing variable name

tryItOut 902
Compiling threw: SyntaxError: invalid for/in left-hand side

tryItOut 903
Compiling threw: SyntaxError: invalid for/in left-hand side

tryItOut 904
Compiling threw: SyntaxError: missing variable name

tryItOut 905
Running threw: [object StopIteration]

tryItOut 906

tryItOut 907

tryItOut 908
Compiling threw: SyntaxError: invalid assignment left-hand side

tryItOut 909

tryItOut 910
Compiling threw: SyntaxError: label not found

tryItOut 911
Compiling threw: SyntaxError: missing variable name

tryItOut 912

tryItOut 913
It's an iterator!
Iterating succeeded, iterCount == 1

tryItOut 914
Compiling threw: SyntaxError: syntax error

tryItOut 915
Compiling threw: SyntaxError: invalid XML qualified name

tryItOut 916
Compiling threw: SyntaxError: invalid continue

tryItOut 917
Compiling threw: TypeError: redeclaration of variable __noSuchMethod__

tryItOut 918
Compiling threw: SyntaxError: missing variable name

tryItOut 919
Compiling threw: SyntaxError: syntax error

tryItOut 920
Compiling threw: SyntaxError: invalid XML tag syntax

tryItOut 921
Compiling threw: SyntaxError: invalid continue

tryItOut 922

tryItOut 923

tryItOut 924
Compiling threw: SyntaxError: label not found

tryItOut 925
Running threw: [object StopIteration]

tryItOut 926
It's an iterator!
Iterating threw!
Iterating threw: ReferenceError: z1 is not defined

tryItOut 927
Compiling threw: SyntaxError: label not found

tryItOut 928
Compiling threw: SyntaxError: missing variable name

tryItOut 929
Compiling threw: SyntaxError: invalid for/in left-hand side

tryItOut 930
Compiling threw: SyntaxError: label not found

tryItOut 931

tryItOut 932
Running threw: [object StopIteration]

tryItOut 933

tryItOut 934
Compiling threw: SyntaxError: invalid assignment left-hand side

tryItOut 935
Compiling threw: TypeError: generator function anonymous returns a value

tryItOut 936
Compiling threw: SyntaxError: syntax error

tryItOut 937
Compiling threw: TypeError: generator function anonymous returns a value

tryItOut 938

tryItOut 939
It's an iterator!
Iterating succeeded, iterCount == 0

tryItOut 940
Compiling threw: TypeError: generator function anonymous returns a value

tryItOut 941
Compiling threw: SyntaxError: invalid decrement operand

tryItOut 942

tryItOut 943

tryItOut 944

tryItOut 945
It's an iterator!
Iterating succeeded, iterCount == 1

tryItOut 946
Compiling threw: SyntaxError: invalid assignment left-hand side

tryItOut 947
Compiling threw: SyntaxError: missing formal parameter

tryItOut 948

tryItOut 949
Compiling threw: SyntaxError: invalid default XML namespace

tryItOut 950

tryItOut 951
Compiling threw: SyntaxError: missing ] after element list

tryItOut 952
It's an iterator!
Iterating threw!
Iterating threw: ReferenceError: z1 is not defined

tryItOut 953
Compiling threw: SyntaxError: invalid XML name

tryItOut 954
Compiling threw: SyntaxError: invalid continue

tryItOut 955
Compiling threw: SyntaxError: invalid assignment left-hand side

tryItOut 956

tryItOut 957
Compiling threw: SyntaxError: syntax error

tryItOut 958

tryItOut 959

tryItOut 960
Running threw: TypeError: arguments[0] has no properties

tryItOut 961
Compiling threw: SyntaxError: syntax error

tryItOut 962
Compiling threw: SyntaxError: invalid decrement operand

tryItOut 963
Running threw: <x>
  <y/>
</x>

tryItOut 964
Compiling threw: SyntaxError: invalid flag after regular expression

tryItOut 965

tryItOut 966

tryItOut 967

tryItOut 968
Compiling threw: SyntaxError: invalid continue

tryItOut 969
Compiling threw: SyntaxError: label not found

tryItOut 970
Compiling threw: TypeError: generator function anonymous returns a value

tryItOut 971
Compiling threw: SyntaxError: missing identifier in catch

tryItOut 972

tryItOut 973
It's an iterator!
Iterating threw!
Iterating threw: ReferenceError: z1 is not defined

tryItOut 974
Compiling threw: SyntaxError: missing : after property id

tryItOut 975

tryItOut 976

tryItOut 977

tryItOut 978

tryItOut 979

tryItOut 980
Running threw: TypeError: ({a1:1}) is not a function

tryItOut 981
Compiling threw: TypeError: redeclaration of const __proto__

tryItOut 982
Compiling threw: SyntaxError: invalid continue

tryItOut 983

tryItOut 984
Running threw: <x>
  <y/>
</x>

tryItOut 985

tryItOut 986
Running threw: TypeError: "" is not a function

tryItOut 987

tryItOut 988
Compiling threw: SyntaxError: illegal XML character

tryItOut 989

tryItOut 990
Compiling threw: SyntaxError: missing : after property id

tryItOut 991
Compiling threw: SyntaxError: syntax error

tryItOut 992
Compiling threw: SyntaxError: duplicate label

tryItOut 993

tryItOut 994
Compiling threw: TypeError: generator function anonymous returns a value

tryItOut 995

tryItOut 996
It's an iterator!
Iterating succeeded, iterCount == 1

tryItOut 997
Compiling threw: SyntaxError: missing ) after switch expression

tryItOut 998
Compiling threw: SyntaxError: invalid continue

tryItOut 999

tryItOut 1000
It's an iterator!
Iterating succeeded, iterCount == 1

ALL OK

Script done on Sat 04 May 2013 04:56:03 AM PDT
