Script started on Sat 04 May 2013 06:59:34 AM PDT
***
Targeting SpiderMonkey / Gecko.

tryItOut 1
Compiling threw: SyntaxError: invalid assignment left-hand side

tryItOut 2
Compiling threw: SyntaxError: missing { before function body

tryItOut 3
Compiling threw: SyntaxError: syntax error

tryItOut 4
Running threw: ReferenceError: __noSuchMethod__ is not defined

tryItOut 5

tryItOut 6
Compiling threw: SyntaxError: missing { before function body

tryItOut 7

tryItOut 8

tryItOut 9
Compiling threw: SyntaxError: missing ) in parenthetical

tryItOut 10
Compiling threw: SyntaxError: missing ; after for-loop initializer

tryItOut 11

tryItOut 12
Compiling threw: SyntaxError: invalid for/in left-hand side

tryItOut 13
Compiling threw: SyntaxError: invalid break

tryItOut 14
Compiling threw: SyntaxError: label not found

tryItOut 15
Compiling threw: SyntaxError: invalid continue

tryItOut 16
Compiling threw: SyntaxError: missing ; before statement

tryItOut 17
Compiling threw: TypeError: generator function anonymous returns a value

tryItOut 18
Compiling threw: SyntaxError: invalid assignment left-hand side

tryItOut 19
Compiling threw: SyntaxError: missing variable name

tryItOut 20
Compiling threw: SyntaxError: invalid assignment left-hand side

tryItOut 21
Running threw: ReferenceError: yyy is not defined

tryItOut 22
Running threw: TypeError: this.zzz has no properties

tryItOut 23
Compiling threw: SyntaxError: missing = in destructuring declaration

tryItOut 24
Compiling threw: SyntaxError: invalid XML name

tryItOut 25
It's an iterator!
Iterating succeeded, iterCount == 1

tryItOut 26
Compiling threw: SyntaxError: invalid for/in left-hand side

tryItOut 27
Compiling threw: SyntaxError: invalid for/in left-hand side

tryItOut 28
Running threw: ReferenceError: prop is not defined

tryItOut 29
Running threw: ReferenceError: z1 is not defined

tryItOut 30
Compiling threw: SyntaxError: label not found

tryItOut 31

tryItOut 32
Compiling threw: SyntaxError: missing ) in parenthetical

tryItOut 33
Compiling threw: SyntaxError: invalid assignment left-hand side

tryItOut 34
Compiling threw: SyntaxError: label not found

tryItOut 35

tryItOut 36
Compiling threw: SyntaxError: syntax error

tryItOut 37
Compiling threw: SyntaxError: invalid assignment left-hand side

tryItOut 38

tryItOut 39
Compiling threw: SyntaxError: missing variable name

tryItOut 40
Compiling threw: TypeError: anonymous generator function returns a value

tryItOut 41
Compiling threw: SyntaxError: invalid XML name

tryItOut 42
Compiling threw: SyntaxError: syntax error

tryItOut 43
Compiling threw: SyntaxError: missing { before function body

tryItOut 44
Compiling threw: SyntaxError: invalid assignment left-hand side

tryItOut 45
Running threw: ReferenceError: yyy is not defined

tryItOut 46
Compiling threw: SyntaxError: missing variable name

tryItOut 47
Compiling threw: SyntaxError: missing ) after argument list

tryItOut 48
Compiling threw: SyntaxError: invalid assignment left-hand side

tryItOut 49
Compiling threw: SyntaxError: invalid assignment left-hand side

tryItOut 50
Running threw: Error: invalid sharp variable use #1#

tryItOut 51
Compiling threw: SyntaxError: syntax error

tryItOut 52
Compiling threw: SyntaxError: illegal XML character

tryItOut 53
Compiling threw: TypeError: anonymous generator function returns a value

tryItOut 54
Compiling threw: SyntaxError: invalid break

tryItOut 55

tryItOut 56

tryItOut 57
Compiling threw: SyntaxError: invalid XML name

tryItOut 58
Compiling threw: SyntaxError: invalid XML tag syntax

tryItOut 59
Compiling threw: SyntaxError: invalid for/in left-hand side

tryItOut 60
Compiling threw: SyntaxError: invalid continue

tryItOut 61
Compiling threw: SyntaxError: invalid increment operand

tryItOut 62
Compiling threw: SyntaxError: invalid break

tryItOut 63
Compiling threw: SyntaxError: syntax error

tryItOut 64
Compiling threw: SyntaxError: invalid for/in left-hand side

tryItOut 65
Compiling threw: SyntaxError: missing variable name

tryItOut 66
It's an iterator!
Iterating succeeded, iterCount == 1

tryItOut 67

tryItOut 68
Running threw: ReferenceError: prop is not defined

tryItOut 69
Compiling threw: SyntaxError: syntax error

tryItOut 70
Compiling threw: SyntaxError: invalid assignment left-hand side

tryItOut 71

tryItOut 72
Compiling threw: SyntaxError: missing ; after for-loop initializer

tryItOut 73
Compiling threw: SyntaxError: syntax error

tryItOut 74

tryItOut 75
Compiling threw: SyntaxError: invalid assignment left-hand side

tryItOut 76

tryItOut 77
Compiling threw: SyntaxError: missing ; before statement

tryItOut 78
Compiling threw: SyntaxError: invalid XML name

tryItOut 79

tryItOut 80
Compiling threw: SyntaxError: invalid for/in left-hand side

tryItOut 81

tryItOut 82
Compiling threw: SyntaxError: invalid for/in left-hand side

tryItOut 83
Compiling threw: SyntaxError: missing { before function body

tryItOut 84
Compiling threw: SyntaxError: missing ) in parenthetical

tryItOut 85
Compiling threw: SyntaxError: missing { before function body

tryItOut 86
It's an iterator!
Iterating succeeded, iterCount == 1

tryItOut 87
Running threw: TypeError: p.z = false is not a function

tryItOut 88

tryItOut 89
Compiling threw: SyntaxError: invalid assignment left-hand side

tryItOut 90

tryItOut 91
Compiling threw: SyntaxError: invalid for/in left-hand side

tryItOut 92
Running threw: TypeError: this.zzz has no properties

tryItOut 93
Compiling threw: SyntaxError: missing { before function body

tryItOut 94

tryItOut 95
Compiling threw: SyntaxError: missing ( before let head

tryItOut 96
Compiling threw: SyntaxError: missing { before function body

tryItOut 97
Compiling threw: SyntaxError: missing variable name

tryItOut 98

tryItOut 99
Compiling threw: SyntaxError: missing = in destructuring declaration

tryItOut 100
Compiling threw: SyntaxError: missing ) after condition

tryItOut 101
Compiling threw: SyntaxError: missing ; before statement

tryItOut 102
Compiling threw: SyntaxError: missing ; before statement

tryItOut 103
Compiling threw: SyntaxError: missing ) after for-loop control

tryItOut 104
Compiling threw: SyntaxError: invalid for/in left-hand side

tryItOut 105
Compiling threw: SyntaxError: invalid for/in left-hand side

tryItOut 106
Compiling threw: TypeError: generator function anonymous returns a value

tryItOut 107
Compiling threw: SyntaxError: syntax error

tryItOut 108
Compiling threw: SyntaxError: missing { before function body

tryItOut 109
Compiling threw: SyntaxError: invalid continue

tryItOut 110
It's an iterator!
Iterating succeeded, iterCount == 1

tryItOut 111
Compiling threw: SyntaxError: missing variable name

tryItOut 112
Compiling threw: SyntaxError: invalid decrement operand

tryItOut 113
Compiling threw: SyntaxError: syntax error

tryItOut 114
Compiling threw: SyntaxError: invalid for/in left-hand side

tryItOut 115
Compiling threw: SyntaxError: missing variable name

tryItOut 116
Compiling threw: SyntaxError: missing { before function body

tryItOut 117

tryItOut 118

tryItOut 119
Compiling threw: SyntaxError: missing { before function body

tryItOut 120
Compiling threw: SyntaxError: invalid assignment left-hand side

tryItOut 121

tryItOut 122
Compiling threw: SyntaxError: missing ) after let head

tryItOut 123
Compiling threw: SyntaxError: syntax error

tryItOut 124
Compiling threw: SyntaxError: missing variable name

tryItOut 125
Compiling threw: SyntaxError: label not found

tryItOut 126

tryItOut 127
Compiling threw: TypeError: redeclaration of const __iterator__

tryItOut 128
Compiling threw: SyntaxError: missing ; after for-loop initializer

tryItOut 129
Compiling threw: SyntaxError: invalid continue

tryItOut 130
Compiling threw: SyntaxError: invalid break

tryItOut 131

tryItOut 132

tryItOut 133
Compiling threw: SyntaxError: missing ; after for-loop initializer

tryItOut 134
Compiling threw: SyntaxError: syntax error

tryItOut 135
Running threw: ReferenceError: prop is not defined

tryItOut 136
Compiling threw: SyntaxError: missing ; before statement

tryItOut 137
Compiling threw: SyntaxError: missing ; after for-loop initializer

tryItOut 138
Compiling threw: SyntaxError: invalid for/in left-hand side

tryItOut 139

tryItOut 140
Compiling threw: SyntaxError: invalid for/in left-hand side

tryItOut 141
Compiling threw: SyntaxError: missing ) in parenthetical

tryItOut 142
Compiling threw: SyntaxError: label not found

tryItOut 143
Compiling threw: SyntaxError: missing variable name

tryItOut 144
Compiling threw: SyntaxError: missing { before function body

tryItOut 145
Compiling threw: SyntaxError: missing ) after condition

tryItOut 146
Compiling threw: TypeError: redeclaration of const prototype

tryItOut 147
Compiling threw: SyntaxError: missing ) in parenthetical

tryItOut 148
Running threw: ReferenceError: prototype is not defined

tryItOut 149
It's an iterator!
Iterating succeeded, iterCount == 1

tryItOut 150
Running threw: TypeError: this.zzz has no properties

tryItOut 151
Compiling threw: SyntaxError: label not found

tryItOut 152
Compiling threw: SyntaxError: invalid assignment left-hand side

tryItOut 153
Compiling threw: SyntaxError: missing { before function body

tryItOut 154
Running threw: TypeError: this.zzz has no properties

tryItOut 155
Compiling threw: SyntaxError: syntax error

tryItOut 156

tryItOut 157

tryItOut 158

tryItOut 159
Compiling threw: SyntaxError: missing ) in parenthetical

tryItOut 160
Compiling threw: SyntaxError: missing ) in parenthetical

tryItOut 161
Compiling threw: SyntaxError: invalid break

tryItOut 162

tryItOut 163
Compiling threw: SyntaxError: missing variable name

tryItOut 164
Compiling threw: SyntaxError: invalid assignment left-hand side

tryItOut 165
Compiling threw: SyntaxError: syntax error

tryItOut 166
Compiling threw: SyntaxError: missing = in destructuring declaration

tryItOut 167
Compiling threw: SyntaxError: missing { before function body

tryItOut 168
Compiling threw: SyntaxError: missing ) in parenthetical

tryItOut 169
Compiling threw: SyntaxError: missing } after let block

tryItOut 170
Compiling threw: SyntaxError: invalid for/in left-hand side

tryItOut 171
Compiling threw: SyntaxError: missing { before function body

tryItOut 172
Compiling threw: SyntaxError: invalid continue

tryItOut 173
Compiling threw: SyntaxError: invalid XML name

tryItOut 174
Compiling threw: SyntaxError: missing ) in parenthetical

tryItOut 175
Compiling threw: SyntaxError: invalid assignment left-hand side

tryItOut 176
Compiling threw: SyntaxError: syntax error

tryItOut 177
Compiling threw: SyntaxError: missing variable name

tryItOut 178
Compiling threw: SyntaxError: invalid for/in left-hand side

tryItOut 179
Compiling threw: SyntaxError: missing { before function body

tryItOut 180

tryItOut 181
Compiling threw: TypeError: redeclaration of var prop

tryItOut 182
Compiling threw: SyntaxError: missing variable name

tryItOut 183
Compiling threw: SyntaxError: syntax error

tryItOut 184
Compiling threw: SyntaxError: missing ) in parenthetical

tryItOut 185
Compiling threw: SyntaxError: missing variable name

tryItOut 186
Compiling threw: SyntaxError: missing { before function body

tryItOut 187
Compiling threw: SyntaxError: missing ; after for-loop initializer

tryItOut 188
Compiling threw: SyntaxError: missing ; before statement

tryItOut 189
Compiling threw: SyntaxError: syntax error

tryItOut 190

tryItOut 191
Compiling threw: SyntaxError: missing { before function body

tryItOut 192
Compiling threw: SyntaxError: syntax error

tryItOut 193
Compiling threw: SyntaxError: label not found

tryItOut 194
Compiling threw: SyntaxError: missing : after property id

tryItOut 195
Compiling threw: SyntaxError: missing variable name

tryItOut 196
Running threw: ReferenceError: __iterator__ is not defined

tryItOut 197
Running threw: null

tryItOut 198

tryItOut 199
Compiling threw: SyntaxError: missing ) in parenthetical

tryItOut 200
Compiling threw: SyntaxError: missing formal parameter

tryItOut 201
Compiling threw: SyntaxError: invalid XML name

tryItOut 202

tryItOut 203

tryItOut 204
Compiling threw: SyntaxError: invalid for each loop

tryItOut 205
Running threw: ReferenceError: Exception is not defined

tryItOut 206
Compiling threw: SyntaxError: syntax error

tryItOut 207
Compiling threw: SyntaxError: label not found

tryItOut 208
Compiling threw: SyntaxError: missing ; before statement

tryItOut 209
Compiling threw: SyntaxError: missing { before function body

tryItOut 210
Compiling threw: SyntaxError: missing variable name

tryItOut 211
Compiling threw: SyntaxError: invalid assignment left-hand side

tryItOut 212

tryItOut 213

tryItOut 214
Compiling threw: SyntaxError: syntax error

tryItOut 215
Compiling threw: SyntaxError: missing ) in parenthetical

tryItOut 216
Running threw: ReferenceError: prop is not defined

tryItOut 217

tryItOut 218
Compiling threw: SyntaxError: syntax error

tryItOut 219
Compiling threw: SyntaxError: invalid assignment left-hand side

tryItOut 220

tryItOut 221

tryItOut 222

tryItOut 223
Compiling threw: SyntaxError: syntax error

tryItOut 224

tryItOut 225
Compiling threw: SyntaxError: invalid for/in left-hand side

tryItOut 226

tryItOut 227
Compiling threw: SyntaxError: invalid for/in left-hand side

tryItOut 228

tryItOut 229

tryItOut 230

tryItOut 231

tryItOut 232
Compiling threw: SyntaxError: syntax error

tryItOut 233

tryItOut 234
Compiling threw: SyntaxError: missing } after let block

tryItOut 235
Compiling threw: SyntaxError: invalid for/in left-hand side

tryItOut 236
Compiling threw: TypeError: generator function anonymous returns a value

tryItOut 237
Compiling threw: SyntaxError: missing } after let block

tryItOut 238
Compiling threw: SyntaxError: missing ) in parenthetical

tryItOut 239

tryItOut 240

tryItOut 241

tryItOut 242
Compiling threw: SyntaxError: invalid increment operand

tryItOut 243

tryItOut 244
Compiling threw: SyntaxError: syntax error

tryItOut 245
Running threw: ReferenceError: __iterator__ is not defined

tryItOut 246
It's an iterator!
Iterating threw!
Iterating threw: Error: invalid sharp variable use #1#

tryItOut 247
Compiling threw: SyntaxError: missing ) in parenthetical

tryItOut 248
Compiling threw: SyntaxError: label not found

tryItOut 249
Compiling threw: SyntaxError: label not found

tryItOut 250

tryItOut 251
Compiling threw: SyntaxError: missing ; after for-loop condition

tryItOut 252
Compiling threw: SyntaxError: missing } after let block

tryItOut 253
uneval returned the string: [10000]

tryItOut 254
Compiling threw: SyntaxError: illegal XML character

tryItOut 255
Compiling threw: SyntaxError: missing variable name

tryItOut 256
Compiling threw: SyntaxError: missing ) in parenthetical

tryItOut 257
It's an iterator!
Iterating threw!
Iterating threw: ReferenceError: yyy is not defined

tryItOut 258
Running threw: null

tryItOut 259
Compiling threw: TypeError: redeclaration of variable __proto__

tryItOut 260
Compiling threw: SyntaxError: missing ) in parenthetical

tryItOut 261
Compiling threw: SyntaxError: invalid for/in left-hand side

tryItOut 262
Compiling threw: SyntaxError: invalid for/in left-hand side

tryItOut 263
Compiling threw: SyntaxError: missing = in destructuring declaration

tryItOut 264
Running threw: ReferenceError: Exception is not defined

tryItOut 265
Compiling threw: SyntaxError: missing { before function body

tryItOut 266
Compiling threw: SyntaxError: syntax error

tryItOut 267
Compiling threw: SyntaxError: syntax error

tryItOut 268
Compiling threw: SyntaxError: syntax error

tryItOut 269

tryItOut 270
Compiling threw: SyntaxError: syntax error

tryItOut 271
Compiling threw: SyntaxError: invalid continue

tryItOut 272
Compiling threw: SyntaxError: invalid destructuring assignment operator

tryItOut 273
Compiling threw: SyntaxError: invalid for/in left-hand side

tryItOut 274
Compiling threw: SyntaxError: invalid assignment left-hand side

tryItOut 275

tryItOut 276
It's an iterator!
Iterating succeeded, iterCount == 2

tryItOut 277

tryItOut 278

tryItOut 279
Compiling threw: SyntaxError: invalid assignment left-hand side

tryItOut 280
It's an iterator!
Iterating succeeded, iterCount == 1

tryItOut 281

tryItOut 282
Compiling threw: SyntaxError: missing { before function body

tryItOut 283

tryItOut 284

tryItOut 285
Compiling threw: SyntaxError: invalid assignment left-hand side

tryItOut 286
Compiling threw: TypeError: generator function anonymous returns a value

tryItOut 287

tryItOut 288
Compiling threw: SyntaxError: missing variable name

tryItOut 289
Compiling threw: SyntaxError: missing formal parameter

tryItOut 290
Running threw: TypeError: this.zzz has no properties

tryItOut 291
Compiling threw: SyntaxError: label not found

tryItOut 292
Compiling threw: SyntaxError: missing = in destructuring declaration

tryItOut 293
Compiling threw: SyntaxError: missing ) in parenthetical

tryItOut 294
Compiling threw: SyntaxError: invalid for/in left-hand side

tryItOut 295
Compiling threw: SyntaxError: label not found

tryItOut 296
Compiling threw: SyntaxError: missing { before function body

tryItOut 297
It's an iterator!
Iterating succeeded, iterCount == 0

tryItOut 298
Running threw: ReferenceError: prop is not defined

tryItOut 299
Compiling threw: SyntaxError: invalid for/in left-hand side

tryItOut 300
Compiling threw: SyntaxError: invalid for/in left-hand side

tryItOut 301
Compiling threw: SyntaxError: syntax error

tryItOut 302
Compiling threw: SyntaxError: missing ) in parenthetical

tryItOut 303
Running threw: ReferenceError: yyy is not defined

tryItOut 304
Compiling threw: SyntaxError: missing variable name

tryItOut 305
Compiling threw: SyntaxError: invalid continue

tryItOut 306

tryItOut 307
Compiling threw: SyntaxError: missing ) in parenthetical

tryItOut 308
Compiling threw: SyntaxError: missing { before function body

tryItOut 309

tryItOut 310
Compiling threw: SyntaxError: missing ) after condition

tryItOut 311
Compiling threw: SyntaxError: illegal XML character

tryItOut 312
Compiling threw: SyntaxError: illegal XML character

tryItOut 313
Running threw: TypeError: this.zzz has no properties

tryItOut 314
Compiling threw: SyntaxError: invalid assignment left-hand side

tryItOut 315
Compiling threw: SyntaxError: invalid for/in left-hand side

tryItOut 316
Running threw: ReferenceError: yyy is not defined

tryItOut 317
Compiling threw: SyntaxError: missing = in destructuring declaration

tryItOut 318
Compiling threw: TypeError: redeclaration of const __noSuchMethod__

tryItOut 319
Compiling threw: SyntaxError: invalid for/in left-hand side

tryItOut 320
Compiling threw: SyntaxError: invalid assignment left-hand side

tryItOut 321
Compiling threw: SyntaxError: missing : after property id

tryItOut 322
Compiling threw: SyntaxError: invalid destructuring assignment operator

tryItOut 323
Compiling threw: SyntaxError: missing ) after condition

tryItOut 324

tryItOut 325
Compiling threw: SyntaxError: invalid assignment left-hand side

tryItOut 326
Compiling threw: TypeError: redeclaration of const __proto__

tryItOut 327

tryItOut 328
Compiling threw: SyntaxError: missing ) in parenthetical

tryItOut 329
Compiling threw: SyntaxError: invalid for/in left-hand side

tryItOut 330
Compiling threw: SyntaxError: missing ) in parenthetical

tryItOut 331
Compiling threw: SyntaxError: label not found

tryItOut 332

tryItOut 333
Compiling threw: SyntaxError: label not found

tryItOut 334
Compiling threw: SyntaxError: label not found

tryItOut 335
Compiling threw: SyntaxError: missing ) in parenthetical

tryItOut 336
Compiling threw: SyntaxError: missing { before function body

tryItOut 337
Compiling threw: SyntaxError: syntax error

tryItOut 338
Compiling threw: SyntaxError: missing ) in parenthetical

tryItOut 339
Compiling threw: SyntaxError: missing : after property id

tryItOut 340
Compiling threw: SyntaxError: missing ) in parenthetical

tryItOut 341
Compiling threw: SyntaxError: invalid for/in left-hand side

tryItOut 342
Compiling threw: TypeError: redeclaration of const __parent__

tryItOut 343
Compiling threw: SyntaxError: invalid for/in left-hand side

tryItOut 344

tryItOut 345

tryItOut 346
Compiling threw: SyntaxError: syntax error

tryItOut 347

tryItOut 348
Compiling threw: SyntaxError: invalid for/in left-hand side

tryItOut 349

tryItOut 350
Compiling threw: SyntaxError: missing { before function body

tryItOut 351
Compiling threw: SyntaxError: missing variable name

tryItOut 352
Compiling threw: SyntaxError: missing ) in parenthetical

tryItOut 353

tryItOut 354
Compiling threw: SyntaxError: invalid decrement operand

tryItOut 355
Compiling threw: SyntaxError: syntax error

tryItOut 356
Compiling threw: SyntaxError: invalid XML name

tryItOut 357
Compiling threw: SyntaxError: invalid for/in left-hand side

tryItOut 358

tryItOut 359
Compiling threw: SyntaxError: missing variable name

tryItOut 360
Running threw: ReferenceError: __iterator__ is not defined

tryItOut 361
Compiling threw: SyntaxError: syntax error

tryItOut 362
Compiling threw: SyntaxError: invalid for/in left-hand side

tryItOut 363

tryItOut 364
Compiling threw: SyntaxError: invalid for/in left-hand side

tryItOut 365
Compiling threw: SyntaxError: missing ) in parenthetical

tryItOut 366
Compiling threw: SyntaxError: syntax error

tryItOut 367
Compiling threw: SyntaxError: missing ) after condition

tryItOut 368
Compiling threw: SyntaxError: invalid assignment left-hand side

tryItOut 369

tryItOut 370
Compiling threw: SyntaxError: invalid for/in left-hand side

tryItOut 371
Compiling threw: SyntaxError: invalid decrement operand

tryItOut 372

tryItOut 373
Compiling threw: SyntaxError: invalid assignment left-hand side

tryItOut 374
Compiling threw: SyntaxError: missing ) in parenthetical

tryItOut 375
It's an iterator!
Iterating succeeded, iterCount == 1

tryItOut 376

tryItOut 377
Compiling threw: SyntaxError: syntax error

tryItOut 378

tryItOut 379

tryItOut 380
Compiling threw: SyntaxError: missing ) in parenthetical

tryItOut 381

tryItOut 382
Compiling threw: TypeError: redeclaration of const __count__

tryItOut 383

tryItOut 384
Compiling threw: SyntaxError: missing { before function body

tryItOut 385
Compiling threw: SyntaxError: missing variable name

tryItOut 386
Compiling threw: SyntaxError: invalid for/in left-hand side

tryItOut 387
Compiling threw: SyntaxError: missing : after property id

tryItOut 388
Compiling threw: SyntaxError: invalid continue

tryItOut 389
Running threw: TypeError: this.zzz has no properties

tryItOut 390
Compiling threw: SyntaxError: syntax error

tryItOut 391
Compiling threw: SyntaxError: missing ] after element list

tryItOut 392
Compiling threw: SyntaxError: missing { before function body

tryItOut 393
Compiling threw: SyntaxError: syntax error

tryItOut 394

tryItOut 395

tryItOut 396
Compiling threw: SyntaxError: syntax error

tryItOut 397
Compiling threw: SyntaxError: syntax error

tryItOut 398
Compiling threw: SyntaxError: missing { before function body

tryItOut 399

tryItOut 400
Compiling threw: SyntaxError: invalid for/in left-hand side

tryItOut 401
Compiling threw: SyntaxError: syntax error

tryItOut 402
Compiling threw: SyntaxError: invalid for/in left-hand side

tryItOut 403

tryItOut 404

tryItOut 405

tryItOut 406
Compiling threw: SyntaxError: invalid break

tryItOut 407
Compiling threw: SyntaxError: missing variable name

tryItOut 408
Compiling threw: SyntaxError: duplicate label

tryItOut 409
Running threw: TypeError: this.zzz has no properties

tryItOut 410
Compiling threw: SyntaxError: invalid break

tryItOut 411

tryItOut 412
Compiling threw: TypeError: generator function anonymous returns a value

tryItOut 413
Compiling threw: SyntaxError: invalid for/in left-hand side

tryItOut 414

tryItOut 415
Compiling threw: SyntaxError: missing { before function body

tryItOut 416
Running threw: ReferenceError: reference to undefined XML name @mozilla.org/js/function::prototype

tryItOut 417
Compiling threw: SyntaxError: missing { before function body

tryItOut 418
Compiling threw: TypeError: generator function anonymous returns a value

tryItOut 419
Compiling threw: SyntaxError: invalid for each loop

tryItOut 420

tryItOut 421
Compiling threw: SyntaxError: missing { before function body

tryItOut 422

tryItOut 423
Compiling threw: SyntaxError: syntax error

tryItOut 424
Compiling threw: SyntaxError: syntax error

tryItOut 425
Compiling threw: SyntaxError: yield expression must be parenthesized

tryItOut 426
Compiling threw: SyntaxError: syntax error

tryItOut 427

tryItOut 428
Compiling threw: SyntaxError: syntax error

tryItOut 429
Compiling threw: SyntaxError: invalid for/in left-hand side

tryItOut 430

tryItOut 431
Compiling threw: SyntaxError: syntax error

tryItOut 432
Compiling threw: SyntaxError: syntax error

tryItOut 433

tryItOut 434
Compiling threw: SyntaxError: invalid for/in left-hand side

tryItOut 435
Compiling threw: SyntaxError: missing { before function body

tryItOut 436
Running threw: null

tryItOut 437

tryItOut 438
Compiling threw: SyntaxError: missing ) after condition

tryItOut 439
Compiling threw: SyntaxError: unterminated string literal

tryItOut 440
Compiling threw: SyntaxError: syntax error

tryItOut 441
Compiling threw: SyntaxError: missing variable name

tryItOut 442

tryItOut 443

tryItOut 444
Compiling threw: SyntaxError: invalid assignment left-hand side

tryItOut 445
Compiling threw: SyntaxError: missing ; after for-loop initializer

tryItOut 446
Compiling threw: SyntaxError: syntax error

tryItOut 447
Compiling threw: SyntaxError: invalid for/in left-hand side

tryItOut 448
Compiling threw: SyntaxError: missing ) in parenthetical

tryItOut 449
Compiling threw: SyntaxError: invalid decrement operand

tryItOut 450
Compiling threw: SyntaxError: invalid break

tryItOut 451
Compiling threw: SyntaxError: invalid increment operand

tryItOut 452
Running threw: TypeError: <x/>.__defineSetter__.call is not a function

tryItOut 453
Compiling threw: TypeError: generator function anonymous returns a value

tryItOut 454
Compiling threw: SyntaxError: syntax error

tryItOut 455
Compiling threw: SyntaxError: invalid increment operand

tryItOut 456
Compiling threw: SyntaxError: syntax error

tryItOut 457
Compiling threw: SyntaxError: missing variable name

tryItOut 458

tryItOut 459
Compiling threw: SyntaxError: invalid assignment left-hand side

tryItOut 460

tryItOut 461
Compiling threw: SyntaxError: missing ) in parenthetical

tryItOut 462
Compiling threw: TypeError: anonymous generator function returns a value

tryItOut 463

tryItOut 464
Compiling threw: SyntaxError: invalid for/in left-hand side

tryItOut 465

tryItOut 466
Compiling threw: SyntaxError: invalid for/in left-hand side

tryItOut 467
Compiling threw: SyntaxError: missing { before function body

tryItOut 468
Compiling threw: SyntaxError: missing ) in parenthetical

tryItOut 469

tryItOut 470
Compiling threw: SyntaxError: missing variable name

tryItOut 471
Running threw: TypeError: this.zzz has no properties

tryItOut 472
Compiling threw: SyntaxError: invalid for/in left-hand side

tryItOut 473

tryItOut 474
Compiling threw: SyntaxError: invalid for/in left-hand side

tryItOut 475
Running threw: ReferenceError: x is not defined

tryItOut 476
Compiling threw: SyntaxError: missing { before function body

tryItOut 477
Compiling threw: SyntaxError: invalid for/in left-hand side

tryItOut 478
Compiling threw: SyntaxError: unterminated string literal

tryItOut 479
Compiling threw: SyntaxError: duplicate label

tryItOut 480

tryItOut 481
Compiling threw: SyntaxError: missing ; before statement

tryItOut 482
Compiling threw: SyntaxError: missing ) in parenthetical

tryItOut 483
Compiling threw: SyntaxError: invalid for/in left-hand side

tryItOut 484
Compiling threw: SyntaxError: syntax error

tryItOut 485
Compiling threw: SyntaxError: missing { before function body

tryItOut 486
Compiling threw: SyntaxError: invalid assignment left-hand side

tryItOut 487
Compiling threw: SyntaxError: invalid for/in left-hand side

tryItOut 488
Running threw: 107

tryItOut 489

tryItOut 490
Compiling threw: SyntaxError: missing ) in parenthetical

tryItOut 491
Compiling threw: SyntaxError: missing variable name

tryItOut 492
Compiling threw: SyntaxError: invalid continue

tryItOut 493
Compiling threw: SyntaxError: invalid break

tryItOut 494
Compiling threw: SyntaxError: missing { before function body

tryItOut 495
Compiling threw: SyntaxError: missing variable name

tryItOut 496
Compiling threw: SyntaxError: syntax error

tryItOut 497

tryItOut 498
Compiling threw: SyntaxError: missing { before function body

tryItOut 499

tryItOut 500
Compiling threw: SyntaxError: syntax error

tryItOut 501
Compiling threw: SyntaxError: missing = in destructuring declaration

tryItOut 502
Running threw: ReferenceError: reference to undefined XML name @mozilla.org/js/function::prop

tryItOut 503
Compiling threw: SyntaxError: syntax error

tryItOut 504
Compiling threw: SyntaxError: missing } in XML expression

tryItOut 505
Compiling threw: SyntaxError: missing ) after condition

tryItOut 506
Compiling threw: SyntaxError: illegal XML character

tryItOut 507
Compiling threw: SyntaxError: missing { before function body

tryItOut 508
Compiling threw: SyntaxError: invalid assignment left-hand side

tryItOut 509
Compiling threw: SyntaxError: missing variable name

tryItOut 510

tryItOut 511
Compiling threw: SyntaxError: invalid for each loop

tryItOut 512
Running threw: TypeError: this.zzz has no properties

tryItOut 513
Compiling threw: SyntaxError: missing variable name

tryItOut 514
Compiling threw: SyntaxError: label not found

tryItOut 515
Compiling threw: SyntaxError: label not found

tryItOut 516
Compiling threw: SyntaxError: missing ( before formal parameters

tryItOut 517

tryItOut 518
Compiling threw: SyntaxError: label not found

tryItOut 519
Compiling threw: SyntaxError: invalid assignment left-hand side

tryItOut 520

tryItOut 521
Compiling threw: SyntaxError: missing ) in parenthetical

tryItOut 522
Compiling threw: SyntaxError: invalid increment operand

tryItOut 523
Compiling threw: SyntaxError: missing ) in parenthetical

tryItOut 524
Compiling threw: SyntaxError: label not found

tryItOut 525
Compiling threw: SyntaxError: invalid assignment left-hand side

tryItOut 526
Compiling threw: SyntaxError: invalid XML name

tryItOut 527
Compiling threw: SyntaxError: missing ) in parenthetical

tryItOut 528
Compiling threw: SyntaxError: invalid assignment left-hand side

tryItOut 529

tryItOut 530
Compiling threw: SyntaxError: syntax error

tryItOut 531
It's an iterator!
Iterating succeeded, iterCount == 2

tryItOut 532

tryItOut 533
Compiling threw: SyntaxError: syntax error

tryItOut 534
Compiling threw: SyntaxError: invalid for/in left-hand side

tryItOut 535
Compiling threw: SyntaxError: missing ) in parenthetical

tryItOut 536

tryItOut 537
Compiling threw: SyntaxError: invalid for/in left-hand side

tryItOut 538
Compiling threw: SyntaxError: invalid continue

tryItOut 539
Compiling threw: SyntaxError: syntax error

tryItOut 540
Compiling threw: SyntaxError: missing { before function body

tryItOut 541
Compiling threw: SyntaxError: syntax error

tryItOut 542
Compiling threw: SyntaxError: missing ) in parenthetical

tryItOut 543

tryItOut 544

tryItOut 545
Compiling threw: SyntaxError: missing formal parameter

tryItOut 546
Compiling threw: SyntaxError: invalid decrement operand

tryItOut 547
Compiling threw: SyntaxError: invalid assignment left-hand side

tryItOut 548
Compiling threw: SyntaxError: syntax error

tryItOut 549
It's an iterator!
Iterating succeeded, iterCount == 1

tryItOut 550
Compiling threw: SyntaxError: missing variable name

tryItOut 551
It's an iterator!
Iterating succeeded, iterCount == 1

tryItOut 552
Compiling threw: SyntaxError: missing { before function body

tryItOut 553
Compiling threw: SyntaxError: syntax error

tryItOut 554
Compiling threw: SyntaxError: illegal XML character

tryItOut 555
Compiling threw: SyntaxError: invalid assignment left-hand side

tryItOut 556
Compiling threw: SyntaxError: missing variable name

tryItOut 557
Compiling threw: SyntaxError: syntax error

tryItOut 558
Compiling threw: SyntaxError: missing ) in parenthetical

tryItOut 559
Compiling threw: SyntaxError: missing ) after condition

tryItOut 560

tryItOut 561
Compiling threw: SyntaxError: invalid for/in left-hand side

tryItOut 562
Compiling threw: SyntaxError: syntax error

tryItOut 563
Compiling threw: SyntaxError: invalid assignment left-hand side

tryItOut 564

tryItOut 565
Compiling threw: SyntaxError: missing { before function body

tryItOut 566

tryItOut 567

tryItOut 568
Compiling threw: SyntaxError: missing variable name

tryItOut 569
Compiling threw: SyntaxError: missing } after let block

tryItOut 570

tryItOut 571
Compiling threw: SyntaxError: invalid for/in left-hand side

tryItOut 572
Compiling threw: SyntaxError: missing } after let block

tryItOut 573
Compiling threw: SyntaxError: missing { before function body

tryItOut 574
Compiling threw: SyntaxError: invalid property id

tryItOut 575

tryItOut 576

tryItOut 577
Compiling threw: SyntaxError: label not found

tryItOut 578

tryItOut 579
Compiling threw: SyntaxError: missing ) after for-loop control

tryItOut 580
Compiling threw: SyntaxError: syntax error

tryItOut 581
Compiling threw: SyntaxError: invalid for/in left-hand side

tryItOut 582
Compiling threw: SyntaxError: invalid continue

tryItOut 583
Compiling threw: SyntaxError: label not found

tryItOut 584
Compiling threw: SyntaxError: syntax error

tryItOut 585

tryItOut 586
Compiling threw: SyntaxError: invalid for each loop

tryItOut 587
Compiling threw: SyntaxError: invalid for/in left-hand side

tryItOut 588

tryItOut 589

tryItOut 590
Compiling threw: SyntaxError: missing ) in parenthetical

tryItOut 591
Compiling threw: SyntaxError: missing { before function body

tryItOut 592
Compiling threw: SyntaxError: missing { before function body

tryItOut 593

tryItOut 594
Compiling threw: SyntaxError: missing { before function body

tryItOut 595
Running threw: TypeError: __count__ is not a function

tryItOut 596
Compiling threw: SyntaxError: syntax error

tryItOut 597
It's an iterator!
Iterating succeeded, iterCount == 1

tryItOut 598
Compiling threw: SyntaxError: missing variable name

tryItOut 599

tryItOut 600

tryItOut 601

tryItOut 602
Compiling threw: SyntaxError: missing { before function body

tryItOut 603
Compiling threw: SyntaxError: missing ; after for-loop initializer

tryItOut 604
Compiling threw: SyntaxError: missing ) in parenthetical

tryItOut 605

tryItOut 606
Compiling threw: SyntaxError: illegal XML character

tryItOut 607
Compiling threw: SyntaxError: missing { before function body

tryItOut 608
Compiling threw: SyntaxError: invalid assignment left-hand side

tryItOut 609

tryItOut 610

tryItOut 611
Compiling threw: SyntaxError: invalid decrement operand

tryItOut 612
It's an iterator!
Iterating succeeded, iterCount == 1

tryItOut 613

tryItOut 614
Compiling threw: SyntaxError: syntax error

tryItOut 615
Compiling threw: SyntaxError: missing } in XML expression

tryItOut 616

tryItOut 617
Compiling threw: SyntaxError: invalid break

tryItOut 618
Compiling threw: SyntaxError: syntax error

tryItOut 619
Compiling threw: SyntaxError: illegal XML character

tryItOut 620
Compiling threw: SyntaxError: label not found

tryItOut 621
Compiling threw: SyntaxError: missing variable name

tryItOut 622
Compiling threw: SyntaxError: missing variable name

tryItOut 623
Compiling threw: SyntaxError: missing ) in parenthetical

tryItOut 624
Compiling threw: SyntaxError: invalid for/in left-hand side

tryItOut 625
Compiling threw: SyntaxError: syntax error

tryItOut 626
Compiling threw: SyntaxError: missing ; after for-loop initializer

tryItOut 627

tryItOut 628
Compiling threw: SyntaxError: syntax error

tryItOut 629
Compiling threw: SyntaxError: syntax error

tryItOut 630
Running threw: ReferenceError: prop is not defined

tryItOut 631
Compiling threw: TypeError: generator function anonymous returns a value

tryItOut 632

tryItOut 633
Compiling threw: SyntaxError: missing { before function body

tryItOut 634
Running threw: 

tryItOut 635
Compiling threw: SyntaxError: label not found

tryItOut 636
Compiling threw: SyntaxError: invalid for/in left-hand side

tryItOut 637
Compiling threw: SyntaxError: missing } after let block

tryItOut 638
Compiling threw: SyntaxError: invalid for/in left-hand side

tryItOut 639
Compiling threw: SyntaxError: syntax error

tryItOut 640

tryItOut 641

tryItOut 642
Compiling threw: SyntaxError: missing { before function body

tryItOut 643
Compiling threw: SyntaxError: missing { before function body

tryItOut 644
Running threw: ReferenceError: __noSuchMethod__ is not defined

tryItOut 645
Compiling threw: SyntaxError: invalid for/in left-hand side

tryItOut 646
Compiling threw: SyntaxError: syntax error

tryItOut 647
Compiling threw: SyntaxError: missing ) in parenthetical

tryItOut 648
Running threw: ReferenceError: __noSuchMethod__ is not defined

tryItOut 649

tryItOut 650
Compiling threw: SyntaxError: missing { before function body

tryItOut 651
Compiling threw: SyntaxError: invalid for/in left-hand side

tryItOut 652

tryItOut 653
Compiling threw: SyntaxError: invalid continue

tryItOut 654

tryItOut 655

tryItOut 656

tryItOut 657
Compiling threw: TypeError: generator function anonymous returns a value

tryItOut 658
Compiling threw: SyntaxError: missing ) in parenthetical

tryItOut 659
Compiling threw: SyntaxError: invalid XML name

tryItOut 660

tryItOut 661
It's an iterator!
Iterating succeeded, iterCount == 1

tryItOut 662

tryItOut 663
Compiling threw: SyntaxError: syntax error

tryItOut 664
Compiling threw: SyntaxError: invalid for/in left-hand side

tryItOut 665
Compiling threw: SyntaxError: invalid for/in left-hand side

tryItOut 666
Compiling threw: SyntaxError: missing ) after condition

tryItOut 667
Compiling threw: SyntaxError: syntax error

tryItOut 668

tryItOut 669
Compiling threw: SyntaxError: label not found

tryItOut 670
Compiling threw: SyntaxError: missing ) in parenthetical

tryItOut 671
Compiling threw: SyntaxError: invalid for/in left-hand side

tryItOut 672
Compiling threw: SyntaxError: missing ; after for-loop initializer

tryItOut 673

tryItOut 674
Compiling threw: SyntaxError: label not found

tryItOut 675
Compiling threw: SyntaxError: missing : after property id

tryItOut 676

tryItOut 677
Compiling threw: SyntaxError: illegal XML character

tryItOut 678
Running threw: 

tryItOut 679
Compiling threw: SyntaxError: missing ) in parenthetical

tryItOut 680

tryItOut 681

tryItOut 682
Compiling threw: SyntaxError: syntax error

tryItOut 683
Running threw: ReferenceError: z1 is not defined

tryItOut 684

tryItOut 685

tryItOut 686

tryItOut 687
Compiling threw: SyntaxError: syntax error

tryItOut 688
Compiling threw: SyntaxError: invalid for/in left-hand side

tryItOut 689
Compiling threw: SyntaxError: invalid for/in left-hand side

tryItOut 690
Compiling threw: SyntaxError: invalid for/in left-hand side

tryItOut 691
It's an iterator!
Iterating succeeded, iterCount == 1

tryItOut 692
It's an iterator!
Iterating succeeded, iterCount == 2

tryItOut 693
Compiling threw: SyntaxError: missing ) in parenthetical

tryItOut 694
Compiling threw: SyntaxError: invalid for/in left-hand side

tryItOut 695
Compiling threw: SyntaxError: missing } in XML expression

tryItOut 696

tryItOut 697
Compiling threw: TypeError: generator function anonymous returns a value

tryItOut 698
Compiling threw: SyntaxError: missing { before function body

tryItOut 699
Compiling threw: SyntaxError: missing ; after for-loop initializer

tryItOut 700
Compiling threw: SyntaxError: syntax error

tryItOut 701

tryItOut 702
It's an iterator!
Iterating succeeded, iterCount == 0

tryItOut 703
Compiling threw: SyntaxError: missing { before function body

tryItOut 704
Compiling threw: SyntaxError: invalid for/in left-hand side

tryItOut 705
Compiling threw: SyntaxError: missing variable name

tryItOut 706

tryItOut 707
Compiling threw: SyntaxError: missing ) in parenthetical

tryItOut 708

tryItOut 709
Compiling threw: SyntaxError: missing { before function body

tryItOut 710

tryItOut 711
Compiling threw: SyntaxError: syntax error

tryItOut 712
Compiling threw: SyntaxError: missing { before function body

tryItOut 713
Compiling threw: SyntaxError: syntax error

tryItOut 714
Compiling threw: SyntaxError: missing ) in parenthetical

tryItOut 715
Compiling threw: SyntaxError: invalid continue

tryItOut 716
Compiling threw: SyntaxError: missing variable name

tryItOut 717
Compiling threw: SyntaxError: missing ; after for-loop initializer

tryItOut 718

tryItOut 719

tryItOut 720
Compiling threw: SyntaxError: missing ) after condition

tryItOut 721
Compiling threw: SyntaxError: invalid for/in left-hand side

tryItOut 722
Compiling threw: SyntaxError: missing formal parameter

tryItOut 723
Compiling threw: SyntaxError: invalid for/in left-hand side

tryItOut 724
Compiling threw: SyntaxError: invalid for/in left-hand side

tryItOut 725
Compiling threw: SyntaxError: invalid continue

tryItOut 726
Compiling threw: SyntaxError: invalid assignment left-hand side

tryItOut 727
Compiling threw: SyntaxError: syntax error

tryItOut 728
Compiling threw: SyntaxError: missing : after property id

tryItOut 729

tryItOut 730
Compiling threw: SyntaxError: missing { before function body

tryItOut 731

tryItOut 732

tryItOut 733
Compiling threw: SyntaxError: missing { before function body

tryItOut 734
Compiling threw: SyntaxError: invalid assignment left-hand side

tryItOut 735
It's an iterator!
Iterating succeeded, iterCount == 1

tryItOut 736

tryItOut 737
Compiling threw: SyntaxError: invalid assignment left-hand side

tryItOut 738
Compiling threw: SyntaxError: missing { before function body

tryItOut 739
Running threw: TypeError: this.zzz has no properties

tryItOut 740
Compiling threw: SyntaxError: invalid break

tryItOut 741
Compiling threw: SyntaxError: missing ) in parenthetical

tryItOut 742

tryItOut 743

tryItOut 744

tryItOut 745

tryItOut 746
Compiling threw: SyntaxError: missing formal parameter

tryItOut 747
Compiling threw: SyntaxError: duplicate label

tryItOut 748
Compiling threw: SyntaxError: label not found

tryItOut 749
Compiling threw: SyntaxError: invalid continue

tryItOut 750

tryItOut 751
Compiling threw: SyntaxError: invalid destructuring assignment operator

tryItOut 752

tryItOut 753
Compiling threw: SyntaxError: invalid break

tryItOut 754

tryItOut 755

tryItOut 756
Compiling threw: SyntaxError: missing ) after condition

tryItOut 757
Compiling threw: SyntaxError: invalid break

tryItOut 758
Compiling threw: SyntaxError: invalid assignment left-hand side

tryItOut 759

tryItOut 760
It's an iterator!
Iterating succeeded, iterCount == 0

tryItOut 761
Compiling threw: SyntaxError: missing variable name

tryItOut 762
Compiling threw: SyntaxError: syntax error

tryItOut 763

tryItOut 764
Compiling threw: SyntaxError: invalid for/in left-hand side

tryItOut 765
Compiling threw: SyntaxError: missing ; before statement

tryItOut 766
Compiling threw: SyntaxError: missing name after . operator

tryItOut 767
Compiling threw: SyntaxError: missing ) in parenthetical

tryItOut 768
Compiling threw: SyntaxError: syntax error

tryItOut 769
Running threw: ReferenceError: __noSuchMethod__ is not defined

tryItOut 770
Running threw: 109

tryItOut 771
Compiling threw: SyntaxError: missing { before function body

tryItOut 772

tryItOut 773
Compiling threw: SyntaxError: invalid assignment left-hand side

tryItOut 774
Compiling threw: SyntaxError: syntax error

tryItOut 775
Compiling threw: SyntaxError: missing variable name

tryItOut 776

tryItOut 777
Compiling threw: SyntaxError: missing ( before formal parameters

tryItOut 778

tryItOut 779
Compiling threw: SyntaxError: syntax error

tryItOut 780
It's an iterator!
Iterating succeeded, iterCount == 2

tryItOut 781
It's an iterator!
Iterating succeeded, iterCount == 0

tryItOut 782
Compiling threw: SyntaxError: label not found

tryItOut 783
Compiling threw: SyntaxError: invalid continue

tryItOut 784
Compiling threw: TypeError: redeclaration of var __parent__

tryItOut 785
Compiling threw: SyntaxError: invalid decrement operand

tryItOut 786
Compiling threw: SyntaxError: illegal XML character

tryItOut 787
Compiling threw: SyntaxError: invalid assignment left-hand side

tryItOut 788
Compiling threw: SyntaxError: syntax error

tryItOut 789
Compiling threw: SyntaxError: syntax error

tryItOut 790

tryItOut 791
Compiling threw: SyntaxError: invalid for/in left-hand side

tryItOut 792
Compiling threw: SyntaxError: missing ) after let head

tryItOut 793
Compiling threw: SyntaxError: invalid for/in left-hand side

tryItOut 794
Compiling threw: SyntaxError: missing { before function body

tryItOut 795
Compiling threw: SyntaxError: invalid for/in left-hand side

tryItOut 796
Compiling threw: SyntaxError: label not found

tryItOut 797
Compiling threw: SyntaxError: missing { before function body

tryItOut 798

tryItOut 799
Compiling threw: SyntaxError: invalid assignment left-hand side

tryItOut 800
Compiling threw: SyntaxError: invalid for/in left-hand side

tryItOut 801
Compiling threw: SyntaxError: invalid break

tryItOut 802
Compiling threw: SyntaxError: missing { before function body

tryItOut 803

tryItOut 804

tryItOut 805
Compiling threw: TypeError: redeclaration of variable __iterator__

tryItOut 806
Compiling threw: SyntaxError: missing variable name

tryItOut 807
Compiling threw: SyntaxError: missing ) in parenthetical

tryItOut 808

tryItOut 809

tryItOut 810

tryItOut 811
Compiling threw: SyntaxError: invalid assignment left-hand side

tryItOut 812
Running threw: 110

tryItOut 813
Compiling threw: SyntaxError: missing { before function body

tryItOut 814
Compiling threw: SyntaxError: syntax error

tryItOut 815
Compiling threw: SyntaxError: label not found

tryItOut 816
Compiling threw: SyntaxError: missing ) in parenthetical

tryItOut 817
Compiling threw: SyntaxError: label not found

tryItOut 818
Compiling threw: SyntaxError: missing ) in parenthetical

tryItOut 819
Compiling threw: TypeError: anonymous generator function returns a value

tryItOut 820
Compiling threw: SyntaxError: label not found

tryItOut 821
Compiling threw: SyntaxError: invalid decrement operand

tryItOut 822
Compiling threw: SyntaxError: missing } after let block

tryItOut 823
Compiling threw: SyntaxError: invalid for/in left-hand side

tryItOut 824
Compiling threw: SyntaxError: syntax error

tryItOut 825
It's an iterator!
Iterating threw!
Iterating threw: TypeError: <x/>.__defineSetter__("__parent__", function (y) {yield y;yield #1=[, #1#];yield y;}) has no properties

tryItOut 826

tryItOut 827

tryItOut 828

tryItOut 829
Compiling threw: SyntaxError: invalid assignment left-hand side

tryItOut 830

tryItOut 831
Compiling threw: SyntaxError: label not found

tryItOut 832

tryItOut 833
Compiling threw: SyntaxError: invalid assignment left-hand side

tryItOut 834

tryItOut 835
Compiling threw: SyntaxError: invalid XML name

tryItOut 836
Compiling threw: TypeError: redeclaration of variable __parent__

tryItOut 837

tryItOut 838

tryItOut 839
It's an iterator!
Iterating succeeded, iterCount == 1

tryItOut 840
Compiling threw: SyntaxError: missing { before function body

tryItOut 841
Compiling threw: SyntaxError: invalid continue

tryItOut 842
Compiling threw: SyntaxError: invalid assignment left-hand side

tryItOut 843

tryItOut 844
Compiling threw: SyntaxError: label not found

tryItOut 845
Running threw: TypeError: this.zzz has no properties

tryItOut 846

tryItOut 847
Compiling threw: SyntaxError: invalid for/in left-hand side

tryItOut 848

tryItOut 849
Compiling threw: SyntaxError: invalid break

tryItOut 850
Compiling threw: SyntaxError: syntax error

tryItOut 851
Compiling threw: SyntaxError: invalid XML name

tryItOut 852
Compiling threw: SyntaxError: missing { before function body

tryItOut 853
Compiling threw: SyntaxError: invalid continue

tryItOut 854
Compiling threw: SyntaxError: invalid assignment left-hand side

tryItOut 855
Compiling threw: SyntaxError: invalid for/in left-hand side

tryItOut 856

tryItOut 857
Compiling threw: TypeError: redeclaration of const __noSuchMethod__

tryItOut 858
Compiling threw: SyntaxError: syntax error

tryItOut 859
Running threw: TypeError: ({}) is not a function

tryItOut 860
Compiling threw: SyntaxError: syntax error

tryItOut 861
Compiling threw: TypeError: generator function anonymous returns a value

tryItOut 862

tryItOut 863
Compiling threw: TypeError: redeclaration of variable __noSuchMethod__

tryItOut 864
Compiling threw: SyntaxError: invalid break

tryItOut 865

tryItOut 866
Compiling threw: TypeError: redeclaration of variable __count__

tryItOut 867
Compiling threw: SyntaxError: missing ) in parenthetical

tryItOut 868
Compiling threw: SyntaxError: invalid assignment left-hand side

tryItOut 869
Compiling threw: SyntaxError: missing variable name

tryItOut 870
Compiling threw: TypeError: redeclaration of variable __proto__

tryItOut 871

tryItOut 872
Compiling threw: SyntaxError: syntax error

tryItOut 873
Compiling threw: SyntaxError: invalid for/in left-hand side

tryItOut 874

tryItOut 875
Compiling threw: SyntaxError: missing { before function body

tryItOut 876
Compiling threw: TypeError: redeclaration of variable prototype

tryItOut 877
Compiling threw: SyntaxError: missing : after property id

tryItOut 878
Compiling threw: SyntaxError: missing { before function body

tryItOut 879
Compiling threw: SyntaxError: label not found

tryItOut 880

tryItOut 881

tryItOut 882
Compiling threw: SyntaxError: invalid for/in left-hand side

tryItOut 883
It's an iterator!
Iterating succeeded, iterCount == 1

tryItOut 884
Compiling threw: SyntaxError: invalid for/in left-hand side

tryItOut 885
Compiling threw: SyntaxError: missing ) in parenthetical

tryItOut 886

tryItOut 887
Compiling threw: SyntaxError: invalid for/in left-hand side

tryItOut 888

tryItOut 889
Compiling threw: TypeError: redeclaration of const constructor

tryItOut 890
Compiling threw: SyntaxError: syntax error

tryItOut 891
Compiling threw: SyntaxError: invalid break

tryItOut 892
Compiling threw: SyntaxError: missing variable name

tryItOut 893
Compiling threw: SyntaxError: missing { before function body

tryItOut 894
Compiling threw: TypeError: redeclaration of variable prop

tryItOut 895

tryItOut 896
It's an iterator!
Iterating succeeded, iterCount == 1

tryItOut 897
Compiling threw: SyntaxError: invalid XML name

tryItOut 898
Compiling threw: SyntaxError: invalid assignment left-hand side

tryItOut 899
Compiling threw: SyntaxError: invalid assignment left-hand side

tryItOut 900
Compiling threw: SyntaxError: missing ) in parenthetical

tryItOut 901
Running threw: ReferenceError: Exception is not defined

tryItOut 902
Compiling threw: SyntaxError: invalid for/in left-hand side

tryItOut 903
Compiling threw: SyntaxError: label not found

tryItOut 904
Compiling threw: SyntaxError: invalid assignment left-hand side

tryItOut 905
Compiling threw: SyntaxError: missing name after . operator

tryItOut 906
Compiling threw: SyntaxError: missing { before function body

tryItOut 907
Compiling threw: SyntaxError: invalid for/in left-hand side

tryItOut 908
Compiling threw: TypeError: redeclaration of variable __count__

tryItOut 909
Compiling threw: SyntaxError: syntax error

tryItOut 910
Running threw: ReferenceError: z2 is not defined

tryItOut 911
Compiling threw: SyntaxError: label not found

tryItOut 912
Compiling threw: SyntaxError: missing { before function body

tryItOut 913
Compiling threw: SyntaxError: syntax error

tryItOut 914
Compiling threw: SyntaxError: invalid break

tryItOut 915
Compiling threw: SyntaxError: missing { before function body

tryItOut 916
Compiling threw: SyntaxError: missing { before function body

tryItOut 917

tryItOut 918

tryItOut 919
Compiling threw: SyntaxError: invalid for/in left-hand side

tryItOut 920

tryItOut 921

tryItOut 922
Compiling threw: SyntaxError: syntax error

tryItOut 923
Compiling threw: SyntaxError: invalid break

tryItOut 924
Compiling threw: SyntaxError: missing { before function body

tryItOut 925
Compiling threw: SyntaxError: missing ; after for-loop initializer

tryItOut 926
Compiling threw: SyntaxError: missing variable name

tryItOut 927
Compiling threw: TypeError: redeclaration of variable __noSuchMethod__

tryItOut 928
Compiling threw: SyntaxError: syntax error

tryItOut 929
Compiling threw: SyntaxError: missing ) in parenthetical

tryItOut 930

tryItOut 931
Compiling threw: SyntaxError: missing { before function body

tryItOut 932

tryItOut 933

tryItOut 934

tryItOut 935
Compiling threw: SyntaxError: invalid for/in left-hand side

tryItOut 936
Compiling threw: SyntaxError: label not found

tryItOut 937
It's an iterator!
Iterating succeeded, iterCount == 0

tryItOut 938

tryItOut 939
Compiling threw: SyntaxError: invalid continue

tryItOut 940
Compiling threw: TypeError: generator function anonymous returns a value

tryItOut 941
Compiling threw: SyntaxError: syntax error

tryItOut 942
Compiling threw: SyntaxError: invalid break

tryItOut 943
Compiling threw: SyntaxError: invalid assignment left-hand side

tryItOut 944
Compiling threw: SyntaxError: syntax error

tryItOut 945
Compiling threw: SyntaxError: syntax error

tryItOut 946

tryItOut 947
Compiling threw: TypeError: generator function anonymous returns a value

tryItOut 948
Compiling threw: SyntaxError: invalid for each loop

tryItOut 949
It's an iterator!
Iterating succeeded, iterCount == 1

tryItOut 950
Compiling threw: SyntaxError: unterminated comment

tryItOut 951
Compiling threw: SyntaxError: syntax error

tryItOut 952
Compiling threw: SyntaxError: missing = in destructuring declaration

tryItOut 953

tryItOut 954
Compiling threw: SyntaxError: missing variable name

tryItOut 955
Compiling threw: SyntaxError: invalid for/in left-hand side

tryItOut 956
Compiling threw: SyntaxError: missing formal parameter

tryItOut 957
Compiling threw: SyntaxError: invalid for/in left-hand side

tryItOut 958
Compiling threw: SyntaxError: missing ) in parenthetical

tryItOut 959
Compiling threw: SyntaxError: missing variable name

tryItOut 960
Compiling threw: SyntaxError: invalid assignment left-hand side

tryItOut 961
Compiling threw: SyntaxError: label not found

tryItOut 962
Compiling threw: SyntaxError: missing ) in parenthetical

tryItOut 963
Compiling threw: SyntaxError: missing { before function body

tryItOut 964
It's an iterator!
Iterating succeeded, iterCount == 1

tryItOut 965
Compiling threw: SyntaxError: missing ; after for-loop initializer

tryItOut 966

tryItOut 967

tryItOut 968
Compiling threw: SyntaxError: invalid assignment left-hand side

tryItOut 969
Compiling threw: SyntaxError: invalid XML name

tryItOut 970
Compiling threw: SyntaxError: missing ( before switch expression

tryItOut 971
Compiling threw: SyntaxError: illegal XML character

tryItOut 972
Compiling threw: SyntaxError: missing ) in parenthetical

tryItOut 973
Compiling threw: SyntaxError: invalid for/in left-hand side

tryItOut 974
Compiling threw: SyntaxError: syntax error

tryItOut 975
Running threw: ReferenceError: z1 is not defined

tryItOut 976
Compiling threw: SyntaxError: syntax error

tryItOut 977

tryItOut 978
Compiling threw: SyntaxError: missing variable name

tryItOut 979

tryItOut 980
It's an iterator!
Iterating threw!
Iterating threw: Error: invalid sharp variable use #1#

tryItOut 981
Compiling threw: SyntaxError: label not found

tryItOut 982

tryItOut 983

tryItOut 984
Compiling threw: TypeError: redeclaration of variable constructor

tryItOut 985

tryItOut 986
Compiling threw: SyntaxError: missing ) in parenthetical

tryItOut 987
Compiling threw: SyntaxError: invalid for/in left-hand side

tryItOut 988
Compiling threw: SyntaxError: label not found

tryItOut 989
Compiling threw: SyntaxError: missing variable name

tryItOut 990

tryItOut 991
Compiling threw: SyntaxError: invalid assignment left-hand side

tryItOut 992
Compiling threw: SyntaxError: label not found

tryItOut 993
Compiling threw: TypeError: redeclaration of const __noSuchMethod__

tryItOut 994
Compiling threw: SyntaxError: label not found

tryItOut 995

tryItOut 996
Compiling threw: SyntaxError: illegal XML character

tryItOut 997
Compiling threw: SyntaxError: missing variable name

tryItOut 998

tryItOut 999

tryItOut 1000

ALL OK

Script done on Sat 04 May 2013 06:59:34 AM PDT
