Script started on Sat 04 May 2013 04:56:31 AM PDT
***
Targeting SpiderMonkey / Gecko.

tryItOut 1
Compiling threw: SyntaxError: invalid assignment left-hand side

tryItOut 2

tryItOut 3

tryItOut 4
Compiling threw: SyntaxError: syntax error

tryItOut 5
Compiling threw: SyntaxError: invalid continue

tryItOut 6
Compiling threw: SyntaxError: invalid XML name

tryItOut 7
Running threw: ReferenceError: window is not defined

tryItOut 8
before 69760, after 69760, break 026eb000

tryItOut 9
Compiling threw: SyntaxError: missing ; after for-loop initializer

tryItOut 10
It's an iterator!
Iterating threw!
Iterating threw: ReferenceError: z1 is not defined

tryItOut 11
Compiling threw: SyntaxError: missing ) in parenthetical

tryItOut 12
Compiling threw: SyntaxError: invalid for/in left-hand side

tryItOut 13
Compiling threw: SyntaxError: missing ; after for-loop initializer

tryItOut 14

tryItOut 15
Compiling threw: SyntaxError: duplicate label

tryItOut 16

tryItOut 17
Compiling threw: SyntaxError: missing ; after for-loop initializer

tryItOut 18
Compiling threw: SyntaxError: syntax error

tryItOut 19

tryItOut 20
Running threw: ReferenceError: window is not defined

tryItOut 21
Running threw: TypeError: arguments[0] has no properties

tryItOut 22
Compiling threw: SyntaxError: missing } after let block

tryItOut 23
It's an iterator!
Iterating succeeded, iterCount == 0

tryItOut 24
Compiling threw: SyntaxError: invalid assignment left-hand side

tryItOut 25
Compiling threw: SyntaxError: syntax error

tryItOut 26

tryItOut 27
Compiling threw: SyntaxError: invalid for/in left-hand side

tryItOut 28
Compiling threw: SyntaxError: missing variable name

tryItOut 29
Compiling threw: SyntaxError: invalid assignment left-hand side

tryItOut 30
Compiling threw: SyntaxError: syntax error

tryItOut 31
Running threw: ReferenceError: reference to undefined XML name @foo

tryItOut 32

tryItOut 33
Compiling threw: SyntaxError: invalid assignment left-hand side

tryItOut 34

tryItOut 35
Compiling threw: SyntaxError: missing variable name

tryItOut 36
Compiling threw: SyntaxError: invalid for/in left-hand side

tryItOut 37

tryItOut 38
It's an iterator!
Iterating succeeded, iterCount == 1

tryItOut 39
Compiling threw: SyntaxError: syntax error

tryItOut 40

tryItOut 41
Compiling threw: SyntaxError: invalid assignment left-hand side

tryItOut 42
before 87200, after 87200, break 026eb000

tryItOut 43
Compiling threw: SyntaxError: invalid continue

tryItOut 44
Compiling threw: SyntaxError: label not found

tryItOut 45
before 87200, after 87200, break 026eb000

tryItOut 46
Compiling threw: SyntaxError: syntax error

tryItOut 47
Compiling threw: SyntaxError: invalid break

tryItOut 48
Running threw: TypeError: this.zzz has no properties

tryItOut 49
Compiling threw: SyntaxError: syntax error

tryItOut 50
Compiling threw: SyntaxError: invalid for/in left-hand side

tryItOut 51
Compiling threw: SyntaxError: label not found

tryItOut 52
Compiling threw: SyntaxError: invalid assignment left-hand side

tryItOut 53

tryItOut 54
Compiling threw: SyntaxError: invalid for/in left-hand side

tryItOut 55
Running threw: /x/

tryItOut 56
Running threw: ReferenceError: reference to undefined XML name *::*

tryItOut 57
Compiling threw: SyntaxError: syntax error

tryItOut 58
Compiling threw: SyntaxError: missing ] after element list

tryItOut 59

tryItOut 60
Compiling threw: SyntaxError: syntax error

tryItOut 61
Compiling threw: SyntaxError: invalid for/in left-hand side

tryItOut 62
Running threw: ReferenceError: reference to undefined XML name @foo

tryItOut 63

tryItOut 64
Compiling threw: SyntaxError: invalid assignment left-hand side

tryItOut 65
Compiling threw: SyntaxError: missing variable name

tryItOut 66
Compiling threw: SyntaxError: invalid decrement operand

tryItOut 67
before 87200, after 87200, break 026fc000

tryItOut 68

tryItOut 69
Running threw: TypeError: this.zzz has no properties

tryItOut 70
Running threw: ReferenceError: reference to undefined XML name *

tryItOut 71
Compiling threw: SyntaxError: label not found

tryItOut 72
Compiling threw: SyntaxError: invalid destructuring assignment operator

tryItOut 73

tryItOut 74
Compiling threw: SyntaxError: invalid assignment left-hand side

tryItOut 75
Compiling threw: SyntaxError: label not found

tryItOut 76
Compiling threw: SyntaxError: missing ; before statement

tryItOut 77
Compiling threw: SyntaxError: label not found

tryItOut 78
Compiling threw: SyntaxError: invalid for/in left-hand side

tryItOut 79
Running threw: ReferenceError: reference to undefined XML name *

tryItOut 80
Compiling threw: SyntaxError: syntax error

tryItOut 81
Running threw: ReferenceError: window is not defined

tryItOut 82
Compiling threw: SyntaxError: missing ) in parenthetical

tryItOut 83
Running threw: TypeError: this is not a function

tryItOut 84
Compiling threw: SyntaxError: missing { before function body

tryItOut 85

tryItOut 86

tryItOut 87
Compiling threw: SyntaxError: invalid decrement operand

tryItOut 88
Compiling threw: SyntaxError: invalid break

tryItOut 89
Compiling threw: SyntaxError: missing { before function body

tryItOut 90

tryItOut 91
Compiling threw: SyntaxError: label not found

tryItOut 92

tryItOut 93
Compiling threw: SyntaxError: label not found

tryItOut 94
Compiling threw: SyntaxError: invalid increment operand

tryItOut 95
Compiling threw: SyntaxError: label not found

tryItOut 96
Running threw: ReferenceError: reference to undefined XML name *

tryItOut 97
Compiling threw: SyntaxError: missing ; before statement

tryItOut 98
Running threw: ReferenceError: reference to undefined XML name *

tryItOut 99
Compiling threw: SyntaxError: missing ( before let head

tryItOut 100
Compiling threw: SyntaxError: syntax error

tryItOut 101

tryItOut 102
Compiling threw: SyntaxError: missing { before function body

tryItOut 103

tryItOut 104
Compiling threw: SyntaxError: invalid for/in left-hand side

tryItOut 105
Compiling threw: SyntaxError: invalid for each loop

tryItOut 106
It's an iterator!
Iterating succeeded, iterCount == 1

tryItOut 107
Running threw: TypeError: arguments[0] has no properties

tryItOut 108

tryItOut 109

tryItOut 110
Running threw: ReferenceError: reference to undefined XML name *

tryItOut 111

tryItOut 112

tryItOut 113

tryItOut 114
Compiling threw: SyntaxError: invalid assignment left-hand side

tryItOut 115

tryItOut 116

tryItOut 117
Compiling threw: SyntaxError: missing formal parameter

tryItOut 118

tryItOut 119
Running threw: ReferenceError: z1 is not defined

tryItOut 120
Compiling threw: TypeError: redeclaration of const __iterator__

tryItOut 121
Compiling threw: SyntaxError: invalid for/in left-hand side

tryItOut 122
Running threw: TypeError: [] is not a function

tryItOut 123
Compiling threw: SyntaxError: syntax error

tryItOut 124
Compiling threw: SyntaxError: invalid for/in left-hand side

tryItOut 125

tryItOut 126
Compiling threw: SyntaxError: syntax error

tryItOut 127
Compiling threw: SyntaxError: missing variable name

tryItOut 128
It's an iterator!
Iterating succeeded, iterCount == 0

tryItOut 129
Compiling threw: SyntaxError: missing ; after for-loop condition

tryItOut 130
Compiling threw: SyntaxError: invalid for/in left-hand side

tryItOut 131
Running threw: TypeError: __parent__ has no properties

tryItOut 132
Compiling threw: SyntaxError: label not found

tryItOut 133
Running threw: TypeError: this.zzz has no properties

tryItOut 134
Compiling threw: SyntaxError: syntax error

tryItOut 135
Compiling threw: SyntaxError: syntax error

tryItOut 136
Compiling threw: SyntaxError: invalid break

tryItOut 137
Running threw: TypeError: this.zzz has no properties

tryItOut 138

tryItOut 139
It's an iterator!
Iterating threw!
Iterating threw: ReferenceError: prototype is not defined

tryItOut 140
Compiling threw: SyntaxError: missing = in destructuring declaration

tryItOut 141
Compiling threw: SyntaxError: missing ] after element list

tryItOut 142
Compiling threw: SyntaxError: invalid decrement operand

tryItOut 143
It's an iterator!
before 122080, after 122080, break 0272b000
Iterating threw!
Iterating threw: ReferenceError: reference to undefined XML name @foo

tryItOut 144
Compiling threw: SyntaxError: syntax error

tryItOut 145
Compiling threw: TypeError: redeclaration of const __parent__

tryItOut 146

tryItOut 147
Compiling threw: SyntaxError: missing } after let block

tryItOut 148
It's an iterator!
Iterating succeeded, iterCount == 1

tryItOut 149
Compiling threw: SyntaxError: missing { before function body

tryItOut 150
Compiling threw: SyntaxError: missing while after do-loop body

tryItOut 151

tryItOut 152
Compiling threw: SyntaxError: syntax error

tryItOut 153
Compiling threw: SyntaxError: missing ] after element list

tryItOut 154

tryItOut 155
Compiling threw: SyntaxError: missing ; after for-loop initializer

tryItOut 156
Running threw: ReferenceError: z1 is not defined

tryItOut 157
Compiling threw: SyntaxError: invalid for each loop

tryItOut 158
Running threw: ReferenceError: prop is not defined

tryItOut 159
Compiling threw: SyntaxError: syntax error

tryItOut 160
Compiling threw: SyntaxError: missing ; before statement

tryItOut 161
Compiling threw: SyntaxError: missing ) in parenthetical

tryItOut 162
Running threw: ReferenceError: window is not defined

tryItOut 163
Compiling threw: SyntaxError: yield expression must be parenthesized

tryItOut 164

tryItOut 165
Compiling threw: SyntaxError: invalid for/in left-hand side

tryItOut 166

tryItOut 167

tryItOut 168
Running threw: TypeError: this.zzz has no properties

tryItOut 169
Compiling threw: SyntaxError: missing ) in parenthetical

tryItOut 170
Compiling threw: SyntaxError: syntax error

tryItOut 171
Compiling threw: SyntaxError: missing ; before statement

tryItOut 172

tryItOut 173
Compiling threw: TypeError: redeclaration of variable prop

tryItOut 174
Compiling threw: SyntaxError: invalid for/in left-hand side

tryItOut 175
Compiling threw: SyntaxError: syntax error

tryItOut 176
Compiling threw: SyntaxError: missing variable name

tryItOut 177
Compiling threw: SyntaxError: invalid for/in left-hand side

tryItOut 178
Compiling threw: SyntaxError: missing variable name

tryItOut 179
Compiling threw: SyntaxError: missing ; before statement

tryItOut 180

tryItOut 181

tryItOut 182
Compiling threw: SyntaxError: label not found

tryItOut 183

tryItOut 184

tryItOut 185
It's an iterator!
Iterating threw!
Iterating threw: 

tryItOut 186
Running threw: 

tryItOut 187
It's an iterator!
Iterating threw!
Iterating threw: ReferenceError: reference to undefined XML name *

tryItOut 188
Compiling threw: SyntaxError: missing ) in parenthetical

tryItOut 189
Compiling threw: SyntaxError: label not found

tryItOut 190

tryItOut 191
Compiling threw: SyntaxError: missing ] after element list

tryItOut 192

tryItOut 193
Compiling threw: SyntaxError: invalid break

tryItOut 194
Compiling threw: SyntaxError: invalid for/in left-hand side

tryItOut 195
Compiling threw: SyntaxError: missing ; after for-loop initializer

tryItOut 196

tryItOut 197

tryItOut 198
Compiling threw: SyntaxError: syntax error

tryItOut 199

tryItOut 200
before 122080, after 122080, break 0272b000

tryItOut 201
Running threw: ReferenceError: prototype is not defined

tryItOut 202

tryItOut 203
Running threw: /x/

tryItOut 204

tryItOut 205
Compiling threw: SyntaxError: syntax error

tryItOut 206
Compiling threw: SyntaxError: missing ; before statement

tryItOut 207
before 122080, after 122080, break 0272b000

tryItOut 208
Compiling threw: SyntaxError: invalid break

tryItOut 209
Running threw: ReferenceError: reference to undefined XML name @foo

tryItOut 210
Compiling threw: SyntaxError: syntax error

tryItOut 211
Compiling threw: SyntaxError: missing ; before statement

tryItOut 212
Running threw: [object global]

tryItOut 213
Compiling threw: SyntaxError: invalid break

tryItOut 214

tryItOut 215
Compiling threw: SyntaxError: missing ; before statement

tryItOut 216
Compiling threw: SyntaxError: invalid for/in left-hand side

tryItOut 217
Compiling threw: SyntaxError: missing ) in parenthetical

tryItOut 218
Compiling threw: SyntaxError: missing } after let block

tryItOut 219
Compiling threw: SyntaxError: invalid for/in left-hand side

tryItOut 220
Compiling threw: SyntaxError: syntax error

tryItOut 221

tryItOut 222

tryItOut 223
Compiling threw: SyntaxError: invalid for/in left-hand side

tryItOut 224
Compiling threw: SyntaxError: invalid for/in left-hand side

tryItOut 225
Running threw: ReferenceError: window is not defined

tryItOut 226
Compiling threw: SyntaxError: invalid for/in left-hand side

tryItOut 227
Compiling threw: SyntaxError: invalid for/in left-hand side

tryItOut 228

tryItOut 229
Compiling threw: SyntaxError: missing variable name

tryItOut 230

tryItOut 231
Compiling threw: SyntaxError: invalid continue

tryItOut 232
Compiling threw: SyntaxError: syntax error

tryItOut 233
Compiling threw: SyntaxError: missing ; after for-loop initializer

tryItOut 234
Running threw: ReferenceError: z1 is not defined

tryItOut 235
Compiling threw: SyntaxError: invalid for each loop

tryItOut 236
Compiling threw: SyntaxError: invalid for/in left-hand side

tryItOut 237

tryItOut 238
Compiling threw: SyntaxError: missing ; before statement

tryItOut 239
Running threw: ReferenceError: window is not defined

tryItOut 240

tryItOut 241
Compiling threw: SyntaxError: missing ; before statement

tryItOut 242

tryItOut 243
Running threw: ReferenceError: window is not defined

tryItOut 244
Compiling threw: SyntaxError: label not found

tryItOut 245
Compiling threw: SyntaxError: missing ; after for-loop initializer

tryItOut 246
before 122080, after 122080, break 0272b000

tryItOut 247
before 122080, after 122080, break 0272b000

tryItOut 248
Compiling threw: SyntaxError: syntax error

tryItOut 249
Compiling threw: SyntaxError: syntax error

tryItOut 250
Compiling threw: SyntaxError: syntax error

tryItOut 251
Running threw: TypeError: __iterator__ has no properties

tryItOut 252

tryItOut 253

tryItOut 254
Compiling threw: SyntaxError: invalid destructuring assignment operator

tryItOut 255
It's an iterator!
Iterating threw!
Iterating threw: ReferenceError: z2 is not defined

tryItOut 256
Running threw: ReferenceError: reference to undefined XML name @foo

tryItOut 257

tryItOut 258
Compiling threw: SyntaxError: missing } after let block

tryItOut 259
Compiling threw: SyntaxError: syntax error

tryItOut 260
Compiling threw: SyntaxError: syntax error

tryItOut 261

tryItOut 262
Compiling threw: SyntaxError: label not found

tryItOut 263
Running threw: 

tryItOut 264
It's an iterator!
Iterating threw!
Iterating threw: [object global]

tryItOut 265
Compiling threw: SyntaxError: invalid break

tryItOut 266
Compiling threw: SyntaxError: label not found

tryItOut 267

tryItOut 268
Compiling threw: SyntaxError: label not found

tryItOut 269
Compiling threw: SyntaxError: invalid break

tryItOut 270

tryItOut 271
Compiling threw: SyntaxError: missing : in conditional expression

tryItOut 272
Running threw: ReferenceError: window is not defined

tryItOut 273
It's an iterator!
Iterating succeeded, iterCount == 0

tryItOut 274
before 122080, after 122080, break 0272b000

tryItOut 275
Compiling threw: SyntaxError: missing variable name

tryItOut 276
Compiling threw: SyntaxError: missing } after let block

tryItOut 277
Running threw: TypeError: this.zzz has no properties

tryItOut 278
Compiling threw: SyntaxError: invalid continue

tryItOut 279
Compiling threw: SyntaxError: missing : after property id

tryItOut 280
Running threw: TypeError: this.zzz has no properties

tryItOut 281
Compiling threw: SyntaxError: invalid continue

tryItOut 282
Compiling threw: SyntaxError: missing ; before statement

tryItOut 283

tryItOut 284

tryItOut 285
Running threw: ReferenceError: z1 is not defined

tryItOut 286
Running threw: ReferenceError: prototype is not defined

tryItOut 287
Compiling threw: SyntaxError: missing ; before statement

tryItOut 288
Compiling threw: SyntaxError: missing variable name

tryItOut 289
Compiling threw: SyntaxError: invalid break

tryItOut 290
Running threw: ReferenceError: reference to undefined XML name @foo

tryItOut 291
Compiling threw: SyntaxError: missing ( before let head

tryItOut 292
Compiling threw: SyntaxError: syntax error

tryItOut 293
Compiling threw: SyntaxError: invalid assignment left-hand side

tryItOut 294

tryItOut 295
Compiling threw: SyntaxError: missing variable name

tryItOut 296

tryItOut 297
Compiling threw: SyntaxError: label not found

tryItOut 298
Compiling threw: SyntaxError: syntax error

tryItOut 299

tryItOut 300
before 122080, after 122080, break 0272b000
Running threw: ReferenceError: reference to undefined XML name *

tryItOut 301
Compiling threw: SyntaxError: syntax error

tryItOut 302

tryItOut 303

tryItOut 304
Compiling threw: SyntaxError: missing ; before statement

tryItOut 305
Compiling threw: SyntaxError: missing { before function body

tryItOut 306

tryItOut 307
Compiling threw: SyntaxError: missing ; before statement

tryItOut 308
Compiling threw: SyntaxError: syntax error

tryItOut 309
before 122080, after 122080, break 0272b000

tryItOut 310
Compiling threw: SyntaxError: syntax error

tryItOut 311
Running threw: ReferenceError: reference to undefined XML name @foo

tryItOut 312
Compiling threw: SyntaxError: missing } after let block

tryItOut 313
Compiling threw: SyntaxError: invalid assignment left-hand side

tryItOut 314

tryItOut 315
Compiling threw: SyntaxError: missing ; before statement

tryItOut 316
Running threw: /x/g

tryItOut 317
Compiling threw: SyntaxError: invalid for/in left-hand side

tryItOut 318
Compiling threw: SyntaxError: missing ; after for-loop initializer

tryItOut 319
Running threw: ReferenceError: L is not defined

tryItOut 320

tryItOut 321
before 122080, after 122080, break 0272b000

tryItOut 322

tryItOut 323
Compiling threw: SyntaxError: label not found

tryItOut 324
Compiling threw: SyntaxError: label not found

tryItOut 325
Running threw: ReferenceError: window is not defined

tryItOut 326
Compiling threw: SyntaxError: missing ) after condition

tryItOut 327
Compiling threw: SyntaxError: invalid for/in left-hand side

tryItOut 328
Compiling threw: SyntaxError: label not found

tryItOut 329
It's an iterator!
Iterating succeeded, iterCount == 1

tryItOut 330
Running threw: ReferenceError: prop is not defined

tryItOut 331
Compiling threw: SyntaxError: invalid for/in left-hand side

tryItOut 332

tryItOut 333
Compiling threw: SyntaxError: syntax error

tryItOut 334

tryItOut 335

tryItOut 336
Compiling threw: SyntaxError: invalid destructuring assignment operator

tryItOut 337

tryItOut 338

tryItOut 339

tryItOut 340
It's an iterator!
Iterating succeeded, iterCount == 1

tryItOut 341
Running threw: ReferenceError: window is not defined

tryItOut 342
Running threw: ReferenceError: reference to undefined XML name @foo

tryItOut 343
Compiling threw: SyntaxError: syntax error

tryItOut 344
Compiling threw: SyntaxError: label not found

tryItOut 345

tryItOut 346

tryItOut 347
Compiling threw: SyntaxError: missing ; before statement

tryItOut 348
Running threw: TypeError: this.zzz has no properties

tryItOut 349

tryItOut 350
Compiling threw: SyntaxError: missing ; before statement

tryItOut 351
Running threw: TypeError: this is not a constructor

tryItOut 352
It's an iterator!
Iterating threw!
Iterating threw: ReferenceError: prototype is not defined

tryItOut 353
Compiling threw: SyntaxError: syntax error

tryItOut 354
Running threw: Error: invalid sharp variable use #1#

tryItOut 355
Compiling threw: SyntaxError: syntax error

tryItOut 356
Compiling threw: SyntaxError: duplicate label

tryItOut 357
It's an iterator!
Iterating threw!
Iterating threw: ReferenceError: z1 is not defined

tryItOut 358
Compiling threw: SyntaxError: missing ; before statement

tryItOut 359

tryItOut 360
Compiling threw: SyntaxError: syntax error

tryItOut 361
Compiling threw: SyntaxError: label not found

tryItOut 362
Compiling threw: SyntaxError: missing variable name

tryItOut 363
Compiling threw: SyntaxError: syntax error

tryItOut 364

tryItOut 365

tryItOut 366

tryItOut 367
Compiling threw: SyntaxError: invalid for/in left-hand side

tryItOut 368
Compiling threw: SyntaxError: syntax error

tryItOut 369
Compiling threw: SyntaxError: missing ; before statement

tryItOut 370
Compiling threw: SyntaxError: invalid for/in left-hand side

tryItOut 371
Compiling threw: SyntaxError: label not found

tryItOut 372
Compiling threw: SyntaxError: invalid continue

tryItOut 373
before 122080, after 122080, break 02744000
before 122080, after 122080, break 02744000

tryItOut 374
Compiling threw: SyntaxError: missing ; before statement

tryItOut 375
Compiling threw: SyntaxError: missing ] in index expression

tryItOut 376

tryItOut 377
It's an iterator!
Iterating succeeded, iterCount == 1

tryItOut 378
Running threw: ReferenceError: prototype is not defined

tryItOut 379
Compiling threw: SyntaxError: missing ( before let head

tryItOut 380

tryItOut 381
Compiling threw: SyntaxError: invalid break

tryItOut 382
Compiling threw: SyntaxError: syntax error

tryItOut 383
Compiling threw: SyntaxError: missing { before function body

tryItOut 384
Compiling threw: SyntaxError: label not found

tryItOut 385

tryItOut 386
Compiling threw: SyntaxError: missing variable name

tryItOut 387
Compiling threw: SyntaxError: syntax error

tryItOut 388
Compiling threw: SyntaxError: label not found

tryItOut 389
before 122080, after 122080, break 02744000

tryItOut 390

tryItOut 391
Compiling threw: SyntaxError: missing } after let block

tryItOut 392

tryItOut 393

tryItOut 394
Compiling threw: SyntaxError: invalid break

tryItOut 395
Compiling threw: SyntaxError: missing { before function body

tryItOut 396
before 122080, after 122080, break 02744000

tryItOut 397
Compiling threw: SyntaxError: missing ) in parenthetical

tryItOut 398
Compiling threw: SyntaxError: missing variable name

tryItOut 399
Running threw: ReferenceError: reference to undefined XML name *::*

tryItOut 400
Compiling threw: SyntaxError: missing ; before statement

tryItOut 401
Compiling threw: SyntaxError: missing ) after let head

tryItOut 402
Running threw: ReferenceError: reference to undefined XML name *

tryItOut 403

tryItOut 404
It's an iterator!
Iterating threw!
Iterating threw: ReferenceError: prototype is not defined

tryItOut 405
Compiling threw: SyntaxError: invalid continue

tryItOut 406
Running threw: SyntaxError: invalid getter usage

tryItOut 407
Running threw: ReferenceError: prototype is not defined

tryItOut 408

tryItOut 409

tryItOut 410

tryItOut 411
Compiling threw: SyntaxError: syntax error

tryItOut 412
Compiling threw: SyntaxError: missing ; after for-loop condition

tryItOut 413
Running threw: ReferenceError: reference to undefined XML name *::*

tryItOut 414

tryItOut 415

tryItOut 416
It's an iterator!
Iterating threw!
Iterating threw: TypeError: arguments[0] has no properties

tryItOut 417
Compiling threw: SyntaxError: invalid break

tryItOut 418
Compiling threw: SyntaxError: invalid for each loop

tryItOut 419
Compiling threw: SyntaxError: duplicate label

tryItOut 420

tryItOut 421
Compiling threw: SyntaxError: invalid increment operand

tryItOut 422
Compiling threw: SyntaxError: syntax error

tryItOut 423

tryItOut 424
Compiling threw: SyntaxError: invalid for/in left-hand side

tryItOut 425
It's an iterator!
Iterating succeeded, iterCount == 0

tryItOut 426
Compiling threw: SyntaxError: invalid for/in left-hand side

tryItOut 427
Compiling threw: SyntaxError: invalid break

tryItOut 428

tryItOut 429
before 122080, after 122080, break 02752000

tryItOut 430

tryItOut 431
Compiling threw: SyntaxError: missing ) in parenthetical

tryItOut 432
Compiling threw: SyntaxError: missing = in destructuring declaration

tryItOut 433
Compiling threw: SyntaxError: missing ; before statement

tryItOut 434
Compiling threw: SyntaxError: label not found

tryItOut 435
Compiling threw: TypeError: redeclaration of const constructor

tryItOut 436
Compiling threw: SyntaxError: syntax error

tryItOut 437
Compiling threw: SyntaxError: syntax error

tryItOut 438
It's an iterator!
Iterating threw!
Iterating threw: ReferenceError: reference to undefined XML name *::*

tryItOut 439

tryItOut 440
Compiling threw: SyntaxError: invalid break

tryItOut 441
Compiling threw: SyntaxError: missing ; after for-loop initializer

tryItOut 442
Compiling threw: SyntaxError: invalid for/in left-hand side

tryItOut 443
Compiling threw: SyntaxError: duplicate label

tryItOut 444
Compiling threw: SyntaxError: invalid break

tryItOut 445
It's an iterator!
Iterating threw!
Iterating threw: function ([y]) {
}

tryItOut 446
Compiling threw: SyntaxError: invalid assignment left-hand side

tryItOut 447
It's an iterator!
Iterating threw!
Iterating threw: ReferenceError: prototype is not defined

tryItOut 448
It's an iterator!
Iterating threw!
Iterating threw: ReferenceError: reference to undefined XML name @foo

tryItOut 449
Compiling threw: TypeError: redeclaration of variable prototype

tryItOut 450
Running threw: [object global]

tryItOut 451
It's an iterator!
Iterating threw!
Iterating threw: TypeError: arguments[0] has no properties

tryItOut 452
Compiling threw: SyntaxError: invalid for/in left-hand side

tryItOut 453

tryItOut 454
Compiling threw: SyntaxError: label not found

tryItOut 455
Compiling threw: SyntaxError: missing ; before statement

tryItOut 456
Running threw: ReferenceError: prototype is not defined

tryItOut 457
Compiling threw: SyntaxError: syntax error

tryItOut 458
It's an iterator!
Iterating threw!
Iterating threw: TypeError: invalid 'instanceof' operand ({})

tryItOut 459
Compiling threw: SyntaxError: missing ; before statement

tryItOut 460
It's an iterator!
Iterating threw!
Iterating threw: ReferenceError: reference to undefined XML name *::*

tryItOut 461
Compiling threw: SyntaxError: missing ; before statement

tryItOut 462
Running threw: TypeError: this.zzz has no properties

tryItOut 463
It's an iterator!
Iterating threw!
Iterating threw: ReferenceError: reference to undefined XML name *::*

tryItOut 464
Compiling threw: SyntaxError: missing } after let block

tryItOut 465
Compiling threw: SyntaxError: syntax error

tryItOut 466

tryItOut 467

tryItOut 468
Compiling threw: SyntaxError: invalid for/in left-hand side

tryItOut 469
Compiling threw: SyntaxError: invalid increment operand

tryItOut 470

tryItOut 471
Compiling threw: SyntaxError: invalid assignment left-hand side

tryItOut 472

tryItOut 473
It's an iterator!
Iterating succeeded, iterCount == 1

tryItOut 474
Compiling threw: SyntaxError: syntax error

tryItOut 475

tryItOut 476

tryItOut 477
It's an iterator!
Iterating threw!
Iterating threw: ReferenceError: window is not defined

tryItOut 478
Compiling threw: SyntaxError: missing ; after for-loop initializer

tryItOut 479
Compiling threw: SyntaxError: missing ) in parenthetical

tryItOut 480
Running threw: ReferenceError: reference to undefined XML name @foo

tryItOut 481

tryItOut 482

tryItOut 483

tryItOut 484
Running threw: TypeError: this.zzz has no properties

tryItOut 485
Compiling threw: SyntaxError: invalid break

tryItOut 486
Compiling threw: SyntaxError: invalid for each loop

tryItOut 487

tryItOut 488
Compiling threw: SyntaxError: invalid continue

tryItOut 489
Running threw: undefined

tryItOut 490
before 139520, after 139520, break 02780000
Running threw: TypeError: gc() is not a function

tryItOut 491

tryItOut 492
Compiling threw: SyntaxError: invalid for/in left-hand side

tryItOut 493

tryItOut 494
Compiling threw: SyntaxError: missing ) in parenthetical

tryItOut 495
Compiling threw: SyntaxError: missing { before function body

tryItOut 496
Compiling threw: SyntaxError: missing ) in parenthetical

tryItOut 497

tryItOut 498
before 139520, after 139520, break 02780000

tryItOut 499
Compiling threw: SyntaxError: syntax error

tryItOut 500
Compiling threw: TypeError: redeclaration of const __count__

tryItOut 501
Compiling threw: SyntaxError: syntax error

tryItOut 502

tryItOut 503
Running threw: ReferenceError: window is not defined

tryItOut 504
Running threw: ReferenceError: reference to undefined XML name @foo

tryItOut 505
It's an iterator!
Iterating succeeded, iterCount == 1

tryItOut 506
Compiling threw: SyntaxError: missing ] after element list

tryItOut 507
Compiling threw: SyntaxError: invalid for/in left-hand side

tryItOut 508
It's an iterator!
Iterating succeeded, iterCount == 0

tryItOut 509
Compiling threw: SyntaxError: missing ; before statement

tryItOut 510
Compiling threw: SyntaxError: syntax error

tryItOut 511
Compiling threw: SyntaxError: label not found

tryItOut 512
Compiling threw: SyntaxError: label not found

tryItOut 513
It's an iterator!
Iterating threw!
Iterating threw: TypeError: this is not a function

tryItOut 514
Compiling threw: SyntaxError: syntax error

tryItOut 515
Compiling threw: SyntaxError: invalid property id

tryItOut 516
Compiling threw: TypeError: redeclaration of const prop

tryItOut 517
Running threw: ReferenceError: reference to undefined XML name @foo

tryItOut 518

tryItOut 519
It's an iterator!
Iterating threw!
Iterating threw: ReferenceError: reference to undefined XML name @foo

tryItOut 520
Compiling threw: SyntaxError: missing } after let block

tryItOut 521
Running threw: ReferenceError: window is not defined

tryItOut 522

tryItOut 523
Compiling threw: SyntaxError: syntax error

tryItOut 524
Compiling threw: SyntaxError: missing : after property id

tryItOut 525
Compiling threw: SyntaxError: missing { before function body

tryItOut 526
Running threw: ffalseffalseffalse

tryItOut 527
Running threw: ReferenceError: reference to undefined XML name @foo

tryItOut 528
Compiling threw: SyntaxError: invalid increment operand

tryItOut 529

tryItOut 530
before 139520, after 139520, break 0277e000
before 139520, after 139520, break 0277e000

tryItOut 531
Compiling threw: SyntaxError: missing ) in parenthetical

tryItOut 532
Running threw: TypeError: this is not a constructor

tryItOut 533
Compiling threw: SyntaxError: syntax error

tryItOut 534
Running threw: [object Object]

tryItOut 535
Compiling threw: SyntaxError: label not found

tryItOut 536

tryItOut 537
Compiling threw: SyntaxError: invalid assignment left-hand side

tryItOut 538
Compiling threw: SyntaxError: label not found

tryItOut 539
Compiling threw: SyntaxError: missing variable name

tryItOut 540
Compiling threw: SyntaxError: syntax error

tryItOut 541
Compiling threw: SyntaxError: missing = in destructuring declaration

tryItOut 542
Compiling threw: SyntaxError: missing : after property id

tryItOut 543
Running threw: TypeError: this.zzz has no properties

tryItOut 544

tryItOut 545
Compiling threw: SyntaxError: invalid for/in left-hand side

tryItOut 546
Running threw: ReferenceError: window is not defined

tryItOut 547
Compiling threw: SyntaxError: syntax error

tryItOut 548
Running threw: ReferenceError: prop is not defined

tryItOut 549

tryItOut 550

tryItOut 551
Compiling threw: SyntaxError: syntax error

tryItOut 552
Compiling threw: SyntaxError: label not found

tryItOut 553
Running threw: ReferenceError: prototype is not defined

tryItOut 554
Compiling threw: SyntaxError: label not found

tryItOut 555

tryItOut 556
Compiling threw: SyntaxError: label not found

tryItOut 557
Running threw: ReferenceError: window is not defined

tryItOut 558
Running threw: ReferenceError: reference to undefined XML name @foo

tryItOut 559
Running threw: [object Object]

tryItOut 560
Running threw: TypeError: this.zzz has no properties

tryItOut 561

tryItOut 562
Compiling threw: SyntaxError: missing variable name

tryItOut 563
Running threw: ReferenceError: reference to undefined XML name *

tryItOut 564
It's an iterator!
Iterating succeeded, iterCount == 1

tryItOut 565

tryItOut 566
Compiling threw: TypeError: redeclaration of const __iterator__

tryItOut 567
Compiling threw: SyntaxError: missing ; before statement

tryItOut 568
Compiling threw: SyntaxError: label not found

tryItOut 569
Compiling threw: SyntaxError: missing ; before statement

tryItOut 570
Compiling threw: SyntaxError: missing ; after for-loop initializer

tryItOut 571

tryItOut 572
Compiling threw: SyntaxError: missing { before function body

tryItOut 573
Compiling threw: SyntaxError: syntax error

tryItOut 574
Compiling threw: SyntaxError: label not found

tryItOut 575
Running threw: ReferenceError: reference to undefined XML name *::*

tryItOut 576

tryItOut 577
Compiling threw: SyntaxError: missing ) in parenthetical

tryItOut 578
Compiling threw: SyntaxError: missing ; before statement

tryItOut 579
Running threw: TypeError: (function (id) {return id;}).yoyo is not a function

tryItOut 580
Compiling threw: SyntaxError: missing while after do-loop body

tryItOut 581

tryItOut 582
Compiling threw: SyntaxError: syntax error

tryItOut 583
Compiling threw: SyntaxError: missing ; before statement

tryItOut 584

tryItOut 585
Compiling threw: SyntaxError: invalid for each loop

tryItOut 586
Compiling threw: SyntaxError: missing ) after condition

tryItOut 587
Compiling threw: SyntaxError: invalid continue

tryItOut 588

tryItOut 589

tryItOut 590
Compiling threw: SyntaxError: syntax error

tryItOut 591
Compiling threw: SyntaxError: syntax error

tryItOut 592
It's an iterator!
Iterating threw!
Iterating threw: ReferenceError: z1 is not defined

tryItOut 593
Compiling threw: SyntaxError: invalid increment operand

tryItOut 594
Compiling threw: SyntaxError: missing ; before statement

tryItOut 595

tryItOut 596
Compiling threw: SyntaxError: missing { before function body

tryItOut 597

tryItOut 598

tryItOut 599
Running threw: ReferenceError: prototype is not defined

tryItOut 600
Running threw: ReferenceError: window is not defined

tryItOut 601
Compiling threw: SyntaxError: syntax error

tryItOut 602

tryItOut 603
Compiling threw: SyntaxError: missing { before function body

tryItOut 604

tryItOut 605
Compiling threw: SyntaxError: invalid destructuring assignment operator

tryItOut 606
Compiling threw: SyntaxError: invalid assignment left-hand side

tryItOut 607
Compiling threw: SyntaxError: missing ) in parenthetical

tryItOut 608
Compiling threw: SyntaxError: label not found

tryItOut 609

tryItOut 610

tryItOut 611

tryItOut 612
Compiling threw: SyntaxError: invalid continue

tryItOut 613
Compiling threw: SyntaxError: syntax error

tryItOut 614
It's an iterator!
Iterating threw!
Iterating threw: ReferenceError: z1 is not defined

tryItOut 615
It's an iterator!
Iterating succeeded, iterCount == 1

tryItOut 616

tryItOut 617
Compiling threw: SyntaxError: label not found

tryItOut 618
Compiling threw: SyntaxError: invalid for/in left-hand side

tryItOut 619
Compiling threw: SyntaxError: label not found

tryItOut 620
Compiling threw: SyntaxError: missing ; before statement

tryItOut 621
Compiling threw: SyntaxError: missing ; before statement

tryItOut 622

tryItOut 623
It's an iterator!
Iterating succeeded, iterCount == 1

tryItOut 624
Compiling threw: SyntaxError: missing ; before statement

tryItOut 625
Compiling threw: TypeError: redeclaration of const __iterator__

tryItOut 626
Running threw: ReferenceError: z1 is not defined

tryItOut 627
Running threw: ReferenceError: prop is not defined

tryItOut 628
Compiling threw: SyntaxError: syntax error

tryItOut 629

tryItOut 630
Compiling threw: SyntaxError: invalid continue

tryItOut 631
Running threw: ReferenceError: reference to undefined XML name @foo

tryItOut 632
Running threw: ReferenceError: window is not defined

tryItOut 633
Compiling threw: SyntaxError: invalid increment operand

tryItOut 634
Compiling threw: SyntaxError: invalid continue

tryItOut 635
Compiling threw: SyntaxError: invalid for each loop

tryItOut 636
Compiling threw: SyntaxError: invalid continue

tryItOut 637

tryItOut 638
Running threw: ReferenceError: reference to undefined XML name @foo

tryItOut 639
Compiling threw: SyntaxError: missing ) in parenthetical

tryItOut 640

tryItOut 641
Compiling threw: SyntaxError: invalid continue

tryItOut 642
Compiling threw: SyntaxError: label not found

tryItOut 643
Compiling threw: SyntaxError: syntax error

tryItOut 644
Running threw: TypeError: this.zzz has no properties

tryItOut 645
Compiling threw: SyntaxError: missing ; before statement

tryItOut 646

tryItOut 647
It's an iterator!
Iterating succeeded, iterCount == 1

tryItOut 648
It's an iterator!
before 174400, after 174400, break 027cb000
Iterating succeeded, iterCount == 1

tryItOut 649
It's an iterator!
Iterating threw!
Iterating threw: ReferenceError: z2 is not defined

tryItOut 650
Compiling threw: SyntaxError: invalid for/in left-hand side

tryItOut 651
Compiling threw: SyntaxError: missing ; before statement

tryItOut 652
It's an iterator!
Iterating succeeded, iterCount == 0

tryItOut 653

tryItOut 654
It's an iterator!
Iterating threw!
Iterating threw: ReferenceError: reference to undefined XML name *

tryItOut 655
Compiling threw: SyntaxError: missing ) in parenthetical

tryItOut 656

tryItOut 657
Compiling threw: SyntaxError: invalid for/in left-hand side

tryItOut 658

tryItOut 659
Compiling threw: SyntaxError: syntax error

tryItOut 660
Compiling threw: SyntaxError: invalid for/in left-hand side

tryItOut 661

tryItOut 662
Running threw: ReferenceError: reference to undefined XML name *

tryItOut 663

tryItOut 664
Compiling threw: SyntaxError: invalid continue

tryItOut 665

tryItOut 666
Running threw: TypeError: "" is not a function

tryItOut 667

tryItOut 668
It's an iterator!
Iterating threw!
Iterating threw: ReferenceError: prop is not defined

tryItOut 669

tryItOut 670
Running threw: ReferenceError: window is not defined

tryItOut 671

tryItOut 672
Compiling threw: SyntaxError: invalid assignment left-hand side

tryItOut 673

tryItOut 674
Compiling threw: SyntaxError: label not found

tryItOut 675
Compiling threw: SyntaxError: label not found

tryItOut 676
Compiling threw: SyntaxError: missing { before function body

tryItOut 677
Compiling threw: SyntaxError: invalid for/in left-hand side

tryItOut 678
Compiling threw: SyntaxError: missing ; after for-loop initializer

tryItOut 679
Compiling threw: SyntaxError: syntax error

tryItOut 680

tryItOut 681
Running threw: ReferenceError: reference to undefined XML name @foo

tryItOut 682
Compiling threw: SyntaxError: syntax error

tryItOut 683
Compiling threw: SyntaxError: invalid for/in left-hand side

tryItOut 684
Compiling threw: SyntaxError: missing ) in parenthetical

tryItOut 685

tryItOut 686
Compiling threw: SyntaxError: invalid for/in left-hand side

tryItOut 687
Compiling threw: SyntaxError: invalid for/in left-hand side

tryItOut 688
Running threw: ReferenceError: reference to undefined XML name *

tryItOut 689

tryItOut 690
Compiling threw: SyntaxError: missing variable name

tryItOut 691
Compiling threw: SyntaxError: invalid break

tryItOut 692
Compiling threw: SyntaxError: missing ; before statement

tryItOut 693
Compiling threw: SyntaxError: missing ] after element list

tryItOut 694
Compiling threw: SyntaxError: missing variable name

tryItOut 695

tryItOut 696

tryItOut 697
Compiling threw: SyntaxError: missing while after do-loop body

tryItOut 698
Compiling threw: SyntaxError: missing } after let block

tryItOut 699
Compiling threw: SyntaxError: syntax error

tryItOut 700
Running threw: TypeError: this.zzz has no properties

tryItOut 701
before 174400, after 174400, break 027e1000

tryItOut 702
Running threw: ReferenceError: reference to undefined XML name @foo

tryItOut 703
Compiling threw: TypeError: redeclaration of const constructor

tryItOut 704
Compiling threw: SyntaxError: syntax error

tryItOut 705
Compiling threw: SyntaxError: missing ; before statement

tryItOut 706
Compiling threw: SyntaxError: invalid assignment left-hand side

tryItOut 707
Running threw: ReferenceError: reference to undefined XML name *::*

tryItOut 708
It's an iterator!
Iterating threw!
Iterating threw: TypeError: /x/g.yoyo is not a function

tryItOut 709

tryItOut 710

tryItOut 711

tryItOut 712

tryItOut 713
before 174400, after 174400, break 027e1000

tryItOut 714
Compiling threw: SyntaxError: syntax error

tryItOut 715
It's an iterator!
Iterating succeeded, iterCount == 0

tryItOut 716
Compiling threw: SyntaxError: invalid continue

tryItOut 717
Running threw: ReferenceError: reference to undefined XML name @foo

tryItOut 718
Compiling threw: SyntaxError: invalid break

tryItOut 719

tryItOut 720
Compiling threw: SyntaxError: invalid continue

tryItOut 721

tryItOut 722
Compiling threw: SyntaxError: missing ) in parenthetical

tryItOut 723
It's an iterator!
before 174400, after 174400, break 027e1000
Iterating threw!
Iterating threw: ReferenceError: reference to undefined XML name @foo

tryItOut 724
before 174400, after 174400, break 027e1000

tryItOut 725
It's an iterator!
Iterating succeeded, iterCount == 1

tryItOut 726
Compiling threw: SyntaxError: invalid for/in left-hand side

tryItOut 727
Compiling threw: SyntaxError: syntax error

tryItOut 728
Running threw: ReferenceError: reference to undefined XML name @foo

tryItOut 729
Compiling threw: SyntaxError: syntax error

tryItOut 730
Compiling threw: SyntaxError: missing { before function body

tryItOut 731
Running threw: ReferenceError: reference to undefined XML name *

tryItOut 732
Running threw: ReferenceError: reference to undefined XML name *

tryItOut 733
Compiling threw: SyntaxError: invalid increment operand

tryItOut 734
Compiling threw: SyntaxError: syntax error

tryItOut 735
It's an iterator!
Iterating succeeded, iterCount == 1

tryItOut 736
Compiling threw: SyntaxError: label not found

tryItOut 737
Compiling threw: SyntaxError: invalid destructuring assignment operator

tryItOut 738
Compiling threw: SyntaxError: syntax error

tryItOut 739
It's an iterator!
Iterating succeeded, iterCount == 1

tryItOut 740
Running threw: ReferenceError: window is not defined

tryItOut 741
It's an iterator!
Iterating succeeded, iterCount == 1

tryItOut 742
Running threw: TypeError: this.zzz has no properties

tryItOut 743
Compiling threw: SyntaxError: label not found

tryItOut 744
Running threw: 

tryItOut 745
Compiling threw: SyntaxError: label not found

tryItOut 746
before 174400, after 174400, break 027e1000

tryItOut 747
Running threw: 110

tryItOut 748
Running threw: ReferenceError: reference to undefined XML name @foo

tryItOut 749
Compiling threw: SyntaxError: invalid for/in left-hand side

tryItOut 750
Compiling threw: SyntaxError: invalid continue

tryItOut 751
Running threw: ReferenceError: z1 is not defined

tryItOut 752
Compiling threw: SyntaxError: invalid for/in left-hand side

tryItOut 753

tryItOut 754

tryItOut 755
Compiling threw: SyntaxError: missing ; before statement

tryItOut 756
Compiling threw: SyntaxError: syntax error

tryItOut 757
Running threw: ReferenceError: window is not defined

tryItOut 758
before 174400, after 174400, break 027e1000

tryItOut 759
Compiling threw: SyntaxError: syntax error

tryItOut 760
before 174400, after 174400, break 027e1000

tryItOut 761

tryItOut 762

tryItOut 763
Compiling threw: SyntaxError: missing = in destructuring declaration

tryItOut 764

tryItOut 765

tryItOut 766

tryItOut 767
Compiling threw: SyntaxError: missing ; before statement

tryItOut 768

tryItOut 769

tryItOut 770
Compiling threw: SyntaxError: invalid for/in left-hand side

tryItOut 771
Compiling threw: SyntaxError: invalid break

tryItOut 772
before 174400, after 174400, break 027e1000

tryItOut 773

tryItOut 774
Compiling threw: SyntaxError: missing ; before statement

tryItOut 775

tryItOut 776
Running threw: /x/

tryItOut 777

tryItOut 778
Compiling threw: SyntaxError: invalid assignment left-hand side

tryItOut 779
Compiling threw: SyntaxError: syntax error

tryItOut 780
before 174400, after 174400, break 027e1000

tryItOut 781
Running threw: TypeError: (__noSuchMethod__ = "").__lookupSetter__("__proto__") has no properties

tryItOut 782

tryItOut 783

tryItOut 784

tryItOut 785
It's an iterator!
Iterating threw!
Iterating threw: TypeError: prototype has no properties

tryItOut 786

tryItOut 787
Compiling threw: SyntaxError: missing variable name

tryItOut 788
Compiling threw: SyntaxError: syntax error

tryItOut 789
Compiling threw: SyntaxError: label not found

tryItOut 790
Compiling threw: SyntaxError: invalid break

tryItOut 791
Compiling threw: SyntaxError: label not found

tryItOut 792
Compiling threw: SyntaxError: invalid for/in left-hand side

tryItOut 793

tryItOut 794
Compiling threw: SyntaxError: missing ; before statement

tryItOut 795
Compiling threw: SyntaxError: invalid continue

tryItOut 796
Compiling threw: SyntaxError: label not found

tryItOut 797
Compiling threw: SyntaxError: missing ) after argument list

tryItOut 798
Compiling threw: SyntaxError: missing } after property list

tryItOut 799
Compiling threw: SyntaxError: missing ) in parenthetical

tryItOut 800
Compiling threw: SyntaxError: missing ; before statement

tryItOut 801
Running threw: ReferenceError: z1 is not defined

tryItOut 802
It's an iterator!
Iterating threw!
Iterating threw: ReferenceError: reference to undefined XML name @foo

tryItOut 803
Compiling threw: SyntaxError: syntax error

tryItOut 804
Compiling threw: SyntaxError: missing : after property id

tryItOut 805

tryItOut 806

tryItOut 807
Compiling threw: SyntaxError: invalid for/in left-hand side

tryItOut 808
Compiling threw: SyntaxError: missing ; before statement

tryItOut 809

tryItOut 810

tryItOut 811
Running threw: ReferenceError: reference to undefined XML name @foo

tryItOut 812

tryItOut 813

tryItOut 814
Compiling threw: SyntaxError: missing ) in parenthetical

tryItOut 815
It's an iterator!
Iterating succeeded, iterCount == 1

tryItOut 816
Running threw: ReferenceError: window is not defined

tryItOut 817
Running threw: ReferenceError: window is not defined

tryItOut 818
Running threw: TypeError: this.zzz has no properties

tryItOut 819
Compiling threw: TypeError: redeclaration of variable prop

tryItOut 820
Compiling threw: SyntaxError: missing : after property id

tryItOut 821
Compiling threw: SyntaxError: syntax error

tryItOut 822
Compiling threw: SyntaxError: invalid for/in left-hand side

tryItOut 823
Compiling threw: SyntaxError: missing { before function body

tryItOut 824
before 174400, after 174400, break 027e1000

tryItOut 825
Compiling threw: SyntaxError: missing ) in parenthetical

tryItOut 826
Compiling threw: SyntaxError: invalid assignment left-hand side

tryItOut 827

tryItOut 828
It's an iterator!
Iterating succeeded, iterCount == 0

tryItOut 829

tryItOut 830
Compiling threw: SyntaxError: invalid for/in left-hand side

tryItOut 831
It's an iterator!
Iterating threw!
Iterating threw: ReferenceError: reference to undefined XML name *::*

tryItOut 832
Compiling threw: SyntaxError: missing variable name

tryItOut 833

tryItOut 834
Running threw: ReferenceError: prop is not defined

tryItOut 835
It's an iterator!
Iterating succeeded, iterCount == 1

tryItOut 836
Compiling threw: SyntaxError: invalid assignment left-hand side

tryItOut 837
Compiling threw: SyntaxError: invalid break

tryItOut 838
Compiling threw: SyntaxError: label not found

tryItOut 839

tryItOut 840
Compiling threw: SyntaxError: missing { before function body

tryItOut 841
Running threw: ReferenceError: reference to undefined XML name *::*

tryItOut 842
Compiling threw: TypeError: redeclaration of variable __count__

tryItOut 843

tryItOut 844
Compiling threw: SyntaxError: missing { before function body

tryItOut 845
Compiling threw: SyntaxError: syntax error

tryItOut 846
Compiling threw: SyntaxError: missing ; before statement

tryItOut 847

tryItOut 848
Compiling threw: SyntaxError: missing { before function body

tryItOut 849
It's an iterator!
Iterating threw!
Iterating threw: ReferenceError: prop is not defined

tryItOut 850
It's an iterator!
Iterating threw!
Iterating threw: ReferenceError: window is not defined

tryItOut 851
Compiling threw: SyntaxError: label not found

tryItOut 852

tryItOut 853
Compiling threw: SyntaxError: syntax error

tryItOut 854
Compiling threw: SyntaxError: invalid for/in left-hand side

tryItOut 855
Compiling threw: TypeError: redeclaration of const __proto__

tryItOut 856
Compiling threw: SyntaxError: syntax error

tryItOut 857
Compiling threw: SyntaxError: syntax error

tryItOut 858

tryItOut 859
Running threw: ReferenceError: Exception is not defined

tryItOut 860

tryItOut 861
Compiling threw: SyntaxError: missing ) in parenthetical

tryItOut 862

tryItOut 863
Compiling threw: SyntaxError: missing } after let block

tryItOut 864

tryItOut 865
Compiling threw: SyntaxError: syntax error

tryItOut 866
Compiling threw: SyntaxError: missing ; before statement

tryItOut 867
Running threw: ReferenceError: reference to undefined XML name *::*

tryItOut 868

tryItOut 869
Compiling threw: SyntaxError: invalid for each loop

tryItOut 870
Compiling threw: SyntaxError: missing ) in parenthetical

tryItOut 871

tryItOut 872
Compiling threw: SyntaxError: missing ; before statement

tryItOut 873

tryItOut 874

tryItOut 875
Compiling threw: TypeError: redeclaration of var __parent__

tryItOut 876
Compiling threw: SyntaxError: missing variable name

tryItOut 877
Compiling threw: SyntaxError: syntax error

tryItOut 878
It's an iterator!
Iterating threw!
Iterating threw: TypeError: "".yoyo is not a function

tryItOut 879
before 191840, after 191840, break 027f6000

tryItOut 880
It's an iterator!
Iterating threw!
Iterating threw: ReferenceError: reference to undefined XML name *

tryItOut 881

tryItOut 882
Running threw: SyntaxError: malformed formal parameter

tryItOut 883
Compiling threw: SyntaxError: invalid assignment left-hand side

tryItOut 884

tryItOut 885
Compiling threw: SyntaxError: missing ; after for-loop initializer

tryItOut 886
Compiling threw: SyntaxError: missing name after . operator

tryItOut 887
Compiling threw: SyntaxError: invalid default XML namespace

tryItOut 888
It's an iterator!
Iterating threw!
Iterating threw: ReferenceError: window is not defined

tryItOut 889
Compiling threw: SyntaxError: missing ) in parenthetical

tryItOut 890
It's an iterator!
Iterating succeeded, iterCount == 1

tryItOut 891

tryItOut 892
Compiling threw: TypeError: redeclaration of variable constructor

tryItOut 893
It's an iterator!
Iterating threw!
Iterating threw: TypeError: __iterator__ has no properties

tryItOut 894
Compiling threw: SyntaxError: label not found

tryItOut 895

tryItOut 896
Running threw: ReferenceError: window is not defined

tryItOut 897
Compiling threw: SyntaxError: missing ) in parenthetical

tryItOut 898

tryItOut 899
Compiling threw: SyntaxError: missing ; before statement

tryItOut 900
Compiling threw: SyntaxError: invalid sharp variable definition

tryItOut 901
Compiling threw: SyntaxError: missing ; before statement

tryItOut 902

tryItOut 903
Compiling threw: SyntaxError: invalid for/in left-hand side

tryItOut 904

tryItOut 905
Compiling threw: SyntaxError: syntax error

tryItOut 906
Compiling threw: SyntaxError: invalid continue

tryItOut 907

tryItOut 908
Running threw: ReferenceError: window is not defined

tryItOut 909
Compiling threw: SyntaxError: missing variable name

tryItOut 910
Compiling threw: SyntaxError: invalid continue

tryItOut 911
Compiling threw: SyntaxError: syntax error

tryItOut 912
Compiling threw: SyntaxError: missing ; before statement

tryItOut 913
Compiling threw: SyntaxError: invalid for/in left-hand side

tryItOut 914
Compiling threw: SyntaxError: missing ; after for-loop initializer

tryItOut 915

tryItOut 916
Compiling threw: SyntaxError: invalid break

tryItOut 917
Running threw: ReferenceError: yyy is not defined

tryItOut 918
before 191840, after 191840, break 02803000

tryItOut 919
Compiling threw: SyntaxError: missing ; before statement

tryItOut 920
Compiling threw: SyntaxError: invalid for/in left-hand side

tryItOut 921

tryItOut 922

tryItOut 923
Compiling threw: SyntaxError: invalid break

tryItOut 924

tryItOut 925
Compiling threw: SyntaxError: invalid for/in left-hand side

tryItOut 926
Compiling threw: SyntaxError: invalid for/in left-hand side

tryItOut 927
Compiling threw: SyntaxError: missing } after property list

tryItOut 928
Compiling threw: SyntaxError: missing ; after for-loop initializer

tryItOut 929

tryItOut 930
Compiling threw: SyntaxError: missing ; before statement

tryItOut 931
Compiling threw: SyntaxError: missing { before function body

tryItOut 932
Compiling threw: SyntaxError: invalid for/in left-hand side

tryItOut 933
Compiling threw: SyntaxError: syntax error

tryItOut 934
Compiling threw: SyntaxError: missing ; before statement

tryItOut 935
Compiling threw: SyntaxError: syntax error

tryItOut 936
Compiling threw: SyntaxError: label not found

tryItOut 937
It's an iterator!
Iterating succeeded, iterCount == 1

tryItOut 938
Compiling threw: SyntaxError: invalid break

tryItOut 939
It's an iterator!
Iterating threw!
Iterating threw: ReferenceError: window is not defined

tryItOut 940
Compiling threw: SyntaxError: invalid break

tryItOut 941
Compiling threw: SyntaxError: invalid continue

tryItOut 942
Running threw: TypeError: "".yoyo is not a function

tryItOut 943
Compiling threw: SyntaxError: missing ] after element list

tryItOut 944
Running threw: TypeError: __iterator__ has no properties

tryItOut 945

tryItOut 946
Compiling threw: SyntaxError: invalid increment operand

tryItOut 947
Compiling threw: SyntaxError: invalid for each loop

tryItOut 948

tryItOut 949
Compiling threw: SyntaxError: label not found

tryItOut 950

tryItOut 951
It's an iterator!
Iterating threw!
Iterating threw: ReferenceError: window is not defined

tryItOut 952

tryItOut 953
Compiling threw: SyntaxError: yield expression must be parenthesized

tryItOut 954
Compiling threw: SyntaxError: invalid for/in left-hand side

tryItOut 955
Compiling threw: SyntaxError: missing ; before statement

tryItOut 956
Compiling threw: SyntaxError: invalid sharp variable definition

tryItOut 957
Compiling threw: SyntaxError: missing ; before statement

tryItOut 958
before 209280, after 209280, break 02840000

tryItOut 959
Compiling threw: TypeError: redeclaration of var __parent__

tryItOut 960
Compiling threw: SyntaxError: invalid assignment left-hand side

tryItOut 961
before 209280, after 209280, break 02838000
before 209280, after 209280, break 02838000
before 209280, after 209280, break 02838000

tryItOut 962
Compiling threw: SyntaxError: missing variable name

tryItOut 963
Compiling threw: SyntaxError: invalid continue

tryItOut 964

tryItOut 965
It's an iterator!
Iterating threw!
Iterating threw: TypeError: arguments[0] has no properties

tryItOut 966
Compiling threw: SyntaxError: label not found

tryItOut 967
Running threw: ReferenceError: window is not defined

tryItOut 968
It's an iterator!
Iterating succeeded, iterCount == 1

tryItOut 969
It's an iterator!
before 209280, after 209280, break 02838000
Iterating succeeded, iterCount == 1

tryItOut 970
Compiling threw: SyntaxError: invalid for/in left-hand side

tryItOut 971
Compiling threw: SyntaxError: syntax error

tryItOut 972
It's an iterator!
Iterating succeeded, iterCount == 1

tryItOut 973
It's an iterator!
Iterating succeeded, iterCount == 1

tryItOut 974
Compiling threw: SyntaxError: missing variable name

tryItOut 975
Compiling threw: SyntaxError: missing name after . operator

tryItOut 976

tryItOut 977
Compiling threw: SyntaxError: invalid continue

tryItOut 978
Compiling threw: SyntaxError: label not found

tryItOut 979
Compiling threw: SyntaxError: invalid continue

tryItOut 980
Compiling threw: SyntaxError: label not found

tryItOut 981

tryItOut 982
Running threw: ReferenceError: reference to undefined XML name *

tryItOut 983
before 209280, after 209280, break 02838000

tryItOut 984

tryItOut 985
Running threw: ReferenceError: reference to undefined XML name @foo

tryItOut 986
It's an iterator!
Iterating succeeded, iterCount == 1

tryItOut 987
Compiling threw: SyntaxError: invalid continue

tryItOut 988

tryItOut 989

tryItOut 990
Running threw: ReferenceError: reference to undefined XML name *

tryItOut 991
Running threw: /x/

tryItOut 992
Running threw: TypeError: this.zzz has no properties

tryItOut 993
Compiling threw: SyntaxError: missing variable name

tryItOut 994

tryItOut 995

tryItOut 996

tryItOut 997
Compiling threw: SyntaxError: syntax error

tryItOut 998
It's an iterator!
Iterating succeeded, iterCount == 2

tryItOut 999
Compiling threw: SyntaxError: missing while after do-loop body

tryItOut 1000
before 209280, after 209280, break 02838000

ALL OK

Script done on Sat 04 May 2013 04:56:32 AM PDT
