Script started on Sat 04 May 2013 07:02:00 AM PDT
***
Targeting SpiderMonkey / Gecko.

tryItOut 1
Compiling threw: SyntaxError: missing ; after for-loop initializer

tryItOut 2
Compiling threw: SyntaxError: missing } in compound statement

tryItOut 3

tryItOut 4
Compiling threw: SyntaxError: invalid assignment left-hand side

tryItOut 5
Compiling threw: SyntaxError: missing ; before statement

tryItOut 6
Running threw: function Object() {
    [native code]
}

tryItOut 7
Compiling threw: SyntaxError: illegal XML character

tryItOut 8

tryItOut 9
Running threw: ReferenceError: reference to undefined XML name @foo

tryItOut 10
Compiling threw: SyntaxError: missing ) in parenthetical

tryItOut 11
It's an iterator!
Iterating succeeded, iterCount == 1

tryItOut 12

tryItOut 13
Running threw: ReferenceError: window is not defined

tryItOut 14

tryItOut 15

tryItOut 16
Running threw: ReferenceError: reference to undefined XML name @foo

tryItOut 17
Compiling threw: SyntaxError: invalid assignment left-hand side

tryItOut 18
Compiling threw: SyntaxError: missing ; before statement

tryItOut 19

tryItOut 20
It's an iterator!
Iterating succeeded, iterCount == 1

tryItOut 21

tryItOut 22
Running threw: ReferenceError: reference to undefined XML name @foo

tryItOut 23

tryItOut 24

tryItOut 25
Running threw: ReferenceError: reference to undefined XML name *

tryItOut 26
Running threw: ReferenceError: reference to undefined XML name *::*

tryItOut 27
Compiling threw: SyntaxError: missing ) after argument list

tryItOut 28
It's an iterator!
Iterating threw!
Iterating threw: ReferenceError: prop is not defined

tryItOut 29
Compiling threw: SyntaxError: invalid for each loop

tryItOut 30
Compiling threw: SyntaxError: missing variable name

tryItOut 31
Compiling threw: SyntaxError: invalid sharp variable definition

tryItOut 32
Compiling threw: SyntaxError: invalid assignment left-hand side

tryItOut 33
Running threw: 105

tryItOut 34

tryItOut 35
Compiling threw: SyntaxError: missing { before function body

tryItOut 36

tryItOut 37
It's an iterator!
Iterating succeeded, iterCount == 1

tryItOut 38

tryItOut 39

tryItOut 40

tryItOut 41

tryItOut 42
Running threw: ReferenceError: reference to undefined XML name *

tryItOut 43
Compiling threw: SyntaxError: missing ; before statement

tryItOut 44

tryItOut 45
Compiling threw: SyntaxError: missing variable name

tryItOut 46

tryItOut 47

tryItOut 48
Compiling threw: SyntaxError: invalid XML tag syntax

tryItOut 49
Compiling threw: SyntaxError: unterminated regular expression literal

tryItOut 50
Compiling threw: SyntaxError: invalid assignment left-hand side

tryItOut 51
Compiling threw: SyntaxError: invalid assignment left-hand side

tryItOut 52
Compiling threw: SyntaxError: missing variable name

tryItOut 53

tryItOut 54

tryItOut 55
Compiling threw: SyntaxError: missing variable name

tryItOut 56

tryItOut 57

tryItOut 58

tryItOut 59
Compiling threw: SyntaxError: missing ; after for-loop initializer

tryItOut 60

tryItOut 61
Running threw: ReferenceError: reference to undefined XML name *

tryItOut 62

tryItOut 63

tryItOut 64
It's an iterator!
Iterating succeeded, iterCount == 1

tryItOut 65
It's an iterator!
Iterating succeeded, iterCount == 1

tryItOut 66
before 104640, after 104640, break 00fec000

tryItOut 67
before 104640, after 104640, break 00fec000

tryItOut 68

tryItOut 69

tryItOut 70
Compiling threw: SyntaxError: missing variable name

tryItOut 71

tryItOut 72

tryItOut 73
Compiling threw: SyntaxError: missing variable name

tryItOut 74

tryItOut 75
It's an iterator!
Iterating succeeded, iterCount == 1

tryItOut 76

tryItOut 77
Running threw: ReferenceError: reference to undefined XML name *::*

tryItOut 78
Running threw: ReferenceError: __iterator__ is not defined

tryItOut 79

tryItOut 80
Running threw: ReferenceError: prop is not defined

tryItOut 81
Running threw: ReferenceError: window is not defined

tryItOut 82
Compiling threw: SyntaxError: illegal XML character

tryItOut 83
Compiling threw: SyntaxError: missing variable name

tryItOut 84

tryItOut 85

tryItOut 86

tryItOut 87
before 104640, after 104640, break 00fec000

tryItOut 88
It's an iterator!
Iterating succeeded, iterCount == 1

tryItOut 89
Running threw: <x>
  <y/>
</x>

tryItOut 90

tryItOut 91
Compiling threw: SyntaxError: invalid default XML namespace

tryItOut 92

tryItOut 93
Running threw: ReferenceError: reference to undefined XML name *::*

tryItOut 94
Compiling threw: SyntaxError: illegal XML character

tryItOut 95
Running threw: ReferenceError: z1 is not defined

tryItOut 96

tryItOut 97
Compiling threw: SyntaxError: missing variable name

tryItOut 98
Compiling threw: SyntaxError: syntax error

tryItOut 99

tryItOut 100
Compiling threw: SyntaxError: missing ; before statement

tryItOut 101

tryItOut 102
Compiling threw: SyntaxError: syntax error

tryItOut 103

tryItOut 104

tryItOut 105
Running threw: ReferenceError: reference to undefined XML name *

tryItOut 106
Running threw: <x>
  <y/>
</x>

tryItOut 107
It's an iterator!
Iterating succeeded, iterCount == 1

tryItOut 108
before 104640, after 104640, break 00fec000

tryItOut 109
Compiling threw: SyntaxError: syntax error

tryItOut 110

tryItOut 111

tryItOut 112

tryItOut 113

tryItOut 114
Compiling threw: SyntaxError: invalid destructuring assignment operator

tryItOut 115
Compiling threw: SyntaxError: missing ; before statement

tryItOut 116

tryItOut 117

tryItOut 118

tryItOut 119
Running threw: TypeError: [1] is not a function

tryItOut 120

tryItOut 121
Compiling threw: SyntaxError: syntax error

tryItOut 122

tryItOut 123
Compiling threw: SyntaxError: invalid for/in left-hand side

tryItOut 124

tryItOut 125
It's an iterator!
Iterating succeeded, iterCount == 1

tryItOut 126
Running threw: ReferenceError: reference to undefined XML name *::*

tryItOut 127
Compiling threw: SyntaxError: syntax error

tryItOut 128

tryItOut 129

tryItOut 130

tryItOut 131
Running threw: TypeError: p.z = <y><z/></y> is not a function

tryItOut 132

tryItOut 133

tryItOut 134
Running threw: <x>
  <y/>
</x>

tryItOut 135
Compiling threw: SyntaxError: invalid for each loop

tryItOut 136

tryItOut 137

tryItOut 138
Running threw: ReferenceError: window is not defined

tryItOut 139
before 104640, after 104640, break 00fec000

tryItOut 140
Compiling threw: SyntaxError: invalid sharp variable definition

tryItOut 141
Running threw: ReferenceError: __noSuchMethod__ is not defined

tryItOut 142

tryItOut 143

tryItOut 144
Running threw: TypeError: XML filtering predicate operator called on incompatible Function

tryItOut 145
Compiling threw: SyntaxError: syntax error

tryItOut 146

tryItOut 147
before 104640, after 104640, break 00fec000

tryItOut 148

tryItOut 149

tryItOut 150
Compiling threw: SyntaxError: missing } after let block

tryItOut 151
Running threw: ReferenceError: window is not defined

tryItOut 152
Running threw: function Object() {
    [native code]
}

tryItOut 153
Compiling threw: SyntaxError: missing = in destructuring declaration

tryItOut 154
Compiling threw: SyntaxError: illegal XML character

tryItOut 155
Compiling threw: SyntaxError: syntax error

tryItOut 156
Running threw: ReferenceError: reference to undefined XML name *

tryItOut 157

tryItOut 158

tryItOut 159

tryItOut 160
Compiling threw: SyntaxError: missing variable name

tryItOut 161

tryItOut 162
before 104640, after 104640, break 00fec000

tryItOut 163
Running threw: TypeError: constructor is not a function

tryItOut 164

tryItOut 165
Compiling threw: SyntaxError: missing ) in parenthetical

tryItOut 166
Running threw: ReferenceError: window is not defined

tryItOut 167

tryItOut 168

tryItOut 169

tryItOut 170
Running threw: ReferenceError: z1 is not defined

tryItOut 171
Compiling threw: SyntaxError: missing ; before statement

tryItOut 172

tryItOut 173
Compiling threw: SyntaxError: missing = in destructuring declaration

tryItOut 174
It's an iterator!
Iterating succeeded, iterCount == 1

tryItOut 175

tryItOut 176

tryItOut 177
Running threw: [object global]

tryItOut 178
Running threw: ReferenceError: prototype is not defined

tryItOut 179

tryItOut 180

tryItOut 181

tryItOut 182
Compiling threw: SyntaxError: invalid assignment left-hand side

tryItOut 183

tryItOut 184
Compiling threw: SyntaxError: missing ; before statement

tryItOut 185

tryItOut 186
Compiling threw: SyntaxError: missing = in destructuring declaration

tryItOut 187
Compiling threw: SyntaxError: missing ) in parenthetical

tryItOut 188
Compiling threw: SyntaxError: invalid sharp variable definition

tryItOut 189
Compiling threw: SyntaxError: invalid for/in left-hand side

tryItOut 190
before 104640, after 104640, break 00fec000

tryItOut 191
Running threw: ReferenceError: __iterator__ is not defined

tryItOut 192
Compiling threw: SyntaxError: unterminated regular expression literal

tryItOut 193
Compiling threw: SyntaxError: syntax error

tryItOut 194
Compiling threw: SyntaxError: invalid assignment left-hand side

tryItOut 195
Running threw: ReferenceError: window is not defined

tryItOut 196
Compiling threw: SyntaxError: missing variable name

tryItOut 197
Compiling threw: SyntaxError: invalid assignment left-hand side

tryItOut 198
Running threw: ReferenceError: reference to undefined XML name *

tryItOut 199
Compiling threw: SyntaxError: syntax error

tryItOut 200
before 104640, after 104640, break 00fec000

tryItOut 201

tryItOut 202
Compiling threw: SyntaxError: syntax error

tryItOut 203

tryItOut 204
It's an iterator!
Iterating succeeded, iterCount == 1

tryItOut 205
Compiling threw: SyntaxError: missing variable name

tryItOut 206
Running threw: <y>
  <z/>
</y>

tryItOut 207
Running threw: ReferenceError: __noSuchMethod__ is not defined

tryItOut 208
Compiling threw: SyntaxError: missing ) in parenthetical

tryItOut 209
Running threw: ReferenceError: reference to undefined XML name *::*

tryItOut 210
Compiling threw: SyntaxError: missing = in destructuring declaration

tryItOut 211

tryItOut 212

tryItOut 213
Running threw: ReferenceError: reference to undefined XML name @foo

tryItOut 214
Compiling threw: SyntaxError: missing ) in parenthetical

tryItOut 215

tryItOut 216
Compiling threw: SyntaxError: missing ) in parenthetical

tryItOut 217

tryItOut 218

tryItOut 219
Compiling threw: SyntaxError: missing } after let block

tryItOut 220

tryItOut 221
Compiling threw: SyntaxError: missing variable name

tryItOut 222
before 122080, after 104640, break 00fec000

tryItOut 223

tryItOut 224
Compiling threw: SyntaxError: missing variable name

tryItOut 225
Compiling threw: SyntaxError: missing ; before statement

tryItOut 226
Running threw: ReferenceError: __noSuchMethod__ is not defined

tryItOut 227

tryItOut 228

tryItOut 229
Compiling threw: SyntaxError: missing name after . operator

tryItOut 230
Running threw: ReferenceError: z1 is not defined

tryItOut 231

tryItOut 232
Running threw: ReferenceError: reference to undefined XML name *

tryItOut 233

tryItOut 234

tryItOut 235
Running threw: ReferenceError: window is not defined

tryItOut 236

tryItOut 237

tryItOut 238

tryItOut 239
Running threw: ReferenceError: reference to undefined XML name @foo

tryItOut 240

tryItOut 241
Running threw: [object global]

tryItOut 242
Running threw: TypeError: this.__defineSetter__("prop", Math.sin) is not a function

tryItOut 243
It's an iterator!
Iterating succeeded, iterCount == 0

tryItOut 244

tryItOut 245

tryItOut 246
Compiling threw: SyntaxError: missing = in destructuring declaration

tryItOut 247

tryItOut 248
Compiling threw: SyntaxError: missing ) in parenthetical

tryItOut 249
Compiling threw: SyntaxError: invalid for/in left-hand side

tryItOut 250
Compiling threw: SyntaxError: syntax error

tryItOut 251

tryItOut 252

tryItOut 253

tryItOut 254
Compiling threw: SyntaxError: invalid for each loop

tryItOut 255
It's an iterator!
Iterating succeeded, iterCount == 1

tryItOut 256
Running threw: 

tryItOut 257
Compiling threw: SyntaxError: invalid for/in left-hand side

tryItOut 258

tryItOut 259
Compiling threw: SyntaxError: missing variable name

tryItOut 260
before 122080, after 122080, break 01002000

tryItOut 261
Running threw: undefined

tryItOut 262
Running threw: ReferenceError: _ is not defined

tryItOut 263
It's an iterator!
Iterating succeeded, iterCount == 1

tryItOut 264
Running threw: ReferenceError: window is not defined

tryItOut 265
before 122080, after 122080, break 01002000

tryItOut 266

tryItOut 267
Compiling threw: SyntaxError: missing = in destructuring declaration

tryItOut 268

tryItOut 269

tryItOut 270
It's an iterator!
Iterating succeeded, iterCount == 1

tryItOut 271

tryItOut 272

tryItOut 273

tryItOut 274
before 122080, after 122080, break 01002000

tryItOut 275

tryItOut 276
Running threw: function Object() {
    [native code]
}

tryItOut 277
Compiling threw: SyntaxError: missing = in destructuring declaration

tryItOut 278
Compiling threw: SyntaxError: syntax error

tryItOut 279

tryItOut 280
Compiling threw: SyntaxError: missing } after let block

tryItOut 281

tryItOut 282

tryItOut 283

tryItOut 284
Compiling threw: SyntaxError: invalid sharp variable definition

tryItOut 285

tryItOut 286
Compiling threw: SyntaxError: missing ; before statement

tryItOut 287
Running threw: ReferenceError: reference to undefined XML name *::*

tryItOut 288
before 122080, after 122080, break 01002000

tryItOut 289
Compiling threw: SyntaxError: missing ; before statement

tryItOut 290
Running threw: [object global]

tryItOut 291

tryItOut 292

tryItOut 293
Compiling threw: SyntaxError: missing ; after for-loop initializer

tryItOut 294
Running threw: ReferenceError: Exception is not defined

tryItOut 295
Running threw: ReferenceError: __noSuchMethod__ is not defined

tryItOut 296
Running threw: ReferenceError: reference to undefined XML name @foo

tryItOut 297
Compiling threw: SyntaxError: syntax error

tryItOut 298
Compiling threw: SyntaxError: invalid assignment left-hand side

tryItOut 299

tryItOut 300
Compiling threw: SyntaxError: missing variable name

tryItOut 301

tryItOut 302

tryItOut 303

tryItOut 304
before 122080, after 122080, break 01002000

tryItOut 305
Running threw: ReferenceError: reference to undefined XML name @foo

tryItOut 306

tryItOut 307
Compiling threw: SyntaxError: missing ) in parenthetical

tryItOut 308
Compiling threw: SyntaxError: missing ; after for-loop initializer

tryItOut 309
Compiling threw: SyntaxError: invalid assignment left-hand side

tryItOut 310
Compiling threw: SyntaxError: missing { before function body

tryItOut 311

tryItOut 312
Compiling threw: SyntaxError: invalid assignment left-hand side

tryItOut 313

tryItOut 314

tryItOut 315

tryItOut 316
Compiling threw: SyntaxError: syntax error

tryItOut 317
Compiling threw: SyntaxError: syntax error

tryItOut 318

tryItOut 319
before 122080, after 122080, break 01002000

tryItOut 320
Running threw: ReferenceError: window is not defined

tryItOut 321
Compiling threw: SyntaxError: syntax error

tryItOut 322
Running threw: ReferenceError: window is not defined

tryItOut 323

tryItOut 324
Compiling threw: SyntaxError: invalid for/in left-hand side

tryItOut 325
Running threw: 

tryItOut 326

tryItOut 327
Running threw: TypeError: <x/>.__lookupSetter__("__noSuchMethod__") has no properties

tryItOut 328

tryItOut 329
Compiling threw: SyntaxError: missing ) in parenthetical

tryItOut 330
Compiling threw: SyntaxError: missing ; before statement

tryItOut 331

tryItOut 332
Running threw: ReferenceError: reference to undefined XML name *::*

tryItOut 333

tryItOut 334

tryItOut 335

tryItOut 336
Running threw: ReferenceError: reference to undefined XML name *::*

tryItOut 337
Compiling threw: SyntaxError: invalid for each loop

tryItOut 338
Compiling threw: SyntaxError: invalid assignment left-hand side

tryItOut 339

tryItOut 340
Running threw: ReferenceError: window is not defined

tryItOut 341
Compiling threw: SyntaxError: missing ; before statement

tryItOut 342
Compiling threw: SyntaxError: syntax error

tryItOut 343
It's an iterator!
Iterating succeeded, iterCount == 1

tryItOut 344
before 139520, after 139520, break 01015000

tryItOut 345

tryItOut 346
Compiling threw: SyntaxError: missing { before function body

tryItOut 347
It's an iterator!
Iterating succeeded, iterCount == 1

tryItOut 348
It's an iterator!
Iterating succeeded, iterCount == 1

tryItOut 349
Compiling threw: SyntaxError: missing { before function body

tryItOut 350

tryItOut 351
Compiling threw: SyntaxError: missing ) in parenthetical

tryItOut 352
It's an iterator!
Iterating succeeded, iterCount == 0

tryItOut 353
It's an iterator!
Iterating threw!
Iterating threw: ReferenceError: reference to undefined XML name @foo

tryItOut 354
Running threw: ReferenceError: reference to undefined XML name *::*

tryItOut 355

tryItOut 356

tryItOut 357

tryItOut 358
It's an iterator!
Iterating threw!
Iterating threw: ReferenceError: reference to undefined XML name @foo

tryItOut 359

tryItOut 360
Compiling threw: SyntaxError: missing identifier in catch

tryItOut 361
Running threw: ReferenceError: prototype is not defined

tryItOut 362
Compiling threw: SyntaxError: missing : after property id

tryItOut 363
Compiling threw: SyntaxError: missing : after property id

tryItOut 364

tryItOut 365

tryItOut 366

tryItOut 367
Compiling threw: SyntaxError: syntax error

tryItOut 368
Compiling threw: SyntaxError: invalid decrement operand

tryItOut 369

tryItOut 370

tryItOut 371

tryItOut 372

tryItOut 373
Running threw: ReferenceError: reference to undefined XML name *

tryItOut 374
Compiling threw: SyntaxError: invalid decrement operand

tryItOut 375

tryItOut 376

tryItOut 377
Running threw: ReferenceError: __noSuchMethod__ is not defined

tryItOut 378

tryItOut 379

tryItOut 380

tryItOut 381

tryItOut 382
Compiling threw: SyntaxError: missing variable name

tryItOut 383
Running threw: ReferenceError: prototype is not defined

tryItOut 384
Compiling threw: SyntaxError: missing : after property id

tryItOut 385

tryItOut 386
Compiling threw: SyntaxError: missing ) in parenthetical

tryItOut 387
Running threw: ReferenceError: prototype is not defined

tryItOut 388
Running threw: ReferenceError: z2 is not defined

tryItOut 389

tryItOut 390
Running threw: <x>
  <y/>
</x>

tryItOut 391

tryItOut 392

tryItOut 393
Compiling threw: SyntaxError: missing ; before statement

tryItOut 394
Running threw: ReferenceError: window is not defined

tryItOut 395
Running threw: ReferenceError: reference to undefined XML name *::*

tryItOut 396
It's an iterator!
Iterating succeeded, iterCount == 1

tryItOut 397

tryItOut 398

tryItOut 399
Compiling threw: SyntaxError: syntax error

tryItOut 400
before 156960, after 156960, break 0105c000

tryItOut 401

tryItOut 402
Compiling threw: SyntaxError: syntax error

tryItOut 403
Compiling threw: SyntaxError: missing variable name

tryItOut 404

tryItOut 405

tryItOut 406
Compiling threw: SyntaxError: missing ; after for-loop initializer

tryItOut 407

tryItOut 408

tryItOut 409
before 156960, after 156960, break 0105c000

tryItOut 410
Compiling threw: SyntaxError: missing { before function body

tryItOut 411
Running threw: ReferenceError: reference to undefined XML name *::*

tryItOut 412
Compiling threw: SyntaxError: missing variable name

tryItOut 413
It's an iterator!
Iterating succeeded, iterCount == 1

tryItOut 414
Compiling threw: SyntaxError: missing } after let block

tryItOut 415
It's an iterator!
Iterating succeeded, iterCount == 1

tryItOut 416
Compiling threw: SyntaxError: missing = in destructuring declaration

tryItOut 417

tryItOut 418

tryItOut 419
Running threw: ReferenceError: z1 is not defined

tryItOut 420
It's an iterator!
Iterating succeeded, iterCount == 1

tryItOut 421
Compiling threw: SyntaxError: missing = in destructuring declaration

tryItOut 422
Compiling threw: SyntaxError: syntax error

tryItOut 423

tryItOut 424

tryItOut 425

tryItOut 426

tryItOut 427
Running threw: ReferenceError: z1 is not defined

tryItOut 428
Compiling threw: SyntaxError: invalid for/in left-hand side

tryItOut 429

tryItOut 430

tryItOut 431
Compiling threw: SyntaxError: syntax error

tryItOut 432
It's an iterator!
Iterating succeeded, iterCount == 1

tryItOut 433

tryItOut 434
Compiling threw: SyntaxError: invalid assignment left-hand side

tryItOut 435

tryItOut 436
It's an iterator!
Iterating threw!
Iterating threw: ReferenceError: reference to undefined XML name *

tryItOut 437
Running threw: ReferenceError: reference to undefined XML name @foo

tryItOut 438
Compiling threw: SyntaxError: missing = in destructuring declaration

tryItOut 439
Compiling threw: SyntaxError: missing ) in parenthetical

tryItOut 440

tryItOut 441
Compiling threw: SyntaxError: missing { before function body

tryItOut 442
Running threw: ReferenceError: reference to undefined XML name *::*

tryItOut 443
Compiling threw: SyntaxError: missing ) in parenthetical

tryItOut 444

tryItOut 445

tryItOut 446

tryItOut 447
Running threw: ReferenceError: prototype is not defined

tryItOut 448
Compiling threw: SyntaxError: illegal XML character

tryItOut 449

tryItOut 450

tryItOut 451
Compiling threw: TypeError: generator function anonymous returns a value

tryItOut 452

tryItOut 453

tryItOut 454
Running threw: 

tryItOut 455
Compiling threw: SyntaxError: missing name after . operator

tryItOut 456
Running threw: TypeError: arguments[0] has no properties

tryItOut 457
Compiling threw: SyntaxError: missing ) in parenthetical

tryItOut 458

tryItOut 459

tryItOut 460

tryItOut 461
Compiling threw: SyntaxError: missing variable name

tryItOut 462
Compiling threw: SyntaxError: missing variable name

tryItOut 463
Compiling threw: SyntaxError: missing ) in parenthetical

tryItOut 464

tryItOut 465

tryItOut 466
Running threw: TypeError: this is not a constructor

tryItOut 467
Compiling threw: SyntaxError: missing ; before statement

tryItOut 468
Running threw: <y>
  <z/>
</y>

tryItOut 469

tryItOut 470
Running threw: ReferenceError: reference to undefined XML name *

tryItOut 471

tryItOut 472

tryItOut 473
Compiling threw: SyntaxError: missing ) after argument list

tryItOut 474

tryItOut 475
Running threw: ReferenceError: each is not defined

tryItOut 476
Compiling threw: SyntaxError: invalid assignment left-hand side

tryItOut 477

tryItOut 478

tryItOut 479

tryItOut 480

tryItOut 481
Compiling threw: SyntaxError: syntax error

tryItOut 482
Compiling threw: TypeError: redeclaration of variable __parent__

tryItOut 483
Running threw: ReferenceError: reference to undefined XML name *

tryItOut 484

tryItOut 485
Compiling threw: SyntaxError: missing { before function body

tryItOut 486

tryItOut 487

tryItOut 488

tryItOut 489

tryItOut 490
It's an iterator!
Iterating succeeded, iterCount == 1

tryItOut 491
Compiling threw: SyntaxError: invalid for/in left-hand side

tryItOut 492
Compiling threw: SyntaxError: invalid destructuring assignment operator

tryItOut 493
Compiling threw: SyntaxError: missing variable name

tryItOut 494

tryItOut 495
Running threw: ReferenceError: reference to undefined XML name @foo

tryItOut 496

tryItOut 497
It's an iterator!
Iterating succeeded, iterCount == 1

tryItOut 498

tryItOut 499

tryItOut 500

tryItOut 501

tryItOut 502

tryItOut 503

tryItOut 504

tryItOut 505

tryItOut 506
Compiling threw: SyntaxError: invalid label

tryItOut 507

tryItOut 508

tryItOut 509

tryItOut 510

tryItOut 511

tryItOut 512
Compiling threw: SyntaxError: invalid destructuring assignment operator

tryItOut 513
Compiling threw: SyntaxError: missing { before function body

tryItOut 514

tryItOut 515
Compiling threw: SyntaxError: missing { before function body

tryItOut 516
Running threw: ReferenceError: reference to undefined XML name *

tryItOut 517

tryItOut 518
Compiling threw: SyntaxError: missing : after property id

tryItOut 519

tryItOut 520

tryItOut 521
Compiling threw: TypeError: generator function anonymous returns a value

tryItOut 522

tryItOut 523
Running threw: ReferenceError: z1 is not defined

tryItOut 524

tryItOut 525

tryItOut 526
before 209280, after 209280, break 010cf000

tryItOut 527

tryItOut 528
before 209280, after 209280, break 010cf000

tryItOut 529

tryItOut 530

tryItOut 531

tryItOut 532
Running threw: <y>
  <z/>
</y>

tryItOut 533
Compiling threw: SyntaxError: invalid for/in left-hand side

tryItOut 534
Compiling threw: SyntaxError: duplicate label

tryItOut 535

tryItOut 536
Running threw: ReferenceError: reference to undefined XML name *

tryItOut 537
Compiling threw: SyntaxError: missing = in destructuring declaration

tryItOut 538

tryItOut 539

tryItOut 540

tryItOut 541

tryItOut 542
Compiling threw: SyntaxError: duplicate label

tryItOut 543
Running threw: [object global]

tryItOut 544

tryItOut 545

tryItOut 546
Compiling threw: SyntaxError: missing ; after for-loop initializer

tryItOut 547

tryItOut 548
Compiling threw: SyntaxError: invalid assignment left-hand side

tryItOut 549

tryItOut 550
Compiling threw: SyntaxError: missing ; before statement

tryItOut 551
Compiling threw: SyntaxError: missing ; before statement

tryItOut 552
Compiling threw: SyntaxError: invalid for/in left-hand side

tryItOut 553
Compiling threw: SyntaxError: missing variable name

tryItOut 554
Compiling threw: SyntaxError: missing ) in parenthetical

tryItOut 555
Compiling threw: SyntaxError: missing ) in parenthetical

tryItOut 556
Compiling threw: SyntaxError: invalid assignment left-hand side

tryItOut 557
Running threw: [object Object]

tryItOut 558
Compiling threw: SyntaxError: syntax error

tryItOut 559
Running threw: <x>
  <y/>
</x>

tryItOut 560
Running threw: ReferenceError: window is not defined

tryItOut 561
Compiling threw: SyntaxError: invalid assignment left-hand side

tryItOut 562
Compiling threw: SyntaxError: missing ) in parenthetical

tryItOut 563
Compiling threw: SyntaxError: invalid for each loop

tryItOut 564
Running threw: ReferenceError: prototype is not defined

tryItOut 565

tryItOut 566
Compiling threw: SyntaxError: missing ) in parenthetical

tryItOut 567
It's an iterator!
Iterating threw!
Iterating threw: TypeError: <x>
  <y/>
</x> is not a function

tryItOut 568
Compiling threw: SyntaxError: missing ) in parenthetical

tryItOut 569
Compiling threw: TypeError: generator function anonymous returns a value

tryItOut 570

tryItOut 571

tryItOut 572
Compiling threw: SyntaxError: syntax error

tryItOut 573

tryItOut 574
Compiling threw: SyntaxError: missing ; before statement

tryItOut 575
Compiling threw: SyntaxError: syntax error

tryItOut 576
Running threw: [object Object]

tryItOut 577
Running threw: TypeError: __iterator__ is not a function

tryItOut 578

tryItOut 579

tryItOut 580

tryItOut 581
Running threw: ReferenceError: __noSuchMethod__ is not defined

tryItOut 582
Running threw: ReferenceError: __noSuchMethod__ is not defined

tryItOut 583

tryItOut 584
Running threw: ReferenceError: __noSuchMethod__ is not defined

tryItOut 585

tryItOut 586
Running threw: ReferenceError: z2 is not defined

tryItOut 587

tryItOut 588
Running threw: ReferenceError: __noSuchMethod__ is not defined

tryItOut 589
It's an iterator!
Iterating succeeded, iterCount == 1

tryItOut 590
Compiling threw: SyntaxError: missing } after let block

tryItOut 591
before 209280, after 209280, break 010cf000

tryItOut 592
before 209280, after 209280, break 010cf000

tryItOut 593
It's an iterator!
before 209280, after 209280, break 010cf000
Iterating succeeded, iterCount == 0

tryItOut 594

tryItOut 595
It's an iterator!
Iterating succeeded, iterCount == 1

tryItOut 596
Compiling threw: SyntaxError: invalid for/in left-hand side

tryItOut 597
Compiling threw: SyntaxError: invalid for/in left-hand side

tryItOut 598
before 209280, after 209280, break 010cf000

tryItOut 599

tryItOut 600

tryItOut 601
Running threw: TypeError: p.z = prop = <x><y/></x>.propertyIsEnumerable("prototype") is not a function

tryItOut 602
It's an iterator!
Iterating succeeded, iterCount == 1

tryItOut 603

tryItOut 604
Running threw: ReferenceError: window is not defined

tryItOut 605

tryItOut 606

tryItOut 607
Running threw: 

tryItOut 608
Compiling threw: SyntaxError: missing = in destructuring declaration

tryItOut 609
Compiling threw: SyntaxError: missing ; before statement

tryItOut 610
Running threw: ReferenceError: reference to undefined XML name *

tryItOut 611

tryItOut 612
before 209280, after 209280, break 010cf000

tryItOut 613

tryItOut 614
Running threw: 

tryItOut 615
Compiling threw: SyntaxError: syntax error

tryItOut 616

tryItOut 617

tryItOut 618

tryItOut 619

tryItOut 620
before 209280, after 209280, break 010cf000

tryItOut 621
Compiling threw: SyntaxError: invalid assignment left-hand side

tryItOut 622

tryItOut 623

tryItOut 624
Compiling threw: SyntaxError: missing ) in parenthetical

tryItOut 625
Compiling threw: TypeError: redeclaration of const __noSuchMethod__

tryItOut 626
Compiling threw: SyntaxError: missing ; before statement

tryItOut 627
Compiling threw: SyntaxError: missing variable name

tryItOut 628

tryItOut 629
Running threw: ReferenceError: window is not defined

tryItOut 630
Compiling threw: SyntaxError: missing = in destructuring declaration

tryItOut 631

tryItOut 632

tryItOut 633

tryItOut 634

tryItOut 635
Compiling threw: SyntaxError: invalid assignment left-hand side

tryItOut 636

tryItOut 637

tryItOut 638
Compiling threw: SyntaxError: missing ) in parenthetical

tryItOut 639

tryItOut 640

tryItOut 641
Running threw: ReferenceError: reference to undefined XML name *

tryItOut 642
Compiling threw: SyntaxError: invalid assignment left-hand side

tryItOut 643
Compiling threw: SyntaxError: missing = in destructuring declaration

tryItOut 644

tryItOut 645
Compiling threw: SyntaxError: missing variable name

tryItOut 646

tryItOut 647

tryItOut 648

tryItOut 649

tryItOut 650
Compiling threw: SyntaxError: invalid assignment left-hand side

tryItOut 651
Running threw: ReferenceError: reference to undefined XML name @foo

tryItOut 652
Running threw: ReferenceError: reference to undefined XML name *

tryItOut 653

tryItOut 654

tryItOut 655
It's an iterator!
Iterating succeeded, iterCount == 1

tryItOut 656
Running threw: TypeError: <x>
  <y/>
</x> is not a function

tryItOut 657
Running threw: TypeError: __iterator__ has no properties

tryItOut 658

tryItOut 659
Compiling threw: SyntaxError: missing { before function body

tryItOut 660

tryItOut 661

tryItOut 662

tryItOut 663

tryItOut 664
It's an iterator!
Iterating succeeded, iterCount == 1

tryItOut 665

tryItOut 666

tryItOut 667

tryItOut 668

tryItOut 669
Compiling threw: SyntaxError: missing } after let block

tryItOut 670
Compiling threw: SyntaxError: syntax error

tryItOut 671
Running threw: ReferenceError: z1 is not defined

tryItOut 672

tryItOut 673
Running threw: [object global]

tryItOut 674
Running threw: ReferenceError: window is not defined

tryItOut 675

tryItOut 676

tryItOut 677
It's an iterator!
Iterating threw!
Iterating threw: ReferenceError: reference to undefined XML name @foo

tryItOut 678
Compiling threw: SyntaxError: missing ) after argument list

tryItOut 679
It's an iterator!
Iterating threw!
Iterating threw: SyntaxError: invalid assignment left-hand side

tryItOut 680

tryItOut 681
Running threw: ReferenceError: reference to undefined XML name *

tryItOut 682
It's an iterator!
Iterating succeeded, iterCount == 1

tryItOut 683
Compiling threw: SyntaxError: invalid assignment left-hand side

tryItOut 684
Running threw: ReferenceError: prototype is not defined

tryItOut 685
Running threw: [object global]

tryItOut 686
Compiling threw: SyntaxError: missing : after property id

tryItOut 687

tryItOut 688
Compiling threw: SyntaxError: invalid assignment left-hand side

tryItOut 689
Compiling threw: SyntaxError: invalid destructuring assignment operator

tryItOut 690

tryItOut 691

tryItOut 692
Compiling threw: SyntaxError: missing variable name

tryItOut 693
Running threw: TypeError: __iterator__ has no properties

tryItOut 694

tryItOut 695

tryItOut 696
Compiling threw: SyntaxError: missing variable name

tryItOut 697

tryItOut 698

tryItOut 699
Running threw: undefined

tryItOut 700

tryItOut 701

tryItOut 702

tryItOut 703
Running threw: TypeError: constructor has no properties

tryItOut 704
Compiling threw: SyntaxError: syntax error

tryItOut 705
Running threw: ReferenceError: reference to undefined XML name *::*

tryItOut 706
Compiling threw: SyntaxError: missing variable name

tryItOut 707

tryItOut 708

tryItOut 709

tryItOut 710
Compiling threw: SyntaxError: missing variable name

tryItOut 711
Running threw: 

tryItOut 712
It's an iterator!
Iterating succeeded, iterCount == 1

tryItOut 713
Running threw: ReferenceError: reference to undefined XML name *::*

tryItOut 714
Compiling threw: SyntaxError: missing ; before statement

tryItOut 715
Compiling threw: SyntaxError: invalid for/in left-hand side

tryItOut 716
Compiling threw: SyntaxError: invalid assignment left-hand side

tryItOut 717
Compiling threw: SyntaxError: syntax error

tryItOut 718

tryItOut 719
Compiling threw: SyntaxError: missing ; after for-loop initializer

tryItOut 720
before 226720, after 226720, break 010ff000

tryItOut 721

tryItOut 722
Compiling threw: SyntaxError: syntax error

tryItOut 723

tryItOut 724

tryItOut 725
before 226720, after 226720, break 010ff000

tryItOut 726

tryItOut 727

tryItOut 728
Compiling threw: SyntaxError: invalid for/in left-hand side

tryItOut 729
Compiling threw: SyntaxError: syntax error

tryItOut 730

tryItOut 731

tryItOut 732
Compiling threw: TypeError: redeclaration of variable __iterator__

tryItOut 733

tryItOut 734

tryItOut 735
Compiling threw: SyntaxError: invalid assignment left-hand side

tryItOut 736
Running threw: ReferenceError: window is not defined

tryItOut 737
Compiling threw: SyntaxError: missing ; before statement

tryItOut 738
Running threw: ReferenceError: window is not defined

tryItOut 739

tryItOut 740

tryItOut 741
Compiling threw: SyntaxError: missing variable name

tryItOut 742
Running threw: ReferenceError: window is not defined

tryItOut 743
Compiling threw: SyntaxError: missing ; before statement

tryItOut 744
Compiling threw: SyntaxError: missing variable name

tryItOut 745
Compiling threw: SyntaxError: missing = in destructuring declaration

tryItOut 746

tryItOut 747
It's an iterator!
Iterating succeeded, iterCount == 1

tryItOut 748

tryItOut 749

tryItOut 750
Compiling threw: SyntaxError: missing variable name

tryItOut 751
Compiling threw: SyntaxError: missing = in destructuring declaration

tryItOut 752

tryItOut 753

tryItOut 754
Compiling threw: SyntaxError: missing ; before statement

tryItOut 755
Compiling threw: SyntaxError: invalid assignment left-hand side

tryItOut 756
Running threw: ReferenceError: prototype is not defined

tryItOut 757
Compiling threw: SyntaxError: syntax error

tryItOut 758

tryItOut 759
It's an iterator!
Iterating threw!
Iterating threw: ReferenceError: reference to undefined XML name @foo

tryItOut 760
Compiling threw: TypeError: redeclaration of variable prop

tryItOut 761
Running threw: ReferenceError: reference to undefined XML name *::*

tryItOut 762

tryItOut 763
Running threw: undefined

tryItOut 764
Running threw: undefined

tryItOut 765
before 226720, after 226720, break 010ff000

tryItOut 766
Compiling threw: SyntaxError: invalid destructuring assignment operator

tryItOut 767
Compiling threw: SyntaxError: missing variable name

tryItOut 768
It's an iterator!
Iterating threw!
Iterating threw: ReferenceError: window is not defined

tryItOut 769

tryItOut 770
Compiling threw: SyntaxError: missing } after let block

tryItOut 771

tryItOut 772
Compiling threw: SyntaxError: missing ; before statement

tryItOut 773

tryItOut 774
Running threw: 0

tryItOut 775
Compiling threw: SyntaxError: missing : after property id

tryItOut 776

tryItOut 777
Compiling threw: SyntaxError: invalid for/in left-hand side

tryItOut 778

tryItOut 779

tryItOut 780
Compiling threw: SyntaxError: syntax error

tryItOut 781

tryItOut 782
It's an iterator!
Iterating succeeded, iterCount == 1

tryItOut 783

tryItOut 784
Running threw: ReferenceError: reference to undefined XML name *::*

tryItOut 785

tryItOut 786
before 226720, after 226720, break 010ff000

tryItOut 787

tryItOut 788

tryItOut 789
It's an iterator!
Iterating succeeded, iterCount == 0

tryItOut 790
Compiling threw: SyntaxError: missing ; before statement

tryItOut 791
Compiling threw: SyntaxError: syntax error

tryItOut 792
It's an iterator!
Iterating threw!
Iterating threw: ReferenceError: reference to undefined property "window"

tryItOut 793

tryItOut 794
Running threw: ReferenceError: reference to undefined XML name *::*

tryItOut 795

tryItOut 796
Running threw: [object global]

tryItOut 797
Compiling threw: SyntaxError: syntax error

tryItOut 798

tryItOut 799

tryItOut 800
Compiling threw: SyntaxError: syntax error

tryItOut 801
It's an iterator!
Iterating succeeded, iterCount == 1

tryItOut 802
Compiling threw: SyntaxError: duplicate label

tryItOut 803

tryItOut 804

tryItOut 805

tryItOut 806

tryItOut 807

tryItOut 808

tryItOut 809
Running threw: ReferenceError: reference to undefined XML name *::*

tryItOut 810

tryItOut 811
Compiling threw: SyntaxError: missing : after case label

tryItOut 812

tryItOut 813

tryItOut 814
Compiling threw: SyntaxError: syntax error

tryItOut 815

tryItOut 816
Running threw: ReferenceError: reference to undefined XML name *

tryItOut 817
Running threw: ReferenceError: reference to undefined XML name *

tryItOut 818
Compiling threw: SyntaxError: missing : after property id

tryItOut 819
Compiling threw: SyntaxError: missing ) in parenthetical

tryItOut 820

tryItOut 821
Compiling threw: SyntaxError: missing ; after for-loop initializer

tryItOut 822

tryItOut 823
Running threw: 

tryItOut 824
Running threw: ReferenceError: prototype is not defined

tryItOut 825

tryItOut 826

tryItOut 827
Compiling threw: SyntaxError: missing = in destructuring declaration

tryItOut 828
It's an iterator!
Iterating succeeded, iterCount == 1

tryItOut 829
Compiling threw: SyntaxError: missing = in destructuring declaration

tryItOut 830
It's an iterator!
Iterating threw!
Iterating threw: TypeError: redeclaration of const __parent__

tryItOut 831

tryItOut 832
Compiling threw: SyntaxError: missing = in destructuring declaration

tryItOut 833
Running threw: ReferenceError: reference to undefined XML name @foo

tryItOut 834
It's an iterator!
Iterating succeeded, iterCount == 1

tryItOut 835
It's an iterator!
Iterating succeeded, iterCount == 1

tryItOut 836
Compiling threw: SyntaxError: missing ) in parenthetical

tryItOut 837

tryItOut 838

tryItOut 839
Compiling threw: SyntaxError: missing ; before statement

tryItOut 840
It's an iterator!
Iterating succeeded, iterCount == 1

tryItOut 841

tryItOut 842

tryItOut 843
Running threw: SyntaxError: invalid assignment left-hand side

tryItOut 844
Running threw: [object global]

tryItOut 845

tryItOut 846
Running threw: 0

tryItOut 847

tryItOut 848
Compiling threw: SyntaxError: missing ; before statement

tryItOut 849

tryItOut 850

tryItOut 851
Running threw: Can't toString the error!!

tryItOut 852

tryItOut 853
Compiling threw: SyntaxError: invalid for each loop

tryItOut 854
Compiling threw: SyntaxError: missing = in destructuring declaration

tryItOut 855

tryItOut 856
Compiling threw: SyntaxError: syntax error

tryItOut 857

tryItOut 858
Running threw: ReferenceError: window is not defined

tryItOut 859
Running threw: <x>
  <y/>
</x>

tryItOut 860
Compiling threw: SyntaxError: invalid for/in left-hand side

tryItOut 861
before 261600, after 261600, break 0113a000

tryItOut 862
Compiling threw: SyntaxError: invalid destructuring assignment operator

tryItOut 863

tryItOut 864
Compiling threw: SyntaxError: syntax error

tryItOut 865
Compiling threw: SyntaxError: missing ; before statement

tryItOut 866
It's an iterator!
Iterating succeeded, iterCount == 1

tryItOut 867
Running threw: <y>
  <z/>
</y>

tryItOut 868
Compiling threw: SyntaxError: invalid destructuring assignment operator

tryItOut 869

tryItOut 870
Compiling threw: SyntaxError: missing variable name

tryItOut 871

tryItOut 872

tryItOut 873

tryItOut 874

tryItOut 875
Running threw: <x>
  <y/>
</x>

tryItOut 876
Compiling threw: SyntaxError: missing { before function body

tryItOut 877
Compiling threw: SyntaxError: missing ; before statement

tryItOut 878

tryItOut 879
Compiling threw: SyntaxError: missing : after property id

tryItOut 880
It's an iterator!
Iterating threw!
Iterating threw: ReferenceError: reference to undefined XML name *::*

tryItOut 881

tryItOut 882
Compiling threw: SyntaxError: illegal XML character

tryItOut 883
Running threw: ReferenceError: reference to undefined XML name *

tryItOut 884
Running threw: ReferenceError: reference to undefined XML name *::*

tryItOut 885
Compiling threw: SyntaxError: missing = in destructuring declaration

tryItOut 886

tryItOut 887

tryItOut 888

tryItOut 889
Compiling threw: SyntaxError: invalid assignment left-hand side

tryItOut 890
Compiling threw: SyntaxError: missing ; after for-loop initializer

tryItOut 891
Running threw: ReferenceError: window is not defined

tryItOut 892

tryItOut 893
Running threw: ReferenceError: __proto__ is not defined

tryItOut 894
Running threw: ReferenceError: __proto__ is not defined

tryItOut 895

tryItOut 896
Running threw: ReferenceError: __proto__ is not defined

tryItOut 897
Compiling threw: SyntaxError: missing ; before statement

tryItOut 898

tryItOut 899

tryItOut 900
Compiling threw: SyntaxError: missing ; before statement

tryItOut 901
Compiling threw: SyntaxError: missing ; before statement

tryItOut 902

tryItOut 903
Compiling threw: SyntaxError: missing name after . operator

tryItOut 904

tryItOut 905
Compiling threw: SyntaxError: missing ; before statement

tryItOut 906
Compiling threw: SyntaxError: missing ; before statement

tryItOut 907
Compiling threw: SyntaxError: syntax error

tryItOut 908
Compiling threw: SyntaxError: invalid for/in left-hand side

tryItOut 909
Compiling threw: SyntaxError: missing ) in parenthetical

tryItOut 910
Compiling threw: SyntaxError: missing ) in parenthetical

tryItOut 911
Compiling threw: SyntaxError: missing ) in parenthetical

tryItOut 912
Running threw: 

tryItOut 913
Running threw: TypeError: arguments[0] has no properties

tryItOut 914
Compiling threw: SyntaxError: missing ; after for-loop initializer

tryItOut 915
Compiling threw: SyntaxError: invalid for/in left-hand side

tryItOut 916

tryItOut 917
It's an iterator!
Iterating succeeded, iterCount == 1

tryItOut 918
Running threw: ReferenceError: reference to undefined XML name @foo

tryItOut 919

tryItOut 920

tryItOut 921
before 296480, after 296480, break 0118d000

tryItOut 922
Compiling threw: SyntaxError: missing variable name

tryItOut 923

tryItOut 924
Running threw: TypeError: p.z = <x><y/></x> is not a function

tryItOut 925
It's an iterator!
Iterating succeeded, iterCount == 1

tryItOut 926
Compiling threw: SyntaxError: missing ; before statement

tryItOut 927
Running threw: Error: invalid sharp variable use #1#

tryItOut 928

tryItOut 929

tryItOut 930

tryItOut 931
Running threw: TypeError: <x>
  <y/>
</x> is not a function

tryItOut 932
Compiling threw: SyntaxError: syntax error

tryItOut 933

tryItOut 934
Running threw: ReferenceError: window is not defined

tryItOut 935
Compiling threw: SyntaxError: missing variable name

tryItOut 936
Compiling threw: SyntaxError: missing variable name

tryItOut 937

tryItOut 938

tryItOut 939

tryItOut 940
Running threw: TypeError: can't convert global to string

tryItOut 941
Running threw: ReferenceError: reference to undefined XML name *

tryItOut 942
Compiling threw: SyntaxError: syntax error

tryItOut 943
Running threw: <x>
  <y/>
</x>

tryItOut 944
Compiling threw: SyntaxError: invalid for/in left-hand side

tryItOut 945

tryItOut 946

tryItOut 947

tryItOut 948

tryItOut 949
Running threw: ReferenceError: z2 is not defined

tryItOut 950

tryItOut 951

tryItOut 952
Compiling threw: SyntaxError: syntax error

tryItOut 953

tryItOut 954
Running threw: ReferenceError: window is not defined

tryItOut 955

tryItOut 956
It's an iterator!
Iterating threw!
Iterating threw: ReferenceError: window is not defined

tryItOut 957
Compiling threw: SyntaxError: missing ) after let head

tryItOut 958

tryItOut 959

tryItOut 960
Compiling threw: SyntaxError: syntax error

tryItOut 961
Compiling threw: SyntaxError: missing { before function body

tryItOut 962

tryItOut 963

tryItOut 964

tryItOut 965

tryItOut 966

tryItOut 967
It's an iterator!
Iterating threw!
Iterating threw: ReferenceError: reference to undefined XML name *::*

tryItOut 968

tryItOut 969

tryItOut 970
Compiling threw: SyntaxError: duplicate label

tryItOut 971
Running threw: ReferenceError: window is not defined

tryItOut 972

tryItOut 973

tryItOut 974
Running threw: ReferenceError: reference to undefined XML name *::*

tryItOut 975
It's an iterator!
Iterating threw!
Iterating threw: ReferenceError: window is not defined

tryItOut 976
Compiling threw: SyntaxError: syntax error

tryItOut 977

tryItOut 978

tryItOut 979

tryItOut 980
Running threw: ReferenceError: prototype is not defined

tryItOut 981
Compiling threw: SyntaxError: syntax error

tryItOut 982
Compiling threw: SyntaxError: syntax error

tryItOut 983
Running threw: function sort() {
    [native code]
}

tryItOut 984
Compiling threw: SyntaxError: invalid for each loop

tryItOut 985
Compiling threw: SyntaxError: missing ; before statement

tryItOut 986
Compiling threw: SyntaxError: syntax error

tryItOut 987
Compiling threw: SyntaxError: missing ; before statement

tryItOut 988
Running threw: TypeError: can't convert null to number

tryItOut 989

tryItOut 990
Compiling threw: SyntaxError: missing ; after for-loop initializer

tryItOut 991
Compiling threw: SyntaxError: syntax error

tryItOut 992
Running threw: TypeError: can't convert global to string

tryItOut 993

tryItOut 994

tryItOut 995

tryItOut 996

tryItOut 997
Compiling threw: SyntaxError: missing ) in parenthetical

tryItOut 998

tryItOut 999
Running threw: Can't toString the error!!

tryItOut 1000
Running threw: ReferenceError: window is not defined

ALL OK

Script done on Sat 04 May 2013 07:02:01 AM PDT
