Script started on Sat 04 May 2013 07:02:51 AM PDT
***
Targeting SpiderMonkey / Gecko.

tryItOut 1
Running threw: ReferenceError: z1 is not defined

tryItOut 2
Compiling threw: TypeError: generator function anonymous returns a value

tryItOut 3
It's an iterator!
Iterating succeeded, iterCount == 1

tryItOut 4
Compiling threw: TypeError: generator function anonymous returns a value

tryItOut 5

tryItOut 6
Compiling threw: SyntaxError: label not found

tryItOut 7

tryItOut 8
Running threw: TypeError: undefined has no properties

tryItOut 9
Compiling threw: SyntaxError: missing variable name

tryItOut 10
Compiling threw: SyntaxError: label not found

tryItOut 11

tryItOut 12

tryItOut 13
Compiling threw: SyntaxError: invalid assignment left-hand side

tryItOut 14
Running threw: ReferenceError: z1 is not defined

tryItOut 15
Compiling threw: SyntaxError: invalid continue

tryItOut 16
Compiling threw: SyntaxError: invalid for/in left-hand side

tryItOut 17
Running threw: ReferenceError: z1 is not defined

tryItOut 18
Compiling threw: SyntaxError: missing ) after catch

tryItOut 19
Running threw: ReferenceError: z1 is not defined

tryItOut 20
Compiling threw: SyntaxError: missing { before function body

tryItOut 21

tryItOut 22
Compiling threw: SyntaxError: invalid assignment left-hand side

tryItOut 23
Compiling threw: SyntaxError: syntax error

tryItOut 24
It's an iterator!
Iterating succeeded, iterCount == 1

tryItOut 25
Compiling threw: SyntaxError: label not found

tryItOut 26
Running threw: TypeError: p.z = Error() is not a function

tryItOut 27
It's an iterator!
Iterating succeeded, iterCount == 1

tryItOut 28

tryItOut 29
Compiling threw: SyntaxError: syntax error

tryItOut 30
Running threw: NaN

tryItOut 31

tryItOut 32

tryItOut 33
Running threw: TypeError: p.z = __iterator__ = undefined is not a function

tryItOut 34
It's an iterator!
Iterating succeeded, iterCount == 1

tryItOut 35
It's an iterator!
Iterating threw!
Iterating threw: TypeError: p.z = undefined is not a function

tryItOut 36

tryItOut 37
Compiling threw: SyntaxError: label not found

tryItOut 38
Compiling threw: SyntaxError: missing ) in parenthetical

tryItOut 39

tryItOut 40

tryItOut 41

tryItOut 42
Compiling threw: SyntaxError: missing ) in parenthetical

tryItOut 43

tryItOut 44
Compiling threw: SyntaxError: missing name after . operator

tryItOut 45

tryItOut 46
It's an iterator!
Iterating threw!
Iterating threw: TypeError: undefined has no properties

tryItOut 47
It's an iterator!
Iterating succeeded, iterCount == 0

tryItOut 48
It's an iterator!
Iterating succeeded, iterCount == 1

tryItOut 49
Compiling threw: SyntaxError: syntax error

tryItOut 50

tryItOut 51

tryItOut 52

tryItOut 53
Compiling threw: SyntaxError: label not found

tryItOut 54
before 104640, after 104640, break 01f29000

tryItOut 55

tryItOut 56
Compiling threw: SyntaxError: missing ; before statement

tryItOut 57
Compiling threw: SyntaxError: missing ; before statement

tryItOut 58
It's an iterator!
Iterating succeeded, iterCount == 1

tryItOut 59
It's an iterator!
Iterating threw!
Iterating threw: TypeError: __parent__ has no properties

tryItOut 60

tryItOut 61
Compiling threw: SyntaxError: invalid increment operand

tryItOut 62
Compiling threw: SyntaxError: invalid decrement operand

tryItOut 63
Running threw: 1e+81

tryItOut 64
Compiling threw: SyntaxError: missing variable name

tryItOut 65

tryItOut 66
Compiling threw: SyntaxError: invalid continue

tryItOut 67
Compiling threw: SyntaxError: missing ) after let head

tryItOut 68
Compiling threw: SyntaxError: label not found

tryItOut 69

tryItOut 70
It's an iterator!
Iterating succeeded, iterCount == 0

tryItOut 71
Running threw: TypeError: undefined has no properties

tryItOut 72
Compiling threw: SyntaxError: missing ) in parenthetical

tryItOut 73

tryItOut 74
It's an iterator!
Iterating succeeded, iterCount == 1

tryItOut 75
Compiling threw: SyntaxError: syntax error

tryItOut 76

tryItOut 77
before 104640, after 104640, break 01f29000

tryItOut 78
Running threw: Error: invalid sharp variable use #1#

tryItOut 79
It's an iterator!
Iterating threw!
Iterating threw: ReferenceError: z2 is not defined

tryItOut 80

tryItOut 81
Compiling threw: SyntaxError: missing ; after for-loop initializer

tryItOut 82
Compiling threw: SyntaxError: invalid assignment left-hand side

tryItOut 83
Compiling threw: SyntaxError: invalid destructuring assignment operator

tryItOut 84
Compiling threw: SyntaxError: missing ) in parenthetical

tryItOut 85

tryItOut 86
Running threw: ReferenceError: z1 is not defined

tryItOut 87

tryItOut 88
Compiling threw: SyntaxError: invalid assignment left-hand side

tryItOut 89
It's an iterator!
Iterating succeeded, iterCount == 1

tryItOut 90
before 104640, after 104640, break 01f29000

tryItOut 91
Running threw: TypeError: null has no properties

tryItOut 92

tryItOut 93

tryItOut 94
It's an iterator!
Iterating succeeded, iterCount == 1

tryItOut 95
It's an iterator!
Iterating threw!
Iterating threw: TypeError: redeclaration of var __count__

tryItOut 96
Compiling threw: SyntaxError: invalid assignment left-hand side

tryItOut 97

tryItOut 98

tryItOut 99
Compiling threw: SyntaxError: missing variable name

tryItOut 100
Compiling threw: TypeError: generator function anonymous returns a value

tryItOut 101

tryItOut 102

tryItOut 103
It's an iterator!
Iterating succeeded, iterCount == 1

tryItOut 104
Compiling threw: SyntaxError: unterminated regular expression literal

tryItOut 105
Compiling threw: SyntaxError: label not found

tryItOut 106
It's an iterator!
Iterating threw!
Iterating threw: Error: invalid sharp variable use #1#

tryItOut 107
Running threw: ReferenceError: z1 is not defined

tryItOut 108
Compiling threw: SyntaxError: invalid increment operand

tryItOut 109

tryItOut 110

tryItOut 111
Compiling threw: SyntaxError: missing : after property id

tryItOut 112

tryItOut 113
It's an iterator!
Iterating threw!
Iterating threw: ReferenceError: z1 is not defined

tryItOut 114

tryItOut 115
Compiling threw: SyntaxError: missing ) in parenthetical

tryItOut 116

tryItOut 117
It's an iterator!
Iterating succeeded, iterCount == 1

tryItOut 118
Compiling threw: SyntaxError: missing variable name

tryItOut 119

tryItOut 120
Running threw: TypeError: null has no properties

tryItOut 121
Compiling threw: TypeError: generator function anonymous returns a value

tryItOut 122
Running threw: <x>
  <y/>
</x>

tryItOut 123
Compiling threw: SyntaxError: label not found

tryItOut 124
It's an iterator!
Iterating succeeded, iterCount == 1

tryItOut 125
Compiling threw: SyntaxError: missing ; before statement

tryItOut 126
before 104640, after 104640, break 01f29000

tryItOut 127
Compiling threw: SyntaxError: missing variable name

tryItOut 128
It's an iterator!
Iterating succeeded, iterCount == 1

tryItOut 129

tryItOut 130
Compiling threw: SyntaxError: invalid assignment left-hand side

tryItOut 131
Running threw: TypeError: this.zzz has no properties

tryItOut 132
Compiling threw: SyntaxError: invalid for/in left-hand side

tryItOut 133
Compiling threw: SyntaxError: invalid assignment left-hand side

tryItOut 134
Compiling threw: SyntaxError: label not found

tryItOut 135
Compiling threw: SyntaxError: missing ; before statement

tryItOut 136
Compiling threw: SyntaxError: missing ) after with-statement object

tryItOut 137

tryItOut 138
It's an iterator!
Iterating succeeded, iterCount == 1

tryItOut 139

tryItOut 140

tryItOut 141

tryItOut 142
Compiling threw: SyntaxError: missing ) in parenthetical

tryItOut 143
Compiling threw: SyntaxError: invalid for/in left-hand side

tryItOut 144

tryItOut 145

tryItOut 146
It's an iterator!
Iterating succeeded, iterCount == 0

tryItOut 147
Compiling threw: SyntaxError: invalid assignment left-hand side

tryItOut 148
before 104640, after 104640, break 01f47000

tryItOut 149
before 104640, after 104640, break 01f47000

tryItOut 150
Compiling threw: SyntaxError: syntax error

tryItOut 151
Compiling threw: SyntaxError: invalid assignment left-hand side

tryItOut 152
Compiling threw: SyntaxError: missing { before function body

tryItOut 153
Running threw: ReferenceError: z2 is not defined

tryItOut 154

tryItOut 155
Compiling threw: TypeError: generator function anonymous returns a value

tryItOut 156

tryItOut 157
Compiling threw: SyntaxError: invalid assignment left-hand side

tryItOut 158
Compiling threw: SyntaxError: invalid for/in left-hand side

tryItOut 159

tryItOut 160
Compiling threw: SyntaxError: invalid increment operand

tryItOut 161
Compiling threw: SyntaxError: missing ) in parenthetical

tryItOut 162
Compiling threw: SyntaxError: invalid break

tryItOut 163

tryItOut 164

tryItOut 165
It's an iterator!
Iterating threw!
Iterating threw: TypeError: undefined has no properties

tryItOut 166
Compiling threw: SyntaxError: missing ; before statement

tryItOut 167
It's an iterator!
Iterating succeeded, iterCount == 1

tryItOut 168

tryItOut 169

tryItOut 170
Compiling threw: SyntaxError: missing variable name

tryItOut 171

tryItOut 172
Compiling threw: SyntaxError: invalid for/in left-hand side

tryItOut 173

tryItOut 174

tryItOut 175
Compiling threw: SyntaxError: missing ; after for-loop initializer

tryItOut 176

tryItOut 177
It's an iterator!
Iterating succeeded, iterCount == 0

tryItOut 178
Compiling threw: SyntaxError: missing { before function body

tryItOut 179

tryItOut 180

tryItOut 181
Compiling threw: SyntaxError: missing : after case label

tryItOut 182

tryItOut 183

tryItOut 184
Running threw: TypeError: redeclaration of var __proto__

tryItOut 185

tryItOut 186
Compiling threw: TypeError: generator function anonymous returns a value

tryItOut 187
It's an iterator!
Iterating succeeded, iterCount == 1

tryItOut 188

tryItOut 189
Compiling threw: SyntaxError: invalid assignment left-hand side

tryItOut 190
Compiling threw: SyntaxError: invalid increment operand

tryItOut 191
Compiling threw: SyntaxError: invalid continue

tryItOut 192

tryItOut 193

tryItOut 194
It's an iterator!
Iterating succeeded, iterCount == 1

tryItOut 195
It's an iterator!
Iterating threw!
Iterating threw: TypeError: __iterator__ is not a function

tryItOut 196

tryItOut 197
It's an iterator!
Iterating succeeded, iterCount == 1

tryItOut 198

tryItOut 199
Compiling threw: SyntaxError: invalid XML name

tryItOut 200
It's an iterator!
Iterating succeeded, iterCount == 1

tryItOut 201

tryItOut 202

tryItOut 203
Compiling threw: SyntaxError: invalid break

tryItOut 204

tryItOut 205
It's an iterator!
Iterating threw!
Iterating threw: TypeError: arguments[0] has no properties

tryItOut 206
before 139520, after 139520, break 01f7a000

tryItOut 207

tryItOut 208

tryItOut 209
It's an iterator!
Iterating succeeded, iterCount == 1

tryItOut 210

tryItOut 211
Compiling threw: SyntaxError: invalid assignment left-hand side

tryItOut 212
Compiling threw: SyntaxError: syntax error

tryItOut 213

tryItOut 214

tryItOut 215

tryItOut 216
Compiling threw: SyntaxError: missing { before function body

tryItOut 217
Compiling threw: SyntaxError: invalid assignment left-hand side

tryItOut 218
It's an iterator!
Iterating succeeded, iterCount == 1

tryItOut 219
It's an iterator!
Iterating threw!
Iterating threw: TypeError: this.zzz has no properties

tryItOut 220
Compiling threw: SyntaxError: invalid assignment left-hand side

tryItOut 221
before 139520, after 139520, break 01f7a000

tryItOut 222

tryItOut 223

tryItOut 224
It's an iterator!
Iterating succeeded, iterCount == 1

tryItOut 225

tryItOut 226
Compiling threw: SyntaxError: label not found

tryItOut 227
Compiling threw: SyntaxError: missing ) in parenthetical

tryItOut 228
Compiling threw: TypeError: generator function anonymous returns a value

tryItOut 229
Compiling threw: SyntaxError: invalid continue

tryItOut 230

tryItOut 231

tryItOut 232
Compiling threw: SyntaxError: missing ) in parenthetical

tryItOut 233
Compiling threw: SyntaxError: label not found

tryItOut 234

tryItOut 235

tryItOut 236

tryItOut 237
Running threw: ReferenceError: z1 is not defined

tryItOut 238

tryItOut 239
It's an iterator!
Iterating succeeded, iterCount == 0

tryItOut 240
Compiling threw: SyntaxError: syntax error

tryItOut 241
Compiling threw: SyntaxError: syntax error

tryItOut 242
Compiling threw: SyntaxError: missing ; before statement

tryItOut 243
Running threw: TypeError: this.__defineSetter__("prop", #3={, a:#3#}.watch) has no properties

tryItOut 244
Compiling threw: SyntaxError: invalid decrement operand

tryItOut 245
Running threw: 

tryItOut 246
Running threw: TypeError: __noSuchMethod__ has no properties

tryItOut 247
It's an iterator!
Iterating succeeded, iterCount == 1

tryItOut 248
It's an iterator!
Iterating threw!
Iterating threw: TypeError: __iterator__ has no properties

tryItOut 249

tryItOut 250

tryItOut 251
before 139520, after 139520, break 01f7a000

tryItOut 252
Compiling threw: SyntaxError: missing ; before statement

tryItOut 253
Running threw: Error: invalid sharp variable use #1#

tryItOut 254
It's an iterator!
Iterating succeeded, iterCount == 1

tryItOut 255
Compiling threw: SyntaxError: label not found

tryItOut 256
It's an iterator!
Iterating threw!
Iterating threw: TypeError: (function ([y]) {})[[[]]] has no properties

tryItOut 257
Compiling threw: SyntaxError: invalid break

tryItOut 258

tryItOut 259
Compiling threw: SyntaxError: label not found

tryItOut 260
Compiling threw: SyntaxError: label not found

tryItOut 261
Compiling threw: SyntaxError: invalid increment operand

tryItOut 262
Compiling threw: SyntaxError: syntax error

tryItOut 263
Compiling threw: SyntaxError: invalid increment operand

tryItOut 264
Running threw: ReferenceError: z1 is not defined

tryItOut 265

tryItOut 266

tryItOut 267
Compiling threw: SyntaxError: missing variable name

tryItOut 268

tryItOut 269

tryItOut 270
Compiling threw: SyntaxError: missing ) in parenthetical

tryItOut 271

tryItOut 272
Compiling threw: SyntaxError: invalid break

tryItOut 273

tryItOut 274

tryItOut 275
Compiling threw: TypeError: generator function anonymous returns a value

tryItOut 276
Compiling threw: SyntaxError: invalid increment operand

tryItOut 277

tryItOut 278

tryItOut 279

tryItOut 280

tryItOut 281
It's an iterator!
Iterating succeeded, iterCount == 1

tryItOut 282
Compiling threw: SyntaxError: missing ) in parenthetical

tryItOut 283
It's an iterator!
Iterating threw!
Iterating threw: ReferenceError: n is not defined

tryItOut 284
Compiling threw: SyntaxError: invalid continue

tryItOut 285
Compiling threw: SyntaxError: illegal XML character

tryItOut 286
Compiling threw: TypeError: generator function anonymous returns a value

tryItOut 287
Compiling threw: SyntaxError: invalid destructuring assignment operator

tryItOut 288
Compiling threw: SyntaxError: missing ) in parenthetical

tryItOut 289
Compiling threw: SyntaxError: missing ) in parenthetical

tryItOut 290

tryItOut 291
It's an iterator!
Iterating threw!
Iterating threw: ReferenceError: z1 is not defined

tryItOut 292
Compiling threw: SyntaxError: duplicate label

tryItOut 293

tryItOut 294
Running threw: 

tryItOut 295
Compiling threw: TypeError: generator function anonymous returns a value

tryItOut 296

tryItOut 297

tryItOut 298

tryItOut 299
before 139520, after 139520, break 01f8e000

tryItOut 300

tryItOut 301

tryItOut 302

tryItOut 303
Compiling threw: SyntaxError: duplicate label

tryItOut 304
Compiling threw: SyntaxError: missing ; before statement

tryItOut 305

tryItOut 306
Running threw: TypeError: __parent__ has no properties

tryItOut 307

tryItOut 308
Running threw: -1

tryItOut 309
Compiling threw: SyntaxError: syntax error

tryItOut 310
Compiling threw: SyntaxError: label not found

tryItOut 311
It's an iterator!
Iterating succeeded, iterCount == 1

tryItOut 312
Compiling threw: SyntaxError: label not found

tryItOut 313
It's an iterator!
Iterating threw!
Iterating threw: TypeError: undefined has no properties

tryItOut 314
Compiling threw: SyntaxError: missing ; before statement

tryItOut 315

tryItOut 316

tryItOut 317

tryItOut 318
Compiling threw: SyntaxError: missing ; before statement

tryItOut 319
Compiling threw: SyntaxError: missing ( before let head

tryItOut 320

tryItOut 321
Compiling threw: SyntaxError: missing ) in parenthetical

tryItOut 322

tryItOut 323

tryItOut 324
Running threw: TypeError: XML filtering predicate operator called on incompatible Object

tryItOut 325
Compiling threw: SyntaxError: invalid break

tryItOut 326
Compiling threw: SyntaxError: invalid continue

tryItOut 327
Compiling threw: SyntaxError: invalid assignment left-hand side

tryItOut 328
Compiling threw: SyntaxError: missing ; before statement

tryItOut 329
Compiling threw: SyntaxError: missing variable name

tryItOut 330
Running threw: SyntaxError: yield not in function

tryItOut 331

tryItOut 332
It's an iterator!
Iterating threw!
Iterating threw: TypeError: undefined has no properties

tryItOut 333
Compiling threw: SyntaxError: missing ; before statement

tryItOut 334

tryItOut 335

tryItOut 336
Compiling threw: TypeError: generator function anonymous returns a value

tryItOut 337
Compiling threw: SyntaxError: missing ) in parenthetical

tryItOut 338
It's an iterator!
Iterating succeeded, iterCount == 0

tryItOut 339
Compiling threw: SyntaxError: missing ) in parenthetical

tryItOut 340
Compiling threw: SyntaxError: missing while after do-loop body

tryItOut 341

tryItOut 342
Running threw: TypeError: undefined has no properties

tryItOut 343

tryItOut 344

tryItOut 345

tryItOut 346
Compiling threw: SyntaxError: label not found

tryItOut 347
It's an iterator!
Iterating threw!
Iterating threw: TypeError: p.z = #1=[, #1#] is not a function

tryItOut 348
Running threw: TypeError: null is not a constructor

tryItOut 349

tryItOut 350

tryItOut 351
Compiling threw: TypeError: generator function anonymous returns a value

tryItOut 352

tryItOut 353
Compiling threw: SyntaxError: invalid increment operand

tryItOut 354
Compiling threw: SyntaxError: missing ) in parenthetical

tryItOut 355
Compiling threw: SyntaxError: missing variable name

tryItOut 356
Compiling threw: SyntaxError: invalid assignment left-hand side

tryItOut 357
Compiling threw: SyntaxError: missing { before function body

tryItOut 358
It's an iterator!
Iterating threw!
Iterating threw: TypeError: undefined has no properties

tryItOut 359
Compiling threw: TypeError: redeclaration of var __noSuchMethod__

tryItOut 360

tryItOut 361
Running threw: ReferenceError: z2 is not defined

tryItOut 362

tryItOut 363

tryItOut 364
Compiling threw: SyntaxError: missing ) in parenthetical

tryItOut 365
It's an iterator!
Iterating threw!
Iterating threw: TypeError: this.zzz has no properties

tryItOut 366
Running threw: 1e+81

tryItOut 367

tryItOut 368
Compiling threw: SyntaxError: invalid break

tryItOut 369
Running threw: TypeError: 0 is not a constructor

tryItOut 370
Running threw: TypeError: __proto__ has no properties

tryItOut 371
Compiling threw: SyntaxError: missing ) in parenthetical

tryItOut 372

tryItOut 373
Compiling threw: SyntaxError: missing variable name

tryItOut 374

tryItOut 375
It's an iterator!
Iterating threw!
Iterating threw: SyntaxError: yield not in function

tryItOut 376
It's an iterator!
Iterating succeeded, iterCount == 1

tryItOut 377

tryItOut 378
Compiling threw: SyntaxError: missing ; after for-loop initializer

tryItOut 379
It's an iterator!
Iterating threw!
Iterating threw: ReferenceError: z1 is not defined

tryItOut 380

tryItOut 381
It's an iterator!
Iterating threw!
Iterating threw: ReferenceError: z1 is not defined

tryItOut 382

tryItOut 383
Compiling threw: SyntaxError: missing { before function body

tryItOut 384

tryItOut 385
Compiling threw: SyntaxError: missing ) after condition

tryItOut 386

tryItOut 387

tryItOut 388
It's an iterator!
Iterating succeeded, iterCount == 0

tryItOut 389
Compiling threw: SyntaxError: invalid assignment left-hand side

tryItOut 390

tryItOut 391
Compiling threw: SyntaxError: invalid decrement operand

tryItOut 392

tryItOut 393

tryItOut 394
Compiling threw: SyntaxError: syntax error

tryItOut 395
Compiling threw: TypeError: generator function anonymous returns a value

tryItOut 396
Compiling threw: SyntaxError: label not found

tryItOut 397

tryItOut 398
Compiling threw: SyntaxError: missing variable name

tryItOut 399

tryItOut 400
It's an iterator!
Iterating succeeded, iterCount == 1

tryItOut 401
It's an iterator!
Iterating succeeded, iterCount == 1

tryItOut 402

tryItOut 403
Compiling threw: SyntaxError: invalid break

tryItOut 404

tryItOut 405

tryItOut 406
Compiling threw: SyntaxError: missing ) in parenthetical

tryItOut 407

tryItOut 408

tryItOut 409
Compiling threw: SyntaxError: invalid continue

tryItOut 410

tryItOut 411
Compiling threw: SyntaxError: syntax error

tryItOut 412

tryItOut 413
It's an iterator!
Iterating threw!
Iterating threw: TypeError: constructor has no properties

tryItOut 414

tryItOut 415
Running threw: TypeError: true.watch("constructor", [1, 2, 3, 4].slice) has no properties

tryItOut 416
Compiling threw: SyntaxError: invalid for/in left-hand side

tryItOut 417
It's an iterator!
Iterating succeeded, iterCount == 1

tryItOut 418

tryItOut 419
Compiling threw: SyntaxError: missing ; before statement

tryItOut 420
Compiling threw: SyntaxError: missing ; before statement

tryItOut 421
It's an iterator!
Iterating succeeded, iterCount == 0

tryItOut 422
Compiling threw: SyntaxError: label not found

tryItOut 423

tryItOut 424
Running threw: TypeError: undefined has no properties

tryItOut 425
Compiling threw: SyntaxError: missing ) after condition

tryItOut 426

tryItOut 427
Running threw: TypeError: this.zzz has no properties

tryItOut 428

tryItOut 429
Compiling threw: SyntaxError: missing ) in parenthetical

tryItOut 430
It's an iterator!
Iterating succeeded, iterCount == 1

tryItOut 431
Running threw: null

tryItOut 432
Compiling threw: SyntaxError: invalid assignment left-hand side

tryItOut 433
Compiling threw: SyntaxError: syntax error

tryItOut 434
Compiling threw: SyntaxError: label not found

tryItOut 435
Compiling threw: SyntaxError: missing ; before statement

tryItOut 436
Compiling threw: SyntaxError: missing variable name

tryItOut 437

tryItOut 438

tryItOut 439
Compiling threw: SyntaxError: invalid assignment left-hand side

tryItOut 440
It's an iterator!
Iterating threw!
Iterating threw: null

tryItOut 441
Running threw: TypeError: prop has no properties

tryItOut 442
It's an iterator!
Iterating threw!
Iterating threw: TypeError: <x><y/></x>.watch is not a function

tryItOut 443
Compiling threw: SyntaxError: invalid for/in left-hand side

tryItOut 444
Compiling threw: SyntaxError: syntax error

tryItOut 445
Compiling threw: SyntaxError: invalid break

tryItOut 446
Compiling threw: SyntaxError: invalid increment operand

tryItOut 447
It's an iterator!
Iterating succeeded, iterCount == 0

tryItOut 448

tryItOut 449
Compiling threw: SyntaxError: missing : after property id

tryItOut 450
Compiling threw: SyntaxError: missing { before function body

tryItOut 451
Compiling threw: SyntaxError: invalid assignment left-hand side

tryItOut 452
Running threw: <x>
  <y/>
</x>

tryItOut 453
Running threw: ReferenceError: a is not defined

tryItOut 454

tryItOut 455
Running threw: TypeError: eval("<x><y/></x>", []) is not a function

tryItOut 456
Compiling threw: SyntaxError: invalid continue

tryItOut 457
Compiling threw: SyntaxError: label not found

tryItOut 458
Compiling threw: SyntaxError: missing variable name

tryItOut 459

tryItOut 460

tryItOut 461
It's an iterator!
Iterating threw!
Iterating threw: ReferenceError: z1 is not defined

tryItOut 462
Compiling threw: SyntaxError: missing variable name

tryItOut 463
before 226720, after 226720, break 02065000

tryItOut 464
Compiling threw: SyntaxError: invalid assignment left-hand side

tryItOut 465

tryItOut 466

tryItOut 467
It's an iterator!
Iterating threw!
Iterating threw: ReferenceError: Exception is not defined

tryItOut 468
Compiling threw: TypeError: generator function anonymous returns a value

tryItOut 469
Compiling threw: SyntaxError: missing { before function body

tryItOut 470
It's an iterator!
Iterating succeeded, iterCount == 1

tryItOut 471
Running threw: SyntaxError: invalid assignment left-hand side

tryItOut 472

tryItOut 473

tryItOut 474
Running threw: ReferenceError: yyy is not defined

tryItOut 475

tryItOut 476
Compiling threw: SyntaxError: missing ; before statement

tryItOut 477

tryItOut 478

tryItOut 479
It's an iterator!
Iterating succeeded, iterCount == 1

tryItOut 480

tryItOut 481
Compiling threw: SyntaxError: label not found

tryItOut 482
before 226720, after 226720, break 02065000

tryItOut 483
Compiling threw: SyntaxError: invalid continue

tryItOut 484
Compiling threw: SyntaxError: unterminated regular expression literal

tryItOut 485
Compiling threw: SyntaxError: syntax error

tryItOut 486
Compiling threw: SyntaxError: invalid increment operand

tryItOut 487

tryItOut 488
Compiling threw: SyntaxError: missing ) in parenthetical

tryItOut 489
Compiling threw: SyntaxError: missing variable name

tryItOut 490

tryItOut 491
Compiling threw: TypeError: generator function anonymous returns a value

tryItOut 492
It's an iterator!
Iterating succeeded, iterCount == 1

tryItOut 493
Compiling threw: SyntaxError: syntax error

tryItOut 494
Running threw: TypeError: Math.sin.__lookupGetter__("prototype") has no properties

tryItOut 495
Running threw: <x>
  <y/>
</x>

tryItOut 496
Compiling threw: SyntaxError: missing ; before statement

tryItOut 497

tryItOut 498

tryItOut 499

tryItOut 500
Compiling threw: SyntaxError: label not found

tryItOut 501

tryItOut 502
Compiling threw: SyntaxError: invalid for/in left-hand side

tryItOut 503
It's an iterator!
Iterating succeeded, iterCount == 0

tryItOut 504

tryItOut 505

tryItOut 506
It's an iterator!
Iterating succeeded, iterCount == 1

tryItOut 507

tryItOut 508
It's an iterator!
Iterating succeeded, iterCount == 1

tryItOut 509

tryItOut 510
Compiling threw: SyntaxError: label not found

tryItOut 511
Compiling threw: SyntaxError: label not found

tryItOut 512
Compiling threw: SyntaxError: missing ) in parenthetical

tryItOut 513
It's an iterator!
before 226720, after 226720, break 02065000
Iterating succeeded, iterCount == 0

tryItOut 514

tryItOut 515

tryItOut 516

tryItOut 517
Compiling threw: SyntaxError: invalid assignment left-hand side

tryItOut 518
before 226720, after 226720, break 02065000

tryItOut 519

tryItOut 520

tryItOut 521

tryItOut 522

tryItOut 523

tryItOut 524

tryItOut 525
It's an iterator!
Iterating succeeded, iterCount == 1

tryItOut 526

tryItOut 527
Compiling threw: SyntaxError: syntax error

tryItOut 528
Compiling threw: SyntaxError: invalid break

tryItOut 529
It's an iterator!
Iterating threw!
Iterating threw: TypeError: undefined has no properties

tryItOut 530

tryItOut 531
Compiling threw: SyntaxError: syntax error

tryItOut 532
Compiling threw: SyntaxError: missing ; after for-loop initializer

tryItOut 533
It's an iterator!
Iterating succeeded, iterCount == 1

tryItOut 534
Compiling threw: SyntaxError: missing ) in parenthetical

tryItOut 535
Compiling threw: SyntaxError: missing { before function body

tryItOut 536
before 226720, after 226720, break 02064000

tryItOut 537
Compiling threw: SyntaxError: syntax error

tryItOut 538

tryItOut 539

tryItOut 540

tryItOut 541
It's an iterator!
Iterating succeeded, iterCount == 1

tryItOut 542

tryItOut 543

tryItOut 544
It's an iterator!
Iterating threw!
Iterating threw: ReferenceError: yyy is not defined

tryItOut 545
Compiling threw: SyntaxError: invalid for/in left-hand side

tryItOut 546

tryItOut 547

tryItOut 548
Running threw: ReferenceError: __parent__ is not defined

tryItOut 549
Compiling threw: SyntaxError: missing = in destructuring declaration

tryItOut 550
Compiling threw: SyntaxError: missing ; before statement

tryItOut 551
Running threw: ReferenceError: z1 is not defined

tryItOut 552

tryItOut 553
Running threw: ReferenceError: yyy is not defined

tryItOut 554

tryItOut 555
Compiling threw: SyntaxError: missing ) in parenthetical

tryItOut 556
Compiling threw: SyntaxError: missing : after property id

tryItOut 557
Running threw: ReferenceError: z1 is not defined

tryItOut 558
Compiling threw: TypeError: anonymous generator function returns a value

tryItOut 559
Running threw: Error: invalid sharp variable use #1#

tryItOut 560

tryItOut 561
before 226720, after 226720, break 0207a000

tryItOut 562

tryItOut 563
Running threw: TypeError: null has no properties

tryItOut 564
Compiling threw: SyntaxError: missing ) in parenthetical

tryItOut 565
Compiling threw: SyntaxError: invalid destructuring assignment operator

tryItOut 566
Compiling threw: SyntaxError: invalid assignment left-hand side

tryItOut 567
Compiling threw: SyntaxError: invalid for/in left-hand side

tryItOut 568
Running threw: TypeError: /a/gi(0.1) has no properties

tryItOut 569
Running threw: ReferenceError: __parent__ is not defined

tryItOut 570

tryItOut 571
It's an iterator!
Iterating threw!
Iterating threw: TypeError: undefined has no properties

tryItOut 572
It's an iterator!
Iterating succeeded, iterCount == 1

tryItOut 573
It's an iterator!
Iterating threw!
Iterating threw: ReferenceError: z1 is not defined

tryItOut 574
It's an iterator!
Iterating threw!
Iterating threw: <x>
  <y/>
</x>

tryItOut 575
It's an iterator!
Iterating succeeded, iterCount == 1

tryItOut 576
Compiling threw: SyntaxError: label not found

tryItOut 577
Compiling threw: SyntaxError: syntax error

tryItOut 578
It's an iterator!
Iterating threw!
Iterating threw: TypeError: undefined is not a function

tryItOut 579
Running threw: <x>
  <y/>
</x>

tryItOut 580

tryItOut 581
Compiling threw: SyntaxError: invalid assignment left-hand side

tryItOut 582

tryItOut 583

tryItOut 584
Compiling threw: SyntaxError: invalid continue

tryItOut 585

tryItOut 586
Compiling threw: SyntaxError: label not found

tryItOut 587

tryItOut 588
Compiling threw: SyntaxError: invalid for/in left-hand side

tryItOut 589

tryItOut 590
Compiling threw: SyntaxError: invalid continue

tryItOut 591
Running threw: -Infinity

tryItOut 592

tryItOut 593
Running threw: TypeError: constructor has no properties

tryItOut 594

tryItOut 595
Compiling threw: SyntaxError: missing ) in parenthetical

tryItOut 596

tryItOut 597
It's an iterator!
Iterating threw!
Iterating threw: SyntaxError: invalid assignment left-hand side

tryItOut 598
Compiling threw: SyntaxError: syntax error

tryItOut 599
before 261600, after 261600, break 020ad000

tryItOut 600
Compiling threw: SyntaxError: invalid break

tryItOut 601
Running threw: TypeError: undefined is not a function

tryItOut 602
Compiling threw: SyntaxError: label not found

tryItOut 603
Running threw: TypeError: [15, 16, 17, 18].filter(#3={, a:#3#}.watch, <x><y/></x>) is not a function

tryItOut 604

tryItOut 605

tryItOut 606
before 261600, after 244160, break 020ad000

tryItOut 607
Compiling threw: SyntaxError: label not found

tryItOut 608
It's an iterator!
Iterating threw!
Iterating threw: Error: invalid sharp variable use #1#

tryItOut 609
Running threw: TypeError: this.zzz has no properties

tryItOut 610
Compiling threw: SyntaxError: missing ) after switch expression

tryItOut 611
Compiling threw: SyntaxError: syntax error

tryItOut 612
Compiling threw: SyntaxError: missing ; before statement

tryItOut 613
Compiling threw: SyntaxError: missing name after . operator

tryItOut 614
Compiling threw: SyntaxError: missing ) in parenthetical

tryItOut 615
It's an iterator!
Iterating threw!
Iterating threw: TypeError: undefined has no properties

tryItOut 616
Running threw: <x>
  <y/>
</x>

tryItOut 617
Running threw: TypeError: undefined is not a function

tryItOut 618

tryItOut 619
Compiling threw: SyntaxError: invalid decrement operand

tryItOut 620
Running threw: TypeError: p.z = [, , ] is not a function

tryItOut 621
Running threw: Error: invalid sharp variable use #1#

tryItOut 622
Compiling threw: SyntaxError: invalid for/in left-hand side

tryItOut 623

tryItOut 624
It's an iterator!
Iterating succeeded, iterCount == 0

tryItOut 625
It's an iterator!
Iterating succeeded, iterCount == 1

tryItOut 626
Compiling threw: TypeError: generator function anonymous returns a value

tryItOut 627
Running threw: TypeError: this.zzz has no properties

tryItOut 628
Compiling threw: SyntaxError: missing ) in parenthetical

tryItOut 629
Running threw: undefined

tryItOut 630

tryItOut 631
It's an iterator!
Iterating succeeded, iterCount == 0

tryItOut 632
Compiling threw: SyntaxError: label not found

tryItOut 633

tryItOut 634
Compiling threw: SyntaxError: invalid continue

tryItOut 635
Compiling threw: SyntaxError: label not found

tryItOut 636

tryItOut 637
Compiling threw: SyntaxError: invalid break

tryItOut 638
Compiling threw: SyntaxError: missing ; before statement

tryItOut 639
Compiling threw: SyntaxError: missing ) in parenthetical

tryItOut 640

tryItOut 641
Compiling threw: SyntaxError: missing ; after for-loop initializer

tryItOut 642
It's an iterator!
Iterating succeeded, iterCount == 1

tryItOut 643
uneval returned the string: [undefined]

tryItOut 644
Running threw: Error: invalid sharp variable use #1#

tryItOut 645
Compiling threw: SyntaxError: missing ) in parenthetical

tryItOut 646

tryItOut 647
Compiling threw: SyntaxError: syntax error

tryItOut 648
Compiling threw: SyntaxError: missing ; before statement

tryItOut 649

tryItOut 650
It's an iterator!
Iterating succeeded, iterCount == 1

tryItOut 651

tryItOut 652
Compiling threw: SyntaxError: syntax error

tryItOut 653
Running threw: Error: invalid sharp variable use #1#

tryItOut 654
Compiling threw: SyntaxError: label not found

tryItOut 655
Compiling threw: SyntaxError: duplicate label

tryItOut 656

tryItOut 657
Compiling threw: SyntaxError: missing ) after condition

tryItOut 658

tryItOut 659
Compiling threw: SyntaxError: missing ; before statement

tryItOut 660

tryItOut 661
It's an iterator!
Iterating succeeded, iterCount == 1

tryItOut 662
Compiling threw: SyntaxError: syntax error

tryItOut 663
It's an iterator!
Iterating succeeded, iterCount == 0

tryItOut 664
Compiling threw: SyntaxError: missing ) in parenthetical

tryItOut 665

tryItOut 666

tryItOut 667

tryItOut 668

tryItOut 669
It's an iterator!
Iterating succeeded, iterCount == 1

tryItOut 670
Running threw: TypeError: (10000).watch("__count__", Math.sin) has no properties

tryItOut 671
Compiling threw: SyntaxError: missing { before function body

tryItOut 672

tryItOut 673
It's an iterator!
Iterating succeeded, iterCount == 1

tryItOut 674
It's an iterator!
Iterating threw!
Iterating threw: ReferenceError: __proto__ is not defined

tryItOut 675

tryItOut 676
It's an iterator!
Iterating succeeded, iterCount == 1

tryItOut 677
Compiling threw: SyntaxError: syntax error

tryItOut 678

tryItOut 679

tryItOut 680
It's an iterator!
Iterating succeeded, iterCount == 0

tryItOut 681
Compiling threw: SyntaxError: missing ) in parenthetical

tryItOut 682

tryItOut 683

tryItOut 684
Compiling threw: SyntaxError: syntax error

tryItOut 685
Compiling threw: SyntaxError: missing { before function body

tryItOut 686

tryItOut 687

tryItOut 688
It's an iterator!
Iterating succeeded, iterCount == 1

tryItOut 689
It's an iterator!
Iterating succeeded, iterCount == 0

tryItOut 690

tryItOut 691

tryItOut 692

tryItOut 693
It's an iterator!
Iterating threw!
Iterating threw: TypeError: null has no properties

tryItOut 694
Compiling threw: SyntaxError: invalid assignment left-hand side

tryItOut 695
It's an iterator!
Iterating threw!
Iterating threw: TypeError: undefined has no properties

tryItOut 696

tryItOut 697
Running threw: TypeError: undefined has no properties

tryItOut 698

tryItOut 699

tryItOut 700
Compiling threw: SyntaxError: invalid assignment left-hand side

tryItOut 701
It's an iterator!
Iterating succeeded, iterCount == 1

tryItOut 702
Compiling threw: SyntaxError: missing ; before statement

tryItOut 703

tryItOut 704
Compiling threw: SyntaxError: missing } in XML expression

tryItOut 705
Compiling threw: SyntaxError: missing variable name

tryItOut 706

tryItOut 707

tryItOut 708

tryItOut 709
Compiling threw: SyntaxError: label not found

tryItOut 710

tryItOut 711

tryItOut 712
Compiling threw: SyntaxError: label not found

tryItOut 713
Compiling threw: SyntaxError: invalid assignment left-hand side

tryItOut 714

tryItOut 715

tryItOut 716
Compiling threw: SyntaxError: missing ; before statement

tryItOut 717
Compiling threw: TypeError: redeclaration of variable __count__

tryItOut 718

tryItOut 719

tryItOut 720

tryItOut 721
Compiling threw: SyntaxError: invalid break

tryItOut 722

tryItOut 723

tryItOut 724

tryItOut 725

tryItOut 726

tryItOut 727

tryItOut 728
Compiling threw: SyntaxError: invalid continue

tryItOut 729
It's an iterator!
Iterating succeeded, iterCount == 1

tryItOut 730

tryItOut 731
Compiling threw: SyntaxError: invalid continue

tryItOut 732
Compiling threw: SyntaxError: invalid assignment left-hand side

tryItOut 733
It's an iterator!
Iterating threw!
Iterating threw: TypeError: arguments.@* has no properties

tryItOut 734
Running threw: null

tryItOut 735
Running threw: TypeError: eval(";", __parent__ = undefined) has no properties

tryItOut 736
It's an iterator!
Iterating succeeded, iterCount == 1

tryItOut 737
Compiling threw: SyntaxError: invalid assignment left-hand side

tryItOut 738
Running threw: TypeError: this.zzz has no properties

tryItOut 739
Compiling threw: SyntaxError: missing name in import statement

tryItOut 740
before 436000, after 296480, break 0221a000

tryItOut 741

tryItOut 742
Running threw: ReferenceError: z1 is not defined

tryItOut 743

tryItOut 744

tryItOut 745

tryItOut 746
Running threw: TypeError: undefined is not a function

tryItOut 747
It's an iterator!
Iterating succeeded, iterCount == 1

tryItOut 748
It's an iterator!
Iterating threw!
Iterating threw: TypeError: <x><y/></x>.watch is not a function

tryItOut 749

tryItOut 750
Compiling threw: SyntaxError: label not found

tryItOut 751

tryItOut 752
Running threw: 27

tryItOut 753
Running threw: <x>
  <y/>
</x>

tryItOut 754

tryItOut 755
Compiling threw: SyntaxError: missing variable name

tryItOut 756
Running threw: TypeError: null has no properties

tryItOut 757

tryItOut 758

tryItOut 759
It's an iterator!
Iterating threw!
Iterating threw: ReferenceError: z1 is not defined

tryItOut 760
Running threw: TypeError: undefined is not a function

tryItOut 761

tryItOut 762
Running threw: SyntaxError: return not in function

tryItOut 763
Compiling threw: SyntaxError: missing ) after argument list

tryItOut 764
Compiling threw: TypeError: generator function anonymous returns a value

tryItOut 765
Compiling threw: SyntaxError: invalid assignment left-hand side

tryItOut 766

tryItOut 767
Running threw: 153

tryItOut 768
Running threw: TypeError: undefined is not a function

tryItOut 769

tryItOut 770
Compiling threw: TypeError: redeclaration of const __noSuchMethod__

tryItOut 771
Compiling threw: SyntaxError: syntax error

tryItOut 772
before 296480, after 261600, break 0221a000

tryItOut 773
Compiling threw: SyntaxError: missing variable name

tryItOut 774
Compiling threw: SyntaxError: missing ; before statement

tryItOut 775
Compiling threw: SyntaxError: missing ; before statement

tryItOut 776
Compiling threw: SyntaxError: syntax error

tryItOut 777

tryItOut 778
Compiling threw: SyntaxError: missing ; before statement

tryItOut 779
Compiling threw: SyntaxError: invalid for/in left-hand side

tryItOut 780

tryItOut 781
Running threw: TypeError: p.z = <x><y/></x> is not a function

tryItOut 782
Compiling threw: SyntaxError: invalid continue

tryItOut 783
Compiling threw: TypeError: generator function anonymous returns a value

tryItOut 784
Compiling threw: SyntaxError: syntax error

tryItOut 785
Compiling threw: SyntaxError: syntax error

tryItOut 786
Compiling threw: SyntaxError: label not found

tryItOut 787

tryItOut 788
Compiling threw: SyntaxError: invalid break

tryItOut 789

tryItOut 790
Compiling threw: SyntaxError: missing ; before statement

tryItOut 791
It's an iterator!
Iterating threw!
Iterating threw: TypeError: (0.1).__lookupGetter__("constructor") has no properties

tryItOut 792
Compiling threw: SyntaxError: label not found

tryItOut 793
Running threw: undefined

tryItOut 794
It's an iterator!
Iterating succeeded, iterCount == 0

tryItOut 795

tryItOut 796

tryItOut 797

tryItOut 798

tryItOut 799

tryItOut 800
Compiling threw: SyntaxError: syntax error

tryItOut 801

tryItOut 802
Compiling threw: SyntaxError: missing ) in parenthetical

tryItOut 803
Compiling threw: SyntaxError: missing ; before statement

tryItOut 804

tryItOut 805

tryItOut 806

tryItOut 807

tryItOut 808
Compiling threw: SyntaxError: label not found

tryItOut 809
Compiling threw: SyntaxError: invalid assignment left-hand side

tryItOut 810

tryItOut 811
Compiling threw: SyntaxError: missing = in destructuring declaration

tryItOut 812

tryItOut 813
Running threw: TypeError: eval("const __parent__, __proto__ = undefined;", eval("<x><y/></x>", 10000)) has no properties

tryItOut 814

tryItOut 815
Compiling threw: SyntaxError: missing ; before statement

tryItOut 816
Compiling threw: SyntaxError: invalid break

tryItOut 817

tryItOut 818
Compiling threw: SyntaxError: invalid XML markup

tryItOut 819
Compiling threw: SyntaxError: missing { before function body

tryItOut 820
Running threw: 0.2

tryItOut 821
Compiling threw: SyntaxError: missing { before function body

tryItOut 822

tryItOut 823

tryItOut 824
Compiling threw: SyntaxError: missing { before function body

tryItOut 825
Compiling threw: SyntaxError: missing ) in parenthetical

tryItOut 826
Compiling threw: SyntaxError: invalid assignment left-hand side

tryItOut 827
It's an iterator!
Iterating succeeded, iterCount == 0

tryItOut 828
It's an iterator!
Iterating succeeded, iterCount == 1

tryItOut 829
Running threw: TypeError: prop has no properties

tryItOut 830
Compiling threw: SyntaxError: missing variable name

tryItOut 831

tryItOut 832
Compiling threw: SyntaxError: invalid for/in left-hand side

tryItOut 833
Compiling threw: SyntaxError: invalid assignment left-hand side

tryItOut 834

tryItOut 835

tryItOut 836
Compiling threw: SyntaxError: syntax error

tryItOut 837

tryItOut 838

tryItOut 839
It's an iterator!
Iterating threw!
Iterating threw: ReferenceError: z1 is not defined

tryItOut 840
Compiling threw: SyntaxError: syntax error

tryItOut 841

tryItOut 842

tryItOut 843

tryItOut 844

tryItOut 845

tryItOut 846
Running threw: TypeError: undefined is not a function

tryItOut 847
It's an iterator!
Iterating succeeded, iterCount == 1

tryItOut 848
Compiling threw: SyntaxError: invalid continue

tryItOut 849
Compiling threw: TypeError: generator function anonymous returns a value

tryItOut 850

tryItOut 851
Compiling threw: SyntaxError: syntax error

tryItOut 852
Compiling threw: SyntaxError: syntax error

tryItOut 853

tryItOut 854
Compiling threw: SyntaxError: label not found

tryItOut 855
Compiling threw: SyntaxError: syntax error

tryItOut 856

tryItOut 857

tryItOut 858
Running threw: 0

tryItOut 859

tryItOut 860
Compiling threw: SyntaxError: missing ; after for-loop initializer

tryItOut 861

tryItOut 862
Running threw: TypeError: arguments[0] has no properties

tryItOut 863
Compiling threw: SyntaxError: invalid decrement operand

tryItOut 864
Compiling threw: SyntaxError: label not found

tryItOut 865

tryItOut 866
before 296480, after 279040, break 0221a000

tryItOut 867
Compiling threw: SyntaxError: invalid continue

tryItOut 868
Compiling threw: SyntaxError: invalid break

tryItOut 869
Running threw: TypeError: can't convert global to string

tryItOut 870
Running threw: TypeError: undefined is not a function

tryItOut 871
It's an iterator!
Iterating succeeded, iterCount == 1

tryItOut 872
Compiling threw: SyntaxError: invalid for/in left-hand side

tryItOut 873
Compiling threw: SyntaxError: missing ) in parenthetical

tryItOut 874
Compiling threw: SyntaxError: syntax error

tryItOut 875

tryItOut 876
Running threw: TypeError: undefined is not a function

tryItOut 877
Compiling threw: SyntaxError: missing ; after for-loop initializer

tryItOut 878

tryItOut 879
It's an iterator!
Iterating threw!
Iterating threw: TypeError: undefined is not a function

tryItOut 880
Compiling threw: SyntaxError: missing ) in parenthetical

tryItOut 881

tryItOut 882
It's an iterator!
Iterating threw!
Iterating threw: TypeError: undefined has no properties

tryItOut 883
Compiling threw: SyntaxError: missing ) in parenthetical

tryItOut 884
It's an iterator!
Iterating threw!
Iterating threw: TypeError: invalid XML name <x><y/></x>[-1]

tryItOut 885
It's an iterator!
Iterating succeeded, iterCount == 1

tryItOut 886
Compiling threw: SyntaxError: label not found

tryItOut 887
Compiling threw: SyntaxError: missing { before function body

tryItOut 888

tryItOut 889
Compiling threw: SyntaxError: syntax error

tryItOut 890

tryItOut 891
Compiling threw: SyntaxError: missing name after . operator

tryItOut 892
Running threw: <x>
  <y/>
</x>

tryItOut 893

tryItOut 894
It's an iterator!
Iterating succeeded, iterCount == 0

tryItOut 895
Compiling threw: SyntaxError: missing ; before statement

tryItOut 896
Compiling threw: SyntaxError: missing ) in parenthetical

tryItOut 897
Running threw: TypeError: undefined is not a function

tryItOut 898

tryItOut 899
Running threw: TypeError: undefined has no properties

tryItOut 900
Running threw: false

tryItOut 901
Compiling threw: SyntaxError: label not found

tryItOut 902

tryItOut 903
Compiling threw: SyntaxError: syntax error

tryItOut 904
Compiling threw: SyntaxError: missing ; before statement

tryItOut 905

tryItOut 906
Running threw: TypeError: undefined is not a function

tryItOut 907
Running threw: false

tryItOut 908
Compiling threw: SyntaxError: invalid continue

tryItOut 909
It's an iterator!
Iterating threw!
Iterating threw: ReferenceError: yyy is not defined

tryItOut 910
Compiling threw: SyntaxError: label not found

tryItOut 911
It's an iterator!
Iterating threw!
Iterating threw: TypeError: false is not a constructor

tryItOut 912

tryItOut 913
Compiling threw: SyntaxError: invalid destructuring assignment operator

tryItOut 914
Compiling threw: SyntaxError: syntax error

tryItOut 915
Compiling threw: SyntaxError: invalid break

tryItOut 916
Compiling threw: SyntaxError: duplicate label

tryItOut 917
Compiling threw: SyntaxError: missing = in destructuring declaration

tryItOut 918
It's an iterator!
Iterating succeeded, iterCount == 0

tryItOut 919
Running threw: ReferenceError: z2 is not defined

tryItOut 920

tryItOut 921
Compiling threw: TypeError: redeclaration of variable __iterator__

tryItOut 922

tryItOut 923
It's an iterator!
Iterating succeeded, iterCount == 1

tryItOut 924

tryItOut 925

tryItOut 926

tryItOut 927

tryItOut 928
It's an iterator!
Iterating succeeded, iterCount == 1

tryItOut 929

tryItOut 930
before 296480, after 296480, break 0221a000
Running threw: TypeError: eval("gc()", [, ]) has no properties

tryItOut 931

tryItOut 932
Compiling threw: SyntaxError: missing ; before statement

tryItOut 933

tryItOut 934
Compiling threw: SyntaxError: missing ; before statement

tryItOut 935

tryItOut 936
before 296480, after 279040, break 0221a000

tryItOut 937
Compiling threw: SyntaxError: syntax error

tryItOut 938
Compiling threw: SyntaxError: invalid for/in left-hand side

tryItOut 939
It's an iterator!
Iterating threw!
Iterating threw: TypeError: p.z = #3={, a:#3#} is not a function

tryItOut 940
Compiling threw: SyntaxError: invalid break

tryItOut 941

tryItOut 942
Compiling threw: SyntaxError: invalid assignment left-hand side

tryItOut 943
Compiling threw: TypeError: generator function anonymous returns a value

tryItOut 944
Compiling threw: SyntaxError: invalid decrement operand

tryItOut 945
Compiling threw: SyntaxError: missing variable name

tryItOut 946

tryItOut 947

tryItOut 948
It's an iterator!
Iterating succeeded, iterCount == 1

tryItOut 949

tryItOut 950
Compiling threw: SyntaxError: missing ; before statement

tryItOut 951
Compiling threw: SyntaxError: label not found

tryItOut 952
It's an iterator!
Iterating succeeded, iterCount == 1

tryItOut 953
Compiling threw: SyntaxError: label not found

tryItOut 954
Compiling threw: SyntaxError: label not found

tryItOut 955
Running threw: TypeError: arguments[0] has no properties

tryItOut 956
Compiling threw: SyntaxError: invalid for/in left-hand side

tryItOut 957
Compiling threw: SyntaxError: label not found

tryItOut 958

tryItOut 959

tryItOut 960
It's an iterator!
Iterating succeeded, iterCount == 1

tryItOut 961

tryItOut 962
Running threw: TypeError: <x>
  <y/>
</x> is not a constructor

tryItOut 963

tryItOut 964
It's an iterator!
Iterating threw!
Iterating threw: TypeError: undefined is not a function

tryItOut 965

tryItOut 966
Compiling threw: SyntaxError: missing variable name

tryItOut 967

tryItOut 968
Compiling threw: SyntaxError: invalid continue

tryItOut 969

tryItOut 970
Compiling threw: SyntaxError: invalid assignment left-hand side

tryItOut 971
Compiling threw: SyntaxError: unterminated regular expression literal

tryItOut 972

tryItOut 973
Compiling threw: SyntaxError: invalid increment operand

tryItOut 974
Compiling threw: SyntaxError: missing variable name

tryItOut 975

tryItOut 976

tryItOut 977

tryItOut 978

tryItOut 979

tryItOut 980
Compiling threw: SyntaxError: missing { before function body

tryItOut 981
Running threw: ReferenceError: Exception is not defined

tryItOut 982
Compiling threw: SyntaxError: missing ; before statement

tryItOut 983

tryItOut 984
Compiling threw: SyntaxError: invalid assignment left-hand side

tryItOut 985

tryItOut 986
Compiling threw: SyntaxError: invalid continue

tryItOut 987

tryItOut 988
Running threw: ReferenceError: z1 is not defined

tryItOut 989
Compiling threw: TypeError: generator function anonymous returns a value

tryItOut 990
Compiling threw: SyntaxError: label not found

tryItOut 991

tryItOut 992
Compiling threw: SyntaxError: illegal XML character

tryItOut 993

tryItOut 994
It's an iterator!
Iterating succeeded, iterCount == 1

tryItOut 995

tryItOut 996

tryItOut 997

tryItOut 998
Running threw: TypeError: undefined is not a function

tryItOut 999

tryItOut 1000
It's an iterator!
Iterating succeeded, iterCount == 1

ALL OK

Script done on Sat 04 May 2013 07:02:52 AM PDT
