Script started on Sat 04 May 2013 07:04:31 AM PDT
***
Targeting SpiderMonkey / Gecko.

tryItOut 1

tryItOut 2
before 52320, after 52320, break 00da9000

tryItOut 3
Compiling threw: SyntaxError: missing ] after element list

tryItOut 4

tryItOut 5
Compiling threw: SyntaxError: syntax error

tryItOut 6
Compiling threw: SyntaxError: syntax error

tryItOut 7
Running threw: ReferenceError: prop is not defined

tryItOut 8
Compiling threw: SyntaxError: label not found

tryItOut 9
Compiling threw: SyntaxError: missing variable name

tryItOut 10
Compiling threw: SyntaxError: invalid property id

tryItOut 11

tryItOut 12

tryItOut 13

tryItOut 14
Compiling threw: SyntaxError: invalid break

tryItOut 15
Running threw: ReferenceError: z1 is not defined

tryItOut 16
Compiling threw: SyntaxError: label not found

tryItOut 17
Compiling threw: SyntaxError: syntax error

tryItOut 18
Running threw: TypeError: arguments[0] has no properties

tryItOut 19
Running threw: 0

tryItOut 20
Compiling threw: TypeError: generator function anonymous returns a value

tryItOut 21
Compiling threw: SyntaxError: invalid for/in left-hand side

tryItOut 22

tryItOut 23
Running threw: TypeError: constructor has no properties

tryItOut 24

tryItOut 25
Compiling threw: SyntaxError: missing ) in parenthetical

tryItOut 26

tryItOut 27
Compiling threw: SyntaxError: missing variable name

tryItOut 28

tryItOut 29
Compiling threw: SyntaxError: missing ) in parenthetical

tryItOut 30

tryItOut 31
Compiling threw: SyntaxError: missing ) in parenthetical

tryItOut 32
Compiling threw: SyntaxError: invalid assignment left-hand side

tryItOut 33
Running threw: ReferenceError: z1 is not defined

tryItOut 34

tryItOut 35
It's an iterator!
Iterating succeeded, iterCount == 2

tryItOut 36

tryItOut 37

tryItOut 38

tryItOut 39

tryItOut 40
before 69760, after 69760, break 00da9000

tryItOut 41

tryItOut 42

tryItOut 43

tryItOut 44
Compiling threw: SyntaxError: syntax error

tryItOut 45
Compiling threw: SyntaxError: missing ; before statement

tryItOut 46

tryItOut 47
Compiling threw: SyntaxError: missing variable name

tryItOut 48
Compiling threw: SyntaxError: invalid assignment left-hand side

tryItOut 49

tryItOut 50

tryItOut 51

tryItOut 52

tryItOut 53
Compiling threw: SyntaxError: missing variable name

tryItOut 54
Compiling threw: SyntaxError: missing } after let block

tryItOut 55
Compiling threw: SyntaxError: missing = in destructuring declaration

tryItOut 56
Compiling threw: SyntaxError: syntax error

tryItOut 57

tryItOut 58

tryItOut 59

tryItOut 60
Compiling threw: TypeError: redeclaration of variable __proto__

tryItOut 61
It's an iterator!
Iterating succeeded, iterCount == 1

tryItOut 62
Running threw: ReferenceError: __noSuchMethod__ is not defined

tryItOut 63
Compiling threw: SyntaxError: invalid increment operand

tryItOut 64
Compiling threw: SyntaxError: invalid for/in left-hand side

tryItOut 65

tryItOut 66
Compiling threw: SyntaxError: missing ) after for-loop control

tryItOut 67
Compiling threw: SyntaxError: syntax error

tryItOut 68
Compiling threw: SyntaxError: missing } after let block

tryItOut 69
Running threw: [object Object]

tryItOut 70
Compiling threw: SyntaxError: syntax error

tryItOut 71
Compiling threw: SyntaxError: syntax error

tryItOut 72
Running threw: ReferenceError: __noSuchMethod__ is not defined

tryItOut 73

tryItOut 74
Compiling threw: SyntaxError: missing ; before statement

tryItOut 75

tryItOut 76

tryItOut 77

tryItOut 78

tryItOut 79
Compiling threw: SyntaxError: invalid for each loop

tryItOut 80
Running threw: TypeError: arguments[0] has no properties

tryItOut 81
Compiling threw: SyntaxError: missing ) in parenthetical

tryItOut 82
Compiling threw: SyntaxError: invalid destructuring assignment operator

tryItOut 83
Compiling threw: SyntaxError: missing variable name

tryItOut 84

tryItOut 85

tryItOut 86
Compiling threw: SyntaxError: missing variable name

tryItOut 87
Compiling threw: SyntaxError: missing { before function body

tryItOut 88

tryItOut 89
Compiling threw: SyntaxError: invalid for/in left-hand side

tryItOut 90
Compiling threw: SyntaxError: missing : after property id

tryItOut 91
Compiling threw: SyntaxError: invalid for/in left-hand side

tryItOut 92

tryItOut 93

tryItOut 94

tryItOut 95

tryItOut 96
It's an iterator!
Iterating succeeded, iterCount == 0

tryItOut 97
Compiling threw: SyntaxError: invalid default XML namespace

tryItOut 98
Compiling threw: SyntaxError: missing ; after for-loop initializer

tryItOut 99

tryItOut 100
Running threw: TypeError: XML filtering predicate operator called on incompatible Number

tryItOut 101
Compiling threw: SyntaxError: missing } in compound statement

tryItOut 102

tryItOut 103
Compiling threw: SyntaxError: invalid assignment left-hand side

tryItOut 104
Compiling threw: SyntaxError: missing variable name

tryItOut 105
Compiling threw: SyntaxError: syntax error

tryItOut 106
Running threw: false

tryItOut 107
uneval returned the string: [1, undefined]

tryItOut 108
Compiling threw: SyntaxError: syntax error

tryItOut 109
Compiling threw: SyntaxError: missing ; before statement

tryItOut 110
Compiling threw: SyntaxError: label not found

tryItOut 111

tryItOut 112

tryItOut 113
Compiling threw: SyntaxError: syntax error

tryItOut 114
Running threw: TypeError: redeclaration of var __count__

tryItOut 115

tryItOut 116
Compiling threw: SyntaxError: missing ) after argument list

tryItOut 117
Compiling threw: SyntaxError: label not found

tryItOut 118
before 87200, after 87200, break 00df1000

tryItOut 119

tryItOut 120
Running threw: <y>
  <z/>
</y>

tryItOut 121

tryItOut 122
Compiling threw: SyntaxError: missing variable name

tryItOut 123
before 87200, after 87200, break 00df1000

tryItOut 124
Running threw: 108

tryItOut 125

tryItOut 126
Running threw: TypeError: (-1)['throw'] is not a function

tryItOut 127
Compiling threw: SyntaxError: invalid continue

tryItOut 128
Compiling threw: SyntaxError: invalid for/in left-hand side

tryItOut 129
Compiling threw: SyntaxError: label not found

tryItOut 130

tryItOut 131

tryItOut 132

tryItOut 133
Compiling threw: SyntaxError: invalid decrement operand

tryItOut 134

tryItOut 135
Compiling threw: SyntaxError: missing variable name

tryItOut 136

tryItOut 137
Compiling threw: SyntaxError: missing variable name

tryItOut 138

tryItOut 139
Running threw: null

tryItOut 140
Compiling threw: SyntaxError: missing = in destructuring declaration

tryItOut 141
Compiling threw: SyntaxError: missing ; after for-loop initializer

tryItOut 142

tryItOut 143

tryItOut 144

tryItOut 145
Compiling threw: SyntaxError: syntax error

tryItOut 146
It's an iterator!
Iterating succeeded, iterCount == 1

tryItOut 147
Compiling threw: SyntaxError: missing ) in parenthetical

tryItOut 148
Running threw: TypeError: this.zzz has no properties

tryItOut 149
Compiling threw: SyntaxError: missing ; after for-loop initializer

tryItOut 150
Compiling threw: SyntaxError: invalid assignment left-hand side

tryItOut 151
Compiling threw: SyntaxError: missing ) in parenthetical

tryItOut 152

tryItOut 153

tryItOut 154
Running threw: 3.141592653589793

tryItOut 155

tryItOut 156

tryItOut 157

tryItOut 158

tryItOut 159
Compiling threw: SyntaxError: missing name after . operator

tryItOut 160
Compiling threw: SyntaxError: syntax error

tryItOut 161
Compiling threw: SyntaxError: invalid for/in left-hand side

tryItOut 162

tryItOut 163
Running threw: ReferenceError: z1 is not defined

tryItOut 164

tryItOut 165
It's an iterator!
before 87200, after 87200, break 00df9000
Iterating succeeded, iterCount == 1

tryItOut 166
Compiling threw: SyntaxError: invalid for/in left-hand side

tryItOut 167
Compiling threw: SyntaxError: missing ) in parenthetical

tryItOut 168

tryItOut 169

tryItOut 170
Compiling threw: SyntaxError: invalid assignment left-hand side

tryItOut 171

tryItOut 172
Compiling threw: SyntaxError: invalid break

tryItOut 173
before 87200, after 87200, break 00df9000

tryItOut 174
Compiling threw: SyntaxError: syntax error

tryItOut 175
Compiling threw: SyntaxError: missing variable name

tryItOut 176

tryItOut 177
Compiling threw: SyntaxError: invalid for/in left-hand side

tryItOut 178
Compiling threw: SyntaxError: missing ; before statement

tryItOut 179
Running threw: ReferenceError: __noSuchMethod__ is not defined

tryItOut 180

tryItOut 181
It's an iterator!
before 87200, after 87200, break 00df9000
Iterating succeeded, iterCount == 1

tryItOut 182
Compiling threw: SyntaxError: missing { before function body

tryItOut 183

tryItOut 184

tryItOut 185
before 87200, after 87200, break 00df9000

tryItOut 186
Compiling threw: SyntaxError: invalid assignment left-hand side

tryItOut 187

tryItOut 188
before 87200, after 87200, break 00df9000

tryItOut 189

tryItOut 190

tryItOut 191
Compiling threw: SyntaxError: missing ) in parenthetical

tryItOut 192

tryItOut 193

tryItOut 194

tryItOut 195

tryItOut 196

tryItOut 197
Compiling threw: SyntaxError: invalid decrement operand

tryItOut 198
Compiling threw: SyntaxError: invalid for/in left-hand side

tryItOut 199

tryItOut 200
Compiling threw: SyntaxError: syntax error

tryItOut 201
Compiling threw: SyntaxError: missing ; before statement

tryItOut 202

tryItOut 203
Compiling threw: SyntaxError: syntax error

tryItOut 204
Compiling threw: SyntaxError: invalid for/in left-hand side

tryItOut 205

tryItOut 206
before 87200, after 87200, break 00df9000

tryItOut 207
Running threw: ReferenceError: z1 is not defined

tryItOut 208
Compiling threw: SyntaxError: missing variable name

tryItOut 209

tryItOut 210
Compiling threw: SyntaxError: invalid for/in left-hand side

tryItOut 211
Compiling threw: SyntaxError: missing ) in parenthetical

tryItOut 212
Compiling threw: SyntaxError: unterminated regular expression literal

tryItOut 213
Compiling threw: SyntaxError: invalid for/in left-hand side

tryItOut 214
It's an iterator!
Iterating succeeded, iterCount == 1

tryItOut 215
Compiling threw: SyntaxError: label not found

tryItOut 216
Compiling threw: SyntaxError: syntax error

tryItOut 217

ALL OK

Script done on Sat 04 May 2013 07:04:31 AM PDT
