Script started on Sat 04 May 2013 04:57:23 AM PDT
***
Targeting SpiderMonkey / Gecko.

tryItOut 1
Compiling threw: SyntaxError: invalid break

tryItOut 2
Compiling threw: SyntaxError: invalid decrement operand

tryItOut 3
Compiling threw: SyntaxError: missing ) in parenthetical

tryItOut 4

tryItOut 5
Compiling threw: SyntaxError: label not found

tryItOut 6
Compiling threw: SyntaxError: missing ) in parenthetical

tryItOut 7
Compiling threw: SyntaxError: label not found

tryItOut 8
Compiling threw: SyntaxError: missing ] after element list

tryItOut 9
Compiling threw: SyntaxError: invalid switch statement

tryItOut 10
Compiling threw: SyntaxError: label not found

tryItOut 11
Compiling threw: SyntaxError: missing ; before statement

tryItOut 12

tryItOut 13
Compiling threw: SyntaxError: syntax error

tryItOut 14

tryItOut 15

tryItOut 16
Compiling threw: SyntaxError: invalid decrement operand

tryItOut 17
Running threw: 3

tryItOut 18
Compiling threw: SyntaxError: missing ) after condition

tryItOut 19

tryItOut 20
Compiling threw: SyntaxError: missing { before function body

tryItOut 21

tryItOut 22
It's an iterator!
Iterating threw!
Iterating threw: ReferenceError: prototype is not defined

tryItOut 23

tryItOut 24
Compiling threw: SyntaxError: missing ] after element list

tryItOut 25
Running threw: ReferenceError: __noSuchMethod__ is not defined

tryItOut 26
It's an iterator!
Iterating threw!
Iterating threw: ReferenceError: reference to undefined XML name *::*

tryItOut 27
Compiling threw: SyntaxError: invalid continue

tryItOut 28

tryItOut 29
Running threw: ReferenceError: prop is not defined

tryItOut 30
Running threw: ReferenceError: __iterator__ is not defined

tryItOut 31
Running threw: ReferenceError: prototype is not defined

tryItOut 32
It's an iterator!
before 87200, after 87200, break 011d7000
before 87200, after 87200, break 011d7000
before 87200, after 87200, break 011d7000
Iterating threw!
Iterating threw: ReferenceError: prop is not defined

tryItOut 33
Compiling threw: SyntaxError: missing ) in parenthetical

tryItOut 34

tryItOut 35

tryItOut 36
Compiling threw: SyntaxError: missing ; before statement

tryItOut 37
Running threw: ReferenceError: reference to undefined XML name *::*

tryItOut 38

tryItOut 39
Compiling threw: SyntaxError: missing variable name

tryItOut 40
Compiling threw: SyntaxError: syntax error

tryItOut 41
Running threw: ReferenceError: reference to undefined XML name @foo

tryItOut 42
Running threw: ReferenceError: __iterator__ is not defined

tryItOut 43
Compiling threw: SyntaxError: missing ; before statement

tryItOut 44

tryItOut 45
Compiling threw: SyntaxError: syntax error

tryItOut 46
Compiling threw: SyntaxError: invalid break

tryItOut 47

tryItOut 48

tryItOut 49
Compiling threw: SyntaxError: syntax error

tryItOut 50

tryItOut 51

tryItOut 52

tryItOut 53
Running threw: ReferenceError: prototype is not defined

tryItOut 54

tryItOut 55
Compiling threw: SyntaxError: syntax error

tryItOut 56
Compiling threw: SyntaxError: missing ) in parenthetical

tryItOut 57
Compiling threw: SyntaxError: invalid continue

tryItOut 58

tryItOut 59
Compiling threw: SyntaxError: syntax error

tryItOut 60

tryItOut 61
Compiling threw: SyntaxError: missing ) after condition

tryItOut 62
Compiling threw: SyntaxError: invalid decrement operand

tryItOut 63
Compiling threw: SyntaxError: syntax error

tryItOut 64
Running threw: ReferenceError: __iterator__ is not defined

tryItOut 65
Compiling threw: SyntaxError: label not found

tryItOut 66
Compiling threw: TypeError: redeclaration of variable constructor

tryItOut 67
Compiling threw: SyntaxError: missing name after . operator

tryItOut 68
Running threw: TypeError: redeclaration of var __count__

tryItOut 69
Compiling threw: SyntaxError: syntax error

tryItOut 70
Compiling threw: SyntaxError: missing ; before statement

tryItOut 71
Running threw: ReferenceError: prop is not defined

tryItOut 72
Compiling threw: SyntaxError: missing ; before statement

tryItOut 73

tryItOut 74

tryItOut 75
Compiling threw: SyntaxError: syntax error

tryItOut 76
Compiling threw: SyntaxError: missing ; before statement

tryItOut 77
Running threw: TypeError: [1, 2, 3, 4].mapgc is not a function

tryItOut 78

tryItOut 79

tryItOut 80
Compiling threw: SyntaxError: missing ] in index expression

tryItOut 81
before 104640, after 104640, break 011f0000

tryItOut 82
Compiling threw: SyntaxError: invalid increment operand

tryItOut 83
Running threw: SyntaxError: missing ; before statement

tryItOut 84

tryItOut 85
Compiling threw: SyntaxError: label not found

tryItOut 86
Compiling threw: SyntaxError: missing variable name

tryItOut 87
Compiling threw: SyntaxError: missing ; before statement

tryItOut 88
Compiling threw: SyntaxError: label not found

tryItOut 89
before 104640, after 104640, break 011f0000

tryItOut 90

tryItOut 91
Compiling threw: SyntaxError: syntax error

tryItOut 92

tryItOut 93

tryItOut 94

tryItOut 95
Compiling threw: SyntaxError: missing ) after condition

tryItOut 96
Compiling threw: SyntaxError: missing ; before statement

tryItOut 97

tryItOut 98
Running threw: /x/

tryItOut 99

tryItOut 100
Compiling threw: SyntaxError: syntax error

tryItOut 101

tryItOut 102
Running threw: <y>
  <z/>
</y>

tryItOut 103

tryItOut 104
Compiling threw: SyntaxError: missing ) in parenthetical

tryItOut 105
before 104640, after 104640, break 011f0000

tryItOut 106
Compiling threw: SyntaxError: invalid assignment left-hand side

tryItOut 107
Compiling threw: SyntaxError: syntax error

tryItOut 108
Running threw: ReferenceError: reference to undefined XML name @foo

tryItOut 109
Compiling threw: SyntaxError: invalid continue

tryItOut 110
Compiling threw: SyntaxError: syntax error

tryItOut 111

tryItOut 112
Compiling threw: SyntaxError: syntax error

tryItOut 113

tryItOut 114

tryItOut 115
Compiling threw: SyntaxError: missing ) in parenthetical

tryItOut 116
Compiling threw: TypeError: redeclaration of variable __parent__

tryItOut 117
Running threw: TypeError: <x/> is not a constructor

tryItOut 118
Running threw: ReferenceError: prop is not defined

tryItOut 119
Compiling threw: SyntaxError: invalid continue

tryItOut 120
Compiling threw: SyntaxError: syntax error

tryItOut 121
Compiling threw: SyntaxError: missing ; before statement

tryItOut 122
Compiling threw: SyntaxError: label not found

tryItOut 123
Compiling threw: SyntaxError: missing ; before statement

tryItOut 124
before 104640, after 104640, break 011f0000

tryItOut 125
Compiling threw: SyntaxError: invalid continue

tryItOut 126
Compiling threw: SyntaxError: missing ; before statement

tryItOut 127
Compiling threw: SyntaxError: syntax error

tryItOut 128
Compiling threw: SyntaxError: missing ] after element list

tryItOut 129

tryItOut 130
Compiling threw: SyntaxError: invalid destructuring assignment operator

tryItOut 131
Compiling threw: SyntaxError: missing ; before statement

tryItOut 132
before 104640, after 104640, break 011f0000

tryItOut 133

tryItOut 134
Running threw: /x/g

tryItOut 135

tryItOut 136
Compiling threw: SyntaxError: syntax error

tryItOut 137
before 104640, after 104640, break 011f0000

tryItOut 138

tryItOut 139
Running threw: TypeError: arguments[0] has no properties

tryItOut 140

tryItOut 141
Running threw: TypeError: constructor has no properties

tryItOut 142

tryItOut 143
Compiling threw: SyntaxError: syntax error

tryItOut 144
Compiling threw: SyntaxError: label not found

tryItOut 145
Compiling threw: SyntaxError: invalid break

tryItOut 146

tryItOut 147

tryItOut 148

tryItOut 149

tryItOut 150
Compiling threw: SyntaxError: missing ) in parenthetical

tryItOut 151

tryItOut 152
It's an iterator!
Iterating threw!
Iterating threw: TypeError: p.z = (yield 0) is not a function

tryItOut 153

tryItOut 154
Compiling threw: SyntaxError: label not found

tryItOut 155

tryItOut 156
Compiling threw: SyntaxError: missing ; before statement

tryItOut 157

tryItOut 158

tryItOut 159
Compiling threw: SyntaxError: missing { before function body

tryItOut 160

tryItOut 161
Compiling threw: SyntaxError: invalid break

tryItOut 162
Compiling threw: SyntaxError: invalid continue

tryItOut 163

tryItOut 164
Compiling threw: SyntaxError: missing ; before statement

tryItOut 165

tryItOut 166
Compiling threw: SyntaxError: syntax error

tryItOut 167
Compiling threw: SyntaxError: invalid break

tryItOut 168

tryItOut 169

tryItOut 170

tryItOut 171
Compiling threw: SyntaxError: invalid continue

tryItOut 172
Compiling threw: SyntaxError: syntax error

tryItOut 173
Compiling threw: SyntaxError: missing ; before statement

tryItOut 174
Compiling threw: SyntaxError: missing ; before statement

tryItOut 175
Compiling threw: SyntaxError: missing ) in parenthetical

tryItOut 176
Running threw: ReferenceError: reference to undefined XML name *::*

tryItOut 177

tryItOut 178
Compiling threw: SyntaxError: missing variable name

tryItOut 179
Compiling threw: SyntaxError: invalid default XML namespace

tryItOut 180

tryItOut 181
Compiling threw: SyntaxError: missing ; before statement

tryItOut 182

tryItOut 183

tryItOut 184

tryItOut 185

tryItOut 186

tryItOut 187
Compiling threw: SyntaxError: missing ) in parenthetical

tryItOut 188

tryItOut 189

tryItOut 190
Compiling threw: SyntaxError: duplicate label

tryItOut 191
Compiling threw: SyntaxError: missing ; before statement

tryItOut 192
Compiling threw: SyntaxError: label not found

tryItOut 193
Compiling threw: SyntaxError: missing ; before statement

tryItOut 194
Compiling threw: SyntaxError: missing ) in parenthetical

tryItOut 195

tryItOut 196

tryItOut 197

tryItOut 198
Compiling threw: SyntaxError: label not found

tryItOut 199

tryItOut 200
Compiling threw: SyntaxError: missing variable name

tryItOut 201
Compiling threw: SyntaxError: invalid assignment left-hand side

tryItOut 202

tryItOut 203

tryItOut 204
Compiling threw: SyntaxError: syntax error

tryItOut 205
Running threw: /x/

tryItOut 206
Compiling threw: SyntaxError: missing variable name

tryItOut 207

tryItOut 208

tryItOut 209
Compiling threw: SyntaxError: syntax error

tryItOut 210
Compiling threw: SyntaxError: invalid continue

tryItOut 211

tryItOut 212
Compiling threw: SyntaxError: missing ; before statement

tryItOut 213
Compiling threw: SyntaxError: missing { before function body

tryItOut 214
Running threw: ReferenceError: z1 is not defined

tryItOut 215

tryItOut 216
Compiling threw: SyntaxError: invalid continue

tryItOut 217

tryItOut 218
Compiling threw: SyntaxError: invalid assignment left-hand side

tryItOut 219

tryItOut 220
Compiling threw: SyntaxError: missing ) after condition

tryItOut 221
Compiling threw: SyntaxError: missing ; before statement

tryItOut 222

tryItOut 223

tryItOut 224
Running threw: TypeError: p.z = __proto__ is not a function

tryItOut 225

tryItOut 226
Compiling threw: SyntaxError: label not found

tryItOut 227

tryItOut 228
Compiling threw: SyntaxError: missing ; before statement

tryItOut 229
Running threw: TypeError: p.z = prototype is not a function

tryItOut 230
Running threw: ReferenceError: reference to undefined XML name *

tryItOut 231

tryItOut 232
Compiling threw: SyntaxError: missing ) in parenthetical

tryItOut 233
Compiling threw: SyntaxError: missing ) in parenthetical

tryItOut 234

tryItOut 235

tryItOut 236
Compiling threw: SyntaxError: label not found

tryItOut 237
Running threw: TypeError: <x/> is not a constructor

tryItOut 238

tryItOut 239

tryItOut 240

tryItOut 241

tryItOut 242
Compiling threw: SyntaxError: invalid continue

tryItOut 243

tryItOut 244

tryItOut 245

tryItOut 246
Compiling threw: TypeError: redeclaration of const constructor

tryItOut 247

tryItOut 248
Running threw: ReferenceError: reference to undefined XML name *::*

tryItOut 249
Compiling threw: SyntaxError: invalid continue

tryItOut 250
Compiling threw: SyntaxError: missing ) in parenthetical

tryItOut 251
Compiling threw: SyntaxError: invalid property id

tryItOut 252

tryItOut 253
Compiling threw: SyntaxError: syntax error

tryItOut 254

tryItOut 255
Compiling threw: SyntaxError: invalid flag after regular expression

tryItOut 256
Compiling threw: SyntaxError: syntax error

tryItOut 257
Compiling threw: SyntaxError: missing ) in parenthetical

tryItOut 258
Compiling threw: SyntaxError: syntax error

tryItOut 259
Compiling threw: SyntaxError: label not found

tryItOut 260

tryItOut 261

tryItOut 262

tryItOut 263

tryItOut 264
Compiling threw: SyntaxError: missing ; before statement

tryItOut 265
Running threw: <y>
  <z/>
</y>

tryItOut 266
Compiling threw: SyntaxError: syntax error

tryItOut 267

tryItOut 268
Compiling threw: SyntaxError: syntax error

tryItOut 269

tryItOut 270
Compiling threw: SyntaxError: missing ) after for-loop control

tryItOut 271
Compiling threw: SyntaxError: missing ) in parenthetical

tryItOut 272
Compiling threw: SyntaxError: missing ; before statement

tryItOut 273
Compiling threw: SyntaxError: syntax error

tryItOut 274

tryItOut 275

tryItOut 276
Compiling threw: SyntaxError: finally without try

tryItOut 277
Compiling threw: SyntaxError: label not found

tryItOut 278

tryItOut 279

tryItOut 280

tryItOut 281

tryItOut 282
Compiling threw: SyntaxError: invalid assignment left-hand side

tryItOut 283

tryItOut 284

tryItOut 285
Compiling threw: SyntaxError: syntax error

tryItOut 286
Compiling threw: SyntaxError: label not found

tryItOut 287
Running threw: ReferenceError: reference to undefined XML name *::*

tryItOut 288
before 156960, after 156960, break 01279000

tryItOut 289
Compiling threw: SyntaxError: missing ; before statement

tryItOut 290
Compiling threw: SyntaxError: invalid continue

tryItOut 291

tryItOut 292

tryItOut 293
Compiling threw: SyntaxError: syntax error

tryItOut 294

tryItOut 295
Running threw: ReferenceError: reference to undefined XML name @foo

tryItOut 296
Running threw: ReferenceError: reference to undefined XML name *::*

tryItOut 297
Compiling threw: SyntaxError: syntax error

tryItOut 298

tryItOut 299
Compiling threw: TypeError: redeclaration of variable __parent__

tryItOut 300
before 156960, after 156960, break 01291000

tryItOut 301
Running threw: SyntaxError: invalid assignment left-hand side

tryItOut 302
Compiling threw: SyntaxError: label not found

tryItOut 303
Compiling threw: SyntaxError: invalid continue

tryItOut 304
Compiling threw: SyntaxError: missing { before function body

tryItOut 305
Compiling threw: SyntaxError: missing : after property id

tryItOut 306
Compiling threw: SyntaxError: syntax error

tryItOut 307
Running threw: NaN

tryItOut 308

tryItOut 309
Compiling threw: SyntaxError: label not found

tryItOut 310
Running threw: 4

tryItOut 311
Compiling threw: SyntaxError: label not found

tryItOut 312

tryItOut 313

tryItOut 314

tryItOut 315

tryItOut 316
Running threw: ReferenceError: reference to undefined XML name *

tryItOut 317

tryItOut 318
Compiling threw: TypeError: redeclaration of variable prototype

tryItOut 319
Compiling threw: SyntaxError: invalid break

tryItOut 320
Compiling threw: SyntaxError: missing ) in parenthetical

tryItOut 321
Compiling threw: SyntaxError: missing ; before statement

tryItOut 322
Compiling threw: SyntaxError: syntax error

tryItOut 323

tryItOut 324
Compiling threw: SyntaxError: missing ; before statement

tryItOut 325

tryItOut 326

tryItOut 327
Compiling threw: SyntaxError: invalid decrement operand

tryItOut 328
before 156960, after 156960, break 0128f000

tryItOut 329
Compiling threw: SyntaxError: missing ) in parenthetical

tryItOut 330

tryItOut 331
Compiling threw: SyntaxError: missing ) in parenthetical

tryItOut 332

tryItOut 333
Compiling threw: SyntaxError: label not found

tryItOut 334

tryItOut 335
before 156960, after 156960, break 0128f000

tryItOut 336

tryItOut 337
Compiling threw: SyntaxError: syntax error

tryItOut 338

tryItOut 339

tryItOut 340

tryItOut 341
Compiling threw: SyntaxError: invalid continue

tryItOut 342
Compiling threw: SyntaxError: invalid continue

tryItOut 343
Compiling threw: SyntaxError: invalid continue

tryItOut 344
Running threw: ReferenceError: reference to undefined XML name *::*

tryItOut 345

tryItOut 346

tryItOut 347
Compiling threw: SyntaxError: label not found

tryItOut 348
Compiling threw: SyntaxError: invalid assignment left-hand side

tryItOut 349
Compiling threw: SyntaxError: missing ; before statement

tryItOut 350
Compiling threw: SyntaxError: invalid break

tryItOut 351
Compiling threw: SyntaxError: missing { before function body

tryItOut 352
Running threw: TypeError: p.z = <y><z/></y> is not a function

tryItOut 353
Compiling threw: SyntaxError: syntax error

tryItOut 354
Running threw: /x/g

tryItOut 355
Running threw: 

tryItOut 356
Running threw: /x/

tryItOut 357
Running threw: TypeError: "".unwatch("__iterator__") has no properties

tryItOut 358
Compiling threw: SyntaxError: label not found

tryItOut 359
Compiling threw: SyntaxError: invalid assignment left-hand side

tryItOut 360

tryItOut 361
Compiling threw: SyntaxError: missing ) after condition

tryItOut 362

tryItOut 363
Compiling threw: SyntaxError: missing ) in parenthetical

tryItOut 364

tryItOut 365
Compiling threw: SyntaxError: invalid decrement operand

tryItOut 366

tryItOut 367
Compiling threw: SyntaxError: missing ] in index expression

tryItOut 368

tryItOut 369

tryItOut 370

tryItOut 371
Compiling threw: SyntaxError: invalid break

tryItOut 372

tryItOut 373

tryItOut 374
Compiling threw: SyntaxError: invalid continue

tryItOut 375

tryItOut 376
Compiling threw: SyntaxError: missing variable name

tryItOut 377
Compiling threw: SyntaxError: syntax error

tryItOut 378
Compiling threw: SyntaxError: missing ; before statement

tryItOut 379
Compiling threw: SyntaxError: syntax error

tryItOut 380

tryItOut 381

tryItOut 382
Compiling threw: SyntaxError: missing ) in parenthetical

tryItOut 383

tryItOut 384

tryItOut 385
Compiling threw: SyntaxError: syntax error

tryItOut 386
Compiling threw: SyntaxError: invalid assignment left-hand side

tryItOut 387
Compiling threw: SyntaxError: syntax error

tryItOut 388
Compiling threw: SyntaxError: label not found

tryItOut 389
Compiling threw: SyntaxError: missing ( before formal parameters

tryItOut 390

tryItOut 391
Running threw: undefined

tryItOut 392

tryItOut 393
Compiling threw: SyntaxError: missing ; before statement

tryItOut 394

tryItOut 395

tryItOut 396
Compiling threw: SyntaxError: invalid break

tryItOut 397
Compiling threw: SyntaxError: missing ; before statement

tryItOut 398

tryItOut 399

tryItOut 400

tryItOut 401
Compiling threw: SyntaxError: missing { before function body

tryItOut 402
Compiling threw: SyntaxError: missing ; before statement

tryItOut 403
Compiling threw: SyntaxError: invalid assignment left-hand side

tryItOut 404
Running threw: ReferenceError: reference to undefined XML name *::*

tryItOut 405
Running threw: ReferenceError: reference to undefined XML name @foo

tryItOut 406
Compiling threw: SyntaxError: missing ) in parenthetical

tryItOut 407
Running threw: 1200

tryItOut 408
Compiling threw: SyntaxError: missing variable name

tryItOut 409

tryItOut 410
Compiling threw: SyntaxError: duplicate label

tryItOut 411
Compiling threw: SyntaxError: label not found

tryItOut 412
Running threw: ReferenceError: reference to undefined XML name *::*

tryItOut 413
Compiling threw: SyntaxError: invalid assignment left-hand side

tryItOut 414
Compiling threw: SyntaxError: syntax error

tryItOut 415
Running threw: TypeError: /a/gi(/x/) has no properties

tryItOut 416
Running threw: TypeError: arguments[0] has no properties

tryItOut 417

tryItOut 418
Compiling threw: SyntaxError: missing ; before statement

tryItOut 419
Running threw: ReferenceError: reference to undefined XML name *::*

tryItOut 420
Compiling threw: SyntaxError: missing variable name

tryItOut 421

tryItOut 422

tryItOut 423
Compiling threw: SyntaxError: missing ) in parenthetical

tryItOut 424
Compiling threw: SyntaxError: syntax error

tryItOut 425
Compiling threw: SyntaxError: missing } after let block

tryItOut 426
Compiling threw: SyntaxError: label not found

tryItOut 427
Compiling threw: SyntaxError: label not found

tryItOut 428

tryItOut 429
Compiling threw: SyntaxError: missing ) in parenthetical

tryItOut 430

tryItOut 431
Compiling threw: TypeError: redeclaration of variable __parent__

tryItOut 432
Compiling threw: SyntaxError: missing ; before statement

tryItOut 433

tryItOut 434
Compiling threw: SyntaxError: label not found

tryItOut 435
Compiling threw: SyntaxError: syntax error

tryItOut 436
Compiling threw: SyntaxError: invalid assignment left-hand side

tryItOut 437

tryItOut 438
Compiling threw: SyntaxError: label not found

tryItOut 439
Compiling threw: SyntaxError: missing ; after for-loop initializer

tryItOut 440
Compiling threw: SyntaxError: invalid break

tryItOut 441
Compiling threw: SyntaxError: invalid continue

tryItOut 442
Compiling threw: SyntaxError: missing ; before statement

tryItOut 443
Compiling threw: SyntaxError: missing ; before statement

tryItOut 444

tryItOut 445

tryItOut 446

tryItOut 447
Compiling threw: SyntaxError: missing ) in parenthetical

tryItOut 448

tryItOut 449
Compiling threw: TypeError: redeclaration of variable __iterator__

tryItOut 450

tryItOut 451
Compiling threw: SyntaxError: missing { before function body

tryItOut 452

tryItOut 453

tryItOut 454
Compiling threw: SyntaxError: syntax error

tryItOut 455

tryItOut 456
Compiling threw: SyntaxError: missing ; after for-loop condition

tryItOut 457

tryItOut 458

tryItOut 459
Compiling threw: SyntaxError: missing { before function body

tryItOut 460

tryItOut 461
Compiling threw: SyntaxError: syntax error

tryItOut 462
Compiling threw: SyntaxError: missing ; before statement

tryItOut 463
Running threw: 153

tryItOut 464
Compiling threw: SyntaxError: syntax error

tryItOut 465
Compiling threw: TypeError: redeclaration of var __iterator__

tryItOut 466
Compiling threw: SyntaxError: syntax error

tryItOut 467

tryItOut 468

tryItOut 469

tryItOut 470
Running threw: ReferenceError: reference to undefined XML name @foo

tryItOut 471
Running threw: ReferenceError: z1 is not defined

tryItOut 472
Compiling threw: SyntaxError: label not found

tryItOut 473
Running threw: ReferenceError: z1 is not defined

tryItOut 474

tryItOut 475
Compiling threw: SyntaxError: missing while after do-loop body

tryItOut 476

tryItOut 477
Compiling threw: SyntaxError: missing ; before statement

tryItOut 478

tryItOut 479
Running threw: TypeError: RegExp.prototype.toString called on incompatible global

tryItOut 480
Compiling threw: TypeError: redeclaration of var constructor

tryItOut 481

tryItOut 482

tryItOut 483

tryItOut 484
Compiling threw: SyntaxError: missing { before function body

tryItOut 485
Compiling threw: SyntaxError: invalid continue

tryItOut 486

tryItOut 487

tryItOut 488
It's an iterator!
Iterating succeeded, iterCount == 1

tryItOut 489

tryItOut 490
Running threw: 1

tryItOut 491
Compiling threw: SyntaxError: missing ; before statement

tryItOut 492

tryItOut 493

tryItOut 494

tryItOut 495

tryItOut 496
Compiling threw: SyntaxError: invalid continue

tryItOut 497

tryItOut 498

tryItOut 499
Compiling threw: SyntaxError: duplicate label

tryItOut 500
Compiling threw: SyntaxError: syntax error

tryItOut 501
Compiling threw: SyntaxError: missing ) after for-loop control

tryItOut 502
Compiling threw: SyntaxError: invalid default XML namespace

tryItOut 503

tryItOut 504

tryItOut 505

tryItOut 506

tryItOut 507
It's an iterator!
Iterating succeeded, iterCount == 1

tryItOut 508
Compiling threw: SyntaxError: invalid continue

tryItOut 509
Compiling threw: SyntaxError: syntax error

tryItOut 510

tryItOut 511

tryItOut 512
Compiling threw: SyntaxError: invalid break

tryItOut 513
Compiling threw: SyntaxError: missing ) after condition

tryItOut 514
Compiling threw: SyntaxError: syntax error

tryItOut 515
before 191840, after 191840, break 01302000

tryItOut 516

tryItOut 517
Compiling threw: SyntaxError: missing ) in parenthetical

tryItOut 518
Compiling threw: SyntaxError: missing ; before statement

tryItOut 519

tryItOut 520

tryItOut 521

tryItOut 522
Compiling threw: SyntaxError: missing ) after condition

tryItOut 523
Running threw: ReferenceError: reference to undefined XML name *

tryItOut 524
Compiling threw: SyntaxError: invalid assignment left-hand side

tryItOut 525

tryItOut 526
Compiling threw: SyntaxError: missing ; before statement

tryItOut 527
Compiling threw: SyntaxError: missing ; before statement

tryItOut 528
Running threw: 

tryItOut 529

tryItOut 530

tryItOut 531
Compiling threw: SyntaxError: syntax error

tryItOut 532
Compiling threw: SyntaxError: missing ; before statement

tryItOut 533
Compiling threw: SyntaxError: invalid flag after regular expression

tryItOut 534

tryItOut 535
Compiling threw: SyntaxError: missing variable name

tryItOut 536
Compiling threw: SyntaxError: syntax error

tryItOut 537
before 191840, after 191840, break 01302000

tryItOut 538

tryItOut 539
Compiling threw: SyntaxError: missing ) in parenthetical

tryItOut 540

tryItOut 541
Compiling threw: SyntaxError: missing ; before statement

tryItOut 542
Compiling threw: SyntaxError: missing { before function body

tryItOut 543
Compiling threw: SyntaxError: syntax error

tryItOut 544
before 191840, after 191840, break 01300000

tryItOut 545

tryItOut 546

tryItOut 547

tryItOut 548

tryItOut 549
Compiling threw: SyntaxError: label not found

tryItOut 550
Running threw: undefined

tryItOut 551
Compiling threw: TypeError: redeclaration of const __noSuchMethod__

tryItOut 552
Running threw: undefined

tryItOut 553

tryItOut 554

tryItOut 555
Compiling threw: SyntaxError: label not found

tryItOut 556

tryItOut 557

tryItOut 558

tryItOut 559

tryItOut 560

tryItOut 561
Compiling threw: SyntaxError: label not found

tryItOut 562
Compiling threw: SyntaxError: syntax error

tryItOut 563

tryItOut 564

tryItOut 565

tryItOut 566
Compiling threw: SyntaxError: syntax error

tryItOut 567

tryItOut 568

tryItOut 569
Compiling threw: SyntaxError: missing ; before statement

tryItOut 570

tryItOut 571

tryItOut 572
Compiling threw: SyntaxError: label not found

tryItOut 573

tryItOut 574

tryItOut 575
Compiling threw: SyntaxError: invalid assignment left-hand side

tryItOut 576

tryItOut 577

tryItOut 578
before 191840, after 191840, break 01300000

tryItOut 579
Compiling threw: TypeError: redeclaration of var __count__

tryItOut 580
Compiling threw: SyntaxError: missing variable name

tryItOut 581
Compiling threw: SyntaxError: label not found

tryItOut 582
Compiling threw: SyntaxError: missing ; after for-loop initializer

tryItOut 583
Running threw: -1

tryItOut 584
Running threw: SyntaxError: invalid getter usage

tryItOut 585
Compiling threw: SyntaxError: missing ; before statement

tryItOut 586
Compiling threw: SyntaxError: invalid break

tryItOut 587

tryItOut 588
Compiling threw: SyntaxError: missing ; before statement

tryItOut 589

tryItOut 590
Compiling threw: SyntaxError: missing { before function body

tryItOut 591
Compiling threw: SyntaxError: missing ) in parenthetical

tryItOut 592

tryItOut 593

tryItOut 594

tryItOut 595

tryItOut 596
Compiling threw: SyntaxError: invalid increment operand

tryItOut 597

tryItOut 598

tryItOut 599
Running threw: ReferenceError: reference to undefined XML name *::*

tryItOut 600
Running threw: ReferenceError: z1 is not defined

tryItOut 601
Compiling threw: SyntaxError: missing ; before statement

tryItOut 602
before 191840, after 191840, break 01300000

tryItOut 603

tryItOut 604
Compiling threw: SyntaxError: invalid break

tryItOut 605
Running threw: ReferenceError: z2 is not defined

tryItOut 606
Compiling threw: SyntaxError: missing ; before statement

tryItOut 607

tryItOut 608
Compiling threw: SyntaxError: missing : after property id

tryItOut 609
Compiling threw: SyntaxError: missing ; before statement

tryItOut 610

tryItOut 611
Compiling threw: SyntaxError: missing ) in parenthetical

tryItOut 612

tryItOut 613
Compiling threw: SyntaxError: label not found

tryItOut 614
Compiling threw: SyntaxError: invalid flag after regular expression

tryItOut 615
Compiling threw: SyntaxError: invalid assignment left-hand side

tryItOut 616

tryItOut 617
Compiling threw: SyntaxError: label not found

tryItOut 618

tryItOut 619
Compiling threw: SyntaxError: invalid increment operand

tryItOut 620
Compiling threw: SyntaxError: invalid continue

tryItOut 621
Running threw: TypeError: prop has no properties

tryItOut 622
Compiling threw: SyntaxError: missing ) in parenthetical

tryItOut 623

tryItOut 624
Compiling threw: SyntaxError: missing ) in parenthetical

tryItOut 625
Compiling threw: SyntaxError: duplicate label

tryItOut 626
Running threw: ReferenceError: reference to undefined XML name *::*

tryItOut 627
Running threw: TypeError: arguments[0] has no properties

tryItOut 628
Compiling threw: SyntaxError: invalid continue

tryItOut 629
Compiling threw: SyntaxError: syntax error

tryItOut 630
Compiling threw: SyntaxError: invalid break

tryItOut 631
Running threw: 

tryItOut 632
Compiling threw: SyntaxError: missing ; before statement

tryItOut 633

tryItOut 634
Compiling threw: SyntaxError: missing { before function body

tryItOut 635
Compiling threw: SyntaxError: syntax error

tryItOut 636
Running threw: TypeError: constructor has no properties

tryItOut 637
Running threw: 

tryItOut 638
Compiling threw: SyntaxError: invalid break

tryItOut 639
before 191840, after 191840, break 01300000

tryItOut 640

tryItOut 641
Compiling threw: SyntaxError: label not found

tryItOut 642
Compiling threw: TypeError: redeclaration of const __iterator__

tryItOut 643

tryItOut 644
Compiling threw: SyntaxError: missing ) after condition

tryItOut 645
before 191840, after 191840, break 01300000

tryItOut 646
Compiling threw: SyntaxError: invalid continue

tryItOut 647
Compiling threw: SyntaxError: missing } after let block

tryItOut 648
Compiling threw: SyntaxError: missing ) after condition

tryItOut 649
Running threw: ReferenceError: reference to undefined XML name @foo

tryItOut 650
Compiling threw: SyntaxError: missing ; before statement

tryItOut 651
Compiling threw: SyntaxError: missing ) in parenthetical

tryItOut 652

tryItOut 653

tryItOut 654

tryItOut 655
Compiling threw: SyntaxError: invalid assignment left-hand side

tryItOut 656
Compiling threw: SyntaxError: syntax error

tryItOut 657

tryItOut 658

tryItOut 659
Compiling threw: TypeError: redeclaration of var prototype

tryItOut 660
Compiling threw: SyntaxError: missing ; before statement

tryItOut 661

tryItOut 662
Compiling threw: SyntaxError: label not found

tryItOut 663
Compiling threw: SyntaxError: missing ] after element list

tryItOut 664
Compiling threw: SyntaxError: invalid label

tryItOut 665

tryItOut 666
Compiling threw: SyntaxError: missing ; before statement

tryItOut 667
Compiling threw: SyntaxError: invalid assignment left-hand side

tryItOut 668
Running threw: ReferenceError: Exception is not defined

tryItOut 669
Running threw: ReferenceError: reference to undefined XML name @foo

tryItOut 670
Running threw: SyntaxError: invalid setter usage

tryItOut 671
Compiling threw: SyntaxError: label not found

tryItOut 672

tryItOut 673

tryItOut 674
Compiling threw: SyntaxError: missing } after let block

tryItOut 675

tryItOut 676
Compiling threw: SyntaxError: missing ; before statement

tryItOut 677
Compiling threw: SyntaxError: missing ; before statement

tryItOut 678
Compiling threw: SyntaxError: invalid decrement operand

tryItOut 679
Compiling threw: SyntaxError: syntax error

tryItOut 680

tryItOut 681

tryItOut 682
Running threw: 1

tryItOut 683
Compiling threw: TypeError: redeclaration of const __iterator__

tryItOut 684
Running threw: ReferenceError: reference to undefined XML name *::*

tryItOut 685
Running threw: TypeError: prop is not a constructor

tryItOut 686
Compiling threw: SyntaxError: label not found

tryItOut 687

tryItOut 688
Compiling threw: SyntaxError: syntax error

tryItOut 689
Compiling threw: SyntaxError: invalid break

tryItOut 690
Compiling threw: SyntaxError: missing } after property list

tryItOut 691
Compiling threw: SyntaxError: invalid continue

tryItOut 692
Compiling threw: SyntaxError: invalid flag after regular expression

tryItOut 693
Compiling threw: SyntaxError: missing ; before statement

tryItOut 694
Compiling threw: SyntaxError: syntax error

tryItOut 695
Compiling threw: SyntaxError: missing ; before statement

tryItOut 696
Compiling threw: SyntaxError: syntax error

tryItOut 697

tryItOut 698

tryItOut 699
Compiling threw: SyntaxError: missing ) in parenthetical

tryItOut 700
Compiling threw: SyntaxError: missing : after property id

tryItOut 701
Compiling threw: SyntaxError: label not found

tryItOut 702
Running threw: ReferenceError: reference to undefined XML name *

tryItOut 703
Running threw: ReferenceError: reference to undefined XML name *::*

tryItOut 704
Compiling threw: SyntaxError: missing ) in parenthetical

tryItOut 705
Compiling threw: SyntaxError: missing : after property id

tryItOut 706
Compiling threw: SyntaxError: duplicate label

tryItOut 707

tryItOut 708

tryItOut 709

tryItOut 710
Compiling threw: SyntaxError: missing ; before statement

tryItOut 711
Compiling threw: SyntaxError: missing variable name

tryItOut 712
Running threw: ReferenceError: reference to undefined XML name @foo

tryItOut 713
Compiling threw: SyntaxError: missing ; before statement

tryItOut 714
Compiling threw: SyntaxError: missing ; before statement

tryItOut 715
Compiling threw: SyntaxError: missing ; before statement

tryItOut 716

tryItOut 717
Compiling threw: SyntaxError: syntax error

tryItOut 718

tryItOut 719
Running threw: ReferenceError: reference to undefined XML name *::*

tryItOut 720
Compiling threw: SyntaxError: missing ; before statement

tryItOut 721
Compiling threw: SyntaxError: missing ; after for-loop initializer

tryItOut 722
Compiling threw: SyntaxError: syntax error

tryItOut 723
Compiling threw: SyntaxError: missing ; before statement

tryItOut 724
Compiling threw: SyntaxError: syntax error

tryItOut 725
Compiling threw: SyntaxError: missing variable name

tryItOut 726

tryItOut 727
Compiling threw: SyntaxError: syntax error

tryItOut 728

tryItOut 729
Compiling threw: SyntaxError: missing variable name

tryItOut 730
Compiling threw: SyntaxError: missing ) in parenthetical

tryItOut 731

tryItOut 732
Compiling threw: SyntaxError: missing } after let block

tryItOut 733
Compiling threw: SyntaxError: syntax error

tryItOut 734
Compiling threw: SyntaxError: syntax error

tryItOut 735

tryItOut 736
Running threw: ReferenceError: reference to undefined XML name @foo

tryItOut 737
Compiling threw: SyntaxError: missing ) in parenthetical

tryItOut 738
Compiling threw: SyntaxError: missing : in conditional expression

tryItOut 739
Compiling threw: SyntaxError: missing ] after element list

tryItOut 740

tryItOut 741
Compiling threw: SyntaxError: missing ) in parenthetical

tryItOut 742
Compiling threw: SyntaxError: missing ; before statement

tryItOut 743

tryItOut 744
Compiling threw: SyntaxError: invalid break

tryItOut 745

tryItOut 746
Compiling threw: SyntaxError: invalid assignment left-hand side

tryItOut 747

tryItOut 748

tryItOut 749
Compiling threw: SyntaxError: missing ; before statement

tryItOut 750
Compiling threw: SyntaxError: syntax error

tryItOut 751
Compiling threw: SyntaxError: syntax error

tryItOut 752
Compiling threw: SyntaxError: missing ; before statement

tryItOut 753

tryItOut 754
Running threw: TypeError: <x/> is not a constructor

tryItOut 755

tryItOut 756

tryItOut 757

tryItOut 758
Compiling threw: SyntaxError: syntax error

tryItOut 759

tryItOut 760
Running threw: SyntaxError: label not found

tryItOut 761
Compiling threw: SyntaxError: invalid continue

tryItOut 762
Running threw: ReferenceError: reference to undefined XML name *

tryItOut 763

tryItOut 764

tryItOut 765

tryItOut 766
Running threw: ReferenceError: z1 is not defined

tryItOut 767

tryItOut 768

tryItOut 769

tryItOut 770

tryItOut 771

tryItOut 772

tryItOut 773

tryItOut 774
Running threw: ReferenceError: reference to undefined XML name *::*

tryItOut 775
Running threw: TypeError: __noSuchMethod__ has no properties

tryItOut 776
Compiling threw: SyntaxError: label not found

tryItOut 777
Compiling threw: SyntaxError: label not found

tryItOut 778
Compiling threw: SyntaxError: syntax error

tryItOut 779
Running threw: ReferenceError: __proto__ is not defined

tryItOut 780
Compiling threw: SyntaxError: missing ] after element list

tryItOut 781
Running threw: ReferenceError: z1 is not defined

tryItOut 782

tryItOut 783
Compiling threw: SyntaxError: missing ) in parenthetical

tryItOut 784
before 279040, after 226720, break 013b1000

tryItOut 785
Compiling threw: SyntaxError: syntax error

tryItOut 786
Compiling threw: SyntaxError: syntax error

tryItOut 787

tryItOut 788
Compiling threw: SyntaxError: syntax error

tryItOut 789

tryItOut 790
Compiling threw: SyntaxError: syntax error

tryItOut 791
before 226720, after 226720, break 013a7000

tryItOut 792

tryItOut 793
before 226720, after 226720, break 013a7000

tryItOut 794
Compiling threw: SyntaxError: syntax error

tryItOut 795

tryItOut 796
before 226720, after 226720, break 013a7000

tryItOut 797
before 226720, after 226720, break 013a7000

tryItOut 798
Running threw: ReferenceError: reference to undefined XML name @foo

tryItOut 799
Running threw: 112

tryItOut 800
Compiling threw: SyntaxError: invalid break

tryItOut 801
Compiling threw: SyntaxError: missing variable name

tryItOut 802

tryItOut 803
Running threw: ReferenceError: reference to undefined XML name @foo

tryItOut 804
It's an iterator!
Iterating threw!
Iterating threw: ReferenceError: z2 is not defined

tryItOut 805
Compiling threw: SyntaxError: missing ; before statement

tryItOut 806
Compiling threw: SyntaxError: syntax error

tryItOut 807
Compiling threw: SyntaxError: syntax error

tryItOut 808
before 226720, after 226720, break 013a7000

tryItOut 809
Compiling threw: SyntaxError: missing ( before formal parameters

tryItOut 810
Compiling threw: SyntaxError: missing { before function body

tryItOut 811

tryItOut 812

tryItOut 813
Compiling threw: SyntaxError: invalid continue

tryItOut 814
Compiling threw: SyntaxError: missing { before function body

tryItOut 815
Compiling threw: SyntaxError: missing ; before statement

tryItOut 816
Running threw: TypeError: constructor is not a constructor

tryItOut 817
Compiling threw: SyntaxError: missing ; before statement

tryItOut 818
Compiling threw: SyntaxError: missing ; before statement

tryItOut 819
Compiling threw: SyntaxError: label not found

tryItOut 820
Running threw: ReferenceError: reference to undefined XML name *::*

tryItOut 821
Running threw: 

tryItOut 822

tryItOut 823

tryItOut 824
Compiling threw: SyntaxError: missing ; before statement

tryItOut 825

tryItOut 826
Compiling threw: SyntaxError: syntax error

tryItOut 827

tryItOut 828
Running threw: ReferenceError: reference to undefined XML name *::*

tryItOut 829
Compiling threw: SyntaxError: missing ; before statement

tryItOut 830

tryItOut 831
Compiling threw: SyntaxError: missing ; before statement

tryItOut 832

tryItOut 833
Compiling threw: SyntaxError: missing ; before statement

tryItOut 834
Running threw: ReferenceError: reference to undefined XML name @foo

tryItOut 835
Compiling threw: TypeError: generator function anonymous returns a value

tryItOut 836

tryItOut 837

tryItOut 838
Compiling threw: SyntaxError: label not found

tryItOut 839
Running threw: ReferenceError: __parent__ is not defined

tryItOut 840

tryItOut 841
Compiling threw: SyntaxError: missing ; before statement

tryItOut 842

tryItOut 843
Compiling threw: SyntaxError: syntax error

tryItOut 844
Compiling threw: SyntaxError: invalid break

tryItOut 845
Compiling threw: SyntaxError: missing ; before statement

tryItOut 846

tryItOut 847
Running threw: ReferenceError: __proto__ is not defined

tryItOut 848

tryItOut 849
Compiling threw: SyntaxError: missing ; before statement

tryItOut 850
Running threw: TypeError: <x/> is not a constructor

tryItOut 851
Compiling threw: SyntaxError: syntax error

tryItOut 852
Compiling threw: SyntaxError: syntax error

tryItOut 853

tryItOut 854
Running threw: ReferenceError: reference to undefined XML name *

tryItOut 855
Compiling threw: SyntaxError: invalid assignment left-hand side

tryItOut 856
Compiling threw: SyntaxError: invalid default XML namespace

tryItOut 857
Running threw: ReferenceError: reference to undefined XML name @foo

tryItOut 858
Compiling threw: SyntaxError: missing { before function body

tryItOut 859
Compiling threw: SyntaxError: missing variable name

tryItOut 860

tryItOut 861
Compiling threw: SyntaxError: missing ; before statement

tryItOut 862
Compiling threw: SyntaxError: missing ; before statement

tryItOut 863
Running threw: 1e-81

tryItOut 864

tryItOut 865
Compiling threw: SyntaxError: missing ) in parenthetical

tryItOut 866
Compiling threw: SyntaxError: missing ; before statement

tryItOut 867
Compiling threw: SyntaxError: invalid assignment left-hand side

tryItOut 868
Compiling threw: SyntaxError: missing ; before statement

tryItOut 869

tryItOut 870

tryItOut 871
Compiling threw: SyntaxError: invalid continue

tryItOut 872
Compiling threw: SyntaxError: missing ; before statement

tryItOut 873

tryItOut 874

tryItOut 875
Running threw: ReferenceError: __parent__ is not defined

tryItOut 876
Compiling threw: SyntaxError: missing ; before statement

tryItOut 877
Compiling threw: SyntaxError: missing } after property list

tryItOut 878
Compiling threw: SyntaxError: missing ) in parenthetical

tryItOut 879

tryItOut 880
Compiling threw: SyntaxError: missing } after finally block

tryItOut 881

tryItOut 882
Compiling threw: SyntaxError: invalid break

tryItOut 883
Compiling threw: SyntaxError: missing ; before statement

tryItOut 884
Compiling threw: SyntaxError: syntax error

tryItOut 885
Compiling threw: SyntaxError: invalid break

tryItOut 886
Compiling threw: SyntaxError: missing ; before statement

tryItOut 887

tryItOut 888
Compiling threw: SyntaxError: missing ; before statement

tryItOut 889

tryItOut 890

tryItOut 891
Compiling threw: SyntaxError: missing ; before statement

tryItOut 892
Compiling threw: SyntaxError: invalid default XML namespace

tryItOut 893

tryItOut 894
Compiling threw: SyntaxError: missing identifier in catch

tryItOut 895
Running threw: ReferenceError: __parent__ is not defined

tryItOut 896
Running threw: ReferenceError: reference to undefined XML name *

tryItOut 897
Compiling threw: SyntaxError: syntax error

tryItOut 898
Compiling threw: SyntaxError: missing ; before statement

tryItOut 899

tryItOut 900

tryItOut 901
Compiling threw: SyntaxError: label not found

tryItOut 902
Running threw: 0.1

tryItOut 903

tryItOut 904

tryItOut 905

tryItOut 906

tryItOut 907
before 279040, after 261600, break 013a7000

tryItOut 908

tryItOut 909
before 261600, after 244160, break 013a7000
Running threw: TypeError: gc() is not a function

tryItOut 910
Compiling threw: SyntaxError: missing ; before statement

tryItOut 911

tryItOut 912
Running threw: 1.3

tryItOut 913
Compiling threw: SyntaxError: syntax error

tryItOut 914
Compiling threw: SyntaxError: label not found

tryItOut 915

tryItOut 916
Compiling threw: SyntaxError: invalid assignment left-hand side

tryItOut 917
Compiling threw: SyntaxError: missing ) in parenthetical

tryItOut 918
Compiling threw: SyntaxError: missing variable name

tryItOut 919
Running threw: TypeError: <x/> is not a function

tryItOut 920

tryItOut 921

tryItOut 922
Compiling threw: SyntaxError: missing ) after condition

tryItOut 923
Compiling threw: SyntaxError: syntax error

tryItOut 924
Running threw: ReferenceError: __parent__ is not defined

tryItOut 925

tryItOut 926

tryItOut 927
Running threw: TypeError: arguments[0] has no properties

tryItOut 928
Compiling threw: SyntaxError: missing ] after element list

tryItOut 929

tryItOut 930
Compiling threw: SyntaxError: invalid assignment left-hand side

tryItOut 931
Running threw: TypeError: (10000).applygc is not a function

tryItOut 932
Compiling threw: SyntaxError: missing ; before statement

tryItOut 933

tryItOut 934

tryItOut 935

tryItOut 936
Compiling threw: SyntaxError: missing ; before statement

tryItOut 937
Running threw: ReferenceError: reference to undefined XML name @foo

tryItOut 938

tryItOut 939

tryItOut 940
Compiling threw: SyntaxError: syntax error

tryItOut 941
Compiling threw: SyntaxError: label not found

tryItOut 942
Compiling threw: SyntaxError: invalid break

tryItOut 943

tryItOut 944

tryItOut 945

tryItOut 946
Compiling threw: SyntaxError: missing ; before statement

tryItOut 947

tryItOut 948

tryItOut 949
Compiling threw: SyntaxError: missing ; before statement

tryItOut 950
Compiling threw: SyntaxError: missing ; before statement

tryItOut 951

tryItOut 952
Compiling threw: SyntaxError: missing ) in parenthetical

tryItOut 953

tryItOut 954

tryItOut 955

tryItOut 956

tryItOut 957

tryItOut 958

tryItOut 959
Compiling threw: SyntaxError: missing ) in parenthetical

tryItOut 960
Compiling threw: SyntaxError: duplicate label

tryItOut 961

tryItOut 962
Compiling threw: SyntaxError: missing ; before statement

tryItOut 963
Compiling threw: SyntaxError: label not found

tryItOut 964
before 244160, after 226720, break 013a7000

tryItOut 965

tryItOut 966
Compiling threw: SyntaxError: missing ) in parenthetical

tryItOut 967
Compiling threw: SyntaxError: label not found

tryItOut 968
Compiling threw: SyntaxError: missing ) in parenthetical

tryItOut 969
Compiling threw: SyntaxError: label not found

tryItOut 970
Compiling threw: SyntaxError: syntax error

tryItOut 971

tryItOut 972

tryItOut 973
Compiling threw: SyntaxError: missing ; before statement

tryItOut 974

tryItOut 975
Compiling threw: SyntaxError: label not found

tryItOut 976

tryItOut 977
Compiling threw: SyntaxError: label not found

tryItOut 978
Compiling threw: SyntaxError: syntax error

tryItOut 979
Compiling threw: SyntaxError: missing ; before statement

tryItOut 980
Compiling threw: SyntaxError: missing ; before statement

tryItOut 981

tryItOut 982

tryItOut 983
Compiling threw: SyntaxError: invalid break

tryItOut 984
Running threw: ReferenceError: reference to undefined XML name *

tryItOut 985
Compiling threw: SyntaxError: invalid break

tryItOut 986
Compiling threw: SyntaxError: missing { before function body

tryItOut 987
before 226720, after 226720, break 013a7000

tryItOut 988

tryItOut 989

tryItOut 990
Compiling threw: SyntaxError: label not found

tryItOut 991

tryItOut 992
Running threw: 0

tryItOut 993

tryItOut 994
Compiling threw: SyntaxError: missing ) after condition

tryItOut 995

tryItOut 996

tryItOut 997
Running threw: TypeError: prototype has no properties

tryItOut 998

tryItOut 999

tryItOut 1000

ALL OK

Script done on Sat 04 May 2013 04:57:23 AM PDT
