Script started on Sat 04 May 2013 07:15:02 AM PDT
***
Targeting SpiderMonkey / Gecko.

tryItOut 1
It's an iterator!
Iterating succeeded, iterCount == 1

tryItOut 2

tryItOut 3

tryItOut 4

tryItOut 5

tryItOut 6

tryItOut 7
Running threw: [object StopIteration]

tryItOut 8

tryItOut 9
It's an iterator!
Iterating succeeded, iterCount == 1

tryItOut 10

tryItOut 11
Running threw: function Object() {
    [native code]
}

tryItOut 12

tryItOut 13

tryItOut 14

tryItOut 15

tryItOut 16

tryItOut 17

tryItOut 18
Compiling threw: SyntaxError: syntax error

tryItOut 19

tryItOut 20
Running threw: TypeError: this.zzz has no properties

tryItOut 21

tryItOut 22
Compiling threw: SyntaxError: invalid assignment left-hand side

tryItOut 23

tryItOut 24

tryItOut 25
Compiling threw: SyntaxError: invalid for/in left-hand side

tryItOut 26
Compiling threw: SyntaxError: syntax error

tryItOut 27
Running threw: TypeError: 1.3 is not a constructor

tryItOut 28

tryItOut 29

tryItOut 30

tryItOut 31
It's an iterator!
Iterating threw!
Iterating threw: Error: invalid sharp variable use #1#

tryItOut 32
Running threw: ReferenceError: prop is not defined

tryItOut 33

tryItOut 34
Compiling threw: SyntaxError: syntax error

tryItOut 35
Compiling threw: SyntaxError: missing ) in parenthetical

tryItOut 36

tryItOut 37

tryItOut 38
Running threw: ReferenceError: h is not defined

tryItOut 39

tryItOut 40

tryItOut 41
Compiling threw: SyntaxError: invalid for/in left-hand side

tryItOut 42
Running threw: [object Object]

tryItOut 43
Compiling threw: SyntaxError: syntax error

tryItOut 44
Compiling threw: SyntaxError: syntax error

tryItOut 45

tryItOut 46
Compiling threw: SyntaxError: syntax error

tryItOut 47
Running threw: ReferenceError: prop is not defined

tryItOut 48

tryItOut 49

tryItOut 50
Compiling threw: SyntaxError: invalid assignment left-hand side

tryItOut 51

tryItOut 52
It's an iterator!
Iterating succeeded, iterCount == 1

tryItOut 53

tryItOut 54

tryItOut 55
Compiling threw: SyntaxError: missing variable name

tryItOut 56
Running threw: [object StopIteration]

tryItOut 57

tryItOut 58

tryItOut 59

tryItOut 60

tryItOut 61
Compiling threw: SyntaxError: invalid assignment left-hand side

tryItOut 62
Compiling threw: SyntaxError: invalid for each loop

tryItOut 63
Compiling threw: SyntaxError: missing ) in parenthetical

tryItOut 64

tryItOut 65

tryItOut 66
Compiling threw: SyntaxError: missing ; after for-loop initializer

tryItOut 67
Running threw: TypeError: redeclaration of var __count__

tryItOut 68

tryItOut 69
Compiling threw: SyntaxError: missing variable name

tryItOut 70
Compiling threw: SyntaxError: invalid assignment left-hand side

tryItOut 71

tryItOut 72
It's an iterator!
Iterating succeeded, iterCount == 1

tryItOut 73
Compiling threw: SyntaxError: missing } after property list

tryItOut 74

tryItOut 75

tryItOut 76

tryItOut 77
Compiling threw: SyntaxError: syntax error

tryItOut 78

tryItOut 79
Running threw: [object StopIteration]

tryItOut 80

tryItOut 81

tryItOut 82
It's an iterator!
Iterating succeeded, iterCount == 1

tryItOut 83
Running threw: [object StopIteration]

tryItOut 84

tryItOut 85

tryItOut 86

tryItOut 87

tryItOut 88

tryItOut 89

tryItOut 90
Compiling threw: SyntaxError: missing ) in parenthetical

tryItOut 91
Running threw: [object StopIteration]

tryItOut 92
Compiling threw: SyntaxError: missing variable name

tryItOut 93
Compiling threw: SyntaxError: syntax error

tryItOut 94

tryItOut 95

tryItOut 96

tryItOut 97

tryItOut 98
Compiling threw: SyntaxError: missing variable name

tryItOut 99

tryItOut 100

tryItOut 101

tryItOut 102

tryItOut 103

tryItOut 104

tryItOut 105
It's an iterator!
Iterating succeeded, iterCount == 1

tryItOut 106

tryItOut 107

tryItOut 108
Compiling threw: SyntaxError: illegal XML character

tryItOut 109
Compiling threw: TypeError: redeclaration of const prop

tryItOut 110

tryItOut 111
Compiling threw: SyntaxError: illegal XML character

tryItOut 112
Compiling threw: SyntaxError: missing ; before statement

tryItOut 113

tryItOut 114
Running threw: [object StopIteration]

tryItOut 115
Compiling threw: TypeError: redeclaration of const __proto__

tryItOut 116
Compiling threw: SyntaxError: missing ; after for-loop initializer

tryItOut 117
It's an iterator!
Iterating succeeded, iterCount == 1

tryItOut 118
Compiling threw: SyntaxError: invalid assignment left-hand side

tryItOut 119

tryItOut 120
Running threw: ReferenceError: prop is not defined

tryItOut 121

tryItOut 122

tryItOut 123
Compiling threw: SyntaxError: missing ) in parenthetical

tryItOut 124

tryItOut 125
Compiling threw: SyntaxError: missing ; after for-loop initializer

tryItOut 126

tryItOut 127

tryItOut 128
Running threw: ReferenceError: prop is not defined

tryItOut 129
Compiling threw: TypeError: redeclaration of const __parent__

tryItOut 130
It's an iterator!
Iterating threw!
Iterating threw: TypeError: null is not a function

tryItOut 131

tryItOut 132

tryItOut 133

tryItOut 134
Compiling threw: SyntaxError: missing ; before statement

tryItOut 135

tryItOut 136

tryItOut 137

tryItOut 138
Compiling threw: SyntaxError: missing ) in parenthetical

tryItOut 139

tryItOut 140
Compiling threw: SyntaxError: invalid assignment left-hand side

tryItOut 141
Compiling threw: SyntaxError: missing ; after for-loop initializer

tryItOut 142

tryItOut 143
Compiling threw: SyntaxError: syntax error

tryItOut 144

tryItOut 145

tryItOut 146

tryItOut 147
It's an iterator!
Iterating succeeded, iterCount == 1

tryItOut 148

tryItOut 149
Compiling threw: SyntaxError: invalid increment operand

tryItOut 150
Running threw: ReferenceError: prototype is not defined

tryItOut 151
Compiling threw: SyntaxError: missing ) in parenthetical

tryItOut 152
It's an iterator!
Iterating threw!
Iterating threw: ReferenceError: prototype is not defined

tryItOut 153

tryItOut 154
Compiling threw: SyntaxError: missing ) after argument list

tryItOut 155

tryItOut 156
Compiling threw: SyntaxError: missing ( before let head

tryItOut 157

tryItOut 158
Compiling threw: SyntaxError: missing ; after for-loop initializer

tryItOut 159
Running threw: TypeError: this.zzz has no properties

tryItOut 160

tryItOut 161
Compiling threw: TypeError: generator function anonymous returns a value

tryItOut 162

tryItOut 163
Compiling threw: TypeError: redeclaration of variable __iterator__

tryItOut 164
Compiling threw: SyntaxError: invalid assignment left-hand side

tryItOut 165
Running threw: ReferenceError: prototype is not defined

tryItOut 166
It's an iterator!
Iterating succeeded, iterCount == 4

tryItOut 167
It's an iterator!
Iterating succeeded, iterCount == 1

tryItOut 168

tryItOut 169

tryItOut 170
Compiling threw: SyntaxError: syntax error

tryItOut 171

tryItOut 172

tryItOut 173

tryItOut 174

tryItOut 175
Compiling threw: SyntaxError: syntax error

tryItOut 176

tryItOut 177

tryItOut 178
Compiling threw: SyntaxError: invalid for/in left-hand side

tryItOut 179
Compiling threw: SyntaxError: missing ) in parenthetical

tryItOut 180
Compiling threw: SyntaxError: invalid increment operand

tryItOut 181

tryItOut 182

tryItOut 183

tryItOut 184
Compiling threw: TypeError: redeclaration of var __iterator__

tryItOut 185

tryItOut 186
Compiling threw: SyntaxError: missing ( before let head

tryItOut 187

tryItOut 188
Compiling threw: SyntaxError: syntax error

tryItOut 189
Compiling threw: SyntaxError: missing variable name

tryItOut 190
Compiling threw: SyntaxError: missing ) in parenthetical

tryItOut 191

tryItOut 192
Compiling threw: SyntaxError: missing ) in parenthetical

tryItOut 193

tryItOut 194
Compiling threw: SyntaxError: invalid for each loop

tryItOut 195

tryItOut 196
Compiling threw: SyntaxError: syntax error

tryItOut 197
Compiling threw: SyntaxError: syntax error

tryItOut 198

tryItOut 199

tryItOut 200
Compiling threw: SyntaxError: invalid assignment left-hand side

tryItOut 201

tryItOut 202

tryItOut 203

tryItOut 204
Compiling threw: TypeError: redeclaration of const prop

tryItOut 205
Compiling threw: SyntaxError: invalid for/in left-hand side

tryItOut 206
Compiling threw: SyntaxError: missing ) after condition

tryItOut 207

tryItOut 208

tryItOut 209
It's an iterator!
Iterating succeeded, iterCount == 1

tryItOut 210

tryItOut 211
Compiling threw: SyntaxError: missing ) in parenthetical

tryItOut 212
It's an iterator!
Iterating succeeded, iterCount == 2

tryItOut 213

tryItOut 214

tryItOut 215

tryItOut 216
Compiling threw: SyntaxError: syntax error

tryItOut 217
Compiling threw: SyntaxError: invalid for each loop

tryItOut 218

tryItOut 219
Compiling threw: TypeError: redeclaration of var __count__

tryItOut 220
Compiling threw: SyntaxError: syntax error

tryItOut 221
Compiling threw: SyntaxError: missing ) in parenthetical

tryItOut 222
Compiling threw: SyntaxError: invalid for/in left-hand side

tryItOut 223
Compiling threw: SyntaxError: invalid for/in left-hand side

tryItOut 224

tryItOut 225
Compiling threw: SyntaxError: syntax error

tryItOut 226
Compiling threw: SyntaxError: missing ) in parenthetical

tryItOut 227
Compiling threw: SyntaxError: invalid for/in left-hand side

tryItOut 228
Compiling threw: SyntaxError: missing ) in parenthetical

tryItOut 229

tryItOut 230
Compiling threw: SyntaxError: missing ; after for-loop initializer

tryItOut 231
Compiling threw: SyntaxError: invalid assignment left-hand side

tryItOut 232
Compiling threw: SyntaxError: syntax error

tryItOut 233

tryItOut 234

tryItOut 235
Compiling threw: SyntaxError: duplicate label

tryItOut 236

tryItOut 237
Running threw: ReferenceError: x is not defined

tryItOut 238

tryItOut 239

tryItOut 240

tryItOut 241
Compiling threw: SyntaxError: missing ( before formal parameters

tryItOut 242

tryItOut 243

tryItOut 244
Compiling threw: SyntaxError: missing variable name

tryItOut 245
Compiling threw: SyntaxError: syntax error

tryItOut 246

tryItOut 247
Running threw: [object StopIteration]

tryItOut 248

tryItOut 249

tryItOut 250

tryItOut 251

tryItOut 252

tryItOut 253

tryItOut 254

tryItOut 255
Compiling threw: SyntaxError: invalid for/in left-hand side

tryItOut 256
Compiling threw: SyntaxError: missing variable name

tryItOut 257

tryItOut 258
Compiling threw: SyntaxError: missing variable name

tryItOut 259

tryItOut 260
Compiling threw: SyntaxError: missing ) in parenthetical

tryItOut 261

tryItOut 262

tryItOut 263

tryItOut 264
Compiling threw: SyntaxError: missing ) in parenthetical

tryItOut 265

tryItOut 266
Running threw: ReferenceError: x is not defined

tryItOut 267
Compiling threw: SyntaxError: invalid for/in left-hand side

tryItOut 268
It's an iterator!
Iterating succeeded, iterCount == 1

tryItOut 269
Compiling threw: SyntaxError: invalid destructuring assignment operator

tryItOut 270

tryItOut 271
Compiling threw: SyntaxError: invalid increment operand

tryItOut 272
Compiling threw: SyntaxError: missing variable name

tryItOut 273

tryItOut 274

tryItOut 275

tryItOut 276

tryItOut 277
Compiling threw: SyntaxError: invalid for each loop

tryItOut 278

tryItOut 279
Compiling threw: TypeError: redeclaration of variable __parent__

tryItOut 280

tryItOut 281

tryItOut 282
Compiling threw: SyntaxError: missing ) after condition

tryItOut 283

tryItOut 284

tryItOut 285

tryItOut 286
Compiling threw: SyntaxError: missing ; after for-loop condition

tryItOut 287
Compiling threw: SyntaxError: invalid decrement operand

tryItOut 288
Compiling threw: SyntaxError: illegal XML character

tryItOut 289

tryItOut 290
Compiling threw: SyntaxError: syntax error

tryItOut 291
Compiling threw: SyntaxError: invalid assignment left-hand side

tryItOut 292
It's an iterator!
Iterating succeeded, iterCount == 1

tryItOut 293
It's an iterator!
Iterating succeeded, iterCount == 1

tryItOut 294

tryItOut 295
It's an iterator!
Iterating succeeded, iterCount == 1

tryItOut 296
Compiling threw: SyntaxError: missing ; before statement

tryItOut 297

tryItOut 298
Compiling threw: SyntaxError: missing ) after argument list

tryItOut 299
Compiling threw: SyntaxError: invalid for/in left-hand side

tryItOut 300

tryItOut 301

tryItOut 302
Running threw: [object StopIteration]

tryItOut 303

tryItOut 304
Compiling threw: SyntaxError: invalid for/in left-hand side

tryItOut 305
Compiling threw: SyntaxError: syntax error

tryItOut 306
Compiling threw: SyntaxError: invalid assignment left-hand side

tryItOut 307
Compiling threw: SyntaxError: syntax error

tryItOut 308
Running threw: TypeError: this.zzz has no properties

tryItOut 309

tryItOut 310

tryItOut 311
Compiling threw: SyntaxError: missing ; after for-loop condition

tryItOut 312
Compiling threw: SyntaxError: invalid increment operand

tryItOut 313
Compiling threw: SyntaxError: syntax error

tryItOut 314

tryItOut 315
Compiling threw: SyntaxError: syntax error

tryItOut 316

tryItOut 317

tryItOut 318

tryItOut 319
Compiling threw: SyntaxError: invalid increment operand

tryItOut 320

tryItOut 321
Compiling threw: SyntaxError: missing ; after for-loop initializer

tryItOut 322
Compiling threw: SyntaxError: duplicate label

tryItOut 323

tryItOut 324
It's an iterator!
Iterating succeeded, iterCount == 1

tryItOut 325
Compiling threw: SyntaxError: invalid for/in left-hand side

tryItOut 326
Compiling threw: SyntaxError: missing ; before statement

tryItOut 327
Compiling threw: SyntaxError: invalid increment operand

tryItOut 328
It's an iterator!
Iterating succeeded, iterCount == 1

tryItOut 329

tryItOut 330

tryItOut 331
Compiling threw: SyntaxError: invalid for/in left-hand side

tryItOut 332

tryItOut 333
Compiling threw: SyntaxError: invalid for/in left-hand side

tryItOut 334
Compiling threw: SyntaxError: missing { before function body

tryItOut 335

tryItOut 336

tryItOut 337

tryItOut 338
It's an iterator!
Iterating succeeded, iterCount == 1

tryItOut 339

tryItOut 340
Compiling threw: SyntaxError: missing { before function body

tryItOut 341
Compiling threw: SyntaxError: missing variable name

tryItOut 342
Running threw: ReferenceError: yyy is not defined

tryItOut 343

tryItOut 344
It's an iterator!
Iterating succeeded, iterCount == 1

tryItOut 345

tryItOut 346

tryItOut 347
Compiling threw: SyntaxError: invalid decrement operand

tryItOut 348
Compiling threw: SyntaxError: invalid for/in left-hand side

tryItOut 349

tryItOut 350
Compiling threw: SyntaxError: missing variable name

tryItOut 351

tryItOut 352
Running threw: [object StopIteration]

tryItOut 353

tryItOut 354
Compiling threw: SyntaxError: syntax error

tryItOut 355

tryItOut 356

tryItOut 357

tryItOut 358

tryItOut 359
Compiling threw: SyntaxError: invalid for/in left-hand side

tryItOut 360
Compiling threw: SyntaxError: missing variable name

tryItOut 361

tryItOut 362
Running threw: TypeError: this.zzz has no properties

tryItOut 363

tryItOut 364

tryItOut 365
Compiling threw: SyntaxError: syntax error

tryItOut 366
Compiling threw: SyntaxError: syntax error

tryItOut 367
Compiling threw: SyntaxError: invalid assignment left-hand side

tryItOut 368
Compiling threw: SyntaxError: syntax error

tryItOut 369

tryItOut 370
Running threw: TypeError: this.zzz has no properties

tryItOut 371

tryItOut 372
Compiling threw: SyntaxError: missing { before function body

tryItOut 373
Compiling threw: SyntaxError: invalid for/in left-hand side

tryItOut 374

tryItOut 375
Compiling threw: SyntaxError: invalid for each loop

tryItOut 376

tryItOut 377
Compiling threw: SyntaxError: syntax error

tryItOut 378
Running threw: ReferenceError: z1 is not defined

tryItOut 379
Compiling threw: SyntaxError: syntax error

tryItOut 380

tryItOut 381
Compiling threw: SyntaxError: invalid assignment left-hand side

tryItOut 382
Compiling threw: SyntaxError: missing : after property id

tryItOut 383
Running threw: function Object() {
    [native code]
}

tryItOut 384

tryItOut 385

tryItOut 386
Compiling threw: SyntaxError: invalid assignment left-hand side

tryItOut 387

tryItOut 388

tryItOut 389
Compiling threw: SyntaxError: missing { before function body

tryItOut 390

tryItOut 391

tryItOut 392

tryItOut 393
It's an iterator!
Iterating threw!
Iterating threw: ReferenceError: z2 is not defined

tryItOut 394
Running threw: TypeError: NaN is not a function

tryItOut 395
Compiling threw: SyntaxError: invalid for/in left-hand side

tryItOut 396

tryItOut 397

tryItOut 398

tryItOut 399

tryItOut 400
Running threw: TypeError: null is not a constructor

tryItOut 401

tryItOut 402
Compiling threw: SyntaxError: invalid decrement operand

tryItOut 403
Compiling threw: SyntaxError: invalid for/in left-hand side

tryItOut 404

tryItOut 405
It's an iterator!
Iterating succeeded, iterCount == 1

tryItOut 406
Compiling threw: SyntaxError: invalid assignment left-hand side

tryItOut 407
Running threw: <x>
  <y/>
</x>

tryItOut 408
Compiling threw: SyntaxError: missing variable name

tryItOut 409
Running threw: false

tryItOut 410
Compiling threw: SyntaxError: invalid for/in left-hand side

tryItOut 411
Running threw: [object StopIteration]

tryItOut 412

tryItOut 413
Compiling threw: SyntaxError: syntax error

tryItOut 414
Running threw: TypeError: this.zzz has no properties

tryItOut 415
Running threw: [object StopIteration]

tryItOut 416

tryItOut 417

tryItOut 418
It's an iterator!
Iterating succeeded, iterCount == 1

tryItOut 419
Compiling threw: SyntaxError: invalid assignment left-hand side

tryItOut 420

tryItOut 421
Compiling threw: SyntaxError: missing ; after for-loop initializer

tryItOut 422

tryItOut 423

tryItOut 424
Running threw: ReferenceError: z1 is not defined

tryItOut 425
Compiling threw: SyntaxError: missing variable name

tryItOut 426

tryItOut 427

tryItOut 428

tryItOut 429
Compiling threw: SyntaxError: invalid for/in left-hand side

tryItOut 430
Compiling threw: SyntaxError: syntax error

tryItOut 431

tryItOut 432
Compiling threw: SyntaxError: missing ) in parenthetical

tryItOut 433

tryItOut 434

tryItOut 435
Running threw: TypeError: this.zzz has no properties

tryItOut 436

tryItOut 437
Compiling threw: SyntaxError: invalid assignment left-hand side

tryItOut 438
Compiling threw: SyntaxError: missing ) after condition

tryItOut 439

tryItOut 440

tryItOut 441

tryItOut 442
Running threw: TypeError: redeclaration of var __count__

tryItOut 443
Compiling threw: SyntaxError: missing ) in parenthetical

tryItOut 444

tryItOut 445

tryItOut 446

tryItOut 447

tryItOut 448

tryItOut 449

tryItOut 450
Compiling threw: SyntaxError: missing ; after for-loop initializer

tryItOut 451

tryItOut 452
Compiling threw: SyntaxError: missing ) in parenthetical

tryItOut 453
Compiling threw: SyntaxError: missing variable name

tryItOut 454

tryItOut 455
Compiling threw: SyntaxError: invalid for/in left-hand side

tryItOut 456
Running threw: TypeError: this.zzz has no properties

tryItOut 457
Compiling threw: SyntaxError: invalid for/in left-hand side

tryItOut 458

tryItOut 459

tryItOut 460
Compiling threw: SyntaxError: syntax error

tryItOut 461
Compiling threw: SyntaxError: syntax error

tryItOut 462
Compiling threw: SyntaxError: missing ; after for-loop initializer

tryItOut 463

tryItOut 464
Compiling threw: SyntaxError: invalid destructuring assignment operator

tryItOut 465

tryItOut 466
It's an iterator!
Iterating succeeded, iterCount == 1

tryItOut 467
Compiling threw: SyntaxError: missing ) in parenthetical

tryItOut 468
Compiling threw: SyntaxError: missing ) in parenthetical

tryItOut 469
Compiling threw: SyntaxError: invalid assignment left-hand side

tryItOut 470
Compiling threw: SyntaxError: missing = in destructuring declaration

tryItOut 471

tryItOut 472
Running threw: TypeError: __parent__ has no properties

tryItOut 473

tryItOut 474

tryItOut 475
Compiling threw: SyntaxError: syntax error

tryItOut 476
It's an iterator!
Iterating succeeded, iterCount == 1

tryItOut 477
Compiling threw: SyntaxError: invalid increment operand

tryItOut 478
Running threw: [object StopIteration]

tryItOut 479

tryItOut 480

tryItOut 481
Compiling threw: SyntaxError: missing ) after argument list

tryItOut 482

tryItOut 483
Compiling threw: SyntaxError: missing ) after condition

tryItOut 484
Compiling threw: SyntaxError: invalid assignment left-hand side

tryItOut 485

tryItOut 486
Compiling threw: SyntaxError: missing ; after for-loop initializer

tryItOut 487
Compiling threw: TypeError: redeclaration of const __noSuchMethod__

tryItOut 488
Compiling threw: SyntaxError: missing variable name

tryItOut 489
Compiling threw: SyntaxError: syntax error

tryItOut 490
It's an iterator!
Iterating succeeded, iterCount == 1

tryItOut 491
Running threw: [object Object]

tryItOut 492

tryItOut 493

tryItOut 494

tryItOut 495

tryItOut 496

tryItOut 497
Compiling threw: SyntaxError: missing ) in parenthetical

tryItOut 498

tryItOut 499
Compiling threw: SyntaxError: invalid for/in left-hand side

tryItOut 500

tryItOut 501

tryItOut 502
Compiling threw: SyntaxError: missing ; after for-loop initializer

tryItOut 503

tryItOut 504

tryItOut 505
Compiling threw: SyntaxError: invalid for/in left-hand side

tryItOut 506

tryItOut 507
Running threw: [object StopIteration]

tryItOut 508
Compiling threw: SyntaxError: invalid decrement operand

tryItOut 509

tryItOut 510

tryItOut 511
Compiling threw: SyntaxError: syntax error

tryItOut 512

tryItOut 513
Compiling threw: SyntaxError: invalid XML tag syntax

tryItOut 514

tryItOut 515

tryItOut 516
It's an iterator!
Iterating succeeded, iterCount == 1

tryItOut 517
Compiling threw: SyntaxError: invalid for/in left-hand side

tryItOut 518

tryItOut 519
It's an iterator!
Iterating threw!
Iterating threw: ReferenceError: z1 is not defined

tryItOut 520

tryItOut 521
Compiling threw: SyntaxError: invalid for/in left-hand side

tryItOut 522
Compiling threw: SyntaxError: missing = in destructuring declaration

tryItOut 523
Running threw: null

tryItOut 524

tryItOut 525

tryItOut 526

tryItOut 527

tryItOut 528
Compiling threw: SyntaxError: syntax error

tryItOut 529

tryItOut 530
It's an iterator!
Iterating threw!
Iterating threw: TypeError: undefined has no properties

tryItOut 531
Compiling threw: SyntaxError: syntax error

tryItOut 532

tryItOut 533

tryItOut 534
Compiling threw: SyntaxError: missing { before function body

tryItOut 535
Compiling threw: SyntaxError: invalid for/in left-hand side

tryItOut 536

tryItOut 537

tryItOut 538

tryItOut 539
It's an iterator!
Iterating succeeded, iterCount == 1

tryItOut 540
Compiling threw: SyntaxError: invalid assignment left-hand side

tryItOut 541
Compiling threw: SyntaxError: invalid XML name

tryItOut 542
Running threw: Error: invalid sharp variable use #1#

tryItOut 543
Compiling threw: SyntaxError: invalid assignment left-hand side

tryItOut 544
Running threw: ReferenceError: __noSuchMethod__ is not defined

tryItOut 545

tryItOut 546
It's an iterator!
Iterating succeeded, iterCount == 1

tryItOut 547

tryItOut 548
Running threw: [object Object]

tryItOut 549
Compiling threw: TypeError: redeclaration of const __count__

tryItOut 550
Compiling threw: SyntaxError: invalid assignment left-hand side

tryItOut 551

tryItOut 552
Running threw: null

tryItOut 553

tryItOut 554

tryItOut 555

tryItOut 556

tryItOut 557
Compiling threw: SyntaxError: missing ) in parenthetical

tryItOut 558

tryItOut 559
Compiling threw: SyntaxError: missing : after property id

tryItOut 560

tryItOut 561
Running threw: TypeError: this.zzz has no properties

tryItOut 562
Compiling threw: SyntaxError: missing ; after for-loop initializer

tryItOut 563
Compiling threw: SyntaxError: missing ) in parenthetical

tryItOut 564
It's an iterator!
Iterating succeeded, iterCount == 1

tryItOut 565

tryItOut 566
It's an iterator!
Iterating succeeded, iterCount == 1

tryItOut 567

tryItOut 568

tryItOut 569
Compiling threw: SyntaxError: invalid assignment left-hand side

tryItOut 570

tryItOut 571

tryItOut 572
Compiling threw: SyntaxError: invalid for/in left-hand side

tryItOut 573

tryItOut 574

tryItOut 575

tryItOut 576
Compiling threw: SyntaxError: missing ) in parenthetical

tryItOut 577

tryItOut 578

tryItOut 579
Compiling threw: SyntaxError: syntax error

tryItOut 580
Compiling threw: SyntaxError: missing ) in parenthetical

tryItOut 581
Running threw: TypeError: undefined has no properties

tryItOut 582

tryItOut 583
Compiling threw: SyntaxError: missing ; before statement

tryItOut 584

tryItOut 585
Compiling threw: SyntaxError: illegal XML character

tryItOut 586
It's an iterator!
Iterating succeeded, iterCount == 1

tryItOut 587
Compiling threw: SyntaxError: missing { before function body

tryItOut 588

tryItOut 589

tryItOut 590
It's an iterator!
Iterating threw!
Iterating threw: TypeError: __iterator__ has no properties

tryItOut 591

tryItOut 592

tryItOut 593
Compiling threw: SyntaxError: syntax error

tryItOut 594

tryItOut 595
It's an iterator!
Iterating succeeded, iterCount == 1

tryItOut 596

tryItOut 597

tryItOut 598

tryItOut 599
Compiling threw: SyntaxError: invalid for/in left-hand side

tryItOut 600
It's an iterator!
Iterating succeeded, iterCount == 1

tryItOut 601

tryItOut 602
Running threw: [object StopIteration]

tryItOut 603

tryItOut 604

tryItOut 605
Running threw: [object StopIteration]

tryItOut 606
Running threw: ReferenceError: __noSuchMethod__ is not defined

tryItOut 607

tryItOut 608

tryItOut 609

tryItOut 610
Compiling threw: SyntaxError: illegal XML character

tryItOut 611
Compiling threw: SyntaxError: missing ; after for-loop initializer

tryItOut 612

tryItOut 613
Compiling threw: SyntaxError: invalid for/in left-hand side

tryItOut 614

tryItOut 615

tryItOut 616

tryItOut 617
Running threw: TypeError: invalid XML namespace ccc

tryItOut 618

tryItOut 619

tryItOut 620
Compiling threw: SyntaxError: missing ) in parenthetical

tryItOut 621
It's an iterator!
Iterating succeeded, iterCount == 1

tryItOut 622
Running threw: TypeError: this.zzz has no properties

tryItOut 623

tryItOut 624

tryItOut 625

tryItOut 626

tryItOut 627

tryItOut 628

tryItOut 629

tryItOut 630

tryItOut 631
Compiling threw: SyntaxError: invalid for/in left-hand side

tryItOut 632

tryItOut 633

tryItOut 634

tryItOut 635

tryItOut 636

tryItOut 637
Compiling threw: SyntaxError: invalid for/in left-hand side

tryItOut 638
It's an iterator!
Iterating succeeded, iterCount == 1

tryItOut 639

tryItOut 640

tryItOut 641
Compiling threw: SyntaxError: missing ; before statement

tryItOut 642

tryItOut 643

tryItOut 644

tryItOut 645

tryItOut 646

tryItOut 647

tryItOut 648

tryItOut 649
It's an iterator!
Iterating threw!
Iterating threw: TypeError: null has no properties

tryItOut 650

tryItOut 651
Compiling threw: SyntaxError: syntax error

tryItOut 652

tryItOut 653

tryItOut 654
Compiling threw: SyntaxError: syntax error

tryItOut 655
Running threw: [object Object]

tryItOut 656

tryItOut 657

tryItOut 658
Compiling threw: SyntaxError: invalid assignment left-hand side

tryItOut 659

tryItOut 660

tryItOut 661

tryItOut 662

tryItOut 663
Running threw: [object Object]

tryItOut 664
Running threw: ReferenceError: __noSuchMethod__ is not defined

tryItOut 665
Compiling threw: TypeError: redeclaration of const __count__

tryItOut 666

tryItOut 667
Compiling threw: SyntaxError: syntax error

tryItOut 668
Compiling threw: SyntaxError: invalid increment operand

tryItOut 669

tryItOut 670
Compiling threw: SyntaxError: syntax error

tryItOut 671

tryItOut 672

tryItOut 673
Compiling threw: SyntaxError: missing ) after for-loop control

tryItOut 674
Compiling threw: SyntaxError: missing ; after for-loop initializer

tryItOut 675

tryItOut 676
Compiling threw: SyntaxError: invalid for/in left-hand side

tryItOut 677

tryItOut 678
Compiling threw: SyntaxError: invalid for/in left-hand side

tryItOut 679
Compiling threw: SyntaxError: missing variable name

tryItOut 680
Compiling threw: SyntaxError: missing variable name

tryItOut 681
Compiling threw: SyntaxError: invalid assignment left-hand side

tryItOut 682

tryItOut 683

tryItOut 684

tryItOut 685

tryItOut 686
Compiling threw: SyntaxError: invalid for/in left-hand side

tryItOut 687
Compiling threw: SyntaxError: missing ) after condition

tryItOut 688

tryItOut 689

tryItOut 690

tryItOut 691

tryItOut 692
Compiling threw: SyntaxError: syntax error

tryItOut 693
Compiling threw: SyntaxError: invalid for each loop

tryItOut 694

tryItOut 695
Compiling threw: SyntaxError: invalid destructuring assignment operator

tryItOut 696

tryItOut 697
Compiling threw: SyntaxError: syntax error

tryItOut 698

tryItOut 699

tryItOut 700

tryItOut 701

tryItOut 702

tryItOut 703
Compiling threw: SyntaxError: missing ) in parenthetical

tryItOut 704
Compiling threw: SyntaxError: invalid property id

tryItOut 705
Compiling threw: SyntaxError: missing : after property id

tryItOut 706
Compiling threw: SyntaxError: missing ) in parenthetical

tryItOut 707
Running threw: TypeError: this.zzz has no properties

tryItOut 708
Compiling threw: SyntaxError: syntax error

tryItOut 709

tryItOut 710

tryItOut 711

tryItOut 712

tryItOut 713

tryItOut 714

tryItOut 715
Running threw: ReferenceError: yyy is not defined

tryItOut 716

tryItOut 717
Compiling threw: SyntaxError: illegal XML character

tryItOut 718
Compiling threw: SyntaxError: invalid destructuring assignment operator

tryItOut 719

tryItOut 720

tryItOut 721
Compiling threw: SyntaxError: syntax error

tryItOut 722

tryItOut 723

tryItOut 724
Compiling threw: SyntaxError: invalid increment operand

tryItOut 725

tryItOut 726
Compiling threw: SyntaxError: invalid XML name

tryItOut 727
It's an iterator!
Iterating succeeded, iterCount == 1

tryItOut 728

tryItOut 729

tryItOut 730

tryItOut 731
Compiling threw: SyntaxError: missing { before function body

tryItOut 732
Compiling threw: SyntaxError: missing ( before let head

tryItOut 733
Compiling threw: SyntaxError: missing variable name

tryItOut 734
Compiling threw: SyntaxError: missing { before function body

tryItOut 735
Running threw: Error: invalid sharp variable use #1#

tryItOut 736
Running threw: [object StopIteration]

tryItOut 737

tryItOut 738

tryItOut 739

tryItOut 740

tryItOut 741
Compiling threw: SyntaxError: missing ) in parenthetical

tryItOut 742

tryItOut 743
Compiling threw: SyntaxError: missing ) in parenthetical

tryItOut 744
Compiling threw: SyntaxError: missing variable name

tryItOut 745
Compiling threw: SyntaxError: syntax error

tryItOut 746

tryItOut 747

tryItOut 748

tryItOut 749

tryItOut 750

tryItOut 751
Compiling threw: SyntaxError: missing ) in parenthetical

tryItOut 752
Compiling threw: SyntaxError: syntax error

tryItOut 753
Compiling threw: SyntaxError: syntax error

tryItOut 754

tryItOut 755
Compiling threw: SyntaxError: missing ; after for-loop initializer

tryItOut 756
Compiling threw: SyntaxError: missing ) in parenthetical

tryItOut 757
It's an iterator!
Iterating succeeded, iterCount == 1

tryItOut 758
Compiling threw: SyntaxError: missing ; before statement

tryItOut 759
Compiling threw: SyntaxError: missing while after do-loop body

tryItOut 760

tryItOut 761

tryItOut 762
Compiling threw: SyntaxError: invalid for/in left-hand side

tryItOut 763

tryItOut 764
Compiling threw: SyntaxError: syntax error

tryItOut 765

tryItOut 766

tryItOut 767

tryItOut 768

tryItOut 769
Compiling threw: SyntaxError: missing ) in parenthetical

tryItOut 770

tryItOut 771
Running threw: TypeError: this.zzz has no properties

tryItOut 772

tryItOut 773

tryItOut 774

tryItOut 775

tryItOut 776
Compiling threw: SyntaxError: missing variable name

tryItOut 777
Compiling threw: SyntaxError: missing { before function body

tryItOut 778
It's an iterator!
Iterating succeeded, iterCount == 1

tryItOut 779

tryItOut 780
Compiling threw: SyntaxError: missing ) after for-loop control

tryItOut 781

tryItOut 782
It's an iterator!
Iterating succeeded, iterCount == 1

tryItOut 783
Compiling threw: TypeError: redeclaration of const constructor

tryItOut 784
Compiling threw: SyntaxError: invalid assignment left-hand side

tryItOut 785
Compiling threw: SyntaxError: missing while after do-loop body

tryItOut 786
It's an iterator!
Iterating succeeded, iterCount == 1

tryItOut 787
Compiling threw: SyntaxError: invalid for/in left-hand side

tryItOut 788

tryItOut 789
Compiling threw: SyntaxError: invalid for/in left-hand side

tryItOut 790

tryItOut 791
Compiling threw: SyntaxError: missing ) in parenthetical

tryItOut 792

tryItOut 793

tryItOut 794
Compiling threw: SyntaxError: invalid for/in left-hand side

tryItOut 795
It's an iterator!
Iterating succeeded, iterCount == 1

tryItOut 796

tryItOut 797
Compiling threw: SyntaxError: duplicate label

tryItOut 798
Running threw: TypeError: -0 is not a constructor

tryItOut 799

tryItOut 800

tryItOut 801

tryItOut 802

tryItOut 803
Compiling threw: SyntaxError: syntax error

tryItOut 804
Compiling threw: SyntaxError: missing { before function body

tryItOut 805
Compiling threw: SyntaxError: invalid for/in left-hand side

tryItOut 806
Compiling threw: SyntaxError: invalid assignment left-hand side

tryItOut 807
Compiling threw: SyntaxError: invalid for/in left-hand side

tryItOut 808

tryItOut 809

tryItOut 810
Running threw: [object StopIteration]

tryItOut 811

tryItOut 812

tryItOut 813
Compiling threw: SyntaxError: missing ) in parenthetical

tryItOut 814
Compiling threw: SyntaxError: missing { before function body

tryItOut 815
Compiling threw: SyntaxError: missing ) in parenthetical

tryItOut 816

tryItOut 817
Compiling threw: SyntaxError: invalid decrement operand

tryItOut 818

tryItOut 819

tryItOut 820

tryItOut 821
Running threw: [object Object]

tryItOut 822
Running threw: TypeError: this.zzz has no properties

tryItOut 823

tryItOut 824
Compiling threw: SyntaxError: invalid for/in left-hand side

tryItOut 825
Compiling threw: SyntaxError: invalid assignment left-hand side

tryItOut 826
Compiling threw: SyntaxError: missing ; after for-loop initializer

tryItOut 827
Compiling threw: SyntaxError: invalid for/in left-hand side

tryItOut 828

tryItOut 829
Compiling threw: SyntaxError: invalid for/in left-hand side

tryItOut 830

tryItOut 831
Compiling threw: SyntaxError: invalid for/in left-hand side

tryItOut 832

tryItOut 833
Compiling threw: SyntaxError: missing ) in parenthetical

tryItOut 834
Compiling threw: SyntaxError: invalid for/in left-hand side

tryItOut 835
Compiling threw: SyntaxError: syntax error

tryItOut 836
It's an iterator!
Iterating succeeded, iterCount == 1

tryItOut 837
Compiling threw: SyntaxError: syntax error

tryItOut 838

tryItOut 839

tryItOut 840
Running threw: [object StopIteration]

tryItOut 841
Running threw: TypeError: this.zzz has no properties

tryItOut 842

tryItOut 843

tryItOut 844
It's an iterator!
Iterating succeeded, iterCount == 1

tryItOut 845
Compiling threw: SyntaxError: missing ; before statement

tryItOut 846

tryItOut 847
Compiling threw: SyntaxError: invalid for each loop

tryItOut 848

tryItOut 849
It's an iterator!
Iterating threw!
Iterating threw: TypeError: undefined has no properties

tryItOut 850
Compiling threw: SyntaxError: missing ) after for-loop control

tryItOut 851

tryItOut 852

tryItOut 853

tryItOut 854

tryItOut 855

tryItOut 856

tryItOut 857
Running threw: TypeError: this.zzz has no properties

tryItOut 858

tryItOut 859

tryItOut 860
Compiling threw: SyntaxError: syntax error

tryItOut 861

tryItOut 862

tryItOut 863

tryItOut 864
Compiling threw: SyntaxError: invalid assignment left-hand side

tryItOut 865
Running threw: null

tryItOut 866

tryItOut 867
Compiling threw: SyntaxError: syntax error

tryItOut 868
It's an iterator!
Iterating succeeded, iterCount == 1

tryItOut 869

tryItOut 870
Compiling threw: SyntaxError: syntax error

tryItOut 871
Compiling threw: SyntaxError: missing variable name

tryItOut 872

tryItOut 873
Compiling threw: SyntaxError: syntax error

tryItOut 874

tryItOut 875

tryItOut 876

tryItOut 877

tryItOut 878
Compiling threw: SyntaxError: invalid assignment left-hand side

tryItOut 879

tryItOut 880

tryItOut 881
Compiling threw: SyntaxError: syntax error

tryItOut 882

tryItOut 883

tryItOut 884

tryItOut 885
Compiling threw: SyntaxError: invalid for/in left-hand side

tryItOut 886

tryItOut 887

tryItOut 888
Compiling threw: SyntaxError: missing ; after for-loop condition

tryItOut 889
Compiling threw: SyntaxError: duplicate label

tryItOut 890
Compiling threw: SyntaxError: invalid increment operand

tryItOut 891

tryItOut 892
Running threw: Error: invalid sharp variable use #1#

tryItOut 893

tryItOut 894
Compiling threw: SyntaxError: missing ) in parenthetical

tryItOut 895

tryItOut 896
Compiling threw: SyntaxError: duplicate label

tryItOut 897

tryItOut 898
Compiling threw: SyntaxError: invalid for/in left-hand side

tryItOut 899

tryItOut 900
Compiling threw: SyntaxError: missing ) in parenthetical

tryItOut 901

tryItOut 902
Compiling threw: SyntaxError: invalid assignment left-hand side

tryItOut 903
Compiling threw: SyntaxError: missing { before function body

tryItOut 904
Compiling threw: SyntaxError: missing ) in parenthetical

tryItOut 905

tryItOut 906

tryItOut 907

tryItOut 908

tryItOut 909
Compiling threw: SyntaxError: syntax error

tryItOut 910

tryItOut 911

tryItOut 912

tryItOut 913
Running threw: [object StopIteration]

tryItOut 914
Compiling threw: TypeError: redeclaration of variable prop

tryItOut 915
It's an iterator!
Iterating succeeded, iterCount == 1

tryItOut 916

tryItOut 917

tryItOut 918
Compiling threw: SyntaxError: syntax error

tryItOut 919
Compiling threw: SyntaxError: invalid decrement operand

tryItOut 920
Compiling threw: SyntaxError: missing ; before statement

tryItOut 921
Compiling threw: SyntaxError: syntax error

tryItOut 922
Running threw: TypeError: this.zzz has no properties

tryItOut 923

tryItOut 924

tryItOut 925
Compiling threw: SyntaxError: syntax error

tryItOut 926

tryItOut 927

tryItOut 928
Compiling threw: SyntaxError: missing ; after for-loop initializer

tryItOut 929

tryItOut 930

tryItOut 931

tryItOut 932

tryItOut 933
Compiling threw: TypeError: redeclaration of variable prop

tryItOut 934
It's an iterator!
Iterating succeeded, iterCount == 1

tryItOut 935

tryItOut 936
It's an iterator!
Iterating succeeded, iterCount == 1

tryItOut 937
Running threw: [object StopIteration]

tryItOut 938

tryItOut 939

tryItOut 940

tryItOut 941

tryItOut 942

tryItOut 943

tryItOut 944

tryItOut 945

tryItOut 946
It's an iterator!
Iterating succeeded, iterCount == 1

tryItOut 947

tryItOut 948

tryItOut 949

tryItOut 950

tryItOut 951
Compiling threw: SyntaxError: syntax error

tryItOut 952

tryItOut 953

tryItOut 954
Compiling threw: SyntaxError: missing ) in parenthetical

tryItOut 955

tryItOut 956
Running threw: Error: invalid sharp variable use #1#

tryItOut 957

tryItOut 958

tryItOut 959
Compiling threw: SyntaxError: invalid destructuring assignment operator

tryItOut 960

tryItOut 961

tryItOut 962
Compiling threw: SyntaxError: invalid assignment left-hand side

tryItOut 963

tryItOut 964

tryItOut 965
Compiling threw: SyntaxError: invalid increment operand

tryItOut 966
It's an iterator!
Iterating succeeded, iterCount == 1

tryItOut 967

tryItOut 968

tryItOut 969
Running threw: TypeError: this.zzz has no properties

tryItOut 970
Compiling threw: SyntaxError: duplicate label

tryItOut 971
Compiling threw: SyntaxError: syntax error

tryItOut 972
Compiling threw: SyntaxError: invalid increment operand

tryItOut 973

tryItOut 974
Compiling threw: SyntaxError: missing name after . operator

tryItOut 975
Compiling threw: SyntaxError: invalid for/in left-hand side

tryItOut 976

tryItOut 977
Running threw: TypeError: this.zzz has no properties

tryItOut 978
Running threw: TypeError: this.zzz has no properties

tryItOut 979

tryItOut 980

tryItOut 981
Compiling threw: SyntaxError: missing ; after for-loop initializer

tryItOut 982
Compiling threw: SyntaxError: syntax error

tryItOut 983
Compiling threw: SyntaxError: missing { before function body

tryItOut 984

tryItOut 985
Running threw: TypeError: this.zzz has no properties

tryItOut 986
Compiling threw: SyntaxError: missing ) in parenthetical

tryItOut 987

tryItOut 988
Compiling threw: SyntaxError: missing { before function body

tryItOut 989
Running threw: ReferenceError: z2 is not defined

tryItOut 990

tryItOut 991

tryItOut 992
It's an iterator!
Iterating succeeded, iterCount == 1

tryItOut 993
Compiling threw: SyntaxError: missing ) in parenthetical

tryItOut 994
Running threw: TypeError: this.zzz has no properties

tryItOut 995
Compiling threw: SyntaxError: missing variable name

tryItOut 996

tryItOut 997
Compiling threw: SyntaxError: missing { before function body

tryItOut 998
Compiling threw: SyntaxError: missing ) in parenthetical

tryItOut 999

tryItOut 1000
Compiling threw: SyntaxError: missing ) in parenthetical

ALL OK

Script done on Sat 04 May 2013 07:15:02 AM PDT
