Script started on Sat 04 May 2013 07:19:47 AM PDT
***
Targeting SpiderMonkey / Gecko.

tryItOut 1
Running threw: ReferenceError: __iterator__ is not defined

tryItOut 2

tryItOut 3
Compiling threw: SyntaxError: missing ) in parenthetical

tryItOut 4
Compiling threw: SyntaxError: syntax error

tryItOut 5
Compiling threw: SyntaxError: invalid decrement operand

tryItOut 6
Compiling threw: SyntaxError: missing ) after condition

tryItOut 7

tryItOut 8
Compiling threw: SyntaxError: missing variable name

tryItOut 9

tryItOut 10
Running threw: ReferenceError: __noSuchMethod__ is not defined

tryItOut 11
Compiling threw: SyntaxError: invalid assignment left-hand side

tryItOut 12
Compiling threw: SyntaxError: syntax error

tryItOut 13
Compiling threw: SyntaxError: invalid assignment left-hand side

tryItOut 14
Compiling threw: SyntaxError: missing variable name

tryItOut 15
Running threw: ReferenceError: z1 is not defined

tryItOut 16
Compiling threw: SyntaxError: missing variable name

tryItOut 17
Compiling threw: SyntaxError: missing ) after condition

tryItOut 18
Compiling threw: SyntaxError: invalid for/in left-hand side

tryItOut 19

tryItOut 20
Compiling threw: SyntaxError: invalid for/in left-hand side

tryItOut 21
Compiling threw: TypeError: redeclaration of const constructor

tryItOut 22
Compiling threw: SyntaxError: yield expression must be parenthesized

tryItOut 23
Compiling threw: SyntaxError: invalid decrement operand

tryItOut 24

tryItOut 25
Running threw: true

tryItOut 26

tryItOut 27
Running threw: ReferenceError: prototype is not defined

tryItOut 28

tryItOut 29
Running threw: TypeError: "a" is not a function

tryItOut 30

tryItOut 31
Running threw: TypeError: p.z = <y><z/></y> ? 153 : *::* is not a function

tryItOut 32

tryItOut 33

tryItOut 34

tryItOut 35

tryItOut 36
Compiling threw: SyntaxError: missing ) in parenthetical

tryItOut 37
Compiling threw: SyntaxError: missing variable name

tryItOut 38
Compiling threw: SyntaxError: illegal XML character

tryItOut 39
Running threw: TypeError: XML filtering predicate operator called on incompatible Function

tryItOut 40

tryItOut 41
Running threw: ReferenceError: __noSuchMethod__ is not defined

tryItOut 42
Compiling threw: SyntaxError: missing ) in parenthetical

tryItOut 43
Compiling threw: SyntaxError: missing { before function body

tryItOut 44
Compiling threw: SyntaxError: missing } after let block

tryItOut 45

tryItOut 46

tryItOut 47
Compiling threw: SyntaxError: invalid assignment left-hand side

tryItOut 48
Compiling threw: SyntaxError: syntax error

tryItOut 49

tryItOut 50

tryItOut 51

tryItOut 52

tryItOut 53

tryItOut 54
Compiling threw: SyntaxError: syntax error

tryItOut 55

tryItOut 56

tryItOut 57

tryItOut 58
Compiling threw: SyntaxError: missing { before function body

tryItOut 59

tryItOut 60

tryItOut 61

tryItOut 62
Compiling threw: SyntaxError: syntax error

tryItOut 63
Compiling threw: SyntaxError: illegal XML character

tryItOut 64
Compiling threw: SyntaxError: syntax error

tryItOut 65
Compiling threw: SyntaxError: missing ) after for-loop control

tryItOut 66
Compiling threw: SyntaxError: missing = in destructuring declaration

tryItOut 67
Compiling threw: SyntaxError: invalid increment operand

tryItOut 68
Compiling threw: SyntaxError: syntax error

tryItOut 69
Running threw: ReferenceError: z1 is not defined

tryItOut 70

tryItOut 71
Compiling threw: TypeError: redeclaration of const __proto__

tryItOut 72
Running threw: ReferenceError: reference to undefined XML name *::*

tryItOut 73
Compiling threw: SyntaxError: missing variable name

tryItOut 74
Compiling threw: SyntaxError: invalid sharp variable definition

tryItOut 75
Compiling threw: SyntaxError: syntax error

tryItOut 76
Running threw: TypeError: arguments[0] has no properties

tryItOut 77

tryItOut 78

tryItOut 79
Compiling threw: SyntaxError: syntax error

tryItOut 80
Compiling threw: SyntaxError: missing ; before statement

tryItOut 81
Compiling threw: SyntaxError: syntax error

tryItOut 82
Compiling threw: SyntaxError: syntax error

tryItOut 83
Compiling threw: SyntaxError: missing ) in parenthetical

tryItOut 84
Running threw: ReferenceError: reference to undefined XML name *::*

tryItOut 85
Compiling threw: SyntaxError: invalid for/in left-hand side

tryItOut 86
Compiling threw: SyntaxError: invalid for/in left-hand side

tryItOut 87

tryItOut 88

tryItOut 89
Running threw: 1200

tryItOut 90
Compiling threw: SyntaxError: syntax error

tryItOut 91
Running threw: ReferenceError: reference to undefined XML name *

tryItOut 92

tryItOut 93
Compiling threw: SyntaxError: syntax error

tryItOut 94
Running threw: SyntaxError: invalid getter usage

tryItOut 95
Compiling threw: SyntaxError: missing ) in parenthetical

tryItOut 96
Compiling threw: SyntaxError: duplicate label

tryItOut 97
Compiling threw: SyntaxError: missing } after property list

tryItOut 98
Compiling threw: SyntaxError: syntax error

tryItOut 99

tryItOut 100
Running threw: Error: invalid sharp variable use #1#

tryItOut 101
Compiling threw: SyntaxError: missing variable name

tryItOut 102
Running threw: ReferenceError: prototype is not defined

tryItOut 103
Compiling threw: SyntaxError: illegal XML character

tryItOut 104
Compiling threw: SyntaxError: missing { before function body

tryItOut 105
Compiling threw: SyntaxError: syntax error

tryItOut 106
Running threw: ReferenceError: reference to undefined XML name @foo

tryItOut 107
Compiling threw: SyntaxError: invalid decrement operand

tryItOut 108
Compiling threw: SyntaxError: missing ; before statement

tryItOut 109
Running threw: TypeError: #3={, a:#3#}.watch.call(<x><y/></x>, <x><y/></x>) is not a function

tryItOut 110
Compiling threw: SyntaxError: syntax error

tryItOut 111
Running threw: SyntaxError: invalid assignment left-hand side

tryItOut 112
Running threw: ReferenceError: z2 is not defined

tryItOut 113

tryItOut 114
Compiling threw: SyntaxError: missing { before function body

tryItOut 115
Compiling threw: SyntaxError: missing variable name

tryItOut 116
Compiling threw: SyntaxError: syntax error

tryItOut 117
Compiling threw: SyntaxError: syntax error

tryItOut 118

tryItOut 119

tryItOut 120

tryItOut 121

tryItOut 122
Compiling threw: SyntaxError: missing variable name

tryItOut 123

tryItOut 124
Running threw: 0.1

tryItOut 125
Compiling threw: SyntaxError: missing identifier in catch

tryItOut 126

tryItOut 127

tryItOut 128
Compiling threw: TypeError: redeclaration of variable prototype

tryItOut 129
Compiling threw: SyntaxError: invalid default XML namespace

tryItOut 130
Compiling threw: SyntaxError: syntax error

tryItOut 131
Compiling threw: SyntaxError: invalid assignment left-hand side

tryItOut 132
Compiling threw: SyntaxError: invalid for each loop

tryItOut 133
Compiling threw: SyntaxError: illegal XML character

tryItOut 134

tryItOut 135
Compiling threw: SyntaxError: illegal XML character

tryItOut 136
Compiling threw: SyntaxError: invalid increment operand

tryItOut 137
Compiling threw: SyntaxError: syntax error

tryItOut 138
Compiling threw: SyntaxError: missing { before function body

tryItOut 139
Compiling threw: SyntaxError: syntax error

tryItOut 140

tryItOut 141
Compiling threw: SyntaxError: syntax error

tryItOut 142

tryItOut 143

tryItOut 144
Compiling threw: SyntaxError: invalid XML name

tryItOut 145
Compiling threw: SyntaxError: missing ) in parenthetical

tryItOut 146
Compiling threw: SyntaxError: missing { before function body

tryItOut 147
Compiling threw: SyntaxError: syntax error

tryItOut 148

tryItOut 149
Compiling threw: SyntaxError: syntax error

tryItOut 150
Running threw: ReferenceError: reference to undefined XML name *

tryItOut 151

tryItOut 152

tryItOut 153
Running threw: ReferenceError: reference to undefined XML name @foo

tryItOut 154
Compiling threw: SyntaxError: invalid assignment left-hand side

tryItOut 155
Compiling threw: SyntaxError: missing variable name

tryItOut 156

tryItOut 157

tryItOut 158
Running threw: ReferenceError: reference to undefined XML name *

tryItOut 159
Running threw: ReferenceError: reference to undefined property "__noSuchMethod__"

tryItOut 160
Compiling threw: SyntaxError: invalid for/in left-hand side

tryItOut 161

tryItOut 162
Compiling threw: SyntaxError: invalid assignment left-hand side

tryItOut 163
Compiling threw: TypeError: redeclaration of var __proto__

tryItOut 164
Compiling threw: SyntaxError: missing variable name

tryItOut 165

tryItOut 166
Compiling threw: SyntaxError: invalid sharp variable definition

tryItOut 167

tryItOut 168

tryItOut 169
Compiling threw: SyntaxError: syntax error

tryItOut 170
Compiling threw: SyntaxError: syntax error

tryItOut 171

tryItOut 172

tryItOut 173
Compiling threw: SyntaxError: syntax error

tryItOut 174
Compiling threw: SyntaxError: syntax error

tryItOut 175

tryItOut 176
Compiling threw: SyntaxError: invalid assignment left-hand side

tryItOut 177
Running threw: TypeError: <x/>.watch("constructor", "haha".split) has no properties

tryItOut 178

tryItOut 179

tryItOut 180
Compiling threw: SyntaxError: missing ) in parenthetical

tryItOut 181
Compiling threw: SyntaxError: syntax error

tryItOut 182
It's an iterator!
Iterating succeeded, iterCount == 1

tryItOut 183
Compiling threw: SyntaxError: missing ) after let head

tryItOut 184
Compiling threw: SyntaxError: missing variable name

tryItOut 185
Compiling threw: SyntaxError: unterminated regular expression literal

tryItOut 186

tryItOut 187
Running threw: TypeError: <x>
  <y/>
</x> is not a function

tryItOut 188
Running threw: TypeError: false is not a function

tryItOut 189
Running threw: ReferenceError: reference to undefined XML name *::*

tryItOut 190
Compiling threw: SyntaxError: missing { before function body

tryItOut 191
Compiling threw: SyntaxError: missing : after property id

tryItOut 192
Running threw: ReferenceError: z2 is not defined

tryItOut 193
Compiling threw: TypeError: redeclaration of const __proto__

tryItOut 194
Running threw: ReferenceError: reference to undefined XML name @foo

tryItOut 195
Running threw: TypeError: this.__defineSetter__("prop", "haha".split) has no properties

tryItOut 196
Running threw: SyntaxError: invalid getter usage

tryItOut 197
Running threw: TypeError: <y><z/></y>.* is not a function

tryItOut 198

tryItOut 199
Compiling threw: SyntaxError: invalid for/in left-hand side

tryItOut 200

tryItOut 201

tryItOut 202
Compiling threw: SyntaxError: syntax error

tryItOut 203
Compiling threw: SyntaxError: missing } in XML expression

tryItOut 204
Compiling threw: SyntaxError: syntax error

tryItOut 205

tryItOut 206

tryItOut 207

tryItOut 208
Running threw: ReferenceError: reference to undefined XML name @foo

tryItOut 209
Running threw: ReferenceError: reference to undefined XML name *

tryItOut 210
Compiling threw: SyntaxError: missing variable name

tryItOut 211

tryItOut 212
Compiling threw: SyntaxError: syntax error

tryItOut 213
Running threw: ReferenceError: __iterator__ is not defined

tryItOut 214
Compiling threw: SyntaxError: missing ) in parenthetical

tryItOut 215

tryItOut 216
Running threw: TypeError: redeclaration of const __parent__

tryItOut 217
Compiling threw: SyntaxError: missing { before function body

tryItOut 218
Compiling threw: SyntaxError: invalid decrement operand

tryItOut 219
Compiling threw: SyntaxError: invalid XML name

tryItOut 220

tryItOut 221
Compiling threw: SyntaxError: missing = in destructuring declaration

tryItOut 222
Compiling threw: SyntaxError: missing variable name

tryItOut 223
Running threw: <x>
  <y/>
</x>

tryItOut 224
Compiling threw: SyntaxError: missing variable name

tryItOut 225
Compiling threw: SyntaxError: missing ) in parenthetical

tryItOut 226

tryItOut 227

tryItOut 228
Compiling threw: TypeError: redeclaration of const __parent__

tryItOut 229
Compiling threw: SyntaxError: invalid for/in left-hand side

tryItOut 230

tryItOut 231
Compiling threw: SyntaxError: missing ; before statement

tryItOut 232

tryItOut 233
Compiling threw: SyntaxError: missing = in destructuring declaration

tryItOut 234
Compiling threw: SyntaxError: yield expression must be parenthesized

tryItOut 235

tryItOut 236
Compiling threw: SyntaxError: missing variable name

tryItOut 237
Compiling threw: SyntaxError: invalid destructuring assignment operator

tryItOut 238

tryItOut 239

tryItOut 240
Compiling threw: SyntaxError: missing = in destructuring declaration

tryItOut 241
Running threw: TypeError: this.zzz has no properties

tryItOut 242
Compiling threw: SyntaxError: missing ) in parenthetical

tryItOut 243
Compiling threw: SyntaxError: missing variable name

tryItOut 244
Compiling threw: SyntaxError: syntax error

tryItOut 245
Compiling threw: SyntaxError: syntax error

tryItOut 246
Compiling threw: SyntaxError: duplicate label

tryItOut 247

tryItOut 248

tryItOut 249
Compiling threw: SyntaxError: syntax error

tryItOut 250
Compiling threw: SyntaxError: missing ; before statement

tryItOut 251
Compiling threw: SyntaxError: missing variable name

tryItOut 252
Compiling threw: SyntaxError: missing variable name

tryItOut 253
Compiling threw: SyntaxError: missing { before function body

tryItOut 254
Compiling threw: SyntaxError: missing ) after condition

tryItOut 255
Compiling threw: SyntaxError: missing { before function body

tryItOut 256
Compiling threw: SyntaxError: invalid for/in left-hand side

tryItOut 257

tryItOut 258
Compiling threw: SyntaxError: invalid sharp variable definition

tryItOut 259
Compiling threw: SyntaxError: syntax error

tryItOut 260
Running threw: ReferenceError: reference to undefined XML name @foo

tryItOut 261

tryItOut 262
Compiling threw: SyntaxError: missing ) after let head

tryItOut 263
Compiling threw: SyntaxError: invalid for each loop

tryItOut 264

tryItOut 265
Running threw: ReferenceError: Exception is not defined

tryItOut 266

tryItOut 267
Running threw: ReferenceError: reference to undefined XML name @foo

tryItOut 268
It's an iterator!
Iterating succeeded, iterCount == 1

tryItOut 269
Running threw: true

tryItOut 270

tryItOut 271

tryItOut 272
Compiling threw: SyntaxError: invalid sharp variable definition

tryItOut 273
It's an iterator!
Iterating threw!
Iterating threw: TypeError: undefined has no properties

tryItOut 274
Compiling threw: SyntaxError: invalid for/in left-hand side

tryItOut 275
Running threw: TypeError: p.z = __proto__ = 1e-81 is not a function

tryItOut 276

tryItOut 277

tryItOut 278

tryItOut 279
Compiling threw: SyntaxError: syntax error

tryItOut 280

tryItOut 281

tryItOut 282

tryItOut 283
Running threw: ReferenceError: reference to undefined XML name *::*

tryItOut 284
Compiling threw: SyntaxError: syntax error

tryItOut 285

tryItOut 286
Compiling threw: SyntaxError: syntax error

tryItOut 287
Compiling threw: SyntaxError: syntax error

tryItOut 288
Compiling threw: SyntaxError: unterminated regular expression literal

tryItOut 289
It's an iterator!
Iterating threw!
Iterating threw: TypeError: this.zzz has no properties

tryItOut 290

tryItOut 291
Compiling threw: SyntaxError: syntax error

tryItOut 292
Compiling threw: SyntaxError: missing variable name

tryItOut 293
Compiling threw: SyntaxError: missing variable name

tryItOut 294

tryItOut 295

tryItOut 296

tryItOut 297
Compiling threw: SyntaxError: syntax error

tryItOut 298
Compiling threw: SyntaxError: invalid assignment left-hand side

tryItOut 299
Running threw: TypeError: arguments[0] has no properties

tryItOut 300
Compiling threw: SyntaxError: missing variable name

tryItOut 301
Compiling threw: SyntaxError: missing variable name

tryItOut 302

tryItOut 303

tryItOut 304
Compiling threw: SyntaxError: invalid property id

tryItOut 305
Running threw: ReferenceError: reference to undefined XML name *::*

tryItOut 306
Running threw: TypeError: <x/>.watch() is not a function

tryItOut 307
Compiling threw: SyntaxError: missing ) in parenthetical

tryItOut 308
Compiling threw: SyntaxError: duplicate label

tryItOut 309
Compiling threw: SyntaxError: missing ) after let head

tryItOut 310
Compiling threw: SyntaxError: missing ) in parenthetical

tryItOut 311

tryItOut 312

tryItOut 313

tryItOut 314

tryItOut 315
Running threw: Error: invalid sharp variable use #1#

tryItOut 316

tryItOut 317
Compiling threw: SyntaxError: illegal XML character

tryItOut 318
Compiling threw: SyntaxError: missing variable name

tryItOut 319
Running threw: TypeError: this.zzz has no properties

tryItOut 320
Compiling threw: SyntaxError: missing } after property list

tryItOut 321
Compiling threw: SyntaxError: missing = in destructuring declaration

tryItOut 322

tryItOut 323

tryItOut 324
Running threw: ReferenceError: reference to undefined XML name @foo

tryItOut 325
Compiling threw: SyntaxError: invalid increment operand

tryItOut 326
Running threw: ReferenceError: reference to undefined XML name *

tryItOut 327
Compiling threw: SyntaxError: illegal character

tryItOut 328

tryItOut 329
Running threw: <x>
  <y/>
</x>

tryItOut 330

tryItOut 331

tryItOut 332

tryItOut 333
Compiling threw: SyntaxError: unexpected end of XML source

tryItOut 334

tryItOut 335
Compiling threw: SyntaxError: syntax error

tryItOut 336
Compiling threw: SyntaxError: missing variable name

tryItOut 337
Running threw: ReferenceError: reference to undefined XML name *::*

tryItOut 338
Compiling threw: SyntaxError: syntax error

tryItOut 339
Compiling threw: SyntaxError: syntax error

tryItOut 340

tryItOut 341

tryItOut 342
Compiling threw: SyntaxError: missing ) in parenthetical

tryItOut 343
Compiling threw: SyntaxError: missing } in XML expression

tryItOut 344
Compiling threw: SyntaxError: invalid XML name

tryItOut 345
Compiling threw: SyntaxError: syntax error

tryItOut 346

tryItOut 347

tryItOut 348
Compiling threw: SyntaxError: unterminated parenthetical

tryItOut 349
Running threw: TypeError: __parent__ has no properties

tryItOut 350
It's an iterator!
Iterating succeeded, iterCount == 1

tryItOut 351
Compiling threw: SyntaxError: duplicate label

tryItOut 352
Compiling threw: SyntaxError: syntax error

tryItOut 353

tryItOut 354
Running threw: ReferenceError: reference to undefined XML name *

tryItOut 355

tryItOut 356
Compiling threw: SyntaxError: missing variable name

tryItOut 357
Compiling threw: SyntaxError: syntax error

tryItOut 358
Compiling threw: SyntaxError: missing variable name

tryItOut 359

tryItOut 360
Compiling threw: SyntaxError: missing { before function body

tryItOut 361
It's an iterator!
Iterating threw!
Iterating threw: TypeError: prop has no properties

tryItOut 362

tryItOut 363
Compiling threw: SyntaxError: syntax error

tryItOut 364

tryItOut 365
Compiling threw: SyntaxError: missing name in export statement

tryItOut 366
Compiling threw: TypeError: redeclaration of variable prop

tryItOut 367
Compiling threw: SyntaxError: missing variable name

tryItOut 368
Compiling threw: SyntaxError: syntax error

tryItOut 369
Compiling threw: SyntaxError: missing ; before statement

tryItOut 370
Compiling threw: SyntaxError: invalid for/in left-hand side

tryItOut 371

tryItOut 372
Compiling threw: SyntaxError: invalid assignment left-hand side

tryItOut 373

tryItOut 374

tryItOut 375

tryItOut 376

tryItOut 377

tryItOut 378
Compiling threw: SyntaxError: invalid property id

tryItOut 379
Running threw: ReferenceError: z1 is not defined

tryItOut 380
Compiling threw: SyntaxError: invalid assignment left-hand side

tryItOut 381
Running threw: 

tryItOut 382
Compiling threw: SyntaxError: missing { before function body

tryItOut 383
Compiling threw: SyntaxError: missing ) in parenthetical

tryItOut 384

tryItOut 385
Compiling threw: SyntaxError: invalid property id

tryItOut 386
Running threw: TypeError: this.zzz has no properties

tryItOut 387
Compiling threw: SyntaxError: syntax error

tryItOut 388
Compiling threw: SyntaxError: missing variable name

tryItOut 389

tryItOut 390

tryItOut 391
Compiling threw: SyntaxError: invalid assignment left-hand side

tryItOut 392

tryItOut 393
Compiling threw: SyntaxError: missing } after let block

tryItOut 394

tryItOut 395
Compiling threw: SyntaxError: missing variable name

tryItOut 396

tryItOut 397

tryItOut 398
Compiling threw: SyntaxError: missing variable name

tryItOut 399
Compiling threw: SyntaxError: missing { before function body

tryItOut 400
Compiling threw: TypeError: redeclaration of const constructor

tryItOut 401
Compiling threw: SyntaxError: missing variable name

tryItOut 402
Running threw: ReferenceError: reference to undefined XML name @foo

tryItOut 403
Compiling threw: SyntaxError: missing ) in parenthetical

tryItOut 404
Compiling threw: SyntaxError: syntax error

tryItOut 405

tryItOut 406

tryItOut 407
Compiling threw: SyntaxError: invalid assignment left-hand side

tryItOut 408

tryItOut 409
Compiling threw: TypeError: redeclaration of variable __count__

tryItOut 410

tryItOut 411
Compiling threw: SyntaxError: invalid XML tag syntax

tryItOut 412
Running threw: <y>
  <z/>
</y>

tryItOut 413

tryItOut 414
Running threw: function ([y]) {
}

tryItOut 415

tryItOut 416

tryItOut 417
Compiling threw: SyntaxError: duplicate label

tryItOut 418

tryItOut 419
Compiling threw: SyntaxError: missing name after . operator

tryItOut 420

tryItOut 421
Compiling threw: SyntaxError: syntax error

tryItOut 422
Running threw: ReferenceError: reference to undefined XML name @foo

tryItOut 423
Compiling threw: SyntaxError: missing ) in parenthetical

tryItOut 424
Running threw: ReferenceError: reference to undefined XML name *::*

tryItOut 425
Compiling threw: SyntaxError: syntax error

tryItOut 426

tryItOut 427

tryItOut 428
Compiling threw: SyntaxError: invalid XML name

tryItOut 429
Compiling threw: SyntaxError: missing variable name

tryItOut 430

tryItOut 431
Compiling threw: SyntaxError: invalid property id

tryItOut 432
Compiling threw: SyntaxError: missing variable name

tryItOut 433

tryItOut 434

tryItOut 435

tryItOut 436
Running threw: TypeError: p.z = true is not a function

tryItOut 437
Running threw: <x>
  <y/>
</x>

tryItOut 438
Compiling threw: SyntaxError: syntax error

tryItOut 439

tryItOut 440

tryItOut 441
Compiling threw: SyntaxError: syntax error

tryItOut 442
Compiling threw: SyntaxError: missing ) after switch expression

tryItOut 443
Compiling threw: SyntaxError: missing { before function body

tryItOut 444
Compiling threw: SyntaxError: missing variable name

tryItOut 445
Compiling threw: SyntaxError: invalid XML name

tryItOut 446
Compiling threw: SyntaxError: missing variable name

tryItOut 447
Compiling threw: SyntaxError: invalid increment operand

tryItOut 448

tryItOut 449
Compiling threw: SyntaxError: missing { before function body

tryItOut 450

tryItOut 451
Compiling threw: SyntaxError: invalid assignment left-hand side

tryItOut 452

tryItOut 453
Compiling threw: SyntaxError: syntax error

tryItOut 454
Running threw: TypeError: constructor has no properties

tryItOut 455
Compiling threw: SyntaxError: invalid assignment left-hand side

tryItOut 456
Compiling threw: SyntaxError: missing variable name

tryItOut 457

tryItOut 458

tryItOut 459

tryItOut 460
Compiling threw: SyntaxError: invalid assignment left-hand side

tryItOut 461
Compiling threw: SyntaxError: illegal XML character

tryItOut 462

tryItOut 463
Compiling threw: SyntaxError: syntax error

tryItOut 464
Compiling threw: SyntaxError: missing ) in parenthetical

tryItOut 465
Compiling threw: SyntaxError: missing variable name

tryItOut 466
Compiling threw: SyntaxError: syntax error

tryItOut 467

tryItOut 468

tryItOut 469

tryItOut 470
Compiling threw: SyntaxError: invalid sharp variable definition

tryItOut 471
Compiling threw: SyntaxError: missing variable name

tryItOut 472

tryItOut 473
Compiling threw: TypeError: redeclaration of variable prop

tryItOut 474

tryItOut 475

tryItOut 476
Compiling threw: SyntaxError: invalid XML name

tryItOut 477
Running threw: ReferenceError: reference to undefined XML name *

tryItOut 478
Compiling threw: SyntaxError: missing ) in parenthetical

tryItOut 479

tryItOut 480
Compiling threw: SyntaxError: missing variable name

tryItOut 481

tryItOut 482
Compiling threw: SyntaxError: missing variable name

tryItOut 483

tryItOut 484

tryItOut 485

tryItOut 486
Compiling threw: SyntaxError: missing variable name

tryItOut 487
Compiling threw: SyntaxError: missing ) after with-statement object

tryItOut 488
Compiling threw: SyntaxError: syntax error

tryItOut 489
Running threw: ReferenceError: reference to undefined XML name *

tryItOut 490

tryItOut 491
Compiling threw: SyntaxError: missing variable name

tryItOut 492
Running threw: ReferenceError: reference to undefined XML name *

tryItOut 493

tryItOut 494

tryItOut 495
Compiling threw: SyntaxError: invalid destructuring assignment operator

tryItOut 496
Compiling threw: SyntaxError: missing variable name

tryItOut 497
It's an iterator!
Iterating succeeded, iterCount == 1

tryItOut 498

tryItOut 499

tryItOut 500
Compiling threw: SyntaxError: missing variable name

tryItOut 501
Compiling threw: SyntaxError: missing name after . operator

tryItOut 502

tryItOut 503
Compiling threw: SyntaxError: invalid assignment left-hand side

tryItOut 504

tryItOut 505

tryItOut 506

tryItOut 507

tryItOut 508

tryItOut 509

tryItOut 510

tryItOut 511

tryItOut 512
Compiling threw: SyntaxError: invalid for/in left-hand side

tryItOut 513
Running threw: ReferenceError: reference to undefined XML name *

tryItOut 514
Compiling threw: SyntaxError: duplicate label

tryItOut 515
Running threw: <y>
  <z/>
</y>

tryItOut 516
Compiling threw: SyntaxError: syntax error

tryItOut 517
Compiling threw: SyntaxError: syntax error

tryItOut 518

tryItOut 519
Compiling threw: SyntaxError: invalid for/in left-hand side

tryItOut 520

tryItOut 521
Running threw: TypeError: undefined is not a function

tryItOut 522

tryItOut 523

tryItOut 524
Compiling threw: SyntaxError: syntax error

tryItOut 525

tryItOut 526
Running threw: <y>
  <z/>
</y>

tryItOut 527
Compiling threw: SyntaxError: missing = in destructuring declaration

tryItOut 528
Compiling threw: SyntaxError: missing variable name

tryItOut 529

tryItOut 530
Compiling threw: SyntaxError: missing variable name

tryItOut 531
Compiling threw: SyntaxError: missing variable name

tryItOut 532
Compiling threw: SyntaxError: invalid for/in left-hand side

tryItOut 533

tryItOut 534
Compiling threw: SyntaxError: duplicate label

tryItOut 535
Compiling threw: SyntaxError: syntax error

tryItOut 536
Compiling threw: SyntaxError: invalid assignment left-hand side

tryItOut 537
Compiling threw: SyntaxError: missing variable name

tryItOut 538
Running threw: ReferenceError: reference to undefined XML name @foo

tryItOut 539

tryItOut 540
Compiling threw: SyntaxError: invalid for/in left-hand side

tryItOut 541

tryItOut 542
Running threw: ReferenceError: reference to undefined XML name *::*

tryItOut 543
Compiling threw: SyntaxError: missing variable name

tryItOut 544

tryItOut 545
Compiling threw: SyntaxError: missing variable name

tryItOut 546
Compiling threw: SyntaxError: missing formal parameter

tryItOut 547

tryItOut 548
Compiling threw: SyntaxError: missing ) after condition

tryItOut 549
Compiling threw: TypeError: redeclaration of variable constructor

tryItOut 550

tryItOut 551
Compiling threw: SyntaxError: syntax error

tryItOut 552
Compiling threw: SyntaxError: syntax error

tryItOut 553

tryItOut 554
Compiling threw: SyntaxError: missing { before function body

tryItOut 555

tryItOut 556

tryItOut 557

tryItOut 558
Compiling threw: SyntaxError: syntax error

tryItOut 559

tryItOut 560
Compiling threw: SyntaxError: missing variable name

tryItOut 561
Compiling threw: SyntaxError: invalid destructuring assignment operator

tryItOut 562
Running threw: [object Object]

tryItOut 563

tryItOut 564
Compiling threw: SyntaxError: missing variable name

tryItOut 565
Compiling threw: SyntaxError: invalid increment operand

tryItOut 566
Compiling threw: SyntaxError: illegal XML character

tryItOut 567
Running threw: TypeError: redeclaration of var __proto__

tryItOut 568

tryItOut 569
Compiling threw: SyntaxError: syntax error

tryItOut 570
Running threw: ReferenceError: enum is not defined

tryItOut 571

tryItOut 572

tryItOut 573
Running threw: ReferenceError: reference to undefined XML name @foo

tryItOut 574

tryItOut 575
Compiling threw: SyntaxError: syntax error

tryItOut 576

tryItOut 577
Running threw: [object Object]

tryItOut 578

tryItOut 579
Compiling threw: SyntaxError: missing variable name

tryItOut 580
Compiling threw: SyntaxError: missing ; before statement

tryItOut 581
Compiling threw: SyntaxError: syntax error

tryItOut 582
Compiling threw: SyntaxError: syntax error

tryItOut 583
Running threw: TypeError: p.z = #3={, a:#3#} is not a function

tryItOut 584
Compiling threw: SyntaxError: missing name in export statement

tryItOut 585
Running threw: ReferenceError: reference to undefined XML name @foo

tryItOut 586
Running threw: undefined

tryItOut 587

tryItOut 588
Running threw: ReferenceError: z1 is not defined

tryItOut 589
Running threw: function ([y]) {
}

tryItOut 590

tryItOut 591
Running threw: 

tryItOut 592
Running threw: TypeError: XML filtering predicate operator called on incompatible Object

tryItOut 593

tryItOut 594

tryItOut 595
Compiling threw: SyntaxError: missing name in export statement

tryItOut 596
Compiling threw: SyntaxError: invalid default XML namespace

tryItOut 597
Compiling threw: SyntaxError: syntax error

tryItOut 598
Compiling threw: SyntaxError: missing { before function body

tryItOut 599
Running threw: TypeError: undefined has no properties

tryItOut 600

tryItOut 601
Running threw: 4

tryItOut 602
Compiling threw: SyntaxError: invalid decrement operand

tryItOut 603
Compiling threw: SyntaxError: missing ) in parenthetical

tryItOut 604
Compiling threw: SyntaxError: missing variable name

tryItOut 605

tryItOut 606
Compiling threw: SyntaxError: invalid XML name

tryItOut 607

tryItOut 608
Compiling threw: SyntaxError: missing variable name

tryItOut 609
Compiling threw: SyntaxError: syntax error

tryItOut 610
Compiling threw: SyntaxError: missing ) in parenthetical

tryItOut 611

tryItOut 612
Running threw: ReferenceError: z2 is not defined

tryItOut 613

tryItOut 614

tryItOut 615

tryItOut 616
Running threw: TypeError: prop has no properties

tryItOut 617

tryItOut 618

tryItOut 619

tryItOut 620

tryItOut 621
Compiling threw: SyntaxError: invalid for/in left-hand side

tryItOut 622
Running threw: ReferenceError: reference to undefined XML name @foo

tryItOut 623

tryItOut 624

tryItOut 625
Compiling threw: SyntaxError: invalid assignment left-hand side

tryItOut 626

tryItOut 627
Compiling threw: SyntaxError: missing variable name

tryItOut 628

tryItOut 629

tryItOut 630

tryItOut 631
Running threw: ReferenceError: reference to undefined XML name @foo

tryItOut 632

tryItOut 633

tryItOut 634
Compiling threw: SyntaxError: syntax error

tryItOut 635

tryItOut 636
Compiling threw: SyntaxError: syntax error

tryItOut 637
Running threw: SyntaxError: invalid getter usage

tryItOut 638

tryItOut 639
Compiling threw: SyntaxError: syntax error

tryItOut 640
Compiling threw: TypeError: redeclaration of variable __noSuchMethod__

tryItOut 641
Compiling threw: SyntaxError: missing ; before statement

tryItOut 642
Running threw: TypeError: p.z = null is not a function

tryItOut 643
Compiling threw: SyntaxError: missing variable name

tryItOut 644
Running threw: ReferenceError: z2 is not defined

tryItOut 645
Compiling threw: SyntaxError: syntax error

tryItOut 646
Compiling threw: SyntaxError: missing variable name

tryItOut 647

tryItOut 648
Compiling threw: SyntaxError: invalid for/in left-hand side

tryItOut 649

tryItOut 650
It's an iterator!
Iterating succeeded, iterCount == 1

tryItOut 651
Running threw: TypeError: undefined is not a function

tryItOut 652

tryItOut 653
Running threw: 1e-81

tryItOut 654

tryItOut 655
Compiling threw: SyntaxError: invalid for/in left-hand side

tryItOut 656
Running threw: ReferenceError: reference to undefined XML name *::*

tryItOut 657

tryItOut 658
Compiling threw: SyntaxError: missing : after property id

tryItOut 659

tryItOut 660

tryItOut 661
Compiling threw: SyntaxError: invalid for/in left-hand side

tryItOut 662
Compiling threw: SyntaxError: missing variable name

tryItOut 663

tryItOut 664
Compiling threw: SyntaxError: missing ) in parenthetical

tryItOut 665
Compiling threw: SyntaxError: missing variable name

tryItOut 666

tryItOut 667

tryItOut 668
Compiling threw: SyntaxError: syntax error

tryItOut 669
Running threw: ReferenceError: reference to undefined XML name @foo

tryItOut 670
Compiling threw: SyntaxError: invalid decrement operand

tryItOut 671

tryItOut 672

tryItOut 673

tryItOut 674

tryItOut 675
Compiling threw: SyntaxError: syntax error

tryItOut 676

tryItOut 677
Running threw: <y>
  <z/>
</y>

tryItOut 678
Compiling threw: SyntaxError: invalid for/in left-hand side

tryItOut 679
Compiling threw: SyntaxError: missing } after let block

tryItOut 680
Compiling threw: SyntaxError: syntax error

tryItOut 681
Running threw: TypeError: undefined is not a function

tryItOut 682

tryItOut 683

tryItOut 684

tryItOut 685
Compiling threw: SyntaxError: missing variable name

tryItOut 686
Compiling threw: SyntaxError: missing variable name

tryItOut 687

tryItOut 688
Compiling threw: SyntaxError: missing variable name

tryItOut 689

tryItOut 690

tryItOut 691

tryItOut 692

tryItOut 693
Compiling threw: SyntaxError: invalid XML tag syntax

tryItOut 694

tryItOut 695

tryItOut 696
Compiling threw: SyntaxError: invalid assignment left-hand side

tryItOut 697
Compiling threw: SyntaxError: missing ; after for-loop initializer

tryItOut 698
Compiling threw: SyntaxError: missing } after let block

tryItOut 699
Compiling threw: TypeError: redeclaration of variable __parent__

tryItOut 700
Compiling threw: SyntaxError: missing { before function body

tryItOut 701
Running threw: ReferenceError: z2 is not defined

tryItOut 702

tryItOut 703
Running threw: <x>
  <y/>
</x>

tryItOut 704
Compiling threw: SyntaxError: missing ) in parenthetical

tryItOut 705
Running threw: TypeError: <x/>.__lookupSetter__("prop") has no properties

tryItOut 706

tryItOut 707

tryItOut 708

tryItOut 709
Compiling threw: SyntaxError: syntax error

tryItOut 710
Compiling threw: SyntaxError: syntax error

tryItOut 711
Compiling threw: SyntaxError: missing ; before statement

tryItOut 712
Running threw: TypeError: {}.__iterator__ = this.__defineGetter__("prop", true.watch) has no properties

tryItOut 713
Running threw: 

tryItOut 714
Compiling threw: SyntaxError: missing variable name

tryItOut 715
Compiling threw: SyntaxError: invalid assignment left-hand side

tryItOut 716
Running threw: ReferenceError: reference to undefined XML name @foo

tryItOut 717

tryItOut 718

tryItOut 719
Running threw: ReferenceError: reference to undefined XML name *

tryItOut 720

tryItOut 721

tryItOut 722

tryItOut 723

tryItOut 724

tryItOut 725
Running threw: TypeError: undefined is not a function

tryItOut 726

tryItOut 727
Compiling threw: SyntaxError: missing variable name

tryItOut 728
Compiling threw: SyntaxError: missing variable name

tryItOut 729
Compiling threw: SyntaxError: missing ) in parenthetical

tryItOut 730
Running threw: 1

tryItOut 731
Compiling threw: SyntaxError: missing = in destructuring declaration

tryItOut 732
Running threw: TypeError: 0 is not a function

tryItOut 733

tryItOut 734
Compiling threw: SyntaxError: invalid XML name

tryItOut 735
Compiling threw: SyntaxError: syntax error

tryItOut 736

tryItOut 737
Compiling threw: SyntaxError: missing ( before formal parameters

tryItOut 738

tryItOut 739
Running threw: ReferenceError: reference to undefined XML name *

tryItOut 740
Compiling threw: SyntaxError: missing } in compound statement

tryItOut 741

tryItOut 742
Compiling threw: SyntaxError: missing variable name

tryItOut 743

tryItOut 744
Running threw: SyntaxError: invalid getter usage

tryItOut 745

tryItOut 746
Compiling threw: SyntaxError: invalid for/in left-hand side

tryItOut 747

tryItOut 748
Compiling threw: SyntaxError: missing variable name

tryItOut 749
Running threw: ReferenceError: reference to undefined XML name @foo

tryItOut 750
Compiling threw: SyntaxError: illegal XML character

tryItOut 751
Compiling threw: SyntaxError: missing variable name

tryItOut 752
Compiling threw: SyntaxError: missing variable name

tryItOut 753
Compiling threw: SyntaxError: invalid assignment left-hand side

tryItOut 754

tryItOut 755

tryItOut 756
Compiling threw: SyntaxError: syntax error

tryItOut 757
Compiling threw: SyntaxError: missing variable name

tryItOut 758
Compiling threw: SyntaxError: missing variable name

tryItOut 759
Compiling threw: SyntaxError: invalid decrement operand

tryItOut 760

tryItOut 761

tryItOut 762

tryItOut 763
Running threw: 1e-81

tryItOut 764

tryItOut 765

tryItOut 766
Compiling threw: SyntaxError: invalid for/in left-hand side

tryItOut 767
Compiling threw: SyntaxError: syntax error

tryItOut 768

tryItOut 769
Running threw: false

tryItOut 770

tryItOut 771
Compiling threw: SyntaxError: invalid sharp variable definition

tryItOut 772
Running threw: TypeError: p.z = arguments is not a function

tryItOut 773
Running threw: TypeError: undefined is not a function

tryItOut 774
Running threw: ReferenceError: z2 is not defined

tryItOut 775

tryItOut 776
Compiling threw: SyntaxError: missing variable name

tryItOut 777

tryItOut 778
Compiling threw: SyntaxError: syntax error

tryItOut 779
It's an iterator!
Iterating threw!
Iterating threw: TypeError: undefined is not a function

tryItOut 780
Compiling threw: SyntaxError: invalid increment operand

tryItOut 781

tryItOut 782

tryItOut 783
Running threw: TypeError: p.z = <y><z/></y> is not a function

tryItOut 784
Compiling threw: SyntaxError: missing ) in parenthetical

tryItOut 785
Compiling threw: SyntaxError: missing name in export statement

tryItOut 786
Compiling threw: SyntaxError: syntax error

tryItOut 787
Running threw: TypeError: arguments[0] has no properties

tryItOut 788
Compiling threw: SyntaxError: missing variable name

tryItOut 789
Compiling threw: SyntaxError: syntax error

tryItOut 790
Running threw: ReferenceError: reference to undefined XML name @foo

tryItOut 791
Compiling threw: SyntaxError: invalid label

tryItOut 792
Compiling threw: SyntaxError: invalid increment operand

tryItOut 793

tryItOut 794
Compiling threw: SyntaxError: syntax error

tryItOut 795

tryItOut 796

tryItOut 797
Compiling threw: SyntaxError: syntax error

tryItOut 798
Running threw: undefined

tryItOut 799
Running threw: TypeError: this.zzz has no properties

tryItOut 800

tryItOut 801

tryItOut 802

tryItOut 803

tryItOut 804

tryItOut 805
Compiling threw: SyntaxError: invalid increment operand

tryItOut 806

tryItOut 807
Compiling threw: SyntaxError: missing variable name

tryItOut 808

tryItOut 809

tryItOut 810
Compiling threw: SyntaxError: invalid default XML namespace

tryItOut 811

tryItOut 812
Compiling threw: SyntaxError: missing ) in parenthetical

tryItOut 813
Compiling threw: SyntaxError: duplicate label

tryItOut 814
Compiling threw: SyntaxError: missing variable name

tryItOut 815
Compiling threw: SyntaxError: invalid assignment left-hand side

tryItOut 816

tryItOut 817
Compiling threw: SyntaxError: missing : after property id

tryItOut 818
Compiling threw: SyntaxError: missing ) after condition

tryItOut 819
Compiling threw: SyntaxError: missing ) in parenthetical

tryItOut 820
Compiling threw: SyntaxError: syntax error

tryItOut 821
Compiling threw: SyntaxError: invalid assignment left-hand side

tryItOut 822

tryItOut 823
Compiling threw: SyntaxError: missing name in export statement

tryItOut 824
Compiling threw: SyntaxError: missing variable name

tryItOut 825
Compiling threw: SyntaxError: syntax error

tryItOut 826

tryItOut 827

tryItOut 828

tryItOut 829
Running threw: TypeError: this.zzz has no properties

tryItOut 830

tryItOut 831

tryItOut 832

tryItOut 833

tryItOut 834

tryItOut 835
Compiling threw: SyntaxError: syntax error

tryItOut 836

tryItOut 837
Compiling threw: SyntaxError: missing variable name

tryItOut 838

tryItOut 839

tryItOut 840

tryItOut 841
Running threw: ReferenceError: reference to undefined XML name *::*

tryItOut 842
Running threw: ReferenceError: reference to undefined XML name *::*

tryItOut 843
Compiling threw: SyntaxError: illegal XML character

tryItOut 844
Compiling threw: SyntaxError: missing } in compound statement

tryItOut 845
Running threw: TypeError: undefined has no properties

tryItOut 846
Compiling threw: SyntaxError: syntax error

tryItOut 847
Compiling threw: SyntaxError: invalid assignment left-hand side

tryItOut 848
Running threw: function (id) {
    return id;
}

tryItOut 849
Compiling threw: SyntaxError: missing variable name

tryItOut 850
Compiling threw: SyntaxError: missing variable name

tryItOut 851
Compiling threw: SyntaxError: missing ) in parenthetical

tryItOut 852
Running threw: TypeError: true.@foo has no properties

tryItOut 853
Running threw: TypeError: undefined is not a function

tryItOut 854

tryItOut 855
Compiling threw: SyntaxError: missing : after property id

tryItOut 856

tryItOut 857
Running threw: TypeError: this.zzz has no properties

tryItOut 858

tryItOut 859
Running threw: TypeError: __parent__ has no properties

tryItOut 860

tryItOut 861
Compiling threw: SyntaxError: invalid decrement operand

tryItOut 862

tryItOut 863

tryItOut 864
Compiling threw: SyntaxError: missing variable name

tryItOut 865

tryItOut 866
Running threw: TypeError: this.zzz has no properties

tryItOut 867
Running threw: ReferenceError: reference to undefined XML name @mozilla.org/js/function::prop

tryItOut 868
Running threw: <x>
  <y/>
</x>

tryItOut 869

tryItOut 870
Compiling threw: SyntaxError: missing : after property id

tryItOut 871
Compiling threw: SyntaxError: syntax error

tryItOut 872
Running threw: ReferenceError: reference to undefined XML name @foo

tryItOut 873
Compiling threw: SyntaxError: missing variable name

tryItOut 874
Compiling threw: SyntaxError: syntax error

tryItOut 875

tryItOut 876

tryItOut 877
Running threw: ReferenceError: reference to undefined XML name @foo

tryItOut 878
Compiling threw: SyntaxError: missing variable name

tryItOut 879

tryItOut 880

tryItOut 881
Running threw: TypeError: p.z = 1e+81 is not a function

tryItOut 882
Compiling threw: SyntaxError: missing variable name

tryItOut 883
Compiling threw: SyntaxError: syntax error

tryItOut 884

tryItOut 885

tryItOut 886

tryItOut 887
Compiling threw: SyntaxError: missing = in destructuring declaration

tryItOut 888
Compiling threw: TypeError: redeclaration of variable __iterator__

tryItOut 889

tryItOut 890
Running threw: TypeError: arguments[0] has no properties

tryItOut 891
Running threw: 0.1

tryItOut 892

tryItOut 893
Compiling threw: SyntaxError: syntax error

tryItOut 894

tryItOut 895

tryItOut 896
Compiling threw: SyntaxError: missing variable name

tryItOut 897

tryItOut 898
Compiling threw: SyntaxError: missing variable name

tryItOut 899

tryItOut 900

tryItOut 901

tryItOut 902

tryItOut 903
Compiling threw: SyntaxError: missing : after property id

tryItOut 904
Compiling threw: SyntaxError: missing variable name

tryItOut 905
Compiling threw: SyntaxError: missing { before function body

tryItOut 906

tryItOut 907
Compiling threw: SyntaxError: missing variable name

tryItOut 908
Running threw: ReferenceError: reference to undefined XML name *::*

tryItOut 909
Running threw: TypeError: invalid 'instanceof' operand -1

tryItOut 910
Compiling threw: SyntaxError: invalid assignment left-hand side

tryItOut 911
Running threw: TypeError: undefined is not a function

tryItOut 912

tryItOut 913
Running threw: TypeError: this.zzz has no properties

tryItOut 914

tryItOut 915

tryItOut 916
Compiling threw: SyntaxError: missing ) in parenthetical

tryItOut 917

tryItOut 918
Compiling threw: SyntaxError: missing variable name

tryItOut 919

tryItOut 920
Running threw: ReferenceError: reference to undefined XML name *

tryItOut 921

tryItOut 922
Compiling threw: SyntaxError: missing ) in parenthetical

tryItOut 923

tryItOut 924

tryItOut 925
Compiling threw: SyntaxError: invalid assignment left-hand side

tryItOut 926

tryItOut 927
Compiling threw: SyntaxError: missing variable name

tryItOut 928
Compiling threw: SyntaxError: syntax error

tryItOut 929
Compiling threw: SyntaxError: missing variable name

tryItOut 930
Running threw: -Infinity

tryItOut 931

tryItOut 932

tryItOut 933

tryItOut 934
Compiling threw: TypeError: redeclaration of var prototype

tryItOut 935

tryItOut 936

tryItOut 937

tryItOut 938
Compiling threw: SyntaxError: missing variable name

tryItOut 939
Compiling threw: SyntaxError: missing variable name

tryItOut 940
Running threw: ReferenceError: getter is not defined

tryItOut 941
Compiling threw: SyntaxError: syntax error

tryItOut 942

tryItOut 943

tryItOut 944

tryItOut 945
Compiling threw: SyntaxError: syntax error

tryItOut 946
Compiling threw: SyntaxError: missing = in destructuring declaration

tryItOut 947

tryItOut 948
Compiling threw: SyntaxError: invalid XML tag syntax

tryItOut 949

tryItOut 950
Compiling threw: SyntaxError: invalid XML tag syntax

tryItOut 951

tryItOut 952

tryItOut 953

tryItOut 954
Compiling threw: SyntaxError: invalid assignment left-hand side

tryItOut 955
Compiling threw: TypeError: redeclaration of const __proto__

tryItOut 956

tryItOut 957
Compiling threw: SyntaxError: syntax error

tryItOut 958
Compiling threw: SyntaxError: missing variable name

tryItOut 959
Compiling threw: SyntaxError: missing variable name

tryItOut 960

tryItOut 961

tryItOut 962
Running threw: ReferenceError: reference to undefined XML name *::*

tryItOut 963
Compiling threw: SyntaxError: missing variable name

tryItOut 964
Compiling threw: SyntaxError: invalid assignment left-hand side

tryItOut 965

tryItOut 966
Compiling threw: SyntaxError: invalid property id

tryItOut 967
Compiling threw: SyntaxError: syntax error

tryItOut 968

tryItOut 969
Compiling threw: SyntaxError: missing variable name

tryItOut 970
Compiling threw: SyntaxError: invalid assignment left-hand side

tryItOut 971

tryItOut 972
Compiling threw: SyntaxError: missing ) after switch expression

tryItOut 973
Compiling threw: SyntaxError: missing { before function body

tryItOut 974
Compiling threw: SyntaxError: illegal XML character

tryItOut 975
Running threw: 1

tryItOut 976
Compiling threw: SyntaxError: syntax error

tryItOut 977

tryItOut 978

tryItOut 979

tryItOut 980
Compiling threw: SyntaxError: syntax error

tryItOut 981
Compiling threw: SyntaxError: missing variable name

tryItOut 982
Running threw: ReferenceError: reference to undefined XML name @foo

tryItOut 983
Compiling threw: SyntaxError: syntax error

tryItOut 984
Compiling threw: SyntaxError: syntax error

tryItOut 985
Compiling threw: SyntaxError: missing ) after condition

tryItOut 986
Running threw: TypeError: undefined is not a function

tryItOut 987
Compiling threw: SyntaxError: missing } after let block

tryItOut 988
Compiling threw: TypeError: redeclaration of const __proto__

tryItOut 989
Compiling threw: SyntaxError: missing ) in parenthetical

tryItOut 990
Running threw: TypeError: undefined is not a function

tryItOut 991

tryItOut 992
Compiling threw: SyntaxError: missing variable name

tryItOut 993

tryItOut 994

tryItOut 995
Compiling threw: SyntaxError: invalid for each loop

tryItOut 996
Compiling threw: TypeError: redeclaration of var constructor

tryItOut 997

tryItOut 998
Running threw: 

tryItOut 999

tryItOut 1000
Running threw: TypeError: undefined has no properties

ALL OK

Script done on Sat 04 May 2013 07:19:48 AM PDT
