Script started on Sat 04 May 2013 07:21:04 AM PDT
***
Targeting SpiderMonkey / Gecko.

tryItOut 1
Compiling threw: SyntaxError: invalid for/in left-hand side

tryItOut 2

tryItOut 3

tryItOut 4
Running threw: ReferenceError: window is not defined

tryItOut 5
Compiling threw: SyntaxError: missing ; after for-loop initializer

tryItOut 6
Running threw: ReferenceError: window is not defined

tryItOut 7

tryItOut 8

tryItOut 9
Compiling threw: SyntaxError: missing = in destructuring declaration

tryItOut 10

tryItOut 11

tryItOut 12

tryItOut 13
Compiling threw: SyntaxError: invalid for/in left-hand side

tryItOut 14
Compiling threw: SyntaxError: syntax error

tryItOut 15

tryItOut 16

tryItOut 17
Running threw: TypeError: this.zzz has no properties

tryItOut 18

tryItOut 19

tryItOut 20

tryItOut 21

tryItOut 22
Compiling threw: SyntaxError: syntax error

tryItOut 23
Compiling threw: SyntaxError: missing ; after for-loop initializer

tryItOut 24

tryItOut 25

tryItOut 26
Compiling threw: SyntaxError: syntax error

tryItOut 27

tryItOut 28

tryItOut 29

tryItOut 30
Compiling threw: SyntaxError: invalid destructuring assignment operator

tryItOut 31

tryItOut 32
Compiling threw: SyntaxError: missing { before function body

tryItOut 33
Running threw: ReferenceError: __iterator__ is not defined

tryItOut 34
Compiling threw: SyntaxError: missing = in destructuring declaration

tryItOut 35
Running threw: ReferenceError: window is not defined

tryItOut 36
Compiling threw: SyntaxError: invalid assignment left-hand side

tryItOut 37
Compiling threw: TypeError: redeclaration of var prototype

tryItOut 38
Compiling threw: SyntaxError: invalid for/in left-hand side

tryItOut 39
Compiling threw: SyntaxError: invalid for/in left-hand side

tryItOut 40

tryItOut 41

tryItOut 42

tryItOut 43
Compiling threw: SyntaxError: missing ) after condition

tryItOut 44
Compiling threw: SyntaxError: missing ) after argument list

tryItOut 45
Compiling threw: SyntaxError: illegal XML character

tryItOut 46
Compiling threw: SyntaxError: syntax error

tryItOut 47
Compiling threw: SyntaxError: syntax error

tryItOut 48

tryItOut 49

tryItOut 50
Compiling threw: SyntaxError: syntax error

tryItOut 51

tryItOut 52

tryItOut 53

tryItOut 54

tryItOut 55

tryItOut 56
Compiling threw: SyntaxError: missing = in destructuring declaration

tryItOut 57

tryItOut 58

tryItOut 59
Running threw: ReferenceError: __noSuchMethod__ is not defined

tryItOut 60
Compiling threw: SyntaxError: syntax error

tryItOut 61
Compiling threw: SyntaxError: invalid for/in left-hand side

tryItOut 62

tryItOut 63

tryItOut 64

tryItOut 65
Compiling threw: SyntaxError: missing = in destructuring declaration

tryItOut 66
Running threw: ReferenceError: window is not defined

tryItOut 67

tryItOut 68
Compiling threw: SyntaxError: syntax error

tryItOut 69

tryItOut 70
Compiling threw: SyntaxError: syntax error

tryItOut 71

tryItOut 72

tryItOut 73

tryItOut 74
Compiling threw: SyntaxError: missing ) after condition

tryItOut 75

tryItOut 76

tryItOut 77

tryItOut 78

tryItOut 79

tryItOut 80

tryItOut 81
Compiling threw: SyntaxError: missing ) after argument list

tryItOut 82

tryItOut 83
Running threw: /x/

tryItOut 84

tryItOut 85
Running threw: ReferenceError: window is not defined

tryItOut 86

tryItOut 87
Running threw: ReferenceError: prototype is not defined

tryItOut 88
Running threw: ReferenceError: __noSuchMethod__ is not defined

tryItOut 89
Compiling threw: SyntaxError: invalid for/in left-hand side

tryItOut 90

tryItOut 91

tryItOut 92
Compiling threw: TypeError: redeclaration of var __proto__

tryItOut 93

tryItOut 94
Compiling threw: SyntaxError: missing ) in parenthetical

tryItOut 95
Compiling threw: SyntaxError: invalid assignment left-hand side

tryItOut 96
Running threw: ReferenceError: __iterator__ is not defined

tryItOut 97
Running threw: TypeError: __noSuchMethod__ has no properties

tryItOut 98
Compiling threw: SyntaxError: missing ; before statement

tryItOut 99
Running threw: TypeError: this.zzz has no properties

tryItOut 100

tryItOut 101
Compiling threw: SyntaxError: missing { before function body

tryItOut 102

tryItOut 103

tryItOut 104

tryItOut 105

tryItOut 106
Compiling threw: SyntaxError: illegal XML character

tryItOut 107
Compiling threw: SyntaxError: invalid for/in left-hand side

tryItOut 108

tryItOut 109

tryItOut 110
Running threw: ReferenceError: window is not defined

tryItOut 111

tryItOut 112
Running threw: ReferenceError: __noSuchMethod__ is not defined

tryItOut 113

tryItOut 114

tryItOut 115
Running threw: ReferenceError: window is not defined

tryItOut 116

tryItOut 117
Compiling threw: SyntaxError: invalid assignment left-hand side

tryItOut 118

tryItOut 119
Compiling threw: SyntaxError: missing ; before statement

tryItOut 120
Running threw: function (id) {
    return id;
}

tryItOut 121

tryItOut 122

tryItOut 123
Compiling threw: SyntaxError: syntax error

tryItOut 124
Compiling threw: SyntaxError: invalid for/in left-hand side

tryItOut 125
Compiling threw: TypeError: generator function anonymous returns a value

tryItOut 126

tryItOut 127
Running threw: TypeError: this.zzz has no properties

tryItOut 128

tryItOut 129

tryItOut 130
Running threw: ReferenceError: prop is not defined

tryItOut 131
Compiling threw: SyntaxError: invalid for/in left-hand side

tryItOut 132

tryItOut 133
Compiling threw: SyntaxError: invalid destructuring assignment operator

tryItOut 134

tryItOut 135
Compiling threw: SyntaxError: syntax error

tryItOut 136

tryItOut 137

tryItOut 138
Compiling threw: SyntaxError: invalid assignment left-hand side

tryItOut 139
Compiling threw: SyntaxError: invalid assignment left-hand side

tryItOut 140

tryItOut 141
Compiling threw: SyntaxError: invalid XML name

tryItOut 142
Running threw: ReferenceError: prop is not defined

tryItOut 143

tryItOut 144

tryItOut 145

tryItOut 146
Compiling threw: SyntaxError: syntax error

tryItOut 147
Running threw: ReferenceError: __iterator__ is not defined

tryItOut 148
Compiling threw: SyntaxError: missing ) in parenthetical

tryItOut 149
Compiling threw: SyntaxError: duplicate label

tryItOut 150
Compiling threw: SyntaxError: syntax error

tryItOut 151
Compiling threw: SyntaxError: invalid for/in left-hand side

tryItOut 152

tryItOut 153
Compiling threw: SyntaxError: syntax error

tryItOut 154
Compiling threw: SyntaxError: missing = in destructuring declaration

tryItOut 155
Running threw: ReferenceError: window is not defined

tryItOut 156

tryItOut 157

tryItOut 158
Compiling threw: SyntaxError: syntax error

tryItOut 159

tryItOut 160

tryItOut 161
Running threw: TypeError: this.zzz has no properties

tryItOut 162
Compiling threw: SyntaxError: syntax error

tryItOut 163

tryItOut 164

tryItOut 165
Compiling threw: SyntaxError: missing ) in parenthetical

tryItOut 166

tryItOut 167

tryItOut 168
Compiling threw: SyntaxError: invalid property id

tryItOut 169

tryItOut 170
Running threw: TypeError: XML filtering predicate operator called on incompatible Function

tryItOut 171
Running threw: ReferenceError: z2 is not defined

tryItOut 172

tryItOut 173

tryItOut 174
Compiling threw: SyntaxError: syntax error

tryItOut 175

tryItOut 176
Running threw: ReferenceError: prototype is not defined

tryItOut 177
Running threw: ReferenceError: z2 is not defined

tryItOut 178
Compiling threw: SyntaxError: invalid for/in left-hand side

tryItOut 179
Compiling threw: SyntaxError: missing { before function body

tryItOut 180
Compiling threw: SyntaxError: syntax error

tryItOut 181
Compiling threw: SyntaxError: duplicate label

tryItOut 182
Running threw: ReferenceError: __iterator__ is not defined

tryItOut 183
It's an iterator!
Iterating threw!
Iterating threw: ReferenceError: window is not defined

tryItOut 184
Compiling threw: SyntaxError: invalid for/in left-hand side

tryItOut 185

tryItOut 186
Compiling threw: SyntaxError: missing ) in parenthetical

tryItOut 187
Running threw: 

tryItOut 188

tryItOut 189

tryItOut 190
Running threw: ReferenceError: prototype is not defined

tryItOut 191
Compiling threw: SyntaxError: missing ; before statement

tryItOut 192
Compiling threw: SyntaxError: invalid assignment left-hand side

tryItOut 193
Running threw: ReferenceError: prop is not defined

tryItOut 194

tryItOut 195
Running threw: ReferenceError: prototype is not defined

tryItOut 196
Running threw: ReferenceError: z1 is not defined

tryItOut 197
Compiling threw: SyntaxError: invalid increment operand

tryItOut 198

tryItOut 199

tryItOut 200

tryItOut 201
Running threw: TypeError: this.__defineSetter__("prop", Math.pow) has no properties

tryItOut 202

tryItOut 203
Compiling threw: SyntaxError: missing { before function body

tryItOut 204

tryItOut 205
Compiling threw: SyntaxError: invalid for/in left-hand side

tryItOut 206
Compiling threw: SyntaxError: syntax error

tryItOut 207

tryItOut 208
Compiling threw: SyntaxError: illegal XML character

tryItOut 209
Compiling threw: SyntaxError: syntax error

tryItOut 210
Running threw: ReferenceError: window is not defined

tryItOut 211
Compiling threw: SyntaxError: missing } after let block

tryItOut 212
Compiling threw: SyntaxError: invalid for/in left-hand side

tryItOut 213
Compiling threw: SyntaxError: missing ) in parenthetical

tryItOut 214

tryItOut 215
Compiling threw: SyntaxError: missing = in destructuring declaration

tryItOut 216

tryItOut 217
It's an iterator!
Iterating succeeded, iterCount == 1

tryItOut 218
Compiling threw: SyntaxError: missing ) in parenthetical

tryItOut 219

tryItOut 220
Compiling threw: SyntaxError: syntax error

tryItOut 221
Compiling threw: SyntaxError: missing { before function body

tryItOut 222
Compiling threw: SyntaxError: missing variable name

tryItOut 223
Compiling threw: SyntaxError: syntax error

tryItOut 224
Compiling threw: TypeError: redeclaration of variable constructor

tryItOut 225

tryItOut 226
Compiling threw: SyntaxError: missing ) in parenthetical

tryItOut 227
Compiling threw: SyntaxError: invalid for/in left-hand side

tryItOut 228
Compiling threw: SyntaxError: syntax error

tryItOut 229

tryItOut 230

tryItOut 231
Compiling threw: SyntaxError: syntax error

tryItOut 232

tryItOut 233

tryItOut 234

tryItOut 235
Compiling threw: SyntaxError: missing { before function body

tryItOut 236

tryItOut 237

tryItOut 238

tryItOut 239
Compiling threw: SyntaxError: invalid for/in left-hand side

tryItOut 240
Compiling threw: SyntaxError: invalid assignment left-hand side

tryItOut 241
Running threw: ReferenceError: __noSuchMethod__ is not defined

tryItOut 242
Compiling threw: SyntaxError: invalid for/in left-hand side

tryItOut 243

tryItOut 244
Compiling threw: SyntaxError: illegal XML character

tryItOut 245
Compiling threw: SyntaxError: missing = in destructuring declaration

tryItOut 246

tryItOut 247
Compiling threw: SyntaxError: missing } in compound statement

tryItOut 248

tryItOut 249

tryItOut 250
Running threw: ReferenceError: z1 is not defined

tryItOut 251

tryItOut 252

tryItOut 253

tryItOut 254
Running threw: ReferenceError: __iterator__ is not defined

tryItOut 255
Compiling threw: SyntaxError: invalid assignment left-hand side

tryItOut 256

tryItOut 257
Compiling threw: SyntaxError: missing { before function body

tryItOut 258
Compiling threw: SyntaxError: missing ) in parenthetical

tryItOut 259

tryItOut 260
Compiling threw: SyntaxError: syntax error

tryItOut 261

tryItOut 262
Compiling threw: SyntaxError: missing } after let block

tryItOut 263

tryItOut 264
Compiling threw: SyntaxError: missing } after let block

tryItOut 265
Compiling threw: SyntaxError: yield expression must be parenthesized

tryItOut 266

tryItOut 267

tryItOut 268
Compiling threw: SyntaxError: syntax error

tryItOut 269

tryItOut 270
Compiling threw: SyntaxError: missing { before function body

tryItOut 271
Compiling threw: SyntaxError: invalid assignment left-hand side

tryItOut 272

tryItOut 273
Compiling threw: TypeError: redeclaration of variable __noSuchMethod__

tryItOut 274

tryItOut 275
Running threw: ReferenceError: __iterator__ is not defined

tryItOut 276

tryItOut 277

tryItOut 278

tryItOut 279

tryItOut 280
Compiling threw: TypeError: redeclaration of variable __proto__

tryItOut 281
Compiling threw: SyntaxError: invalid for/in left-hand side

tryItOut 282

tryItOut 283
Running threw: ReferenceError: __noSuchMethod__ is not defined

tryItOut 284

tryItOut 285
Compiling threw: SyntaxError: duplicate label

tryItOut 286

tryItOut 287

tryItOut 288
Compiling threw: SyntaxError: syntax error

tryItOut 289
Running threw: TypeError: arguments[0] has no properties

tryItOut 290
Compiling threw: SyntaxError: missing ) in parenthetical

tryItOut 291

tryItOut 292

tryItOut 293

tryItOut 294
Compiling threw: SyntaxError: syntax error

tryItOut 295

tryItOut 296
Compiling threw: SyntaxError: invalid XML tag syntax

tryItOut 297
Compiling threw: SyntaxError: invalid assignment left-hand side

tryItOut 298
Compiling threw: SyntaxError: missing variable name

tryItOut 299
Running threw: ReferenceError: z1 is not defined

tryItOut 300
It's an iterator!
Iterating succeeded, iterCount == 1

tryItOut 301
Compiling threw: SyntaxError: missing variable name

tryItOut 302

tryItOut 303

tryItOut 304

tryItOut 305

tryItOut 306
Running threw: ReferenceError: z1 is not defined

tryItOut 307

tryItOut 308

tryItOut 309
Compiling threw: SyntaxError: missing { before function body

tryItOut 310

tryItOut 311
Compiling threw: SyntaxError: invalid assignment left-hand side

tryItOut 312
Compiling threw: SyntaxError: syntax error

tryItOut 313

tryItOut 314

tryItOut 315
Compiling threw: SyntaxError: syntax error

tryItOut 316

tryItOut 317
Compiling threw: SyntaxError: missing formal parameter

tryItOut 318

tryItOut 319
It's an iterator!
Iterating succeeded, iterCount == 1

tryItOut 320
Compiling threw: TypeError: redeclaration of variable __count__

tryItOut 321
Compiling threw: SyntaxError: invalid property id

tryItOut 322

tryItOut 323
Compiling threw: SyntaxError: missing ; after for-loop condition

tryItOut 324
Compiling threw: SyntaxError: missing variable name

tryItOut 325
Compiling threw: SyntaxError: syntax error

tryItOut 326

tryItOut 327

tryItOut 328
Compiling threw: SyntaxError: syntax error

tryItOut 329

tryItOut 330
Compiling threw: SyntaxError: invalid for/in left-hand side

tryItOut 331
Running threw: ReferenceError: __noSuchMethod__ is not defined

tryItOut 332

tryItOut 333
Compiling threw: TypeError: generator function anonymous returns a value

tryItOut 334

tryItOut 335
Running threw: ReferenceError: window is not defined

tryItOut 336
Compiling threw: SyntaxError: invalid assignment left-hand side

tryItOut 337

tryItOut 338
Compiling threw: SyntaxError: invalid for/in left-hand side

tryItOut 339
Compiling threw: SyntaxError: missing variable name

tryItOut 340

tryItOut 341

tryItOut 342
Compiling threw: SyntaxError: invalid for/in left-hand side

tryItOut 343
Compiling threw: SyntaxError: missing ( before formal parameters

tryItOut 344

tryItOut 345
Running threw: ReferenceError: z1 is not defined

tryItOut 346

tryItOut 347
Compiling threw: SyntaxError: missing { before function body

tryItOut 348

tryItOut 349
Compiling threw: SyntaxError: invalid XML name

tryItOut 350

tryItOut 351

tryItOut 352

tryItOut 353

tryItOut 354

tryItOut 355
Compiling threw: SyntaxError: invalid for/in left-hand side

tryItOut 356
Compiling threw: SyntaxError: missing ) after condition

tryItOut 357

tryItOut 358
Compiling threw: SyntaxError: missing ) in parenthetical

tryItOut 359
Compiling threw: SyntaxError: invalid assignment left-hand side

tryItOut 360
Compiling threw: SyntaxError: missing ) in parenthetical

tryItOut 361

tryItOut 362

tryItOut 363
Compiling threw: SyntaxError: syntax error

tryItOut 364
Compiling threw: SyntaxError: invalid XML name

tryItOut 365
Compiling threw: SyntaxError: missing variable name

tryItOut 366
Running threw: ReferenceError: __noSuchMethod__ is not defined

tryItOut 367

tryItOut 368
It's an iterator!
Iterating threw!
Iterating threw: SyntaxError: invalid getter usage

tryItOut 369

tryItOut 370
Running threw: TypeError: XML filtering predicate operator called on incompatible global

tryItOut 371
Compiling threw: SyntaxError: syntax error

tryItOut 372
Running threw: TypeError: this.zzz has no properties

tryItOut 373
Compiling threw: SyntaxError: invalid destructuring assignment operator

tryItOut 374
Compiling threw: SyntaxError: syntax error

tryItOut 375

tryItOut 376

tryItOut 377
Running threw: TypeError: prop has no properties

tryItOut 378

tryItOut 379
Compiling threw: SyntaxError: missing ) in parenthetical

tryItOut 380

tryItOut 381

tryItOut 382
Compiling threw: SyntaxError: syntax error

tryItOut 383
Compiling threw: SyntaxError: missing ; after for-loop initializer

tryItOut 384
Compiling threw: SyntaxError: missing variable name

tryItOut 385

tryItOut 386

tryItOut 387

tryItOut 388
Compiling threw: SyntaxError: invalid decrement operand

tryItOut 389

tryItOut 390
Compiling threw: SyntaxError: invalid assignment left-hand side

tryItOut 391

tryItOut 392
Running threw: Error: invalid sharp variable use #1#

tryItOut 393
Compiling threw: SyntaxError: invalid XML tag syntax

tryItOut 394
It's an iterator!
Iterating threw!
Iterating threw: ReferenceError: window is not defined

tryItOut 395
Running threw: 

tryItOut 396

tryItOut 397
Compiling threw: SyntaxError: invalid assignment left-hand side

tryItOut 398
Running threw: ReferenceError: window is not defined

tryItOut 399
Compiling threw: SyntaxError: unterminated string literal

tryItOut 400
It's an iterator!
Iterating threw!
Iterating threw: ReferenceError: __iterator__ is not defined

tryItOut 401

tryItOut 402
Compiling threw: SyntaxError: invalid for/in left-hand side

tryItOut 403
Running threw: ReferenceError: window is not defined

tryItOut 404
Compiling threw: SyntaxError: invalid destructuring assignment operator

tryItOut 405
Compiling threw: SyntaxError: missing { before function body

tryItOut 406
Compiling threw: SyntaxError: syntax error

tryItOut 407

tryItOut 408

tryItOut 409

tryItOut 410
Compiling threw: SyntaxError: missing { before function body

tryItOut 411
Running threw: TypeError: __parent__ has no properties

tryItOut 412
Compiling threw: SyntaxError: illegal XML character

tryItOut 413

tryItOut 414
Compiling threw: SyntaxError: invalid for/in left-hand side

tryItOut 415
Compiling threw: SyntaxError: invalid for/in left-hand side

tryItOut 416

tryItOut 417

tryItOut 418
Running threw: TypeError: this.zzz has no properties

tryItOut 419

tryItOut 420

tryItOut 421
Running threw: ReferenceError: z1 is not defined

tryItOut 422
Compiling threw: SyntaxError: syntax error

tryItOut 423
Running threw: ReferenceError: window is not defined

tryItOut 424
Compiling threw: TypeError: redeclaration of variable prototype

tryItOut 425

tryItOut 426

tryItOut 427
Compiling threw: SyntaxError: missing variable name

tryItOut 428

tryItOut 429
Running threw: ReferenceError: __iterator__ is not defined

tryItOut 430

tryItOut 431
Running threw: TypeError: (function ([y]) {}).unwatch("prop") has no properties

tryItOut 432

tryItOut 433

tryItOut 434
Compiling threw: TypeError: redeclaration of variable __parent__

tryItOut 435

tryItOut 436

tryItOut 437
It's an iterator!
Iterating succeeded, iterCount == 1

tryItOut 438
Compiling threw: SyntaxError: missing ; before statement

tryItOut 439
Compiling threw: SyntaxError: missing variable name

tryItOut 440
Compiling threw: SyntaxError: syntax error

tryItOut 441

tryItOut 442

tryItOut 443

tryItOut 444

tryItOut 445
Compiling threw: SyntaxError: invalid XML name

tryItOut 446
Compiling threw: SyntaxError: syntax error

tryItOut 447

tryItOut 448
Running threw: TypeError: XML filtering predicate operator called on incompatible global

tryItOut 449
Compiling threw: TypeError: redeclaration of variable prototype

tryItOut 450
Compiling threw: SyntaxError: syntax error

tryItOut 451
Compiling threw: SyntaxError: missing = in destructuring declaration

tryItOut 452

tryItOut 453
Compiling threw: SyntaxError: missing ; before statement

tryItOut 454
Compiling threw: SyntaxError: missing ) after let head

tryItOut 455
Compiling threw: SyntaxError: invalid property id

tryItOut 456
Running threw: ReferenceError: window is not defined

tryItOut 457
Compiling threw: SyntaxError: invalid XML list syntax

tryItOut 458

tryItOut 459

tryItOut 460

tryItOut 461
Running threw: TypeError: this.zzz has no properties

tryItOut 462

tryItOut 463
Compiling threw: SyntaxError: duplicate label

tryItOut 464
Compiling threw: SyntaxError: invalid assignment left-hand side

tryItOut 465
Compiling threw: SyntaxError: invalid XML name

tryItOut 466

tryItOut 467

tryItOut 468
Compiling threw: SyntaxError: syntax error

tryItOut 469
Compiling threw: TypeError: redeclaration of const prop

tryItOut 470

tryItOut 471
Compiling threw: SyntaxError: missing ) in parenthetical

tryItOut 472
Compiling threw: SyntaxError: syntax error

tryItOut 473

tryItOut 474

tryItOut 475

tryItOut 476

tryItOut 477
Compiling threw: SyntaxError: invalid assignment left-hand side

tryItOut 478
Compiling threw: SyntaxError: illegal XML character

tryItOut 479
Compiling threw: SyntaxError: syntax error

tryItOut 480
Compiling threw: SyntaxError: missing = in destructuring declaration

tryItOut 481

tryItOut 482
Running threw: ReferenceError: window is not defined

tryItOut 483

tryItOut 484
Compiling threw: SyntaxError: missing ; after for-loop initializer

tryItOut 485

tryItOut 486
Compiling threw: SyntaxError: missing = in destructuring declaration

tryItOut 487
Compiling threw: SyntaxError: missing : after property id

tryItOut 488
Compiling threw: SyntaxError: syntax error

tryItOut 489
Compiling threw: TypeError: redeclaration of variable __count__

tryItOut 490

tryItOut 491

tryItOut 492

tryItOut 493

tryItOut 494
Compiling threw: TypeError: redeclaration of variable __parent__

tryItOut 495
Compiling threw: SyntaxError: syntax error

tryItOut 496
Compiling threw: SyntaxError: syntax error

tryItOut 497

tryItOut 498

tryItOut 499
Compiling threw: SyntaxError: missing { before function body

tryItOut 500
Compiling threw: SyntaxError: invalid for/in left-hand side

tryItOut 501
Compiling threw: SyntaxError: invalid for/in left-hand side

tryItOut 502

tryItOut 503

tryItOut 504
Compiling threw: SyntaxError: missing ) in parenthetical

tryItOut 505
Running threw: ReferenceError: window is not defined

tryItOut 506

tryItOut 507

tryItOut 508

tryItOut 509
Compiling threw: SyntaxError: missing variable name

tryItOut 510
Compiling threw: SyntaxError: syntax error

tryItOut 511
Compiling threw: SyntaxError: invalid increment operand

tryItOut 512
Running threw: /x/

tryItOut 513
Compiling threw: TypeError: redeclaration of variable prototype

tryItOut 514
Compiling threw: SyntaxError: missing name after . operator

tryItOut 515

tryItOut 516

tryItOut 517
Compiling threw: SyntaxError: syntax error

tryItOut 518

tryItOut 519

tryItOut 520

tryItOut 521

tryItOut 522

tryItOut 523

tryItOut 524

tryItOut 525

tryItOut 526
Compiling threw: SyntaxError: missing { before function body

tryItOut 527

tryItOut 528

tryItOut 529

tryItOut 530
Running threw: ReferenceError: z1 is not defined

tryItOut 531

tryItOut 532

tryItOut 533

tryItOut 534
Compiling threw: SyntaxError: syntax error

tryItOut 535

tryItOut 536
Compiling threw: SyntaxError: invalid for/in left-hand side

tryItOut 537
Compiling threw: SyntaxError: invalid assignment left-hand side

tryItOut 538

tryItOut 539

tryItOut 540
Compiling threw: SyntaxError: invalid assignment left-hand side

tryItOut 541
Compiling threw: SyntaxError: missing ) after condition

tryItOut 542
Compiling threw: SyntaxError: invalid for/in left-hand side

tryItOut 543
Running threw: 

tryItOut 544

tryItOut 545

tryItOut 546
Compiling threw: SyntaxError: missing ( before formal parameters

tryItOut 547

tryItOut 548

tryItOut 549

tryItOut 550
Compiling threw: SyntaxError: missing variable name

tryItOut 551
Compiling threw: SyntaxError: missing { before function body

tryItOut 552

tryItOut 553

tryItOut 554

tryItOut 555
Compiling threw: SyntaxError: syntax error

tryItOut 556

tryItOut 557
Compiling threw: SyntaxError: syntax error

tryItOut 558

tryItOut 559

tryItOut 560

tryItOut 561

tryItOut 562
Running threw: TypeError: this.zzz has no properties

tryItOut 563

tryItOut 564

tryItOut 565

tryItOut 566
Compiling threw: SyntaxError: invalid decrement operand

tryItOut 567

tryItOut 568
Compiling threw: SyntaxError: missing { before function body

tryItOut 569

tryItOut 570

tryItOut 571
Compiling threw: SyntaxError: syntax error

tryItOut 572
Compiling threw: SyntaxError: invalid assignment left-hand side

tryItOut 573

tryItOut 574
Running threw: 

tryItOut 575
Compiling threw: SyntaxError: duplicate label

tryItOut 576

tryItOut 577

tryItOut 578

tryItOut 579
Running threw: 

tryItOut 580

tryItOut 581
Compiling threw: SyntaxError: invalid XML name

tryItOut 582

tryItOut 583

tryItOut 584
Compiling threw: SyntaxError: missing variable name

tryItOut 585
Compiling threw: SyntaxError: syntax error

tryItOut 586
Compiling threw: SyntaxError: syntax error

tryItOut 587

tryItOut 588
It's an iterator!
Iterating succeeded, iterCount == 0

tryItOut 589
Running threw: ReferenceError: window is not defined

tryItOut 590

tryItOut 591

tryItOut 592
Compiling threw: SyntaxError: missing ) in parenthetical

tryItOut 593

tryItOut 594

tryItOut 595
Running threw: TypeError: this.zzz has no properties

tryItOut 596
Compiling threw: SyntaxError: missing } after let block

tryItOut 597
Compiling threw: SyntaxError: missing variable name

tryItOut 598

tryItOut 599
Compiling threw: SyntaxError: syntax error

tryItOut 600
Compiling threw: SyntaxError: invalid assignment left-hand side

tryItOut 601

tryItOut 602
Compiling threw: SyntaxError: invalid assignment left-hand side

tryItOut 603

tryItOut 604
Compiling threw: SyntaxError: missing { before function body

tryItOut 605
Compiling threw: SyntaxError: invalid increment operand

tryItOut 606
Compiling threw: SyntaxError: missing } after let block

tryItOut 607
It's an iterator!
Iterating succeeded, iterCount == 1

tryItOut 608
Compiling threw: SyntaxError: syntax error

tryItOut 609

tryItOut 610
Compiling threw: SyntaxError: missing ) in parenthetical

tryItOut 611
Compiling threw: SyntaxError: invalid assignment left-hand side

tryItOut 612

tryItOut 613

tryItOut 614

tryItOut 615

tryItOut 616
Compiling threw: SyntaxError: syntax error

tryItOut 617

tryItOut 618
Running threw: TypeError: this is not a constructor

tryItOut 619
Compiling threw: SyntaxError: missing variable name

tryItOut 620
Compiling threw: SyntaxError: invalid for/in left-hand side

tryItOut 621

tryItOut 622

tryItOut 623
Compiling threw: SyntaxError: missing { before function body

tryItOut 624
Compiling threw: SyntaxError: missing ) after let head

tryItOut 625

tryItOut 626
Compiling threw: SyntaxError: syntax error

tryItOut 627
Compiling threw: SyntaxError: invalid assignment left-hand side

tryItOut 628
Compiling threw: SyntaxError: missing variable name

tryItOut 629
Compiling threw: SyntaxError: missing { before function body

tryItOut 630
Running threw: TypeError: this.zzz has no properties

tryItOut 631

tryItOut 632
Running threw: TypeError: this.zzz has no properties

tryItOut 633

tryItOut 634

tryItOut 635
Compiling threw: SyntaxError: invalid for/in left-hand side

tryItOut 636

tryItOut 637
Compiling threw: SyntaxError: missing { before function body

tryItOut 638
Running threw: ReferenceError: window is not defined

tryItOut 639
Compiling threw: SyntaxError: invalid destructuring assignment operator

tryItOut 640

tryItOut 641
Compiling threw: SyntaxError: missing { before function body

tryItOut 642
Compiling threw: SyntaxError: invalid destructuring assignment operator

tryItOut 643

tryItOut 644

tryItOut 645

tryItOut 646
Compiling threw: SyntaxError: missing variable name

tryItOut 647
Compiling threw: SyntaxError: invalid for/in left-hand side

tryItOut 648
Compiling threw: SyntaxError: invalid for/in left-hand side

tryItOut 649
Compiling threw: SyntaxError: invalid assignment left-hand side

tryItOut 650

tryItOut 651
Compiling threw: SyntaxError: missing = in destructuring declaration

tryItOut 652
Compiling threw: SyntaxError: syntax error

tryItOut 653

tryItOut 654

tryItOut 655
Compiling threw: SyntaxError: syntax error

tryItOut 656

tryItOut 657

tryItOut 658

tryItOut 659

tryItOut 660
Compiling threw: SyntaxError: invalid assignment left-hand side

tryItOut 661

tryItOut 662

tryItOut 663

tryItOut 664

tryItOut 665

tryItOut 666
Running threw: ReferenceError: window is not defined

tryItOut 667

tryItOut 668
Compiling threw: SyntaxError: illegal XML character

tryItOut 669

tryItOut 670
Compiling threw: SyntaxError: syntax error

tryItOut 671
Running threw: Error: invalid sharp variable use #1#

tryItOut 672
Compiling threw: TypeError: redeclaration of variable __parent__

tryItOut 673
It's an iterator!
Iterating threw!
Iterating threw: ReferenceError: z1 is not defined

tryItOut 674
Compiling threw: SyntaxError: invalid for/in left-hand side

tryItOut 675

tryItOut 676
Compiling threw: TypeError: redeclaration of variable __iterator__

tryItOut 677
It's an iterator!
Iterating threw!
Iterating threw: TypeError: prop has no properties

tryItOut 678

tryItOut 679

tryItOut 680
Running threw: TypeError: __parent__ has no properties

tryItOut 681
Compiling threw: SyntaxError: invalid assignment left-hand side

tryItOut 682

tryItOut 683

tryItOut 684
Compiling threw: SyntaxError: invalid for/in left-hand side

tryItOut 685
Compiling threw: SyntaxError: syntax error

tryItOut 686

tryItOut 687

tryItOut 688
Compiling threw: SyntaxError: invalid destructuring assignment operator

tryItOut 689
Compiling threw: TypeError: redeclaration of variable prototype

tryItOut 690

tryItOut 691

tryItOut 692
Compiling threw: SyntaxError: missing variable name

tryItOut 693

tryItOut 694
Compiling threw: SyntaxError: missing ) in parenthetical

tryItOut 695
Running threw: TypeError: this.zzz has no properties

tryItOut 696

tryItOut 697
Compiling threw: SyntaxError: missing } after let block

tryItOut 698
Compiling threw: SyntaxError: invalid for/in left-hand side

tryItOut 699
Compiling threw: SyntaxError: syntax error

tryItOut 700

tryItOut 701

tryItOut 702
Compiling threw: SyntaxError: invalid assignment left-hand side

tryItOut 703

tryItOut 704
Compiling threw: SyntaxError: invalid assignment left-hand side

tryItOut 705
Compiling threw: SyntaxError: missing { before function body

tryItOut 706
Compiling threw: SyntaxError: missing ) after formal parameters

tryItOut 707
uneval returned the string: (new RangeError("", "run.js", 434))

tryItOut 708
Running threw: ReferenceError: window is not defined

tryItOut 709

tryItOut 710
Compiling threw: SyntaxError: syntax error

tryItOut 711
Compiling threw: SyntaxError: illegal XML character

tryItOut 712
Compiling threw: SyntaxError: syntax error

tryItOut 713

tryItOut 714

tryItOut 715

tryItOut 716
Compiling threw: SyntaxError: syntax error

tryItOut 717
Compiling threw: SyntaxError: syntax error

tryItOut 718
Running threw: TypeError: Function.prototype.call called on incompatible [object Object]

tryItOut 719

tryItOut 720

tryItOut 721
Compiling threw: SyntaxError: missing : after property id

tryItOut 722

tryItOut 723
Running threw: ReferenceError: x is not defined

tryItOut 724

tryItOut 725

tryItOut 726

tryItOut 727
Compiling threw: SyntaxError: missing ( before with-statement object

tryItOut 728
Running threw: Error: invalid sharp variable use #1#

tryItOut 729
Running threw: TypeError: prop has no properties

tryItOut 730
Compiling threw: SyntaxError: missing ) in parenthetical

tryItOut 731
Compiling threw: SyntaxError: missing { before function body

tryItOut 732
Compiling threw: SyntaxError: missing variable name

tryItOut 733

tryItOut 734
Compiling threw: SyntaxError: missing ; before statement

tryItOut 735
Compiling threw: SyntaxError: missing variable name

tryItOut 736

tryItOut 737
Compiling threw: SyntaxError: syntax error

tryItOut 738

tryItOut 739
Compiling threw: SyntaxError: invalid for/in left-hand side

tryItOut 740

tryItOut 741
Running threw: TypeError: XML filtering predicate operator called on incompatible Number

tryItOut 742

tryItOut 743

tryItOut 744

tryItOut 745
Compiling threw: SyntaxError: syntax error

tryItOut 746

tryItOut 747

tryItOut 748
Running threw: TypeError: this.zzz has no properties

tryItOut 749
Compiling threw: SyntaxError: missing ) in parenthetical

tryItOut 750

tryItOut 751
Running threw: [object global]

tryItOut 752
Compiling threw: TypeError: redeclaration of variable __iterator__

tryItOut 753
Compiling threw: SyntaxError: missing variable name

tryItOut 754
Compiling threw: SyntaxError: invalid destructuring assignment operator

tryItOut 755

tryItOut 756
Compiling threw: SyntaxError: missing } after let block

tryItOut 757
Compiling threw: SyntaxError: invalid for/in left-hand side

tryItOut 758

tryItOut 759
Running threw: TypeError: arguments[0] has no properties

tryItOut 760

tryItOut 761

tryItOut 762
Compiling threw: SyntaxError: syntax error

tryItOut 763

tryItOut 764

tryItOut 765
Running threw: /x/g

tryItOut 766
It's an iterator!
Iterating threw!
Iterating threw: ReferenceError: window is not defined

tryItOut 767

tryItOut 768

tryItOut 769
Compiling threw: SyntaxError: invalid increment operand

tryItOut 770
Compiling threw: SyntaxError: missing ) in parenthetical

tryItOut 771

tryItOut 772

tryItOut 773
Compiling threw: SyntaxError: missing { before function body

tryItOut 774
Compiling threw: SyntaxError: missing = in destructuring declaration

tryItOut 775
Compiling threw: SyntaxError: invalid assignment left-hand side

tryItOut 776
It's an iterator!
Iterating succeeded, iterCount == 1

tryItOut 777
Running threw: TypeError: this.__defineGetter__("constructor", Math.sin) has no properties

tryItOut 778
Compiling threw: SyntaxError: invalid assignment left-hand side

tryItOut 779
Compiling threw: TypeError: redeclaration of const constructor

tryItOut 780
Compiling threw: TypeError: generator function anonymous returns a value

tryItOut 781
Compiling threw: SyntaxError: missing ) after argument list

tryItOut 782
Compiling threw: SyntaxError: missing ; after for-loop initializer

tryItOut 783

tryItOut 784

tryItOut 785

tryItOut 786
Compiling threw: SyntaxError: missing ) in parenthetical

tryItOut 787
Compiling threw: SyntaxError: missing } after let block

tryItOut 788
Compiling threw: SyntaxError: syntax error

tryItOut 789

tryItOut 790
Running threw: TypeError: this.zzz has no properties

tryItOut 791

tryItOut 792

tryItOut 793
Compiling threw: SyntaxError: invalid for/in left-hand side

tryItOut 794
Compiling threw: TypeError: redeclaration of variable __noSuchMethod__

tryItOut 795
Compiling threw: SyntaxError: missing { before function body

tryItOut 796
Compiling threw: SyntaxError: invalid for/in left-hand side

tryItOut 797

tryItOut 798

tryItOut 799

tryItOut 800
Compiling threw: SyntaxError: missing variable name

tryItOut 801

tryItOut 802
Compiling threw: SyntaxError: invalid XML name

tryItOut 803

tryItOut 804
Compiling threw: SyntaxError: syntax error

tryItOut 805

tryItOut 806
Running threw: ReferenceError: z1 is not defined

tryItOut 807
Compiling threw: SyntaxError: invalid assignment left-hand side

tryItOut 808

tryItOut 809

tryItOut 810

tryItOut 811

tryItOut 812

tryItOut 813

tryItOut 814

tryItOut 815
Compiling threw: SyntaxError: syntax error

tryItOut 816

tryItOut 817
Compiling threw: SyntaxError: missing ) in parenthetical

tryItOut 818

tryItOut 819

tryItOut 820
Compiling threw: SyntaxError: missing ; before statement

tryItOut 821

tryItOut 822

tryItOut 823
Running threw: [object global]

tryItOut 824
Compiling threw: SyntaxError: missing variable name

tryItOut 825

tryItOut 826

tryItOut 827
Compiling threw: SyntaxError: syntax error

tryItOut 828

tryItOut 829
Compiling threw: SyntaxError: invalid assignment left-hand side

tryItOut 830

tryItOut 831
Compiling threw: SyntaxError: invalid for/in left-hand side

tryItOut 832

tryItOut 833

tryItOut 834
Compiling threw: SyntaxError: syntax error

tryItOut 835

tryItOut 836

tryItOut 837

tryItOut 838
Compiling threw: SyntaxError: missing { before function body

tryItOut 839

tryItOut 840

tryItOut 841
Compiling threw: SyntaxError: invalid assignment left-hand side

tryItOut 842

tryItOut 843
Compiling threw: SyntaxError: invalid assignment left-hand side

tryItOut 844
Compiling threw: SyntaxError: syntax error

tryItOut 845

tryItOut 846

tryItOut 847
Compiling threw: SyntaxError: missing ) in parenthetical

tryItOut 848

tryItOut 849
Compiling threw: SyntaxError: syntax error

tryItOut 850
Compiling threw: SyntaxError: missing ) in parenthetical

tryItOut 851

tryItOut 852

tryItOut 853

tryItOut 854
Compiling threw: SyntaxError: invalid for/in left-hand side

tryItOut 855

tryItOut 856
Compiling threw: SyntaxError: syntax error

tryItOut 857
Compiling threw: SyntaxError: missing { before function body

tryItOut 858

tryItOut 859

tryItOut 860
Compiling threw: SyntaxError: syntax error

tryItOut 861
Running threw: ReferenceError: reference to undefined property "window"

tryItOut 862
Compiling threw: SyntaxError: missing } after let block

tryItOut 863
Running threw: ReferenceError: window is not defined

tryItOut 864

tryItOut 865
Compiling threw: SyntaxError: missing variable name

tryItOut 866

tryItOut 867

tryItOut 868
Running threw: ReferenceError: z1 is not defined

tryItOut 869

tryItOut 870

tryItOut 871

tryItOut 872
Compiling threw: SyntaxError: missing { before function body

tryItOut 873

tryItOut 874
It's an iterator!
Iterating threw!
Iterating threw: ReferenceError: window is not defined

tryItOut 875
It's an iterator!
Iterating succeeded, iterCount == 1

tryItOut 876

tryItOut 877
Compiling threw: SyntaxError: missing variable name

tryItOut 878
Running threw: ReferenceError: window is not defined

tryItOut 879

tryItOut 880

tryItOut 881
Running threw: TypeError: /x/g.__lookupGetter__("prop") has no properties

tryItOut 882

tryItOut 883
Compiling threw: SyntaxError: syntax error

tryItOut 884

tryItOut 885
Compiling threw: SyntaxError: invalid default XML namespace

tryItOut 886

tryItOut 887

tryItOut 888

tryItOut 889
Compiling threw: SyntaxError: invalid for/in left-hand side

tryItOut 890

tryItOut 891

tryItOut 892

tryItOut 893
Compiling threw: SyntaxError: missing { before function body

tryItOut 894
Compiling threw: SyntaxError: invalid assignment left-hand side

tryItOut 895
Running threw: TypeError: this.zzz has no properties

tryItOut 896
Compiling threw: SyntaxError: syntax error

tryItOut 897
Running threw: ReferenceError: window is not defined

tryItOut 898
Compiling threw: SyntaxError: missing : after property id

tryItOut 899
Compiling threw: SyntaxError: syntax error

tryItOut 900
Compiling threw: SyntaxError: invalid assignment left-hand side

tryItOut 901
Compiling threw: SyntaxError: invalid for/in left-hand side

tryItOut 902

tryItOut 903
Compiling threw: SyntaxError: missing } after let block

tryItOut 904
It's an iterator!
Iterating threw!
Iterating threw: ReferenceError: window is not defined

tryItOut 905

tryItOut 906
Compiling threw: SyntaxError: missing ) after argument list

tryItOut 907

tryItOut 908
Compiling threw: SyntaxError: invalid assignment left-hand side

tryItOut 909

tryItOut 910
Compiling threw: SyntaxError: illegal XML character

tryItOut 911

tryItOut 912
Compiling threw: SyntaxError: invalid for/in left-hand side

tryItOut 913

tryItOut 914
Compiling threw: SyntaxError: missing ) in parenthetical

tryItOut 915

tryItOut 916
Compiling threw: SyntaxError: duplicate label

tryItOut 917

tryItOut 918

tryItOut 919
Compiling threw: SyntaxError: syntax error

tryItOut 920
Compiling threw: SyntaxError: syntax error

tryItOut 921
Compiling threw: SyntaxError: invalid destructuring assignment operator

tryItOut 922

tryItOut 923

tryItOut 924
Compiling threw: SyntaxError: syntax error

tryItOut 925
Compiling threw: SyntaxError: missing ) in parenthetical

tryItOut 926
Compiling threw: TypeError: redeclaration of var __parent__

tryItOut 927

tryItOut 928

tryItOut 929
Compiling threw: SyntaxError: syntax error

tryItOut 930
Compiling threw: SyntaxError: invalid XML name

tryItOut 931

tryItOut 932

tryItOut 933
Compiling threw: SyntaxError: invalid assignment left-hand side

tryItOut 934
Compiling threw: SyntaxError: syntax error

tryItOut 935

tryItOut 936

tryItOut 937

tryItOut 938
Compiling threw: SyntaxError: invalid assignment left-hand side

tryItOut 939

tryItOut 940

tryItOut 941
Compiling threw: SyntaxError: invalid decrement operand

tryItOut 942

tryItOut 943

tryItOut 944

tryItOut 945

tryItOut 946
Compiling threw: SyntaxError: invalid for/in left-hand side

tryItOut 947
Compiling threw: SyntaxError: missing ) in parenthetical

tryItOut 948
Compiling threw: SyntaxError: missing variable name

tryItOut 949
Compiling threw: SyntaxError: missing ) after condition

tryItOut 950

tryItOut 951
Running threw: ReferenceError: z2 is not defined

tryItOut 952
Compiling threw: SyntaxError: missing { before function body

tryItOut 953

tryItOut 954

tryItOut 955
Compiling threw: SyntaxError: syntax error

tryItOut 956
Compiling threw: SyntaxError: syntax error

tryItOut 957
Compiling threw: SyntaxError: missing ) after condition

tryItOut 958

tryItOut 959

tryItOut 960
Compiling threw: SyntaxError: syntax error

tryItOut 961
Compiling threw: SyntaxError: missing { before function body

tryItOut 962

tryItOut 963

tryItOut 964

tryItOut 965

tryItOut 966

tryItOut 967
Compiling threw: SyntaxError: illegal XML character

tryItOut 968
Compiling threw: SyntaxError: missing = in destructuring declaration

tryItOut 969
Compiling threw: SyntaxError: syntax error

tryItOut 970
Compiling threw: SyntaxError: syntax error

tryItOut 971
Running threw: TypeError: constructor is not a constructor

tryItOut 972

tryItOut 973

tryItOut 974

tryItOut 975
Compiling threw: SyntaxError: invalid assignment left-hand side

tryItOut 976
Compiling threw: SyntaxError: syntax error

tryItOut 977

tryItOut 978

tryItOut 979

tryItOut 980

tryItOut 981
Compiling threw: SyntaxError: illegal XML character

tryItOut 982

tryItOut 983
Running threw: TypeError: this.zzz has no properties

tryItOut 984
Running threw: TypeError: {__proto__:"", __proto__:__parent__}.__defineSetter__ is not a function

tryItOut 985
Compiling threw: SyntaxError: invalid property id

tryItOut 986

tryItOut 987

tryItOut 988

tryItOut 989
Compiling threw: TypeError: redeclaration of var prototype

tryItOut 990

tryItOut 991

tryItOut 992

tryItOut 993

tryItOut 994

tryItOut 995

tryItOut 996
Compiling threw: SyntaxError: syntax error

tryItOut 997

tryItOut 998
Running threw: ReferenceError: window is not defined

tryItOut 999

tryItOut 1000

ALL OK

Script done on Sat 04 May 2013 07:21:04 AM PDT
