Script started on Sat 04 May 2013 07:23:13 AM PDT
***
Targeting SpiderMonkey / Gecko.

tryItOut 1

tryItOut 2
Compiling threw: SyntaxError: syntax error

tryItOut 3
Compiling threw: SyntaxError: missing variable name

tryItOut 4
Running threw: ReferenceError: reference to undefined XML name *::*

tryItOut 5
Compiling threw: SyntaxError: syntax error

tryItOut 6
Running threw: ReferenceError: reference to undefined XML name *

tryItOut 7
Compiling threw: TypeError: redeclaration of const constructor

tryItOut 8
Compiling threw: SyntaxError: missing ) after argument list

tryItOut 9
Compiling threw: SyntaxError: invalid for/in left-hand side

tryItOut 10
Compiling threw: SyntaxError: syntax error

tryItOut 11
Compiling threw: SyntaxError: syntax error

tryItOut 12
Compiling threw: SyntaxError: missing variable name

tryItOut 13
Compiling threw: TypeError: redeclaration of variable __noSuchMethod__

tryItOut 14
Compiling threw: SyntaxError: syntax error

tryItOut 15
Compiling threw: SyntaxError: missing ) in parenthetical

tryItOut 16
Compiling threw: SyntaxError: missing ; before statement

tryItOut 17

tryItOut 18
Compiling threw: SyntaxError: invalid increment operand

tryItOut 19
Compiling threw: SyntaxError: missing ; after for-loop initializer

tryItOut 20
Compiling threw: SyntaxError: missing variable name

tryItOut 21
Compiling threw: SyntaxError: missing ) in parenthetical

tryItOut 22
Compiling threw: TypeError: redeclaration of var __proto__

tryItOut 23
Compiling threw: SyntaxError: missing ; before statement

tryItOut 24
Compiling threw: SyntaxError: missing while after do-loop body

tryItOut 25
Compiling threw: TypeError: redeclaration of variable prototype

tryItOut 26
Running threw: ReferenceError: prototype is not defined

tryItOut 27
Running threw: ReferenceError: window is not defined

tryItOut 28

tryItOut 29
Compiling threw: SyntaxError: missing ; before statement

tryItOut 30
Compiling threw: SyntaxError: missing while after do-loop body

tryItOut 31
Compiling threw: SyntaxError: missing variable name

tryItOut 32
Compiling threw: SyntaxError: missing formal parameter

tryItOut 33
Compiling threw: SyntaxError: missing ) after let head

tryItOut 34
Compiling threw: TypeError: redeclaration of const __iterator__

tryItOut 35
Compiling threw: SyntaxError: invalid for/in left-hand side

tryItOut 36
Compiling threw: SyntaxError: missing variable name

tryItOut 37

tryItOut 38

tryItOut 39
Compiling threw: SyntaxError: syntax error

tryItOut 40
Compiling threw: SyntaxError: invalid for/in left-hand side

tryItOut 41
Running threw: ReferenceError: __noSuchMethod__ is not defined

tryItOut 42
Compiling threw: SyntaxError: syntax error

tryItOut 43
Running threw: ReferenceError: __iterator__ is not defined

tryItOut 44

tryItOut 45
Compiling threw: SyntaxError: missing variable name

tryItOut 46
It's an iterator!
Iterating succeeded, iterCount == 1

tryItOut 47

tryItOut 48
It's an iterator!
Iterating succeeded, iterCount == 0

tryItOut 49

tryItOut 50
It's an iterator!
Iterating succeeded, iterCount == 1

tryItOut 51
Compiling threw: SyntaxError: syntax error

tryItOut 52
Compiling threw: SyntaxError: missing while after do-loop body

tryItOut 53
It's an iterator!
Iterating succeeded, iterCount == 1

tryItOut 54

tryItOut 55
Compiling threw: SyntaxError: invalid destructuring assignment operator

tryItOut 56
Compiling threw: SyntaxError: missing variable name

tryItOut 57
It's an iterator!
Iterating succeeded, iterCount == 1

tryItOut 58

tryItOut 59

tryItOut 60
Compiling threw: SyntaxError: syntax error

tryItOut 61
Compiling threw: SyntaxError: missing } after let block

tryItOut 62
It's an iterator!
Iterating threw!
Iterating threw: ReferenceError: window is not defined

tryItOut 63

tryItOut 64
Compiling threw: SyntaxError: syntax error

tryItOut 65
Compiling threw: SyntaxError: yield expression must be parenthesized

tryItOut 66

tryItOut 67
Compiling threw: SyntaxError: syntax error

tryItOut 68

tryItOut 69
Running threw: TypeError: this.zzz has no properties

tryItOut 70
Running threw: ReferenceError: prop is not defined

tryItOut 71
Compiling threw: SyntaxError: syntax error

tryItOut 72

tryItOut 73
before 104640, after 104640, break 01c94000

tryItOut 74
Compiling threw: SyntaxError: missing ; before statement

tryItOut 75
It's an iterator!
Iterating threw!
Iterating threw: ReferenceError: prototype is not defined

tryItOut 76
Compiling threw: TypeError: redeclaration of variable constructor

tryItOut 77
It's an iterator!
Iterating threw!
Iterating threw: ReferenceError: reference to undefined XML name *

tryItOut 78
Compiling threw: SyntaxError: missing ; before statement

tryItOut 79

tryItOut 80

tryItOut 81
Compiling threw: SyntaxError: syntax error

tryItOut 82
Compiling threw: SyntaxError: missing ( before let head

tryItOut 83

tryItOut 84
Compiling threw: SyntaxError: invalid for/in left-hand side

tryItOut 85
Compiling threw: SyntaxError: missing variable name

tryItOut 86
Running threw: ReferenceError: window is not defined

tryItOut 87
Compiling threw: SyntaxError: missing ; before statement

tryItOut 88

tryItOut 89
Compiling threw: SyntaxError: missing { before function body

tryItOut 90
Compiling threw: SyntaxError: invalid assignment left-hand side

tryItOut 91
Running threw: ReferenceError: z1 is not defined

tryItOut 92

tryItOut 93

tryItOut 94

tryItOut 95
Compiling threw: SyntaxError: missing ; after for-loop initializer

tryItOut 96
Compiling threw: SyntaxError: missing } after let block

tryItOut 97
Compiling threw: SyntaxError: invalid for/in left-hand side

tryItOut 98
Running threw: [object global]

tryItOut 99
Running threw: ReferenceError: prototype is not defined

tryItOut 100

tryItOut 101

tryItOut 102

tryItOut 103
Compiling threw: SyntaxError: missing = in destructuring declaration

tryItOut 104
It's an iterator!
Iterating threw!
Iterating threw: TypeError: redeclaration of var __count__

tryItOut 105

tryItOut 106
Compiling threw: SyntaxError: invalid for each loop

tryItOut 107

tryItOut 108

tryItOut 109
Compiling threw: SyntaxError: missing ; after for-loop initializer

tryItOut 110
Compiling threw: SyntaxError: syntax error

tryItOut 111
Running threw: TypeError: redeclaration of function __proto__

tryItOut 112
Compiling threw: SyntaxError: missing variable name

tryItOut 113
Compiling threw: SyntaxError: syntax error

tryItOut 114

tryItOut 115
Compiling threw: SyntaxError: missing ( before let head

tryItOut 116
Running threw: ReferenceError: z1 is not defined

tryItOut 117

tryItOut 118
It's an iterator!
Iterating threw!
Iterating threw: TypeError: this.zzz has no properties

tryItOut 119
Running threw: ReferenceError: window is not defined

tryItOut 120
Running threw: <y>
  <z/>
</y>

tryItOut 121

tryItOut 122
Compiling threw: SyntaxError: missing while after do-loop body

tryItOut 123
Compiling threw: SyntaxError: invalid increment operand

tryItOut 124
It's an iterator!
Iterating threw!
Iterating threw: <y>
  <z/>
</y>

tryItOut 125

tryItOut 126
Compiling threw: SyntaxError: invalid assignment left-hand side

tryItOut 127

tryItOut 128
It's an iterator!
Iterating threw!
Iterating threw: ReferenceError: reference to undefined XML name *

tryItOut 129

tryItOut 130

tryItOut 131
Compiling threw: TypeError: redeclaration of const __iterator__

tryItOut 132
Compiling threw: SyntaxError: duplicate label

tryItOut 133
Running threw: ReferenceError: reference to undefined XML name *

tryItOut 134

tryItOut 135
It's an iterator!
Iterating succeeded, iterCount == 1

tryItOut 136
Compiling threw: SyntaxError: invalid assignment left-hand side

tryItOut 137
Compiling threw: SyntaxError: missing ; before statement

tryItOut 138
Compiling threw: SyntaxError: missing ) after switch expression

tryItOut 139

tryItOut 140
Compiling threw: SyntaxError: syntax error

tryItOut 141

tryItOut 142

tryItOut 143
Compiling threw: SyntaxError: missing ; before statement

tryItOut 144
Compiling threw: SyntaxError: syntax error

tryItOut 145

tryItOut 146
Compiling threw: SyntaxError: missing variable name

tryItOut 147
Running threw: ReferenceError: z1 is not defined

tryItOut 148

tryItOut 149

tryItOut 150
Compiling threw: SyntaxError: invalid for/in left-hand side

tryItOut 151
Running threw: ReferenceError: get is not defined

tryItOut 152
Compiling threw: SyntaxError: syntax error

tryItOut 153
Compiling threw: SyntaxError: syntax error

tryItOut 154
Compiling threw: SyntaxError: invalid for/in left-hand side

tryItOut 155
Compiling threw: SyntaxError: invalid decrement operand

tryItOut 156
It's an iterator!
Iterating threw!
Iterating threw: ReferenceError: prototype is not defined

tryItOut 157
Running threw: ReferenceError: window is not defined

tryItOut 158

tryItOut 159

tryItOut 160
Running threw: Error: invalid sharp variable use #1#

tryItOut 161

tryItOut 162
Compiling threw: SyntaxError: invalid for/in left-hand side

tryItOut 163
Compiling threw: SyntaxError: missing ; before statement

tryItOut 164
Running threw: ReferenceError: prototype is not defined

tryItOut 165

tryItOut 166
Compiling threw: SyntaxError: missing variable name

tryItOut 167
Compiling threw: SyntaxError: syntax error

tryItOut 168

tryItOut 169
Running threw: ReferenceError: window is not defined

tryItOut 170

tryItOut 171
Compiling threw: SyntaxError: missing variable name

tryItOut 172
Compiling threw: SyntaxError: invalid assignment left-hand side

tryItOut 173

tryItOut 174
Compiling threw: SyntaxError: missing ; before statement

tryItOut 175
Compiling threw: SyntaxError: invalid for/in left-hand side

tryItOut 176
Compiling threw: SyntaxError: missing ) in parenthetical

tryItOut 177
Compiling threw: SyntaxError: missing ; before statement

tryItOut 178
Compiling threw: SyntaxError: invalid for/in left-hand side

tryItOut 179
Compiling threw: SyntaxError: missing ; before statement

tryItOut 180
Compiling threw: SyntaxError: syntax error

tryItOut 181
Running threw: <y>
  <z/>
</y>

tryItOut 182

tryItOut 183
Compiling threw: SyntaxError: missing variable name

tryItOut 184
Running threw: Error: invalid sharp variable use #1#

tryItOut 185
It's an iterator!
Iterating succeeded, iterCount == 1

tryItOut 186
Running threw: ReferenceError: prototype is not defined

tryItOut 187
Compiling threw: SyntaxError: syntax error

tryItOut 188
Compiling threw: SyntaxError: syntax error

tryItOut 189
Running threw: ReferenceError: reference to undefined XML name *::*

tryItOut 190

tryItOut 191

tryItOut 192
Compiling threw: SyntaxError: invalid for/in left-hand side

tryItOut 193
Running threw: [object global]

tryItOut 194
Compiling threw: SyntaxError: invalid for/in left-hand side

tryItOut 195
Compiling threw: SyntaxError: syntax error

tryItOut 196

tryItOut 197
Compiling threw: SyntaxError: invalid assignment left-hand side

tryItOut 198
Compiling threw: TypeError: redeclaration of var __proto__

tryItOut 199
Running threw: ReferenceError: reference to undefined XML name *

tryItOut 200
Compiling threw: SyntaxError: invalid destructuring assignment operator

tryItOut 201
Compiling threw: SyntaxError: invalid for/in left-hand side

tryItOut 202
Compiling threw: SyntaxError: missing variable name

tryItOut 203
Compiling threw: SyntaxError: missing { before function body

tryItOut 204
It's an iterator!
Iterating threw!
Iterating threw: ReferenceError: reference to undefined XML name @foo

tryItOut 205
Compiling threw: SyntaxError: missing while after do-loop body

tryItOut 206
Compiling threw: SyntaxError: invalid label

tryItOut 207
It's an iterator!
Iterating succeeded, iterCount == 1

tryItOut 208
Compiling threw: SyntaxError: syntax error

tryItOut 209
Compiling threw: SyntaxError: syntax error

tryItOut 210
Compiling threw: SyntaxError: missing ) in parenthetical

tryItOut 211
Compiling threw: SyntaxError: invalid for each loop

tryItOut 212
Compiling threw: SyntaxError: syntax error

tryItOut 213

tryItOut 214

tryItOut 215
Compiling threw: TypeError: redeclaration of var prop

tryItOut 216
Running threw: TypeError: this.zzz has no properties

tryItOut 217
Compiling threw: SyntaxError: missing variable name

tryItOut 218
Compiling threw: SyntaxError: missing } after let block

tryItOut 219

tryItOut 220

tryItOut 221
Compiling threw: SyntaxError: missing ; before statement

tryItOut 222

tryItOut 223

tryItOut 224

tryItOut 225
before 156960, after 156960, break 01d19000

tryItOut 226

tryItOut 227
Compiling threw: SyntaxError: missing ( before let head

tryItOut 228
Compiling threw: SyntaxError: missing variable name

tryItOut 229
Running threw: ReferenceError: window is not defined

tryItOut 230

tryItOut 231
Running threw: TypeError: RangeError()['throw'] is not a function

tryItOut 232
Compiling threw: SyntaxError: missing ; after for-loop initializer

tryItOut 233
Compiling threw: SyntaxError: missing { before function body

tryItOut 234
Compiling threw: SyntaxError: missing variable name

tryItOut 235

tryItOut 236
before 156960, after 156960, break 01d13000
Running threw: <y>
  <z/>
</y>

tryItOut 237

tryItOut 238

tryItOut 239
Compiling threw: SyntaxError: invalid for/in left-hand side

tryItOut 240
Compiling threw: SyntaxError: invalid for/in left-hand side

tryItOut 241
Compiling threw: SyntaxError: syntax error

tryItOut 242
Compiling threw: SyntaxError: invalid for/in left-hand side

tryItOut 243
Running threw: TypeError: p.z = <x><y/></x>.(<y><z/></y>) is not a function

tryItOut 244

tryItOut 245
Compiling threw: SyntaxError: missing ; before statement

tryItOut 246

tryItOut 247
Running threw: ReferenceError: reference to undefined XML name *

tryItOut 248
It's an iterator!
Iterating threw!
Iterating threw: ReferenceError: reference to undefined XML name @foo

tryItOut 249
Compiling threw: SyntaxError: syntax error

tryItOut 250
Compiling threw: SyntaxError: missing } after let block

tryItOut 251
Compiling threw: SyntaxError: invalid for/in left-hand side

tryItOut 252

tryItOut 253

tryItOut 254

tryItOut 255
Compiling threw: SyntaxError: missing ) after condition

tryItOut 256
Compiling threw: SyntaxError: syntax error

tryItOut 257
Compiling threw: SyntaxError: syntax error

tryItOut 258
Compiling threw: SyntaxError: invalid assignment left-hand side

tryItOut 259
Compiling threw: TypeError: redeclaration of variable __iterator__

tryItOut 260
Compiling threw: SyntaxError: syntax error

tryItOut 261
Compiling threw: SyntaxError: syntax error

tryItOut 262
Compiling threw: SyntaxError: missing variable name

tryItOut 263
Compiling threw: SyntaxError: invalid for/in left-hand side

tryItOut 264
Compiling threw: SyntaxError: invalid for/in left-hand side

tryItOut 265
before 156960, after 156960, break 01d13000

tryItOut 266
Compiling threw: SyntaxError: missing variable name

tryItOut 267
Compiling threw: SyntaxError: invalid for each loop

tryItOut 268

tryItOut 269

tryItOut 270

tryItOut 271

tryItOut 272
Compiling threw: SyntaxError: missing { before function body

tryItOut 273

tryItOut 274
Compiling threw: SyntaxError: missing ; after for-loop initializer

tryItOut 275
Compiling threw: SyntaxError: invalid for/in left-hand side

tryItOut 276
Compiling threw: SyntaxError: syntax error

tryItOut 277

tryItOut 278
Compiling threw: SyntaxError: invalid assignment left-hand side

tryItOut 279

tryItOut 280

tryItOut 281
Compiling threw: SyntaxError: invalid assignment left-hand side

tryItOut 282
Compiling threw: SyntaxError: missing ) in parenthetical

tryItOut 283
Compiling threw: SyntaxError: syntax error

tryItOut 284

tryItOut 285

tryItOut 286

tryItOut 287

tryItOut 288

tryItOut 289
Running threw: ReferenceError: reference to undefined XML name *::*

tryItOut 290
It's an iterator!
Iterating succeeded, iterCount == 0

tryItOut 291
Compiling threw: SyntaxError: missing ) in parenthetical

tryItOut 292

tryItOut 293
Running threw: TypeError: arguments[0] has no properties

tryItOut 294

tryItOut 295
It's an iterator!
Iterating succeeded, iterCount == 1

tryItOut 296

tryItOut 297

tryItOut 298

tryItOut 299
Compiling threw: SyntaxError: missing variable name

tryItOut 300

tryItOut 301
before 156960, after 156960, break 01d13000

tryItOut 302
It's an iterator!
Iterating threw!
Iterating threw: ReferenceError: reference to undefined XML name *

tryItOut 303
Compiling threw: SyntaxError: duplicate label

tryItOut 304
Running threw: ReferenceError: window is not defined

tryItOut 305
Compiling threw: SyntaxError: invalid increment operand

tryItOut 306

tryItOut 307
It's an iterator!
Iterating succeeded, iterCount == 1

tryItOut 308
Running threw: ReferenceError: z1 is not defined

tryItOut 309
It's an iterator!
Iterating succeeded, iterCount == 1

tryItOut 310
It's an iterator!
Iterating threw!
Iterating threw: ReferenceError: reference to undefined XML name *

tryItOut 311

tryItOut 312

tryItOut 313
Compiling threw: SyntaxError: missing variable name

tryItOut 314

tryItOut 315
Compiling threw: SyntaxError: syntax error

tryItOut 316

tryItOut 317
Compiling threw: SyntaxError: syntax error

tryItOut 318

tryItOut 319
Compiling threw: TypeError: redeclaration of const __noSuchMethod__

tryItOut 320
It's an iterator!
Iterating succeeded, iterCount == 1

tryItOut 321

tryItOut 322
Compiling threw: SyntaxError: missing { before function body

tryItOut 323

tryItOut 324

tryItOut 325

tryItOut 326
Compiling threw: SyntaxError: missing ) in parenthetical

tryItOut 327
Compiling threw: SyntaxError: missing ) after condition

tryItOut 328
It's an iterator!
Iterating succeeded, iterCount == 1

tryItOut 329
Compiling threw: SyntaxError: missing variable name

tryItOut 330
before 156960, after 156960, break 01d13000

tryItOut 331
Compiling threw: SyntaxError: invalid decrement operand

tryItOut 332
Compiling threw: SyntaxError: invalid increment operand

tryItOut 333

tryItOut 334

tryItOut 335
Compiling threw: SyntaxError: missing variable name

tryItOut 336
Compiling threw: SyntaxError: syntax error

tryItOut 337
Compiling threw: SyntaxError: missing variable name

tryItOut 338
Compiling threw: TypeError: redeclaration of const constructor

tryItOut 339
It's an iterator!
Iterating succeeded, iterCount == 1

tryItOut 340
Compiling threw: SyntaxError: invalid assignment left-hand side

tryItOut 341

tryItOut 342
Compiling threw: SyntaxError: missing ; before statement

tryItOut 343
Compiling threw: TypeError: redeclaration of variable prototype

tryItOut 344
Compiling threw: SyntaxError: missing ; before statement

tryItOut 345
Running threw: ReferenceError: x is not defined

tryItOut 346
Running threw: ReferenceError: prototype is not defined

tryItOut 347
It's an iterator!
Iterating threw!
Iterating threw: ReferenceError: window is not defined

tryItOut 348
Running threw: ReferenceError: prototype is not defined

tryItOut 349
It's an iterator!
Iterating threw!
Iterating threw: TypeError: <x/> is not a constructor

tryItOut 350

tryItOut 351

tryItOut 352
Compiling threw: SyntaxError: missing variable name

tryItOut 353
Compiling threw: SyntaxError: syntax error

tryItOut 354

tryItOut 355
Compiling threw: SyntaxError: invalid for each loop

tryItOut 356

tryItOut 357
Running threw: ReferenceError: reference to undefined XML name @foo

tryItOut 358
Running threw: ReferenceError: window is not defined

tryItOut 359
Running threw: ReferenceError: prototype is not defined

tryItOut 360
It's an iterator!
Iterating succeeded, iterCount == 1

tryItOut 361
Compiling threw: TypeError: redeclaration of variable constructor

tryItOut 362
Compiling threw: SyntaxError: invalid for/in left-hand side

tryItOut 363
Running threw: Error: invalid sharp variable use #1#

tryItOut 364
Compiling threw: SyntaxError: missing ; before statement

tryItOut 365

tryItOut 366
Compiling threw: SyntaxError: invalid for each loop

tryItOut 367
Compiling threw: SyntaxError: missing variable name

tryItOut 368
Running threw: ReferenceError: window is not defined

tryItOut 369

tryItOut 370
Compiling threw: SyntaxError: missing { before function body

tryItOut 371
Compiling threw: SyntaxError: invalid for/in left-hand side

tryItOut 372

tryItOut 373
Compiling threw: SyntaxError: invalid for/in left-hand side

tryItOut 374
Compiling threw: SyntaxError: invalid for each loop

tryItOut 375
Compiling threw: SyntaxError: syntax error

tryItOut 376
Running threw: function Object() {
    [native code]
}

tryItOut 377
Compiling threw: SyntaxError: missing ) in parenthetical

tryItOut 378
Compiling threw: SyntaxError: syntax error

tryItOut 379

tryItOut 380

tryItOut 381

tryItOut 382
Compiling threw: SyntaxError: invalid for each loop

tryItOut 383

tryItOut 384

tryItOut 385

tryItOut 386
Running threw: ReferenceError: window is not defined

tryItOut 387

tryItOut 388

tryItOut 389
Running threw: ReferenceError: window is not defined

tryItOut 390

tryItOut 391

tryItOut 392
Compiling threw: SyntaxError: missing = in destructuring declaration

tryItOut 393

tryItOut 394
Compiling threw: SyntaxError: missing ; before statement

tryItOut 395
Compiling threw: SyntaxError: missing while after do-loop body

tryItOut 396
Compiling threw: SyntaxError: missing ) after let head

tryItOut 397

tryItOut 398
Running threw: <y>
  <z/>
</y>

tryItOut 399
It's an iterator!
Iterating threw!
Iterating threw: ReferenceError: reference to undefined XML name *::*

tryItOut 400
Compiling threw: SyntaxError: missing } after let block

tryItOut 401
Compiling threw: SyntaxError: missing { before function body

tryItOut 402
It's an iterator!
Iterating threw!
Iterating threw: ReferenceError: window is not defined

tryItOut 403

tryItOut 404

tryItOut 405
It's an iterator!
Iterating threw!
Iterating threw: ReferenceError: reference to undefined XML name @mozilla.org/js/function::prototype

tryItOut 406
It's an iterator!
Iterating threw!
Iterating threw: ReferenceError: reference to undefined XML name *::*

tryItOut 407

tryItOut 408
Compiling threw: SyntaxError: missing variable name

tryItOut 409
Compiling threw: SyntaxError: missing variable name

tryItOut 410
Compiling threw: SyntaxError: syntax error

tryItOut 411
Compiling threw: SyntaxError: missing ; before statement

tryItOut 412
Compiling threw: SyntaxError: missing variable name

tryItOut 413

tryItOut 414

tryItOut 415
Running threw: ReferenceError: z1 is not defined

tryItOut 416
Compiling threw: SyntaxError: missing variable name

tryItOut 417
Compiling threw: SyntaxError: missing ; before statement

tryItOut 418
Compiling threw: SyntaxError: invalid for/in left-hand side

tryItOut 419
before 156960, after 156960, break 01d2b000

tryItOut 420
Compiling threw: SyntaxError: invalid decrement operand

tryItOut 421

tryItOut 422
It's an iterator!
Iterating succeeded, iterCount == 1

tryItOut 423
Compiling threw: SyntaxError: invalid default XML namespace

tryItOut 424
It's an iterator!
Iterating threw!
Iterating threw: ReferenceError: reference to undefined XML name *

tryItOut 425
It's an iterator!
Iterating succeeded, iterCount == 0

tryItOut 426
Compiling threw: SyntaxError: missing ; before statement

tryItOut 427
Compiling threw: SyntaxError: invalid decrement operand

tryItOut 428
Compiling threw: SyntaxError: syntax error

tryItOut 429
Compiling threw: SyntaxError: missing ; before statement

tryItOut 430

tryItOut 431
It's an iterator!
Iterating succeeded, iterCount == 1

tryItOut 432
Running threw: ReferenceError: reference to undefined XML name *

tryItOut 433
Compiling threw: SyntaxError: missing { before function body

tryItOut 434
Compiling threw: SyntaxError: invalid for/in left-hand side

tryItOut 435

tryItOut 436

tryItOut 437
Compiling threw: SyntaxError: syntax error

tryItOut 438
Compiling threw: TypeError: redeclaration of var prop

tryItOut 439
Compiling threw: SyntaxError: missing ; before statement

tryItOut 440
Compiling threw: SyntaxError: missing ; after for-loop initializer

tryItOut 441
Running threw: SyntaxError: invalid assignment left-hand side

tryItOut 442

tryItOut 443
It's an iterator!
Iterating succeeded, iterCount == 1

tryItOut 444
It's an iterator!
Iterating threw!
Iterating threw: ReferenceError: z1 is not defined

tryItOut 445
Compiling threw: SyntaxError: missing { before function body

tryItOut 446

tryItOut 447
Running threw: 

tryItOut 448
Compiling threw: SyntaxError: missing ; before statement

tryItOut 449
Compiling threw: SyntaxError: syntax error

tryItOut 450

tryItOut 451
Compiling threw: SyntaxError: missing ; before statement

tryItOut 452
Compiling threw: SyntaxError: missing { before function body

tryItOut 453
Compiling threw: SyntaxError: missing variable name

tryItOut 454
Compiling threw: SyntaxError: missing ; before statement

tryItOut 455
Compiling threw: SyntaxError: missing ; before statement

tryItOut 456
Running threw: ReferenceError: z1 is not defined

tryItOut 457
Compiling threw: SyntaxError: syntax error

tryItOut 458
Compiling threw: SyntaxError: missing variable name

tryItOut 459

tryItOut 460

tryItOut 461
Compiling threw: SyntaxError: missing ; after for-loop initializer

tryItOut 462

tryItOut 463
Compiling threw: SyntaxError: syntax error

tryItOut 464
Compiling threw: SyntaxError: invalid assignment left-hand side

tryItOut 465
Compiling threw: SyntaxError: missing ( before let head

tryItOut 466

tryItOut 467
Compiling threw: SyntaxError: missing variable name

tryItOut 468
Compiling threw: SyntaxError: missing variable name

tryItOut 469

tryItOut 470
Compiling threw: SyntaxError: invalid assignment left-hand side

tryItOut 471

tryItOut 472
It's an iterator!
Iterating threw!
Iterating threw: ReferenceError: reference to undefined XML name @foo

tryItOut 473
Compiling threw: SyntaxError: syntax error

tryItOut 474
It's an iterator!
Iterating succeeded, iterCount == 1

tryItOut 475
Compiling threw: SyntaxError: missing } after let block

tryItOut 476
Compiling threw: SyntaxError: syntax error

tryItOut 477
Compiling threw: SyntaxError: missing variable name

tryItOut 478
Compiling threw: SyntaxError: syntax error

tryItOut 479

tryItOut 480
Compiling threw: TypeError: redeclaration of var __parent__

tryItOut 481
Compiling threw: SyntaxError: missing ) after condition

tryItOut 482

tryItOut 483
Compiling threw: SyntaxError: invalid for/in left-hand side

tryItOut 484
It's an iterator!
Iterating succeeded, iterCount == 1

tryItOut 485
It's an iterator!
Iterating succeeded, iterCount == 1

tryItOut 486
Running threw: ReferenceError: window is not defined

tryItOut 487
Running threw: Error: invalid sharp variable use #1#

tryItOut 488
It's an iterator!
Iterating threw!
Iterating threw: ReferenceError: reference to undefined XML name *

tryItOut 489
Compiling threw: SyntaxError: invalid for each loop

tryItOut 490

tryItOut 491

tryItOut 492
Compiling threw: SyntaxError: duplicate label

tryItOut 493
Running threw: TypeError: this.zzz has no properties

tryItOut 494
Compiling threw: SyntaxError: missing ; before statement

tryItOut 495

tryItOut 496
Compiling threw: SyntaxError: invalid assignment left-hand side

tryItOut 497

tryItOut 498
Compiling threw: SyntaxError: syntax error

tryItOut 499

tryItOut 500

tryItOut 501
Compiling threw: SyntaxError: syntax error

tryItOut 502
Compiling threw: SyntaxError: missing variable name

tryItOut 503
It's an iterator!
Iterating succeeded, iterCount == 1

tryItOut 504
Compiling threw: SyntaxError: missing ; before statement

tryItOut 505
It's an iterator!
Iterating succeeded, iterCount == 1

tryItOut 506
Compiling threw: SyntaxError: syntax error

tryItOut 507

tryItOut 508
Running threw: ReferenceError: reference to undefined XML name @foo

tryItOut 509
Compiling threw: SyntaxError: missing variable name

tryItOut 510

tryItOut 511
Compiling threw: SyntaxError: missing variable name

tryItOut 512
Running threw: ReferenceError: reference to undefined XML name @foo

tryItOut 513

tryItOut 514

tryItOut 515
It's an iterator!
Iterating succeeded, iterCount == 1

tryItOut 516
Compiling threw: SyntaxError: missing { before function body

tryItOut 517
Compiling threw: SyntaxError: missing ; before statement

tryItOut 518
Compiling threw: SyntaxError: invalid assignment left-hand side

tryItOut 519
Running threw: 

tryItOut 520
Running threw: ReferenceError: z2 is not defined

tryItOut 521
Compiling threw: SyntaxError: duplicate label

tryItOut 522
Compiling threw: TypeError: redeclaration of const __parent__

tryItOut 523
It's an iterator!
Iterating threw!
Iterating threw: ReferenceError: reference to undefined XML name *

tryItOut 524

tryItOut 525
It's an iterator!
Iterating threw!
Iterating threw: [object global]

tryItOut 526
Compiling threw: SyntaxError: invalid for/in left-hand side

tryItOut 527
It's an iterator!
Iterating threw!
Iterating threw: ReferenceError: reference to undefined XML name *

tryItOut 528

tryItOut 529
Compiling threw: SyntaxError: missing ; after for-loop initializer

tryItOut 530
Compiling threw: SyntaxError: invalid for each loop

tryItOut 531

tryItOut 532
It's an iterator!
Iterating threw!
Iterating threw: ReferenceError: z1 is not defined

tryItOut 533
It's an iterator!
Iterating threw!
Iterating threw: ReferenceError: window is not defined

tryItOut 534
Compiling threw: SyntaxError: missing variable name

tryItOut 535
It's an iterator!
Iterating threw!
Iterating threw: ReferenceError: reference to undefined XML name *

tryItOut 536
Compiling threw: SyntaxError: syntax error

tryItOut 537

tryItOut 538

tryItOut 539

tryItOut 540
Compiling threw: SyntaxError: invalid assignment left-hand side

tryItOut 541
It's an iterator!
Iterating threw!
Iterating threw: ReferenceError: reference to undefined XML name @foo

tryItOut 542
before 191840, after 191840, break 01d61000

tryItOut 543
Running threw: ReferenceError: reference to undefined XML name *::*

tryItOut 544
Running threw: ReferenceError: window is not defined

tryItOut 545
Running threw: SyntaxError: invalid assignment left-hand side

tryItOut 546

tryItOut 547

tryItOut 548

tryItOut 549

tryItOut 550
Compiling threw: SyntaxError: invalid for/in left-hand side

tryItOut 551
Compiling threw: SyntaxError: syntax error

tryItOut 552
Compiling threw: TypeError: redeclaration of variable __noSuchMethod__

tryItOut 553
Compiling threw: SyntaxError: invalid assignment left-hand side

tryItOut 554

tryItOut 555
Compiling threw: SyntaxError: invalid destructuring assignment operator

tryItOut 556
It's an iterator!
Iterating succeeded, iterCount == 2

tryItOut 557
Compiling threw: SyntaxError: missing { before function body

tryItOut 558
It's an iterator!
Iterating succeeded, iterCount == 1

tryItOut 559
Compiling threw: SyntaxError: missing variable name

tryItOut 560
Compiling threw: SyntaxError: missing ; before statement

tryItOut 561
Compiling threw: SyntaxError: missing ) after switch expression

tryItOut 562
Compiling threw: SyntaxError: missing variable name

tryItOut 563
It's an iterator!
Iterating succeeded, iterCount == 0

tryItOut 564
Compiling threw: SyntaxError: missing ; before statement

tryItOut 565
Compiling threw: TypeError: redeclaration of const constructor

tryItOut 566
Running threw: ReferenceError: window is not defined

tryItOut 567
Compiling threw: SyntaxError: missing ; before statement

tryItOut 568
Compiling threw: SyntaxError: missing ; before statement

tryItOut 569

tryItOut 570
Compiling threw: SyntaxError: missing variable name

tryItOut 571

tryItOut 572
Compiling threw: SyntaxError: syntax error

tryItOut 573

tryItOut 574
It's an iterator!
before 191840, after 191840, break 01d61000
Iterating succeeded, iterCount == 1

tryItOut 575
Compiling threw: SyntaxError: syntax error

tryItOut 576

tryItOut 577

tryItOut 578
It's an iterator!
Iterating threw!
Iterating threw: ReferenceError: reference to undefined XML name @foo

tryItOut 579
Compiling threw: SyntaxError: missing variable name

tryItOut 580

tryItOut 581

tryItOut 582
Compiling threw: SyntaxError: invalid for each loop

tryItOut 583

tryItOut 584
Running threw: ReferenceError: reference to undefined XML name *

tryItOut 585
Compiling threw: SyntaxError: missing variable name

tryItOut 586
Compiling threw: SyntaxError: invalid for/in left-hand side

tryItOut 587

tryItOut 588
Compiling threw: SyntaxError: invalid assignment left-hand side

tryItOut 589

tryItOut 590
Compiling threw: SyntaxError: syntax error

tryItOut 591
Compiling threw: SyntaxError: missing ) in parenthetical

tryItOut 592
Compiling threw: SyntaxError: missing ; after for-loop initializer

tryItOut 593
Compiling threw: SyntaxError: missing ) after let head

tryItOut 594
Compiling threw: SyntaxError: invalid increment operand

tryItOut 595

tryItOut 596

tryItOut 597
Running threw: ReferenceError: reference to undefined XML name @foo

tryItOut 598
Compiling threw: SyntaxError: missing ) in parenthetical

tryItOut 599

tryItOut 600
Running threw: TypeError: constructor.__defineGetter__("__parent__", function (q) {return q;}) has no properties

tryItOut 601
Compiling threw: SyntaxError: missing ) in parenthetical

tryItOut 602
Running threw: Error: invalid sharp variable use #1#

tryItOut 603

tryItOut 604

tryItOut 605
Compiling threw: SyntaxError: invalid for/in left-hand side

tryItOut 606

tryItOut 607

tryItOut 608
Compiling threw: SyntaxError: syntax error

tryItOut 609
Compiling threw: SyntaxError: syntax error

tryItOut 610
Compiling threw: SyntaxError: syntax error

tryItOut 611
Compiling threw: SyntaxError: invalid for/in left-hand side

tryItOut 612
Compiling threw: SyntaxError: missing name after . operator

tryItOut 613

tryItOut 614

tryItOut 615

tryItOut 616
Running threw: Error: cyclic __proto__ value

tryItOut 617

tryItOut 618
Running threw: Error: invalid sharp variable use #1#

tryItOut 619

tryItOut 620
Compiling threw: SyntaxError: missing { before function body

tryItOut 621

tryItOut 622

tryItOut 623
Running threw: ReferenceError: reference to undefined XML name *::*

tryItOut 624

tryItOut 625
Compiling threw: SyntaxError: invalid assignment left-hand side

tryItOut 626
It's an iterator!
Iterating succeeded, iterCount == 1

tryItOut 627
Compiling threw: SyntaxError: syntax error

tryItOut 628
Compiling threw: SyntaxError: syntax error

tryItOut 629
Compiling threw: SyntaxError: invalid for each loop

tryItOut 630
Compiling threw: SyntaxError: invalid for/in left-hand side

tryItOut 631

tryItOut 632

tryItOut 633
Compiling threw: SyntaxError: missing ; before statement

tryItOut 634

tryItOut 635
Compiling threw: SyntaxError: missing } after property list

tryItOut 636

tryItOut 637
Compiling threw: SyntaxError: syntax error

tryItOut 638
Compiling threw: SyntaxError: syntax error

tryItOut 639

tryItOut 640
Compiling threw: TypeError: redeclaration of var prototype

tryItOut 641
Compiling threw: SyntaxError: missing ( before formal parameters

tryItOut 642
Compiling threw: SyntaxError: missing } in compound statement

tryItOut 643
Running threw: ReferenceError: reference to undefined XML name @mozilla.org/js/function::prop

tryItOut 644
It's an iterator!
Iterating threw!
Iterating threw: ReferenceError: window is not defined

tryItOut 645

tryItOut 646
Compiling threw: SyntaxError: invalid assignment left-hand side

tryItOut 647

tryItOut 648
Compiling threw: SyntaxError: syntax error

tryItOut 649
Running threw: ReferenceError: t is not defined

tryItOut 650
Compiling threw: SyntaxError: invalid for each loop

tryItOut 651
Compiling threw: SyntaxError: invalid for/in left-hand side

tryItOut 652
Compiling threw: SyntaxError: missing ; before statement

tryItOut 653

tryItOut 654
It's an iterator!
Iterating succeeded, iterCount == 1

tryItOut 655

tryItOut 656

tryItOut 657

tryItOut 658
Compiling threw: SyntaxError: duplicate label

tryItOut 659
Compiling threw: SyntaxError: invalid for/in left-hand side

tryItOut 660
Compiling threw: SyntaxError: missing { before function body

tryItOut 661

tryItOut 662
Compiling threw: SyntaxError: invalid increment operand

tryItOut 663
It's an iterator!
Iterating succeeded, iterCount == 1

tryItOut 664

tryItOut 665
Compiling threw: SyntaxError: missing variable name

tryItOut 666
Compiling threw: SyntaxError: invalid destructuring assignment operator

tryItOut 667
Compiling threw: SyntaxError: missing formal parameter

tryItOut 668

tryItOut 669
Compiling threw: SyntaxError: missing ; before statement

tryItOut 670
Compiling threw: SyntaxError: missing variable name

tryItOut 671
It's an iterator!
Iterating succeeded, iterCount == 25

tryItOut 672
Compiling threw: SyntaxError: invalid for/in left-hand side

tryItOut 673

tryItOut 674

tryItOut 675

tryItOut 676
Compiling threw: SyntaxError: invalid for/in left-hand side

tryItOut 677

tryItOut 678

tryItOut 679
Running threw: ReferenceError: reference to undefined XML name @foo

tryItOut 680
Compiling threw: SyntaxError: invalid for/in left-hand side

tryItOut 681
before 209280, after 209280, break 01d70000

tryItOut 682
Compiling threw: SyntaxError: invalid decrement operand

tryItOut 683
It's an iterator!
Iterating threw!
Iterating threw: ReferenceError: reference to undefined XML name *

tryItOut 684

tryItOut 685
Compiling threw: SyntaxError: syntax error

tryItOut 686
Compiling threw: SyntaxError: missing ; before statement

tryItOut 687
Running threw: ReferenceError: reference to undefined XML name *::*

tryItOut 688
Running threw: ReferenceError: reference to undefined XML name *

tryItOut 689
Compiling threw: SyntaxError: invalid increment operand

tryItOut 690

tryItOut 691
It's an iterator!
Iterating succeeded, iterCount == 1

tryItOut 692
It's an iterator!
Iterating succeeded, iterCount == 0

tryItOut 693
Compiling threw: SyntaxError: duplicate label

tryItOut 694
Compiling threw: SyntaxError: missing ) in parenthetical

tryItOut 695
Compiling threw: SyntaxError: invalid assignment left-hand side

tryItOut 696
Running threw: TypeError: "" is not a function

tryItOut 697

tryItOut 698
Compiling threw: SyntaxError: syntax error

tryItOut 699
Compiling threw: SyntaxError: invalid assignment left-hand side

tryItOut 700

tryItOut 701

tryItOut 702

tryItOut 703
Running threw: ReferenceError: reference to undefined XML name *::*

tryItOut 704
Compiling threw: SyntaxError: missing ; before statement

tryItOut 705
Compiling threw: SyntaxError: missing variable name

tryItOut 706
Running threw: ReferenceError: C is not defined

tryItOut 707
It's an iterator!
Iterating threw!
Iterating threw: ReferenceError: window is not defined

tryItOut 708

tryItOut 709
Running threw: [object global]

tryItOut 710
Running threw: ReferenceError: window is not defined

tryItOut 711
Running threw: ReferenceError: z1 is not defined

tryItOut 712
Running threw: TypeError: this is not a constructor

tryItOut 713

tryItOut 714
Compiling threw: SyntaxError: invalid increment operand

tryItOut 715

tryItOut 716

tryItOut 717
Running threw: ReferenceError: reference to undefined XML name *::*

tryItOut 718

tryItOut 719
Compiling threw: TypeError: redeclaration of variable __iterator__

tryItOut 720

tryItOut 721
Compiling threw: SyntaxError: syntax error

tryItOut 722
Compiling threw: SyntaxError: invalid assignment left-hand side

tryItOut 723

tryItOut 724
Compiling threw: SyntaxError: syntax error

tryItOut 725

tryItOut 726
Running threw: TypeError: arguments[0] has no properties

tryItOut 727
Compiling threw: SyntaxError: missing ; before statement

tryItOut 728

tryItOut 729
It's an iterator!
Iterating threw!
Iterating threw: TypeError: redeclaration of var __proto__

tryItOut 730

tryItOut 731

tryItOut 732

tryItOut 733
before 209280, after 191840, break 01d70000

tryItOut 734
Running threw: ReferenceError: window is not defined

tryItOut 735
Compiling threw: SyntaxError: invalid for/in left-hand side

tryItOut 736

tryItOut 737
It's an iterator!
Iterating succeeded, iterCount == 0

tryItOut 738
Compiling threw: SyntaxError: invalid destructuring assignment operator

tryItOut 739

tryItOut 740

tryItOut 741
Running threw: ReferenceError: z2 is not defined

tryItOut 742

tryItOut 743
Compiling threw: SyntaxError: syntax error

tryItOut 744
Compiling threw: SyntaxError: invalid for/in left-hand side

tryItOut 745
Compiling threw: SyntaxError: syntax error

tryItOut 746

tryItOut 747

tryItOut 748

tryItOut 749

tryItOut 750
Compiling threw: SyntaxError: missing ) after let head

tryItOut 751

tryItOut 752
Running threw: ReferenceError: reference to undefined XML name @mozilla.org/js/function::constructor

tryItOut 753
Compiling threw: SyntaxError: invalid for/in left-hand side

tryItOut 754
It's an iterator!
Iterating threw!
Iterating threw: ReferenceError: reference to undefined XML name *

tryItOut 755
Compiling threw: SyntaxError: invalid for each loop

tryItOut 756

tryItOut 757
Running threw: Error: invalid sharp variable use #1#

tryItOut 758
It's an iterator!
Iterating threw!
Iterating threw: ReferenceError: reference to undefined XML name @foo

tryItOut 759

tryItOut 760
Compiling threw: SyntaxError: invalid assignment left-hand side

tryItOut 761
It's an iterator!
Iterating threw!
Iterating threw: ReferenceError: window is not defined

tryItOut 762
Compiling threw: SyntaxError: syntax error

tryItOut 763
Running threw: ReferenceError: window is not defined

tryItOut 764
Compiling threw: SyntaxError: invalid assignment left-hand side

tryItOut 765
Compiling threw: SyntaxError: missing ; after for-loop initializer

tryItOut 766
It's an iterator!
Iterating threw!
Iterating threw: ReferenceError: reference to undefined XML name *

tryItOut 767
It's an iterator!
Iterating succeeded, iterCount == 1

tryItOut 768
It's an iterator!
Iterating succeeded, iterCount == 1

tryItOut 769

tryItOut 770
Compiling threw: SyntaxError: duplicate label

tryItOut 771
Compiling threw: SyntaxError: syntax error

tryItOut 772
It's an iterator!
Iterating succeeded, iterCount == 0

tryItOut 773

tryItOut 774
It's an iterator!
Iterating succeeded, iterCount == 1

tryItOut 775

tryItOut 776
Compiling threw: SyntaxError: invalid decrement operand

tryItOut 777

tryItOut 778

tryItOut 779

tryItOut 780
It's an iterator!
Iterating threw!
Iterating threw: TypeError: <x/>.__lookupSetter__("prototype") has no properties

tryItOut 781
Compiling threw: SyntaxError: missing ) in parenthetical

tryItOut 782

tryItOut 783

tryItOut 784
Compiling threw: SyntaxError: missing ; before statement

tryItOut 785
Compiling threw: SyntaxError: invalid for/in left-hand side

tryItOut 786

tryItOut 787
It's an iterator!
Iterating succeeded, iterCount == 1

tryItOut 788

tryItOut 789

tryItOut 790

tryItOut 791
Compiling threw: SyntaxError: invalid for/in left-hand side

tryItOut 792
It's an iterator!
Iterating succeeded, iterCount == 1

tryItOut 793
Compiling threw: SyntaxError: missing { before function body

tryItOut 794
Compiling threw: SyntaxError: missing ; after for-loop initializer

tryItOut 795
It's an iterator!
Iterating threw!
Iterating threw: ReferenceError: window is not defined

tryItOut 796

tryItOut 797

tryItOut 798
Compiling threw: SyntaxError: invalid assignment left-hand side

tryItOut 799

tryItOut 800

tryItOut 801
Running threw: ReferenceError: window is not defined

tryItOut 802

tryItOut 803
Running threw: ReferenceError: reference to undefined XML name @foo

tryItOut 804

tryItOut 805

tryItOut 806
Compiling threw: SyntaxError: invalid for/in left-hand side

tryItOut 807
Compiling threw: SyntaxError: syntax error

tryItOut 808

tryItOut 809
Compiling threw: SyntaxError: missing ) in parenthetical

tryItOut 810
Compiling threw: SyntaxError: missing : after property id

tryItOut 811

tryItOut 812
Compiling threw: SyntaxError: syntax error

tryItOut 813
Running threw: ReferenceError: reference to undefined XML name @mozilla.org/js/function::__count__

tryItOut 814
Compiling threw: SyntaxError: invalid for/in left-hand side

tryItOut 815
Compiling threw: SyntaxError: missing ) after argument list

tryItOut 816
before 226720, after 226720, break 01da5000
Running threw: ReferenceError: reference to undefined XML name *

tryItOut 817
Compiling threw: SyntaxError: missing { before function body

tryItOut 818

tryItOut 819

tryItOut 820
Compiling threw: SyntaxError: invalid for/in left-hand side

tryItOut 821
Compiling threw: SyntaxError: missing { before function body

tryItOut 822
Running threw: <y>
  <z/>
</y>

tryItOut 823
Running threw: ReferenceError: reference to undefined XML name @foo

tryItOut 824
Compiling threw: SyntaxError: missing ; before statement

tryItOut 825
Compiling threw: SyntaxError: missing name after . operator

tryItOut 826

tryItOut 827
It's an iterator!
Iterating succeeded, iterCount == 1

tryItOut 828
Compiling threw: SyntaxError: missing ) after let head

tryItOut 829
Compiling threw: SyntaxError: missing variable name

tryItOut 830
Running threw: TypeError: prototype['throw'] is not a function

tryItOut 831
Compiling threw: SyntaxError: syntax error

tryItOut 832
Compiling threw: SyntaxError: missing ) in parenthetical

tryItOut 833

tryItOut 834
Compiling threw: SyntaxError: missing variable name

tryItOut 835

tryItOut 836

tryItOut 837

tryItOut 838
Running threw: ReferenceError: reference to undefined XML name *::*

tryItOut 839

tryItOut 840
before 226720, after 226720, break 01da0000
Running threw: ReferenceError: reference to undefined XML name *::*

tryItOut 841
Compiling threw: SyntaxError: syntax error

tryItOut 842
Compiling threw: SyntaxError: missing ) in parenthetical

tryItOut 843
It's an iterator!
Iterating threw!
Iterating threw: ReferenceError: reference to undefined XML name *::*

tryItOut 844

tryItOut 845

tryItOut 846
before 226720, after 226720, break 01da0000

tryItOut 847
Compiling threw: SyntaxError: invalid for/in left-hand side

tryItOut 848

tryItOut 849
Compiling threw: SyntaxError: missing ; before statement

tryItOut 850

tryItOut 851
Compiling threw: SyntaxError: syntax error

tryItOut 852

tryItOut 853
before 226720, after 226720, break 01da0000

tryItOut 854
Running threw: TypeError: this.zzz has no properties

tryItOut 855
It's an iterator!
Iterating threw!
Iterating threw: ReferenceError: window is not defined

tryItOut 856
Compiling threw: SyntaxError: syntax error

tryItOut 857
Compiling threw: SyntaxError: missing ; before statement

tryItOut 858
Compiling threw: SyntaxError: syntax error

tryItOut 859
Compiling threw: SyntaxError: syntax error

tryItOut 860
Compiling threw: SyntaxError: invalid for/in left-hand side

tryItOut 861
It's an iterator!
Iterating succeeded, iterCount == 1

tryItOut 862
It's an iterator!
Iterating threw!
Iterating threw: ReferenceError: window is not defined

tryItOut 863
It's an iterator!
Iterating succeeded, iterCount == 1

tryItOut 864
It's an iterator!
Iterating succeeded, iterCount == 1

tryItOut 865
Compiling threw: SyntaxError: syntax error

tryItOut 866

tryItOut 867

tryItOut 868
Running threw: ReferenceError: reference to undefined XML name *

tryItOut 869

tryItOut 870
Compiling threw: SyntaxError: invalid for each loop

tryItOut 871
Running threw: ReferenceError: reference to undefined XML name *::*

tryItOut 872
Compiling threw: SyntaxError: missing variable name

tryItOut 873
Compiling threw: SyntaxError: syntax error

tryItOut 874
Compiling threw: SyntaxError: missing ; before statement

tryItOut 875

tryItOut 876
Running threw: /x/

tryItOut 877
Compiling threw: SyntaxError: syntax error

tryItOut 878
Compiling threw: SyntaxError: missing ) in parenthetical

tryItOut 879
before 226720, after 226720, break 01da0000

tryItOut 880
Compiling threw: SyntaxError: missing variable name

tryItOut 881
It's an iterator!
Iterating threw!
Iterating threw: TypeError: redeclaration of var __proto__

tryItOut 882

tryItOut 883
Compiling threw: TypeError: redeclaration of variable prototype

tryItOut 884
Compiling threw: SyntaxError: syntax error

tryItOut 885
It's an iterator!
Iterating threw!
Iterating threw: ReferenceError: z1 is not defined

tryItOut 886

tryItOut 887
Compiling threw: SyntaxError: missing variable name

tryItOut 888
Compiling threw: SyntaxError: missing ) in parenthetical

tryItOut 889

tryItOut 890
Compiling threw: SyntaxError: missing ; after for-loop initializer

tryItOut 891
Compiling threw: SyntaxError: missing { before function body

tryItOut 892
Compiling threw: SyntaxError: invalid increment operand

tryItOut 893

tryItOut 894

tryItOut 895
Compiling threw: SyntaxError: invalid for/in left-hand side

tryItOut 896
It's an iterator!
Iterating threw!
Iterating threw: ReferenceError: z1 is not defined

tryItOut 897
Compiling threw: SyntaxError: invalid property id

tryItOut 898

tryItOut 899
Compiling threw: SyntaxError: syntax error

tryItOut 900

tryItOut 901

tryItOut 902
Running threw: TypeError: __noSuchMethod__.prop has no properties

tryItOut 903
Compiling threw: SyntaxError: invalid for/in left-hand side

tryItOut 904
It's an iterator!
Iterating threw!
Iterating threw: ReferenceError: reference to undefined XML name *

tryItOut 905

tryItOut 906
Compiling threw: SyntaxError: missing ; before statement

tryItOut 907
Compiling threw: SyntaxError: invalid for/in left-hand side

tryItOut 908
Running threw: ReferenceError: reference to undefined XML name @foo

tryItOut 909
It's an iterator!
Iterating succeeded, iterCount == 1

tryItOut 910
It's an iterator!
Iterating succeeded, iterCount == 1

tryItOut 911
Compiling threw: SyntaxError: invalid destructuring assignment operator

tryItOut 912
Running threw: ReferenceError: reference to undefined XML name *

tryItOut 913

tryItOut 914

tryItOut 915
Compiling threw: SyntaxError: invalid property id

tryItOut 916

tryItOut 917

tryItOut 918
Compiling threw: SyntaxError: missing } after let block

tryItOut 919

tryItOut 920
Compiling threw: SyntaxError: missing ) in parenthetical

tryItOut 921

tryItOut 922

tryItOut 923
Compiling threw: SyntaxError: invalid property id

tryItOut 924
Compiling threw: SyntaxError: missing variable name

tryItOut 925

tryItOut 926

tryItOut 927
It's an iterator!
Iterating threw!
Iterating threw: ReferenceError: reference to undefined XML name @foo

tryItOut 928
Running threw: TypeError: setting a property that has only a getter

tryItOut 929
It's an iterator!
Iterating threw!
Iterating threw: ReferenceError: reference to undefined XML name @foo

tryItOut 930
Compiling threw: SyntaxError: invalid assignment left-hand side

tryItOut 931
Running threw: TypeError: setting a property that has only a getter

tryItOut 932

tryItOut 933
Compiling threw: SyntaxError: syntax error

tryItOut 934
Compiling threw: SyntaxError: missing ) after condition

tryItOut 935

tryItOut 936
Running threw: TypeError: p.z = <y><z/></y> is not a function

tryItOut 937
Compiling threw: SyntaxError: missing variable name

tryItOut 938

tryItOut 939

tryItOut 940
Compiling threw: SyntaxError: duplicate label

tryItOut 941

tryItOut 942
It's an iterator!
Iterating threw!
Iterating threw: ReferenceError: reference to undefined XML name *::*

tryItOut 943
Compiling threw: SyntaxError: missing variable name

tryItOut 944
Running threw: TypeError: this.zzz has no properties

tryItOut 945
Compiling threw: SyntaxError: missing { before function body

tryItOut 946
It's an iterator!
Iterating succeeded, iterCount == 1

tryItOut 947

tryItOut 948
Compiling threw: SyntaxError: invalid flag after regular expression

tryItOut 949
Compiling threw: SyntaxError: missing variable name

tryItOut 950

tryItOut 951
Compiling threw: SyntaxError: invalid for/in left-hand side

tryItOut 952
Running threw: ReferenceError: reference to undefined XML name *

tryItOut 953
Running threw: ReferenceError: reference to undefined XML name *

tryItOut 954
Compiling threw: SyntaxError: missing { before function body

tryItOut 955

tryItOut 956
Compiling threw: SyntaxError: yield expression must be parenthesized

tryItOut 957
Running threw: TypeError: setting a property that has only a getter

tryItOut 958
Compiling threw: SyntaxError: invalid for/in left-hand side

tryItOut 959
Compiling threw: SyntaxError: syntax error

tryItOut 960
It's an iterator!
Iterating threw!
Iterating threw: ReferenceError: reference to undefined XML name @mozilla.org/js/function::prop

tryItOut 961

tryItOut 962
It's an iterator!
Iterating succeeded, iterCount == 1

tryItOut 963
Compiling threw: SyntaxError: missing ; before statement

tryItOut 964
Compiling threw: SyntaxError: missing variable name

tryItOut 965
Compiling threw: SyntaxError: missing formal parameter

tryItOut 966
Compiling threw: SyntaxError: invalid for each loop

tryItOut 967
It's an iterator!
Iterating threw!
Iterating threw: TypeError: prop is not a constructor

tryItOut 968
Compiling threw: SyntaxError: missing : after property id

tryItOut 969

tryItOut 970
before 244160, after 244160, break 01dd8000

tryItOut 971
Compiling threw: SyntaxError: syntax error

tryItOut 972
It's an iterator!
Iterating succeeded, iterCount == 1

tryItOut 973
Compiling threw: SyntaxError: invalid for/in left-hand side

tryItOut 974
Compiling threw: SyntaxError: syntax error

tryItOut 975
Compiling threw: SyntaxError: syntax error

tryItOut 976
Running threw: [object Object]

tryItOut 977
Running threw: ReferenceError: reference to undefined XML name *::*

tryItOut 978
Compiling threw: SyntaxError: missing variable name

tryItOut 979

tryItOut 980
Compiling threw: SyntaxError: syntax error

tryItOut 981
before 244160, after 244160, break 01dd8000

tryItOut 982
Running threw: ReferenceError: reference to undefined XML name @foo

tryItOut 983
Compiling threw: SyntaxError: missing { before function body

tryItOut 984
Compiling threw: SyntaxError: missing ; before statement

tryItOut 985
Compiling threw: SyntaxError: missing ; before statement

tryItOut 986
It's an iterator!
Iterating succeeded, iterCount == 1

tryItOut 987

tryItOut 988

tryItOut 989
Running threw: TypeError: prototype.yoyo is not a function

tryItOut 990
Running threw: ReferenceError: reference to undefined XML name *

tryItOut 991
Compiling threw: SyntaxError: syntax error

tryItOut 992
Running threw: ReferenceError: z2 is not defined

tryItOut 993

tryItOut 994

tryItOut 995
Compiling threw: SyntaxError: invalid assignment left-hand side

tryItOut 996
Compiling threw: SyntaxError: syntax error

tryItOut 997
Compiling threw: SyntaxError: syntax error

tryItOut 998
Compiling threw: SyntaxError: missing { before function body

tryItOut 999
Running threw: TypeError: p.z = <y><z/></y>.unwatch("__iterator__") is not a function

tryItOut 1000

ALL OK

Script done on Sat 04 May 2013 07:23:14 AM PDT
