Script started on Sat 04 May 2013 07:23:09 AM PDT
***
Targeting SpiderMonkey / Gecko.

tryItOut 1

tryItOut 2
Running threw: TypeError: this.zzz has no properties

tryItOut 3

tryItOut 4
Compiling threw: SyntaxError: missing variable name

tryItOut 5

tryItOut 6
It's an iterator!
Iterating succeeded, iterCount == 16

tryItOut 7

tryItOut 8
Compiling threw: TypeError: redeclaration of const constructor

tryItOut 9
Compiling threw: TypeError: generator function anonymous returns a value

tryItOut 10

tryItOut 11

tryItOut 12

tryItOut 13
Running threw: ReferenceError: __noSuchMethod__ is not defined

tryItOut 14
Compiling threw: SyntaxError: invalid for/in left-hand side

tryItOut 15
Running threw: TypeError: undefined has no properties

tryItOut 16
Compiling threw: SyntaxError: missing ) after condition

tryItOut 17
Compiling threw: SyntaxError: missing ; after for-loop initializer

tryItOut 18
Compiling threw: SyntaxError: missing ) in parenthetical

tryItOut 19

tryItOut 20
Running threw: TypeError: "".propertyIsEnumerable("__iterator__").yoyo is not a function

tryItOut 21
Running threw: ReferenceError: __noSuchMethod__ is not defined

tryItOut 22

tryItOut 23

tryItOut 24

tryItOut 25

tryItOut 26
Compiling threw: SyntaxError: invalid variable initialization

tryItOut 27
It's an iterator!
Iterating succeeded, iterCount == 0

tryItOut 28
Compiling threw: SyntaxError: invalid assignment left-hand side

tryItOut 29
Compiling threw: SyntaxError: invalid assignment left-hand side

tryItOut 30
Running threw: ReferenceError: prop is not defined

tryItOut 31
Compiling threw: SyntaxError: missing ] after element list

tryItOut 32
Compiling threw: SyntaxError: missing variable name

tryItOut 33
It's an iterator!
Iterating succeeded, iterCount == 1

tryItOut 34
It's an iterator!
Iterating succeeded, iterCount == 1

tryItOut 35

tryItOut 36
Running threw: ReferenceError: window is not defined

tryItOut 37

tryItOut 38
Running threw: ReferenceError: prop is not defined

tryItOut 39
Running threw: ReferenceError: __noSuchMethod__ is not defined

tryItOut 40
Compiling threw: SyntaxError: invalid for/in left-hand side

tryItOut 41

tryItOut 42
Compiling threw: SyntaxError: missing ] after element list

tryItOut 43

tryItOut 44

tryItOut 45

tryItOut 46
Running threw: ReferenceError: window is not defined

tryItOut 47

tryItOut 48

tryItOut 49
Compiling threw: SyntaxError: invalid increment operand

tryItOut 50

tryItOut 51

tryItOut 52
Compiling threw: TypeError: generator function anonymous returns a value

tryItOut 53

tryItOut 54
Compiling threw: SyntaxError: missing variable name

tryItOut 55
Running threw: TypeError: this.zzz has no properties

tryItOut 56

tryItOut 57
Running threw: TypeError: ({}) is not a function

tryItOut 58
Compiling threw: SyntaxError: invalid for/in left-hand side

tryItOut 59

tryItOut 60
Compiling threw: SyntaxError: missing ] after element list

tryItOut 61

tryItOut 62
Running threw: [object StopIteration]

tryItOut 63
Running threw: TypeError: this.zzz has no properties

tryItOut 64
Compiling threw: SyntaxError: invalid for/in left-hand side

tryItOut 65
Compiling threw: SyntaxError: missing ( before let head

tryItOut 66

tryItOut 67
Compiling threw: SyntaxError: syntax error

tryItOut 68
Compiling threw: SyntaxError: invalid for each loop

tryItOut 69
Compiling threw: SyntaxError: missing ) in parenthetical

tryItOut 70
Compiling threw: SyntaxError: missing variable name

tryItOut 71
Compiling threw: SyntaxError: invalid assignment left-hand side

tryItOut 72
Compiling threw: SyntaxError: invalid for/in left-hand side

tryItOut 73

tryItOut 74
Compiling threw: SyntaxError: illegal XML character

tryItOut 75
Compiling threw: TypeError: redeclaration of const __count__

tryItOut 76

tryItOut 77
Compiling threw: TypeError: generator function anonymous returns a value

tryItOut 78
Compiling threw: TypeError: redeclaration of variable constructor

tryItOut 79

tryItOut 80
It's an iterator!
Iterating succeeded, iterCount == 2

tryItOut 81
Compiling threw: SyntaxError: invalid decrement operand

tryItOut 82

tryItOut 83

tryItOut 84
Compiling threw: SyntaxError: invalid for/in left-hand side

tryItOut 85

tryItOut 86
It's an iterator!
Iterating succeeded, iterCount == 1

tryItOut 87
Running threw: ReferenceError: prop is not defined

tryItOut 88

tryItOut 89

tryItOut 90
Compiling threw: SyntaxError: missing variable name

tryItOut 91

tryItOut 92
Compiling threw: SyntaxError: invalid for/in left-hand side

tryItOut 93

tryItOut 94
It's an iterator!
Iterating succeeded, iterCount == 1

tryItOut 95
Compiling threw: TypeError: generator function anonymous returns a value

tryItOut 96
Compiling threw: SyntaxError: missing ) in parenthetical

tryItOut 97
It's an iterator!
Iterating succeeded, iterCount == 1

tryItOut 98
Compiling threw: SyntaxError: invalid for/in left-hand side

tryItOut 99

tryItOut 100

tryItOut 101
Compiling threw: SyntaxError: missing variable name

tryItOut 102
Compiling threw: SyntaxError: invalid for/in left-hand side

tryItOut 103
Running threw: TypeError: this.zzz has no properties

tryItOut 104
Compiling threw: TypeError: generator function anonymous returns a value

tryItOut 105

tryItOut 106

tryItOut 107
Compiling threw: SyntaxError: syntax error

tryItOut 108
Compiling threw: TypeError: redeclaration of variable __noSuchMethod__

tryItOut 109
Running threw: ReferenceError: reference to undefined XML name *::*

tryItOut 110

tryItOut 111
Compiling threw: TypeError: generator function anonymous returns a value

tryItOut 112

tryItOut 113

tryItOut 114

tryItOut 115
Running threw: TypeError: this.zzz has no properties

tryItOut 116

tryItOut 117
Running threw: ReferenceError: reference to undefined XML name *

tryItOut 118
Compiling threw: SyntaxError: missing ) in parenthetical

tryItOut 119

tryItOut 120
Compiling threw: SyntaxError: missing : after property id

tryItOut 121
Compiling threw: SyntaxError: invalid for/in left-hand side

tryItOut 122
It's an iterator!
Iterating threw!
Iterating threw: ReferenceError: __noSuchMethod__ is not defined

tryItOut 123
Running threw: ReferenceError: reference to undefined XML name *::*

tryItOut 124
Compiling threw: SyntaxError: missing ; before statement

tryItOut 125
Compiling threw: SyntaxError: missing ; after for-loop initializer

tryItOut 126

tryItOut 127
Compiling threw: SyntaxError: invalid for/in left-hand side

tryItOut 128
Running threw: ReferenceError: prototype is not defined

tryItOut 129
Compiling threw: SyntaxError: missing variable name

tryItOut 130

tryItOut 131

tryItOut 132

tryItOut 133
Running threw: ReferenceError: window is not defined

tryItOut 134
Compiling threw: SyntaxError: missing ] after element list

tryItOut 135

tryItOut 136

tryItOut 137
It's an iterator!
Iterating succeeded, iterCount == 1

tryItOut 138
Compiling threw: SyntaxError: missing { before function body

tryItOut 139
Compiling threw: SyntaxError: invalid for/in left-hand side

tryItOut 140

tryItOut 141
Compiling threw: SyntaxError: invalid for/in left-hand side

tryItOut 142
uneval returned the string: ({__count__:1})
Skipping re-eval test

tryItOut 143

tryItOut 144

tryItOut 145

tryItOut 146
Running threw: ReferenceError: reference to undefined XML name *

tryItOut 147
Compiling threw: SyntaxError: syntax error

tryItOut 148
It's an iterator!
Iterating succeeded, iterCount == 1

tryItOut 149

tryItOut 150

tryItOut 151

tryItOut 152
Compiling threw: TypeError: generator function anonymous returns a value

tryItOut 153
Running threw: [object StopIteration]

tryItOut 154

tryItOut 155

tryItOut 156
Running threw: TypeError: redeclaration of var __proto__

tryItOut 157
Compiling threw: SyntaxError: missing variable name

tryItOut 158
Compiling threw: SyntaxError: missing ] after element list

tryItOut 159

tryItOut 160
Compiling threw: SyntaxError: invalid for/in left-hand side

tryItOut 161

tryItOut 162
Running threw: TypeError: redeclaration of var __proto__

tryItOut 163
Compiling threw: SyntaxError: missing ( before let head

tryItOut 164
Compiling threw: SyntaxError: missing ] after element list

tryItOut 165
Running threw: ReferenceError: reference to undefined XML name *

tryItOut 166
Running threw: ReferenceError: __iterator__ is not defined

tryItOut 167
Compiling threw: SyntaxError: invalid for/in left-hand side

tryItOut 168
Compiling threw: TypeError: generator function anonymous returns a value

tryItOut 169

tryItOut 170
Compiling threw: SyntaxError: missing ; before statement

tryItOut 171

tryItOut 172
It's an iterator!
Iterating succeeded, iterCount == 1

tryItOut 173
Compiling threw: SyntaxError: invalid for/in left-hand side

tryItOut 174
It's an iterator!
Iterating succeeded, iterCount == 0

tryItOut 175

tryItOut 176
Running threw: ReferenceError: reference to undefined XML name @foo

tryItOut 177
Compiling threw: SyntaxError: invalid assignment left-hand side

tryItOut 178

tryItOut 179

tryItOut 180

tryItOut 181

tryItOut 182

tryItOut 183

tryItOut 184
Running threw: ReferenceError: window is not defined

tryItOut 185

tryItOut 186

tryItOut 187

tryItOut 188
Compiling threw: SyntaxError: syntax error

tryItOut 189
Compiling threw: TypeError: generator function anonymous returns a value

tryItOut 190

tryItOut 191
Compiling threw: TypeError: redeclaration of const __iterator__

tryItOut 192
Compiling threw: SyntaxError: missing { before function body

tryItOut 193
Compiling threw: SyntaxError: invalid assignment left-hand side

tryItOut 194

tryItOut 195

tryItOut 196
Compiling threw: SyntaxError: invalid for/in left-hand side

tryItOut 197
Running threw: TypeError: prototype has no properties

tryItOut 198

tryItOut 199
Compiling threw: SyntaxError: syntax error

tryItOut 200
Compiling threw: SyntaxError: unexpected end of XML source

tryItOut 201

tryItOut 202

tryItOut 203

tryItOut 204

tryItOut 205
Compiling threw: TypeError: generator function anonymous returns a value

tryItOut 206

tryItOut 207

tryItOut 208
It's an iterator!
Iterating succeeded, iterCount == 1

tryItOut 209
Compiling threw: SyntaxError: invalid for/in left-hand side

tryItOut 210

tryItOut 211
Running threw: ReferenceError: window is not defined

tryItOut 212
Compiling threw: SyntaxError: syntax error

tryItOut 213

tryItOut 214
Compiling threw: SyntaxError: syntax error

tryItOut 215

tryItOut 216

tryItOut 217

tryItOut 218
Compiling threw: TypeError: generator function anonymous returns a value

tryItOut 219

tryItOut 220
Running threw: TypeError: ({}) is not a function

tryItOut 221
Running threw: TypeError: this.zzz has no properties

tryItOut 222

tryItOut 223
Running threw: ReferenceError: reference to undefined XML name @foo

tryItOut 224
Compiling threw: SyntaxError: missing variable name

tryItOut 225
Compiling threw: SyntaxError: missing ] in index expression

tryItOut 226
Compiling threw: SyntaxError: invalid for/in left-hand side

tryItOut 227
Running threw: [object StopIteration]

tryItOut 228
Compiling threw: TypeError: generator function anonymous returns a value

tryItOut 229

tryItOut 230

tryItOut 231
Compiling threw: SyntaxError: missing ; before statement

tryItOut 232

tryItOut 233
Compiling threw: SyntaxError: missing variable name

tryItOut 234
Compiling threw: SyntaxError: missing { before function body

tryItOut 235
Compiling threw: SyntaxError: syntax error

tryItOut 236
It's an iterator!
Iterating succeeded, iterCount == 1

tryItOut 237

tryItOut 238
Compiling threw: SyntaxError: missing variable name

tryItOut 239

tryItOut 240
Compiling threw: SyntaxError: syntax error

tryItOut 241
Compiling threw: SyntaxError: syntax error

tryItOut 242
Running threw: [object StopIteration]

tryItOut 243
Compiling threw: SyntaxError: missing ; before statement

tryItOut 244

tryItOut 245
Compiling threw: SyntaxError: missing = in destructuring declaration

tryItOut 246

tryItOut 247

tryItOut 248
Compiling threw: SyntaxError: invalid decrement operand

tryItOut 249
Running threw: ReferenceError: reference to undefined XML name @foo

tryItOut 250
Compiling threw: SyntaxError: invalid for/in left-hand side

tryItOut 251
Compiling threw: TypeError: anonymous generator function returns a value

tryItOut 252

tryItOut 253
Compiling threw: SyntaxError: invalid for/in left-hand side

tryItOut 254
Running threw: TypeError: <x><y/></x>['throw'] is not a function

tryItOut 255

tryItOut 256
Compiling threw: SyntaxError: missing ) in parenthetical

tryItOut 257
Compiling threw: SyntaxError: missing { before function body

tryItOut 258
Compiling threw: SyntaxError: syntax error

tryItOut 259

tryItOut 260
Running threw: ReferenceError: window is not defined

tryItOut 261
Running threw: ReferenceError: window is not defined

tryItOut 262
Running threw: TypeError: this.zzz has no properties

tryItOut 263
Running threw: TypeError: prototype has no properties

tryItOut 264
It's an iterator!
Iterating succeeded, iterCount == 1

tryItOut 265
Compiling threw: SyntaxError: syntax error

tryItOut 266
Compiling threw: SyntaxError: missing variable name

tryItOut 267

tryItOut 268
Compiling threw: SyntaxError: missing ; after for-loop initializer

tryItOut 269
It's an iterator!
Iterating succeeded, iterCount == 1

tryItOut 270

tryItOut 271
It's an iterator!
Iterating threw!
Iterating threw: TypeError: XML filtering predicate operator called on incompatible Number

tryItOut 272

tryItOut 273
Compiling threw: SyntaxError: syntax error

tryItOut 274

tryItOut 275
It's an iterator!
Iterating succeeded, iterCount == 1

tryItOut 276
Compiling threw: SyntaxError: missing ) in parenthetical

tryItOut 277
Compiling threw: SyntaxError: invalid for/in left-hand side

tryItOut 278
Compiling threw: SyntaxError: missing variable name

tryItOut 279
Compiling threw: SyntaxError: missing variable name

tryItOut 280

tryItOut 281
Compiling threw: SyntaxError: missing variable name

tryItOut 282
Compiling threw: SyntaxError: invalid assignment left-hand side

tryItOut 283
Compiling threw: SyntaxError: missing ] after element list

tryItOut 284
Compiling threw: SyntaxError: missing = in destructuring declaration

tryItOut 285
Compiling threw: TypeError: redeclaration of variable __count__

tryItOut 286

tryItOut 287
Compiling threw: SyntaxError: missing variable name

tryItOut 288
It's an iterator!
Iterating succeeded, iterCount == 1

tryItOut 289
Compiling threw: SyntaxError: syntax error

tryItOut 290
Compiling threw: SyntaxError: missing { before function body

tryItOut 291

tryItOut 292
Compiling threw: SyntaxError: invalid for each loop

tryItOut 293

tryItOut 294
Compiling threw: SyntaxError: invalid assignment left-hand side

tryItOut 295
Compiling threw: SyntaxError: syntax error

tryItOut 296

tryItOut 297
Compiling threw: SyntaxError: missing { before function body

tryItOut 298

tryItOut 299
Compiling threw: SyntaxError: syntax error

tryItOut 300
It's an iterator!
Iterating threw!
Iterating threw: ReferenceError: reference to undefined XML name *

tryItOut 301
Compiling threw: SyntaxError: missing ) in parenthetical

tryItOut 302
Compiling threw: SyntaxError: missing ; after for-loop condition

tryItOut 303

tryItOut 304
It's an iterator!
Iterating succeeded, iterCount == 1

tryItOut 305

tryItOut 306

tryItOut 307
Compiling threw: SyntaxError: missing ; before statement

tryItOut 308

tryItOut 309
Compiling threw: SyntaxError: invalid for/in left-hand side

tryItOut 310
Compiling threw: SyntaxError: syntax error

tryItOut 311
Compiling threw: SyntaxError: missing = in destructuring declaration

tryItOut 312
Running threw: TypeError: prop has no properties

tryItOut 313

tryItOut 314
Compiling threw: SyntaxError: missing ) in parenthetical

tryItOut 315
Running threw: ReferenceError: reference to undefined XML name @foo

tryItOut 316
Compiling threw: SyntaxError: invalid destructuring assignment operator

tryItOut 317
Compiling threw: TypeError: generator function anonymous returns a value

tryItOut 318

tryItOut 319

tryItOut 320
Compiling threw: SyntaxError: missing { before function body

tryItOut 321
Compiling threw: SyntaxError: syntax error

tryItOut 322

tryItOut 323

tryItOut 324

tryItOut 325

tryItOut 326
Compiling threw: SyntaxError: invalid sharp variable definition

tryItOut 327
Compiling threw: SyntaxError: missing = in destructuring declaration

tryItOut 328
Compiling threw: SyntaxError: invalid assignment left-hand side

tryItOut 329
Running threw: ReferenceError: window is not defined

tryItOut 330

tryItOut 331

tryItOut 332
Compiling threw: SyntaxError: invalid assignment left-hand side

tryItOut 333

tryItOut 334

tryItOut 335
Compiling threw: SyntaxError: missing ) in parenthetical

tryItOut 336

tryItOut 337

tryItOut 338

tryItOut 339
Compiling threw: SyntaxError: missing variable name

tryItOut 340
Compiling threw: SyntaxError: syntax error

tryItOut 341
Compiling threw: SyntaxError: invalid for/in left-hand side

tryItOut 342
Compiling threw: SyntaxError: missing } after property list

tryItOut 343

tryItOut 344
Compiling threw: TypeError: redeclaration of var __count__

tryItOut 345
Compiling threw: TypeError: redeclaration of variable __noSuchMethod__

tryItOut 346

tryItOut 347

tryItOut 348

tryItOut 349
Compiling threw: SyntaxError: syntax error

tryItOut 350
Compiling threw: SyntaxError: invalid for/in left-hand side

tryItOut 351
Compiling threw: SyntaxError: syntax error

tryItOut 352
Running threw: TypeError: arguments[0] has no properties

tryItOut 353

tryItOut 354
Running threw: TypeError: RegExp.prototype.toString called on incompatible global

tryItOut 355
Compiling threw: SyntaxError: missing = in destructuring declaration

tryItOut 356

tryItOut 357
Compiling threw: SyntaxError: missing ) after catch

tryItOut 358
Compiling threw: SyntaxError: missing ) in parenthetical

tryItOut 359
Compiling threw: SyntaxError: invalid assignment left-hand side

tryItOut 360

tryItOut 361
Compiling threw: SyntaxError: invalid sharp variable definition

tryItOut 362
Compiling threw: TypeError: generator function anonymous returns a value

tryItOut 363

tryItOut 364

tryItOut 365
Compiling threw: SyntaxError: invalid for/in left-hand side

tryItOut 366

tryItOut 367
Compiling threw: SyntaxError: missing = in destructuring declaration

tryItOut 368

tryItOut 369

tryItOut 370
Compiling threw: SyntaxError: invalid for/in left-hand side

tryItOut 371
Compiling threw: SyntaxError: missing variable name

tryItOut 372
Compiling threw: SyntaxError: invalid for/in left-hand side

tryItOut 373
It's an iterator!
Iterating succeeded, iterCount == 1

tryItOut 374

tryItOut 375
Running threw: TypeError: this.zzz has no properties

tryItOut 376

tryItOut 377
Compiling threw: SyntaxError: syntax error

tryItOut 378
It's an iterator!
Iterating succeeded, iterCount == 0

tryItOut 379
Compiling threw: SyntaxError: missing = in destructuring declaration

tryItOut 380

tryItOut 381
Compiling threw: SyntaxError: invalid for/in left-hand side

tryItOut 382

tryItOut 383
Compiling threw: SyntaxError: missing { before function body

tryItOut 384
Running threw: TypeError: this.zzz has no properties

tryItOut 385
It's an iterator!
Iterating threw!
Iterating threw: ReferenceError: window is not defined

tryItOut 386
Compiling threw: SyntaxError: invalid for/in left-hand side

tryItOut 387
Running threw: ReferenceError: __proto__ is not defined

tryItOut 388
It's an iterator!
Iterating succeeded, iterCount == 1

tryItOut 389

tryItOut 390

tryItOut 391
It's an iterator!
Iterating succeeded, iterCount == 1

tryItOut 392
Compiling threw: SyntaxError: invalid for/in left-hand side

tryItOut 393
Compiling threw: SyntaxError: syntax error

tryItOut 394
It's an iterator!
Iterating threw!
Iterating threw: ReferenceError: window is not defined

tryItOut 395
It's an iterator!
Iterating succeeded, iterCount == 1

tryItOut 396
It's an iterator!
Iterating succeeded, iterCount == 1

tryItOut 397

tryItOut 398

tryItOut 399
Compiling threw: TypeError: generator function anonymous returns a value

tryItOut 400

tryItOut 401

tryItOut 402
Compiling threw: SyntaxError: invalid property id

tryItOut 403
Compiling threw: SyntaxError: illegal XML character

tryItOut 404
Compiling threw: SyntaxError: missing variable name

tryItOut 405
Compiling threw: SyntaxError: missing ) after condition

tryItOut 406
Compiling threw: SyntaxError: invalid for/in left-hand side

tryItOut 407

tryItOut 408

tryItOut 409

tryItOut 410

tryItOut 411
Running threw: TypeError: this is not a function

tryItOut 412
Compiling threw: SyntaxError: missing variable name

tryItOut 413

tryItOut 414
Compiling threw: SyntaxError: missing variable name

tryItOut 415
Compiling threw: SyntaxError: invalid assignment left-hand side

tryItOut 416
Running threw: ReferenceError: z1 is not defined

tryItOut 417
Compiling threw: SyntaxError: invalid assignment left-hand side

tryItOut 418
Running threw: ReferenceError: reference to undefined XML name *

tryItOut 419

tryItOut 420
Running threw: ReferenceError: __parent__ is not defined

tryItOut 421
Running threw: TypeError: this.zzz has no properties

tryItOut 422
Compiling threw: SyntaxError: missing variable name

tryItOut 423
Compiling threw: SyntaxError: yield expression must be parenthesized

tryItOut 424
Compiling threw: TypeError: redeclaration of variable __count__

tryItOut 425
Compiling threw: SyntaxError: invalid assignment left-hand side

tryItOut 426
Compiling threw: TypeError: redeclaration of const __iterator__

tryItOut 427

tryItOut 428

tryItOut 429
It's an iterator!
Iterating threw!
Iterating threw: Error: invalid sharp variable use #1#

tryItOut 430
Compiling threw: SyntaxError: missing ) in parenthetical

tryItOut 431
Running threw: ReferenceError: W is not defined

tryItOut 432
Running threw: [object StopIteration]

tryItOut 433

tryItOut 434

tryItOut 435
It's an iterator!
Iterating succeeded, iterCount == 1

tryItOut 436
It's an iterator!
Iterating threw!
Iterating threw: ReferenceError: U is not defined

tryItOut 437
It's an iterator!
Iterating succeeded, iterCount == 1

tryItOut 438
Compiling threw: SyntaxError: invalid assignment left-hand side

tryItOut 439

tryItOut 440

tryItOut 441
Compiling threw: SyntaxError: invalid for/in left-hand side

tryItOut 442

tryItOut 443
Compiling threw: TypeError: generator function anonymous returns a value

tryItOut 444
Compiling threw: SyntaxError: invalid assignment left-hand side

tryItOut 445

tryItOut 446
Compiling threw: SyntaxError: invalid for/in left-hand side

tryItOut 447

tryItOut 448

tryItOut 449
Running threw: ReferenceError: reference to undefined XML name *

tryItOut 450

tryItOut 451
Compiling threw: SyntaxError: missing ; after for-loop initializer

tryItOut 452
Compiling threw: SyntaxError: syntax error

tryItOut 453
Compiling threw: TypeError: redeclaration of const __proto__

tryItOut 454
Compiling threw: SyntaxError: invalid assignment left-hand side

tryItOut 455
Running threw: ReferenceError: window is not defined

tryItOut 456
Running threw: [object StopIteration]

tryItOut 457
Compiling threw: SyntaxError: invalid for/in left-hand side

tryItOut 458

tryItOut 459
Compiling threw: SyntaxError: invalid for/in left-hand side

tryItOut 460
Compiling threw: SyntaxError: missing variable name

tryItOut 461
Running threw: ReferenceError: __proto__ is not defined

tryItOut 462
Compiling threw: SyntaxError: missing ) in parenthetical

tryItOut 463
Compiling threw: SyntaxError: duplicate label

tryItOut 464
It's an iterator!
Iterating succeeded, iterCount == 1

tryItOut 465
Compiling threw: SyntaxError: invalid switch statement

tryItOut 466

tryItOut 467

tryItOut 468
Compiling threw: SyntaxError: missing variable name

tryItOut 469
Compiling threw: SyntaxError: syntax error

tryItOut 470
Compiling threw: SyntaxError: syntax error

tryItOut 471
Running threw: TypeError: <x>
  <y/>
</x> is not a function

tryItOut 472
Running threw: ReferenceError: z1 is not defined

tryItOut 473

tryItOut 474
Running threw: [object StopIteration]

tryItOut 475
Running threw: [object StopIteration]

tryItOut 476
Compiling threw: SyntaxError: missing variable name

tryItOut 477
Running threw: TypeError: <x>
  <y/>
</x> is not a function

tryItOut 478

tryItOut 479
Compiling threw: SyntaxError: missing ) in parenthetical

tryItOut 480
Running threw: ReferenceError: reference to undefined XML name @foo

tryItOut 481
It's an iterator!
Iterating succeeded, iterCount == 1

tryItOut 482
Compiling threw: SyntaxError: missing ) in parenthetical

tryItOut 483
Compiling threw: SyntaxError: invalid for/in left-hand side

tryItOut 484

tryItOut 485

tryItOut 486
Compiling threw: SyntaxError: syntax error

tryItOut 487
Compiling threw: SyntaxError: syntax error

tryItOut 488
Compiling threw: TypeError: redeclaration of const __parent__

tryItOut 489

tryItOut 490

tryItOut 491
Compiling threw: SyntaxError: syntax error

tryItOut 492
Running threw: ReferenceError: z1 is not defined

tryItOut 493
Compiling threw: SyntaxError: missing ) after condition

tryItOut 494
Compiling threw: SyntaxError: invalid XML tag syntax

tryItOut 495
Compiling threw: SyntaxError: missing = in destructuring declaration

tryItOut 496

tryItOut 497

tryItOut 498
Compiling threw: SyntaxError: invalid for/in left-hand side

tryItOut 499
Compiling threw: SyntaxError: missing variable name

tryItOut 500
Compiling threw: SyntaxError: missing ) after let head

tryItOut 501
Compiling threw: SyntaxError: invalid XML tag syntax

tryItOut 502
Running threw: ReferenceError: window is not defined

tryItOut 503
Compiling threw: SyntaxError: missing ] after element list

tryItOut 504
Running threw: TypeError: arguments[0] has no properties

tryItOut 505

tryItOut 506
It's an iterator!
Iterating succeeded, iterCount == 0

tryItOut 507
Compiling threw: TypeError: anonymous generator function returns a value

tryItOut 508

tryItOut 509
Compiling threw: SyntaxError: syntax error

tryItOut 510
Compiling threw: SyntaxError: invalid assignment left-hand side

tryItOut 511
Compiling threw: TypeError: redeclaration of var __iterator__

tryItOut 512

tryItOut 513

tryItOut 514
Running threw: TypeError: redeclaration of var __count__

tryItOut 515

tryItOut 516

tryItOut 517

tryItOut 518

tryItOut 519
Running threw: ReferenceError: z1 is not defined

tryItOut 520

tryItOut 521
Running threw: ReferenceError: reference to undefined XML name *

tryItOut 522
Running threw: [object StopIteration]

tryItOut 523
Running threw: TypeError: this.zzz has no properties

tryItOut 524

tryItOut 525
Running threw: ReferenceError: window is not defined

tryItOut 526

tryItOut 527

tryItOut 528
Compiling threw: SyntaxError: missing variable name

tryItOut 529
Compiling threw: SyntaxError: missing { before function body

tryItOut 530
Running threw: ReferenceError: __iterator__ is not defined

tryItOut 531
Compiling threw: SyntaxError: syntax error

tryItOut 532
Compiling threw: TypeError: generator function anonymous returns a value

tryItOut 533
Running threw: ReferenceError: z2 is not defined

tryItOut 534
Compiling threw: SyntaxError: missing ) in parenthetical

tryItOut 535

tryItOut 536
Compiling threw: TypeError: anonymous generator function returns a value

tryItOut 537

tryItOut 538
Compiling threw: SyntaxError: missing : after property id

tryItOut 539
Compiling threw: SyntaxError: invalid for/in left-hand side

tryItOut 540

tryItOut 541
Compiling threw: SyntaxError: syntax error

tryItOut 542

tryItOut 543
Running threw: ReferenceError: window is not defined

tryItOut 544
Compiling threw: SyntaxError: invalid for/in left-hand side

tryItOut 545

tryItOut 546
Compiling threw: SyntaxError: missing variable name

tryItOut 547
Running threw: [object StopIteration]

tryItOut 548
Compiling threw: SyntaxError: missing : after property id

tryItOut 549

tryItOut 550
Compiling threw: SyntaxError: missing variable name

tryItOut 551
Compiling threw: SyntaxError: invalid for/in left-hand side

tryItOut 552
Compiling threw: SyntaxError: syntax error

tryItOut 553
Compiling threw: SyntaxError: syntax error

tryItOut 554
Compiling threw: SyntaxError: missing ) in parenthetical

tryItOut 555
Compiling threw: SyntaxError: missing ) after condition

tryItOut 556
Running threw: ReferenceError: reference to undefined XML name @foo

tryItOut 557
Compiling threw: SyntaxError: missing ) in parenthetical

tryItOut 558

tryItOut 559
Compiling threw: SyntaxError: missing ; after for-loop initializer

tryItOut 560
Running threw: ReferenceError: window is not defined

tryItOut 561
Compiling threw: SyntaxError: invalid for/in left-hand side

tryItOut 562

tryItOut 563
It's an iterator!
Iterating threw!
Iterating threw: ReferenceError: reference to undefined XML name @foo

tryItOut 564
Compiling threw: SyntaxError: missing ) after condition

tryItOut 565

tryItOut 566
It's an iterator!
Iterating succeeded, iterCount == 1

tryItOut 567

tryItOut 568
Compiling threw: SyntaxError: missing variable name

tryItOut 569
Running threw: ReferenceError: z1 is not defined

tryItOut 570
Compiling threw: SyntaxError: missing ; before statement

tryItOut 571

tryItOut 572

tryItOut 573

tryItOut 574

tryItOut 575

tryItOut 576

tryItOut 577
Compiling threw: SyntaxError: missing variable name

tryItOut 578
Compiling threw: SyntaxError: syntax error

tryItOut 579

tryItOut 580
Compiling threw: SyntaxError: missing variable name

tryItOut 581

tryItOut 582
Compiling threw: SyntaxError: invalid for/in left-hand side

tryItOut 583
uneval returned the string: null

tryItOut 584
Compiling threw: SyntaxError: missing ) in parenthetical

tryItOut 585
Compiling threw: SyntaxError: missing variable name

tryItOut 586

tryItOut 587
Compiling threw: SyntaxError: invalid for/in left-hand side

tryItOut 588
Compiling threw: SyntaxError: invalid for/in left-hand side

tryItOut 589
Compiling threw: SyntaxError: syntax error

tryItOut 590
Compiling threw: SyntaxError: illegal XML character

tryItOut 591
Running threw: ReferenceError: window is not defined

tryItOut 592
It's an iterator!
Iterating threw!
Iterating threw: ReferenceError: window is not defined

tryItOut 593

tryItOut 594
Running threw: ReferenceError: window is not defined

tryItOut 595

tryItOut 596
Compiling threw: SyntaxError: invalid destructuring assignment operator

tryItOut 597
Compiling threw: SyntaxError: missing : after property id

tryItOut 598

tryItOut 599
Compiling threw: SyntaxError: missing variable name

tryItOut 600
Compiling threw: SyntaxError: invalid for/in left-hand side

tryItOut 601
Compiling threw: TypeError: redeclaration of variable __iterator__

tryItOut 602

tryItOut 603

tryItOut 604
Compiling threw: SyntaxError: missing variable name

tryItOut 605

tryItOut 606
Compiling threw: SyntaxError: missing variable name

tryItOut 607

tryItOut 608

tryItOut 609

tryItOut 610
Running threw: ReferenceError: reference to undefined XML name *::*

tryItOut 611
Running threw: ReferenceError: __iterator__ is not defined

tryItOut 612
Compiling threw: SyntaxError: syntax error

tryItOut 613
It's an iterator!
Iterating threw!
Iterating threw: ReferenceError: window is not defined

tryItOut 614

tryItOut 615
Compiling threw: SyntaxError: syntax error

tryItOut 616

tryItOut 617
Compiling threw: SyntaxError: invalid assignment left-hand side

tryItOut 618
Compiling threw: SyntaxError: syntax error

tryItOut 619
It's an iterator!
Iterating succeeded, iterCount == 1

tryItOut 620
It's an iterator!
Iterating threw!
Iterating threw: ReferenceError: reference to undefined property "window"

tryItOut 621
Compiling threw: TypeError: generator function anonymous returns a value

tryItOut 622
Running threw: ReferenceError: reference to undefined XML name *::*

tryItOut 623

tryItOut 624

tryItOut 625
Running threw: ReferenceError: reference to undefined XML name *

tryItOut 626
Compiling threw: TypeError: generator function anonymous returns a value

tryItOut 627
Compiling threw: SyntaxError: syntax error

tryItOut 628

tryItOut 629

tryItOut 630
Running threw: TypeError: this.zzz has no properties

tryItOut 631
Compiling threw: SyntaxError: syntax error

tryItOut 632
Compiling threw: SyntaxError: illegal XML character

tryItOut 633
Compiling threw: TypeError: redeclaration of variable __count__

tryItOut 634
It's an iterator!
Iterating succeeded, iterCount == 1

tryItOut 635
Running threw: Error: invalid sharp variable use #1#

tryItOut 636
Compiling threw: SyntaxError: illegal character

tryItOut 637
Compiling threw: SyntaxError: missing variable name

tryItOut 638
Compiling threw: SyntaxError: missing ; after for-loop initializer

tryItOut 639

tryItOut 640
Compiling threw: SyntaxError: invalid for/in left-hand side

tryItOut 641

tryItOut 642
Running threw: ReferenceError: z1 is not defined

tryItOut 643
Compiling threw: SyntaxError: syntax error

tryItOut 644
Compiling threw: SyntaxError: invalid for/in left-hand side

tryItOut 645

tryItOut 646
Running threw: TypeError: this.zzz has no properties

tryItOut 647

tryItOut 648
Compiling threw: SyntaxError: missing } in XML expression

tryItOut 649
Compiling threw: SyntaxError: syntax error

tryItOut 650

tryItOut 651

tryItOut 652
Compiling threw: TypeError: generator function anonymous returns a value

tryItOut 653

tryItOut 654
Running threw: TypeError: false.yoyo is not a function

tryItOut 655
uneval returned the string: [undefined]

tryItOut 656

tryItOut 657

tryItOut 658

tryItOut 659

tryItOut 660
Compiling threw: SyntaxError: invalid for/in left-hand side

tryItOut 661
Compiling threw: SyntaxError: missing ; after for-loop initializer

tryItOut 662
Compiling threw: SyntaxError: missing variable name

tryItOut 663

tryItOut 664
It's an iterator!
Iterating succeeded, iterCount == 1

tryItOut 665
Compiling threw: SyntaxError: invalid for/in left-hand side

tryItOut 666

tryItOut 667
Running threw: ReferenceError: window is not defined

tryItOut 668

tryItOut 669
Compiling threw: SyntaxError: invalid for/in left-hand side

tryItOut 670

tryItOut 671
Running threw: ReferenceError: z1 is not defined

tryItOut 672
Compiling threw: TypeError: generator function anonymous returns a value

tryItOut 673

tryItOut 674
Running threw: TypeError: this.zzz has no properties

tryItOut 675
Compiling threw: SyntaxError: invalid destructuring assignment operator

tryItOut 676

tryItOut 677
Running threw: ReferenceError: reference to undefined XML name *::*

tryItOut 678

tryItOut 679

tryItOut 680
Compiling threw: SyntaxError: invalid for/in left-hand side

tryItOut 681

tryItOut 682
Compiling threw: SyntaxError: syntax error

tryItOut 683
Compiling threw: SyntaxError: syntax error

tryItOut 684

tryItOut 685

tryItOut 686
Compiling threw: SyntaxError: invalid for/in left-hand side

tryItOut 687
Compiling threw: SyntaxError: missing ] after element list

tryItOut 688
Running threw: TypeError: prop has no properties

tryItOut 689

tryItOut 690
uneval returned the string: [undefined]

tryItOut 691
Compiling threw: SyntaxError: missing variable name

tryItOut 692

tryItOut 693
Compiling threw: SyntaxError: invalid for/in left-hand side

tryItOut 694
Running threw: ReferenceError: window is not defined

tryItOut 695

tryItOut 696
Compiling threw: SyntaxError: invalid assignment left-hand side

tryItOut 697
Compiling threw: SyntaxError: missing ) after for-loop control

tryItOut 698
Compiling threw: SyntaxError: missing ) after for-loop control

tryItOut 699

tryItOut 700
Compiling threw: SyntaxError: missing variable name

tryItOut 701
It's an iterator!
Iterating succeeded, iterCount == 1

tryItOut 702
Compiling threw: SyntaxError: syntax error

tryItOut 703
Running threw: ReferenceError: reference to undefined XML name *::*

tryItOut 704
Compiling threw: SyntaxError: syntax error

tryItOut 705

tryItOut 706
Running threw: ReferenceError: reference to undefined XML name @foo

tryItOut 707
It's an iterator!
Iterating threw!
Iterating threw: ReferenceError: reference to undefined XML name *::*

tryItOut 708
Compiling threw: SyntaxError: syntax error

tryItOut 709
Compiling threw: TypeError: redeclaration of const prop

tryItOut 710
Compiling threw: SyntaxError: invalid for/in left-hand side

tryItOut 711
Compiling threw: SyntaxError: missing ) after for-loop control

tryItOut 712
Compiling threw: SyntaxError: missing ) after condition

tryItOut 713
Compiling threw: SyntaxError: missing { before function body

tryItOut 714
Running threw: ReferenceError: reference to undefined XML name *

tryItOut 715

tryItOut 716

tryItOut 717
It's an iterator!
Iterating succeeded, iterCount == 1

tryItOut 718

tryItOut 719

tryItOut 720

tryItOut 721

tryItOut 722

tryItOut 723
Compiling threw: SyntaxError: syntax error

tryItOut 724
Compiling threw: SyntaxError: missing ; before statement

tryItOut 725
Compiling threw: SyntaxError: missing ) after condition

tryItOut 726
Compiling threw: SyntaxError: unterminated comment

tryItOut 727

tryItOut 728

tryItOut 729
Compiling threw: SyntaxError: invalid for/in left-hand side

tryItOut 730

tryItOut 731

tryItOut 732
Running threw: ReferenceError: window is not defined

tryItOut 733
Running threw: ReferenceError: window is not defined

tryItOut 734
Compiling threw: SyntaxError: invalid assignment left-hand side

tryItOut 735

tryItOut 736

tryItOut 737
Compiling threw: SyntaxError: missing { before function body

tryItOut 738
Compiling threw: SyntaxError: invalid for/in left-hand side

tryItOut 739

tryItOut 740
Error while trying to determine whether it's an iterator!
The error was: TypeError: Iterator(rv) has invalid __iterator__ value [[], {constructor:""}]
uneval returned the string: null

tryItOut 741
Compiling threw: SyntaxError: missing variable name

tryItOut 742

tryItOut 743

tryItOut 744

tryItOut 745
Compiling threw: SyntaxError: invalid for/in left-hand side

tryItOut 746
Running threw: TypeError: can't convert null to number

tryItOut 747
Compiling threw: SyntaxError: syntax error

tryItOut 748
Compiling threw: SyntaxError: missing ) after condition

tryItOut 749

tryItOut 750
Compiling threw: SyntaxError: invalid for/in left-hand side

tryItOut 751

tryItOut 752
Compiling threw: SyntaxError: missing ; before statement

tryItOut 753
Compiling threw: SyntaxError: missing variable name

tryItOut 754

tryItOut 755

tryItOut 756
Compiling threw: SyntaxError: missing ] after element list

tryItOut 757
Compiling threw: SyntaxError: missing ) after switch expression

tryItOut 758
Running threw: ReferenceError: window is not defined

tryItOut 759

tryItOut 760

tryItOut 761
Compiling threw: TypeError: generator function anonymous returns a value

tryItOut 762

tryItOut 763
Compiling threw: TypeError: redeclaration of const prototype

tryItOut 764
Compiling threw: SyntaxError: syntax error

tryItOut 765

tryItOut 766
Compiling threw: SyntaxError: invalid for/in left-hand side

tryItOut 767

tryItOut 768
Compiling threw: SyntaxError: syntax error

tryItOut 769

tryItOut 770
Compiling threw: TypeError: generator function anonymous returns a value

tryItOut 771
Compiling threw: SyntaxError: missing variable name

tryItOut 772

tryItOut 773
Running threw: ReferenceError: window is not defined

tryItOut 774
Compiling threw: SyntaxError: syntax error

tryItOut 775
Compiling threw: SyntaxError: missing variable name

tryItOut 776
It's an iterator!
Iterating succeeded, iterCount == 1

tryItOut 777
It's an iterator!
Iterating succeeded, iterCount == 1

tryItOut 778

tryItOut 779

tryItOut 780
Running threw: ReferenceError: z1 is not defined

tryItOut 781

tryItOut 782
Compiling threw: SyntaxError: invalid for/in left-hand side

tryItOut 783
Running threw: Error: invalid sharp variable use #1#

tryItOut 784

tryItOut 785
Compiling threw: SyntaxError: invalid for/in left-hand side

tryItOut 786

tryItOut 787
Compiling threw: SyntaxError: invalid assignment left-hand side

tryItOut 788
Compiling threw: SyntaxError: missing variable name

tryItOut 789

tryItOut 790

tryItOut 791

tryItOut 792

tryItOut 793

tryItOut 794
Compiling threw: TypeError: redeclaration of var prototype

tryItOut 795

tryItOut 796

tryItOut 797
Compiling threw: SyntaxError: invalid for/in left-hand side

tryItOut 798

tryItOut 799

tryItOut 800

tryItOut 801

tryItOut 802

tryItOut 803

tryItOut 804
It's an iterator!
Iterating succeeded, iterCount == 1

tryItOut 805
Compiling threw: SyntaxError: invalid assignment left-hand side

tryItOut 806
Compiling threw: TypeError: redeclaration of variable constructor

tryItOut 807

tryItOut 808

tryItOut 809
Compiling threw: SyntaxError: invalid decrement operand

tryItOut 810
It's an iterator!
Iterating succeeded, iterCount == 0

tryItOut 811
Compiling threw: SyntaxError: missing ) in parenthetical

tryItOut 812
Compiling threw: SyntaxError: missing ) in parenthetical

tryItOut 813
It's an iterator!
Iterating succeeded, iterCount == 0

tryItOut 814
Compiling threw: SyntaxError: yield expression must be parenthesized

tryItOut 815
Compiling threw: TypeError: generator function anonymous returns a value

tryItOut 816
Compiling threw: SyntaxError: invalid for/in left-hand side

tryItOut 817

tryItOut 818
Compiling threw: TypeError: generator function anonymous returns a value

tryItOut 819
Compiling threw: SyntaxError: missing ) after argument list

tryItOut 820

tryItOut 821
Running threw: ReferenceError: reference to undefined XML name *

tryItOut 822
Compiling threw: SyntaxError: missing variable name

tryItOut 823

tryItOut 824
Running threw: ReferenceError: reference to undefined XML name *::*

tryItOut 825

tryItOut 826

tryItOut 827
It's an iterator!
Iterating threw!
Iterating threw: ReferenceError: reference to undefined XML name @foo

tryItOut 828
Compiling threw: SyntaxError: missing ; after for-loop initializer

tryItOut 829
Running threw: TypeError: <x><y/></x>['throw'] is not a function

tryItOut 830

tryItOut 831
Compiling threw: SyntaxError: syntax error

tryItOut 832
Running threw: ReferenceError: window is not defined

tryItOut 833
Error while trying to determine whether it's an iterator!
The error was: TypeError: Iterator(rv) has invalid __iterator__ value true
uneval returned the string: null

tryItOut 834
Running threw: TypeError: this.__defineSetter__ is not a function

tryItOut 835
Running threw: TypeError: __parent__ has no properties

tryItOut 836
Compiling threw: SyntaxError: missing variable name

tryItOut 837
Compiling threw: TypeError: generator function anonymous returns a value

tryItOut 838
Compiling threw: SyntaxError: missing variable name

tryItOut 839

tryItOut 840

tryItOut 841
Compiling threw: SyntaxError: missing variable name

tryItOut 842
Compiling threw: SyntaxError: missing variable name

tryItOut 843
Compiling threw: SyntaxError: syntax error

tryItOut 844
Compiling threw: SyntaxError: missing variable name

tryItOut 845
Compiling threw: TypeError: redeclaration of const __iterator__

tryItOut 846

tryItOut 847
Compiling threw: SyntaxError: invalid for/in left-hand side

tryItOut 848
Compiling threw: SyntaxError: missing ; after for-loop condition

tryItOut 849
Compiling threw: SyntaxError: missing variable name

tryItOut 850
Running threw: [object StopIteration]

tryItOut 851
Running threw: ReferenceError: reference to undefined XML name *

tryItOut 852
Compiling threw: SyntaxError: missing ) in parenthetical

tryItOut 853
Compiling threw: SyntaxError: duplicate label

tryItOut 854

tryItOut 855

tryItOut 856
Running threw: TypeError: this.propertyIsEnumerable is not a function

tryItOut 857

tryItOut 858

tryItOut 859
Compiling threw: SyntaxError: missing variable name

tryItOut 860

tryItOut 861
Running threw: ReferenceError: reference to undefined XML name @foo

tryItOut 862

tryItOut 863
Running threw: ReferenceError: z2 is not defined

tryItOut 864
Compiling threw: SyntaxError: invalid assignment left-hand side

tryItOut 865
Running threw: ReferenceError: reference to undefined XML name *

tryItOut 866

tryItOut 867
Running threw: TypeError: this.zzz has no properties

tryItOut 868

tryItOut 869
Compiling threw: SyntaxError: invalid assignment left-hand side

tryItOut 870
Compiling threw: SyntaxError: syntax error

tryItOut 871

tryItOut 872

tryItOut 873
Compiling threw: SyntaxError: syntax error

tryItOut 874
Compiling threw: SyntaxError: missing ) after condition

tryItOut 875

tryItOut 876
Compiling threw: SyntaxError: illegal XML character

tryItOut 877
It's an iterator!
Iterating threw!
Iterating threw: Error: invalid sharp variable use #1#

tryItOut 878
Compiling threw: SyntaxError: missing = in destructuring declaration

tryItOut 879

tryItOut 880
Running threw: ReferenceError: reference to undefined XML name *::*

tryItOut 881

tryItOut 882

tryItOut 883
Compiling threw: SyntaxError: invalid for/in left-hand side

tryItOut 884

tryItOut 885

tryItOut 886

tryItOut 887

tryItOut 888
Compiling threw: SyntaxError: invalid for/in left-hand side

tryItOut 889
Compiling threw: SyntaxError: invalid for/in left-hand side

tryItOut 890
It's an iterator!
Iterating succeeded, iterCount == 1

tryItOut 891

tryItOut 892

tryItOut 893
Compiling threw: TypeError: generator function anonymous returns a value

tryItOut 894
Compiling threw: SyntaxError: missing ) after switch expression

tryItOut 895
Running threw: ReferenceError: reference to undefined XML name @foo

tryItOut 896
Running threw: ReferenceError: reference to undefined XML name @foo

tryItOut 897

tryItOut 898

tryItOut 899
It's an iterator!
Iterating succeeded, iterCount == 0

tryItOut 900

tryItOut 901

tryItOut 902
Compiling threw: SyntaxError: syntax error

tryItOut 903
It's an iterator!
Iterating succeeded, iterCount == 1

tryItOut 904
It's an iterator!
Iterating succeeded, iterCount == 1

tryItOut 905
It's an iterator!
Iterating succeeded, iterCount == 1

tryItOut 906
Compiling threw: SyntaxError: missing variable name

tryItOut 907
It's an iterator!
Iterating succeeded, iterCount == 0

tryItOut 908
Running threw: ReferenceError: window is not defined

tryItOut 909
It's an iterator!
Iterating succeeded, iterCount == 1

tryItOut 910
Running threw: [object StopIteration]

tryItOut 911

tryItOut 912
Compiling threw: SyntaxError: missing ) after let head

tryItOut 913

tryItOut 914

tryItOut 915
Running threw: ReferenceError: reference to undefined XML name *

tryItOut 916

tryItOut 917
Running threw: ReferenceError: window is not defined

tryItOut 918

tryItOut 919
Compiling threw: SyntaxError: syntax error

tryItOut 920

tryItOut 921
Compiling threw: SyntaxError: syntax error

tryItOut 922

tryItOut 923
Compiling threw: SyntaxError: invalid for/in left-hand side

tryItOut 924

tryItOut 925
Compiling threw: SyntaxError: invalid property id

tryItOut 926

tryItOut 927
Compiling threw: SyntaxError: syntax error

tryItOut 928
Compiling threw: SyntaxError: invalid for/in left-hand side

tryItOut 929

tryItOut 930

tryItOut 931
Compiling threw: SyntaxError: invalid assignment left-hand side

tryItOut 932

tryItOut 933
Compiling threw: TypeError: redeclaration of const constructor

tryItOut 934
It's an iterator!
Iterating threw!
Iterating threw: ReferenceError: z2 is not defined

tryItOut 935
Compiling threw: SyntaxError: missing variable name

tryItOut 936
Compiling threw: SyntaxError: syntax error

tryItOut 937
Compiling threw: TypeError: generator function anonymous returns a value

tryItOut 938
Compiling threw: SyntaxError: invalid for/in left-hand side

tryItOut 939
Compiling threw: SyntaxError: invalid destructuring assignment operator

tryItOut 940

tryItOut 941

tryItOut 942
Compiling threw: SyntaxError: missing ] after element list

tryItOut 943

tryItOut 944

tryItOut 945
Running threw: TypeError: __proto__ has no properties

tryItOut 946
Compiling threw: SyntaxError: invalid sharp variable definition

tryItOut 947

tryItOut 948
Compiling threw: SyntaxError: syntax error

tryItOut 949

tryItOut 950

tryItOut 951
Compiling threw: SyntaxError: missing ) in parenthetical

tryItOut 952
Running threw: ReferenceError: window is not defined

tryItOut 953
Compiling threw: SyntaxError: missing ( before let head

tryItOut 954
Compiling threw: SyntaxError: missing ) in parenthetical

tryItOut 955

tryItOut 956

tryItOut 957

tryItOut 958
Compiling threw: SyntaxError: missing variable name

tryItOut 959

tryItOut 960
Compiling threw: SyntaxError: invalid assignment left-hand side

tryItOut 961
Compiling threw: TypeError: redeclaration of const __iterator__

tryItOut 962
Compiling threw: SyntaxError: missing ) in parenthetical

tryItOut 963

tryItOut 964

tryItOut 965
Running threw: ReferenceError: reference to undefined XML name @foo

tryItOut 966
Compiling threw: TypeError: generator function anonymous returns a value

tryItOut 967
Compiling threw: SyntaxError: syntax error

tryItOut 968
Compiling threw: SyntaxError: missing ) in parenthetical

tryItOut 969

tryItOut 970

tryItOut 971
Compiling threw: SyntaxError: missing variable name

tryItOut 972
Running threw: ReferenceError: window is not defined

tryItOut 973
Compiling threw: SyntaxError: missing variable name

tryItOut 974
Compiling threw: SyntaxError: missing variable name

tryItOut 975
Compiling threw: TypeError: redeclaration of var __count__

tryItOut 976
Compiling threw: SyntaxError: invalid for/in left-hand side

tryItOut 977

tryItOut 978
Compiling threw: SyntaxError: invalid assignment left-hand side

tryItOut 979

tryItOut 980

tryItOut 981
Compiling threw: SyntaxError: invalid for/in left-hand side

tryItOut 982
Compiling threw: TypeError: redeclaration of variable prototype

tryItOut 983
It's an iterator!
Iterating threw!
Iterating threw: TypeError: this.__defineSetter__ is not a function

tryItOut 984
Running threw: TypeError: this.__defineSetter__ is not a function

tryItOut 985
Compiling threw: SyntaxError: syntax error

tryItOut 986

tryItOut 987
Compiling threw: TypeError: redeclaration of const prototype

tryItOut 988

tryItOut 989
Compiling threw: SyntaxError: invalid for/in left-hand side

tryItOut 990
Running threw: TypeError: this.zzz has no properties

tryItOut 991
Compiling threw: SyntaxError: missing { before function body

tryItOut 992

tryItOut 993
Compiling threw: SyntaxError: illegal XML character

tryItOut 994
Compiling threw: SyntaxError: invalid for/in left-hand side

tryItOut 995
It's an iterator!
Iterating succeeded, iterCount == 1

tryItOut 996

tryItOut 997
It's an iterator!
Iterating succeeded, iterCount == 1

tryItOut 998

tryItOut 999
Compiling threw: SyntaxError: invalid for/in left-hand side

tryItOut 1000
Compiling threw: SyntaxError: missing ) in parenthetical

ALL OK

Script done on Sat 04 May 2013 07:23:10 AM PDT
