Script started on Sat 04 May 2013 07:24:27 AM PDT
***
Targeting SpiderMonkey / Gecko.

tryItOut 1
Compiling threw: SyntaxError: missing ; after for-loop initializer

tryItOut 2
Compiling threw: SyntaxError: invalid XML list syntax

tryItOut 3
Compiling threw: SyntaxError: missing ) in parenthetical

tryItOut 4
Compiling threw: SyntaxError: missing variable name

tryItOut 5
Compiling threw: SyntaxError: missing variable name

tryItOut 6
Running threw: ReferenceError: reference to undefined XML name @foo

tryItOut 7
Compiling threw: SyntaxError: missing ( before let head

tryItOut 8

tryItOut 9
Compiling threw: SyntaxError: missing ) in parenthetical

tryItOut 10

tryItOut 11

tryItOut 12

tryItOut 13

tryItOut 14

tryItOut 15
Running threw: ReferenceError: reference to undefined XML name @foo

tryItOut 16

tryItOut 17

tryItOut 18

tryItOut 19

tryItOut 20

tryItOut 21

tryItOut 22

tryItOut 23
Running threw: [object StopIteration]

tryItOut 24

tryItOut 25
Compiling threw: SyntaxError: invalid for/in left-hand side

tryItOut 26

tryItOut 27
Compiling threw: SyntaxError: invalid for/in left-hand side

tryItOut 28

tryItOut 29
Running threw: ReferenceError: window is not defined

tryItOut 30

tryItOut 31
Running threw: TypeError: this.zzz has no properties

tryItOut 32

tryItOut 33

tryItOut 34

tryItOut 35
Compiling threw: SyntaxError: missing ) in parenthetical

tryItOut 36
Compiling threw: SyntaxError: invalid for/in left-hand side

tryItOut 37
Compiling threw: SyntaxError: illegal XML character

tryItOut 38

tryItOut 39

tryItOut 40
Compiling threw: SyntaxError: invalid for/in left-hand side

tryItOut 41
Compiling threw: SyntaxError: invalid assignment left-hand side

tryItOut 42
Compiling threw: SyntaxError: invalid for/in left-hand side

tryItOut 43

tryItOut 44
Compiling threw: SyntaxError: missing } in compound statement

tryItOut 45

tryItOut 46
Compiling threw: SyntaxError: missing = in destructuring declaration

tryItOut 47
Running threw: [object StopIteration]

tryItOut 48
Compiling threw: SyntaxError: illegal XML character

tryItOut 49
Compiling threw: SyntaxError: invalid for/in left-hand side

tryItOut 50

tryItOut 51

tryItOut 52
Compiling threw: SyntaxError: missing ; before statement

tryItOut 53
Compiling threw: SyntaxError: invalid destructuring assignment operator

tryItOut 54
Running threw: ReferenceError: reference to undefined XML name @foo

tryItOut 55
Running threw: [object StopIteration]

tryItOut 56

tryItOut 57

tryItOut 58

tryItOut 59

tryItOut 60

tryItOut 61

tryItOut 62
Compiling threw: SyntaxError: missing ; after for-loop initializer

tryItOut 63
Running threw: ReferenceError: prop is not defined

tryItOut 64
Compiling threw: SyntaxError: syntax error

tryItOut 65
Compiling threw: SyntaxError: syntax error

tryItOut 66

tryItOut 67

tryItOut 68

tryItOut 69
Compiling threw: SyntaxError: unterminated string literal

tryItOut 70

tryItOut 71
Running threw: TypeError: this.zzz has no properties

tryItOut 72

tryItOut 73
Compiling threw: SyntaxError: missing ) in parenthetical

tryItOut 74

tryItOut 75
Running threw: [object StopIteration]

tryItOut 76

tryItOut 77
Compiling threw: SyntaxError: missing ) in parenthetical

tryItOut 78
Compiling threw: SyntaxError: missing ) in parenthetical

tryItOut 79

tryItOut 80

tryItOut 81

tryItOut 82

tryItOut 83

tryItOut 84
Compiling threw: SyntaxError: syntax error

tryItOut 85

tryItOut 86
Compiling threw: SyntaxError: invalid for/in left-hand side

tryItOut 87
Running threw: ReferenceError: z2 is not defined

tryItOut 88

tryItOut 89
Running threw: TypeError: this.zzz has no properties

tryItOut 90

tryItOut 91

tryItOut 92

tryItOut 93
Running threw: ReferenceError: prototype is not defined

tryItOut 94
Compiling threw: SyntaxError: missing ) in parenthetical

tryItOut 95

tryItOut 96

tryItOut 97
Running threw: ReferenceError: reference to undefined XML name @foo

tryItOut 98
Compiling threw: SyntaxError: missing variable name

tryItOut 99
It's an iterator!
Iterating threw!
Iterating threw: ReferenceError: reference to undefined XML name *

tryItOut 100

tryItOut 101

tryItOut 102

tryItOut 103

tryItOut 104
Compiling threw: SyntaxError: missing } in compound statement

tryItOut 105

tryItOut 106
Compiling threw: SyntaxError: missing ) in parenthetical

tryItOut 107

tryItOut 108
Compiling threw: SyntaxError: invalid for/in left-hand side

tryItOut 109
Compiling threw: SyntaxError: syntax error

tryItOut 110

tryItOut 111
Compiling threw: TypeError: redeclaration of const __proto__

tryItOut 112

tryItOut 113
Running threw: ReferenceError: __noSuchMethod__ is not defined

tryItOut 114

tryItOut 115
Compiling threw: SyntaxError: invalid for/in left-hand side

tryItOut 116
Compiling threw: SyntaxError: missing } after let block

tryItOut 117

tryItOut 118

tryItOut 119
Compiling threw: SyntaxError: missing variable name

tryItOut 120
Compiling threw: SyntaxError: missing ) after let head

tryItOut 121

tryItOut 122

tryItOut 123

tryItOut 124

tryItOut 125
Compiling threw: SyntaxError: missing variable name

tryItOut 126
Compiling threw: SyntaxError: invalid decrement operand

tryItOut 127

tryItOut 128

tryItOut 129
It's an iterator!
Iterating threw!
Iterating threw: ReferenceError: z1 is not defined

tryItOut 130
Compiling threw: SyntaxError: syntax error

tryItOut 131

tryItOut 132
Compiling threw: SyntaxError: missing ) in parenthetical

tryItOut 133

tryItOut 134
Compiling threw: SyntaxError: missing ) in parenthetical

tryItOut 135

tryItOut 136
Compiling threw: SyntaxError: missing ) after let head

tryItOut 137
Compiling threw: SyntaxError: syntax error

tryItOut 138
Compiling threw: SyntaxError: missing ) in parenthetical

tryItOut 139

tryItOut 140
Running threw: ReferenceError: z1 is not defined

tryItOut 141
It's an iterator!
Iterating threw!
Iterating threw: ReferenceError: reference to undefined XML name *

tryItOut 142
Compiling threw: SyntaxError: missing variable name

tryItOut 143
Compiling threw: SyntaxError: missing variable name

tryItOut 144

tryItOut 145
Compiling threw: SyntaxError: missing : after property id

tryItOut 146

tryItOut 147
Compiling threw: SyntaxError: invalid assignment left-hand side

tryItOut 148
Compiling threw: TypeError: generator function anonymous returns a value

tryItOut 149

tryItOut 150

tryItOut 151
Running threw: TypeError: this.zzz has no properties

tryItOut 152

tryItOut 153

tryItOut 154
Compiling threw: SyntaxError: invalid for/in left-hand side

tryItOut 155
Compiling threw: SyntaxError: invalid for/in left-hand side

tryItOut 156
Compiling threw: SyntaxError: syntax error

tryItOut 157
Compiling threw: SyntaxError: missing variable name

tryItOut 158
Compiling threw: SyntaxError: duplicate label

tryItOut 159

tryItOut 160

tryItOut 161
Compiling threw: SyntaxError: invalid decrement operand

tryItOut 162

tryItOut 163
Compiling threw: SyntaxError: invalid for/in left-hand side

tryItOut 164

tryItOut 165
Compiling threw: SyntaxError: missing variable name

tryItOut 166

tryItOut 167
Running threw: ReferenceError: window is not defined

tryItOut 168

tryItOut 169
Compiling threw: SyntaxError: missing } after let block

tryItOut 170
Compiling threw: SyntaxError: invalid for/in left-hand side

tryItOut 171

tryItOut 172
Running threw: ReferenceError: __noSuchMethod__ is not defined

tryItOut 173
Compiling threw: SyntaxError: invalid XML name

tryItOut 174
Compiling threw: SyntaxError: missing ) in parenthetical

tryItOut 175

tryItOut 176
Compiling threw: SyntaxError: missing variable name

tryItOut 177
Running threw: ReferenceError: reference to undefined XML name *::*

tryItOut 178

tryItOut 179

tryItOut 180

tryItOut 181
Compiling threw: SyntaxError: missing variable name

tryItOut 182
Running threw: ReferenceError: reference to undefined XML name *

tryItOut 183

tryItOut 184
Running threw: ReferenceError: reference to undefined XML name *::*

tryItOut 185
Compiling threw: SyntaxError: invalid for/in left-hand side

tryItOut 186

tryItOut 187
Running threw: ReferenceError: __iterator__ is not defined

tryItOut 188

tryItOut 189

tryItOut 190

tryItOut 191

tryItOut 192

tryItOut 193
Running threw: ReferenceError: __iterator__ is not defined

tryItOut 194
Compiling threw: TypeError: redeclaration of const __count__

tryItOut 195

tryItOut 196
Compiling threw: SyntaxError: syntax error

tryItOut 197
Compiling threw: SyntaxError: missing ; after for-loop initializer

tryItOut 198

tryItOut 199
Running threw: ReferenceError: reference to undefined XML name @foo

tryItOut 200

tryItOut 201
Compiling threw: SyntaxError: syntax error

tryItOut 202
Compiling threw: SyntaxError: invalid XML qualified name

tryItOut 203
Running threw: ReferenceError: window is not defined

tryItOut 204
Compiling threw: SyntaxError: missing ) in parenthetical

tryItOut 205
Compiling threw: SyntaxError: invalid for/in left-hand side

tryItOut 206
Compiling threw: SyntaxError: invalid for/in left-hand side

tryItOut 207

tryItOut 208

tryItOut 209

tryItOut 210

tryItOut 211
Compiling threw: SyntaxError: missing } in compound statement

tryItOut 212
Compiling threw: SyntaxError: unterminated regular expression literal

tryItOut 213

tryItOut 214
Compiling threw: TypeError: anonymous generator function returns a value

tryItOut 215

tryItOut 216

tryItOut 217
Compiling threw: SyntaxError: missing } after let block

tryItOut 218

tryItOut 219
Running threw: ReferenceError: __proto__ is not defined

tryItOut 220
It's an iterator!
Iterating succeeded, iterCount == 1

tryItOut 221

tryItOut 222

tryItOut 223

tryItOut 224
Running threw: ReferenceError: reference to undefined XML name *::*

tryItOut 225
Compiling threw: SyntaxError: missing ) in parenthetical

tryItOut 226
Running threw: ReferenceError: __proto__ is not defined

tryItOut 227
Compiling threw: SyntaxError: missing ) after condition

tryItOut 228
Running threw: ReferenceError: window is not defined

tryItOut 229
Compiling threw: SyntaxError: invalid XML list syntax

tryItOut 230
Running threw: TypeError: #1={a:#1#} is not a function

tryItOut 231
Compiling threw: SyntaxError: missing : after property id

tryItOut 232

tryItOut 233

tryItOut 234

tryItOut 235
Compiling threw: SyntaxError: missing ) in parenthetical

tryItOut 236

tryItOut 237

tryItOut 238
Compiling threw: TypeError: redeclaration of variable __count__

tryItOut 239
Compiling threw: SyntaxError: syntax error

tryItOut 240
Compiling threw: TypeError: generator function anonymous returns a value

tryItOut 241

tryItOut 242
Running threw: ReferenceError: window is not defined

tryItOut 243
Compiling threw: SyntaxError: invalid default XML namespace

tryItOut 244

tryItOut 245
Compiling threw: SyntaxError: illegal XML character

tryItOut 246
Compiling threw: SyntaxError: invalid for/in left-hand side

tryItOut 247
Compiling threw: SyntaxError: missing variable name

tryItOut 248

tryItOut 249

tryItOut 250
Compiling threw: SyntaxError: missing variable name

tryItOut 251

tryItOut 252
Compiling threw: SyntaxError: invalid for/in left-hand side

tryItOut 253
Running threw: ReferenceError: __parent__ is not defined

tryItOut 254

tryItOut 255

tryItOut 256
Running threw: ReferenceError: constructor is not defined

tryItOut 257
Running threw: ReferenceError: __parent__ is not defined

tryItOut 258

tryItOut 259
uneval returned the string: [[1]]

tryItOut 260
Compiling threw: TypeError: redeclaration of var __noSuchMethod__

tryItOut 261
Compiling threw: SyntaxError: missing ) after argument list

tryItOut 262

tryItOut 263
Running threw: ReferenceError: reference to undefined XML name *

tryItOut 264

tryItOut 265

tryItOut 266

tryItOut 267

tryItOut 268
Compiling threw: TypeError: generator function anonymous returns a value

tryItOut 269
Compiling threw: SyntaxError: duplicate label

tryItOut 270
Compiling threw: SyntaxError: invalid for/in left-hand side

tryItOut 271

tryItOut 272

tryItOut 273
Running threw: ReferenceError: reference to undefined XML name @foo

tryItOut 274

tryItOut 275

tryItOut 276
Compiling threw: SyntaxError: missing ) in parenthetical

tryItOut 277

tryItOut 278

tryItOut 279
Compiling threw: SyntaxError: syntax error

tryItOut 280
Compiling threw: SyntaxError: invalid assignment left-hand side

tryItOut 281

tryItOut 282

tryItOut 283
Compiling threw: SyntaxError: missing ) in parenthetical

tryItOut 284
Compiling threw: SyntaxError: syntax error

tryItOut 285

tryItOut 286
Compiling threw: SyntaxError: missing ) in parenthetical

tryItOut 287
Compiling threw: SyntaxError: missing ) in parenthetical

tryItOut 288

tryItOut 289
Running threw: TypeError: this.zzz has no properties

tryItOut 290
Running threw: TypeError: this.zzz has no properties

tryItOut 291
Compiling threw: SyntaxError: missing variable name

tryItOut 292

tryItOut 293
Compiling threw: SyntaxError: catch without try

tryItOut 294

tryItOut 295
Running threw: ReferenceError: __parent__ is not defined

tryItOut 296
Compiling threw: SyntaxError: missing variable name

tryItOut 297

tryItOut 298
Compiling threw: SyntaxError: syntax error

tryItOut 299

tryItOut 300
Compiling threw: TypeError: anonymous generator function returns a value

tryItOut 301

tryItOut 302
Compiling threw: SyntaxError: missing } after let block

tryItOut 303
Running threw: TypeError: this.zzz has no properties

tryItOut 304

tryItOut 305
Compiling threw: SyntaxError: missing ) in parenthetical

tryItOut 306

tryItOut 307

tryItOut 308

tryItOut 309
Compiling threw: SyntaxError: missing { before function body

tryItOut 310
Compiling threw: SyntaxError: invalid assignment left-hand side

tryItOut 311
Compiling threw: SyntaxError: missing : after property id

tryItOut 312

tryItOut 313

tryItOut 314

tryItOut 315
Running threw: TypeError: StopIteration is not a function

tryItOut 316
Compiling threw: SyntaxError: invalid for/in left-hand side

tryItOut 317
Compiling threw: SyntaxError: missing ; after for-loop initializer

tryItOut 318

tryItOut 319
Compiling threw: SyntaxError: invalid increment operand

tryItOut 320
Compiling threw: TypeError: anonymous generator function returns a value

tryItOut 321

tryItOut 322

tryItOut 323

tryItOut 324
Compiling threw: TypeError: redeclaration of const __proto__

tryItOut 325
Compiling threw: SyntaxError: missing ; after for-loop initializer

tryItOut 326
Compiling threw: SyntaxError: missing = in destructuring declaration

tryItOut 327
Running threw: ReferenceError: reference to undefined XML name *::*

tryItOut 328

tryItOut 329
Running threw: ReferenceError: window is not defined

tryItOut 330
Compiling threw: SyntaxError: invalid for/in left-hand side

tryItOut 331

tryItOut 332
Compiling threw: SyntaxError: invalid assignment left-hand side

tryItOut 333
Compiling threw: SyntaxError: invalid default XML namespace

tryItOut 334

tryItOut 335
Compiling threw: SyntaxError: invalid for/in left-hand side

tryItOut 336
Compiling threw: SyntaxError: illegal XML character

tryItOut 337

tryItOut 338
Compiling threw: SyntaxError: invalid assignment left-hand side

tryItOut 339

tryItOut 340
Compiling threw: SyntaxError: invalid for/in left-hand side

tryItOut 341

tryItOut 342
Compiling threw: SyntaxError: invalid assignment left-hand side

tryItOut 343
Compiling threw: SyntaxError: invalid for/in left-hand side

tryItOut 344

tryItOut 345
Compiling threw: SyntaxError: invalid for/in left-hand side

tryItOut 346
Compiling threw: SyntaxError: missing = in destructuring declaration

tryItOut 347

tryItOut 348
Running threw: TypeError: this.zzz has no properties

tryItOut 349

tryItOut 350

tryItOut 351

tryItOut 352
Compiling threw: TypeError: redeclaration of const prototype

tryItOut 353
Compiling threw: SyntaxError: missing ) in parenthetical

tryItOut 354

tryItOut 355
Compiling threw: SyntaxError: missing variable name

tryItOut 356

tryItOut 357
Compiling threw: SyntaxError: missing ) in parenthetical

tryItOut 358

tryItOut 359
Running threw: ReferenceError: __iterator__ is not defined

tryItOut 360

tryItOut 361

tryItOut 362
Compiling threw: SyntaxError: syntax error

tryItOut 363
Compiling threw: SyntaxError: unterminated regular expression literal

tryItOut 364
Running threw: ReferenceError: reference to undefined XML name @foo

tryItOut 365
Compiling threw: TypeError: redeclaration of var __proto__

tryItOut 366
Compiling threw: SyntaxError: missing { before function body

tryItOut 367
Compiling threw: TypeError: redeclaration of const __parent__

tryItOut 368
Running threw: ReferenceError: __iterator__ is not defined

tryItOut 369

tryItOut 370
Running threw: ReferenceError: __proto__ is not defined

tryItOut 371

tryItOut 372

tryItOut 373
Compiling threw: SyntaxError: missing variable name

tryItOut 374

tryItOut 375

tryItOut 376
Running threw: ReferenceError: __iterator__ is not defined

tryItOut 377

tryItOut 378
Running threw: TypeError: this.zzz has no properties

tryItOut 379

tryItOut 380
Compiling threw: SyntaxError: syntax error

tryItOut 381

tryItOut 382

tryItOut 383
Compiling threw: SyntaxError: invalid decrement operand

tryItOut 384
Running threw: TypeError: this.zzz has no properties

tryItOut 385
Running threw: ReferenceError: get is not defined

tryItOut 386

tryItOut 387
Compiling threw: SyntaxError: missing ) in parenthetical

tryItOut 388

tryItOut 389

tryItOut 390
Compiling threw: SyntaxError: missing : after property id

tryItOut 391
Compiling threw: SyntaxError: syntax error

tryItOut 392
Compiling threw: TypeError: redeclaration of variable __noSuchMethod__

tryItOut 393
Compiling threw: SyntaxError: missing variable name

tryItOut 394
Compiling threw: SyntaxError: illegal XML character

tryItOut 395

tryItOut 396

tryItOut 397
Compiling threw: SyntaxError: syntax error

tryItOut 398
Compiling threw: SyntaxError: missing ; after for-loop initializer

tryItOut 399

tryItOut 400
Running threw: [object StopIteration]

tryItOut 401
Compiling threw: SyntaxError: missing variable name

tryItOut 402

tryItOut 403

tryItOut 404
Compiling threw: TypeError: redeclaration of variable prop

tryItOut 405

tryItOut 406
Running threw: TypeError: this.zzz has no properties

tryItOut 407

tryItOut 408
Running threw: ReferenceError: reference to undefined XML name @foo

tryItOut 409

tryItOut 410
Running threw: [object StopIteration]

tryItOut 411
Compiling threw: SyntaxError: missing { before function body

tryItOut 412

tryItOut 413
Compiling threw: TypeError: redeclaration of variable __iterator__

tryItOut 414
Compiling threw: SyntaxError: missing ) in parenthetical

tryItOut 415
Compiling threw: SyntaxError: illegal XML character

tryItOut 416

tryItOut 417
Compiling threw: SyntaxError: invalid for/in left-hand side

tryItOut 418

tryItOut 419

tryItOut 420

tryItOut 421

tryItOut 422
Running threw: ReferenceError: __parent__ is not defined

tryItOut 423
Running threw: [object StopIteration]

tryItOut 424
It's an iterator!
Iterating threw!
Iterating threw: Error: invalid sharp variable use #1#

tryItOut 425

tryItOut 426

tryItOut 427

tryItOut 428
Running threw: ReferenceError: __proto__ is not defined

tryItOut 429
Compiling threw: SyntaxError: missing ; after for-loop initializer

tryItOut 430

tryItOut 431

tryItOut 432

tryItOut 433
Compiling threw: SyntaxError: missing ) in parenthetical

tryItOut 434
Compiling threw: SyntaxError: invalid assignment left-hand side

tryItOut 435
Compiling threw: TypeError: redeclaration of variable prop

tryItOut 436
Compiling threw: TypeError: redeclaration of variable prototype

tryItOut 437
Running threw: [object StopIteration]

tryItOut 438
Running threw: ReferenceError: __noSuchMethod__ is not defined

tryItOut 439
Running threw: [object StopIteration]

tryItOut 440

tryItOut 441

tryItOut 442
Compiling threw: SyntaxError: invalid for/in left-hand side

tryItOut 443
Compiling threw: SyntaxError: invalid assignment left-hand side

tryItOut 444
Compiling threw: SyntaxError: syntax error

tryItOut 445

tryItOut 446
Compiling threw: SyntaxError: missing } after property list

tryItOut 447
Running threw: Error: invalid sharp variable use #1#

tryItOut 448

tryItOut 449

tryItOut 450
Compiling threw: TypeError: redeclaration of variable __parent__

tryItOut 451

tryItOut 452
Running threw: ReferenceError: reference to undefined XML name @foo

tryItOut 453

tryItOut 454

tryItOut 455
Compiling threw: SyntaxError: missing variable name

tryItOut 456

tryItOut 457
Compiling threw: SyntaxError: missing ) in parenthetical

tryItOut 458

tryItOut 459
Compiling threw: SyntaxError: invalid assignment left-hand side

tryItOut 460
Compiling threw: SyntaxError: syntax error

tryItOut 461
Running threw: TypeError: arguments[0] has no properties

tryItOut 462

tryItOut 463
Compiling threw: SyntaxError: missing ) in parenthetical

tryItOut 464
Compiling threw: SyntaxError: syntax error

tryItOut 465
Running threw: ReferenceError: window is not defined

tryItOut 466
Compiling threw: TypeError: redeclaration of variable __noSuchMethod__

tryItOut 467

tryItOut 468
Compiling threw: SyntaxError: missing ; after for-loop initializer

tryItOut 469
Running threw: [object StopIteration]

tryItOut 470

tryItOut 471
Compiling threw: SyntaxError: invalid XML tag syntax

tryItOut 472
Running threw: [object StopIteration]

tryItOut 473
Running threw: TypeError: this.zzz has no properties

tryItOut 474

tryItOut 475

tryItOut 476
uneval returned the string: null

tryItOut 477
Compiling threw: SyntaxError: invalid decrement operand

tryItOut 478
Running threw: [object StopIteration]

tryItOut 479
Compiling threw: SyntaxError: invalid property id

tryItOut 480
Running threw: ReferenceError: z1 is not defined

tryItOut 481
Compiling threw: SyntaxError: illegal XML character

tryItOut 482
Compiling threw: TypeError: redeclaration of variable constructor

tryItOut 483
Compiling threw: SyntaxError: invalid for/in left-hand side

tryItOut 484
Compiling threw: SyntaxError: missing { before function body

tryItOut 485

tryItOut 486

tryItOut 487
Compiling threw: SyntaxError: missing variable name

tryItOut 488
Running threw: TypeError: this.zzz has no properties

tryItOut 489

tryItOut 490
Compiling threw: SyntaxError: invalid for/in left-hand side

tryItOut 491

tryItOut 492
Compiling threw: SyntaxError: invalid flag after regular expression

tryItOut 493

tryItOut 494
Running threw: ReferenceError: window is not defined

tryItOut 495
Compiling threw: TypeError: redeclaration of variable prop

tryItOut 496
Compiling threw: TypeError: generator function anonymous returns a value

tryItOut 497

tryItOut 498
Compiling threw: SyntaxError: missing variable name

tryItOut 499

tryItOut 500
Compiling threw: SyntaxError: invalid XML tag syntax

tryItOut 501
Running threw: ReferenceError: reference to undefined XML name @foo

tryItOut 502

tryItOut 503

tryItOut 504

tryItOut 505
Compiling threw: SyntaxError: missing variable name

tryItOut 506
Compiling threw: TypeError: redeclaration of const prototype

tryItOut 507

tryItOut 508
Compiling threw: TypeError: redeclaration of variable __proto__

tryItOut 509
Compiling threw: SyntaxError: syntax error

tryItOut 510
Running threw: TypeError: [[1]].@* has no properties

tryItOut 511

tryItOut 512

tryItOut 513
Running threw: [object StopIteration]

tryItOut 514
Running threw: ReferenceError: __iterator__ is not defined

tryItOut 515

tryItOut 516
Running threw: ReferenceError: window is not defined

tryItOut 517

tryItOut 518
Compiling threw: TypeError: redeclaration of var __proto__

tryItOut 519
Running threw: TypeError: __count__ is not a function

tryItOut 520

tryItOut 521

tryItOut 522

tryItOut 523

tryItOut 524
Compiling threw: SyntaxError: invalid for/in left-hand side

tryItOut 525
Compiling threw: SyntaxError: missing ; after for-loop initializer

tryItOut 526

tryItOut 527

tryItOut 528
Running threw: ReferenceError: window is not defined

tryItOut 529

tryItOut 530

tryItOut 531

tryItOut 532
Running threw: ReferenceError: window is not defined

tryItOut 533
Compiling threw: SyntaxError: missing ) in parenthetical

tryItOut 534
Running threw: ReferenceError: reference to undefined XML name @foo

tryItOut 535

tryItOut 536

tryItOut 537
Compiling threw: SyntaxError: missing ; before statement

tryItOut 538
Compiling threw: TypeError: redeclaration of variable __count__

tryItOut 539
Running threw: ReferenceError: __noSuchMethod__ is not defined

tryItOut 540

tryItOut 541

tryItOut 542

tryItOut 543
Compiling threw: SyntaxError: invalid for/in left-hand side

tryItOut 544

tryItOut 545
Compiling threw: SyntaxError: invalid for/in left-hand side

tryItOut 546
Running threw: ReferenceError: reference to undefined XML name *

tryItOut 547

tryItOut 548

tryItOut 549
Compiling threw: SyntaxError: missing { before function body

tryItOut 550

tryItOut 551

tryItOut 552
It's an iterator!
Iterating threw!
Iterating threw: ReferenceError: reference to undefined XML name *::*

tryItOut 553

tryItOut 554
Running threw: ReferenceError: reference to undefined XML name *::*

tryItOut 555

tryItOut 556

tryItOut 557
Compiling threw: SyntaxError: invalid decrement operand

tryItOut 558

tryItOut 559
Running threw: TypeError: this.zzz has no properties

tryItOut 560
Compiling threw: SyntaxError: invalid for/in left-hand side

tryItOut 561

tryItOut 562

tryItOut 563
Compiling threw: SyntaxError: invalid assignment left-hand side

tryItOut 564
Running threw: ReferenceError: __iterator__ is not defined

tryItOut 565

tryItOut 566

tryItOut 567
Running threw: ReferenceError: reference to undefined XML name @foo

tryItOut 568

tryItOut 569

tryItOut 570
Compiling threw: SyntaxError: invalid decrement operand

tryItOut 571
Compiling threw: SyntaxError: invalid for/in left-hand side

tryItOut 572

tryItOut 573
Compiling threw: SyntaxError: invalid destructuring assignment operator

tryItOut 574

tryItOut 575

tryItOut 576

tryItOut 577
Compiling threw: SyntaxError: missing ; after for-loop initializer

tryItOut 578
Compiling threw: SyntaxError: invalid for/in left-hand side

tryItOut 579
Compiling threw: SyntaxError: missing name after . operator

tryItOut 580

tryItOut 581

tryItOut 582

tryItOut 583

tryItOut 584
Compiling threw: SyntaxError: missing = in destructuring declaration

tryItOut 585

tryItOut 586
Compiling threw: SyntaxError: syntax error

tryItOut 587
Compiling threw: SyntaxError: missing { before function body

tryItOut 588

tryItOut 589
Running threw: ReferenceError: reference to undefined XML name *

tryItOut 590

tryItOut 591
Compiling threw: SyntaxError: missing ) in parenthetical

tryItOut 592

tryItOut 593

tryItOut 594
Compiling threw: SyntaxError: illegal XML character

tryItOut 595

tryItOut 596
Compiling threw: SyntaxError: invalid for/in left-hand side

tryItOut 597

tryItOut 598

tryItOut 599
Running threw: ReferenceError: reference to undefined XML name *

tryItOut 600
Compiling threw: SyntaxError: missing { before function body

tryItOut 601
Running threw: ReferenceError: reference to undefined XML name @foo

tryItOut 602
Compiling threw: SyntaxError: syntax error

tryItOut 603

tryItOut 604
Compiling threw: SyntaxError: invalid decrement operand

tryItOut 605
Compiling threw: SyntaxError: invalid for/in left-hand side

tryItOut 606

tryItOut 607
Compiling threw: SyntaxError: invalid for/in left-hand side

tryItOut 608

tryItOut 609
Compiling threw: SyntaxError: missing ) in parenthetical

tryItOut 610
Compiling threw: SyntaxError: missing variable name

tryItOut 611

tryItOut 612
Running threw: ReferenceError: __iterator__ is not defined

tryItOut 613

tryItOut 614

tryItOut 615
Compiling threw: SyntaxError: invalid for/in left-hand side

tryItOut 616
Compiling threw: SyntaxError: missing = in destructuring declaration

tryItOut 617
Compiling threw: SyntaxError: invalid for/in left-hand side

tryItOut 618
Compiling threw: SyntaxError: missing ) in parenthetical

tryItOut 619
Compiling threw: SyntaxError: syntax error

tryItOut 620
Compiling threw: SyntaxError: missing = in destructuring declaration

tryItOut 621

tryItOut 622

tryItOut 623

tryItOut 624
Compiling threw: SyntaxError: missing ) in parenthetical

tryItOut 625

tryItOut 626

tryItOut 627
Compiling threw: TypeError: generator function anonymous returns a value

tryItOut 628

tryItOut 629
Compiling threw: SyntaxError: invalid decrement operand

tryItOut 630
Compiling threw: SyntaxError: missing ) in parenthetical

tryItOut 631
Compiling threw: SyntaxError: missing ) in parenthetical

tryItOut 632
Compiling threw: SyntaxError: syntax error

tryItOut 633

tryItOut 634
Compiling threw: SyntaxError: missing variable name

tryItOut 635

tryItOut 636

tryItOut 637

tryItOut 638
Running threw: ReferenceError: constructor is not defined

tryItOut 639
Running threw: ReferenceError: window is not defined

tryItOut 640

tryItOut 641
Running threw: ReferenceError: reference to undefined XML name @foo

tryItOut 642

tryItOut 643

tryItOut 644
Running threw: TypeError: this.zzz has no properties

tryItOut 645
Running threw: TypeError: this.zzz has no properties

tryItOut 646

tryItOut 647
Running threw: ReferenceError: reference to undefined XML name @foo

tryItOut 648
Running threw: ReferenceError: reference to undefined XML name *

tryItOut 649
Running threw: [object StopIteration]

tryItOut 650

tryItOut 651
Compiling threw: SyntaxError: invalid XML tag syntax

tryItOut 652
uneval returned the string: [undefined, undefined]

tryItOut 653
Compiling threw: SyntaxError: invalid assignment left-hand side

tryItOut 654

tryItOut 655

tryItOut 656
Compiling threw: SyntaxError: invalid increment operand

tryItOut 657

tryItOut 658
Compiling threw: SyntaxError: missing variable name

tryItOut 659
Compiling threw: SyntaxError: missing = in destructuring declaration

tryItOut 660

tryItOut 661

tryItOut 662
Compiling threw: SyntaxError: missing : after property id

tryItOut 663
Compiling threw: SyntaxError: missing ; before statement

tryItOut 664

tryItOut 665

tryItOut 666
Compiling threw: SyntaxError: missing variable name

tryItOut 667
Compiling threw: TypeError: redeclaration of variable __proto__

tryItOut 668
Compiling threw: TypeError: redeclaration of const __count__

tryItOut 669
Running threw: ReferenceError: z2 is not defined

tryItOut 670

tryItOut 671

tryItOut 672
Compiling threw: SyntaxError: missing formal parameter

tryItOut 673

tryItOut 674
Running threw: TypeError: this.zzz has no properties

tryItOut 675
Compiling threw: SyntaxError: missing ) in parenthetical

tryItOut 676

tryItOut 677
Compiling threw: SyntaxError: missing = in destructuring declaration

tryItOut 678

tryItOut 679
Compiling threw: SyntaxError: missing variable name

tryItOut 680

tryItOut 681
Compiling threw: TypeError: redeclaration of var __proto__

tryItOut 682
Compiling threw: SyntaxError: invalid increment operand

tryItOut 683

tryItOut 684

tryItOut 685

tryItOut 686
Running threw: ReferenceError: reference to undefined XML name @foo

tryItOut 687
Compiling threw: SyntaxError: missing ; before statement

tryItOut 688
Compiling threw: SyntaxError: invalid assignment left-hand side

tryItOut 689
Compiling threw: SyntaxError: invalid for/in left-hand side

tryItOut 690

tryItOut 691

tryItOut 692

tryItOut 693

tryItOut 694
Compiling threw: SyntaxError: missing ; after for-loop initializer

tryItOut 695
Compiling threw: SyntaxError: syntax error

tryItOut 696

tryItOut 697

tryItOut 698

tryItOut 699

tryItOut 700

tryItOut 701
Running threw: ReferenceError: reference to undefined XML name @foo

tryItOut 702
Running threw: ReferenceError: window is not defined

tryItOut 703
Compiling threw: SyntaxError: missing variable name

tryItOut 704

tryItOut 705

tryItOut 706
Running threw: ReferenceError: reference to undefined XML name @foo

tryItOut 707

tryItOut 708

tryItOut 709

tryItOut 710
Compiling threw: SyntaxError: syntax error

tryItOut 711

tryItOut 712
Running threw: [object StopIteration]

tryItOut 713
Compiling threw: SyntaxError: invalid for/in left-hand side

tryItOut 714

tryItOut 715

tryItOut 716
Running threw: [object StopIteration]

tryItOut 717

tryItOut 718
Running threw: ReferenceError: reference to undefined XML name @foo

tryItOut 719
Compiling threw: TypeError: redeclaration of variable constructor

tryItOut 720
Compiling threw: SyntaxError: invalid assignment left-hand side

tryItOut 721
Running threw: ReferenceError: window is not defined

tryItOut 722

tryItOut 723

tryItOut 724

tryItOut 725
Compiling threw: SyntaxError: invalid for/in left-hand side

tryItOut 726
Compiling threw: SyntaxError: syntax error

tryItOut 727
Compiling threw: SyntaxError: invalid increment operand

tryItOut 728
Running threw: ReferenceError: reference to undefined XML name *

tryItOut 729

tryItOut 730
Compiling threw: TypeError: redeclaration of const __proto__

tryItOut 731
Running threw: ReferenceError: reference to undefined XML name *::*

tryItOut 732

tryItOut 733

tryItOut 734
Running threw: TypeError: <x/>.yoyo is not a function

tryItOut 735
Compiling threw: TypeError: redeclaration of const __iterator__

tryItOut 736

tryItOut 737
Compiling threw: SyntaxError: invalid decrement operand

tryItOut 738

tryItOut 739
Compiling threw: SyntaxError: missing ; before statement

tryItOut 740
Compiling threw: SyntaxError: missing variable name

tryItOut 741
Compiling threw: SyntaxError: missing ; after for-loop initializer

tryItOut 742

tryItOut 743

tryItOut 744
Compiling threw: SyntaxError: syntax error

tryItOut 745

tryItOut 746

tryItOut 747

tryItOut 748

tryItOut 749

tryItOut 750

tryItOut 751
Running threw: ReferenceError: z1 is not defined

tryItOut 752

tryItOut 753

tryItOut 754
Compiling threw: SyntaxError: syntax error

tryItOut 755

tryItOut 756

tryItOut 757
Running threw: TypeError: this.zzz has no properties

tryItOut 758

tryItOut 759
Compiling threw: SyntaxError: missing variable name

tryItOut 760
Running threw: ReferenceError: constructor is not defined

tryItOut 761
Compiling threw: SyntaxError: missing ) in parenthetical

tryItOut 762
Compiling threw: SyntaxError: missing ; after for-loop initializer

tryItOut 763

tryItOut 764

tryItOut 765

tryItOut 766

tryItOut 767

tryItOut 768

tryItOut 769
Compiling threw: SyntaxError: missing variable name

tryItOut 770

tryItOut 771

tryItOut 772

tryItOut 773

tryItOut 774
Compiling threw: SyntaxError: syntax error

tryItOut 775
Compiling threw: SyntaxError: invalid decrement operand

tryItOut 776

tryItOut 777
before 959200, after 366240, break 0254d000

tryItOut 778

tryItOut 779
Compiling threw: SyntaxError: missing ) in parenthetical

tryItOut 780

tryItOut 781

tryItOut 782
Compiling threw: TypeError: redeclaration of var __noSuchMethod__

tryItOut 783
Compiling threw: SyntaxError: missing { before function body

tryItOut 784
Compiling threw: SyntaxError: syntax error

tryItOut 785

tryItOut 786

tryItOut 787

tryItOut 788
Running threw: ReferenceError: reference to undefined XML name @foo

tryItOut 789

tryItOut 790
Compiling threw: SyntaxError: illegal XML character

tryItOut 791
Compiling threw: SyntaxError: syntax error

tryItOut 792

tryItOut 793

tryItOut 794
Running threw: ReferenceError: reference to undefined XML name @foo

tryItOut 795

tryItOut 796

tryItOut 797
Compiling threw: TypeError: redeclaration of variable prop

tryItOut 798

tryItOut 799

tryItOut 800

tryItOut 801
Compiling threw: SyntaxError: invalid assignment left-hand side

tryItOut 802
Compiling threw: SyntaxError: invalid assignment left-hand side

tryItOut 803

tryItOut 804
Compiling threw: SyntaxError: missing = in destructuring declaration

tryItOut 805
Compiling threw: SyntaxError: syntax error

tryItOut 806

tryItOut 807
Compiling threw: SyntaxError: missing { before function body

tryItOut 808

tryItOut 809
Compiling threw: SyntaxError: missing { before function body

tryItOut 810
Compiling threw: SyntaxError: missing ; before statement

tryItOut 811

tryItOut 812

tryItOut 813

tryItOut 814

tryItOut 815

tryItOut 816

tryItOut 817

tryItOut 818
Compiling threw: SyntaxError: missing ; after for-loop initializer

tryItOut 819
Compiling threw: SyntaxError: missing variable name

tryItOut 820

tryItOut 821
Compiling threw: SyntaxError: missing ) in parenthetical

tryItOut 822

tryItOut 823
Compiling threw: SyntaxError: missing variable name

tryItOut 824

tryItOut 825

tryItOut 826
Compiling threw: TypeError: redeclaration of var __proto__

tryItOut 827

tryItOut 828

tryItOut 829
Running threw: TypeError: this.zzz has no properties

tryItOut 830
Compiling threw: SyntaxError: missing ) in parenthetical

tryItOut 831
Running threw: TypeError: this.zzz has no properties

tryItOut 832
Compiling threw: SyntaxError: missing ) in parenthetical

tryItOut 833

tryItOut 834

tryItOut 835

tryItOut 836
Compiling threw: SyntaxError: missing variable name

tryItOut 837

tryItOut 838

tryItOut 839
Running threw: TypeError: this.zzz has no properties

tryItOut 840
Running threw: ReferenceError: reference to undefined XML name *

tryItOut 841

tryItOut 842
Running threw: TypeError: invalid XML namespace ccc

tryItOut 843

tryItOut 844

tryItOut 845

tryItOut 846

tryItOut 847
Compiling threw: SyntaxError: missing } after let block

tryItOut 848
Compiling threw: SyntaxError: missing variable name

tryItOut 849

tryItOut 850
Compiling threw: SyntaxError: invalid assignment left-hand side

tryItOut 851
Running threw: ReferenceError: z2 is not defined

tryItOut 852
Running threw: ReferenceError: window is not defined

tryItOut 853
Compiling threw: SyntaxError: syntax error

tryItOut 854
Running threw: ReferenceError: reference to undefined XML name *::*

tryItOut 855

tryItOut 856
Compiling threw: SyntaxError: missing { before function body

tryItOut 857
Compiling threw: SyntaxError: missing ) in parenthetical

tryItOut 858

tryItOut 859

tryItOut 860
Running threw: ReferenceError: z1 is not defined

tryItOut 861
It's an iterator!
Iterating succeeded, iterCount == 1

tryItOut 862
Running threw: ReferenceError: window is not defined

tryItOut 863

tryItOut 864
Compiling threw: SyntaxError: invalid for/in left-hand side

tryItOut 865
Compiling threw: SyntaxError: missing variable name

tryItOut 866

tryItOut 867
Compiling threw: SyntaxError: syntax error

tryItOut 868
Compiling threw: SyntaxError: invalid assignment left-hand side

tryItOut 869

tryItOut 870

tryItOut 871

tryItOut 872
Compiling threw: SyntaxError: syntax error

tryItOut 873

tryItOut 874

tryItOut 875
It's an iterator!
Iterating succeeded, iterCount == 2

tryItOut 876
Compiling threw: SyntaxError: missing variable name

tryItOut 877
Running threw: ReferenceError: window is not defined

tryItOut 878
Compiling threw: SyntaxError: invalid XML tag syntax

tryItOut 879

tryItOut 880

tryItOut 881

tryItOut 882

tryItOut 883

tryItOut 884

tryItOut 885

tryItOut 886

tryItOut 887
Compiling threw: SyntaxError: missing variable name

tryItOut 888
Compiling threw: SyntaxError: invalid for/in left-hand side

tryItOut 889

tryItOut 890

tryItOut 891

tryItOut 892
Compiling threw: SyntaxError: invalid increment operand

tryItOut 893

tryItOut 894

tryItOut 895
Compiling threw: SyntaxError: missing : after property id

tryItOut 896
Compiling threw: TypeError: redeclaration of variable __noSuchMethod__

tryItOut 897
Compiling threw: SyntaxError: missing = in destructuring declaration

tryItOut 898

tryItOut 899
Compiling threw: SyntaxError: syntax error

tryItOut 900
Running threw: ReferenceError: window is not defined

tryItOut 901
Compiling threw: SyntaxError: invalid property id

tryItOut 902
Running threw: ReferenceError: __noSuchMethod__ is not defined

tryItOut 903

tryItOut 904
Compiling threw: SyntaxError: syntax error

tryItOut 905

tryItOut 906
Compiling threw: SyntaxError: invalid decrement operand

tryItOut 907
Compiling threw: SyntaxError: invalid XML tag syntax

tryItOut 908
Compiling threw: TypeError: redeclaration of var __parent__

tryItOut 909

tryItOut 910

tryItOut 911

tryItOut 912

tryItOut 913

tryItOut 914
Running threw: ReferenceError: window is not defined

tryItOut 915
Compiling threw: TypeError: redeclaration of var __count__

tryItOut 916

tryItOut 917

tryItOut 918

tryItOut 919
Compiling threw: SyntaxError: missing ) in parenthetical

tryItOut 920
Compiling threw: SyntaxError: invalid destructuring assignment operator

tryItOut 921
Running threw: ReferenceError: __noSuchMethod__ is not defined

tryItOut 922
Compiling threw: SyntaxError: invalid increment operand

tryItOut 923
Compiling threw: SyntaxError: missing variable name

tryItOut 924

tryItOut 925
Compiling threw: SyntaxError: missing ; before statement

tryItOut 926

tryItOut 927

tryItOut 928
Compiling threw: SyntaxError: missing ; before statement

tryItOut 929
Running threw: ReferenceError: reference to undefined XML name *::*

tryItOut 930
Compiling threw: SyntaxError: missing variable name

tryItOut 931
Compiling threw: SyntaxError: invalid for/in left-hand side

tryItOut 932
Compiling threw: SyntaxError: missing ; after for-loop initializer

tryItOut 933

tryItOut 934

tryItOut 935
Compiling threw: SyntaxError: invalid assignment left-hand side

tryItOut 936

tryItOut 937
Compiling threw: SyntaxError: syntax error

tryItOut 938
Compiling threw: SyntaxError: invalid for/in left-hand side

tryItOut 939

tryItOut 940
Compiling threw: SyntaxError: invalid assignment left-hand side

tryItOut 941

tryItOut 942
Compiling threw: SyntaxError: missing ) in parenthetical

tryItOut 943
Compiling threw: TypeError: redeclaration of const __count__

tryItOut 944

tryItOut 945
Running threw: ReferenceError: window is not defined

tryItOut 946
Compiling threw: SyntaxError: missing variable name

tryItOut 947

tryItOut 948

tryItOut 949

tryItOut 950
Running threw: ReferenceError: reference to undefined XML name @foo

tryItOut 951
Running threw: ReferenceError: __iterator__ is not defined

tryItOut 952
Compiling threw: SyntaxError: syntax error

tryItOut 953

tryItOut 954

tryItOut 955

tryItOut 956

tryItOut 957

tryItOut 958
Compiling threw: SyntaxError: missing : after property id

tryItOut 959
Compiling threw: SyntaxError: missing } after let block

tryItOut 960
Compiling threw: SyntaxError: missing ) in parenthetical

tryItOut 961

tryItOut 962

tryItOut 963

tryItOut 964
Compiling threw: SyntaxError: missing ) in parenthetical

tryItOut 965
Compiling threw: SyntaxError: invalid destructuring assignment operator

tryItOut 966

tryItOut 967
Compiling threw: SyntaxError: missing } after let block

tryItOut 968

tryItOut 969
Running threw: ReferenceError: reference to undefined XML name @foo

tryItOut 970
Compiling threw: TypeError: redeclaration of const prop

tryItOut 971

tryItOut 972
Compiling threw: TypeError: generator function anonymous returns a value

tryItOut 973

tryItOut 974
It's an iterator!
Iterating threw!
Iterating threw: ReferenceError: reference to undefined XML name *

tryItOut 975
Compiling threw: SyntaxError: missing ; after for-loop initializer

tryItOut 976
Compiling threw: SyntaxError: invalid for/in left-hand side

tryItOut 977
Running threw: ReferenceError: reference to undefined XML name *

tryItOut 978

tryItOut 979
Compiling threw: SyntaxError: missing variable name

tryItOut 980
Compiling threw: SyntaxError: invalid for/in left-hand side

tryItOut 981

tryItOut 982

tryItOut 983
It's an iterator!
Iterating succeeded, iterCount == 1

tryItOut 984
Compiling threw: SyntaxError: missing { before function body

tryItOut 985
Compiling threw: TypeError: generator function anonymous returns a value

tryItOut 986

tryItOut 987

tryItOut 988
Compiling threw: SyntaxError: syntax error

tryItOut 989

tryItOut 990
uneval returned the string: null

tryItOut 991

tryItOut 992
Running threw: ReferenceError: window is not defined

tryItOut 993

tryItOut 994
Compiling threw: SyntaxError: invalid for/in left-hand side

tryItOut 995

tryItOut 996

tryItOut 997
Compiling threw: SyntaxError: syntax error

tryItOut 998
Compiling threw: SyntaxError: syntax error

tryItOut 999
Compiling threw: SyntaxError: missing ) in parenthetical

tryItOut 1000
Compiling threw: SyntaxError: missing ; before statement

ALL OK

Script done on Sat 04 May 2013 07:24:28 AM PDT
