Script started on Sat 04 May 2013 07:26:15 AM PDT
***
Targeting SpiderMonkey / Gecko.

tryItOut 1

tryItOut 2
Compiling threw: SyntaxError: invalid XML name

tryItOut 3

tryItOut 4

tryItOut 5
before 69760, after 69760, break 00eaf000
Running threw: SyntaxError: invalid assignment left-hand side

tryItOut 6
Compiling threw: SyntaxError: syntax error

tryItOut 7

tryItOut 8
It's an iterator!
Iterating threw!
Iterating threw: ReferenceError: z1 is not defined

tryItOut 9
It's an iterator!
Iterating succeeded, iterCount == 1

tryItOut 10
Compiling threw: SyntaxError: missing ; before statement

tryItOut 11

tryItOut 12

tryItOut 13
before 69760, after 69760, break 00eaf000

tryItOut 14
Compiling threw: SyntaxError: missing ; before statement

tryItOut 15

tryItOut 16
Compiling threw: SyntaxError: missing ) in parenthetical

tryItOut 17
Compiling threw: SyntaxError: invalid decrement operand

tryItOut 18

tryItOut 19
Compiling threw: TypeError: generator function anonymous returns a value

tryItOut 20

tryItOut 21

tryItOut 22

tryItOut 23
Compiling threw: SyntaxError: invalid XML name

tryItOut 24

tryItOut 25
Compiling threw: SyntaxError: illegal XML character

tryItOut 26
Compiling threw: SyntaxError: missing ) in parenthetical

tryItOut 27
Running threw: TypeError: this.zzz has no properties

tryItOut 28
Running threw: ReferenceError: reference to undefined XML name @foo

tryItOut 29
Compiling threw: SyntaxError: invalid assignment left-hand side

tryItOut 30

tryItOut 31

tryItOut 32
Compiling threw: SyntaxError: illegal XML character

tryItOut 33

tryItOut 34

tryItOut 35
Compiling threw: SyntaxError: syntax error

tryItOut 36
Running threw: ReferenceError: reference to undefined XML name *

tryItOut 37
Compiling threw: TypeError: generator function anonymous returns a value

tryItOut 38
It's an iterator!
Iterating succeeded, iterCount == 1

tryItOut 39
Compiling threw: SyntaxError: syntax error

tryItOut 40

tryItOut 41
Compiling threw: SyntaxError: missing ; before statement

tryItOut 42
Running threw: ReferenceError: window is not defined

tryItOut 43
Compiling threw: SyntaxError: missing ) in parenthetical

tryItOut 44
Running threw: ReferenceError: window is not defined

tryItOut 45

tryItOut 46
Compiling threw: SyntaxError: syntax error

tryItOut 47

tryItOut 48

tryItOut 49

tryItOut 50

tryItOut 51

tryItOut 52
before 104640, after 87200, break 00ed2000

tryItOut 53
before 87200, after 87200, break 00ed2000

tryItOut 54
Compiling threw: SyntaxError: invalid destructuring assignment operator

tryItOut 55

tryItOut 56
Compiling threw: SyntaxError: syntax error

tryItOut 57

tryItOut 58
Compiling threw: SyntaxError: syntax error

tryItOut 59

tryItOut 60

tryItOut 61
Compiling threw: SyntaxError: missing ] after element list

tryItOut 62
Compiling threw: SyntaxError: syntax error

tryItOut 63
Running threw: TypeError: this.zzz has no properties

tryItOut 64
Compiling threw: TypeError: generator function anonymous returns a value

tryItOut 65
Compiling threw: SyntaxError: missing ( before let head

tryItOut 66

tryItOut 67

tryItOut 68

tryItOut 69

tryItOut 70
Running threw: ReferenceError: window is not defined

tryItOut 71

tryItOut 72
Compiling threw: SyntaxError: invalid XML name

tryItOut 73

tryItOut 74

tryItOut 75
Compiling threw: SyntaxError: missing ; before statement

tryItOut 76
Compiling threw: SyntaxError: missing ) in parenthetical

tryItOut 77
Running threw: ReferenceError: __noSuchMethod__ is not defined

tryItOut 78

tryItOut 79

tryItOut 80

tryItOut 81
Compiling threw: SyntaxError: missing ) after condition

tryItOut 82
Compiling threw: SyntaxError: illegal XML character

tryItOut 83

tryItOut 84

tryItOut 85

tryItOut 86

tryItOut 87

tryItOut 88

tryItOut 89
Compiling threw: SyntaxError: syntax error

tryItOut 90

tryItOut 91
Running threw: TypeError: this.zzz has no properties

tryItOut 92
Compiling threw: SyntaxError: invalid for/in left-hand side

tryItOut 93
Compiling threw: SyntaxError: syntax error

tryItOut 94
Running threw: ReferenceError: window is not defined

tryItOut 95

tryItOut 96
It's an iterator!
Iterating threw!
Iterating threw: ReferenceError: window is not defined

tryItOut 97
Running threw: ReferenceError: prop is not defined

tryItOut 98
Compiling threw: SyntaxError: missing ; before statement

tryItOut 99
Compiling threw: SyntaxError: invalid for each loop

tryItOut 100

tryItOut 101

tryItOut 102

tryItOut 103
Running threw: ReferenceError: reference to undefined XML name @foo

tryItOut 104

tryItOut 105

tryItOut 106

tryItOut 107
Compiling threw: SyntaxError: invalid XML name

tryItOut 108
Compiling threw: SyntaxError: invalid for each loop

tryItOut 109
Compiling threw: SyntaxError: syntax error

tryItOut 110
Compiling threw: SyntaxError: syntax error

tryItOut 111
It's an iterator!
Iterating threw!
Iterating threw: ReferenceError: window is not defined

tryItOut 112
Compiling threw: SyntaxError: invalid assignment left-hand side

tryItOut 113

tryItOut 114
Compiling threw: SyntaxError: invalid assignment left-hand side

tryItOut 115

tryItOut 116
Compiling threw: TypeError: generator function anonymous returns a value

tryItOut 117
Compiling threw: SyntaxError: missing ; before statement

tryItOut 118

tryItOut 119
Running threw: ReferenceError: __noSuchMethod__ is not defined

tryItOut 120
Running threw: ReferenceError: reference to undefined XML name @foo

tryItOut 121
Running threw: TypeError: this.zzz has no properties

tryItOut 122
Compiling threw: SyntaxError: syntax error

tryItOut 123
Compiling threw: SyntaxError: syntax error

tryItOut 124
Compiling threw: SyntaxError: missing } after property list

tryItOut 125

tryItOut 126

tryItOut 127

tryItOut 128
It's an iterator!
Iterating threw!
Iterating threw: ReferenceError: reference to undefined XML name *

tryItOut 129
Compiling threw: SyntaxError: missing } after finally block

tryItOut 130
Compiling threw: SyntaxError: invalid for/in left-hand side

tryItOut 131
Compiling threw: TypeError: generator function anonymous returns a value

tryItOut 132

tryItOut 133

tryItOut 134
Running threw: <x>
  <y/>
</x>

tryItOut 135
Compiling threw: SyntaxError: syntax error

tryItOut 136
Compiling threw: TypeError: redeclaration of formal parameter __noSuchMethod__

tryItOut 137

tryItOut 138
It's an iterator!
Iterating threw!
Iterating threw: TypeError: arguments[0] has no properties

tryItOut 139

tryItOut 140
Compiling threw: SyntaxError: missing ; before statement

tryItOut 141
Compiling threw: SyntaxError: illegal XML character

tryItOut 142

tryItOut 143

tryItOut 144
Compiling threw: SyntaxError: syntax error

tryItOut 145
Compiling threw: SyntaxError: missing { before function body

tryItOut 146
Compiling threw: SyntaxError: missing ) after let head

tryItOut 147

tryItOut 148
Compiling threw: SyntaxError: missing ] after element list

tryItOut 149
Running threw: ReferenceError: reference to undefined XML name *

tryItOut 150
Compiling threw: SyntaxError: missing ) in parenthetical

tryItOut 151

tryItOut 152

tryItOut 153
Compiling threw: TypeError: generator function anonymous returns a value

tryItOut 154
Running threw: TypeError: redeclaration of const __parent__

tryItOut 155
Compiling threw: TypeError: generator function anonymous returns a value

tryItOut 156

tryItOut 157

tryItOut 158
It's an iterator!
Iterating succeeded, iterCount == 0

tryItOut 159

tryItOut 160
Compiling threw: SyntaxError: illegal XML character

tryItOut 161
Compiling threw: SyntaxError: syntax error

tryItOut 162

tryItOut 163

tryItOut 164

tryItOut 165

tryItOut 166
Compiling threw: SyntaxError: missing ) in parenthetical

tryItOut 167

tryItOut 168

tryItOut 169

tryItOut 170

tryItOut 171
Compiling threw: SyntaxError: syntax error

tryItOut 172
Running threw: TypeError: __parent__ has no properties

tryItOut 173
Compiling threw: TypeError: generator function anonymous returns a value

tryItOut 174
It's an iterator!
Iterating succeeded, iterCount == 1

tryItOut 175

tryItOut 176
Running threw: ReferenceError: window is not defined

tryItOut 177

tryItOut 178
Compiling threw: SyntaxError: missing variable name

tryItOut 179
Compiling threw: SyntaxError: missing ; before statement

tryItOut 180

tryItOut 181
Compiling threw: SyntaxError: invalid assignment left-hand side

tryItOut 182
Running threw: ReferenceError: window is not defined

tryItOut 183
Compiling threw: SyntaxError: missing ] after element list

tryItOut 184

tryItOut 185
Compiling threw: SyntaxError: syntax error

tryItOut 186
Compiling threw: SyntaxError: missing ) in parenthetical

tryItOut 187

tryItOut 188
It's an iterator!
Iterating threw!
Iterating threw: TypeError: this.zzz has no properties

tryItOut 189
Compiling threw: SyntaxError: missing ] after element list

tryItOut 190
Compiling threw: SyntaxError: missing ) after condition

tryItOut 191
Running threw: TypeError: this.zzz has no properties

tryItOut 192
Compiling threw: SyntaxError: illegal XML character

tryItOut 193

tryItOut 194
Compiling threw: SyntaxError: syntax error

tryItOut 195

tryItOut 196
Running threw: ReferenceError: reference to undefined XML name @foo

tryItOut 197
Compiling threw: TypeError: redeclaration of variable prop

tryItOut 198
Compiling threw: SyntaxError: missing ; before statement

tryItOut 199

tryItOut 200

tryItOut 201
Compiling threw: SyntaxError: missing : after property id

tryItOut 202

tryItOut 203

tryItOut 204

tryItOut 205
It's an iterator!
Iterating threw!
Iterating threw: ReferenceError: reference to undefined XML name *

tryItOut 206

tryItOut 207
Compiling threw: SyntaxError: missing ) in parenthetical

tryItOut 208

tryItOut 209
It's an iterator!
Iterating succeeded, iterCount == 0

tryItOut 210
Compiling threw: SyntaxError: syntax error

tryItOut 211
Compiling threw: SyntaxError: missing ; before statement

tryItOut 212
It's an iterator!
Iterating succeeded, iterCount == 1

tryItOut 213

tryItOut 214
Compiling threw: SyntaxError: syntax error

tryItOut 215
Running threw: Can't toString the error!!

tryItOut 216
Running threw: ReferenceError: reference to undefined XML name *

tryItOut 217
Compiling threw: TypeError: generator function anonymous returns a value

tryItOut 218
Running threw: -1

tryItOut 219

tryItOut 220

tryItOut 221
Compiling threw: SyntaxError: missing ) in parenthetical

tryItOut 222
Compiling threw: SyntaxError: missing ) in parenthetical

tryItOut 223

tryItOut 224
Running threw: ReferenceError: window is not defined

tryItOut 225
Compiling threw: SyntaxError: invalid assignment left-hand side

tryItOut 226
Compiling threw: SyntaxError: syntax error

tryItOut 227
Running threw: ReferenceError: reference to undefined XML name @foo

tryItOut 228
Compiling threw: SyntaxError: missing name after . operator

tryItOut 229

tryItOut 230
Running threw: ReferenceError: reference to undefined XML name *::*

tryItOut 231
Compiling threw: SyntaxError: syntax error

tryItOut 232
Compiling threw: SyntaxError: invalid XML name

tryItOut 233
Compiling threw: SyntaxError: missing = in destructuring declaration

tryItOut 234
Compiling threw: SyntaxError: missing ) after condition

tryItOut 235
Compiling threw: SyntaxError: missing ] after element list

tryItOut 236
Running threw: ReferenceError: window is not defined

tryItOut 237

tryItOut 238
before 174400, after 174400, break 00f86000

tryItOut 239

tryItOut 240
Compiling threw: SyntaxError: syntax error

tryItOut 241
Compiling threw: SyntaxError: illegal XML character

tryItOut 242
Compiling threw: SyntaxError: syntax error

tryItOut 243
Compiling threw: SyntaxError: syntax error

tryItOut 244

tryItOut 245
Running threw: ReferenceError: reference to undefined XML name @foo

tryItOut 246

tryItOut 247

tryItOut 248

tryItOut 249
Running threw: ReferenceError: window is not defined

tryItOut 250

tryItOut 251
Compiling threw: SyntaxError: missing ) after condition

tryItOut 252

tryItOut 253
Running threw: ReferenceError: reference to undefined XML name *::*

tryItOut 254

tryItOut 255
Compiling threw: SyntaxError: invalid assignment left-hand side

tryItOut 256
Running threw: ReferenceError: window is not defined

tryItOut 257
Compiling threw: SyntaxError: syntax error

tryItOut 258
Running threw: TypeError: this.zzz has no properties

tryItOut 259
Compiling threw: SyntaxError: missing ; before statement

tryItOut 260
Compiling threw: SyntaxError: syntax error

tryItOut 261
Compiling threw: SyntaxError: missing ; before statement

tryItOut 262
It's an iterator!
Iterating threw!
Iterating threw: ReferenceError: reference to undefined XML name *::*

tryItOut 263

tryItOut 264
before 174400, after 174400, break 00f82000

tryItOut 265

tryItOut 266
Compiling threw: SyntaxError: syntax error

tryItOut 267

tryItOut 268
Compiling threw: SyntaxError: syntax error

tryItOut 269
Running threw: 

tryItOut 270
Running threw: ReferenceError: reference to undefined XML name *

tryItOut 271
Compiling threw: SyntaxError: missing ] after element list

tryItOut 272

tryItOut 273

tryItOut 274

tryItOut 275

tryItOut 276
Compiling threw: SyntaxError: syntax error

tryItOut 277
Compiling threw: SyntaxError: missing ] after element list

tryItOut 278
Running threw: TypeError: this.zzz has no properties

tryItOut 279
It's an iterator!
Iterating threw!
Iterating threw: ReferenceError: window is not defined

tryItOut 280

tryItOut 281
Compiling threw: SyntaxError: missing ) in parenthetical

tryItOut 282
Compiling threw: SyntaxError: missing } after property list

tryItOut 283

tryItOut 284
Compiling threw: SyntaxError: illegal XML character

tryItOut 285
It's an iterator!
Iterating succeeded, iterCount == 1

tryItOut 286

tryItOut 287

tryItOut 288

tryItOut 289

tryItOut 290
Compiling threw: SyntaxError: missing ) in parenthetical

tryItOut 291

tryItOut 292

tryItOut 293

tryItOut 294

tryItOut 295

tryItOut 296

tryItOut 297

tryItOut 298

tryItOut 299

tryItOut 300
Compiling threw: SyntaxError: missing ; before statement

tryItOut 301
It's an iterator!
Iterating succeeded, iterCount == 1

tryItOut 302
It's an iterator!
Iterating threw!
Iterating threw: ReferenceError: reference to undefined XML name *

tryItOut 303
Compiling threw: SyntaxError: syntax error

tryItOut 304

tryItOut 305
It's an iterator!
Iterating threw!
Iterating threw: ReferenceError: z2 is not defined

tryItOut 306

tryItOut 307
Compiling threw: SyntaxError: missing ; before statement

tryItOut 308
Running threw: ReferenceError: reference to undefined XML name *

tryItOut 309

tryItOut 310
Compiling threw: SyntaxError: missing ) in parenthetical

tryItOut 311

tryItOut 312
Compiling threw: SyntaxError: missing } after let block

tryItOut 313
Compiling threw: TypeError: generator function anonymous returns a value

tryItOut 314

tryItOut 315

tryItOut 316
Compiling threw: SyntaxError: invalid XML name

tryItOut 317
Compiling threw: SyntaxError: missing ) in parenthetical

tryItOut 318
Compiling threw: SyntaxError: syntax error

tryItOut 319
Compiling threw: SyntaxError: missing ; before statement

tryItOut 320
It's an iterator!
Iterating succeeded, iterCount == 1

tryItOut 321
Running threw: Error: invalid sharp variable use #1#

tryItOut 322
Compiling threw: SyntaxError: invalid assignment left-hand side

tryItOut 323
It's an iterator!
Iterating succeeded, iterCount == 1

tryItOut 324
Compiling threw: TypeError: generator function anonymous returns a value

tryItOut 325

tryItOut 326
Running threw: ReferenceError: reference to undefined XML name *::*

tryItOut 327
Compiling threw: SyntaxError: invalid for/in left-hand side

tryItOut 328
Compiling threw: SyntaxError: invalid XML name

tryItOut 329

tryItOut 330

tryItOut 331
Compiling threw: SyntaxError: invalid XML tag syntax

tryItOut 332
Compiling threw: SyntaxError: illegal XML character

tryItOut 333
Compiling threw: SyntaxError: missing ] after element list

tryItOut 334
Compiling threw: SyntaxError: missing ) in parenthetical

tryItOut 335

tryItOut 336

tryItOut 337

tryItOut 338

tryItOut 339

tryItOut 340

tryItOut 341
It's an iterator!
Iterating threw!
Iterating threw: ReferenceError: window is not defined

tryItOut 342
Compiling threw: TypeError: generator function anonymous returns a value

tryItOut 343
Compiling threw: SyntaxError: duplicate label

tryItOut 344
It's an iterator!
Iterating succeeded, iterCount == 1

tryItOut 345
Compiling threw: SyntaxError: invalid for each loop

tryItOut 346
Compiling threw: TypeError: generator function anonymous returns a value

tryItOut 347

tryItOut 348
Compiling threw: SyntaxError: missing ] after attribute expression

tryItOut 349
It's an iterator!
Iterating threw!
Iterating threw: ReferenceError: reference to undefined XML name @foo

tryItOut 350

tryItOut 351

tryItOut 352
Compiling threw: SyntaxError: missing ) in parenthetical

tryItOut 353

tryItOut 354
Compiling threw: SyntaxError: invalid XML name

tryItOut 355
Compiling threw: SyntaxError: invalid assignment left-hand side

tryItOut 356
Compiling threw: SyntaxError: missing ) in parenthetical

tryItOut 357

tryItOut 358

tryItOut 359
Compiling threw: SyntaxError: missing ) in parenthetical

tryItOut 360
Compiling threw: SyntaxError: syntax error

tryItOut 361
Compiling threw: SyntaxError: missing ( before let head

tryItOut 362
Error while trying to determine whether it's an iterator!
The error was: TypeError: undefined.__iterator__ returned a primitive value

tryItOut 363
Compiling threw: SyntaxError: invalid for each loop

tryItOut 364

tryItOut 365

tryItOut 366
Compiling threw: SyntaxError: syntax error

tryItOut 367

tryItOut 368
Compiling threw: SyntaxError: missing ( before let head

tryItOut 369

tryItOut 370
Compiling threw: TypeError: generator function anonymous returns a value

tryItOut 371
Compiling threw: SyntaxError: missing ] after element list

tryItOut 372
Compiling threw: SyntaxError: missing ; before statement

tryItOut 373
Running threw: TypeError: this.zzz has no properties

tryItOut 374
Running threw: TypeError: this.zzz has no properties

tryItOut 375

tryItOut 376

tryItOut 377
Compiling threw: SyntaxError: syntax error

tryItOut 378
Compiling threw: SyntaxError: invalid destructuring assignment operator

tryItOut 379

tryItOut 380

tryItOut 381
Compiling threw: SyntaxError: syntax error

tryItOut 382
It's an iterator!
Iterating succeeded, iterCount == 1

tryItOut 383

tryItOut 384
Running threw: ReferenceError: z1 is not defined

tryItOut 385

tryItOut 386
Compiling threw: SyntaxError: missing } after let block

tryItOut 387
Compiling threw: SyntaxError: missing ] after element list

tryItOut 388
Compiling threw: TypeError: redeclaration of var __iterator__

tryItOut 389
Compiling threw: SyntaxError: missing ; before statement

tryItOut 390

tryItOut 391

tryItOut 392
Compiling threw: SyntaxError: finally without try

tryItOut 393
Compiling threw: SyntaxError: invalid XML tag syntax

tryItOut 394
Compiling threw: SyntaxError: missing variable name

tryItOut 395
It's an iterator!
Iterating threw!
Iterating threw: ReferenceError: reference to undefined XML name *

tryItOut 396

tryItOut 397

tryItOut 398

tryItOut 399

tryItOut 400

tryItOut 401
Compiling threw: SyntaxError: syntax error

tryItOut 402

tryItOut 403

tryItOut 404

tryItOut 405
Running threw: ReferenceError: window is not defined

tryItOut 406

tryItOut 407

tryItOut 408

tryItOut 409

tryItOut 410
Compiling threw: SyntaxError: syntax error

tryItOut 411

tryItOut 412
Running threw: Can't toString the error!!

tryItOut 413

tryItOut 414
Compiling threw: SyntaxError: missing ] after element list

tryItOut 415
Compiling threw: SyntaxError: illegal XML character

tryItOut 416
Compiling threw: SyntaxError: invalid assignment left-hand side

tryItOut 417

tryItOut 418
Compiling threw: SyntaxError: missing { before function body

tryItOut 419
Compiling threw: SyntaxError: missing ; before statement

tryItOut 420

tryItOut 421
Compiling threw: SyntaxError: syntax error

tryItOut 422
It's an iterator!
Iterating succeeded, iterCount == 1

tryItOut 423
Compiling threw: SyntaxError: missing variable name

tryItOut 424
Compiling threw: SyntaxError: invalid destructuring assignment operator

tryItOut 425
Compiling threw: SyntaxError: missing name after . operator

tryItOut 426
Compiling threw: SyntaxError: duplicate label

tryItOut 427

tryItOut 428

tryItOut 429
Compiling threw: SyntaxError: syntax error

tryItOut 430
Compiling threw: SyntaxError: syntax error

tryItOut 431

tryItOut 432
Running threw: TypeError: XML.prototype.toString called on incompatible global

tryItOut 433

tryItOut 434
It's an iterator!
Iterating succeeded, iterCount == 1

tryItOut 435
Running threw: ReferenceError: __noSuchMethod__ is not defined

tryItOut 436

tryItOut 437
Running threw: ReferenceError: reference to undefined XML name @foo

tryItOut 438
Compiling threw: SyntaxError: missing ) in parenthetical

tryItOut 439
Running threw: ReferenceError: reference to undefined XML name *

tryItOut 440

tryItOut 441

tryItOut 442
Compiling threw: SyntaxError: missing ) in parenthetical

tryItOut 443
Compiling threw: SyntaxError: syntax error

tryItOut 444
Compiling threw: SyntaxError: missing ) after for-loop control

tryItOut 445
It's an iterator!
Iterating succeeded, iterCount == 1

tryItOut 446

tryItOut 447

tryItOut 448
Compiling threw: SyntaxError: missing ; before statement

tryItOut 449

tryItOut 450
It's an iterator!
Iterating threw!
Iterating threw: ReferenceError: window is not defined

tryItOut 451
It's an iterator!
Iterating succeeded, iterCount == 1

tryItOut 452
Compiling threw: SyntaxError: invalid for/in left-hand side

tryItOut 453

tryItOut 454
Running threw: ReferenceError: window is not defined

tryItOut 455
Compiling threw: SyntaxError: missing ) after argument list

tryItOut 456
Running threw: TypeError: XML descendants internal method called on incompatible Number

tryItOut 457

tryItOut 458
Compiling threw: SyntaxError: missing ] after element list

tryItOut 459

tryItOut 460

tryItOut 461
It's an iterator!
Iterating succeeded, iterCount == 1

tryItOut 462
Compiling threw: SyntaxError: missing ) after switch expression

tryItOut 463
Compiling threw: SyntaxError: syntax error

tryItOut 464
Compiling threw: SyntaxError: invalid assignment left-hand side

tryItOut 465
Compiling threw: SyntaxError: missing ) in parenthetical

tryItOut 466

tryItOut 467
Compiling threw: SyntaxError: missing ; before statement

tryItOut 468

tryItOut 469
Compiling threw: SyntaxError: invalid XML name

tryItOut 470
Compiling threw: TypeError: redeclaration of variable __parent__

tryItOut 471

tryItOut 472
Compiling threw: SyntaxError: invalid assignment left-hand side

tryItOut 473
Compiling threw: SyntaxError: missing ; before statement

tryItOut 474
Compiling threw: SyntaxError: invalid default XML namespace

tryItOut 475

tryItOut 476

tryItOut 477

tryItOut 478

tryItOut 479

tryItOut 480
Compiling threw: SyntaxError: missing { before function body

tryItOut 481
It's an iterator!
Iterating succeeded, iterCount == 1

tryItOut 482
It's an iterator!
Iterating threw!
Iterating threw: TypeError: this.zzz has no properties

tryItOut 483
before 209280, after 209280, break 00ff4000

tryItOut 484
It's an iterator!
Iterating succeeded, iterCount == 1

tryItOut 485
Compiling threw: SyntaxError: missing variable name

tryItOut 486
Running threw: ReferenceError: reference to undefined XML name *

tryItOut 487
Compiling threw: SyntaxError: syntax error

tryItOut 488
Compiling threw: SyntaxError: missing { before function body

tryItOut 489

tryItOut 490

tryItOut 491

tryItOut 492
Compiling threw: SyntaxError: missing ) in parenthetical

tryItOut 493

tryItOut 494

tryItOut 495
Compiling threw: SyntaxError: missing { before function body

tryItOut 496
Compiling threw: SyntaxError: missing ; before statement

tryItOut 497

tryItOut 498
Running threw: ReferenceError: reference to undefined XML name *

tryItOut 499

tryItOut 500

tryItOut 501
Running threw: ReferenceError: reference to undefined XML name *

tryItOut 502

tryItOut 503
Running threw: ReferenceError: prototype is not defined

tryItOut 504

tryItOut 505
Compiling threw: SyntaxError: illegal XML character

tryItOut 506
Compiling threw: SyntaxError: syntax error

tryItOut 507
Compiling threw: SyntaxError: invalid assignment left-hand side

tryItOut 508

tryItOut 509

tryItOut 510

tryItOut 511

tryItOut 512
Compiling threw: SyntaxError: missing ) after argument list

tryItOut 513
Compiling threw: SyntaxError: syntax error

tryItOut 514
Compiling threw: SyntaxError: invalid decrement operand

tryItOut 515
Running threw: TypeError: this.zzz has no properties

tryItOut 516

tryItOut 517
It's an iterator!
Iterating threw!
Iterating threw: ReferenceError: reference to undefined XML name *::*

tryItOut 518
Compiling threw: TypeError: redeclaration of var __proto__

tryItOut 519

tryItOut 520
Compiling threw: SyntaxError: invalid decrement operand

tryItOut 521
Running threw: ReferenceError: reference to undefined XML name @foo

tryItOut 522
Compiling threw: TypeError: generator function anonymous returns a value

tryItOut 523

tryItOut 524
Compiling threw: SyntaxError: missing variable name

tryItOut 525

tryItOut 526

tryItOut 527

tryItOut 528

tryItOut 529
Compiling threw: SyntaxError: missing = in destructuring declaration

tryItOut 530

tryItOut 531

tryItOut 532
It's an iterator!
Iterating succeeded, iterCount == 1

tryItOut 533
It's an iterator!
Iterating succeeded, iterCount == 1

tryItOut 534

tryItOut 535

tryItOut 536

tryItOut 537

tryItOut 538

tryItOut 539
Compiling threw: SyntaxError: invalid assignment left-hand side

tryItOut 540
Compiling threw: SyntaxError: syntax error

tryItOut 541

tryItOut 542

tryItOut 543

tryItOut 544

tryItOut 545
Compiling threw: SyntaxError: missing } after let block

tryItOut 546
It's an iterator!
Iterating threw!
Iterating threw: ReferenceError: reference to undefined XML name *

tryItOut 547

tryItOut 548

tryItOut 549
Compiling threw: TypeError: redeclaration of const __noSuchMethod__

tryItOut 550
Running threw: function ([y]) {
}

tryItOut 551
Compiling threw: SyntaxError: syntax error

tryItOut 552
Compiling threw: SyntaxError: syntax error

tryItOut 553

tryItOut 554
Compiling threw: SyntaxError: syntax error

tryItOut 555
Compiling threw: SyntaxError: missing ) in parenthetical

tryItOut 556
Compiling threw: SyntaxError: syntax error

tryItOut 557
Running threw: ReferenceError: reference to undefined XML name *

tryItOut 558
Running threw: ReferenceError: reference to undefined XML name @foo

tryItOut 559

tryItOut 560

tryItOut 561
Compiling threw: SyntaxError: invalid assignment left-hand side

tryItOut 562
Compiling threw: SyntaxError: missing { before function body

tryItOut 563

tryItOut 564
It's an iterator!
before 244160, after 226720, break 01045000
Iterating succeeded, iterCount == 1

tryItOut 565
Running threw: ReferenceError: window is not defined

tryItOut 566
Compiling threw: SyntaxError: invalid XML name

tryItOut 567

tryItOut 568
Running threw: <x>
  <y/>
</x>

tryItOut 569

tryItOut 570
Compiling threw: SyntaxError: missing variable name

tryItOut 571

tryItOut 572
Compiling threw: TypeError: generator function anonymous returns a value

tryItOut 573
Running threw: ReferenceError: reference to undefined XML name *

tryItOut 574
Compiling threw: SyntaxError: invalid for/in left-hand side

tryItOut 575

tryItOut 576
Compiling threw: SyntaxError: missing { before function body

tryItOut 577

tryItOut 578
Compiling threw: SyntaxError: invalid assignment left-hand side

tryItOut 579

tryItOut 580
Compiling threw: SyntaxError: syntax error

tryItOut 581
Compiling threw: SyntaxError: syntax error

tryItOut 582
Running threw: ReferenceError: reference to undefined XML name *::*

tryItOut 583
before 226720, after 209280, break 00ff4000

tryItOut 584

tryItOut 585

tryItOut 586

tryItOut 587

tryItOut 588
Compiling threw: SyntaxError: invalid assignment left-hand side

tryItOut 589
Compiling threw: SyntaxError: missing ) in parenthetical

tryItOut 590
Running threw: TypeError: this.zzz has no properties

tryItOut 591

tryItOut 592
It's an iterator!
Iterating succeeded, iterCount == 1

tryItOut 593
Compiling threw: SyntaxError: syntax error

tryItOut 594
Compiling threw: SyntaxError: missing ; before statement

tryItOut 595

tryItOut 596
Running threw: ReferenceError: __proto__ is not defined

tryItOut 597

tryItOut 598
Compiling threw: SyntaxError: syntax error

tryItOut 599
Compiling threw: SyntaxError: invalid assignment left-hand side

tryItOut 600
Running threw: ReferenceError: window is not defined

tryItOut 601
Running threw: Error: invalid sharp variable use #1#

tryItOut 602
Compiling threw: SyntaxError: missing ) after condition

tryItOut 603
Compiling threw: SyntaxError: syntax error

tryItOut 604
Compiling threw: SyntaxError: missing ; before statement

tryItOut 605
Compiling threw: SyntaxError: missing ; before statement

tryItOut 606
Compiling threw: SyntaxError: missing name after . operator

tryItOut 607
Running threw: TypeError: this.zzz has no properties

tryItOut 608
Running threw: ReferenceError: reference to undefined XML name @foo

tryItOut 609

tryItOut 610
Compiling threw: SyntaxError: syntax error

tryItOut 611
Compiling threw: TypeError: redeclaration of variable __iterator__

tryItOut 612
Compiling threw: SyntaxError: illegal XML character

tryItOut 613
Running threw: TypeError: this.zzz has no properties

tryItOut 614

tryItOut 615
Compiling threw: SyntaxError: missing ) in parenthetical

tryItOut 616
Compiling threw: SyntaxError: missing ) in parenthetical

tryItOut 617
Compiling threw: SyntaxError: invalid increment operand

tryItOut 618

tryItOut 619
It's an iterator!
Iterating threw!
Iterating threw: ReferenceError: window is not defined

tryItOut 620
Compiling threw: SyntaxError: missing variable name

tryItOut 621
It's an iterator!
Iterating succeeded, iterCount == 1

tryItOut 622

tryItOut 623
Compiling threw: SyntaxError: invalid assignment left-hand side

tryItOut 624
Compiling threw: SyntaxError: invalid assignment left-hand side

tryItOut 625
Running threw: ReferenceError: reference to undefined XML name *::*

tryItOut 626
Running threw: TypeError: this.__defineSetter__ is not a function

tryItOut 627

tryItOut 628

tryItOut 629
Running threw: ReferenceError: reference to undefined XML name *::*

tryItOut 630
Running threw: ReferenceError: reference to undefined XML name @foo

tryItOut 631
Compiling threw: SyntaxError: missing ) in parenthetical

tryItOut 632

tryItOut 633
Running threw: ReferenceError: window is not defined

tryItOut 634
Compiling threw: SyntaxError: invalid for/in left-hand side

tryItOut 635
Compiling threw: SyntaxError: syntax error

tryItOut 636

tryItOut 637
Running threw: TypeError: this.zzz has no properties

tryItOut 638
Compiling threw: SyntaxError: missing ) in parenthetical

tryItOut 639
Compiling threw: SyntaxError: missing ) in parenthetical

tryItOut 640
It's an iterator!
Iterating succeeded, iterCount == 1

tryItOut 641

tryItOut 642

tryItOut 643
Running threw: ReferenceError: __proto__ is not defined

tryItOut 644
Compiling threw: SyntaxError: missing ] after element list

tryItOut 645

tryItOut 646
Compiling threw: SyntaxError: missing = in destructuring declaration

tryItOut 647
Compiling threw: SyntaxError: missing ] after element list

tryItOut 648
Compiling threw: SyntaxError: missing = in destructuring declaration

tryItOut 649
Compiling threw: SyntaxError: missing } after let block

tryItOut 650
Compiling threw: SyntaxError: invalid assignment left-hand side

tryItOut 651
It's an iterator!
Iterating succeeded, iterCount == 1

tryItOut 652
Running threw: ReferenceError: __proto__ is not defined

tryItOut 653
Compiling threw: SyntaxError: invalid label

tryItOut 654

tryItOut 655
Compiling threw: SyntaxError: syntax error

tryItOut 656
Compiling threw: SyntaxError: syntax error

tryItOut 657
Compiling threw: SyntaxError: syntax error

tryItOut 658
Compiling threw: SyntaxError: missing ; before statement

tryItOut 659
Compiling threw: SyntaxError: missing ) in parenthetical

tryItOut 660
Compiling threw: SyntaxError: missing ; before statement

tryItOut 661
before 244160, after 244160, break 01056000

tryItOut 662

tryItOut 663
Compiling threw: SyntaxError: missing ; before statement

tryItOut 664

tryItOut 665
Compiling threw: SyntaxError: missing ; after for-loop condition

tryItOut 666
It's an iterator!
Iterating succeeded, iterCount == 1

tryItOut 667

tryItOut 668

tryItOut 669
Running threw: ReferenceError: z1 is not defined

tryItOut 670
Compiling threw: SyntaxError: syntax error

tryItOut 671
before 244160, after 244160, break 01049000

tryItOut 672

tryItOut 673
Compiling threw: SyntaxError: syntax error

tryItOut 674
Running threw: ReferenceError: reference to undefined XML name *::*

tryItOut 675
Compiling threw: TypeError: generator function anonymous returns a value

tryItOut 676
Compiling threw: SyntaxError: syntax error

tryItOut 677

tryItOut 678
Compiling threw: SyntaxError: invalid XML name

tryItOut 679

tryItOut 680

tryItOut 681

tryItOut 682

tryItOut 683

tryItOut 684

tryItOut 685
It's an iterator!
Iterating threw!
Iterating threw: TypeError: arguments[0] has no properties

tryItOut 686
Compiling threw: SyntaxError: missing ] after element list

tryItOut 687

tryItOut 688
Compiling threw: SyntaxError: missing ) in parenthetical

tryItOut 689
Compiling threw: SyntaxError: syntax error

tryItOut 690
Compiling threw: SyntaxError: invalid XML name

tryItOut 691
Compiling threw: SyntaxError: invalid increment operand

tryItOut 692

tryItOut 693
Running threw: 1.3

tryItOut 694

tryItOut 695
Compiling threw: SyntaxError: syntax error

tryItOut 696
Running threw: TypeError: this.zzz has no properties

tryItOut 697

tryItOut 698
Running threw: Can't toString the error!!

tryItOut 699

tryItOut 700
It's an iterator!
Iterating succeeded, iterCount == 1

tryItOut 701
Running threw: ReferenceError: reference to undefined XML name @foo

tryItOut 702

tryItOut 703

tryItOut 704
It's an iterator!
Iterating threw!
Iterating threw: ReferenceError: reference to undefined XML name *::*

tryItOut 705
It's an iterator!
Iterating succeeded, iterCount == 1

tryItOut 706
Compiling threw: SyntaxError: missing ) in parenthetical

tryItOut 707
before 244160, after 244160, break 01049000

tryItOut 708
Compiling threw: SyntaxError: syntax error

tryItOut 709
Compiling threw: SyntaxError: finally without try

tryItOut 710
Compiling threw: SyntaxError: missing ) in parenthetical

tryItOut 711

tryItOut 712
Compiling threw: SyntaxError: illegal XML character

tryItOut 713
Compiling threw: SyntaxError: invalid XML name

tryItOut 714
Running threw: TypeError: this.zzz has no properties

tryItOut 715
Running threw: ReferenceError: reference to undefined XML name *

tryItOut 716
Compiling threw: SyntaxError: duplicate label

tryItOut 717

tryItOut 718

tryItOut 719
Compiling threw: SyntaxError: syntax error

tryItOut 720
Compiling threw: SyntaxError: missing ; before statement

tryItOut 721
Compiling threw: SyntaxError: invalid assignment left-hand side

tryItOut 722
Compiling threw: SyntaxError: syntax error

tryItOut 723

tryItOut 724

tryItOut 725
Running threw: Can't toString the error!!

tryItOut 726
It's an iterator!
Iterating succeeded, iterCount == 1

tryItOut 727

tryItOut 728
Compiling threw: SyntaxError: missing ; before statement

tryItOut 729

tryItOut 730
Running threw: TypeError: this.zzz has no properties

tryItOut 731
Compiling threw: SyntaxError: missing name in export statement

tryItOut 732
Running threw: ReferenceError: reference to undefined XML name *

tryItOut 733

tryItOut 734

tryItOut 735
Running threw: ReferenceError: __parent__ is not defined

tryItOut 736
Compiling threw: SyntaxError: syntax error

tryItOut 737
Compiling threw: SyntaxError: missing ] after element list

tryItOut 738
Running threw: ReferenceError: reference to undefined XML name @foo

tryItOut 739
Compiling threw: SyntaxError: syntax error

tryItOut 740

tryItOut 741
Compiling threw: SyntaxError: missing ) in parenthetical

tryItOut 742
Compiling threw: SyntaxError: invalid assignment left-hand side

tryItOut 743
Running threw: ReferenceError: __parent__ is not defined

tryItOut 744
Running threw: TypeError: arguments[0] has no properties

tryItOut 745
before 244160, after 244160, break 01049000

tryItOut 746

tryItOut 747
Compiling threw: SyntaxError: missing ) in parenthetical

tryItOut 748

tryItOut 749

tryItOut 750

tryItOut 751

tryItOut 752
Compiling threw: SyntaxError: missing ; before statement

tryItOut 753
Compiling threw: SyntaxError: missing ; before statement

tryItOut 754
It's an iterator!
Iterating threw!
Iterating threw: ReferenceError: window is not defined

tryItOut 755

tryItOut 756
Compiling threw: SyntaxError: missing { before function body

tryItOut 757

tryItOut 758
Compiling threw: SyntaxError: invalid XML name

tryItOut 759

tryItOut 760
Compiling threw: TypeError: generator function anonymous returns a value

tryItOut 761

tryItOut 762
before 244160, after 244160, break 01049000

tryItOut 763
Compiling threw: SyntaxError: syntax error

tryItOut 764

tryItOut 765

tryItOut 766

tryItOut 767
Running threw: ReferenceError: window is not defined

tryItOut 768
Running threw: SyntaxError: yield not in function

tryItOut 769

tryItOut 770

tryItOut 771
Compiling threw: SyntaxError: syntax error

tryItOut 772

tryItOut 773

tryItOut 774
Compiling threw: SyntaxError: missing ) after condition

tryItOut 775
Compiling threw: SyntaxError: syntax error

tryItOut 776
Running threw: 

tryItOut 777
Compiling threw: SyntaxError: missing ; before statement

tryItOut 778
Compiling threw: SyntaxError: invalid destructuring assignment operator

tryItOut 779
Compiling threw: TypeError: redeclaration of var prototype

tryItOut 780
Compiling threw: SyntaxError: syntax error

tryItOut 781
Compiling threw: SyntaxError: missing ; before statement

tryItOut 782

tryItOut 783
Compiling threw: SyntaxError: missing ) in parenthetical

tryItOut 784

tryItOut 785

tryItOut 786
Running threw: 

tryItOut 787

tryItOut 788
Compiling threw: SyntaxError: syntax error

tryItOut 789
It's an iterator!
Iterating succeeded, iterCount == 1

tryItOut 790

tryItOut 791
Compiling threw: SyntaxError: missing { before function body

tryItOut 792
Compiling threw: SyntaxError: illegal XML character

tryItOut 793

tryItOut 794

tryItOut 795
Compiling threw: TypeError: redeclaration of const __iterator__

tryItOut 796

tryItOut 797

tryItOut 798

tryItOut 799

tryItOut 800
Compiling threw: SyntaxError: missing ) after condition

tryItOut 801
Compiling threw: SyntaxError: syntax error

tryItOut 802
It's an iterator!
Iterating threw!
Iterating threw: ReferenceError: reference to undefined XML name *

tryItOut 803

tryItOut 804
Compiling threw: SyntaxError: syntax error

tryItOut 805
Running threw: ReferenceError: prototype is not defined

tryItOut 806
It's an iterator!
Iterating succeeded, iterCount == 1

tryItOut 807

tryItOut 808

tryItOut 809
Compiling threw: SyntaxError: syntax error

tryItOut 810
Compiling threw: SyntaxError: syntax error

tryItOut 811
Running threw: <x>
  <y/>
</x>

tryItOut 812

tryItOut 813
It's an iterator!
Iterating succeeded, iterCount == 1

tryItOut 814

tryItOut 815
Compiling threw: SyntaxError: missing = in destructuring declaration

tryItOut 816

tryItOut 817

tryItOut 818

tryItOut 819
Compiling threw: SyntaxError: yield expression must be parenthesized

tryItOut 820
Running threw: 5

tryItOut 821
It's an iterator!
Iterating succeeded, iterCount == 1

tryItOut 822

tryItOut 823
Compiling threw: SyntaxError: finally without try

tryItOut 824

tryItOut 825
Running threw: TypeError: can't convert this to number

tryItOut 826

tryItOut 827
Compiling threw: SyntaxError: invalid XML name

tryItOut 828

tryItOut 829
It's an iterator!
Iterating threw!
Iterating threw: ReferenceError: reference to undefined XML name *::*

tryItOut 830

tryItOut 831
Compiling threw: SyntaxError: invalid for/in left-hand side

tryItOut 832

tryItOut 833
Compiling threw: TypeError: redeclaration of var __count__

tryItOut 834
Compiling threw: SyntaxError: syntax error

tryItOut 835
Compiling threw: SyntaxError: invalid assignment left-hand side

tryItOut 836
Compiling threw: SyntaxError: missing variable name

tryItOut 837

tryItOut 838

tryItOut 839
Compiling threw: SyntaxError: syntax error

tryItOut 840

tryItOut 841
Compiling threw: SyntaxError: invalid assignment left-hand side

tryItOut 842
Compiling threw: SyntaxError: invalid assignment left-hand side

tryItOut 843
Compiling threw: SyntaxError: missing = in destructuring declaration

tryItOut 844
Compiling threw: SyntaxError: syntax error

tryItOut 845

tryItOut 846

tryItOut 847

tryItOut 848
Running threw: TypeError: this.zzz has no properties

tryItOut 849
Compiling threw: SyntaxError: invalid assignment left-hand side

tryItOut 850

tryItOut 851
Compiling threw: SyntaxError: missing ] after element list

tryItOut 852
Running threw: ReferenceError: window is not defined

tryItOut 853
Compiling threw: SyntaxError: invalid increment operand

tryItOut 854

tryItOut 855
It's an iterator!
Iterating succeeded, iterCount == 1

tryItOut 856

tryItOut 857

tryItOut 858

tryItOut 859

tryItOut 860
Compiling threw: SyntaxError: invalid XML tag syntax

tryItOut 861

tryItOut 862

tryItOut 863

tryItOut 864

tryItOut 865
It's an iterator!
Iterating threw!
Iterating threw: ReferenceError: window is not defined

tryItOut 866

tryItOut 867
Compiling threw: SyntaxError: missing ) in parenthetical

tryItOut 868
Compiling threw: SyntaxError: syntax error

tryItOut 869
Running threw: TypeError: this.__defineSetter__ is not a function

tryItOut 870
Compiling threw: SyntaxError: missing ; after for-loop condition

tryItOut 871

tryItOut 872
Compiling threw: SyntaxError: syntax error

tryItOut 873

tryItOut 874

tryItOut 875
Compiling threw: SyntaxError: missing { before function body

tryItOut 876
Compiling threw: TypeError: generator function anonymous returns a value

tryItOut 877
Compiling threw: SyntaxError: missing ; before statement

tryItOut 878
It's an iterator!
Iterating succeeded, iterCount == 1

tryItOut 879
Compiling threw: SyntaxError: syntax error

tryItOut 880

tryItOut 881

tryItOut 882

tryItOut 883
Compiling threw: SyntaxError: missing ) in parenthetical

tryItOut 884
Compiling threw: SyntaxError: invalid for/in left-hand side

tryItOut 885

tryItOut 886
Running threw: TypeError: this.zzz has no properties

tryItOut 887

tryItOut 888
Compiling threw: SyntaxError: syntax error

tryItOut 889
It's an iterator!
Iterating succeeded, iterCount == 1

tryItOut 890
Compiling threw: SyntaxError: syntax error

tryItOut 891

tryItOut 892
Compiling threw: SyntaxError: syntax error

tryItOut 893
Compiling threw: TypeError: generator function anonymous returns a value

tryItOut 894
It's an iterator!
Iterating threw!
Iterating threw: ReferenceError: reference to undefined XML name *::*

tryItOut 895

tryItOut 896
It's an iterator!
Iterating succeeded, iterCount == 1

tryItOut 897

tryItOut 898

tryItOut 899
Running threw: TypeError: this.zzz has no properties

tryItOut 900

tryItOut 901
Compiling threw: TypeError: redeclaration of variable __proto__

tryItOut 902
Compiling threw: SyntaxError: missing ( before let head

tryItOut 903

tryItOut 904
It's an iterator!
Iterating succeeded, iterCount == 1

tryItOut 905
Running threw: 

tryItOut 906
Compiling threw: SyntaxError: syntax error

tryItOut 907

tryItOut 908
Compiling threw: SyntaxError: invalid for/in left-hand side

tryItOut 909
Compiling threw: SyntaxError: syntax error

tryItOut 910
Compiling threw: SyntaxError: invalid assignment left-hand side

tryItOut 911
Compiling threw: SyntaxError: syntax error

tryItOut 912

tryItOut 913
Compiling threw: SyntaxError: syntax error

tryItOut 914
Running threw: TypeError: this.__defineSetter__ is not a function

tryItOut 915

tryItOut 916
Compiling threw: SyntaxError: duplicate label

tryItOut 917

tryItOut 918

tryItOut 919

tryItOut 920
It's an iterator!
Iterating succeeded, iterCount == 1

tryItOut 921
Compiling threw: SyntaxError: syntax error

tryItOut 922
Compiling threw: SyntaxError: syntax error

tryItOut 923
It's an iterator!
Iterating threw!
Iterating threw: ReferenceError: reference to undefined XML name *

tryItOut 924
Compiling threw: SyntaxError: syntax error

tryItOut 925
Compiling threw: SyntaxError: missing ; before statement

tryItOut 926

tryItOut 927

tryItOut 928

tryItOut 929

tryItOut 930
Running threw: ReferenceError: reference to undefined XML name @foo

tryItOut 931

tryItOut 932

tryItOut 933

tryItOut 934
Compiling threw: SyntaxError: missing ) in parenthetical

tryItOut 935

tryItOut 936
Compiling threw: SyntaxError: missing ; before statement

tryItOut 937
Compiling threw: SyntaxError: invalid assignment left-hand side

tryItOut 938
Compiling threw: SyntaxError: syntax error

tryItOut 939
It's an iterator!
Iterating succeeded, iterCount == 1

tryItOut 940

tryItOut 941
before 383680, after 279040, break 01153000

tryItOut 942
Compiling threw: SyntaxError: missing name after . operator

tryItOut 943
Compiling threw: SyntaxError: missing ] after element list

tryItOut 944
Compiling threw: SyntaxError: syntax error

tryItOut 945
Compiling threw: SyntaxError: duplicate label

tryItOut 946
Compiling threw: SyntaxError: syntax error

tryItOut 947

tryItOut 948
Running threw: TypeError: this.zzz has no properties

tryItOut 949
Compiling threw: TypeError: redeclaration of const __iterator__

tryItOut 950
Running threw: TypeError: arguments[0] has no properties

tryItOut 951
before 279040, after 261600, break 01153000

tryItOut 952
Running threw: ReferenceError: reference to undefined XML name *

tryItOut 953
Compiling threw: SyntaxError: syntax error

tryItOut 954

tryItOut 955
Compiling threw: SyntaxError: invalid increment operand

tryItOut 956
Compiling threw: TypeError: generator function anonymous returns a value

tryItOut 957
Compiling threw: SyntaxError: syntax error

tryItOut 958
Compiling threw: SyntaxError: yield expression must be parenthesized

tryItOut 959
Compiling threw: SyntaxError: missing variable name

tryItOut 960
Compiling threw: SyntaxError: missing ) in parenthetical

tryItOut 961

tryItOut 962
Compiling threw: SyntaxError: missing { before function body

tryItOut 963
Compiling threw: TypeError: redeclaration of variable __noSuchMethod__

tryItOut 964
Compiling threw: SyntaxError: invalid assignment left-hand side

tryItOut 965

tryItOut 966

tryItOut 967
Compiling threw: SyntaxError: invalid switch statement

tryItOut 968
Compiling threw: SyntaxError: invalid assignment left-hand side

tryItOut 969
Compiling threw: SyntaxError: syntax error

tryItOut 970
Compiling threw: SyntaxError: syntax error

tryItOut 971

tryItOut 972
Compiling threw: SyntaxError: syntax error

tryItOut 973
It's an iterator!
Iterating succeeded, iterCount == 1

tryItOut 974

tryItOut 975
before 261600, after 261600, break 01153000

tryItOut 976
before 261600, after 261600, break 01153000

tryItOut 977

tryItOut 978

tryItOut 979

tryItOut 980
Running threw: ReferenceError: reference to undefined XML name @foo

tryItOut 981
Compiling threw: SyntaxError: syntax error

tryItOut 982

tryItOut 983

tryItOut 984
It's an iterator!
Iterating succeeded, iterCount == 1

tryItOut 985

tryItOut 986

tryItOut 987
Compiling threw: SyntaxError: syntax error

tryItOut 988
Compiling threw: SyntaxError: invalid XML name

tryItOut 989

tryItOut 990
Running threw: ReferenceError: reference to undefined XML name *::*

tryItOut 991
Running threw: TypeError: this.zzz has no properties

tryItOut 992
Compiling threw: SyntaxError: syntax error

tryItOut 993
Compiling threw: SyntaxError: missing ) in parenthetical

tryItOut 994
Compiling threw: SyntaxError: missing variable name

tryItOut 995

tryItOut 996
Running threw: TypeError: undefined has no properties

tryItOut 997
Compiling threw: SyntaxError: missing ) after argument list

tryItOut 998

tryItOut 999
It's an iterator!
Iterating succeeded, iterCount == 0

tryItOut 1000
Compiling threw: SyntaxError: invalid assignment left-hand side

ALL OK

Script done on Sat 04 May 2013 07:26:16 AM PDT
