Script started on Sat 04 May 2013 07:26:49 AM PDT
***
Targeting SpiderMonkey / Gecko.

tryItOut 1
It's an iterator!
Iterating succeeded, iterCount == 1

tryItOut 2

tryItOut 3
Compiling threw: SyntaxError: missing ) in parenthetical

tryItOut 4
Compiling threw: SyntaxError: missing variable name

tryItOut 5

tryItOut 6
Compiling threw: SyntaxError: invalid sharp variable definition

tryItOut 7
Running threw: ReferenceError: reference to undefined XML name @foo

tryItOut 8

tryItOut 9
It's an iterator!
Iterating succeeded, iterCount == 1

tryItOut 10
Running threw: ReferenceError: reference to undefined XML name *

tryItOut 11
Running threw: ReferenceError: reference to undefined XML name @foo

tryItOut 12

tryItOut 13

tryItOut 14

tryItOut 15

tryItOut 16
Running threw: function Object() {
    [native code]
}

tryItOut 17
Compiling threw: SyntaxError: missing while after do-loop body

tryItOut 18

tryItOut 19
It's an iterator!
Iterating threw!
Iterating threw: ReferenceError: prototype is not defined

tryItOut 20

tryItOut 21

tryItOut 22

tryItOut 23

tryItOut 24
It's an iterator!
Iterating threw!
Iterating threw: ReferenceError: prop is not defined

tryItOut 25
It's an iterator!
Iterating threw!
Iterating threw: ReferenceError: X is not defined

tryItOut 26
Compiling threw: SyntaxError: invalid assignment left-hand side

tryItOut 27
Running threw: ReferenceError: z1 is not defined

tryItOut 28
Running threw: TypeError: this.zzz has no properties

tryItOut 29

tryItOut 30
Compiling threw: SyntaxError: missing ; before statement

tryItOut 31
Running threw: TypeError: __proto__.__lookupGetter__("__noSuchMethod__") has no properties

tryItOut 32
Running threw: TypeError: this.zzz has no properties

tryItOut 33
Compiling threw: SyntaxError: missing variable name

tryItOut 34
It's an iterator!
Iterating succeeded, iterCount == 1

tryItOut 35
Running threw: ReferenceError: prop is not defined

tryItOut 36
It's an iterator!
Iterating threw!
Iterating threw: ReferenceError: z1 is not defined

tryItOut 37
Running threw: ReferenceError: reference to undefined XML name *::*

tryItOut 38

tryItOut 39

tryItOut 40
Compiling threw: SyntaxError: missing variable name

tryItOut 41
It's an iterator!
Iterating succeeded, iterCount == 1

tryItOut 42
Running threw: ReferenceError: prototype is not defined

tryItOut 43
Compiling threw: SyntaxError: missing ; before statement

tryItOut 44
Compiling threw: SyntaxError: missing variable name

tryItOut 45

tryItOut 46
Running threw: ReferenceError: __iterator__ is not defined

tryItOut 47
Compiling threw: SyntaxError: missing variable name

tryItOut 48
Compiling threw: SyntaxError: invalid assignment left-hand side

tryItOut 49
Running threw: ReferenceError: __noSuchMethod__ is not defined

tryItOut 50
Compiling threw: SyntaxError: syntax error

tryItOut 51

tryItOut 52
Compiling threw: SyntaxError: missing ) in parenthetical

tryItOut 53
Compiling threw: SyntaxError: missing ) after condition

tryItOut 54
Compiling threw: SyntaxError: invalid assignment left-hand side

tryItOut 55
Running threw: ReferenceError: __iterator__ is not defined

tryItOut 56
Compiling threw: SyntaxError: missing ; before statement

tryItOut 57
Compiling threw: SyntaxError: missing ) after switch expression

tryItOut 58
Compiling threw: SyntaxError: missing = in destructuring declaration

tryItOut 59
Compiling threw: SyntaxError: missing variable name

tryItOut 60

tryItOut 61

tryItOut 62
Compiling threw: SyntaxError: missing ) in parenthetical

tryItOut 63

tryItOut 64
Compiling threw: SyntaxError: invalid assignment left-hand side

tryItOut 65
It's an iterator!
Iterating threw!
Iterating threw: ReferenceError: reference to undefined XML name *

tryItOut 66

tryItOut 67

tryItOut 68
Compiling threw: SyntaxError: syntax error

tryItOut 69

tryItOut 70
before 104640, after 104640, break 020aa000

tryItOut 71

tryItOut 72

tryItOut 73
Compiling threw: SyntaxError: missing ; before statement

tryItOut 74
Running threw: ReferenceError: reference to undefined XML name *

tryItOut 75

tryItOut 76

tryItOut 77
Compiling threw: SyntaxError: missing ; before statement

tryItOut 78
Compiling threw: SyntaxError: missing ) in parenthetical

tryItOut 79
It's an iterator!
Iterating succeeded, iterCount == 0

tryItOut 80
Compiling threw: SyntaxError: missing variable name

tryItOut 81
before 104640, after 104640, break 020aa000

tryItOut 82

tryItOut 83
Running threw: [object StopIteration]

tryItOut 84

tryItOut 85
Running threw: TypeError: __parent__ has no properties

tryItOut 86
It's an iterator!
Iterating threw!
Iterating threw: ReferenceError: reference to undefined XML name @foo

tryItOut 87
Running threw: ReferenceError: __iterator__ is not defined

tryItOut 88
It's an iterator!
Iterating threw!
Iterating threw: ReferenceError: prop is not defined

tryItOut 89
Compiling threw: SyntaxError: missing ] after element list

tryItOut 90
Running threw: ReferenceError: __noSuchMethod__ is not defined

tryItOut 91
before 104640, after 104640, break 020aa000

tryItOut 92

tryItOut 93
Compiling threw: SyntaxError: invalid assignment left-hand side

tryItOut 94
Compiling threw: SyntaxError: missing ) after condition

tryItOut 95
Compiling threw: SyntaxError: invalid for/in left-hand side

tryItOut 96

tryItOut 97

tryItOut 98
It's an iterator!
Iterating succeeded, iterCount == 0

tryItOut 99
Compiling threw: SyntaxError: syntax error

tryItOut 100

tryItOut 101
Compiling threw: SyntaxError: missing ) after condition

tryItOut 102
Compiling threw: SyntaxError: invalid assignment left-hand side

tryItOut 103
Compiling threw: SyntaxError: missing ; before statement

tryItOut 104

tryItOut 105
Running threw: ReferenceError: __iterator__ is not defined

tryItOut 106

tryItOut 107
Compiling threw: SyntaxError: missing variable name

tryItOut 108
Running threw: ReferenceError: reference to undefined XML name @foo

tryItOut 109

tryItOut 110

tryItOut 111
Compiling threw: SyntaxError: missing ; before statement

tryItOut 112

tryItOut 113
It's an iterator!
Iterating succeeded, iterCount == 0

tryItOut 114

tryItOut 115
Compiling threw: SyntaxError: missing ; before statement

tryItOut 116
Running threw: ReferenceError: prop is not defined

tryItOut 117

tryItOut 118
It's an iterator!
Iterating succeeded, iterCount == 1

tryItOut 119
It's an iterator!
Iterating threw!
Iterating threw: ReferenceError: reference to undefined XML name @foo

tryItOut 120
Compiling threw: SyntaxError: missing ) in parenthetical

tryItOut 121
Running threw: ReferenceError: prototype is not defined

tryItOut 122
Running threw: ReferenceError: reference to undefined XML name @foo

tryItOut 123
Compiling threw: SyntaxError: missing { before function body

tryItOut 124

tryItOut 125
It's an iterator!
Iterating threw!
Iterating threw: ReferenceError: reference to undefined XML name *

tryItOut 126
Compiling threw: SyntaxError: missing variable name

tryItOut 127
Compiling threw: SyntaxError: missing ; before statement

tryItOut 128
Compiling threw: SyntaxError: missing ; before statement

tryItOut 129
Running threw: TypeError: this.zzz has no properties

tryItOut 130
Running threw: ReferenceError: prototype is not defined

tryItOut 131
Running threw: ReferenceError: reference to undefined XML name *::*

tryItOut 132
Compiling threw: SyntaxError: syntax error

tryItOut 133
Running threw: ReferenceError: z1 is not defined

tryItOut 134
It's an iterator!
Iterating succeeded, iterCount == 1

tryItOut 135
Compiling threw: SyntaxError: missing ; before statement

tryItOut 136

tryItOut 137
Compiling threw: SyntaxError: syntax error

tryItOut 138

tryItOut 139
It's an iterator!
Iterating threw!
Iterating threw: SyntaxError: invalid assignment left-hand side

tryItOut 140

tryItOut 141
Compiling threw: SyntaxError: syntax error

tryItOut 142

tryItOut 143
Running threw: ReferenceError: reference to undefined XML name *::*

tryItOut 144
Running threw: ReferenceError: z1 is not defined

tryItOut 145

tryItOut 146
Compiling threw: SyntaxError: missing formal parameter

tryItOut 147
Compiling threw: SyntaxError: invalid assignment left-hand side

tryItOut 148
Running threw: TypeError: this.zzz has no properties

tryItOut 149

tryItOut 150
Compiling threw: SyntaxError: invalid assignment left-hand side

tryItOut 151
before 122080, after 122080, break 020c7000
Running threw: TypeError: gc() is not a function

tryItOut 152

tryItOut 153
Compiling threw: SyntaxError: syntax error

tryItOut 154

tryItOut 155
It's an iterator!
before 122080, after 122080, break 020c7000
Iterating succeeded, iterCount == 1

tryItOut 156
Compiling threw: SyntaxError: invalid assignment left-hand side

tryItOut 157

tryItOut 158
It's an iterator!
Iterating succeeded, iterCount == 1

tryItOut 159

tryItOut 160
It's an iterator!
Iterating succeeded, iterCount == 1

tryItOut 161

tryItOut 162
Compiling threw: SyntaxError: invalid for/in left-hand side

tryItOut 163
Compiling threw: SyntaxError: missing = in destructuring declaration

tryItOut 164
Compiling threw: SyntaxError: syntax error

tryItOut 165

tryItOut 166

tryItOut 167

tryItOut 168
Compiling threw: SyntaxError: invalid for/in left-hand side

tryItOut 169

tryItOut 170
Running threw: TypeError: this.zzz has no properties

tryItOut 171
Compiling threw: TypeError: redeclaration of variable __parent__

tryItOut 172
Compiling threw: SyntaxError: duplicate label

tryItOut 173

tryItOut 174

tryItOut 175
It's an iterator!
Iterating succeeded, iterCount == 1

tryItOut 176

tryItOut 177

tryItOut 178
Running threw: ReferenceError: reference to undefined XML name *

tryItOut 179

tryItOut 180

tryItOut 181
Compiling threw: SyntaxError: missing variable name

tryItOut 182
Compiling threw: SyntaxError: invalid destructuring assignment operator

tryItOut 183

tryItOut 184
Compiling threw: SyntaxError: missing variable name

tryItOut 185
Running threw: TypeError: this.zzz has no properties

tryItOut 186

tryItOut 187
Running threw: ReferenceError: getter is not defined

tryItOut 188
Compiling threw: SyntaxError: duplicate label

tryItOut 189
Compiling threw: SyntaxError: missing = in destructuring declaration

tryItOut 190
Running threw: ReferenceError: prop is not defined

tryItOut 191
Compiling threw: SyntaxError: missing ] after element list

tryItOut 192

tryItOut 193

tryItOut 194
Compiling threw: SyntaxError: missing = in destructuring declaration

tryItOut 195

tryItOut 196
Running threw: [object Object]

tryItOut 197
Compiling threw: SyntaxError: invalid for/in left-hand side

tryItOut 198
Compiling threw: SyntaxError: invalid for/in left-hand side

tryItOut 199
It's an iterator!
Iterating succeeded, iterCount == 1

tryItOut 200
It's an iterator!
Iterating succeeded, iterCount == 1

tryItOut 201
Running threw: Can't toString the error!!

tryItOut 202
Compiling threw: SyntaxError: missing variable name

tryItOut 203
Running threw: [object StopIteration]

tryItOut 204

tryItOut 205
Compiling threw: SyntaxError: invalid assignment left-hand side

tryItOut 206

tryItOut 207
Compiling threw: SyntaxError: missing ) after argument list

tryItOut 208
Compiling threw: SyntaxError: missing ; before statement

tryItOut 209

tryItOut 210
Compiling threw: SyntaxError: invalid assignment left-hand side

tryItOut 211

tryItOut 212
It's an iterator!
Iterating threw!
Iterating threw: ReferenceError: prop is not defined

tryItOut 213

tryItOut 214
Running threw: ReferenceError: reference to undefined XML name *::*

tryItOut 215

tryItOut 216
Compiling threw: SyntaxError: missing ; before statement

tryItOut 217
Compiling threw: SyntaxError: invalid for each loop

tryItOut 218

tryItOut 219

tryItOut 220

tryItOut 221
Compiling threw: TypeError: redeclaration of variable prop

tryItOut 222
Compiling threw: SyntaxError: duplicate label

tryItOut 223

tryItOut 224
Compiling threw: SyntaxError: missing { before function body

tryItOut 225

tryItOut 226
before 139520, after 139520, break 020e9000

tryItOut 227

tryItOut 228

tryItOut 229
It's an iterator!
Iterating succeeded, iterCount == 1

tryItOut 230
Running threw: ReferenceError: reference to undefined XML name *::*

tryItOut 231

tryItOut 232
Compiling threw: SyntaxError: missing } after let block

tryItOut 233
Running threw: [object StopIteration]

tryItOut 234

tryItOut 235

tryItOut 236

tryItOut 237
Compiling threw: SyntaxError: invalid assignment left-hand side

tryItOut 238

tryItOut 239

tryItOut 240
It's an iterator!
Iterating threw!
Iterating threw: ReferenceError: z1 is not defined

tryItOut 241

tryItOut 242
before 139520, after 139520, break 020e9000

tryItOut 243

tryItOut 244

tryItOut 245
Compiling threw: SyntaxError: syntax error

tryItOut 246
Compiling threw: SyntaxError: missing { before function body

tryItOut 247

tryItOut 248

tryItOut 249

tryItOut 250
Compiling threw: TypeError: redeclaration of variable prototype

tryItOut 251
Compiling threw: SyntaxError: syntax error

tryItOut 252
It's an iterator!
Iterating threw!
Iterating threw: ReferenceError: reference to undefined XML name *

tryItOut 253
Compiling threw: SyntaxError: missing ; before statement

tryItOut 254
before 139520, after 139520, break 020e9000

tryItOut 255
It's an iterator!
before 139520, after 139520, break 020e9000
Iterating succeeded, iterCount == 0

tryItOut 256
Compiling threw: SyntaxError: missing ) after argument list

tryItOut 257

tryItOut 258
It's an iterator!
Iterating succeeded, iterCount == 1

tryItOut 259
Running threw: TypeError: arguments[0] has no properties

tryItOut 260

tryItOut 261
Running threw: TypeError: this.zzz has no properties

tryItOut 262

tryItOut 263

tryItOut 264

tryItOut 265
Running threw: [object StopIteration]

tryItOut 266
Compiling threw: SyntaxError: invalid destructuring assignment operator

tryItOut 267
before 139520, after 139520, break 020e9000

tryItOut 268
Running threw: TypeError: constructor is not a function

tryItOut 269
Compiling threw: SyntaxError: invalid assignment left-hand side

tryItOut 270
Running threw: ReferenceError: reference to undefined XML name @foo

tryItOut 271

tryItOut 272

tryItOut 273
Compiling threw: TypeError: redeclaration of variable prototype

tryItOut 274
It's an iterator!
Iterating succeeded, iterCount == 1

tryItOut 275

tryItOut 276
Compiling threw: SyntaxError: missing = in destructuring declaration

tryItOut 277

tryItOut 278

tryItOut 279
Running threw: [object StopIteration]

tryItOut 280

tryItOut 281

tryItOut 282
Compiling threw: SyntaxError: syntax error

tryItOut 283
Running threw: ReferenceError: reference to undefined XML name *::*

tryItOut 284
Compiling threw: SyntaxError: missing variable name

tryItOut 285
Compiling threw: SyntaxError: invalid sharp variable definition

tryItOut 286

tryItOut 287
Compiling threw: SyntaxError: catch without try

tryItOut 288

tryItOut 289
It's an iterator!
Iterating threw!
Iterating threw: TypeError: arguments[0] has no properties

tryItOut 290
Compiling threw: SyntaxError: missing } in compound statement

tryItOut 291
It's an iterator!
Iterating threw!
Iterating threw: ReferenceError: reference to undefined XML name *

tryItOut 292

tryItOut 293
Compiling threw: SyntaxError: invalid destructuring assignment operator

tryItOut 294
Running threw: 

tryItOut 295

tryItOut 296

tryItOut 297
It's an iterator!
Iterating threw!
Iterating threw: TypeError: prototype.unwatch("__proto__") has no properties

tryItOut 298
It's an iterator!
Iterating succeeded, iterCount == 1

tryItOut 299

tryItOut 300
Running threw: 

tryItOut 301

tryItOut 302

tryItOut 303

tryItOut 304
Running threw: ReferenceError: z2 is not defined

tryItOut 305
Running threw: [object StopIteration]

tryItOut 306
Compiling threw: TypeError: redeclaration of variable prototype

tryItOut 307

tryItOut 308

tryItOut 309
Compiling threw: SyntaxError: invalid destructuring assignment operator

tryItOut 310
Running threw: [object StopIteration]

tryItOut 311
It's an iterator!
Iterating succeeded, iterCount == 0

tryItOut 312

tryItOut 313
Running threw: TypeError: arguments[0] has no properties

tryItOut 314
Compiling threw: SyntaxError: missing ; before statement

tryItOut 315

tryItOut 316

tryItOut 317
before 139520, after 139520, break 020f2000

tryItOut 318

tryItOut 319
before 139520, after 139520, break 020f2000

tryItOut 320
Compiling threw: SyntaxError: missing ; before statement

tryItOut 321

tryItOut 322
Compiling threw: SyntaxError: invalid for/in left-hand side

tryItOut 323
Running threw: TypeError: prop is not a function

tryItOut 324

tryItOut 325
It's an iterator!
Iterating succeeded, iterCount == 1

tryItOut 326

tryItOut 327
before 139520, after 139520, break 020f2000
before 139520, after 139520, break 020f2000

tryItOut 328
Running threw: TypeError: this.zzz has no properties

tryItOut 329
Running threw: ReferenceError: reference to undefined XML name *::*

tryItOut 330
Running threw: 

tryItOut 331

tryItOut 332
Compiling threw: SyntaxError: missing variable name

tryItOut 333

tryItOut 334
It's an iterator!
Iterating succeeded, iterCount == 1

tryItOut 335
Compiling threw: SyntaxError: missing variable name

tryItOut 336
Running threw: 1,

tryItOut 337

tryItOut 338
Compiling threw: SyntaxError: invalid default XML namespace

tryItOut 339
Running threw: TypeError: this.zzz has no properties

tryItOut 340
Compiling threw: SyntaxError: missing ; before statement

tryItOut 341
Running threw: ReferenceError: yyy is not defined

tryItOut 342

tryItOut 343

tryItOut 344
Running threw: ReferenceError: reference to undefined XML name @foo

tryItOut 345

tryItOut 346

tryItOut 347

tryItOut 348
Compiling threw: SyntaxError: missing name after . operator

tryItOut 349
Running threw: ReferenceError: reference to undefined XML name @foo

tryItOut 350
It's an iterator!
Iterating succeeded, iterCount == 2

tryItOut 351

tryItOut 352
Running threw: ReferenceError: reference to undefined XML name @foo

tryItOut 353
It's an iterator!
Iterating threw!
Iterating threw: TypeError: arguments[0] has no properties

tryItOut 354

tryItOut 355

tryItOut 356
It's an iterator!
Iterating succeeded, iterCount == 0

tryItOut 357
Compiling threw: SyntaxError: invalid assignment left-hand side

tryItOut 358
Running threw: ReferenceError: reference to undefined XML name @foo

tryItOut 359

tryItOut 360
It's an iterator!
Iterating threw!
Iterating threw: ReferenceError: z1 is not defined

tryItOut 361

tryItOut 362
Running threw: TypeError: invalid 'instanceof' operand __count__

tryItOut 363

tryItOut 364
Compiling threw: SyntaxError: missing variable name

tryItOut 365
It's an iterator!
Iterating succeeded, iterCount == 1

tryItOut 366

tryItOut 367
Compiling threw: SyntaxError: missing ; before statement

tryItOut 368

tryItOut 369
before 156960, after 156960, break 02108000

tryItOut 370
It's an iterator!
Iterating threw!
Iterating threw: ReferenceError: reference to undefined XML name @foo

tryItOut 371
Running threw: [object StopIteration]

tryItOut 372
It's an iterator!
Iterating threw!
Iterating threw: ReferenceError: reference to undefined XML name *

tryItOut 373
It's an iterator!
Iterating threw!
Iterating threw: TypeError: arguments[0] has no properties

tryItOut 374

tryItOut 375

tryItOut 376
It's an iterator!
Iterating succeeded, iterCount == 1

tryItOut 377

tryItOut 378
Compiling threw: SyntaxError: missing variable name

tryItOut 379

tryItOut 380
before 156960, after 156960, break 02108000

tryItOut 381

tryItOut 382

tryItOut 383
It's an iterator!
Iterating succeeded, iterCount == 1

tryItOut 384
Compiling threw: SyntaxError: missing ; before statement

tryItOut 385

tryItOut 386
Running threw: ReferenceError: reference to undefined XML name *::*

tryItOut 387
Compiling threw: SyntaxError: missing ) after condition

tryItOut 388
Compiling threw: SyntaxError: missing variable name

tryItOut 389
Compiling threw: SyntaxError: missing variable name

tryItOut 390
It's an iterator!
Iterating threw!
Iterating threw: TypeError: <y>
  <z/>
</y> is not a function

tryItOut 391

tryItOut 392
It's an iterator!
Iterating succeeded, iterCount == 1

tryItOut 393

tryItOut 394

tryItOut 395
Compiling threw: SyntaxError: missing ] after element list

tryItOut 396
It's an iterator!
Iterating succeeded, iterCount == 1

tryItOut 397
Compiling threw: SyntaxError: missing = in destructuring declaration

tryItOut 398
Compiling threw: SyntaxError: missing ) after switch expression

tryItOut 399
Compiling threw: SyntaxError: missing variable name

tryItOut 400

tryItOut 401
Compiling threw: SyntaxError: missing ) after condition

tryItOut 402

tryItOut 403
Running threw: TypeError: this.zzz has no properties

tryItOut 404

tryItOut 405
Compiling threw: SyntaxError: missing ) after argument list

tryItOut 406
Compiling threw: SyntaxError: missing ; before statement

tryItOut 407

tryItOut 408

tryItOut 409
Compiling threw: SyntaxError: missing = in destructuring declaration

tryItOut 410
It's an iterator!
Iterating threw!
Iterating threw: ReferenceError: reference to undefined XML name @foo

tryItOut 411
Compiling threw: SyntaxError: missing variable name

tryItOut 412

tryItOut 413
It's an iterator!
Iterating succeeded, iterCount == 0

tryItOut 414
before 156960, after 156960, break 02108000

tryItOut 415

tryItOut 416
Compiling threw: SyntaxError: missing ; before statement

tryItOut 417

tryItOut 418
Running threw: ReferenceError: reference to undefined XML name @foo

tryItOut 419
Compiling threw: SyntaxError: missing ; before statement

tryItOut 420

tryItOut 421
Compiling threw: SyntaxError: missing ; before statement

tryItOut 422

tryItOut 423
Compiling threw: SyntaxError: missing ) after let head

tryItOut 424
Compiling threw: SyntaxError: missing variable name

tryItOut 425
Compiling threw: SyntaxError: invalid for each loop

tryItOut 426
Compiling threw: SyntaxError: invalid for/in left-hand side

tryItOut 427
Compiling threw: TypeError: redeclaration of const prop

tryItOut 428

tryItOut 429
Compiling threw: SyntaxError: missing variable name

tryItOut 430
Running threw: 

tryItOut 431

tryItOut 432

tryItOut 433
It's an iterator!
Iterating succeeded, iterCount == 1

tryItOut 434

tryItOut 435
Compiling threw: SyntaxError: invalid for/in left-hand side

tryItOut 436

tryItOut 437
Compiling threw: SyntaxError: missing ) after condition

tryItOut 438

tryItOut 439
Compiling threw: SyntaxError: missing ] in index expression

tryItOut 440
before 156960, after 156960, break 02120000

tryItOut 441

tryItOut 442
It's an iterator!
Iterating threw!
Iterating threw: TypeError: arguments[0] has no properties

tryItOut 443

tryItOut 444
It's an iterator!
Iterating succeeded, iterCount == 1

tryItOut 445

tryItOut 446

tryItOut 447
Compiling threw: SyntaxError: syntax error

tryItOut 448
It's an iterator!
Iterating threw!
Iterating threw: ReferenceError: reference to undefined XML name *::*

tryItOut 449

tryItOut 450
Compiling threw: SyntaxError: missing ; before statement

tryItOut 451

tryItOut 452
Compiling threw: SyntaxError: missing ; before statement

tryItOut 453
It's an iterator!
Iterating succeeded, iterCount == 2

tryItOut 454

tryItOut 455
It's an iterator!
Iterating threw!
Iterating threw: ReferenceError: reference to undefined XML name *::*

tryItOut 456
Compiling threw: SyntaxError: missing ; after for-loop initializer

tryItOut 457
Compiling threw: SyntaxError: missing ) after switch expression

tryItOut 458
Compiling threw: SyntaxError: invalid assignment left-hand side

tryItOut 459
Compiling threw: SyntaxError: missing ; before statement

tryItOut 460
It's an iterator!
Iterating threw!
Iterating threw: ReferenceError: reference to undefined XML name @foo

tryItOut 461
Compiling threw: SyntaxError: missing : after property id

tryItOut 462
Running threw: ReferenceError: z1 is not defined

tryItOut 463
Running threw: ReferenceError: reference to undefined XML name @foo

tryItOut 464
It's an iterator!
Iterating succeeded, iterCount == 1

tryItOut 465
Compiling threw: SyntaxError: syntax error

tryItOut 466
It's an iterator!
Iterating succeeded, iterCount == 1

tryItOut 467

tryItOut 468

tryItOut 469
It's an iterator!
Iterating threw!
Iterating threw: ReferenceError: reference to undefined XML name @foo

tryItOut 470

tryItOut 471
It's an iterator!
Iterating succeeded, iterCount == 1

tryItOut 472
Compiling threw: SyntaxError: missing ; before statement

tryItOut 473

tryItOut 474
Compiling threw: TypeError: redeclaration of var __iterator__

tryItOut 475

tryItOut 476
Compiling threw: SyntaxError: missing variable name

tryItOut 477
Compiling threw: SyntaxError: invalid assignment left-hand side

tryItOut 478
Compiling threw: SyntaxError: syntax error

tryItOut 479

tryItOut 480
Running threw: ReferenceError: z2 is not defined

tryItOut 481
Compiling threw: SyntaxError: syntax error

tryItOut 482

tryItOut 483

tryItOut 484

tryItOut 485
Compiling threw: TypeError: redeclaration of const prop

tryItOut 486

tryItOut 487
before 174400, after 174400, break 0213e000

tryItOut 488

tryItOut 489

tryItOut 490

tryItOut 491

tryItOut 492
Compiling threw: SyntaxError: missing ; before statement

tryItOut 493
Compiling threw: SyntaxError: missing ) after condition

tryItOut 494
Compiling threw: SyntaxError: missing ] after element list

tryItOut 495

tryItOut 496
It's an iterator!
Iterating succeeded, iterCount == 0

tryItOut 497

tryItOut 498
Running threw: ReferenceError: reference to undefined XML name *::*

tryItOut 499

tryItOut 500
before 174400, after 174400, break 0213e000

tryItOut 501
Running threw: <x>
  <x/>
</x>

tryItOut 502
Compiling threw: SyntaxError: missing variable name

tryItOut 503

tryItOut 504

tryItOut 505

tryItOut 506
Running threw: TypeError: arguments[0] has no properties

tryItOut 507
Compiling threw: SyntaxError: missing variable name

tryItOut 508
Compiling threw: SyntaxError: missing ) after condition

tryItOut 509
Compiling threw: TypeError: redeclaration of const constructor

tryItOut 510

tryItOut 511

tryItOut 512
It's an iterator!
Iterating succeeded, iterCount == 2

tryItOut 513
Compiling threw: SyntaxError: missing } after let block

tryItOut 514
Compiling threw: SyntaxError: invalid for/in left-hand side

tryItOut 515
Compiling threw: SyntaxError: syntax error

tryItOut 516

tryItOut 517
Compiling threw: SyntaxError: missing ] after element list

tryItOut 518

tryItOut 519
Compiling threw: SyntaxError: syntax error

tryItOut 520

tryItOut 521
Running threw: ReferenceError: reference to undefined XML name *

tryItOut 522

tryItOut 523

tryItOut 524

tryItOut 525
It's an iterator!
Iterating succeeded, iterCount == 1

tryItOut 526

tryItOut 527
Compiling threw: SyntaxError: missing ; before statement

tryItOut 528

tryItOut 529
Running threw: ReferenceError: reference to undefined XML name *::*

tryItOut 530
Compiling threw: SyntaxError: missing variable name

tryItOut 531
It's an iterator!
Iterating succeeded, iterCount == 0

tryItOut 532

tryItOut 533
Compiling threw: SyntaxError: missing ; before statement

tryItOut 534
It's an iterator!
Iterating succeeded, iterCount == 1

tryItOut 535
Compiling threw: SyntaxError: missing variable name

tryItOut 536
It's an iterator!
Iterating threw!
Iterating threw: TypeError: <x>
  <x/>
</x> is not a function

tryItOut 537
Compiling threw: TypeError: redeclaration of const __iterator__

tryItOut 538

tryItOut 539
Running threw: 

tryItOut 540
Running threw: ReferenceError: reference to undefined XML name *

tryItOut 541
Compiling threw: SyntaxError: missing ; before statement

tryItOut 542

tryItOut 543
Compiling threw: SyntaxError: missing ) after condition

tryItOut 544
Running threw: [object StopIteration]

tryItOut 545
before 174400, after 174400, break 0213e000

tryItOut 546
It's an iterator!
Iterating succeeded, iterCount == 1

tryItOut 547
Running threw: ReferenceError: reference to undefined XML name @foo

tryItOut 548

tryItOut 549
Compiling threw: SyntaxError: duplicate label

tryItOut 550

tryItOut 551

tryItOut 552
Running threw: TypeError: this.zzz has no properties

tryItOut 553
Compiling threw: SyntaxError: missing = in destructuring declaration

tryItOut 554

tryItOut 555

tryItOut 556
Running threw: ReferenceError: reference to undefined XML name *

tryItOut 557
Running threw: [object StopIteration]

tryItOut 558

tryItOut 559
Compiling threw: SyntaxError: missing { before function body

tryItOut 560
Running threw: ReferenceError: reference to undefined XML name *::*

tryItOut 561

tryItOut 562

tryItOut 563
It's an iterator!
before 174400, after 174400, break 02156000
Iterating succeeded, iterCount == 1

tryItOut 564
Compiling threw: TypeError: redeclaration of var prop

tryItOut 565
before 174400, after 174400, break 02156000
Running threw: ReferenceError: reference to undefined XML name *::*

tryItOut 566
Running threw: Error: invalid sharp variable use #1#

tryItOut 567
Compiling threw: SyntaxError: missing variable name

tryItOut 568

tryItOut 569
Compiling threw: SyntaxError: invalid for/in left-hand side

tryItOut 570

tryItOut 571
It's an iterator!
Iterating succeeded, iterCount == 0

tryItOut 572

tryItOut 573

tryItOut 574
Compiling threw: SyntaxError: syntax error

tryItOut 575
Running threw: ReferenceError: z1 is not defined

tryItOut 576
It's an iterator!
Iterating succeeded, iterCount == 1

tryItOut 577
Compiling threw: TypeError: redeclaration of const __parent__

tryItOut 578
It's an iterator!
Iterating succeeded, iterCount == 1

tryItOut 579

tryItOut 580
It's an iterator!
Iterating succeeded, iterCount == 1

tryItOut 581
Compiling threw: SyntaxError: missing { before function body

tryItOut 582

tryItOut 583
It's an iterator!
Iterating threw!
Iterating threw: ReferenceError: reference to undefined XML name *

tryItOut 584
It's an iterator!
Iterating succeeded, iterCount == 0

tryItOut 585
Compiling threw: SyntaxError: invalid default XML namespace

tryItOut 586
Compiling threw: SyntaxError: missing ) after condition

tryItOut 587

tryItOut 588
Compiling threw: SyntaxError: missing ) after condition

tryItOut 589
Compiling threw: SyntaxError: invalid for each loop

tryItOut 590

tryItOut 591
Compiling threw: SyntaxError: missing ; before statement

tryItOut 592
Compiling threw: SyntaxError: invalid assignment left-hand side

tryItOut 593

tryItOut 594
Compiling threw: TypeError: redeclaration of variable __parent__

tryItOut 595

tryItOut 596

tryItOut 597

tryItOut 598

tryItOut 599
Running threw: ReferenceError: reference to undefined XML name @foo

tryItOut 600
Compiling threw: SyntaxError: missing ; before statement

tryItOut 601
It's an iterator!
Iterating succeeded, iterCount == 1

tryItOut 602

tryItOut 603

tryItOut 604
Compiling threw: SyntaxError: missing = in destructuring declaration

tryItOut 605
Compiling threw: SyntaxError: syntax error

tryItOut 606
Compiling threw: SyntaxError: missing } after let block

tryItOut 607

tryItOut 608

tryItOut 609

tryItOut 610
Compiling threw: SyntaxError: missing } after let block

tryItOut 611
Compiling threw: SyntaxError: missing ; before statement

tryItOut 612
It's an iterator!
Iterating threw!
Iterating threw: ReferenceError: reference to undefined XML name *::*

tryItOut 613
It's an iterator!
Iterating succeeded, iterCount == 0

tryItOut 614
It's an iterator!
before 191840, after 191840, break 02175000
Iterating succeeded, iterCount == 1

tryItOut 615

tryItOut 616

tryItOut 617
Compiling threw: TypeError: redeclaration of variable __count__

tryItOut 618

tryItOut 619

tryItOut 620
It's an iterator!
before 191840, after 191840, break 02174000
Iterating succeeded, iterCount == 1

tryItOut 621
Compiling threw: TypeError: redeclaration of variable __parent__

tryItOut 622
Compiling threw: SyntaxError: missing ] after element list

tryItOut 623
Running threw: TypeError: this.zzz has no properties

tryItOut 624
Compiling threw: SyntaxError: missing ) in parenthetical

tryItOut 625
Compiling threw: SyntaxError: invalid for each loop

tryItOut 626
It's an iterator!
Iterating threw!
Iterating threw: ReferenceError: reference to undefined XML name *

tryItOut 627
Compiling threw: SyntaxError: missing ; before statement

tryItOut 628
Compiling threw: SyntaxError: missing while after do-loop body

tryItOut 629

tryItOut 630
Compiling threw: SyntaxError: missing ; before statement

tryItOut 631
Running threw: [object StopIteration]

tryItOut 632
Running threw: <x>
  <x/>
  <x>
    <x/>
  </x>
</x>

tryItOut 633
Compiling threw: SyntaxError: missing = in destructuring declaration

tryItOut 634
It's an iterator!
Iterating succeeded, iterCount == 1

tryItOut 635
It's an iterator!
before 191840, after 191840, break 02174000
Iterating succeeded, iterCount == 1

tryItOut 636

tryItOut 637
Running threw: <y>
  <z/>
</y>

tryItOut 638

tryItOut 639

tryItOut 640
Compiling threw: SyntaxError: missing : in conditional expression

tryItOut 641

tryItOut 642

tryItOut 643

tryItOut 644
Running threw: ReferenceError: reference to undefined XML name @foo

tryItOut 645
Compiling threw: SyntaxError: missing ; before statement

tryItOut 646
Running threw: ReferenceError: reference to undefined XML name @foo

tryItOut 647
It's an iterator!
Iterating threw!
Iterating threw: ReferenceError: reference to undefined XML name *::*

tryItOut 648
Compiling threw: SyntaxError: missing ] after element list

tryItOut 649
Running threw: [object StopIteration]

tryItOut 650

tryItOut 651
Running threw: ReferenceError: reference to undefined XML name @foo

tryItOut 652
Compiling threw: SyntaxError: missing { before function body

tryItOut 653

tryItOut 654
It's an iterator!
Iterating succeeded, iterCount == 1

tryItOut 655
Compiling threw: SyntaxError: syntax error

tryItOut 656
It's an iterator!
Iterating succeeded, iterCount == 1

tryItOut 657

tryItOut 658

tryItOut 659

tryItOut 660
Running threw: ReferenceError: reference to undefined XML name *::*

tryItOut 661
Compiling threw: SyntaxError: missing variable name

tryItOut 662
Running threw: ReferenceError: reference to undefined XML name *

tryItOut 663
Compiling threw: SyntaxError: missing while after do-loop body

tryItOut 664

tryItOut 665
Compiling threw: SyntaxError: invalid assignment left-hand side

tryItOut 666

tryItOut 667
Running threw: ReferenceError: reference to undefined XML name *::*

tryItOut 668
It's an iterator!
Iterating threw!
Iterating threw: ReferenceError: reference to undefined XML name *

tryItOut 669
It's an iterator!
Iterating succeeded, iterCount == 1

tryItOut 670
Running threw: ReferenceError: reference to undefined XML name @foo

tryItOut 671
It's an iterator!
Iterating succeeded, iterCount == 1

tryItOut 672
Running threw: TypeError: this.zzz has no properties

tryItOut 673
Running threw: ReferenceError: reference to undefined XML name *::*

tryItOut 674

tryItOut 675
Running threw: [object StopIteration]

tryItOut 676
Compiling threw: SyntaxError: invalid assignment left-hand side

tryItOut 677
Compiling threw: SyntaxError: missing ) in parenthetical

tryItOut 678
It's an iterator!
Iterating succeeded, iterCount == 1

tryItOut 679

tryItOut 680

tryItOut 681
before 209280, after 209280, break 02192000

tryItOut 682
Compiling threw: SyntaxError: syntax error

tryItOut 683

tryItOut 684
Compiling threw: SyntaxError: missing } after let block

tryItOut 685

tryItOut 686
Compiling threw: SyntaxError: missing } after let block

tryItOut 687
Running threw: <x>
  <x/>
  <x>
    <x/>
  </x>
</x>

tryItOut 688
Compiling threw: SyntaxError: missing { before function body

tryItOut 689
It's an iterator!
Iterating succeeded, iterCount == 1

tryItOut 690
Running threw: ReferenceError: z2 is not defined

tryItOut 691
Compiling threw: SyntaxError: invalid for/in left-hand side

tryItOut 692
before 209280, after 209280, break 02192000

tryItOut 693
Compiling threw: SyntaxError: missing variable name

tryItOut 694
Compiling threw: SyntaxError: invalid for/in left-hand side

tryItOut 695
Compiling threw: TypeError: redeclaration of const constructor

tryItOut 696
Compiling threw: SyntaxError: missing { before function body

tryItOut 697
Compiling threw: SyntaxError: missing ) after let head

tryItOut 698
It's an iterator!
Iterating succeeded, iterCount == 1

tryItOut 699
It's an iterator!
Iterating threw!
Iterating threw: ReferenceError: reference to undefined XML name @foo

tryItOut 700
Compiling threw: SyntaxError: missing variable name

tryItOut 701
Compiling threw: SyntaxError: invalid for/in left-hand side

tryItOut 702
Running threw: ReferenceError: z1 is not defined

tryItOut 703
It's an iterator!
Iterating threw!
Iterating threw: TypeError: arguments[0] has no properties

tryItOut 704

tryItOut 705

tryItOut 706
Running threw: Error: invalid sharp variable use #1#

tryItOut 707
Running threw: ReferenceError: reference to undefined XML name @foo

tryItOut 708
Compiling threw: SyntaxError: missing ] after element list

tryItOut 709
Compiling threw: SyntaxError: missing { before function body

tryItOut 710
before 209280, after 209280, break 02192000

tryItOut 711

tryItOut 712

tryItOut 713
before 209280, after 209280, break 02192000

tryItOut 714

tryItOut 715

tryItOut 716

tryItOut 717

tryItOut 718
Running threw: TypeError: this.zzz has no properties

tryItOut 719
Compiling threw: SyntaxError: missing ; before statement

tryItOut 720

tryItOut 721
Compiling threw: SyntaxError: missing name after . operator

tryItOut 722

tryItOut 723

tryItOut 724

tryItOut 725
Compiling threw: SyntaxError: invalid default XML namespace

tryItOut 726
It's an iterator!
Iterating succeeded, iterCount == 1

tryItOut 727

tryItOut 728
Compiling threw: SyntaxError: missing variable name

tryItOut 729

tryItOut 730

tryItOut 731

tryItOut 732
Compiling threw: SyntaxError: missing : after property id

tryItOut 733
Compiling threw: SyntaxError: missing ; before statement

tryItOut 734

tryItOut 735
Compiling threw: SyntaxError: missing ) in parenthetical

tryItOut 736
Compiling threw: SyntaxError: missing ] after element list

tryItOut 737
before 209280, after 209280, break 0219b000

tryItOut 738
Compiling threw: SyntaxError: syntax error

tryItOut 739

tryItOut 740
It's an iterator!
Iterating threw!
Iterating threw: Error: invalid sharp variable use #1#

tryItOut 741
Compiling threw: SyntaxError: invalid for/in left-hand side

tryItOut 742

tryItOut 743
Compiling threw: SyntaxError: missing ; before statement

tryItOut 744
Compiling threw: SyntaxError: missing } after let block

tryItOut 745

tryItOut 746
Running threw: [object StopIteration]

tryItOut 747

tryItOut 748
Running threw: [object StopIteration]

tryItOut 749
It's an iterator!
Iterating succeeded, iterCount == 1

tryItOut 750
Compiling threw: SyntaxError: missing ; after for-loop condition

tryItOut 751
It's an iterator!
Iterating threw!
Iterating threw: TypeError: undefined has no properties

tryItOut 752
Running threw: ReferenceError: reference to undefined XML name *

tryItOut 753

tryItOut 754
Compiling threw: SyntaxError: missing name after . operator

tryItOut 755
Compiling threw: SyntaxError: missing ; before statement

tryItOut 756
It's an iterator!
Iterating succeeded, iterCount == 1

tryItOut 757

tryItOut 758

tryItOut 759
Running threw: [object StopIteration]

tryItOut 760
Compiling threw: SyntaxError: invalid for/in left-hand side

tryItOut 761
Compiling threw: SyntaxError: missing : after property id

tryItOut 762
It's an iterator!
Iterating succeeded, iterCount == 1

tryItOut 763
It's an iterator!
Iterating threw!
Iterating threw: ReferenceError: reference to undefined XML name @foo

tryItOut 764
It's an iterator!
Iterating threw!
Iterating threw: Error: invalid sharp variable use #1#

tryItOut 765
Compiling threw: SyntaxError: missing variable name

tryItOut 766
before 209280, after 209280, break 0219b000

tryItOut 767
Compiling threw: SyntaxError: missing ] after element list

tryItOut 768

tryItOut 769

tryItOut 770
Compiling threw: SyntaxError: missing ) in parenthetical

tryItOut 771
Compiling threw: SyntaxError: missing variable name

tryItOut 772
It's an iterator!
Iterating succeeded, iterCount == 1

tryItOut 773
Compiling threw: TypeError: redeclaration of const __parent__

tryItOut 774

tryItOut 775

tryItOut 776

tryItOut 777
Compiling threw: SyntaxError: missing ) after condition

tryItOut 778
Compiling threw: SyntaxError: missing ] after element list

tryItOut 779
It's an iterator!
Iterating threw!
Iterating threw: ReferenceError: reference to undefined XML name @foo

tryItOut 780

tryItOut 781

tryItOut 782
Compiling threw: SyntaxError: missing variable name

tryItOut 783
Running threw: null

tryItOut 784
It's an iterator!
Iterating threw!
Iterating threw: ReferenceError: reference to undefined XML name *::*

tryItOut 785
It's an iterator!
Iterating succeeded, iterCount == 1

tryItOut 786
Compiling threw: SyntaxError: missing { before function body

tryItOut 787

tryItOut 788

tryItOut 789
It's an iterator!
before 209280, after 209280, break 0219b000
Iterating succeeded, iterCount == 0

tryItOut 790

tryItOut 791
Running threw: ReferenceError: reference to undefined XML name *

tryItOut 792
Compiling threw: SyntaxError: invalid for each loop

tryItOut 793
Compiling threw: SyntaxError: missing ; before statement

tryItOut 794

tryItOut 795
Compiling threw: SyntaxError: missing { before function body

tryItOut 796
Compiling threw: SyntaxError: missing ; before statement

tryItOut 797
Compiling threw: SyntaxError: missing ; before statement

tryItOut 798
Compiling threw: TypeError: redeclaration of variable __count__

tryItOut 799
It's an iterator!
Iterating threw!
Iterating threw: ReferenceError: reference to undefined XML name *

tryItOut 800
Compiling threw: SyntaxError: syntax error

tryItOut 801

tryItOut 802
Running threw: [object StopIteration]

tryItOut 803
Compiling threw: SyntaxError: missing ) after for-loop control

tryItOut 804
Running threw: ReferenceError: reference to undefined XML name *

tryItOut 805

tryItOut 806

tryItOut 807
Compiling threw: SyntaxError: missing ] after element list

tryItOut 808

tryItOut 809
Compiling threw: SyntaxError: syntax error

tryItOut 810

tryItOut 811
Compiling threw: SyntaxError: invalid for/in left-hand side

tryItOut 812
It's an iterator!
Iterating threw!
Iterating threw: ReferenceError: reference to undefined XML name *::*

tryItOut 813
Running threw: TypeError: __parent__ is not a function

tryItOut 814
Compiling threw: SyntaxError: syntax error

tryItOut 815
Running threw: ReferenceError: reference to undefined XML name @foo

tryItOut 816
Running threw: ReferenceError: reference to undefined XML name @foo

tryItOut 817
It's an iterator!
Iterating succeeded, iterCount == 0

tryItOut 818

tryItOut 819

tryItOut 820
It's an iterator!
Iterating threw!
Iterating threw: TypeError: constructor is not a function

tryItOut 821

tryItOut 822
Running threw: TypeError: this.zzz has no properties

tryItOut 823
Compiling threw: SyntaxError: missing } after let block

tryItOut 824
Compiling threw: SyntaxError: missing variable name

tryItOut 825

tryItOut 826

tryItOut 827
before 226720, after 226720, break 021b5000

tryItOut 828
Running threw: ReferenceError: reference to undefined XML name *::*

tryItOut 829

tryItOut 830
Compiling threw: SyntaxError: invalid for/in left-hand side

tryItOut 831

tryItOut 832

tryItOut 833

tryItOut 834
before 226720, after 226720, break 021c7000

tryItOut 835
It's an iterator!
Iterating succeeded, iterCount == 1

tryItOut 836
Compiling threw: SyntaxError: invalid assignment left-hand side

tryItOut 837

tryItOut 838
It's an iterator!
Iterating succeeded, iterCount == 1

tryItOut 839
Compiling threw: TypeError: redeclaration of variable __proto__

tryItOut 840
Compiling threw: SyntaxError: missing ] after element list

tryItOut 841
Compiling threw: SyntaxError: missing ; before statement

tryItOut 842
Compiling threw: SyntaxError: missing ; before statement

tryItOut 843
Compiling threw: SyntaxError: missing ] after element list

tryItOut 844
It's an iterator!
Iterating threw!
Iterating threw: ReferenceError: reference to undefined XML name *

tryItOut 845
Compiling threw: SyntaxError: missing } after let block

tryItOut 846

tryItOut 847
Compiling threw: TypeError: redeclaration of const __count__

tryItOut 848
before 226720, after 226720, break 021c7000

tryItOut 849

tryItOut 850
Compiling threw: SyntaxError: invalid assignment left-hand side

tryItOut 851
Compiling threw: SyntaxError: missing ; before statement

tryItOut 852
It's an iterator!
Iterating threw!
Iterating threw: ReferenceError: reference to undefined XML name *::*

tryItOut 853
Compiling threw: SyntaxError: invalid assignment left-hand side

tryItOut 854

tryItOut 855

tryItOut 856
Compiling threw: SyntaxError: missing variable name

tryItOut 857

tryItOut 858
before 226720, after 226720, break 021c7000

tryItOut 859

tryItOut 860

tryItOut 861

tryItOut 862
It's an iterator!
Iterating succeeded, iterCount == 1

tryItOut 863

tryItOut 864
It's an iterator!
Iterating succeeded, iterCount == 2

tryItOut 865
Running threw: TypeError: this.zzz has no properties

tryItOut 866

tryItOut 867
Compiling threw: SyntaxError: missing ; before statement

tryItOut 868
Compiling threw: SyntaxError: missing ; before statement

tryItOut 869
Compiling threw: SyntaxError: missing { before function body

tryItOut 870

tryItOut 871
Compiling threw: SyntaxError: missing ; before statement

tryItOut 872

tryItOut 873

tryItOut 874

tryItOut 875
It's an iterator!
Iterating threw!
Iterating threw: ReferenceError: z1 is not defined

tryItOut 876

tryItOut 877
Compiling threw: SyntaxError: invalid assignment left-hand side

tryItOut 878
Compiling threw: SyntaxError: invalid for/in left-hand side

tryItOut 879

tryItOut 880
Compiling threw: SyntaxError: missing ; before statement

tryItOut 881
It's an iterator!
Iterating threw!
Iterating threw: ReferenceError: foo is not defined

tryItOut 882
Running threw: TypeError: this.zzz has no properties

tryItOut 883
Running threw: [object StopIteration]

tryItOut 884
Compiling threw: SyntaxError: syntax error

tryItOut 885

tryItOut 886

tryItOut 887
Running threw: [object StopIteration]

tryItOut 888
Compiling threw: SyntaxError: missing ] after element list

tryItOut 889

tryItOut 890
Compiling threw: SyntaxError: missing } after let block

tryItOut 891
Compiling threw: SyntaxError: missing ( before let head

tryItOut 892
Running threw: ReferenceError: reference to undefined XML name *::*

tryItOut 893
Compiling threw: SyntaxError: missing variable name

tryItOut 894
Compiling threw: SyntaxError: invalid assignment left-hand side

tryItOut 895
Compiling threw: SyntaxError: missing : after property id

tryItOut 896
Running threw: ReferenceError: reference to undefined XML name *

tryItOut 897

tryItOut 898
Compiling threw: SyntaxError: missing ] after element list

tryItOut 899
Compiling threw: SyntaxError: yield expression must be parenthesized

tryItOut 900
Compiling threw: SyntaxError: missing variable name

tryItOut 901

tryItOut 902
It's an iterator!
Iterating threw!
Iterating threw: TypeError: undefined has no properties

tryItOut 903
Compiling threw: SyntaxError: syntax error

tryItOut 904
Compiling threw: SyntaxError: missing ; before statement

tryItOut 905
before 244160, after 244160, break 021ea000

tryItOut 906
Compiling threw: SyntaxError: missing ; before statement

tryItOut 907
Compiling threw: SyntaxError: invalid for/in left-hand side

tryItOut 908

tryItOut 909
Compiling threw: SyntaxError: missing ; before statement

tryItOut 910
before 244160, after 244160, break 021ea000

tryItOut 911

tryItOut 912
Compiling threw: SyntaxError: missing ; before statement

tryItOut 913

tryItOut 914
Compiling threw: SyntaxError: missing { before function body

tryItOut 915
Compiling threw: SyntaxError: missing ) after let head

tryItOut 916
It's an iterator!
Iterating succeeded, iterCount == 1

tryItOut 917
Compiling threw: SyntaxError: duplicate label

tryItOut 918

tryItOut 919

tryItOut 920

tryItOut 921

tryItOut 922

tryItOut 923
Compiling threw: SyntaxError: invalid for each loop

tryItOut 924

tryItOut 925
Running threw: [object StopIteration]

tryItOut 926

tryItOut 927
Compiling threw: SyntaxError: missing variable name

tryItOut 928
Running threw: ReferenceError: reference to undefined XML name @foo

tryItOut 929
It's an iterator!
Iterating succeeded, iterCount == 0

tryItOut 930

tryItOut 931

tryItOut 932

tryItOut 933

tryItOut 934

tryItOut 935

tryItOut 936
Compiling threw: SyntaxError: invalid assignment left-hand side

tryItOut 937
Compiling threw: SyntaxError: missing ) after condition

tryItOut 938
Compiling threw: SyntaxError: syntax error

tryItOut 939
Compiling threw: SyntaxError: missing variable name

tryItOut 940

tryItOut 941
It's an iterator!
Iterating succeeded, iterCount == 2

tryItOut 942
It's an iterator!
Iterating threw!
Iterating threw: ReferenceError: reference to undefined XML name *

tryItOut 943
Compiling threw: SyntaxError: missing : after case label

tryItOut 944
It's an iterator!
Iterating threw!
Iterating threw: TypeError: arguments[0] has no properties

tryItOut 945
Running threw: [object StopIteration]

tryItOut 946
Compiling threw: SyntaxError: missing ; before statement

tryItOut 947

tryItOut 948

tryItOut 949

tryItOut 950
Compiling threw: SyntaxError: invalid for each loop

tryItOut 951
It's an iterator!
Iterating succeeded, iterCount == 1

tryItOut 952

tryItOut 953
It's an iterator!
Iterating threw!
Iterating threw: ReferenceError: reference to undefined XML name *

tryItOut 954
Compiling threw: SyntaxError: missing ) in parenthetical

tryItOut 955
Compiling threw: SyntaxError: missing ; before statement

tryItOut 956
Compiling threw: SyntaxError: invalid for/in left-hand side

tryItOut 957

tryItOut 958
Compiling threw: SyntaxError: invalid destructuring assignment operator

tryItOut 959
It's an iterator!
Iterating succeeded, iterCount == 0

tryItOut 960

tryItOut 961
Compiling threw: SyntaxError: syntax error

tryItOut 962

tryItOut 963
It's an iterator!
Iterating succeeded, iterCount == 0

tryItOut 964
Compiling threw: SyntaxError: missing { before function body

tryItOut 965

tryItOut 966
Compiling threw: SyntaxError: missing ] after element list

tryItOut 967

tryItOut 968
It's an iterator!
Iterating succeeded, iterCount == 1

tryItOut 969
Compiling threw: SyntaxError: missing ] after element list

tryItOut 970
Compiling threw: SyntaxError: missing } after let block

tryItOut 971
Compiling threw: SyntaxError: missing name after . operator

tryItOut 972
Running threw: ReferenceError: reference to undefined XML name *

tryItOut 973
Running threw: ReferenceError: reference to undefined XML name *::*

tryItOut 974
Compiling threw: SyntaxError: syntax error

tryItOut 975
Compiling threw: SyntaxError: missing ] after element list

tryItOut 976
Compiling threw: SyntaxError: syntax error

tryItOut 977
Compiling threw: SyntaxError: invalid for/in left-hand side

tryItOut 978

tryItOut 979

tryItOut 980
Compiling threw: SyntaxError: missing ; before statement

tryItOut 981
Compiling threw: SyntaxError: missing { before function body

tryItOut 982
Running threw: [object StopIteration]

tryItOut 983
Running threw: ReferenceError: reference to undefined XML name *

tryItOut 984

tryItOut 985

tryItOut 986

tryItOut 987
Running threw: null

tryItOut 988

tryItOut 989

tryItOut 990
Compiling threw: TypeError: redeclaration of variable __count__

tryItOut 991
Compiling threw: SyntaxError: invalid assignment left-hand side

tryItOut 992
Compiling threw: SyntaxError: missing = in destructuring declaration

tryItOut 993
Compiling threw: SyntaxError: missing variable name

tryItOut 994
Compiling threw: TypeError: redeclaration of const __iterator__

tryItOut 995
Running threw: ReferenceError: reference to undefined XML name *

tryItOut 996

tryItOut 997

tryItOut 998

tryItOut 999
Running threw: [object StopIteration]

tryItOut 1000
Compiling threw: SyntaxError: missing ] after element list

ALL OK

Script done on Sat 04 May 2013 07:26:49 AM PDT
