Script started on Sat 04 May 2013 04:59:17 AM PDT
***
Targeting SpiderMonkey / Gecko.

tryItOut 1
Compiling threw: SyntaxError: missing formal parameter

tryItOut 2

tryItOut 3
Compiling threw: SyntaxError: missing { before function body

tryItOut 4
Compiling threw: SyntaxError: syntax error

tryItOut 5
Running threw: ReferenceError: reference to undefined XML name *

tryItOut 6

tryItOut 7
Compiling threw: SyntaxError: invalid XML name

tryItOut 8

tryItOut 9
Compiling threw: SyntaxError: syntax error

tryItOut 10

tryItOut 11

tryItOut 12

tryItOut 13
Compiling threw: SyntaxError: missing } in compound statement

tryItOut 14
Running threw: TypeError: this.zzz has no properties

tryItOut 15
uneval returned the string: []

tryItOut 16

tryItOut 17
Running threw: ReferenceError: reference to undefined XML name *::*

tryItOut 18

tryItOut 19
Compiling threw: SyntaxError: invalid for/in left-hand side

tryItOut 20
Compiling threw: SyntaxError: invalid assignment left-hand side

tryItOut 21
Compiling threw: SyntaxError: invalid increment operand

tryItOut 22

tryItOut 23

tryItOut 24
Compiling threw: SyntaxError: invalid XML tag syntax

tryItOut 25
It's an iterator!
Iterating succeeded, iterCount == 1

tryItOut 26

tryItOut 27
Compiling threw: SyntaxError: invalid for/in left-hand side

tryItOut 28
Compiling threw: TypeError: generator function anonymous returns a value

tryItOut 29

tryItOut 30

tryItOut 31

tryItOut 32

tryItOut 33
Compiling threw: SyntaxError: missing { before function body

tryItOut 34
Compiling threw: SyntaxError: syntax error

tryItOut 35
Compiling threw: SyntaxError: missing name after . operator

tryItOut 36
Compiling threw: SyntaxError: syntax error

tryItOut 37

tryItOut 38
It's an iterator!
Iterating succeeded, iterCount == 1

tryItOut 39
Compiling threw: SyntaxError: invalid property id

tryItOut 40

tryItOut 41
It's an iterator!
Iterating threw!
Iterating threw: TypeError: arguments[0] has no properties

tryItOut 42

tryItOut 43

tryItOut 44
Running threw: ReferenceError: prop is not defined

tryItOut 45

tryItOut 46
Compiling threw: TypeError: generator function anonymous returns a value

tryItOut 47

tryItOut 48

tryItOut 49
Compiling threw: SyntaxError: invalid assignment left-hand side

tryItOut 50
Compiling threw: SyntaxError: missing } after let block

tryItOut 51

tryItOut 52
Compiling threw: SyntaxError: invalid for/in left-hand side

tryItOut 53

tryItOut 54
Compiling threw: TypeError: generator function anonymous returns a value

tryItOut 55

tryItOut 56

tryItOut 57

tryItOut 58

tryItOut 59
Compiling threw: SyntaxError: invalid for/in left-hand side

tryItOut 60
Compiling threw: SyntaxError: invalid for/in left-hand side

tryItOut 61

tryItOut 62
Compiling threw: SyntaxError: syntax error

tryItOut 63
Compiling threw: SyntaxError: missing { before function body

tryItOut 64

tryItOut 65

tryItOut 66

tryItOut 67
Running threw: ReferenceError: z1 is not defined

tryItOut 68

tryItOut 69
It's an iterator!
Iterating threw!
Iterating threw: TypeError: __parent__ has no properties

tryItOut 70
Compiling threw: SyntaxError: syntax error

tryItOut 71
Compiling threw: SyntaxError: missing ; after for-loop initializer

tryItOut 72
Compiling threw: SyntaxError: missing { before function body

tryItOut 73
Compiling threw: SyntaxError: syntax error

tryItOut 74
Running threw: ReferenceError: z1 is not defined

tryItOut 75
Running threw: TypeError: redeclaration of var __count__

tryItOut 76

tryItOut 77

tryItOut 78
Compiling threw: SyntaxError: invalid for/in left-hand side

tryItOut 79
Running threw: ReferenceError: z1 is not defined

tryItOut 80
Compiling threw: SyntaxError: missing { before function body

tryItOut 81
Compiling threw: SyntaxError: duplicate label

tryItOut 82
Compiling threw: SyntaxError: invalid increment operand

tryItOut 83
Running threw: ReferenceError: __iterator__ is not defined

tryItOut 84
Compiling threw: TypeError: generator function anonymous returns a value

tryItOut 85
Compiling threw: SyntaxError: invalid for/in left-hand side

tryItOut 86
Compiling threw: SyntaxError: missing ) in parenthetical

tryItOut 87
Compiling threw: SyntaxError: invalid for/in left-hand side

tryItOut 88

tryItOut 89

tryItOut 90

tryItOut 91
It's an iterator!
Iterating succeeded, iterCount == 1

tryItOut 92

tryItOut 93

tryItOut 94
Running threw: ReferenceError: reference to undefined XML name @foo

tryItOut 95
Running threw: ReferenceError: reference to undefined XML name *::false

tryItOut 96

tryItOut 97
Compiling threw: SyntaxError: missing { before function body

tryItOut 98
Running threw: ReferenceError: reference to undefined XML name @foo

tryItOut 99

tryItOut 100
Compiling threw: SyntaxError: invalid XML name

tryItOut 101

tryItOut 102

tryItOut 103
Running threw: null

tryItOut 104

tryItOut 105
Running threw: TypeError: redeclaration of const __parent__

tryItOut 106

tryItOut 107
Compiling threw: SyntaxError: missing ; after for-loop initializer

tryItOut 108
Compiling threw: SyntaxError: syntax error

tryItOut 109
Compiling threw: SyntaxError: missing { before function body

tryItOut 110

tryItOut 111
It's an iterator!
Iterating threw!
Iterating threw: ReferenceError: reference to undefined XML name @foo

tryItOut 112

tryItOut 113
Compiling threw: SyntaxError: missing ) in parenthetical

tryItOut 114

tryItOut 115

tryItOut 116
Compiling threw: SyntaxError: missing variable name

tryItOut 117

tryItOut 118
Compiling threw: SyntaxError: missing } after let block

tryItOut 119
It's an iterator!
Iterating succeeded, iterCount == 1

tryItOut 120

tryItOut 121
Compiling threw: SyntaxError: invalid for/in left-hand side

tryItOut 122

tryItOut 123
Running threw: ReferenceError: reference to undefined XML name *::*

tryItOut 124
Compiling threw: SyntaxError: missing ) after catch

tryItOut 125
It's an iterator!
Iterating succeeded, iterCount == 1

tryItOut 126

tryItOut 127
Compiling threw: TypeError: generator function anonymous returns a value

tryItOut 128

tryItOut 129
Compiling threw: SyntaxError: syntax error

tryItOut 130
Running threw: ReferenceError: __iterator__ is not defined

tryItOut 131
Compiling threw: SyntaxError: missing variable name

tryItOut 132

tryItOut 133

tryItOut 134
Running threw: ReferenceError: reference to undefined XML name *

tryItOut 135

tryItOut 136

tryItOut 137

tryItOut 138

tryItOut 139
Compiling threw: SyntaxError: syntax error

tryItOut 140
Compiling threw: SyntaxError: syntax error

tryItOut 141
Running threw: TypeError: this.zzz has no properties

tryItOut 142

tryItOut 143
Compiling threw: SyntaxError: invalid for/in left-hand side

tryItOut 144
Compiling threw: SyntaxError: duplicate label

tryItOut 145
Compiling threw: SyntaxError: illegal XML character

tryItOut 146
Compiling threw: SyntaxError: missing ; before statement

tryItOut 147

tryItOut 148

tryItOut 149

tryItOut 150

tryItOut 151
Compiling threw: SyntaxError: invalid increment operand

tryItOut 152

tryItOut 153
Running threw: 

tryItOut 154

tryItOut 155
It's an iterator!
Iterating threw!
Iterating threw: ReferenceError: reference to undefined XML name @foo

tryItOut 156
Compiling threw: SyntaxError: missing ) in parenthetical

tryItOut 157
Compiling threw: SyntaxError: missing } after property list

tryItOut 158
Running threw: ReferenceError: prop is not defined

tryItOut 159
Compiling threw: SyntaxError: syntax error

tryItOut 160
Compiling threw: SyntaxError: missing } after let block

tryItOut 161

tryItOut 162
Compiling threw: SyntaxError: missing { before function body

tryItOut 163

tryItOut 164
Compiling threw: SyntaxError: missing ; after for-loop initializer

tryItOut 165
Compiling threw: SyntaxError: invalid for/in left-hand side

tryItOut 166
It's an iterator!
Iterating succeeded, iterCount == 1

tryItOut 167
Compiling threw: TypeError: generator function anonymous returns a value

tryItOut 168

tryItOut 169
Compiling threw: SyntaxError: catch without try

tryItOut 170
Compiling threw: SyntaxError: syntax error

tryItOut 171

tryItOut 172
Compiling threw: TypeError: generator function anonymous returns a value

tryItOut 173

tryItOut 174
Compiling threw: SyntaxError: invalid for/in left-hand side

tryItOut 175
Compiling threw: SyntaxError: missing } in compound statement

tryItOut 176

tryItOut 177

tryItOut 178
Compiling threw: SyntaxError: syntax error

tryItOut 179
Compiling threw: SyntaxError: syntax error

tryItOut 180
Compiling threw: SyntaxError: invalid assignment left-hand side

tryItOut 181

tryItOut 182

tryItOut 183

tryItOut 184

tryItOut 185
Compiling threw: SyntaxError: missing { before function body

tryItOut 186

tryItOut 187
Compiling threw: SyntaxError: missing ) after condition

tryItOut 188
Compiling threw: SyntaxError: invalid assignment left-hand side

tryItOut 189

tryItOut 190

tryItOut 191
Compiling threw: SyntaxError: missing { before function body

tryItOut 192
Compiling threw: SyntaxError: syntax error

tryItOut 193

tryItOut 194
Compiling threw: SyntaxError: missing { before function body

tryItOut 195
Compiling threw: SyntaxError: missing { before function body

tryItOut 196
Compiling threw: SyntaxError: missing } after let block

tryItOut 197

tryItOut 198
Compiling threw: SyntaxError: invalid for/in left-hand side

tryItOut 199
Running threw: TypeError: this.zzz has no properties

tryItOut 200
Compiling threw: SyntaxError: invalid assignment left-hand side

tryItOut 201

tryItOut 202

tryItOut 203
Compiling threw: SyntaxError: catch without try

tryItOut 204
Compiling threw: SyntaxError: missing variable name

tryItOut 205
It's an iterator!
Iterating succeeded, iterCount == 1

tryItOut 206
Compiling threw: TypeError: generator function anonymous returns a value

tryItOut 207
Compiling threw: TypeError: generator function anonymous returns a value

tryItOut 208

tryItOut 209
Compiling threw: SyntaxError: syntax error

tryItOut 210

tryItOut 211
Running threw: TypeError: this.zzz has no properties

tryItOut 212

tryItOut 213
Running threw: ReferenceError: reference to undefined XML name *::*

tryItOut 214
Running threw: TypeError: this.zzz has no properties

tryItOut 215
Compiling threw: SyntaxError: missing ) after let head

tryItOut 216
Running threw: ReferenceError: reference to undefined XML name *

tryItOut 217
It's an iterator!
Iterating succeeded, iterCount == 1

tryItOut 218

tryItOut 219
Compiling threw: SyntaxError: missing ) in parenthetical

tryItOut 220
Running threw: TypeError: this.__defineSetter__("__iterator__", gc) has no properties

tryItOut 221
Compiling threw: SyntaxError: missing variable name

tryItOut 222
Compiling threw: TypeError: generator function anonymous returns a value

tryItOut 223
Running threw: ReferenceError: reference to undefined XML name *

tryItOut 224

tryItOut 225

tryItOut 226
Running threw: ReferenceError: reference to undefined XML name *

tryItOut 227

tryItOut 228

tryItOut 229
Compiling threw: TypeError: generator function anonymous returns a value

tryItOut 230

tryItOut 231

tryItOut 232
Compiling threw: SyntaxError: invalid assignment left-hand side

tryItOut 233
Compiling threw: TypeError: generator function anonymous returns a value

tryItOut 234
Compiling threw: SyntaxError: illegal XML character

tryItOut 235

tryItOut 236
Compiling threw: SyntaxError: missing { before function body

tryItOut 237
Compiling threw: SyntaxError: invalid for/in left-hand side

tryItOut 238
Compiling threw: SyntaxError: syntax error

tryItOut 239
Running threw: TypeError: __iterator__ has no properties

tryItOut 240
It's an iterator!
Iterating succeeded, iterCount == 1

tryItOut 241
Compiling threw: SyntaxError: syntax error

tryItOut 242
Compiling threw: SyntaxError: missing { before function body

tryItOut 243

tryItOut 244
Compiling threw: SyntaxError: missing name after . operator

tryItOut 245

tryItOut 246
Compiling threw: SyntaxError: invalid sharp variable definition

tryItOut 247

tryItOut 248

tryItOut 249

tryItOut 250
Compiling threw: SyntaxError: syntax error

tryItOut 251
Compiling threw: SyntaxError: missing variable name

tryItOut 252
Compiling threw: SyntaxError: invalid assignment left-hand side

tryItOut 253
Compiling threw: SyntaxError: missing { before function body

tryItOut 254
Compiling threw: SyntaxError: invalid for/in left-hand side

tryItOut 255

tryItOut 256
Compiling threw: SyntaxError: invalid for/in left-hand side

tryItOut 257
Compiling threw: TypeError: generator function anonymous returns a value

tryItOut 258
Running threw: ReferenceError: reference to undefined XML name *

tryItOut 259
Compiling threw: SyntaxError: missing } after let block

tryItOut 260
It's an iterator!
Iterating succeeded, iterCount == 1

tryItOut 261

tryItOut 262
Compiling threw: SyntaxError: syntax error

tryItOut 263
Compiling threw: SyntaxError: missing variable name

tryItOut 264
Running threw: ReferenceError: reference to undefined XML name *

tryItOut 265

tryItOut 266

tryItOut 267
Compiling threw: TypeError: generator function anonymous returns a value

tryItOut 268
Compiling threw: SyntaxError: missing } after let block

tryItOut 269

tryItOut 270

tryItOut 271
Running threw: ReferenceError: prop is not defined

tryItOut 272
Compiling threw: SyntaxError: syntax error

tryItOut 273

tryItOut 274
Compiling threw: SyntaxError: invalid for each loop

tryItOut 275
Compiling threw: TypeError: generator function anonymous returns a value

tryItOut 276

tryItOut 277
Running threw: ReferenceError: z1 is not defined

tryItOut 278
Running threw: ReferenceError: prop is not defined

tryItOut 279

tryItOut 280

tryItOut 281

tryItOut 282

tryItOut 283

tryItOut 284

tryItOut 285

tryItOut 286

tryItOut 287
Running threw: ReferenceError: Exception is not defined

tryItOut 288

tryItOut 289

tryItOut 290

tryItOut 291
Running threw: TypeError: this.zzz has no properties

tryItOut 292
Running threw: false

tryItOut 293

tryItOut 294
Running threw: TypeError: this.zzz has no properties

tryItOut 295
Running threw: ReferenceError: reference to undefined XML name @foo

tryItOut 296
It's an iterator!
Iterating threw!
Iterating threw: ReferenceError: reference to undefined XML name *

tryItOut 297

tryItOut 298
Running threw: <y>
  <z/>
</y>

tryItOut 299
Running threw: TypeError: this.zzz has no properties

tryItOut 300
Compiling threw: SyntaxError: invalid for/in left-hand side

tryItOut 301

tryItOut 302
Compiling threw: SyntaxError: missing ) in parenthetical

tryItOut 303
Running threw: ReferenceError: prop is not defined

tryItOut 304
Compiling threw: SyntaxError: invalid for/in left-hand side

tryItOut 305
Compiling threw: SyntaxError: syntax error

tryItOut 306
It's an iterator!
Iterating threw!
Iterating threw: ReferenceError: reference to undefined XML name *::*

tryItOut 307
Compiling threw: SyntaxError: invalid for/in left-hand side

tryItOut 308
Compiling threw: TypeError: redeclaration of variable __noSuchMethod__

tryItOut 309
Running threw: ReferenceError: reference to undefined XML name *::*

tryItOut 310

tryItOut 311
Compiling threw: SyntaxError: invalid assignment left-hand side

tryItOut 312
Running threw: ReferenceError: reference to undefined XML name @foo

tryItOut 313
Compiling threw: SyntaxError: invalid assignment left-hand side

tryItOut 314
Running threw: SyntaxError: yield not in function

tryItOut 315

tryItOut 316
Compiling threw: SyntaxError: invalid switch statement

tryItOut 317

tryItOut 318
It's an iterator!
Iterating threw!
Iterating threw: 

tryItOut 319
Compiling threw: SyntaxError: invalid assignment left-hand side

tryItOut 320

tryItOut 321

tryItOut 322

tryItOut 323
Compiling threw: SyntaxError: missing ) in parenthetical

tryItOut 324

tryItOut 325
Compiling threw: SyntaxError: missing ) in parenthetical

tryItOut 326

tryItOut 327
Compiling threw: SyntaxError: syntax error

tryItOut 328
Compiling threw: SyntaxError: missing variable name

tryItOut 329

tryItOut 330
Compiling threw: SyntaxError: invalid decrement operand

tryItOut 331
Compiling threw: SyntaxError: invalid for/in left-hand side

tryItOut 332
Compiling threw: TypeError: generator function anonymous returns a value

tryItOut 333

tryItOut 334

tryItOut 335

tryItOut 336
Running threw: ReferenceError: z2 is not defined

tryItOut 337
Compiling threw: SyntaxError: invalid switch statement

tryItOut 338

tryItOut 339
Compiling threw: SyntaxError: invalid for each loop

tryItOut 340

tryItOut 341
Compiling threw: SyntaxError: missing ) in parenthetical

tryItOut 342
Compiling threw: TypeError: generator function anonymous returns a value

tryItOut 343

tryItOut 344
Compiling threw: SyntaxError: missing ; before statement

tryItOut 345
Compiling threw: TypeError: generator function anonymous returns a value

tryItOut 346

tryItOut 347

tryItOut 348

tryItOut 349
It's an iterator!
Iterating threw!
Iterating threw: TypeError: this.__defineSetter__("prototype", new Function) has no properties

tryItOut 350
Compiling threw: SyntaxError: missing { before function body

tryItOut 351
Compiling threw: SyntaxError: syntax error

tryItOut 352
Running threw: TypeError: null has no properties

tryItOut 353
Compiling threw: TypeError: redeclaration of const prototype

tryItOut 354
Compiling threw: SyntaxError: missing ) in parenthetical

tryItOut 355
Running threw: TypeError: this.zzz has no properties

tryItOut 356

tryItOut 357
Compiling threw: SyntaxError: invalid for/in left-hand side

tryItOut 358
Compiling threw: SyntaxError: syntax error

tryItOut 359
Compiling threw: SyntaxError: invalid for/in left-hand side

tryItOut 360

tryItOut 361
It's an iterator!
Iterating succeeded, iterCount == 2

tryItOut 362
Compiling threw: SyntaxError: invalid for/in left-hand side

tryItOut 363
Compiling threw: TypeError: generator function anonymous returns a value

tryItOut 364
It's an iterator!
Iterating threw!
Iterating threw: ReferenceError: reference to undefined XML name *

tryItOut 365
Compiling threw: SyntaxError: invalid for each loop

tryItOut 366
Running threw: 

tryItOut 367
Running threw: <y>
  <z/>
</y>

tryItOut 368
Compiling threw: SyntaxError: invalid for/in left-hand side

tryItOut 369

tryItOut 370
Compiling threw: SyntaxError: invalid XML list syntax

tryItOut 371

tryItOut 372
Compiling threw: SyntaxError: illegal XML character

tryItOut 373

tryItOut 374

tryItOut 375

tryItOut 376

tryItOut 377

tryItOut 378
Compiling threw: SyntaxError: missing { before function body

tryItOut 379

tryItOut 380

tryItOut 381
Compiling threw: SyntaxError: missing variable name

tryItOut 382
Compiling threw: SyntaxError: syntax error

tryItOut 383

tryItOut 384

tryItOut 385
Running threw: [object Object]

tryItOut 386

tryItOut 387
Compiling threw: SyntaxError: invalid for each loop

tryItOut 388

tryItOut 389

tryItOut 390

tryItOut 391
Compiling threw: SyntaxError: missing { before function body

tryItOut 392

tryItOut 393
Compiling threw: SyntaxError: missing { before function body

tryItOut 394
Compiling threw: SyntaxError: invalid for/in left-hand side

tryItOut 395

tryItOut 396
Compiling threw: SyntaxError: missing } after let block

tryItOut 397
Compiling threw: SyntaxError: invalid for/in left-hand side

tryItOut 398

tryItOut 399
Running threw: ReferenceError: z2 is not defined

tryItOut 400
Running threw: ReferenceError: reference to undefined XML name *::*

tryItOut 401
Compiling threw: SyntaxError: invalid for/in left-hand side

tryItOut 402
Compiling threw: SyntaxError: missing variable name

tryItOut 403
It's an iterator!
Iterating succeeded, iterCount == 1

tryItOut 404

tryItOut 405

tryItOut 406

tryItOut 407
Compiling threw: SyntaxError: missing } after let block

tryItOut 408

tryItOut 409
Compiling threw: SyntaxError: syntax error

tryItOut 410

tryItOut 411
It's an iterator!
Iterating succeeded, iterCount == 1

tryItOut 412

tryItOut 413

tryItOut 414
Compiling threw: TypeError: redeclaration of const __parent__

tryItOut 415

tryItOut 416

tryItOut 417
Compiling threw: SyntaxError: invalid assignment left-hand side

tryItOut 418
Compiling threw: SyntaxError: missing variable name

tryItOut 419
Compiling threw: SyntaxError: invalid assignment left-hand side

tryItOut 420
Compiling threw: SyntaxError: syntax error

tryItOut 421
Compiling threw: SyntaxError: syntax error

tryItOut 422
Compiling threw: SyntaxError: invalid decrement operand

tryItOut 423
It's an iterator!
Iterating succeeded, iterCount == 1

tryItOut 424
Running threw: ReferenceError: reference to undefined XML name @foo

tryItOut 425
Compiling threw: SyntaxError: missing } after let block

tryItOut 426

tryItOut 427
Compiling threw: SyntaxError: syntax error

tryItOut 428

tryItOut 429
Compiling threw: SyntaxError: missing ) in parenthetical

tryItOut 430
Running threw: TypeError: __parent__ has no properties

tryItOut 431
Running threw: ReferenceError: z2 is not defined

tryItOut 432
Compiling threw: SyntaxError: syntax error

tryItOut 433

tryItOut 434
Running threw: TypeError: this.zzz has no properties

tryItOut 435
Compiling threw: SyntaxError: syntax error

tryItOut 436

tryItOut 437

tryItOut 438
Running threw: ReferenceError: z1 is not defined

tryItOut 439
It's an iterator!
Iterating succeeded, iterCount == 1

tryItOut 440
Running threw: ReferenceError: reference to undefined XML name *::*

tryItOut 441

tryItOut 442
Running threw: ReferenceError: reference to undefined XML name *::*

tryItOut 443

tryItOut 444

tryItOut 445

tryItOut 446
Compiling threw: SyntaxError: invalid increment operand

tryItOut 447

tryItOut 448

tryItOut 449
Compiling threw: SyntaxError: missing } after let block

tryItOut 450
Compiling threw: SyntaxError: syntax error

tryItOut 451

tryItOut 452

tryItOut 453
Compiling threw: SyntaxError: illegal XML character

tryItOut 454
Compiling threw: SyntaxError: missing ) after argument list

tryItOut 455
Compiling threw: TypeError: generator function anonymous returns a value

tryItOut 456
Compiling threw: SyntaxError: missing variable name

tryItOut 457
Compiling threw: SyntaxError: missing variable name

tryItOut 458
Compiling threw: SyntaxError: invalid assignment left-hand side

tryItOut 459
Compiling threw: SyntaxError: invalid assignment left-hand side

tryItOut 460
Running threw: ReferenceError: reference to undefined XML name *

tryItOut 461
Compiling threw: SyntaxError: illegal XML character

tryItOut 462

tryItOut 463
Running threw: ReferenceError: reference to undefined XML name *

tryItOut 464
It's an iterator!
Iterating succeeded, iterCount == 1

tryItOut 465
Compiling threw: SyntaxError: missing ) after let head

tryItOut 466

tryItOut 467
Running threw: TypeError: this.zzz has no properties

tryItOut 468
It's an iterator!
Iterating succeeded, iterCount == 1

tryItOut 469
Running threw: ReferenceError: reference to undefined XML name *::*

tryItOut 470

tryItOut 471

tryItOut 472

tryItOut 473

tryItOut 474

tryItOut 475

tryItOut 476
Running threw: TypeError: this.zzz has no properties

tryItOut 477
Running threw: TypeError: this.zzz has no properties

tryItOut 478
Compiling threw: SyntaxError: missing ; before statement

tryItOut 479

tryItOut 480
Compiling threw: SyntaxError: missing } after let block

tryItOut 481
Compiling threw: SyntaxError: invalid for/in left-hand side

tryItOut 482

tryItOut 483
Running threw: TypeError: this.zzz has no properties

tryItOut 484
Compiling threw: SyntaxError: invalid assignment left-hand side

tryItOut 485
Compiling threw: TypeError: generator function anonymous returns a value

tryItOut 486
Running threw: ReferenceError: reference to undefined XML name *::*

tryItOut 487
It's an iterator!
Iterating succeeded, iterCount == 1

tryItOut 488
Compiling threw: SyntaxError: invalid assignment left-hand side

tryItOut 489

tryItOut 490
Running threw: SyntaxError: invalid getter usage

tryItOut 491

tryItOut 492

tryItOut 493
Compiling threw: SyntaxError: illegal XML character

tryItOut 494
Compiling threw: SyntaxError: syntax error

tryItOut 495
Compiling threw: SyntaxError: missing variable name

tryItOut 496
Compiling threw: SyntaxError: invalid for/in left-hand side

tryItOut 497

tryItOut 498
Compiling threw: SyntaxError: missing { before function body

tryItOut 499
Compiling threw: SyntaxError: invalid for/in left-hand side

tryItOut 500
Compiling threw: SyntaxError: syntax error

tryItOut 501

tryItOut 502

tryItOut 503
Compiling threw: SyntaxError: missing { before function body

tryItOut 504
Compiling threw: SyntaxError: syntax error

tryItOut 505

tryItOut 506
Compiling threw: SyntaxError: syntax error

tryItOut 507

tryItOut 508
It's an iterator!
Iterating threw!
Iterating threw: TypeError: null has no properties

tryItOut 509
Compiling threw: SyntaxError: illegal XML character

tryItOut 510
Running threw: TypeError: undefined has no properties

tryItOut 511
Compiling threw: SyntaxError: invalid for/in left-hand side

tryItOut 512
Running threw: TypeError: arguments[0] has no properties

tryItOut 513
Compiling threw: SyntaxError: invalid for/in left-hand side

tryItOut 514

tryItOut 515
Running threw: ReferenceError: z1 is not defined

tryItOut 516
Compiling threw: SyntaxError: missing { before function body

tryItOut 517

tryItOut 518
Compiling threw: SyntaxError: missing } in compound statement

tryItOut 519
Compiling threw: SyntaxError: syntax error

tryItOut 520
Compiling threw: SyntaxError: unterminated comment

tryItOut 521

tryItOut 522
Compiling threw: SyntaxError: missing { before function body

tryItOut 523
Compiling threw: SyntaxError: invalid for/in left-hand side

tryItOut 524

tryItOut 525
Compiling threw: SyntaxError: syntax error

tryItOut 526
Compiling threw: SyntaxError: invalid for/in left-hand side

tryItOut 527
Compiling threw: SyntaxError: missing ) after let head

tryItOut 528
It's an iterator!
Iterating succeeded, iterCount == 1

tryItOut 529
Running threw: 

tryItOut 530
Compiling threw: SyntaxError: missing { before function body

tryItOut 531
Compiling threw: SyntaxError: syntax error

tryItOut 532
Running threw: SyntaxError: yield not in function

tryItOut 533

tryItOut 534
Running threw: ReferenceError: reference to undefined XML name *

tryItOut 535

tryItOut 536
It's an iterator!
Iterating succeeded, iterCount == 1

tryItOut 537

tryItOut 538
Compiling threw: SyntaxError: missing { before function body

tryItOut 539
Compiling threw: SyntaxError: missing variable name

tryItOut 540

tryItOut 541
Compiling threw: SyntaxError: illegal XML character

tryItOut 542

tryItOut 543
Compiling threw: SyntaxError: invalid increment operand

tryItOut 544
Compiling threw: SyntaxError: missing variable name

tryItOut 545
Compiling threw: SyntaxError: missing catch or finally after try

tryItOut 546
Compiling threw: SyntaxError: missing } after let block

tryItOut 547
Compiling threw: SyntaxError: missing } in compound statement

tryItOut 548

tryItOut 549

tryItOut 550
Compiling threw: TypeError: redeclaration of variable __count__

tryItOut 551

tryItOut 552
Compiling threw: SyntaxError: missing } after property list

tryItOut 553
Running threw: ReferenceError: prop is not defined

tryItOut 554

tryItOut 555
It's an iterator!
Iterating succeeded, iterCount == 1

tryItOut 556
Compiling threw: SyntaxError: missing variable name

tryItOut 557

tryItOut 558

tryItOut 559
It's an iterator!
Iterating succeeded, iterCount == 1

tryItOut 560
Compiling threw: SyntaxError: missing { before function body

tryItOut 561
Compiling threw: SyntaxError: missing ) in parenthetical

tryItOut 562
Compiling threw: TypeError: generator function anonymous returns a value

tryItOut 563
Compiling threw: SyntaxError: invalid for/in left-hand side

tryItOut 564
Compiling threw: SyntaxError: invalid for/in left-hand side

tryItOut 565
It's an iterator!
Iterating threw!
Iterating threw: ReferenceError: reference to undefined XML name @foo

tryItOut 566

tryItOut 567
Running threw: ReferenceError: reference to undefined XML name *::*

tryItOut 568
uneval returned the string: []

tryItOut 569

tryItOut 570

tryItOut 571
Compiling threw: SyntaxError: invalid for each loop

tryItOut 572
Compiling threw: SyntaxError: invalid destructuring assignment operator

tryItOut 573
Compiling threw: SyntaxError: duplicate label

tryItOut 574

tryItOut 575
Compiling threw: SyntaxError: missing { before function body

tryItOut 576
Running threw: 

tryItOut 577
Compiling threw: SyntaxError: syntax error

tryItOut 578
Compiling threw: SyntaxError: invalid for/in left-hand side

tryItOut 579
Compiling threw: SyntaxError: invalid increment operand

tryItOut 580

tryItOut 581

tryItOut 582

tryItOut 583

tryItOut 584
Compiling threw: SyntaxError: syntax error

tryItOut 585
Compiling threw: SyntaxError: missing } in compound statement

tryItOut 586
Running threw: TypeError: this.__defineGetter__("__iterator__", new Function) has no properties

tryItOut 587
Running threw: ReferenceError: reference to undefined XML name *::*

tryItOut 588
Compiling threw: SyntaxError: invalid for/in left-hand side

tryItOut 589
Compiling threw: SyntaxError: invalid XML name

tryItOut 590
Compiling threw: SyntaxError: missing ) in parenthetical

tryItOut 591
Compiling threw: SyntaxError: invalid assignment left-hand side

tryItOut 592
Compiling threw: SyntaxError: invalid property id

tryItOut 593

tryItOut 594
It's an iterator!
Iterating threw!
Iterating threw: ReferenceError: reference to undefined XML name *::*

tryItOut 595
Compiling threw: SyntaxError: syntax error

tryItOut 596
Compiling threw: SyntaxError: invalid XML name

tryItOut 597
Compiling threw: SyntaxError: syntax error

tryItOut 598

tryItOut 599

tryItOut 600
Running threw: ReferenceError: prop is not defined

tryItOut 601
Compiling threw: TypeError: generator function anonymous returns a value

tryItOut 602

tryItOut 603
Compiling threw: SyntaxError: missing ) in parenthetical

tryItOut 604
Compiling threw: SyntaxError: missing { before function body

tryItOut 605
Running threw: ReferenceError: z2 is not defined

tryItOut 606
Compiling threw: SyntaxError: missing ) after argument list

tryItOut 607
Compiling threw: SyntaxError: syntax error

tryItOut 608
Compiling threw: SyntaxError: invalid property id

tryItOut 609
Compiling threw: SyntaxError: invalid for/in left-hand side

tryItOut 610
Compiling threw: SyntaxError: missing ; before statement

tryItOut 611
Compiling threw: SyntaxError: invalid for/in left-hand side

tryItOut 612
Compiling threw: SyntaxError: invalid assignment left-hand side

tryItOut 613
Running threw: ReferenceError: reference to undefined XML name @foo

tryItOut 614

tryItOut 615

tryItOut 616

tryItOut 617
Running threw: TypeError: this.zzz has no properties

tryItOut 618
It's an iterator!
Iterating threw!
Iterating threw: <y>
  <z/>
</y>

tryItOut 619

tryItOut 620
Compiling threw: SyntaxError: illegal XML character

tryItOut 621
Compiling threw: SyntaxError: invalid decrement operand

tryItOut 622
Compiling threw: SyntaxError: missing { before function body

tryItOut 623
Compiling threw: TypeError: generator function anonymous returns a value

tryItOut 624

tryItOut 625
Compiling threw: SyntaxError: invalid sharp variable definition

tryItOut 626

tryItOut 627
It's an iterator!
Iterating succeeded, iterCount == 1

tryItOut 628

tryItOut 629
Compiling threw: TypeError: generator function anonymous returns a value

tryItOut 630

tryItOut 631

tryItOut 632
Compiling threw: SyntaxError: invalid increment operand

tryItOut 633

tryItOut 634
It's an iterator!
Iterating threw!
Iterating threw: ReferenceError: z2 is not defined

tryItOut 635
Compiling threw: SyntaxError: missing ; after for-loop initializer

tryItOut 636

tryItOut 637

tryItOut 638

tryItOut 639

tryItOut 640
Compiling threw: SyntaxError: invalid for/in left-hand side

tryItOut 641
Compiling threw: SyntaxError: invalid XML name

tryItOut 642
before 401120, after 401120, break 02b5e000

tryItOut 643
Running threw: ReferenceError: reference to undefined XML name @foo

tryItOut 644

tryItOut 645

tryItOut 646

tryItOut 647
before 401120, after 401120, break 02b5e000

tryItOut 648
It's an iterator!
Iterating succeeded, iterCount == 1

tryItOut 649

tryItOut 650
Compiling threw: TypeError: generator function anonymous returns a value

tryItOut 651
Compiling threw: TypeError: redeclaration of variable __count__

tryItOut 652
Compiling threw: SyntaxError: invalid for/in left-hand side

tryItOut 653
IGNORING BUG 379528!

tryItOut 654
Compiling threw: SyntaxError: invalid assignment left-hand side

tryItOut 655

tryItOut 656
Compiling threw: SyntaxError: syntax error

tryItOut 657
Compiling threw: SyntaxError: syntax error

tryItOut 658

tryItOut 659
Compiling threw: SyntaxError: syntax error

tryItOut 660
Compiling threw: SyntaxError: missing variable name

tryItOut 661

tryItOut 662

tryItOut 663

tryItOut 664
It's an iterator!
Iterating succeeded, iterCount == 1

tryItOut 665
Compiling threw: SyntaxError: syntax error

tryItOut 666
Compiling threw: SyntaxError: invalid for/in left-hand side

tryItOut 667

tryItOut 668

tryItOut 669
Compiling threw: SyntaxError: missing ) after let head

tryItOut 670
Compiling threw: TypeError: generator function anonymous returns a value

tryItOut 671

tryItOut 672
Compiling threw: SyntaxError: missing = in destructuring declaration

tryItOut 673

tryItOut 674
Compiling threw: SyntaxError: missing { before function body

tryItOut 675
Compiling threw: SyntaxError: syntax error

tryItOut 676

tryItOut 677
Compiling threw: TypeError: generator function anonymous returns a value

tryItOut 678
Compiling threw: SyntaxError: invalid for/in left-hand side

tryItOut 679
Running threw: TypeError: this.zzz has no properties

tryItOut 680

tryItOut 681
Running threw: TypeError: this.zzz has no properties

tryItOut 682

tryItOut 683
Compiling threw: SyntaxError: missing formal parameter

tryItOut 684
Compiling threw: TypeError: generator function anonymous returns a value

tryItOut 685
Compiling threw: TypeError: generator function anonymous returns a value

tryItOut 686
Compiling threw: SyntaxError: syntax error

tryItOut 687

tryItOut 688

tryItOut 689
Compiling threw: TypeError: generator function anonymous returns a value

tryItOut 690
Compiling threw: SyntaxError: invalid for/in left-hand side

tryItOut 691
Compiling threw: TypeError: generator function anonymous returns a value

tryItOut 692
Compiling threw: SyntaxError: missing } after let block

tryItOut 693

tryItOut 694
Compiling threw: SyntaxError: invalid assignment left-hand side

tryItOut 695
Compiling threw: SyntaxError: missing variable name

tryItOut 696
It's an iterator!
Iterating succeeded, iterCount == 1

tryItOut 697
Running threw: ReferenceError: reference to undefined XML name *

tryItOut 698
Compiling threw: SyntaxError: missing { before function body

tryItOut 699
Compiling threw: SyntaxError: invalid property id

tryItOut 700
Compiling threw: SyntaxError: missing { before function body

tryItOut 701

tryItOut 702
Running threw: TypeError: arguments[0] has no properties

tryItOut 703
Compiling threw: TypeError: generator function anonymous returns a value

tryItOut 704

tryItOut 705

tryItOut 706
Running threw: TypeError: arguments[0] has no properties

tryItOut 707

tryItOut 708
It's an iterator!
Iterating threw!
Iterating threw: TypeError: arguments[0] has no properties

tryItOut 709
Compiling threw: SyntaxError: syntax error

tryItOut 710

tryItOut 711
Running threw: TypeError: this.zzz has no properties

tryItOut 712

tryItOut 713
Compiling threw: SyntaxError: invalid increment operand

tryItOut 714

tryItOut 715

tryItOut 716
Compiling threw: TypeError: generator function anonymous returns a value

tryItOut 717
Compiling threw: SyntaxError: invalid for/in left-hand side

tryItOut 718
Running threw: 

tryItOut 719

tryItOut 720
Compiling threw: SyntaxError: missing } in compound statement

tryItOut 721
Compiling threw: SyntaxError: syntax error

tryItOut 722

tryItOut 723

tryItOut 724
Compiling threw: SyntaxError: syntax error

tryItOut 725
Compiling threw: TypeError: generator function anonymous returns a value

tryItOut 726
Compiling threw: TypeError: generator function anonymous returns a value

tryItOut 727
Compiling threw: TypeError: generator function anonymous returns a value

tryItOut 728

tryItOut 729
Compiling threw: SyntaxError: missing { before function body

tryItOut 730

tryItOut 731
Compiling threw: SyntaxError: syntax error

tryItOut 732

tryItOut 733

tryItOut 734
It's an iterator!
Iterating succeeded, iterCount == 1

tryItOut 735
Compiling threw: TypeError: generator function anonymous returns a value

tryItOut 736

tryItOut 737

tryItOut 738

tryItOut 739

tryItOut 740

tryItOut 741
Compiling threw: SyntaxError: missing variable name

tryItOut 742
Compiling threw: TypeError: generator function anonymous returns a value

tryItOut 743
Compiling threw: SyntaxError: missing ) in parenthetical

tryItOut 744

tryItOut 745

tryItOut 746
It's an iterator!
Iterating threw!
Iterating threw: ReferenceError: z2 is not defined

tryItOut 747

tryItOut 748
Compiling threw: TypeError: generator function anonymous returns a value

tryItOut 749
Compiling threw: SyntaxError: syntax error

tryItOut 750

tryItOut 751

tryItOut 752

tryItOut 753
Running threw: null

tryItOut 754
Running threw: TypeError: __parent__ has no properties

tryItOut 755

tryItOut 756

tryItOut 757
Running threw: ReferenceError: reference to undefined XML name *

tryItOut 758
Compiling threw: TypeError: redeclaration of var __proto__

tryItOut 759
Compiling threw: SyntaxError: missing { before function body

tryItOut 760

tryItOut 761
Compiling threw: SyntaxError: missing { before function body

tryItOut 762
Compiling threw: SyntaxError: missing { before function body

tryItOut 763
Compiling threw: TypeError: redeclaration of variable constructor

tryItOut 764

tryItOut 765
Compiling threw: SyntaxError: illegal XML character

tryItOut 766
Compiling threw: SyntaxError: missing variable name

tryItOut 767
Compiling threw: SyntaxError: invalid for/in left-hand side

tryItOut 768

tryItOut 769

tryItOut 770
Running threw: ReferenceError: z1 is not defined

tryItOut 771

tryItOut 772
Compiling threw: TypeError: redeclaration of variable __proto__

tryItOut 773
Compiling threw: TypeError: generator function anonymous returns a value

tryItOut 774

tryItOut 775
Compiling threw: SyntaxError: missing { before function body

tryItOut 776

tryItOut 777

tryItOut 778
Compiling threw: SyntaxError: invalid for/in left-hand side

tryItOut 779
Running threw: TypeError: this.zzz has no properties

tryItOut 780
It's an iterator!
Iterating succeeded, iterCount == 0

tryItOut 781

tryItOut 782

tryItOut 783

tryItOut 784
Compiling threw: SyntaxError: missing ; after for-loop initializer

tryItOut 785

tryItOut 786

tryItOut 787

tryItOut 788
Running threw: TypeError: arguments[0] has no properties

tryItOut 789
Running threw: ReferenceError: reference to undefined XML name *::*

tryItOut 790

tryItOut 791
It's an iterator!
Iterating threw!
Iterating threw: SyntaxError: invalid assignment left-hand side

tryItOut 792
It's an iterator!
Iterating succeeded, iterCount == 1

tryItOut 793
Compiling threw: SyntaxError: missing ) after argument list

tryItOut 794
Compiling threw: SyntaxError: missing variable name

tryItOut 795

tryItOut 796
Compiling threw: TypeError: generator function anonymous returns a value

tryItOut 797
Compiling threw: SyntaxError: missing { before function body

tryItOut 798
Compiling threw: SyntaxError: invalid sharp variable definition

tryItOut 799

tryItOut 800
Compiling threw: SyntaxError: missing { before function body

tryItOut 801
Compiling threw: SyntaxError: invalid assignment left-hand side

tryItOut 802
Compiling threw: SyntaxError: invalid sharp variable definition

tryItOut 803
Compiling threw: SyntaxError: invalid for/in left-hand side

tryItOut 804
Compiling threw: SyntaxError: invalid decrement operand

tryItOut 805
Running threw: ReferenceError: reference to undefined XML name @foo

tryItOut 806
Running threw: TypeError: this.zzz has no properties

tryItOut 807

tryItOut 808
Compiling threw: SyntaxError: invalid for/in left-hand side

tryItOut 809

tryItOut 810
Compiling threw: SyntaxError: syntax error

tryItOut 811

tryItOut 812
Running threw: ReferenceError: z1 is not defined

tryItOut 813
Compiling threw: SyntaxError: missing ) in parenthetical

tryItOut 814
Compiling threw: SyntaxError: missing ) in parenthetical

tryItOut 815
Compiling threw: SyntaxError: missing variable name

tryItOut 816
Compiling threw: SyntaxError: invalid for/in left-hand side

tryItOut 817

tryItOut 818
Compiling threw: SyntaxError: missing variable name

tryItOut 819
before 401120, after 401120, break 02b5e000

tryItOut 820
Compiling threw: SyntaxError: invalid for/in left-hand side

tryItOut 821
Compiling threw: SyntaxError: missing variable name

tryItOut 822

tryItOut 823
Compiling threw: SyntaxError: missing { before function body

tryItOut 824
Compiling threw: SyntaxError: syntax error

tryItOut 825

tryItOut 826
Compiling threw: SyntaxError: illegal XML character

tryItOut 827
Compiling threw: SyntaxError: missing { before function body

tryItOut 828
Running threw: TypeError: constructor has no properties

tryItOut 829
Running threw: ReferenceError: reference to undefined XML name *::*

tryItOut 830

tryItOut 831
Running threw: ReferenceError: reference to undefined XML name @foo

tryItOut 832
Running threw: TypeError: this.zzz has no properties

tryItOut 833

tryItOut 834
Compiling threw: SyntaxError: missing variable name

tryItOut 835
Compiling threw: SyntaxError: invalid for each loop

tryItOut 836

tryItOut 837
Compiling threw: SyntaxError: missing ) in parenthetical

tryItOut 838
It's an iterator!
Iterating threw!
Iterating threw: ReferenceError: reference to undefined XML name @foo

tryItOut 839
Compiling threw: SyntaxError: invalid destructuring assignment operator

tryItOut 840
Running threw: <y>
  <z/>
</y>

tryItOut 841
Compiling threw: SyntaxError: invalid assignment left-hand side

tryItOut 842
Running threw: ReferenceError: reference to undefined XML name *::*

tryItOut 843

tryItOut 844
Compiling threw: SyntaxError: invalid assignment left-hand side

tryItOut 845
Compiling threw: SyntaxError: invalid for/in left-hand side

tryItOut 846
It's an iterator!
Iterating succeeded, iterCount == 1

tryItOut 847
Compiling threw: SyntaxError: missing variable name

tryItOut 848

tryItOut 849
Running threw: ReferenceError: reference to undefined XML name @foo

tryItOut 850
Compiling threw: SyntaxError: invalid for/in left-hand side

tryItOut 851
Running threw: 

tryItOut 852
Compiling threw: TypeError: generator function anonymous returns a value

tryItOut 853
Compiling threw: SyntaxError: invalid for/in left-hand side

tryItOut 854

tryItOut 855
Compiling threw: SyntaxError: invalid decrement operand

tryItOut 856
Compiling threw: SyntaxError: missing ) after argument list

tryItOut 857
Compiling threw: SyntaxError: syntax error

tryItOut 858

tryItOut 859
Compiling threw: SyntaxError: syntax error

tryItOut 860
It's an iterator!
Iterating threw!
Iterating threw: ReferenceError: reference to undefined XML name @foo

tryItOut 861
Running threw: ReferenceError: reference to undefined XML name @foo

tryItOut 862

tryItOut 863
Running threw: ReferenceError: reference to undefined XML name *

tryItOut 864

tryItOut 865

tryItOut 866
Compiling threw: SyntaxError: syntax error

tryItOut 867
Running threw: TypeError: <x>
  <y/>
</x> is not a function

tryItOut 868
Compiling threw: SyntaxError: invalid destructuring assignment operator

tryItOut 869
Compiling threw: SyntaxError: invalid for/in left-hand side

tryItOut 870
Compiling threw: SyntaxError: invalid for/in left-hand side

tryItOut 871
Compiling threw: SyntaxError: invalid for/in left-hand side

tryItOut 872
Compiling threw: SyntaxError: missing variable name

tryItOut 873

tryItOut 874
Compiling threw: TypeError: generator function anonymous returns a value

tryItOut 875

tryItOut 876
Running threw: TypeError: this.zzz has no properties

tryItOut 877
Running threw: ReferenceError: reference to undefined XML name @foo

tryItOut 878

tryItOut 879

tryItOut 880

tryItOut 881

tryItOut 882
Running threw: ReferenceError: __noSuchMethod__null is not defined

tryItOut 883

tryItOut 884

tryItOut 885
It's an iterator!
Iterating succeeded, iterCount == 1

tryItOut 886
Compiling threw: SyntaxError: missing ; before statement

tryItOut 887

tryItOut 888

tryItOut 889
Compiling threw: TypeError: anonymous generator function returns a value

tryItOut 890

tryItOut 891
Compiling threw: SyntaxError: invalid property id

tryItOut 892

tryItOut 893
Running threw: TypeError: undefined has no properties

tryItOut 894

tryItOut 895
It's an iterator!
Iterating succeeded, iterCount == 1

tryItOut 896
Running threw: TypeError: __iterator__ has no properties

tryItOut 897

tryItOut 898

tryItOut 899
Running threw: 

tryItOut 900

tryItOut 901
Running threw: TypeError: null has no properties

tryItOut 902

tryItOut 903

tryItOut 904
Compiling threw: SyntaxError: syntax error

tryItOut 905
Compiling threw: SyntaxError: missing variable name

tryItOut 906

tryItOut 907
Compiling threw: SyntaxError: invalid for/in left-hand side

tryItOut 908

tryItOut 909

tryItOut 910
Running threw: ReferenceError: reference to undefined XML name *

tryItOut 911
Compiling threw: SyntaxError: syntax error

tryItOut 912
before 401120, after 401120, break 02b5e000

tryItOut 913
Compiling threw: SyntaxError: syntax error

tryItOut 914
Compiling threw: TypeError: generator function anonymous returns a value

tryItOut 915

tryItOut 916
Compiling threw: SyntaxError: missing variable name

tryItOut 917

tryItOut 918
Running threw: TypeError: this.zzz has no properties

tryItOut 919

tryItOut 920

tryItOut 921
Compiling threw: SyntaxError: invalid decrement operand

tryItOut 922
Compiling threw: SyntaxError: invalid for/in left-hand side

tryItOut 923
Compiling threw: SyntaxError: missing } after let block

tryItOut 924
Running threw: TypeError: this.zzz has no properties

tryItOut 925

tryItOut 926
Compiling threw: SyntaxError: syntax error

tryItOut 927
Compiling threw: SyntaxError: missing } in compound statement

tryItOut 928
Compiling threw: SyntaxError: invalid for/in left-hand side

tryItOut 929
Compiling threw: SyntaxError: missing ; before statement

tryItOut 930
Compiling threw: SyntaxError: syntax error

tryItOut 931

tryItOut 932

tryItOut 933
Compiling threw: SyntaxError: syntax error

tryItOut 934

tryItOut 935
Compiling threw: TypeError: generator function anonymous returns a value

tryItOut 936

tryItOut 937
Running threw: ReferenceError: reference to undefined XML name *

tryItOut 938
Compiling threw: SyntaxError: missing ) in parenthetical

tryItOut 939
Compiling threw: TypeError: generator function anonymous returns a value

tryItOut 940
Compiling threw: SyntaxError: syntax error

tryItOut 941
Compiling threw: SyntaxError: missing } in compound statement

tryItOut 942
Compiling threw: SyntaxError: syntax error

tryItOut 943
Running threw: TypeError: this.zzz has no properties

tryItOut 944
Compiling threw: SyntaxError: missing variable name

tryItOut 945

tryItOut 946

tryItOut 947
Compiling threw: TypeError: generator function anonymous returns a value

tryItOut 948
Compiling threw: TypeError: generator function anonymous returns a value

tryItOut 949
Compiling threw: SyntaxError: invalid for/in left-hand side

tryItOut 950

tryItOut 951

tryItOut 952
Compiling threw: SyntaxError: invalid for/in left-hand side

tryItOut 953
Running threw: TypeError: arguments[0] has no properties

tryItOut 954
Running threw: TypeError: this.zzz has no properties

tryItOut 955
Compiling threw: SyntaxError: missing = in destructuring declaration

tryItOut 956

tryItOut 957
It's an iterator!
Iterating threw!
Iterating threw: ReferenceError: z1 is not defined

tryItOut 958

tryItOut 959
Running threw: ReferenceError: reference to undefined XML name *::*

tryItOut 960
Compiling threw: TypeError: generator function anonymous returns a value

tryItOut 961
Compiling threw: SyntaxError: missing } after let block

tryItOut 962

tryItOut 963

tryItOut 964
Running threw: ReferenceError: reference to undefined XML name @foo

tryItOut 965
It's an iterator!
Iterating threw!
Iterating threw: ReferenceError: z1 is not defined

tryItOut 966

tryItOut 967

tryItOut 968
Running threw: <y>
  <z/>
</y>

tryItOut 969
Compiling threw: SyntaxError: missing { before function body

tryItOut 970
Running threw: TypeError: this.zzz has no properties

tryItOut 971

tryItOut 972
Running threw: TypeError: this.zzz has no properties

tryItOut 973

tryItOut 974

tryItOut 975
Compiling threw: TypeError: anonymous generator function returns a value

tryItOut 976
Compiling threw: SyntaxError: invalid for/in left-hand side

tryItOut 977
Compiling threw: SyntaxError: syntax error

tryItOut 978

tryItOut 979
Compiling threw: SyntaxError: missing } after property list

tryItOut 980
Compiling threw: SyntaxError: invalid for/in left-hand side

tryItOut 981
Compiling threw: SyntaxError: missing variable name

tryItOut 982
Compiling threw: SyntaxError: syntax error

tryItOut 983
Compiling threw: SyntaxError: missing variable name

tryItOut 984
Compiling threw: SyntaxError: syntax error

tryItOut 985

tryItOut 986
Compiling threw: SyntaxError: missing { before function body

tryItOut 987
Compiling threw: SyntaxError: missing ) in parenthetical

tryItOut 988
Running threw: TypeError: this.zzz has no properties

tryItOut 989
Compiling threw: SyntaxError: syntax error

tryItOut 990

tryItOut 991

tryItOut 992
Compiling threw: SyntaxError: missing ; after for-loop condition

tryItOut 993
Compiling threw: SyntaxError: invalid for/in left-hand side

tryItOut 994
It's an iterator!
Iterating succeeded, iterCount == 0

tryItOut 995

tryItOut 996

tryItOut 997
Compiling threw: TypeError: anonymous generator function returns a value

tryItOut 998

tryItOut 999
Compiling threw: TypeError: redeclaration of variable __iterator__

tryItOut 1000

ALL OK

Script done on Sat 04 May 2013 04:59:18 AM PDT
