Script started on Sat 04 May 2013 07:28:41 AM PDT
***
Targeting SpiderMonkey / Gecko.

tryItOut 1

tryItOut 2
Compiling threw: SyntaxError: invalid for/in left-hand side

tryItOut 3

tryItOut 4
Compiling threw: SyntaxError: missing ; before statement

tryItOut 5
Compiling threw: SyntaxError: missing { before function body

tryItOut 6
Compiling threw: SyntaxError: missing variable name

tryItOut 7
Running threw: ReferenceError: __iterator__ is not defined

tryItOut 8
Compiling threw: SyntaxError: missing ; before statement

tryItOut 9

tryItOut 10

tryItOut 11
Compiling threw: SyntaxError: missing ; after for-loop initializer

tryItOut 12
Compiling threw: SyntaxError: syntax error

tryItOut 13
Compiling threw: SyntaxError: syntax error

tryItOut 14
Compiling threw: SyntaxError: missing { before function body

tryItOut 15

tryItOut 16
Compiling threw: SyntaxError: missing formal parameter

tryItOut 17
Running threw: ReferenceError: z1 is not defined

tryItOut 18
Compiling threw: SyntaxError: duplicate label

tryItOut 19
Compiling threw: SyntaxError: missing { before function body

tryItOut 20
Running threw: ReferenceError: z2 is not defined

tryItOut 21

tryItOut 22
Running threw: ReferenceError: prototype is not defined

tryItOut 23
Compiling threw: SyntaxError: missing ; before statement

tryItOut 24
Compiling threw: SyntaxError: invalid for/in left-hand side

tryItOut 25
Compiling threw: SyntaxError: invalid for/in left-hand side

tryItOut 26
Compiling threw: SyntaxError: syntax error

tryItOut 27
Running threw: ReferenceError: reference to undefined XML name @foo

tryItOut 28
Compiling threw: SyntaxError: missing { before function body

tryItOut 29
Compiling threw: SyntaxError: missing ) after argument list

tryItOut 30
Compiling threw: SyntaxError: missing ) in parenthetical

tryItOut 31
before 87200, after 87200, break 00f8d000

tryItOut 32
Compiling threw: SyntaxError: label not found

tryItOut 33

tryItOut 34
Running threw: ReferenceError: prototype is not defined

tryItOut 35

tryItOut 36
Compiling threw: SyntaxError: missing ) in parenthetical

tryItOut 37

tryItOut 38
Compiling threw: SyntaxError: missing ; before statement

tryItOut 39
Compiling threw: SyntaxError: missing ) in parenthetical

tryItOut 40
Compiling threw: TypeError: redeclaration of var __iterator__

tryItOut 41
Compiling threw: SyntaxError: invalid assignment left-hand side

tryItOut 42
Compiling threw: SyntaxError: missing ; before statement

tryItOut 43
Compiling threw: SyntaxError: unterminated regular expression literal

tryItOut 44
Compiling threw: SyntaxError: syntax error

tryItOut 45

tryItOut 46
Running threw: ReferenceError: reference to undefined XML name @foo

tryItOut 47

tryItOut 48
Compiling threw: SyntaxError: label not found

tryItOut 49
Compiling threw: SyntaxError: missing ; after for-loop initializer

tryItOut 50

tryItOut 51

tryItOut 52

tryItOut 53

tryItOut 54

tryItOut 55
Compiling threw: SyntaxError: missing { before function body

tryItOut 56
Compiling threw: SyntaxError: label not found

tryItOut 57
Running threw: ReferenceError: reference to undefined property "__noSuchMethod__"

tryItOut 58
Running threw: ReferenceError: reference to undefined XML name @foo

tryItOut 59
Compiling threw: TypeError: redeclaration of const constructor

tryItOut 60
Running threw: ReferenceError: __iterator__ is not defined

tryItOut 61
Compiling threw: SyntaxError: invalid for/in left-hand side

tryItOut 62

tryItOut 63
Compiling threw: SyntaxError: missing while after do-loop body

tryItOut 64
Running threw: ReferenceError: reference to undefined XML name *

tryItOut 65
Compiling threw: SyntaxError: missing ; before statement

tryItOut 66

tryItOut 67

tryItOut 68

tryItOut 69

tryItOut 70
Running threw: ReferenceError: __iterator__ is not defined

tryItOut 71

tryItOut 72
Compiling threw: SyntaxError: syntax error

tryItOut 73
Running threw: ReferenceError: reference to undefined XML name @foo

tryItOut 74
before 87200, after 87200, break 00f8d000

tryItOut 75

tryItOut 76
Running threw: ReferenceError: __noSuchMethod__ is not defined

tryItOut 77
Compiling threw: SyntaxError: syntax error

tryItOut 78

tryItOut 79
Compiling threw: TypeError: redeclaration of variable __parent__

tryItOut 80
Compiling threw: SyntaxError: syntax error

tryItOut 81
Running threw: ReferenceError: __iterator__ is not defined

tryItOut 82

tryItOut 83

tryItOut 84
Compiling threw: SyntaxError: missing ; before statement

tryItOut 85
Compiling threw: SyntaxError: syntax error

tryItOut 86

tryItOut 87
Compiling threw: SyntaxError: missing while after do-loop body

tryItOut 88

tryItOut 89
Compiling threw: SyntaxError: invalid continue

tryItOut 90
Compiling threw: SyntaxError: missing ; before statement

tryItOut 91
Compiling threw: SyntaxError: missing ; before statement

tryItOut 92
Compiling threw: SyntaxError: invalid destructuring assignment operator

tryItOut 93

tryItOut 94
Compiling threw: SyntaxError: missing ; after for-loop initializer

tryItOut 95
Compiling threw: SyntaxError: syntax error

tryItOut 96
Compiling threw: SyntaxError: label not found

tryItOut 97
Compiling threw: SyntaxError: missing = in destructuring declaration

tryItOut 98

tryItOut 99
Compiling threw: SyntaxError: missing while after do-loop body

tryItOut 100
Compiling threw: SyntaxError: missing variable name

tryItOut 101
Compiling threw: SyntaxError: missing variable name

tryItOut 102
Compiling threw: TypeError: redeclaration of variable __parent__

tryItOut 103
Compiling threw: SyntaxError: missing } in compound statement

tryItOut 104
It's an iterator!
Iterating threw!
Iterating threw: ReferenceError: reference to undefined XML name @foo

tryItOut 105

tryItOut 106
Compiling threw: SyntaxError: syntax error

tryItOut 107

tryItOut 108

tryItOut 109
Compiling threw: SyntaxError: syntax error

tryItOut 110
Compiling threw: SyntaxError: invalid break

tryItOut 111
Compiling threw: SyntaxError: syntax error

tryItOut 112
Running threw: TypeError: this.zzz has no properties

tryItOut 113

tryItOut 114
Compiling threw: SyntaxError: syntax error

tryItOut 115
Compiling threw: SyntaxError: missing variable name

tryItOut 116
Compiling threw: SyntaxError: syntax error

tryItOut 117
Compiling threw: SyntaxError: missing ) in parenthetical

tryItOut 118
Compiling threw: SyntaxError: missing ) in parenthetical

tryItOut 119
It's an iterator!
Iterating threw!
Iterating threw: ReferenceError: __noSuchMethod__ is not defined

tryItOut 120
Compiling threw: SyntaxError: label not found

tryItOut 121
Compiling threw: SyntaxError: missing while after do-loop body

tryItOut 122
Compiling threw: SyntaxError: missing variable name

tryItOut 123
Compiling threw: SyntaxError: missing ; before statement

tryItOut 124
Compiling threw: SyntaxError: syntax error

tryItOut 125
Compiling threw: SyntaxError: invalid for/in left-hand side

tryItOut 126

tryItOut 127
Running threw: ReferenceError: reference to undefined XML name *::*

tryItOut 128
Compiling threw: SyntaxError: syntax error

tryItOut 129
Compiling threw: TypeError: anonymous generator function returns a value

tryItOut 130

tryItOut 131
Compiling threw: SyntaxError: invalid for/in left-hand side

tryItOut 132
before 104640, after 104640, break 00fa3000

tryItOut 133
Compiling threw: SyntaxError: missing variable name

tryItOut 134
Compiling threw: SyntaxError: invalid for/in left-hand side

tryItOut 135

tryItOut 136
before 104640, after 104640, break 00fa3000

tryItOut 137
Compiling threw: SyntaxError: missing ; after for-loop initializer

tryItOut 138

tryItOut 139

tryItOut 140
Running threw: ReferenceError: __noSuchMethod__ is not defined

tryItOut 141

tryItOut 142
Compiling threw: SyntaxError: label not found

tryItOut 143
Compiling threw: TypeError: generator function anonymous returns a value

tryItOut 144
Compiling threw: SyntaxError: missing ) after let head

tryItOut 145
Compiling threw: TypeError: redeclaration of const constructor

tryItOut 146
Compiling threw: SyntaxError: label not found

tryItOut 147

tryItOut 148
Compiling threw: SyntaxError: syntax error

tryItOut 149

tryItOut 150
Compiling threw: SyntaxError: missing { before function body

tryItOut 151
Compiling threw: SyntaxError: yield expression must be parenthesized

tryItOut 152

tryItOut 153
Compiling threw: SyntaxError: invalid for/in left-hand side

tryItOut 154
Compiling threw: SyntaxError: yield expression must be parenthesized

tryItOut 155
Compiling threw: TypeError: redeclaration of variable prop

tryItOut 156

tryItOut 157
Compiling threw: SyntaxError: syntax error

tryItOut 158

tryItOut 159

tryItOut 160
Compiling threw: SyntaxError: missing = in destructuring declaration

tryItOut 161
Compiling threw: SyntaxError: invalid for/in left-hand side

tryItOut 162
Running threw: ReferenceError: __iterator__ is not defined

tryItOut 163
Compiling threw: SyntaxError: missing variable name

tryItOut 164
Compiling threw: SyntaxError: syntax error

tryItOut 165

tryItOut 166

tryItOut 167

tryItOut 168
Compiling threw: SyntaxError: missing ) in parenthetical

tryItOut 169
Compiling threw: SyntaxError: syntax error

tryItOut 170
Compiling threw: SyntaxError: syntax error

tryItOut 171
Compiling threw: SyntaxError: missing ; before statement

tryItOut 172
Compiling threw: SyntaxError: missing { before function body

tryItOut 173
Compiling threw: SyntaxError: missing ) after condition

tryItOut 174

tryItOut 175
Compiling threw: SyntaxError: missing variable name

tryItOut 176
Running threw: ReferenceError: __iterator__ is not defined

tryItOut 177
Running threw: TypeError: this.zzz has no properties

tryItOut 178
Compiling threw: SyntaxError: missing ; before statement

tryItOut 179
Running threw: ReferenceError: reference to undefined XML name @foo

tryItOut 180

tryItOut 181
Running threw: ReferenceError: reference to undefined XML name *::*

tryItOut 182

tryItOut 183
Compiling threw: SyntaxError: syntax error

tryItOut 184

tryItOut 185
Compiling threw: SyntaxError: missing while after do-loop body

tryItOut 186
Compiling threw: SyntaxError: invalid for/in left-hand side

tryItOut 187
It's an iterator!
Iterating threw!
Iterating threw: ReferenceError: __iterator__ is not defined

tryItOut 188

tryItOut 189
Running threw: [object StopIteration]

tryItOut 190
Compiling threw: SyntaxError: missing ; before statement

tryItOut 191

tryItOut 192
Running threw: ReferenceError: reference to undefined XML name *

tryItOut 193

tryItOut 194
Running threw: ReferenceError: reference to undefined XML name *::*

tryItOut 195

tryItOut 196
Running threw: ReferenceError: reference to undefined XML name *

tryItOut 197

tryItOut 198
Compiling threw: SyntaxError: syntax error

tryItOut 199
Compiling threw: SyntaxError: invalid for/in left-hand side

tryItOut 200
Compiling threw: SyntaxError: missing { before function body

tryItOut 201

tryItOut 202
Compiling threw: SyntaxError: syntax error

tryItOut 203

tryItOut 204
Running threw: ReferenceError: reference to undefined XML name *::*

tryItOut 205

tryItOut 206
Running threw: ReferenceError: z1 is not defined

tryItOut 207
before 104640, after 104640, break 00fc1000

tryItOut 208

tryItOut 209
Compiling threw: SyntaxError: syntax error

tryItOut 210
Compiling threw: SyntaxError: missing ; after for-loop initializer

tryItOut 211

tryItOut 212
Compiling threw: SyntaxError: syntax error

tryItOut 213
Compiling threw: SyntaxError: label not found

tryItOut 214

tryItOut 215
Compiling threw: SyntaxError: syntax error

tryItOut 216
before 104640, after 104640, break 00fc1000

tryItOut 217

tryItOut 218
uneval returned the string: ({a1:1})
Skipping re-eval test

tryItOut 219
Compiling threw: SyntaxError: label not found

tryItOut 220

tryItOut 221

tryItOut 222
Running threw: ReferenceError: reference to undefined XML name *::*

tryItOut 223
Compiling threw: SyntaxError: missing ; after for-loop initializer

tryItOut 224

tryItOut 225

tryItOut 226

tryItOut 227
Compiling threw: SyntaxError: missing ) after argument list

tryItOut 228
Compiling threw: SyntaxError: missing { before function body

tryItOut 229

tryItOut 230
Compiling threw: SyntaxError: syntax error

tryItOut 231

tryItOut 232
Compiling threw: SyntaxError: missing ; before statement

tryItOut 233
Compiling threw: SyntaxError: missing variable name

tryItOut 234

tryItOut 235
Compiling threw: SyntaxError: syntax error

tryItOut 236
Running threw: [object StopIteration]

tryItOut 237
Running threw: ReferenceError: reference to undefined XML name @foo

tryItOut 238

tryItOut 239

tryItOut 240

tryItOut 241

tryItOut 242

tryItOut 243

tryItOut 244

tryItOut 245

tryItOut 246
Compiling threw: SyntaxError: invalid continue

tryItOut 247
Compiling threw: SyntaxError: missing variable name

tryItOut 248
Compiling threw: SyntaxError: syntax error

tryItOut 249

tryItOut 250
Compiling threw: SyntaxError: invalid for/in left-hand side

tryItOut 251
Compiling threw: SyntaxError: invalid for/in left-hand side

tryItOut 252

tryItOut 253
Compiling threw: SyntaxError: syntax error

tryItOut 254

tryItOut 255
Compiling threw: SyntaxError: syntax error

tryItOut 256
Compiling threw: SyntaxError: syntax error

tryItOut 257
Running threw: Error: invalid sharp variable use #1#

tryItOut 258

tryItOut 259

tryItOut 260
Compiling threw: SyntaxError: missing ) in parenthetical

tryItOut 261
Compiling threw: TypeError: redeclaration of variable __proto__

tryItOut 262
Compiling threw: SyntaxError: missing ) in parenthetical

tryItOut 263
Compiling threw: SyntaxError: missing ; after for-loop initializer

tryItOut 264

tryItOut 265
Compiling threw: SyntaxError: missing { before function body

tryItOut 266

tryItOut 267
Compiling threw: SyntaxError: invalid continue

tryItOut 268

tryItOut 269
Running threw: ReferenceError: reference to undefined XML name *::*

tryItOut 270
Compiling threw: SyntaxError: missing ; before statement

tryItOut 271
Compiling threw: SyntaxError: syntax error

tryItOut 272
Compiling threw: SyntaxError: missing ; before statement

tryItOut 273
Compiling threw: SyntaxError: syntax error

tryItOut 274

tryItOut 275
Running threw: [object StopIteration]

tryItOut 276
Compiling threw: SyntaxError: missing variable name

tryItOut 277
Compiling threw: SyntaxError: missing ) in parenthetical

tryItOut 278
Compiling threw: SyntaxError: invalid break

tryItOut 279

tryItOut 280
Running threw: ReferenceError: reference to undefined XML name *::*

tryItOut 281
Running threw: ReferenceError: reference to undefined XML name @foo

tryItOut 282
Running threw: ReferenceError: __iterator__ is not defined

tryItOut 283
Compiling threw: SyntaxError: syntax error

tryItOut 284
Running threw: ReferenceError: __noSuchMethod__ is not defined

tryItOut 285
Compiling threw: SyntaxError: missing ] after element list

tryItOut 286
Compiling threw: SyntaxError: missing ; after for-loop initializer

tryItOut 287
Compiling threw: SyntaxError: invalid assignment left-hand side

tryItOut 288
Compiling threw: SyntaxError: syntax error

tryItOut 289

tryItOut 290
Running threw: ReferenceError: reference to undefined XML name @foo

tryItOut 291
Compiling threw: SyntaxError: missing while after do-loop body

tryItOut 292
Compiling threw: SyntaxError: invalid for/in left-hand side

tryItOut 293
Compiling threw: SyntaxError: syntax error

tryItOut 294
Compiling threw: SyntaxError: syntax error

tryItOut 295
Running threw: ReferenceError: reference to undefined XML name *

tryItOut 296
Compiling threw: SyntaxError: missing ; before statement

tryItOut 297

tryItOut 298
Compiling threw: SyntaxError: syntax error

tryItOut 299
Compiling threw: SyntaxError: invalid destructuring assignment operator

tryItOut 300
Running threw: TypeError: arguments[0] has no properties

tryItOut 301

tryItOut 302

tryItOut 303
Compiling threw: SyntaxError: missing variable name

tryItOut 304

tryItOut 305
Compiling threw: SyntaxError: syntax error

tryItOut 306
Compiling threw: SyntaxError: syntax error

tryItOut 307

tryItOut 308

tryItOut 309

tryItOut 310

tryItOut 311
Compiling threw: SyntaxError: invalid assignment left-hand side

tryItOut 312
Compiling threw: SyntaxError: syntax error

tryItOut 313
before 122080, after 122080, break 01001000

tryItOut 314
Compiling threw: SyntaxError: missing ; after for-loop initializer

tryItOut 315

tryItOut 316
Compiling threw: SyntaxError: missing ) after condition

tryItOut 317

tryItOut 318

tryItOut 319

tryItOut 320
Running threw: ReferenceError: reference to undefined XML name *

tryItOut 321
Compiling threw: SyntaxError: missing ; before statement

tryItOut 322
Running threw: ReferenceError: __noSuchMethod__ is not defined

tryItOut 323

tryItOut 324

tryItOut 325
Running threw: ReferenceError: z1 is not defined

tryItOut 326
Compiling threw: SyntaxError: missing variable name

tryItOut 327
Compiling threw: SyntaxError: missing ; before statement

tryItOut 328
Compiling threw: SyntaxError: invalid for/in left-hand side

tryItOut 329

tryItOut 330
Running threw: Error: invalid sharp variable use #1#

tryItOut 331

tryItOut 332
Running threw: ReferenceError: reference to undefined XML name *

tryItOut 333
Compiling threw: SyntaxError: invalid for/in left-hand side

tryItOut 334
Compiling threw: SyntaxError: missing variable name

tryItOut 335

tryItOut 336
Running threw: ReferenceError: reference to undefined XML name *::*

tryItOut 337
Compiling threw: SyntaxError: syntax error

tryItOut 338
Compiling threw: SyntaxError: invalid for/in left-hand side

tryItOut 339
Compiling threw: SyntaxError: missing ; after for-loop initializer

tryItOut 340

tryItOut 341
Compiling threw: SyntaxError: missing ; after for-loop initializer

tryItOut 342
Compiling threw: SyntaxError: missing variable name

tryItOut 343
Compiling threw: SyntaxError: syntax error

tryItOut 344
Compiling threw: SyntaxError: label not found

tryItOut 345

tryItOut 346
Running threw: ReferenceError: reference to undefined XML name *

tryItOut 347
Compiling threw: TypeError: redeclaration of variable prototype

tryItOut 348
Running threw: ReferenceError: __noSuchMethod__ is not defined

tryItOut 349
Running threw: ReferenceError: reference to undefined XML name @foo

tryItOut 350
Running threw: TypeError: constructor has no properties

tryItOut 351

tryItOut 352
Running threw: ReferenceError: __noSuchMethod__ is not defined

tryItOut 353
Compiling threw: SyntaxError: syntax error

tryItOut 354

tryItOut 355
Compiling threw: SyntaxError: invalid assignment left-hand side

tryItOut 356
Compiling threw: SyntaxError: syntax error

tryItOut 357
Compiling threw: SyntaxError: missing ) in parenthetical

tryItOut 358
It's an iterator!
Iterating threw!
Iterating threw: ReferenceError: reference to undefined XML name *::*

tryItOut 359

tryItOut 360

tryItOut 361

tryItOut 362

tryItOut 363
Compiling threw: SyntaxError: label not found

tryItOut 364
Compiling threw: SyntaxError: invalid destructuring assignment operator

tryItOut 365
Compiling threw: SyntaxError: missing variable name

tryItOut 366
before 122080, after 122080, break 01001000

tryItOut 367

tryItOut 368
Running threw: [object StopIteration]

tryItOut 369
Compiling threw: SyntaxError: invalid for/in left-hand side

tryItOut 370
Compiling threw: SyntaxError: invalid destructuring assignment operator

tryItOut 371
Compiling threw: SyntaxError: label not found

tryItOut 372
Running threw: ReferenceError: reference to undefined XML name *::*

tryItOut 373
Running threw: ReferenceError: __iterator__ is not defined

tryItOut 374
Compiling threw: SyntaxError: invalid assignment left-hand side

tryItOut 375
Compiling threw: SyntaxError: invalid for/in left-hand side

tryItOut 376
Compiling threw: SyntaxError: syntax error

tryItOut 377
Compiling threw: SyntaxError: syntax error

tryItOut 378
Compiling threw: SyntaxError: missing ) in parenthetical

tryItOut 379
Running threw: ReferenceError: __noSuchMethod__ is not defined

tryItOut 380
Compiling threw: SyntaxError: invalid decrement operand

tryItOut 381
Compiling threw: SyntaxError: missing = in destructuring declaration

tryItOut 382

tryItOut 383
Compiling threw: SyntaxError: syntax error

tryItOut 384
Running threw: ReferenceError: prototype is not defined

tryItOut 385
Running threw: [object StopIteration]

tryItOut 386
Running threw: ReferenceError: reference to undefined XML name *

tryItOut 387
Compiling threw: SyntaxError: missing ; after for-loop initializer

tryItOut 388

tryItOut 389
Compiling threw: SyntaxError: invalid decrement operand

tryItOut 390

tryItOut 391
Compiling threw: SyntaxError: invalid continue

tryItOut 392

tryItOut 393
It's an iterator!
Iterating threw!
Iterating threw: ReferenceError: reference to undefined XML name @foo

tryItOut 394
Compiling threw: SyntaxError: invalid destructuring assignment operator

tryItOut 395
Compiling threw: SyntaxError: label not found

tryItOut 396
Compiling threw: SyntaxError: invalid assignment left-hand side

tryItOut 397
Compiling threw: SyntaxError: invalid for/in left-hand side

tryItOut 398
uneval returned the string: ({a1:1})
Skipping re-eval test

tryItOut 399

tryItOut 400

tryItOut 401
It's an iterator!
Iterating threw!
Iterating threw: ReferenceError: __iterator__ is not defined

tryItOut 402

tryItOut 403
Running threw: ReferenceError: reference to undefined XML name @foo

tryItOut 404

tryItOut 405

tryItOut 406
Compiling threw: SyntaxError: invalid decrement operand

tryItOut 407
Compiling threw: SyntaxError: missing while after do-loop body

tryItOut 408

tryItOut 409

tryItOut 410
Compiling threw: SyntaxError: syntax error

tryItOut 411
Compiling threw: SyntaxError: missing ) in parenthetical

tryItOut 412
Running threw: ReferenceError: reference to undefined XML name *

tryItOut 413

tryItOut 414
Compiling threw: SyntaxError: syntax error

tryItOut 415
Running threw: ReferenceError: reference to undefined XML name *

tryItOut 416

tryItOut 417

tryItOut 418
Running threw: TypeError: #1={a:#1#} is not a function

tryItOut 419
Compiling threw: SyntaxError: missing ; before statement

tryItOut 420

tryItOut 421
It's an iterator!
Iterating succeeded, iterCount == 1

tryItOut 422
Compiling threw: SyntaxError: invalid for/in left-hand side

tryItOut 423
Compiling threw: SyntaxError: invalid continue

tryItOut 424
Compiling threw: SyntaxError: missing variable name

tryItOut 425
Compiling threw: TypeError: redeclaration of variable constructor

tryItOut 426

tryItOut 427

tryItOut 428
Compiling threw: SyntaxError: syntax error

tryItOut 429

tryItOut 430
Running threw: ReferenceError: prototype is not defined

tryItOut 431

tryItOut 432
Running threw: ReferenceError: z1 is not defined

tryItOut 433
Compiling threw: SyntaxError: duplicate label

tryItOut 434

tryItOut 435
Compiling threw: SyntaxError: syntax error

tryItOut 436
Compiling threw: SyntaxError: syntax error

tryItOut 437
Compiling threw: SyntaxError: syntax error

tryItOut 438

tryItOut 439

tryItOut 440
Compiling threw: SyntaxError: missing ; before statement

tryItOut 441
Compiling threw: SyntaxError: missing variable name

tryItOut 442
Compiling threw: SyntaxError: invalid for/in left-hand side

tryItOut 443

tryItOut 444

tryItOut 445

tryItOut 446

tryItOut 447
Compiling threw: SyntaxError: invalid continue

tryItOut 448

tryItOut 449
Compiling threw: SyntaxError: syntax error

tryItOut 450
Compiling threw: SyntaxError: missing : after property id

tryItOut 451
Running threw: TypeError: p.z = [[1]] is not a function

tryItOut 452
Compiling threw: SyntaxError: syntax error

tryItOut 453
Compiling threw: SyntaxError: syntax error

tryItOut 454

tryItOut 455
Running threw: ReferenceError: reference to undefined XML name @foo

tryItOut 456
Compiling threw: SyntaxError: invalid for/in left-hand side

tryItOut 457
Compiling threw: SyntaxError: missing ; after for-loop initializer

tryItOut 458
before 139520, after 139520, break 01016000

tryItOut 459
Compiling threw: TypeError: redeclaration of variable constructor

tryItOut 460
Running threw: ReferenceError: reference to undefined XML name @foo

tryItOut 461
Compiling threw: SyntaxError: syntax error

tryItOut 462
Running threw: ReferenceError: reference to undefined XML name *

tryItOut 463
Compiling threw: SyntaxError: missing ) in parenthetical

tryItOut 464
Compiling threw: SyntaxError: syntax error

tryItOut 465

tryItOut 466

tryItOut 467
Compiling threw: SyntaxError: label not found

tryItOut 468
Compiling threw: SyntaxError: syntax error

tryItOut 469

tryItOut 470

tryItOut 471
Compiling threw: TypeError: generator function anonymous returns a value

tryItOut 472

tryItOut 473
Compiling threw: SyntaxError: invalid assignment left-hand side

tryItOut 474
Running threw: ReferenceError: reference to undefined XML name *

tryItOut 475

tryItOut 476
Compiling threw: SyntaxError: invalid for/in left-hand side

tryItOut 477
Compiling threw: SyntaxError: syntax error

tryItOut 478

tryItOut 479

tryItOut 480
Compiling threw: SyntaxError: label not found

tryItOut 481
Compiling threw: SyntaxError: missing { before function body

tryItOut 482
Compiling threw: SyntaxError: invalid for/in left-hand side

tryItOut 483

tryItOut 484
Compiling threw: SyntaxError: syntax error

tryItOut 485
Compiling threw: SyntaxError: label not found

tryItOut 486
Compiling threw: SyntaxError: invalid assignment left-hand side

tryItOut 487
Running threw: ReferenceError: reference to undefined XML name @foo

tryItOut 488
Running threw: ReferenceError: prototype is not defined

tryItOut 489

tryItOut 490
Compiling threw: SyntaxError: invalid for/in left-hand side

tryItOut 491
Compiling threw: SyntaxError: invalid decrement operand

tryItOut 492
Running threw: ReferenceError: reference to undefined XML name *

tryItOut 493
Running threw: ReferenceError: prototype is not defined

tryItOut 494
Compiling threw: SyntaxError: invalid property id

tryItOut 495

tryItOut 496
Running threw: ReferenceError: reference to undefined XML name @foo

tryItOut 497

tryItOut 498

tryItOut 499
Compiling threw: SyntaxError: missing name after . operator

tryItOut 500
Compiling threw: SyntaxError: missing = in destructuring declaration

tryItOut 501

tryItOut 502
Running threw: TypeError: __parent__ has no properties

tryItOut 503
Compiling threw: SyntaxError: syntax error

tryItOut 504
Compiling threw: SyntaxError: missing ; before statement

tryItOut 505
Compiling threw: SyntaxError: missing ) after formal parameters

tryItOut 506
Compiling threw: SyntaxError: label not found

tryItOut 507
Compiling threw: SyntaxError: label not found

tryItOut 508
It's an iterator!
Iterating succeeded, iterCount == 1

tryItOut 509
Compiling threw: SyntaxError: invalid for/in left-hand side

tryItOut 510

tryItOut 511
Running threw: ReferenceError: __noSuchMethod__ is not defined

tryItOut 512
Compiling threw: SyntaxError: invalid for/in left-hand side

tryItOut 513
Compiling threw: SyntaxError: syntax error

tryItOut 514
Compiling threw: SyntaxError: syntax error

tryItOut 515

tryItOut 516

tryItOut 517
Compiling threw: SyntaxError: label not found

tryItOut 518
Compiling threw: SyntaxError: missing ; before statement

tryItOut 519

tryItOut 520

tryItOut 521
Compiling threw: SyntaxError: missing ; after for-loop initializer

tryItOut 522

tryItOut 523
Compiling threw: SyntaxError: invalid assignment left-hand side

tryItOut 524
Compiling threw: SyntaxError: invalid for/in left-hand side

tryItOut 525
Compiling threw: SyntaxError: syntax error

tryItOut 526
Compiling threw: SyntaxError: missing = in destructuring declaration

tryItOut 527
It's an iterator!
Iterating succeeded, iterCount == 1

tryItOut 528
Compiling threw: SyntaxError: missing ) after with-statement object

tryItOut 529
Running threw: SyntaxError: invalid setter usage

tryItOut 530

tryItOut 531
Compiling threw: SyntaxError: syntax error

tryItOut 532

tryItOut 533

tryItOut 534

tryItOut 535

tryItOut 536
before 156960, after 156960, break 0102e000

tryItOut 537
Running threw: ReferenceError: reference to undefined XML name @foo

tryItOut 538
Compiling threw: SyntaxError: invalid for/in left-hand side

tryItOut 539
Running threw: ReferenceError: reference to undefined XML name *

tryItOut 540
Running threw: [object StopIteration]

tryItOut 541

tryItOut 542
Running threw: ReferenceError: prototype is not defined

tryItOut 543
Compiling threw: SyntaxError: missing ; after for-loop initializer

tryItOut 544
Compiling threw: SyntaxError: invalid for/in left-hand side

tryItOut 545
Compiling threw: SyntaxError: missing ) in parenthetical

tryItOut 546
Compiling threw: SyntaxError: syntax error

tryItOut 547
Running threw: ReferenceError: reference to undefined XML name @foo

tryItOut 548

tryItOut 549
Compiling threw: SyntaxError: syntax error

tryItOut 550
Compiling threw: SyntaxError: missing ; after for-loop initializer

tryItOut 551
Compiling threw: SyntaxError: syntax error

tryItOut 552
Compiling threw: SyntaxError: missing ; before statement

tryItOut 553
Compiling threw: TypeError: redeclaration of variable constructor

tryItOut 554

tryItOut 555
Compiling threw: SyntaxError: missing while after do-loop body

tryItOut 556

tryItOut 557
Running threw: ReferenceError: reference to undefined XML name @foo

tryItOut 558

tryItOut 559
Compiling threw: SyntaxError: invalid for/in left-hand side

tryItOut 560
before 156960, after 156960, break 0102e000

tryItOut 561

tryItOut 562
Running threw: ReferenceError: __iterator__ is not defined

tryItOut 563
Compiling threw: SyntaxError: label not found

tryItOut 564
Compiling threw: SyntaxError: invalid continue

tryItOut 565
Compiling threw: SyntaxError: invalid for/in left-hand side

tryItOut 566

tryItOut 567
Compiling threw: SyntaxError: invalid assignment left-hand side

tryItOut 568
Compiling threw: SyntaxError: invalid for/in left-hand side

tryItOut 569

tryItOut 570

tryItOut 571

tryItOut 572
Compiling threw: SyntaxError: invalid continue

tryItOut 573
Compiling threw: TypeError: redeclaration of var __proto__

tryItOut 574

tryItOut 575
Running threw: Error: invalid sharp variable use #1#

tryItOut 576
Compiling threw: SyntaxError: invalid for/in left-hand side

tryItOut 577
Running threw: ReferenceError: z1 is not defined

tryItOut 578
Compiling threw: SyntaxError: invalid for/in left-hand side

tryItOut 579
Compiling threw: SyntaxError: missing variable name

tryItOut 580
Compiling threw: SyntaxError: invalid assignment left-hand side

tryItOut 581
Compiling threw: SyntaxError: missing ; before statement

tryItOut 582

tryItOut 583

tryItOut 584
Compiling threw: SyntaxError: missing { before function body

tryItOut 585
Compiling threw: SyntaxError: syntax error

tryItOut 586

tryItOut 587
Running threw: ReferenceError: z1 is not defined

tryItOut 588
Compiling threw: SyntaxError: label not found

tryItOut 589

tryItOut 590
Compiling threw: SyntaxError: missing variable name

tryItOut 591
Running threw: ReferenceError: reference to undefined XML name *::*

tryItOut 592

tryItOut 593

tryItOut 594
Compiling threw: SyntaxError: syntax error

tryItOut 595

tryItOut 596

tryItOut 597
Compiling threw: SyntaxError: invalid assignment left-hand side

tryItOut 598
Compiling threw: SyntaxError: invalid assignment left-hand side

tryItOut 599

tryItOut 600
Compiling threw: SyntaxError: missing ; before statement

tryItOut 601
Compiling threw: SyntaxError: missing ; before statement

tryItOut 602
Running threw: ReferenceError: __noSuchMethod__ is not defined

tryItOut 603
Compiling threw: SyntaxError: syntax error

tryItOut 604
Running threw: TypeError: this.zzz has no properties

tryItOut 605
Compiling threw: SyntaxError: syntax error

tryItOut 606

tryItOut 607

tryItOut 608
Compiling threw: SyntaxError: missing ; before statement

tryItOut 609
Compiling threw: SyntaxError: syntax error

tryItOut 610
Compiling threw: SyntaxError: label not found

tryItOut 611

tryItOut 612
Compiling threw: SyntaxError: missing variable name

tryItOut 613

tryItOut 614
Compiling threw: SyntaxError: invalid for/in left-hand side

tryItOut 615
Running threw: ReferenceError: reference to undefined XML name @foo

tryItOut 616
Compiling threw: SyntaxError: invalid break

tryItOut 617
Compiling threw: SyntaxError: syntax error

tryItOut 618

tryItOut 619

tryItOut 620
Compiling threw: SyntaxError: missing variable name

tryItOut 621

tryItOut 622

tryItOut 623

tryItOut 624
Compiling threw: SyntaxError: invalid increment operand

tryItOut 625

tryItOut 626

tryItOut 627

tryItOut 628
Compiling threw: SyntaxError: invalid break

tryItOut 629
Compiling threw: TypeError: redeclaration of var __count__

tryItOut 630
Compiling threw: SyntaxError: invalid continue

tryItOut 631
Running threw: ReferenceError: reference to undefined XML name *::*

tryItOut 632
Compiling threw: SyntaxError: syntax error

tryItOut 633

tryItOut 634
Running threw: ReferenceError: prototype is not defined

tryItOut 635
It's an iterator!
Iterating succeeded, iterCount == 1

tryItOut 636
Compiling threw: SyntaxError: missing while after do-loop body

tryItOut 637
It's an iterator!
Iterating threw!
Iterating threw: ReferenceError: z2 is not defined

tryItOut 638
Running threw: ReferenceError: reference to undefined XML name *::*

tryItOut 639

tryItOut 640

tryItOut 641
Running threw: ReferenceError: __noSuchMethod__ is not defined

tryItOut 642

tryItOut 643
Running threw: ReferenceError: reference to undefined XML name @foo

tryItOut 644
Compiling threw: SyntaxError: missing ) in parenthetical

tryItOut 645
Compiling threw: SyntaxError: syntax error

tryItOut 646
Running threw: ReferenceError: __noSuchMethod__ is not defined

tryItOut 647

tryItOut 648
Compiling threw: SyntaxError: label not found

tryItOut 649
Compiling threw: SyntaxError: invalid for/in left-hand side

tryItOut 650
Compiling threw: SyntaxError: missing ) in parenthetical

tryItOut 651
Compiling threw: SyntaxError: syntax error

tryItOut 652
Compiling threw: SyntaxError: invalid destructuring assignment operator

tryItOut 653
Compiling threw: SyntaxError: syntax error

tryItOut 654
Compiling threw: SyntaxError: invalid for/in left-hand side

tryItOut 655

tryItOut 656
Running threw: Error: invalid sharp variable use #1#

tryItOut 657

tryItOut 658
Running threw: ReferenceError: reference to undefined XML name @foo

tryItOut 659

tryItOut 660

tryItOut 661

tryItOut 662

tryItOut 663
Compiling threw: SyntaxError: missing ) in parenthetical

tryItOut 664
Compiling threw: SyntaxError: missing ) in parenthetical

tryItOut 665
Compiling threw: SyntaxError: invalid assignment left-hand side

tryItOut 666
Compiling threw: SyntaxError: syntax error

tryItOut 667
Compiling threw: SyntaxError: invalid for/in left-hand side

tryItOut 668
Compiling threw: SyntaxError: missing ) in parenthetical

tryItOut 669
Compiling threw: SyntaxError: label not found

tryItOut 670
Compiling threw: SyntaxError: invalid for/in left-hand side

tryItOut 671
Compiling threw: SyntaxError: invalid for/in left-hand side

tryItOut 672

tryItOut 673
Compiling threw: SyntaxError: missing { before function body

tryItOut 674

tryItOut 675

tryItOut 676

tryItOut 677
Compiling threw: SyntaxError: missing ; before statement

tryItOut 678
It's an iterator!
Iterating threw!
Iterating threw: ReferenceError: reference to undefined XML name @foo

tryItOut 679

tryItOut 680

tryItOut 681
Compiling threw: SyntaxError: missing ) in parenthetical

tryItOut 682
Compiling threw: SyntaxError: missing ; after for-loop initializer

tryItOut 683

tryItOut 684
Running threw: TypeError: p.z = (__noSuchMethod__ = [, ]) is not a function

tryItOut 685

tryItOut 686
Running threw: ReferenceError: reference to undefined XML name @foo

tryItOut 687

tryItOut 688
Compiling threw: SyntaxError: missing variable name

tryItOut 689
before 174400, after 174400, break 01076000

tryItOut 690
Running threw: ReferenceError: z1 is not defined

tryItOut 691
Compiling threw: SyntaxError: syntax error

tryItOut 692

tryItOut 693
Compiling threw: SyntaxError: invalid for/in left-hand side

tryItOut 694
Compiling threw: SyntaxError: syntax error

tryItOut 695

tryItOut 696
Running threw: ReferenceError: prototype is not defined

tryItOut 697

tryItOut 698
Running threw: ReferenceError: reference to undefined XML name *

tryItOut 699
Compiling threw: SyntaxError: missing ; after for-loop initializer

tryItOut 700

tryItOut 701

tryItOut 702
Compiling threw: SyntaxError: syntax error

tryItOut 703

tryItOut 704

tryItOut 705
Compiling threw: SyntaxError: invalid for/in left-hand side

tryItOut 706
Compiling threw: TypeError: redeclaration of var __iterator__

tryItOut 707
Compiling threw: SyntaxError: missing variable name

tryItOut 708
Compiling threw: SyntaxError: invalid assignment left-hand side

tryItOut 709

tryItOut 710

tryItOut 711
Compiling threw: SyntaxError: missing ; before statement

tryItOut 712
Compiling threw: SyntaxError: invalid break

tryItOut 713
Running threw: ReferenceError: reference to undefined XML name *::*

tryItOut 714

tryItOut 715
Compiling threw: SyntaxError: label not found

tryItOut 716

tryItOut 717
Running threw: TypeError: __noSuchMethod__ has no properties

tryItOut 718
Compiling threw: SyntaxError: missing ; after for-loop initializer

tryItOut 719
Compiling threw: SyntaxError: missing = in destructuring declaration

tryItOut 720
Compiling threw: SyntaxError: missing variable name

tryItOut 721
Compiling threw: SyntaxError: syntax error

tryItOut 722
Compiling threw: SyntaxError: missing ; before statement

tryItOut 723
Compiling threw: SyntaxError: syntax error

tryItOut 724

tryItOut 725
Compiling threw: SyntaxError: invalid decrement operand

tryItOut 726

tryItOut 727
Compiling threw: SyntaxError: missing = in destructuring declaration

tryItOut 728
Compiling threw: SyntaxError: missing ; before statement

tryItOut 729
Compiling threw: SyntaxError: invalid for/in left-hand side

tryItOut 730

tryItOut 731
Compiling threw: SyntaxError: syntax error

tryItOut 732
Compiling threw: SyntaxError: syntax error

tryItOut 733
Compiling threw: SyntaxError: missing ; before statement

tryItOut 734

tryItOut 735
Compiling threw: SyntaxError: missing ; before statement

tryItOut 736
Running threw: [object StopIteration]

tryItOut 737
Running threw: ReferenceError: reference to undefined XML name *::*

tryItOut 738
Compiling threw: SyntaxError: missing variable name

tryItOut 739
Running threw: ReferenceError: reference to undefined XML name @foo

tryItOut 740
Compiling threw: SyntaxError: invalid for/in left-hand side

tryItOut 741
Compiling threw: SyntaxError: syntax error

tryItOut 742

tryItOut 743
Running threw: ReferenceError: reference to undefined XML name *::*

tryItOut 744
Compiling threw: SyntaxError: missing while after do-loop body

tryItOut 745

tryItOut 746

tryItOut 747
Running threw: [object StopIteration]

tryItOut 748
Compiling threw: SyntaxError: syntax error

tryItOut 749

tryItOut 750
Compiling threw: SyntaxError: missing while after do-loop body

tryItOut 751
Compiling threw: SyntaxError: invalid destructuring assignment operator

tryItOut 752
Compiling threw: SyntaxError: syntax error

tryItOut 753

tryItOut 754
Compiling threw: SyntaxError: missing variable name

tryItOut 755
before 174400, after 174400, break 0108e000

tryItOut 756

tryItOut 757
It's an iterator!
Iterating threw!
Iterating threw: ReferenceError: reference to undefined XML name *

tryItOut 758
Running threw: ReferenceError: reference to undefined property "J"

tryItOut 759
Running threw: TypeError: __parent__ has no properties

tryItOut 760

tryItOut 761
Running threw: ReferenceError: reference to undefined XML name @foo

tryItOut 762
Compiling threw: SyntaxError: missing ; after for-loop initializer

tryItOut 763
Compiling threw: SyntaxError: invalid increment operand

tryItOut 764

tryItOut 765
Compiling threw: SyntaxError: invalid for/in left-hand side

tryItOut 766
Compiling threw: SyntaxError: syntax error

tryItOut 767
Compiling threw: SyntaxError: invalid break

tryItOut 768
Compiling threw: SyntaxError: invalid for/in left-hand side

tryItOut 769
Compiling threw: TypeError: redeclaration of var constructor

tryItOut 770

tryItOut 771
Compiling threw: SyntaxError: syntax error

tryItOut 772

tryItOut 773

tryItOut 774
uneval returned the string: ({a1:1})
Skipping re-eval test

tryItOut 775
Compiling threw: SyntaxError: syntax error

tryItOut 776

tryItOut 777
Running threw: ReferenceError: reference to undefined XML name @foo

tryItOut 778
Compiling threw: SyntaxError: syntax error

tryItOut 779
Compiling threw: SyntaxError: invalid for/in left-hand side

tryItOut 780
Compiling threw: SyntaxError: missing variable name

tryItOut 781
Compiling threw: SyntaxError: invalid destructuring assignment operator

tryItOut 782
Compiling threw: SyntaxError: syntax error

tryItOut 783

tryItOut 784
Compiling threw: SyntaxError: missing ; before statement

tryItOut 785

tryItOut 786
Compiling threw: SyntaxError: syntax error

tryItOut 787
Compiling threw: SyntaxError: label not found

tryItOut 788
Compiling threw: SyntaxError: invalid assignment left-hand side

tryItOut 789

tryItOut 790
Running threw: ReferenceError: reference to undefined XML name *::*

tryItOut 791
Compiling threw: SyntaxError: missing ) in parenthetical

tryItOut 792

tryItOut 793
Running threw: ReferenceError: prototype is not defined

tryItOut 794
Compiling threw: SyntaxError: missing ; before statement

tryItOut 795
Compiling threw: SyntaxError: syntax error

tryItOut 796
Compiling threw: SyntaxError: missing ) in parenthetical

tryItOut 797
Running threw: TypeError: this.zzz has no properties

tryItOut 798

tryItOut 799
It's an iterator!
Iterating threw!
Iterating threw: TypeError: [] is not a constructor

tryItOut 800

tryItOut 801

tryItOut 802
Compiling threw: SyntaxError: syntax error

tryItOut 803

tryItOut 804
Compiling threw: SyntaxError: invalid continue

tryItOut 805
Compiling threw: SyntaxError: invalid increment operand

tryItOut 806

tryItOut 807
Running threw: ReferenceError: prototype is not defined

tryItOut 808
Compiling threw: SyntaxError: invalid for/in left-hand side

tryItOut 809
Running threw: ReferenceError: z1 is not defined

tryItOut 810
Compiling threw: SyntaxError: syntax error

tryItOut 811

tryItOut 812

tryItOut 813
Compiling threw: SyntaxError: invalid destructuring assignment operator

tryItOut 814
Compiling threw: SyntaxError: missing variable name

tryItOut 815
Compiling threw: SyntaxError: missing ; before statement

tryItOut 816
Compiling threw: SyntaxError: missing variable name

tryItOut 817

tryItOut 818

tryItOut 819

tryItOut 820
Compiling threw: SyntaxError: syntax error

tryItOut 821

tryItOut 822
Running threw: ReferenceError: reference to undefined XML name *::*

tryItOut 823

tryItOut 824
Compiling threw: SyntaxError: missing while after do-loop body

tryItOut 825
Running threw: TypeError: __parent__ has no properties

tryItOut 826

tryItOut 827
Compiling threw: SyntaxError: invalid assignment left-hand side

tryItOut 828
It's an iterator!
Iterating threw!
Iterating threw: ReferenceError: prototype is not defined

tryItOut 829

tryItOut 830
Compiling threw: SyntaxError: syntax error

tryItOut 831
Compiling threw: SyntaxError: missing = in destructuring declaration

tryItOut 832
Compiling threw: SyntaxError: missing variable name

tryItOut 833

tryItOut 834
Running threw: ReferenceError: reference to undefined XML name *::*

tryItOut 835
Running threw: ReferenceError: prototype is not defined

tryItOut 836
Compiling threw: SyntaxError: missing = in destructuring declaration

tryItOut 837
Running threw: ReferenceError: reference to undefined XML name *::*

tryItOut 838
Running threw: ReferenceError: reference to undefined XML name *

tryItOut 839

tryItOut 840

tryItOut 841

tryItOut 842

tryItOut 843
Running threw: ReferenceError: z1 is not defined

tryItOut 844
Running threw: ReferenceError: z1 is not defined

tryItOut 845
Compiling threw: SyntaxError: syntax error

tryItOut 846
Compiling threw: SyntaxError: invalid for/in left-hand side

tryItOut 847
Compiling threw: SyntaxError: missing ; before statement

tryItOut 848
Compiling threw: SyntaxError: syntax error

tryItOut 849

tryItOut 850

tryItOut 851
Running threw: ReferenceError: reference to undefined XML name @foo

tryItOut 852

tryItOut 853
Compiling threw: SyntaxError: missing ; before statement

tryItOut 854
Compiling threw: SyntaxError: syntax error

tryItOut 855
Compiling threw: SyntaxError: missing ; before statement

tryItOut 856
Compiling threw: SyntaxError: syntax error

tryItOut 857
Running threw: TypeError: this.zzz has no properties

tryItOut 858
Compiling threw: SyntaxError: syntax error

tryItOut 859

tryItOut 860
Running threw: ReferenceError: reference to undefined XML name @foo

tryItOut 861
Compiling threw: SyntaxError: invalid for/in left-hand side

tryItOut 862
Compiling threw: SyntaxError: missing ; before statement

tryItOut 863
Compiling threw: SyntaxError: missing ; before statement

tryItOut 864

tryItOut 865
Compiling threw: SyntaxError: missing ; before statement

tryItOut 866
Compiling threw: SyntaxError: syntax error

tryItOut 867
Compiling threw: SyntaxError: syntax error

tryItOut 868
Running threw: [object StopIteration]

tryItOut 869

tryItOut 870
Running threw: ReferenceError: reference to undefined XML name @foo

tryItOut 871
Compiling threw: SyntaxError: invalid decrement operand

tryItOut 872
Compiling threw: SyntaxError: syntax error

tryItOut 873
Compiling threw: SyntaxError: missing ( before let head

tryItOut 874
Compiling threw: SyntaxError: invalid assignment left-hand side

tryItOut 875
Compiling threw: SyntaxError: missing = in destructuring declaration

tryItOut 876

tryItOut 877
Running threw: TypeError: XML descendants internal method called on incompatible Object

tryItOut 878
Compiling threw: SyntaxError: missing ; after for-loop initializer

tryItOut 879

tryItOut 880
Compiling threw: SyntaxError: syntax error

tryItOut 881

tryItOut 882
Running threw: Error: invalid sharp variable use #1#

tryItOut 883

tryItOut 884
Compiling threw: SyntaxError: missing { before function body

tryItOut 885

tryItOut 886
It's an iterator!
Iterating succeeded, iterCount == 1

tryItOut 887

tryItOut 888
Compiling threw: SyntaxError: invalid for/in left-hand side

tryItOut 889
Compiling threw: SyntaxError: syntax error

tryItOut 890

tryItOut 891
Running threw: ReferenceError: z1 is not defined

tryItOut 892

tryItOut 893

tryItOut 894
Compiling threw: SyntaxError: syntax error

tryItOut 895
Compiling threw: SyntaxError: missing variable name

tryItOut 896

tryItOut 897
Compiling threw: SyntaxError: missing variable name

tryItOut 898

tryItOut 899
Running threw: TypeError: p.z = {} is not a function

tryItOut 900
Compiling threw: SyntaxError: label not found

tryItOut 901
Running threw: [object StopIteration]

tryItOut 902
Compiling threw: SyntaxError: missing variable name

tryItOut 903

tryItOut 904
Compiling threw: SyntaxError: invalid increment operand

tryItOut 905
Compiling threw: SyntaxError: missing ; after for-loop initializer

tryItOut 906

tryItOut 907
Compiling threw: SyntaxError: missing = in destructuring declaration

tryItOut 908

tryItOut 909
Compiling threw: SyntaxError: invalid continue

tryItOut 910

tryItOut 911
Compiling threw: SyntaxError: missing { before function body

tryItOut 912

tryItOut 913
Compiling threw: SyntaxError: invalid for/in left-hand side

tryItOut 914

tryItOut 915

tryItOut 916

tryItOut 917

tryItOut 918

tryItOut 919
Compiling threw: SyntaxError: invalid assignment left-hand side

tryItOut 920

tryItOut 921
Compiling threw: SyntaxError: invalid decrement operand

tryItOut 922
Running threw: TypeError: undefined has no properties

tryItOut 923

tryItOut 924
Compiling threw: SyntaxError: missing ; before statement

tryItOut 925

tryItOut 926
Compiling threw: SyntaxError: missing variable name

tryItOut 927
Compiling threw: SyntaxError: syntax error

tryItOut 928

tryItOut 929
Compiling threw: SyntaxError: missing ; before statement

tryItOut 930
Running threw: ReferenceError: reference to undefined XML name @foo

tryItOut 931
Compiling threw: SyntaxError: missing ; before statement

tryItOut 932

tryItOut 933
Compiling threw: SyntaxError: invalid destructuring assignment operator

tryItOut 934
Compiling threw: SyntaxError: missing = in destructuring declaration

tryItOut 935
Running threw: ReferenceError: reference to undefined XML name *::*

tryItOut 936
Compiling threw: SyntaxError: missing variable name

tryItOut 937

tryItOut 938

tryItOut 939
Compiling threw: SyntaxError: syntax error

tryItOut 940
Compiling threw: SyntaxError: missing ) in parenthetical

tryItOut 941
Running threw: [object StopIteration]

tryItOut 942

tryItOut 943

tryItOut 944
Running threw: TypeError: XML filtering predicate operator called on incompatible Number

tryItOut 945
Running threw: [object StopIteration]

tryItOut 946
Running threw: ReferenceError: reference to undefined XML name *::*

tryItOut 947
Running threw: Error: invalid sharp variable use #1#

tryItOut 948

tryItOut 949

tryItOut 950
Compiling threw: SyntaxError: invalid for/in left-hand side

tryItOut 951
Compiling threw: TypeError: redeclaration of const prototype

tryItOut 952

tryItOut 953
Compiling threw: SyntaxError: syntax error

tryItOut 954

tryItOut 955
before 226720, after 226720, break 01116000

tryItOut 956
Compiling threw: SyntaxError: missing = in destructuring declaration

tryItOut 957
Compiling threw: SyntaxError: label not found

tryItOut 958

tryItOut 959
Compiling threw: SyntaxError: missing ) after condition

tryItOut 960

tryItOut 961
Compiling threw: SyntaxError: missing ) in parenthetical

tryItOut 962
Compiling threw: SyntaxError: missing { before function body

tryItOut 963
Running threw: ReferenceError: reference to undefined XML name @foo

tryItOut 964

tryItOut 965

tryItOut 966

tryItOut 967
Running threw: ReferenceError: reference to undefined XML name @foo

tryItOut 968

tryItOut 969
Compiling threw: SyntaxError: missing ; after for-loop initializer

tryItOut 970

tryItOut 971
Running threw: ReferenceError: Exception is not defined

tryItOut 972
Compiling threw: SyntaxError: missing { before function body

tryItOut 973
Running threw: Error: invalid sharp variable use #1#

tryItOut 974

tryItOut 975

tryItOut 976

tryItOut 977

tryItOut 978
Compiling threw: SyntaxError: missing while after do-loop body

tryItOut 979

tryItOut 980

tryItOut 981

tryItOut 982
Compiling threw: SyntaxError: syntax error

tryItOut 983
Compiling threw: SyntaxError: missing ; before statement

tryItOut 984
Compiling threw: SyntaxError: missing ; after for-loop initializer

tryItOut 985

tryItOut 986

tryItOut 987
Compiling threw: SyntaxError: syntax error

tryItOut 988

tryItOut 989

tryItOut 990
Compiling threw: SyntaxError: invalid break

tryItOut 991
Compiling threw: SyntaxError: invalid for/in left-hand side

tryItOut 992
Running threw: ReferenceError: reference to undefined XML name @foo

tryItOut 993

tryItOut 994
Compiling threw: SyntaxError: label not found

tryItOut 995

tryItOut 996
Running threw: ReferenceError: reference to undefined XML name *::*

tryItOut 997
Compiling threw: SyntaxError: invalid break

tryItOut 998

tryItOut 999
Compiling threw: SyntaxError: missing while after do-loop body

tryItOut 1000
Compiling threw: SyntaxError: label not found

ALL OK

Script done on Sat 04 May 2013 07:28:41 AM PDT
