Script started on Sat 04 May 2013 07:29:20 AM PDT
***
Targeting SpiderMonkey / Gecko.

tryItOut 1

tryItOut 2
Running threw: ReferenceError: prop is not defined

tryItOut 3

tryItOut 4

tryItOut 5
Compiling threw: SyntaxError: invalid assignment left-hand side

tryItOut 6

tryItOut 7
Compiling threw: SyntaxError: missing variable name

tryItOut 8
Compiling threw: SyntaxError: missing ) in parenthetical

tryItOut 9

tryItOut 10
Compiling threw: SyntaxError: missing ; after for-loop condition

tryItOut 11
Running threw: ReferenceError: prototype is not defined

tryItOut 12
Compiling threw: SyntaxError: syntax error

tryItOut 13
Compiling threw: SyntaxError: syntax error

tryItOut 14
Compiling threw: SyntaxError: syntax error

tryItOut 15

tryItOut 16

tryItOut 17
Compiling threw: SyntaxError: syntax error

tryItOut 18

tryItOut 19

tryItOut 20
Compiling threw: SyntaxError: syntax error

tryItOut 21

tryItOut 22

tryItOut 23
Compiling threw: SyntaxError: invalid assignment left-hand side

tryItOut 24
Running threw: TypeError: ({}) is not a constructor

tryItOut 25
Compiling threw: SyntaxError: missing ( before let head

tryItOut 26

tryItOut 27

tryItOut 28

tryItOut 29
Compiling threw: SyntaxError: missing ; before statement

tryItOut 30
Compiling threw: SyntaxError: missing ] after element list

tryItOut 31
uneval returned the string: [undefined, undefined]

tryItOut 32
Compiling threw: SyntaxError: label not found

tryItOut 33

tryItOut 34
Compiling threw: SyntaxError: missing ( before formal parameters

tryItOut 35

tryItOut 36
Compiling threw: SyntaxError: missing ) in parenthetical

tryItOut 37
Running threw: TypeError: undefined is not a function

tryItOut 38
Compiling threw: SyntaxError: label not found

tryItOut 39

tryItOut 40
Running threw: ReferenceError: yyy is not defined

tryItOut 41
Running threw: 

tryItOut 42
Running threw: undefined

tryItOut 43
Running threw: TypeError: arguments[0] has no properties

tryItOut 44
Compiling threw: SyntaxError: missing ] after element list

tryItOut 45

tryItOut 46
It's an iterator!
Iterating succeeded, iterCount == 1

tryItOut 47

tryItOut 48

tryItOut 49

tryItOut 50
Compiling threw: SyntaxError: invalid assignment left-hand side

tryItOut 51
It's an iterator!
Iterating succeeded, iterCount == 1

tryItOut 52
Compiling threw: SyntaxError: missing name after . operator

tryItOut 53
Compiling threw: SyntaxError: missing variable name

tryItOut 54
Compiling threw: SyntaxError: invalid break

tryItOut 55
Compiling threw: SyntaxError: missing } after property list

tryItOut 56

tryItOut 57

tryItOut 58

tryItOut 59

tryItOut 60

tryItOut 61

tryItOut 62
Compiling threw: SyntaxError: missing ] after element list

tryItOut 63

tryItOut 64

tryItOut 65
Compiling threw: SyntaxError: invalid continue

tryItOut 66
Compiling threw: TypeError: generator function anonymous returns a value

tryItOut 67

tryItOut 68

tryItOut 69

tryItOut 70

tryItOut 71

tryItOut 72
Compiling threw: TypeError: redeclaration of variable prop

tryItOut 73

tryItOut 74

tryItOut 75

tryItOut 76

tryItOut 77

tryItOut 78

tryItOut 79
It's an iterator!
Iterating succeeded, iterCount == 1

tryItOut 80
Compiling threw: SyntaxError: invalid break

tryItOut 81

tryItOut 82
Running threw: ReferenceError: z1 is not defined

tryItOut 83
uneval returned the string: [undefined, undefined]

tryItOut 84
Compiling threw: SyntaxError: syntax error

tryItOut 85
Compiling threw: SyntaxError: invalid assignment left-hand side

tryItOut 86
Compiling threw: SyntaxError: invalid assignment left-hand side

tryItOut 87

tryItOut 88

tryItOut 89
Compiling threw: SyntaxError: invalid assignment left-hand side

tryItOut 90
Running threw: 

tryItOut 91
It's an iterator!
Iterating succeeded, iterCount == 1

tryItOut 92
Compiling threw: SyntaxError: missing ; after for-loop condition

tryItOut 93
Compiling threw: SyntaxError: label not found

tryItOut 94
Compiling threw: SyntaxError: missing ) in parenthetical

tryItOut 95

tryItOut 96

tryItOut 97
Compiling threw: SyntaxError: syntax error

tryItOut 98

tryItOut 99

tryItOut 100

tryItOut 101
Compiling threw: SyntaxError: syntax error

tryItOut 102

tryItOut 103

tryItOut 104
Running threw: TypeError: [[]].yoyo is not a function

tryItOut 105

tryItOut 106
Running threw: Error: invalid sharp variable use #1#

tryItOut 107
It's an iterator!
Iterating succeeded, iterCount == 1

tryItOut 108

tryItOut 109

tryItOut 110
Compiling threw: SyntaxError: missing ) in parenthetical

tryItOut 111

tryItOut 112

tryItOut 113

tryItOut 114

tryItOut 115
Compiling threw: SyntaxError: invalid increment operand

tryItOut 116
Compiling threw: SyntaxError: syntax error

tryItOut 117

tryItOut 118

tryItOut 119

tryItOut 120
It's an iterator!
Iterating succeeded, iterCount == 1

tryItOut 121

tryItOut 122
Running threw: TypeError: p.z = <y><z/></y> is not a function

tryItOut 123
Compiling threw: SyntaxError: label not found

tryItOut 124
Compiling threw: SyntaxError: syntax error

tryItOut 125
Compiling threw: SyntaxError: missing ] after element list

tryItOut 126
Running threw: Error: invalid sharp variable use #1#

tryItOut 127
uneval returned the string: [undefined]

tryItOut 128

tryItOut 129
Compiling threw: SyntaxError: missing : after property id

tryItOut 130
Compiling threw: SyntaxError: missing while after do-loop body

tryItOut 131

tryItOut 132

tryItOut 133

tryItOut 134

tryItOut 135
Running threw: 

tryItOut 136

tryItOut 137
Compiling threw: SyntaxError: missing while after do-loop body

tryItOut 138

tryItOut 139
Compiling threw: SyntaxError: invalid continue

tryItOut 140
Compiling threw: SyntaxError: label not found

tryItOut 141
Compiling threw: SyntaxError: syntax error

tryItOut 142
Compiling threw: SyntaxError: syntax error

tryItOut 143
Compiling threw: SyntaxError: invalid assignment left-hand side

tryItOut 144
Compiling threw: TypeError: anonymous generator function returns a value

tryItOut 145

tryItOut 146

tryItOut 147

tryItOut 148

tryItOut 149
Compiling threw: SyntaxError: syntax error

tryItOut 150

tryItOut 151
Compiling threw: SyntaxError: syntax error

tryItOut 152
Compiling threw: SyntaxError: syntax error

tryItOut 153
Compiling threw: SyntaxError: label not found

tryItOut 154

tryItOut 155

tryItOut 156
Compiling threw: SyntaxError: invalid continue

tryItOut 157

tryItOut 158
It's an iterator!
Iterating succeeded, iterCount == 1

tryItOut 159
Compiling threw: SyntaxError: invalid continue

tryItOut 160
Compiling threw: SyntaxError: invalid decrement operand

tryItOut 161
Compiling threw: SyntaxError: missing while after do-loop body

tryItOut 162

tryItOut 163
Compiling threw: SyntaxError: syntax error

tryItOut 164
Compiling threw: TypeError: generator function anonymous returns a value

tryItOut 165

tryItOut 166

tryItOut 167

tryItOut 168

tryItOut 169

tryItOut 170

tryItOut 171
Compiling threw: SyntaxError: syntax error

tryItOut 172

tryItOut 173
Compiling threw: SyntaxError: missing while after do-loop body

tryItOut 174

tryItOut 175

tryItOut 176

tryItOut 177
It's an iterator!
Iterating threw!
Iterating threw: ReferenceError: z1 is not defined

tryItOut 178

tryItOut 179
Compiling threw: TypeError: redeclaration of variable __iterator__

tryItOut 180
It's an iterator!
Iterating succeeded, iterCount == 0

tryItOut 181
It's an iterator!
Iterating threw!
Iterating threw: SyntaxError: malformed formal parameter

tryItOut 182
Compiling threw: SyntaxError: syntax error

tryItOut 183
Compiling threw: SyntaxError: syntax error

tryItOut 184
Running threw: TypeError: arguments[0] has no properties

tryItOut 185

tryItOut 186
Compiling threw: SyntaxError: missing variable name

tryItOut 187
Compiling threw: SyntaxError: invalid continue

tryItOut 188

tryItOut 189

tryItOut 190
Compiling threw: SyntaxError: label not found

tryItOut 191
It's an iterator!
Iterating succeeded, iterCount == 0

tryItOut 192

tryItOut 193

tryItOut 194
Running threw: ReferenceError: z1 is not defined

tryItOut 195
Compiling threw: SyntaxError: label not found

tryItOut 196

tryItOut 197

tryItOut 198
Compiling threw: SyntaxError: syntax error

tryItOut 199

tryItOut 200
Compiling threw: SyntaxError: syntax error

tryItOut 201

tryItOut 202

tryItOut 203
Compiling threw: SyntaxError: syntax error

tryItOut 204

tryItOut 205
Compiling threw: SyntaxError: missing ) after condition

tryItOut 206

tryItOut 207
Compiling threw: SyntaxError: missing ( before let head

tryItOut 208

tryItOut 209
Compiling threw: SyntaxError: invalid property id

tryItOut 210

tryItOut 211
Compiling threw: SyntaxError: invalid assignment left-hand side

tryItOut 212

tryItOut 213

tryItOut 214

tryItOut 215
Compiling threw: SyntaxError: missing ) in parenthetical

tryItOut 216

tryItOut 217

tryItOut 218
Compiling threw: SyntaxError: syntax error

tryItOut 219
Compiling threw: SyntaxError: missing ) after condition

tryItOut 220

tryItOut 221
Compiling threw: SyntaxError: missing ) in parenthetical

tryItOut 222

tryItOut 223
Compiling threw: SyntaxError: invalid break

tryItOut 224

tryItOut 225
Compiling threw: TypeError: redeclaration of const __noSuchMethod__

tryItOut 226

tryItOut 227
It's an iterator!
Iterating succeeded, iterCount == 1

tryItOut 228

tryItOut 229

tryItOut 230
Compiling threw: SyntaxError: missing : after property id

tryItOut 231
Compiling threw: SyntaxError: syntax error

tryItOut 232
Compiling threw: SyntaxError: syntax error

tryItOut 233
Compiling threw: SyntaxError: syntax error

tryItOut 234
Compiling threw: SyntaxError: invalid assignment left-hand side

tryItOut 235

tryItOut 236
Compiling threw: SyntaxError: syntax error

tryItOut 237

tryItOut 238

tryItOut 239
Compiling threw: SyntaxError: syntax error

tryItOut 240

tryItOut 241
Compiling threw: SyntaxError: invalid assignment left-hand side

tryItOut 242

tryItOut 243

tryItOut 244

tryItOut 245

tryItOut 246
Compiling threw: SyntaxError: unterminated comment

tryItOut 247
Running threw: ReferenceError: z1 is not defined

tryItOut 248

tryItOut 249
Compiling threw: SyntaxError: duplicate label

tryItOut 250
It's an iterator!
Iterating succeeded, iterCount == 1

tryItOut 251

tryItOut 252
Compiling threw: SyntaxError: syntax error

tryItOut 253

tryItOut 254

tryItOut 255

tryItOut 256

tryItOut 257
Compiling threw: SyntaxError: invalid break

tryItOut 258

tryItOut 259
Compiling threw: SyntaxError: missing name after . operator

tryItOut 260

tryItOut 261

tryItOut 262
Compiling threw: SyntaxError: missing variable name

tryItOut 263
It's an iterator!
Iterating succeeded, iterCount == 1

tryItOut 264

tryItOut 265

tryItOut 266

tryItOut 267
Running threw: ReferenceError: z2 is not defined

tryItOut 268
Compiling threw: SyntaxError: invalid assignment left-hand side

tryItOut 269
It's an iterator!
Iterating succeeded, iterCount == 1

tryItOut 270
It's an iterator!
Iterating succeeded, iterCount == 1

tryItOut 271

tryItOut 272
Compiling threw: SyntaxError: syntax error

tryItOut 273

tryItOut 274

tryItOut 275

tryItOut 276
Running threw: TypeError: <x/>.yoyo is not a function

tryItOut 277

tryItOut 278

tryItOut 279

tryItOut 280

tryItOut 281

tryItOut 282

tryItOut 283
Compiling threw: SyntaxError: syntax error

tryItOut 284
Compiling threw: SyntaxError: invalid assignment left-hand side

tryItOut 285
Compiling threw: TypeError: redeclaration of variable __iterator__

tryItOut 286

tryItOut 287
Compiling threw: SyntaxError: label not found

tryItOut 288

tryItOut 289

tryItOut 290

tryItOut 291

tryItOut 292

tryItOut 293

tryItOut 294

tryItOut 295

tryItOut 296
Compiling threw: SyntaxError: duplicate label

tryItOut 297

tryItOut 298
Compiling threw: SyntaxError: missing ) in parenthetical

tryItOut 299
Running threw: TypeError: false is not a function

tryItOut 300
Compiling threw: SyntaxError: missing { before function body

tryItOut 301
Compiling threw: SyntaxError: missing ) in parenthetical

tryItOut 302

tryItOut 303
It's an iterator!
Iterating succeeded, iterCount == 1

tryItOut 304

tryItOut 305

tryItOut 306
Compiling threw: SyntaxError: invalid continue

tryItOut 307
Running threw: 

tryItOut 308

tryItOut 309
Compiling threw: SyntaxError: syntax error

tryItOut 310
Running threw: true

tryItOut 311

tryItOut 312
Compiling threw: SyntaxError: missing name in export statement

tryItOut 313

tryItOut 314
Running threw: TypeError: invalid 'instanceof' operand ""

tryItOut 315
Running threw: ReferenceError: z1 is not defined

tryItOut 316
It's an iterator!
Iterating succeeded, iterCount == 4

tryItOut 317

tryItOut 318

tryItOut 319

tryItOut 320

tryItOut 321
Compiling threw: SyntaxError: missing ; after for-loop condition

tryItOut 322
Compiling threw: SyntaxError: invalid assignment left-hand side

tryItOut 323

tryItOut 324

tryItOut 325
Running threw: <y>
  <z/>
</y>

tryItOut 326

tryItOut 327

tryItOut 328

tryItOut 329
Compiling threw: SyntaxError: syntax error

tryItOut 330
Compiling threw: SyntaxError: missing ; before statement

tryItOut 331

tryItOut 332
Running threw: TypeError: __parent__ has no properties

tryItOut 333
Compiling threw: SyntaxError: missing ] after element list

tryItOut 334
Compiling threw: SyntaxError: syntax error

tryItOut 335
It's an iterator!
Iterating succeeded, iterCount == 0

tryItOut 336

tryItOut 337

tryItOut 338
Running threw: ReferenceError: z1 is not defined

tryItOut 339

tryItOut 340

tryItOut 341

tryItOut 342

tryItOut 343
Running threw: true

tryItOut 344

tryItOut 345
Compiling threw: SyntaxError: syntax error

tryItOut 346

tryItOut 347

tryItOut 348
Compiling threw: SyntaxError: syntax error

tryItOut 349
Compiling threw: SyntaxError: missing variable name

tryItOut 350
Compiling threw: SyntaxError: syntax error

tryItOut 351

tryItOut 352
Running threw: <y>
  <z/>
</y>

tryItOut 353

tryItOut 354
Running threw: ReferenceError: z2 is not defined

tryItOut 355
Compiling threw: SyntaxError: missing ] after element list

tryItOut 356

tryItOut 357
Compiling threw: SyntaxError: missing while after do-loop body

tryItOut 358
Compiling threw: SyntaxError: label not found

tryItOut 359

tryItOut 360

tryItOut 361

tryItOut 362

tryItOut 363

tryItOut 364
Running threw: TypeError: <y>
  <z/>
</y> is not a function

tryItOut 365

tryItOut 366
Compiling threw: SyntaxError: missing variable name

tryItOut 367

tryItOut 368

tryItOut 369
Compiling threw: SyntaxError: missing ) in parenthetical

tryItOut 370
Compiling threw: SyntaxError: label not found

tryItOut 371

tryItOut 372
Compiling threw: SyntaxError: label not found

tryItOut 373

tryItOut 374
It's an iterator!
Iterating succeeded, iterCount == 0

tryItOut 375

tryItOut 376

tryItOut 377

tryItOut 378

tryItOut 379
Compiling threw: SyntaxError: missing ( before let head

tryItOut 380
Running threw: TypeError: p.z = "" is not a function

tryItOut 381
It's an iterator!
Iterating succeeded, iterCount == 0

tryItOut 382
It's an iterator!
Iterating threw!
Iterating threw: TypeError: null has no properties

tryItOut 383

tryItOut 384
Compiling threw: SyntaxError: syntax error

tryItOut 385
Compiling threw: SyntaxError: missing ] after element list

tryItOut 386
Compiling threw: SyntaxError: missing ) in parenthetical

tryItOut 387
Compiling threw: SyntaxError: syntax error

tryItOut 388

tryItOut 389
Compiling threw: SyntaxError: invalid break

tryItOut 390

tryItOut 391
Compiling threw: SyntaxError: syntax error

tryItOut 392
Running threw: Error: invalid sharp variable use #1#

tryItOut 393

tryItOut 394

tryItOut 395

tryItOut 396
Running threw: 

tryItOut 397
Compiling threw: SyntaxError: invalid assignment left-hand side

tryItOut 398
Running threw: TypeError: ({a1:1}) is not a function

tryItOut 399
Compiling threw: SyntaxError: invalid assignment left-hand side

tryItOut 400

tryItOut 401
Compiling threw: SyntaxError: syntax error

tryItOut 402

tryItOut 403

tryItOut 404
Compiling threw: SyntaxError: label not found

tryItOut 405

tryItOut 406

tryItOut 407

tryItOut 408
Compiling threw: SyntaxError: missing ( before let head

tryItOut 409

tryItOut 410

tryItOut 411

tryItOut 412
Compiling threw: SyntaxError: missing : after property id

tryItOut 413
Compiling threw: SyntaxError: invalid assignment left-hand side

tryItOut 414

tryItOut 415
Compiling threw: SyntaxError: missing ] in index expression

tryItOut 416

tryItOut 417

tryItOut 418

tryItOut 419
It's an iterator!
Iterating succeeded, iterCount == 1

tryItOut 420
Compiling threw: SyntaxError: missing ; before statement

tryItOut 421
Running threw: TypeError: undefined is not a function

tryItOut 422
Compiling threw: SyntaxError: missing ) in parenthetical

tryItOut 423

tryItOut 424

tryItOut 425

tryItOut 426

tryItOut 427

tryItOut 428
Compiling threw: SyntaxError: invalid assignment left-hand side

tryItOut 429

tryItOut 430
Compiling threw: SyntaxError: label not found

tryItOut 431
Compiling threw: SyntaxError: missing ; before statement

tryItOut 432

tryItOut 433
Compiling threw: SyntaxError: syntax error

tryItOut 434

tryItOut 435
Compiling threw: SyntaxError: syntax error

tryItOut 436
Compiling threw: SyntaxError: syntax error

tryItOut 437
Running threw: TypeError: prototype has no properties

tryItOut 438
Compiling threw: SyntaxError: invalid assignment left-hand side

tryItOut 439
Compiling threw: SyntaxError: invalid break

tryItOut 440
It's an iterator!
Iterating succeeded, iterCount == 0

tryItOut 441

tryItOut 442
Compiling threw: SyntaxError: syntax error

tryItOut 443
Compiling threw: SyntaxError: invalid break

tryItOut 444
Compiling threw: SyntaxError: invalid assignment left-hand side

tryItOut 445

tryItOut 446

tryItOut 447
Compiling threw: SyntaxError: syntax error

tryItOut 448
Compiling threw: SyntaxError: invalid assignment left-hand side

tryItOut 449
Compiling threw: SyntaxError: syntax error

tryItOut 450

tryItOut 451

tryItOut 452

tryItOut 453
Compiling threw: SyntaxError: invalid assignment left-hand side

tryItOut 454
Compiling threw: SyntaxError: missing ; after for-loop condition

tryItOut 455
Compiling threw: SyntaxError: syntax error

tryItOut 456

tryItOut 457
Running threw: ReferenceError: z1 is not defined

tryItOut 458

tryItOut 459
Compiling threw: SyntaxError: syntax error

tryItOut 460

tryItOut 461
Compiling threw: SyntaxError: missing ] after element list

tryItOut 462

tryItOut 463

tryItOut 464

tryItOut 465
Compiling threw: SyntaxError: missing ) after condition

tryItOut 466

tryItOut 467

tryItOut 468
Compiling threw: SyntaxError: syntax error

tryItOut 469

tryItOut 470

tryItOut 471

tryItOut 472
It's an iterator!
Iterating succeeded, iterCount == 0

tryItOut 473
Running threw: 

tryItOut 474
Compiling threw: SyntaxError: invalid continue

tryItOut 475

tryItOut 476

tryItOut 477
Running threw: ReferenceError: each is not defined

tryItOut 478
Compiling threw: SyntaxError: label not found

tryItOut 479
Compiling threw: SyntaxError: missing ] after element list

tryItOut 480
Compiling threw: SyntaxError: syntax error

tryItOut 481

tryItOut 482

tryItOut 483
Compiling threw: SyntaxError: syntax error

tryItOut 484
Compiling threw: SyntaxError: label not found

tryItOut 485

tryItOut 486
Compiling threw: SyntaxError: invalid break

tryItOut 487
Compiling threw: SyntaxError: missing variable name

tryItOut 488

tryItOut 489
Compiling threw: SyntaxError: missing variable name

tryItOut 490
Compiling threw: SyntaxError: missing variable name

tryItOut 491
Compiling threw: SyntaxError: label not found

tryItOut 492

tryItOut 493

tryItOut 494
Compiling threw: SyntaxError: missing ) in parenthetical

tryItOut 495
Running threw: TypeError: redeclaration of function __proto__

tryItOut 496

tryItOut 497
Compiling threw: SyntaxError: syntax error

tryItOut 498
Compiling threw: SyntaxError: invalid assignment left-hand side

tryItOut 499

tryItOut 500

tryItOut 501

tryItOut 502
Compiling threw: SyntaxError: syntax error

tryItOut 503

tryItOut 504

tryItOut 505

tryItOut 506

tryItOut 507
Running threw: false

tryItOut 508
Running threw: ReferenceError: x is not defined

tryItOut 509

tryItOut 510
Compiling threw: SyntaxError: missing name in export statement

tryItOut 511
uneval returned the string: []

tryItOut 512

tryItOut 513

tryItOut 514
Compiling threw: SyntaxError: invalid increment operand

tryItOut 515

tryItOut 516
Compiling threw: SyntaxError: missing ) in parenthetical

tryItOut 517

tryItOut 518
Compiling threw: SyntaxError: invalid break

tryItOut 519

tryItOut 520

tryItOut 521

tryItOut 522

tryItOut 523

tryItOut 524
Compiling threw: SyntaxError: invalid assignment left-hand side

tryItOut 525
Compiling threw: SyntaxError: syntax error

tryItOut 526
Compiling threw: SyntaxError: invalid assignment left-hand side

tryItOut 527

tryItOut 528

tryItOut 529

tryItOut 530

tryItOut 531

tryItOut 532
Compiling threw: SyntaxError: invalid break

tryItOut 533
Compiling threw: SyntaxError: missing ; before statement

tryItOut 534

tryItOut 535
Compiling threw: SyntaxError: label not found

tryItOut 536
Compiling threw: SyntaxError: syntax error

tryItOut 537
Compiling threw: SyntaxError: invalid break

tryItOut 538

tryItOut 539

tryItOut 540
Compiling threw: TypeError: redeclaration of variable __count__

tryItOut 541

tryItOut 542

tryItOut 543

tryItOut 544

tryItOut 545

tryItOut 546
Compiling threw: SyntaxError: missing name after . operator

tryItOut 547

tryItOut 548

tryItOut 549

tryItOut 550

tryItOut 551

tryItOut 552

tryItOut 553

tryItOut 554
It's an iterator!
Iterating succeeded, iterCount == 1

tryItOut 555
Compiling threw: TypeError: redeclaration of const __proto__

tryItOut 556
Running threw: TypeError: false.@foo has no properties

tryItOut 557

tryItOut 558
Compiling threw: SyntaxError: label not found

tryItOut 559

tryItOut 560

tryItOut 561
Compiling threw: SyntaxError: missing ) in parenthetical

tryItOut 562

tryItOut 563
Running threw: ReferenceError: z2 is not defined

tryItOut 564

tryItOut 565
It's an iterator!
Iterating threw!
Iterating threw: ReferenceError: z1 is not defined

tryItOut 566
Compiling threw: SyntaxError: missing ) in parenthetical

tryItOut 567

tryItOut 568
Compiling threw: SyntaxError: label not found

tryItOut 569

tryItOut 570
Compiling threw: SyntaxError: invalid assignment left-hand side

tryItOut 571
Compiling threw: SyntaxError: syntax error

tryItOut 572

tryItOut 573

tryItOut 574

tryItOut 575
Compiling threw: SyntaxError: missing name after . operator

tryItOut 576

tryItOut 577

tryItOut 578
Compiling threw: SyntaxError: syntax error

tryItOut 579
It's an iterator!
Iterating succeeded, iterCount == 1

tryItOut 580
Compiling threw: SyntaxError: syntax error

tryItOut 581
It's an iterator!
Iterating succeeded, iterCount == 1

tryItOut 582
Compiling threw: SyntaxError: missing ) after condition

tryItOut 583
Compiling threw: SyntaxError: invalid assignment left-hand side

tryItOut 584

tryItOut 585
Compiling threw: SyntaxError: invalid assignment left-hand side

tryItOut 586
Compiling threw: SyntaxError: missing ; before statement

tryItOut 587

tryItOut 588
It's an iterator!
Iterating succeeded, iterCount == 1

tryItOut 589
Compiling threw: SyntaxError: syntax error

tryItOut 590

tryItOut 591

tryItOut 592
Compiling threw: SyntaxError: missing ; before statement

tryItOut 593

tryItOut 594
Compiling threw: SyntaxError: invalid decrement operand

tryItOut 595
Compiling threw: SyntaxError: invalid assignment left-hand side

tryItOut 596
Compiling threw: SyntaxError: missing ) in parenthetical

tryItOut 597

tryItOut 598
Compiling threw: SyntaxError: invalid assignment left-hand side

tryItOut 599

tryItOut 600

tryItOut 601

tryItOut 602
Compiling threw: SyntaxError: missing ( before let head

tryItOut 603
Running threw: TypeError: undefined has no properties

tryItOut 604
Compiling threw: SyntaxError: missing name in export statement

tryItOut 605

tryItOut 606
Running threw: TypeError: redeclaration of function __proto__

tryItOut 607

tryItOut 608

tryItOut 609
Compiling threw: SyntaxError: missing ) in parenthetical

tryItOut 610
Compiling threw: SyntaxError: invalid destructuring assignment operator

tryItOut 611

tryItOut 612
Compiling threw: SyntaxError: syntax error

tryItOut 613

tryItOut 614

tryItOut 615
Compiling threw: SyntaxError: invalid default XML namespace

tryItOut 616

tryItOut 617

tryItOut 618

tryItOut 619

tryItOut 620
Compiling threw: SyntaxError: invalid assignment left-hand side

tryItOut 621
Compiling threw: SyntaxError: invalid continue

tryItOut 622

tryItOut 623
Running threw: ReferenceError: z1 is not defined

tryItOut 624
It's an iterator!
Iterating threw!
Iterating threw: TypeError: null has no properties

tryItOut 625

tryItOut 626

tryItOut 627

tryItOut 628

tryItOut 629

tryItOut 630
Compiling threw: SyntaxError: syntax error

tryItOut 631
Compiling threw: SyntaxError: label not found

tryItOut 632

tryItOut 633

tryItOut 634

tryItOut 635

tryItOut 636

tryItOut 637
Compiling threw: SyntaxError: syntax error

tryItOut 638

tryItOut 639
It's an iterator!
Iterating threw!
Iterating threw: Error: invalid sharp variable use #1#

tryItOut 640
Compiling threw: SyntaxError: invalid assignment left-hand side

tryItOut 641

tryItOut 642
Compiling threw: TypeError: redeclaration of const __parent__

tryItOut 643
It's an iterator!
Iterating succeeded, iterCount == 1

tryItOut 644

tryItOut 645
Compiling threw: SyntaxError: missing ) in parenthetical

tryItOut 646

tryItOut 647

tryItOut 648
Compiling threw: SyntaxError: syntax error

tryItOut 649

tryItOut 650

tryItOut 651

tryItOut 652
Compiling threw: TypeError: redeclaration of variable prop

tryItOut 653
Running threw: TypeError: #1={a:#1#} is not a constructor

tryItOut 654

tryItOut 655

tryItOut 656
Compiling threw: SyntaxError: missing name after . operator

tryItOut 657
Compiling threw: SyntaxError: syntax error

tryItOut 658

tryItOut 659
Compiling threw: SyntaxError: missing ] after element list

tryItOut 660
Compiling threw: SyntaxError: syntax error

tryItOut 661
Compiling threw: SyntaxError: syntax error

tryItOut 662

tryItOut 663
Running threw: 

tryItOut 664

tryItOut 665
Compiling threw: SyntaxError: invalid assignment left-hand side

tryItOut 666

tryItOut 667
Compiling threw: SyntaxError: missing ) in parenthetical

tryItOut 668
Compiling threw: SyntaxError: syntax error

tryItOut 669
Compiling threw: SyntaxError: missing : after property id

tryItOut 670
Compiling threw: SyntaxError: missing ) in parenthetical

tryItOut 671

tryItOut 672

tryItOut 673
Running threw: TypeError: <x/> is not a function

tryItOut 674
Compiling threw: SyntaxError: missing ) after let head

tryItOut 675
Compiling threw: SyntaxError: invalid continue

tryItOut 676

tryItOut 677

tryItOut 678

tryItOut 679
Compiling threw: SyntaxError: invalid continue

tryItOut 680

tryItOut 681
Compiling threw: SyntaxError: invalid continue

tryItOut 682
Compiling threw: SyntaxError: syntax error

tryItOut 683

tryItOut 684
Compiling threw: SyntaxError: syntax error

tryItOut 685
Compiling threw: SyntaxError: invalid assignment left-hand side

tryItOut 686

tryItOut 687
Compiling threw: SyntaxError: label not found

tryItOut 688
Compiling threw: SyntaxError: syntax error

tryItOut 689
Compiling threw: SyntaxError: invalid destructuring assignment operator

tryItOut 690

tryItOut 691

tryItOut 692
Compiling threw: SyntaxError: syntax error

tryItOut 693
Running threw: TypeError: false is not a function

tryItOut 694
It's an iterator!
Iterating succeeded, iterCount == 1

tryItOut 695
Compiling threw: SyntaxError: missing ) in parenthetical

tryItOut 696
Compiling threw: SyntaxError: syntax error

tryItOut 697
It's an iterator!
Iterating succeeded, iterCount == 1

tryItOut 698
Running threw: TypeError: new "fafafa".replace(/a/g, (new Function("var __parent__;"))) is not a function

tryItOut 699
Running threw: TypeError: arguments[0] has no properties

tryItOut 700
It's an iterator!
Iterating succeeded, iterCount == 0

tryItOut 701
Compiling threw: SyntaxError: syntax error

tryItOut 702
Compiling threw: SyntaxError: invalid flag after regular expression

tryItOut 703

tryItOut 704
Compiling threw: SyntaxError: missing { before function body

tryItOut 705

tryItOut 706

tryItOut 707
Running threw: SyntaxError: invalid assignment left-hand side

tryItOut 708

tryItOut 709
Compiling threw: SyntaxError: invalid assignment left-hand side

tryItOut 710

tryItOut 711
Compiling threw: SyntaxError: label not found

tryItOut 712
Running threw: /x/

tryItOut 713
Running threw: TypeError: [, ].yoyo is not a function

tryItOut 714
Compiling threw: SyntaxError: invalid assignment left-hand side

tryItOut 715
Compiling threw: SyntaxError: syntax error

tryItOut 716

tryItOut 717
Compiling threw: SyntaxError: invalid destructuring assignment operator

tryItOut 718

tryItOut 719
Compiling threw: SyntaxError: missing ; before statement

tryItOut 720
Compiling threw: SyntaxError: syntax error

tryItOut 721

tryItOut 722

tryItOut 723
Compiling threw: SyntaxError: syntax error

tryItOut 724
Compiling threw: SyntaxError: label not found

tryItOut 725
Compiling threw: SyntaxError: label not found

tryItOut 726

tryItOut 727
Compiling threw: SyntaxError: invalid assignment left-hand side

tryItOut 728

tryItOut 729

tryItOut 730

tryItOut 731

tryItOut 732
Compiling threw: SyntaxError: syntax error

tryItOut 733
Compiling threw: SyntaxError: invalid assignment left-hand side

tryItOut 734
Compiling threw: SyntaxError: missing } after property list

tryItOut 735
Running threw: TypeError: __parent__ has no properties

tryItOut 736
Compiling threw: SyntaxError: syntax error

tryItOut 737

tryItOut 738

tryItOut 739
Running threw: 

tryItOut 740
Compiling threw: SyntaxError: syntax error

tryItOut 741

tryItOut 742

tryItOut 743
Compiling threw: SyntaxError: syntax error

tryItOut 744
Compiling threw: SyntaxError: syntax error

tryItOut 745
Compiling threw: SyntaxError: missing variable name

tryItOut 746

tryItOut 747

tryItOut 748
Compiling threw: SyntaxError: syntax error

tryItOut 749
Compiling threw: SyntaxError: invalid assignment left-hand side

tryItOut 750

tryItOut 751
Compiling threw: SyntaxError: invalid assignment left-hand side

tryItOut 752
It's an iterator!
Iterating succeeded, iterCount == 1

tryItOut 753
It's an iterator!
Iterating succeeded, iterCount == 0

tryItOut 754
Running threw: SyntaxError: invalid assignment left-hand side

tryItOut 755

tryItOut 756

tryItOut 757

tryItOut 758
It's an iterator!
Iterating succeeded, iterCount == 1

tryItOut 759

tryItOut 760
Compiling threw: SyntaxError: missing ; before statement

tryItOut 761
Running threw: ReferenceError: z2 is not defined

tryItOut 762
Compiling threw: SyntaxError: label not found

tryItOut 763

tryItOut 764
Compiling threw: SyntaxError: syntax error

tryItOut 765
Compiling threw: SyntaxError: missing ; before statement

tryItOut 766
Compiling threw: TypeError: redeclaration of variable __proto__

tryItOut 767

tryItOut 768
Compiling threw: SyntaxError: missing } after property list

tryItOut 769
Compiling threw: TypeError: generator function anonymous returns a value

tryItOut 770

tryItOut 771
Compiling threw: SyntaxError: invalid continue

tryItOut 772
Compiling threw: SyntaxError: syntax error

tryItOut 773
Compiling threw: SyntaxError: syntax error

tryItOut 774

tryItOut 775

tryItOut 776

tryItOut 777

tryItOut 778
Compiling threw: SyntaxError: invalid assignment left-hand side

tryItOut 779

tryItOut 780
It's an iterator!
Iterating succeeded, iterCount == 1

tryItOut 781

tryItOut 782

tryItOut 783
Compiling threw: TypeError: redeclaration of const __parent__

tryItOut 784

tryItOut 785

tryItOut 786
Compiling threw: SyntaxError: label not found

tryItOut 787

tryItOut 788
Running threw: TypeError: undefined is not a function

tryItOut 789

tryItOut 790
Running threw: TypeError: p.z = [, ] is not a function

tryItOut 791
It's an iterator!
Iterating succeeded, iterCount == 0

tryItOut 792
Compiling threw: SyntaxError: missing ) in parenthetical

tryItOut 793

tryItOut 794
Compiling threw: SyntaxError: invalid continue

tryItOut 795

tryItOut 796
Compiling threw: SyntaxError: syntax error

tryItOut 797
Compiling threw: SyntaxError: syntax error

tryItOut 798
Compiling threw: SyntaxError: syntax error

tryItOut 799
Compiling threw: SyntaxError: syntax error

tryItOut 800

tryItOut 801
Compiling threw: SyntaxError: invalid break

tryItOut 802

tryItOut 803

tryItOut 804
Compiling threw: SyntaxError: syntax error

tryItOut 805
Compiling threw: SyntaxError: syntax error

tryItOut 806
Compiling threw: SyntaxError: invalid destructuring assignment operator

tryItOut 807

tryItOut 808

tryItOut 809

tryItOut 810

tryItOut 811
Compiling threw: SyntaxError: missing ) in parenthetical

tryItOut 812
Running threw: function (id) {
    return id;
}

tryItOut 813

tryItOut 814
Compiling threw: SyntaxError: syntax error

tryItOut 815

tryItOut 816

tryItOut 817

tryItOut 818

tryItOut 819
Running threw: 

tryItOut 820

tryItOut 821

tryItOut 822

tryItOut 823
Compiling threw: SyntaxError: syntax error

tryItOut 824

tryItOut 825

tryItOut 826

tryItOut 827
Compiling threw: TypeError: redeclaration of const __parent__

tryItOut 828

tryItOut 829

tryItOut 830
It's an iterator!
Iterating succeeded, iterCount == 1

tryItOut 831

tryItOut 832
Running threw: TypeError: arguments[0] has no properties

tryItOut 833
Compiling threw: SyntaxError: invalid assignment left-hand side

tryItOut 834

tryItOut 835
Compiling threw: SyntaxError: missing ) in parenthetical

tryItOut 836
Compiling threw: SyntaxError: missing variable name

tryItOut 837

tryItOut 838
Running threw: ReferenceError: z1 is not defined

tryItOut 839
Compiling threw: SyntaxError: invalid assignment left-hand side

tryItOut 840

tryItOut 841
Compiling threw: SyntaxError: invalid sharp variable definition

tryItOut 842
Running threw: SyntaxError: invalid regular expression flag /

tryItOut 843
Compiling threw: SyntaxError: syntax error

tryItOut 844

tryItOut 845

tryItOut 846
Compiling threw: SyntaxError: missing variable name

tryItOut 847
Compiling threw: TypeError: redeclaration of const constructor

tryItOut 848
Running threw: ReferenceError: z1 is not defined

tryItOut 849
uneval returned the string: (new Error("", "run.js", 434))
Skipping re-eval test

tryItOut 850

tryItOut 851
Running threw: Error: invalid sharp variable use #1#

tryItOut 852
Compiling threw: SyntaxError: syntax error

tryItOut 853
Compiling threw: SyntaxError: missing ) in parenthetical

tryItOut 854
Compiling threw: SyntaxError: syntax error

tryItOut 855
Compiling threw: SyntaxError: syntax error

tryItOut 856

tryItOut 857
Compiling threw: SyntaxError: invalid assignment left-hand side

tryItOut 858
Compiling threw: SyntaxError: label not found

tryItOut 859
Compiling threw: SyntaxError: label not found

tryItOut 860
Compiling threw: SyntaxError: syntax error

tryItOut 861

tryItOut 862
Compiling threw: SyntaxError: syntax error

tryItOut 863
Compiling threw: SyntaxError: label not found

tryItOut 864

tryItOut 865

tryItOut 866

tryItOut 867

tryItOut 868

tryItOut 869

tryItOut 870

tryItOut 871

tryItOut 872
Compiling threw: SyntaxError: syntax error

tryItOut 873

tryItOut 874

tryItOut 875

tryItOut 876

tryItOut 877

tryItOut 878

tryItOut 879
Compiling threw: SyntaxError: invalid assignment left-hand side

tryItOut 880
Compiling threw: SyntaxError: syntax error

tryItOut 881
Compiling threw: SyntaxError: invalid assignment left-hand side

tryItOut 882

tryItOut 883

tryItOut 884

tryItOut 885

tryItOut 886
Compiling threw: SyntaxError: syntax error

tryItOut 887
Running threw: ReferenceError: z1 is not defined

tryItOut 888
Running threw: [object Object]

tryItOut 889
Compiling threw: SyntaxError: missing while after do-loop body

tryItOut 890

tryItOut 891
Compiling threw: SyntaxError: missing } after property list

tryItOut 892
It's an iterator!
Iterating threw!
Iterating threw: SyntaxError: label not found

tryItOut 893
Compiling threw: SyntaxError: missing ) in parenthetical

tryItOut 894

tryItOut 895
Compiling threw: SyntaxError: missing ] after element list

tryItOut 896
Running threw: 

tryItOut 897
Compiling threw: SyntaxError: missing formal parameter

tryItOut 898
Running threw: TypeError: arguments[0] has no properties

tryItOut 899
Running threw: /x/g

tryItOut 900
Compiling threw: SyntaxError: label not found

tryItOut 901

tryItOut 902

tryItOut 903
Running threw: false

tryItOut 904
Running threw: /x/g

tryItOut 905
It's an iterator!
Iterating succeeded, iterCount == 1

tryItOut 906
Compiling threw: SyntaxError: invalid sharp variable definition

tryItOut 907
Compiling threw: TypeError: generator function anonymous returns a value

tryItOut 908
Compiling threw: TypeError: generator function anonymous returns a value

tryItOut 909

tryItOut 910
Running threw: 

tryItOut 911

tryItOut 912

tryItOut 913

tryItOut 914

tryItOut 915

tryItOut 916
Compiling threw: TypeError: generator function anonymous returns a value

tryItOut 917
Compiling threw: SyntaxError: invalid continue

tryItOut 918
It's an iterator!
Iterating threw!
Iterating threw: TypeError: p.z = {a1:1} is not a function

tryItOut 919
Compiling threw: SyntaxError: missing ) in parenthetical

tryItOut 920

tryItOut 921

tryItOut 922
Compiling threw: SyntaxError: missing ) after condition

tryItOut 923
Compiling threw: SyntaxError: missing variable name

tryItOut 924
Compiling threw: SyntaxError: syntax error

tryItOut 925
Compiling threw: SyntaxError: missing ( before formal parameters

tryItOut 926
Compiling threw: SyntaxError: syntax error

tryItOut 927
Compiling threw: SyntaxError: syntax error

tryItOut 928
Compiling threw: SyntaxError: syntax error

tryItOut 929
Compiling threw: SyntaxError: missing ) in parenthetical

tryItOut 930

tryItOut 931
Running threw: ReferenceError: reference to undefined XML name @mozilla.org/js/function::prototype

tryItOut 932

tryItOut 933

tryItOut 934
Compiling threw: SyntaxError: invalid sharp variable definition

tryItOut 935

tryItOut 936

tryItOut 937

tryItOut 938
Running threw: TypeError: __noSuchMethod__ has no properties

tryItOut 939
Running threw: SyntaxError: invalid assignment left-hand side

tryItOut 940

tryItOut 941

tryItOut 942
Compiling threw: SyntaxError: missing ) in parenthetical

tryItOut 943
Compiling threw: SyntaxError: missing variable name

tryItOut 944
Compiling threw: SyntaxError: missing { before function body

tryItOut 945

tryItOut 946
Compiling threw: SyntaxError: missing ) in parenthetical

tryItOut 947
Running threw: ReferenceError: z2 is not defined

tryItOut 948

tryItOut 949
Compiling threw: SyntaxError: invalid assignment left-hand side

tryItOut 950

tryItOut 951

tryItOut 952
Compiling threw: SyntaxError: syntax error

tryItOut 953

tryItOut 954

tryItOut 955

tryItOut 956
Compiling threw: SyntaxError: invalid destructuring assignment operator

tryItOut 957

tryItOut 958
Compiling threw: SyntaxError: syntax error

tryItOut 959
Compiling threw: SyntaxError: missing variable name

tryItOut 960
Compiling threw: SyntaxError: missing ] after element list

tryItOut 961
Running threw: /x/

tryItOut 962

tryItOut 963
Compiling threw: TypeError: generator function anonymous returns a value

tryItOut 964
Running threw: 

tryItOut 965
Running threw: ReferenceError: z1 is not defined

tryItOut 966

tryItOut 967
Compiling threw: SyntaxError: syntax error

tryItOut 968

tryItOut 969
Compiling threw: SyntaxError: missing ) in parenthetical

tryItOut 970

tryItOut 971
Compiling threw: SyntaxError: missing while after do-loop body

tryItOut 972
Compiling threw: SyntaxError: missing ] after element list

tryItOut 973
Running threw: 

tryItOut 974

tryItOut 975

tryItOut 976
Compiling threw: SyntaxError: label not found

tryItOut 977
It's an iterator!
Iterating succeeded, iterCount == 1

tryItOut 978
Running threw: 

tryItOut 979

tryItOut 980

tryItOut 981

tryItOut 982

tryItOut 983
Compiling threw: SyntaxError: syntax error

tryItOut 984
Running threw: SyntaxError: invalid break

tryItOut 985
Compiling threw: SyntaxError: missing while after do-loop body

tryItOut 986
Compiling threw: SyntaxError: missing variable name

tryItOut 987
Compiling threw: SyntaxError: missing while after do-loop body

tryItOut 988

tryItOut 989

tryItOut 990
Compiling threw: SyntaxError: label not found

tryItOut 991
Running threw: ReferenceError: z1 is not defined

tryItOut 992
Compiling threw: SyntaxError: invalid continue

tryItOut 993

tryItOut 994

tryItOut 995
It's an iterator!
Iterating succeeded, iterCount == 0

tryItOut 996
Compiling threw: SyntaxError: syntax error

tryItOut 997
Running threw: TypeError: this.__defineGetter__ is not a function

tryItOut 998
Compiling threw: SyntaxError: syntax error

tryItOut 999
uneval returned the string: [<x/>]

tryItOut 1000
uneval returned the string: [undefined]

ALL OK

Script done on Sat 04 May 2013 07:29:21 AM PDT
