Script started on Sat 04 May 2013 07:32:59 AM PDT
***
Targeting SpiderMonkey / Gecko.

tryItOut 1

tryItOut 2
Compiling threw: SyntaxError: invalid for/in left-hand side

tryItOut 3
Compiling threw: SyntaxError: syntax error

tryItOut 4
Compiling threw: SyntaxError: invalid for/in left-hand side

tryItOut 5
Compiling threw: SyntaxError: missing variable name

tryItOut 6
Compiling threw: SyntaxError: invalid for/in left-hand side

tryItOut 7

tryItOut 8
Compiling threw: SyntaxError: syntax error

tryItOut 9
Compiling threw: TypeError: generator function anonymous returns a value

tryItOut 10
Compiling threw: TypeError: generator function anonymous returns a value

tryItOut 11
Compiling threw: SyntaxError: invalid for/in left-hand side

tryItOut 12
Compiling threw: SyntaxError: missing ; before statement

tryItOut 13
Running threw: ReferenceError: reference to undefined XML name *::*

tryItOut 14
Compiling threw: SyntaxError: missing ; before statement

tryItOut 15

tryItOut 16
Compiling threw: SyntaxError: syntax error

tryItOut 17
Compiling threw: SyntaxError: syntax error

tryItOut 18

tryItOut 19

tryItOut 20
It's an iterator!
Iterating succeeded, iterCount == 1

tryItOut 21
Compiling threw: SyntaxError: syntax error

tryItOut 22

tryItOut 23

tryItOut 24
Compiling threw: SyntaxError: missing ; before statement

tryItOut 25

tryItOut 26
It's an iterator!
Iterating succeeded, iterCount == 0

tryItOut 27
It's an iterator!
Iterating succeeded, iterCount == 1

tryItOut 28
Running threw: ReferenceError: reference to undefined XML name *::*

tryItOut 29
It's an iterator!
Iterating succeeded, iterCount == 1

tryItOut 30
Compiling threw: TypeError: generator function anonymous returns a value

tryItOut 31
Compiling threw: TypeError: generator function anonymous returns a value

tryItOut 32

tryItOut 33
Compiling threw: SyntaxError: missing = in destructuring declaration

tryItOut 34
Running threw: ReferenceError: reference to undefined XML name *

tryItOut 35

tryItOut 36
Compiling threw: SyntaxError: duplicate label

tryItOut 37
Running threw: ReferenceError: prop is not defined

tryItOut 38
It's an iterator!
Iterating threw!
Iterating threw: TypeError: new (function (id) {return id;}).watch is not a function

tryItOut 39
It's an iterator!
Iterating threw!
Iterating threw: ReferenceError: reference to undefined XML name *::*

tryItOut 40
Compiling threw: SyntaxError: invalid assignment left-hand side

tryItOut 41
Compiling threw: SyntaxError: invalid for/in left-hand side

tryItOut 42

tryItOut 43
Compiling threw: SyntaxError: missing ) after for-loop control

tryItOut 44
Compiling threw: SyntaxError: missing ; after for-loop condition

tryItOut 45

tryItOut 46
Compiling threw: SyntaxError: yield expression must be parenthesized

tryItOut 47
Running threw: ReferenceError: reference to undefined XML name *

tryItOut 48
Running threw: TypeError: invalid XML namespace ccc

tryItOut 49
Compiling threw: SyntaxError: syntax error

tryItOut 50
It's an iterator!
Iterating threw!
Iterating threw: ReferenceError: reference to undefined XML name @foo

tryItOut 51
Compiling threw: SyntaxError: missing ) after condition

tryItOut 52
Compiling threw: SyntaxError: invalid for/in left-hand side

tryItOut 53
Compiling threw: SyntaxError: syntax error

tryItOut 54

tryItOut 55
Compiling threw: SyntaxError: duplicate label

tryItOut 56
Compiling threw: SyntaxError: missing { before function body

tryItOut 57
It's an iterator!
Iterating succeeded, iterCount == 1

tryItOut 58

tryItOut 59
Compiling threw: TypeError: generator function anonymous returns a value

tryItOut 60

tryItOut 61
Running threw: ReferenceError: reference to undefined XML name *

tryItOut 62

tryItOut 63
Compiling threw: TypeError: redeclaration of const __iterator__

tryItOut 64
It's an iterator!
Iterating succeeded, iterCount == 1

tryItOut 65
Compiling threw: SyntaxError: invalid assignment left-hand side

tryItOut 66
Compiling threw: SyntaxError: missing name in export statement

tryItOut 67
It's an iterator!
Iterating succeeded, iterCount == 1

tryItOut 68
It's an iterator!
Iterating threw!
Iterating threw: ReferenceError: reference to undefined XML name @foo

tryItOut 69

tryItOut 70
Compiling threw: SyntaxError: missing variable name

tryItOut 71

tryItOut 72
Compiling threw: SyntaxError: missing { before function body

tryItOut 73

tryItOut 74

tryItOut 75
Compiling threw: SyntaxError: syntax error

tryItOut 76
Compiling threw: SyntaxError: syntax error

tryItOut 77

tryItOut 78
Compiling threw: SyntaxError: invalid assignment left-hand side

tryItOut 79

tryItOut 80

tryItOut 81

tryItOut 82
Compiling threw: SyntaxError: invalid for/in left-hand side

tryItOut 83
Compiling threw: SyntaxError: syntax error

tryItOut 84
Compiling threw: SyntaxError: missing ; after for-loop initializer

tryItOut 85
Compiling threw: SyntaxError: syntax error

tryItOut 86

tryItOut 87
Running threw: ReferenceError: reference to undefined XML name @foo

tryItOut 88

tryItOut 89
Compiling threw: SyntaxError: missing ; before statement

tryItOut 90
Compiling threw: SyntaxError: missing ; before statement

tryItOut 91
Compiling threw: SyntaxError: missing ) in parenthetical

tryItOut 92

tryItOut 93

tryItOut 94
Compiling threw: SyntaxError: missing { before function body

tryItOut 95
It's an iterator!
Iterating succeeded, iterCount == 1

tryItOut 96
Compiling threw: SyntaxError: syntax error

tryItOut 97

tryItOut 98
Compiling threw: SyntaxError: missing ; before statement

tryItOut 99
It's an iterator!
Iterating threw!
Iterating threw: TypeError: this.zzz has no properties

tryItOut 100
Compiling threw: SyntaxError: syntax error

tryItOut 101
Compiling threw: SyntaxError: missing ; before statement

tryItOut 102
Running threw: ReferenceError: reference to undefined XML name @foo

tryItOut 103
Compiling threw: SyntaxError: invalid assignment left-hand side

tryItOut 104
Compiling threw: SyntaxError: syntax error

tryItOut 105
Compiling threw: SyntaxError: syntax error

tryItOut 106
Compiling threw: SyntaxError: missing ) after condition

tryItOut 107
Compiling threw: SyntaxError: missing ] in index expression

tryItOut 108
Compiling threw: SyntaxError: syntax error

tryItOut 109
It's an iterator!
Iterating threw!
Iterating threw: ReferenceError: reference to undefined XML name *::*

tryItOut 110
Compiling threw: SyntaxError: syntax error

tryItOut 111

tryItOut 112
It's an iterator!
Iterating threw!
Iterating threw: ReferenceError: __iterator__ is not defined

tryItOut 113
Compiling threw: SyntaxError: invalid default XML namespace

tryItOut 114
Compiling threw: SyntaxError: syntax error

tryItOut 115

tryItOut 116

tryItOut 117
Compiling threw: SyntaxError: missing { before function body

tryItOut 118
Compiling threw: SyntaxError: syntax error

tryItOut 119
Compiling threw: SyntaxError: missing variable name

tryItOut 120
Compiling threw: SyntaxError: missing ; before statement

tryItOut 121

tryItOut 122
Compiling threw: SyntaxError: missing variable name

tryItOut 123

tryItOut 124
It's an iterator!
Iterating succeeded, iterCount == 1

tryItOut 125
Compiling threw: SyntaxError: syntax error

tryItOut 126

tryItOut 127
Compiling threw: SyntaxError: missing ; before statement

tryItOut 128
Compiling threw: SyntaxError: invalid destructuring assignment operator

tryItOut 129
Compiling threw: SyntaxError: syntax error

tryItOut 130
Compiling threw: SyntaxError: syntax error

tryItOut 131
Compiling threw: SyntaxError: syntax error

tryItOut 132

tryItOut 133
Compiling threw: SyntaxError: missing } after let block

tryItOut 134
Compiling threw: SyntaxError: syntax error

tryItOut 135

tryItOut 136
Compiling threw: SyntaxError: missing ; before statement

tryItOut 137
Running threw: ReferenceError: reference to undefined XML name @foo

tryItOut 138
Compiling threw: SyntaxError: duplicate label

tryItOut 139
Compiling threw: SyntaxError: missing { before function body

tryItOut 140
It's an iterator!
Iterating succeeded, iterCount == 1

tryItOut 141

tryItOut 142

tryItOut 143
Compiling threw: SyntaxError: duplicate label

tryItOut 144

tryItOut 145
Compiling threw: SyntaxError: invalid assignment left-hand side

tryItOut 146
Running threw: ReferenceError: reference to undefined XML name *

tryItOut 147
Running threw: ReferenceError: reference to undefined XML name *::*

tryItOut 148
Compiling threw: TypeError: redeclaration of variable __count__

tryItOut 149
Compiling threw: SyntaxError: invalid assignment left-hand side

tryItOut 150

tryItOut 151
Compiling threw: TypeError: redeclaration of variable __iterator__

tryItOut 152
Running threw: ReferenceError: __parent__ is not defined

tryItOut 153
Running threw: ReferenceError: prop is not defined

tryItOut 154

tryItOut 155
Compiling threw: TypeError: generator function anonymous returns a value

tryItOut 156
Running threw: ReferenceError: __noSuchMethod__ is not defined

tryItOut 157
It's an iterator!
Iterating succeeded, iterCount == 0

tryItOut 158

tryItOut 159

tryItOut 160
Compiling threw: SyntaxError: invalid for/in left-hand side

tryItOut 161

tryItOut 162
Compiling threw: SyntaxError: missing { before function body

tryItOut 163
It's an iterator!
Iterating succeeded, iterCount == 1

tryItOut 164
It's an iterator!
Iterating threw!
Iterating threw: ReferenceError: reference to undefined XML name *::*

tryItOut 165
Compiling threw: SyntaxError: invalid for/in left-hand side

tryItOut 166
Running threw: ReferenceError: reference to undefined XML name *

tryItOut 167
Compiling threw: SyntaxError: syntax error

tryItOut 168

tryItOut 169
It's an iterator!
Iterating threw!
Iterating threw: ReferenceError: z2 is not defined

tryItOut 170
It's an iterator!
Iterating succeeded, iterCount == 1

tryItOut 171
Compiling threw: SyntaxError: invalid assignment left-hand side

tryItOut 172
It's an iterator!
Iterating threw!
Iterating threw: TypeError: null has no properties

tryItOut 173
Running threw: ReferenceError: prop is not defined

tryItOut 174
Compiling threw: TypeError: generator function anonymous returns a value

tryItOut 175

tryItOut 176
It's an iterator!
Iterating threw!
Iterating threw: TypeError: null has no properties

tryItOut 177
Compiling threw: TypeError: generator function anonymous returns a value

tryItOut 178
Compiling threw: SyntaxError: missing { before function body

tryItOut 179
Compiling threw: SyntaxError: missing ) after for-loop control

tryItOut 180
Compiling threw: SyntaxError: invalid default XML namespace

tryItOut 181

tryItOut 182
Compiling threw: SyntaxError: invalid assignment left-hand side

tryItOut 183

tryItOut 184
Compiling threw: SyntaxError: invalid assignment left-hand side

tryItOut 185

tryItOut 186

tryItOut 187

tryItOut 188

tryItOut 189

tryItOut 190

tryItOut 191
It's an iterator!
Iterating succeeded, iterCount == 1

tryItOut 192
Compiling threw: SyntaxError: missing formal parameter

tryItOut 193

tryItOut 194
Compiling threw: SyntaxError: syntax error

tryItOut 195
It's an iterator!
Iterating succeeded, iterCount == 1

tryItOut 196

tryItOut 197

tryItOut 198
It's an iterator!
Iterating threw!
Iterating threw: ReferenceError: reference to undefined XML name @foo

tryItOut 199

tryItOut 200
Running threw: ReferenceError: reference to undefined XML name *

tryItOut 201
Compiling threw: SyntaxError: invalid for/in left-hand side

tryItOut 202
Compiling threw: SyntaxError: syntax error

tryItOut 203

tryItOut 204
Running threw: ReferenceError: prop is not defined

tryItOut 205
Compiling threw: SyntaxError: invalid decrement operand

tryItOut 206
Running threw: ReferenceError: __iterator__ is not defined

tryItOut 207
Compiling threw: SyntaxError: missing ; before statement

tryItOut 208

tryItOut 209
Compiling threw: SyntaxError: syntax error

tryItOut 210

tryItOut 211

tryItOut 212
Compiling threw: SyntaxError: missing ) after condition

tryItOut 213
Running threw: ReferenceError: reference to undefined XML name *

tryItOut 214
Compiling threw: TypeError: redeclaration of const __count__

tryItOut 215
Compiling threw: SyntaxError: missing { before function body

tryItOut 216
Compiling threw: SyntaxError: syntax error

tryItOut 217
Compiling threw: SyntaxError: invalid for/in left-hand side

tryItOut 218
Compiling threw: SyntaxError: missing ) after condition

tryItOut 219
It's an iterator!
Iterating succeeded, iterCount == 1

tryItOut 220
It's an iterator!
Iterating succeeded, iterCount == 0

tryItOut 221
Compiling threw: SyntaxError: syntax error

tryItOut 222
Running threw: TypeError: this.zzz has no properties

tryItOut 223
Compiling threw: SyntaxError: syntax error

tryItOut 224
It's an iterator!
Iterating threw!
Iterating threw: ReferenceError: reference to undefined XML name @foo

tryItOut 225

tryItOut 226
Compiling threw: SyntaxError: missing name in export statement

tryItOut 227

tryItOut 228
Compiling threw: SyntaxError: syntax error

tryItOut 229
It's an iterator!
Iterating succeeded, iterCount == 1

tryItOut 230
Running threw: ReferenceError: constructor is not defined

tryItOut 231
Compiling threw: SyntaxError: missing ) in parenthetical

tryItOut 232
Running threw: ReferenceError: z2 is not defined

tryItOut 233
Compiling threw: SyntaxError: missing { before function body

tryItOut 234

tryItOut 235
Compiling threw: SyntaxError: missing ; before statement

tryItOut 236
It's an iterator!
Iterating succeeded, iterCount == 1

tryItOut 237
uneval returned the string: []

tryItOut 238

tryItOut 239
Running threw: ReferenceError: __noSuchMethod__ is not defined

tryItOut 240
Compiling threw: SyntaxError: syntax error

tryItOut 241
Running threw: ReferenceError: reference to undefined XML name *

tryItOut 242

tryItOut 243

tryItOut 244
Compiling threw: SyntaxError: syntax error

tryItOut 245
Compiling threw: SyntaxError: syntax error

tryItOut 246
Compiling threw: SyntaxError: syntax error

tryItOut 247
It's an iterator!
Iterating threw!
Iterating threw: ReferenceError: reference to undefined XML name *

tryItOut 248
Running threw: ReferenceError: reference to undefined XML name *

tryItOut 249

tryItOut 250
It's an iterator!
Iterating threw!
Iterating threw: ReferenceError: reference to undefined XML name @foo

tryItOut 251

tryItOut 252

tryItOut 253
Compiling threw: SyntaxError: syntax error

tryItOut 254
Compiling threw: SyntaxError: syntax error

tryItOut 255

tryItOut 256
Compiling threw: SyntaxError: invalid sharp variable definition

tryItOut 257
It's an iterator!
Iterating threw!
Iterating threw: ReferenceError: z1 is not defined

tryItOut 258
Compiling threw: SyntaxError: missing ; before statement

tryItOut 259
Compiling threw: SyntaxError: syntax error

tryItOut 260

tryItOut 261
It's an iterator!
Iterating threw!
Iterating threw: ReferenceError: z1 is not defined

tryItOut 262
Compiling threw: SyntaxError: syntax error

tryItOut 263
It's an iterator!
Iterating threw!
Iterating threw: ReferenceError: z2 is not defined

tryItOut 264

tryItOut 265
Compiling threw: SyntaxError: invalid for/in left-hand side

tryItOut 266
Compiling threw: SyntaxError: invalid for/in left-hand side

tryItOut 267

tryItOut 268

tryItOut 269
Compiling threw: SyntaxError: syntax error

tryItOut 270
Compiling threw: SyntaxError: missing variable name

tryItOut 271
Compiling threw: SyntaxError: missing ) after condition

tryItOut 272
Compiling threw: SyntaxError: invalid for/in left-hand side

tryItOut 273
Compiling threw: SyntaxError: invalid assignment left-hand side

tryItOut 274

tryItOut 275

tryItOut 276

tryItOut 277

tryItOut 278
Compiling threw: SyntaxError: missing { before function body

tryItOut 279
Compiling threw: SyntaxError: invalid assignment left-hand side

tryItOut 280
Compiling threw: SyntaxError: missing ; before statement

tryItOut 281
Compiling threw: TypeError: redeclaration of const __iterator__

tryItOut 282
It's an iterator!
Iterating threw!
Iterating threw: TypeError: undefined is not a constructor

tryItOut 283

tryItOut 284
Compiling threw: SyntaxError: syntax error

tryItOut 285
Compiling threw: SyntaxError: syntax error

tryItOut 286
Compiling threw: SyntaxError: syntax error

tryItOut 287
Compiling threw: SyntaxError: missing ; before statement

tryItOut 288
Compiling threw: SyntaxError: syntax error

tryItOut 289
It's an iterator!
Iterating threw!
Iterating threw: ReferenceError: reference to undefined XML name @foo

tryItOut 290
It's an iterator!
Iterating succeeded, iterCount == 1

tryItOut 291

tryItOut 292
Compiling threw: SyntaxError: missing { before function body

tryItOut 293
Compiling threw: SyntaxError: missing variable name

tryItOut 294
Compiling threw: SyntaxError: missing ; after for-loop initializer

tryItOut 295
Running threw: ReferenceError: reference to undefined XML name @foo

tryItOut 296
Running threw: Error: invalid sharp variable use #1#

tryItOut 297

tryItOut 298
Compiling threw: SyntaxError: missing : in conditional expression

tryItOut 299
Compiling threw: SyntaxError: syntax error

tryItOut 300
It's an iterator!
Iterating threw!
Iterating threw: ReferenceError: z1 is not defined

tryItOut 301
It's an iterator!
Iterating threw!
Iterating threw: ReferenceError: reference to undefined XML name *

tryItOut 302

tryItOut 303
Compiling threw: SyntaxError: invalid for/in left-hand side

tryItOut 304

tryItOut 305
Compiling threw: SyntaxError: invalid for/in left-hand side

tryItOut 306
Compiling threw: SyntaxError: missing { before function body

tryItOut 307
Compiling threw: SyntaxError: invalid for/in left-hand side

tryItOut 308
Compiling threw: TypeError: generator function anonymous returns a value

tryItOut 309
Running threw: ReferenceError: __parent__ is not defined

tryItOut 310
Compiling threw: SyntaxError: syntax error

tryItOut 311

tryItOut 312
Compiling threw: SyntaxError: syntax error

tryItOut 313
Compiling threw: SyntaxError: missing variable name

tryItOut 314
Compiling threw: SyntaxError: invalid for/in left-hand side

tryItOut 315

tryItOut 316

tryItOut 317
Compiling threw: SyntaxError: missing ) in parenthetical

tryItOut 318
Running threw: ReferenceError: reference to undefined XML name @foo

tryItOut 319
Compiling threw: SyntaxError: syntax error

tryItOut 320
Compiling threw: SyntaxError: syntax error

tryItOut 321
Compiling threw: SyntaxError: invalid assignment left-hand side

tryItOut 322
Compiling threw: SyntaxError: missing ) after argument list

tryItOut 323

tryItOut 324
Compiling threw: TypeError: generator function anonymous returns a value

tryItOut 325
It's an iterator!
Iterating threw!
Iterating threw: ReferenceError: reference to undefined XML name *::*

tryItOut 326
Compiling threw: SyntaxError: invalid decrement operand

tryItOut 327
Compiling threw: TypeError: generator function anonymous returns a value

tryItOut 328

tryItOut 329
Compiling threw: SyntaxError: duplicate label

tryItOut 330

tryItOut 331
Compiling threw: SyntaxError: invalid label

tryItOut 332
Compiling threw: SyntaxError: invalid for/in left-hand side

tryItOut 333
Compiling threw: TypeError: generator function anonymous returns a value

tryItOut 334

tryItOut 335
It's an iterator!
Iterating succeeded, iterCount == 1

tryItOut 336

tryItOut 337
Running threw: ReferenceError: reference to undefined property "__parent__"

tryItOut 338
Compiling threw: SyntaxError: missing ) in parenthetical

tryItOut 339
Compiling threw: SyntaxError: syntax error

tryItOut 340
Compiling threw: SyntaxError: syntax error

tryItOut 341

tryItOut 342
Compiling threw: SyntaxError: missing variable name

tryItOut 343
Compiling threw: SyntaxError: syntax error

tryItOut 344
Compiling threw: SyntaxError: syntax error

tryItOut 345

tryItOut 346
Compiling threw: SyntaxError: syntax error

tryItOut 347

tryItOut 348
Compiling threw: SyntaxError: syntax error

tryItOut 349
It's an iterator!
Iterating succeeded, iterCount == 1

tryItOut 350
Compiling threw: TypeError: generator function anonymous returns a value

tryItOut 351
Running threw: ReferenceError: reference to undefined XML name *

tryItOut 352
It's an iterator!
Iterating threw!
Iterating threw: ReferenceError: reference to undefined XML name *

tryItOut 353
Compiling threw: SyntaxError: invalid for/in left-hand side

tryItOut 354
Compiling threw: SyntaxError: invalid sharp variable definition

tryItOut 355
Compiling threw: TypeError: generator function anonymous returns a value

tryItOut 356
It's an iterator!
Iterating succeeded, iterCount == 1

tryItOut 357

tryItOut 358
It's an iterator!
Iterating succeeded, iterCount == 1

tryItOut 359
Compiling threw: SyntaxError: missing ) in parenthetical

tryItOut 360

tryItOut 361
It's an iterator!
Iterating threw!
Iterating threw: ReferenceError: reference to undefined XML name @foo

tryItOut 362

tryItOut 363
Compiling threw: SyntaxError: illegal XML character

tryItOut 364
Compiling threw: SyntaxError: missing variable name

tryItOut 365
Running threw: TypeError: ({a1:1}) is not a function

tryItOut 366
Compiling threw: SyntaxError: invalid for/in left-hand side

tryItOut 367

tryItOut 368
Compiling threw: SyntaxError: invalid for/in left-hand side

tryItOut 369
Compiling threw: SyntaxError: invalid destructuring assignment operator

tryItOut 370

tryItOut 371
Compiling threw: SyntaxError: duplicate label

tryItOut 372

tryItOut 373
Compiling threw: SyntaxError: syntax error

tryItOut 374
It's an iterator!
Iterating succeeded, iterCount == 1

tryItOut 375
Compiling threw: SyntaxError: syntax error

tryItOut 376
Compiling threw: SyntaxError: missing ; before statement

tryItOut 377
Compiling threw: SyntaxError: invalid for/in left-hand side

tryItOut 378

tryItOut 379
Compiling threw: SyntaxError: invalid assignment left-hand side

tryItOut 380
Running threw: Error: invalid sharp variable use #1#

tryItOut 381
Running threw: ReferenceError: reference to undefined XML name *::*

tryItOut 382
Compiling threw: SyntaxError: invalid for/in left-hand side

tryItOut 383
Compiling threw: SyntaxError: missing { before function body

tryItOut 384
Compiling threw: SyntaxError: missing } after let block

tryItOut 385

tryItOut 386
Compiling threw: SyntaxError: missing ; before statement

tryItOut 387
It's an iterator!
Iterating threw!
Iterating threw: ReferenceError: reference to undefined XML name @foo

tryItOut 388
It's an iterator!
Iterating succeeded, iterCount == 1

tryItOut 389
Compiling threw: SyntaxError: syntax error

tryItOut 390

tryItOut 391

tryItOut 392

tryItOut 393
It's an iterator!
Iterating succeeded, iterCount == 1

tryItOut 394
It's an iterator!
Iterating threw!
Iterating threw: ReferenceError: reference to undefined XML name *::*

tryItOut 395
Compiling threw: SyntaxError: syntax error

tryItOut 396
Compiling threw: SyntaxError: missing while after do-loop body

tryItOut 397
Compiling threw: SyntaxError: invalid for/in left-hand side

tryItOut 398
Compiling threw: TypeError: generator function anonymous returns a value

tryItOut 399

tryItOut 400
Compiling threw: SyntaxError: duplicate label

tryItOut 401
It's an iterator!
Iterating threw!
Iterating threw: ReferenceError: reference to undefined XML name *

tryItOut 402
Compiling threw: SyntaxError: syntax error

tryItOut 403

tryItOut 404

tryItOut 405

tryItOut 406
Compiling threw: SyntaxError: invalid for/in left-hand side

tryItOut 407
Compiling threw: SyntaxError: missing ( before let head

tryItOut 408
It's an iterator!
Iterating threw!
Iterating threw: TypeError: false['throw'] is not a function

tryItOut 409
It's an iterator!
Iterating threw!
Iterating threw: ReferenceError: reference to undefined XML name *::*

tryItOut 410
It's an iterator!
Iterating threw!
Iterating threw: ReferenceError: z1 is not defined

tryItOut 411

tryItOut 412
Compiling threw: SyntaxError: syntax error

tryItOut 413

tryItOut 414
Running threw: ReferenceError: reference to undefined XML name @foo

tryItOut 415
Compiling threw: SyntaxError: invalid increment operand

tryItOut 416
Compiling threw: SyntaxError: syntax error

tryItOut 417

tryItOut 418
Running threw: ReferenceError: __iterator__ is not defined

tryItOut 419
Compiling threw: TypeError: generator function anonymous returns a value

tryItOut 420
Running threw: TypeError: this.zzz has no properties

tryItOut 421
Compiling threw: SyntaxError: syntax error

tryItOut 422
Compiling threw: SyntaxError: missing ) after condition

tryItOut 423
It's an iterator!
Iterating succeeded, iterCount == 1

tryItOut 424
It's an iterator!
Iterating succeeded, iterCount == 1

tryItOut 425
It's an iterator!
Iterating threw!
Iterating threw: ReferenceError: reference to undefined XML name *::*

tryItOut 426

tryItOut 427

tryItOut 428

tryItOut 429
Compiling threw: SyntaxError: missing { before function body

tryItOut 430
Compiling threw: TypeError: generator function anonymous returns a value

tryItOut 431
Compiling threw: SyntaxError: syntax error

tryItOut 432
Compiling threw: SyntaxError: missing { before function body

tryItOut 433

tryItOut 434
Compiling threw: SyntaxError: invalid default XML namespace

tryItOut 435

tryItOut 436
Running threw: ReferenceError: __iterator__ is not defined

tryItOut 437
Compiling threw: SyntaxError: missing ) after condition

tryItOut 438
It's an iterator!
Iterating succeeded, iterCount == 1

tryItOut 439

tryItOut 440

tryItOut 441

tryItOut 442
It's an iterator!
Iterating threw!
Iterating threw: ReferenceError: z2 is not defined

tryItOut 443
Compiling threw: SyntaxError: missing ; before statement

tryItOut 444
It's an iterator!
Iterating threw!
Iterating threw: ReferenceError: reference to undefined XML name *::*

tryItOut 445

tryItOut 446
It's an iterator!
Iterating succeeded, iterCount == 1

tryItOut 447
Compiling threw: SyntaxError: missing variable name

tryItOut 448

tryItOut 449
It's an iterator!
Iterating succeeded, iterCount == 1

tryItOut 450
Compiling threw: SyntaxError: invalid assignment left-hand side

tryItOut 451

tryItOut 452
Compiling threw: SyntaxError: missing ; before statement

tryItOut 453
Running threw: ReferenceError: reference to undefined XML name @foo

tryItOut 454
Compiling threw: SyntaxError: missing formal parameter

tryItOut 455
Compiling threw: SyntaxError: syntax error

tryItOut 456
Compiling threw: SyntaxError: syntax error

tryItOut 457
Compiling threw: SyntaxError: syntax error

tryItOut 458
It's an iterator!
Iterating succeeded, iterCount == 1

tryItOut 459
It's an iterator!
Iterating threw!
Iterating threw: ReferenceError: reference to undefined XML name *

tryItOut 460

tryItOut 461
Compiling threw: SyntaxError: syntax error

tryItOut 462
Compiling threw: SyntaxError: invalid for/in left-hand side

tryItOut 463
Running threw: ReferenceError: reference to undefined XML name *::*

tryItOut 464

tryItOut 465

tryItOut 466

tryItOut 467
It's an iterator!
Iterating succeeded, iterCount == 1

tryItOut 468

tryItOut 469
Compiling threw: SyntaxError: syntax error

tryItOut 470
Compiling threw: SyntaxError: syntax error

tryItOut 471

tryItOut 472
Compiling threw: SyntaxError: missing variable name

tryItOut 473
Compiling threw: SyntaxError: missing name in export statement

tryItOut 474
Compiling threw: SyntaxError: invalid assignment left-hand side

tryItOut 475
It's an iterator!
Iterating threw!
Iterating threw: ReferenceError: reference to undefined XML name @foo

tryItOut 476
Running threw: ReferenceError: prop is not defined

tryItOut 477

tryItOut 478

tryItOut 479
Compiling threw: SyntaxError: missing : after property id

tryItOut 480
It's an iterator!
Iterating succeeded, iterCount == 1

tryItOut 481

tryItOut 482
Compiling threw: SyntaxError: syntax error

tryItOut 483
Running threw: ReferenceError: __proto__ is not defined

tryItOut 484

tryItOut 485
Compiling threw: TypeError: generator function anonymous returns a value

tryItOut 486
Compiling threw: SyntaxError: missing ; before statement

tryItOut 487
Compiling threw: SyntaxError: missing name in export statement

tryItOut 488

tryItOut 489
Compiling threw: SyntaxError: missing ; before statement

tryItOut 490
Compiling threw: SyntaxError: syntax error

tryItOut 491
Running threw: TypeError: arguments[0] has no properties

tryItOut 492
Compiling threw: SyntaxError: syntax error

tryItOut 493
It's an iterator!
Iterating succeeded, iterCount == 1

tryItOut 494
Compiling threw: SyntaxError: syntax error

tryItOut 495

tryItOut 496
Compiling threw: SyntaxError: missing ; before statement

tryItOut 497

tryItOut 498
Compiling threw: SyntaxError: syntax error

tryItOut 499
Compiling threw: SyntaxError: syntax error

tryItOut 500
Compiling threw: SyntaxError: missing variable name

tryItOut 501

tryItOut 502
Compiling threw: SyntaxError: syntax error

tryItOut 503

tryItOut 504
Compiling threw: SyntaxError: missing ; after for-loop initializer

tryItOut 505
Compiling threw: TypeError: generator function anonymous returns a value

tryItOut 506
Compiling threw: SyntaxError: syntax error

tryItOut 507

tryItOut 508
It's an iterator!
Iterating threw!
Iterating threw: ReferenceError: reference to undefined XML name *::*

tryItOut 509
Running threw: ReferenceError: __noSuchMethod__ is not defined

tryItOut 510

tryItOut 511
Compiling threw: SyntaxError: syntax error

tryItOut 512
Compiling threw: TypeError: generator function anonymous returns a value

tryItOut 513

tryItOut 514
It's an iterator!
Iterating succeeded, iterCount == 1

tryItOut 515

tryItOut 516

tryItOut 517

tryItOut 518
Compiling threw: SyntaxError: syntax error

tryItOut 519
It's an iterator!
Iterating succeeded, iterCount == 1

tryItOut 520
Compiling threw: SyntaxError: missing variable name

tryItOut 521
Running threw: ReferenceError: reference to undefined XML name *::*

tryItOut 522
Compiling threw: SyntaxError: invalid increment operand

tryItOut 523
Compiling threw: SyntaxError: invalid for/in left-hand side

tryItOut 524
Running threw: ReferenceError: reference to undefined XML name @foo

tryItOut 525
Running threw: ReferenceError: prototype is not defined

tryItOut 526
Compiling threw: TypeError: redeclaration of const __noSuchMethod__

tryItOut 527
Compiling threw: SyntaxError: missing ; before statement

tryItOut 528
Compiling threw: SyntaxError: syntax error

tryItOut 529
Compiling threw: SyntaxError: syntax error

tryItOut 530
It's an iterator!
Iterating threw!
Iterating threw: ReferenceError: reference to undefined XML name @foo

tryItOut 531

tryItOut 532
It's an iterator!
Iterating succeeded, iterCount == 1

tryItOut 533
Compiling threw: SyntaxError: syntax error

tryItOut 534

tryItOut 535

tryItOut 536
It's an iterator!
Iterating threw!
Iterating threw: ReferenceError: reference to undefined XML name @foo

tryItOut 537
It's an iterator!
Iterating succeeded, iterCount == 1

tryItOut 538
Compiling threw: SyntaxError: invalid for/in left-hand side

tryItOut 539
Compiling threw: SyntaxError: invalid for/in left-hand side

tryItOut 540
Compiling threw: TypeError: generator function anonymous returns a value

tryItOut 541

tryItOut 542
Compiling threw: SyntaxError: syntax error

tryItOut 543

tryItOut 544

tryItOut 545
Compiling threw: SyntaxError: invalid for/in left-hand side

tryItOut 546
Compiling threw: SyntaxError: missing { before function body

tryItOut 547
Compiling threw: SyntaxError: missing { before function body

tryItOut 548
Compiling threw: TypeError: generator function __proto__ returns a value

tryItOut 549
It's an iterator!
Iterating succeeded, iterCount == 1

tryItOut 550
Running threw: TypeError: arguments[0] has no properties

tryItOut 551
Running threw: TypeError: null has no properties

tryItOut 552
It's an iterator!
Iterating threw!
Iterating threw: TypeError: __proto__ has no properties

tryItOut 553
Compiling threw: SyntaxError: missing formal parameter

tryItOut 554
Compiling threw: TypeError: generator function anonymous returns a value

tryItOut 555

tryItOut 556
Compiling threw: SyntaxError: duplicate label

tryItOut 557
Compiling threw: SyntaxError: syntax error

tryItOut 558
Compiling threw: SyntaxError: invalid increment operand

tryItOut 559

tryItOut 560

tryItOut 561
Compiling threw: SyntaxError: invalid for/in left-hand side

tryItOut 562
Compiling threw: SyntaxError: missing ; before statement

tryItOut 563
Compiling threw: SyntaxError: syntax error

tryItOut 564
Compiling threw: SyntaxError: invalid assignment left-hand side

tryItOut 565
Compiling threw: SyntaxError: invalid sharp variable definition

tryItOut 566

tryItOut 567
Compiling threw: TypeError: generator function anonymous returns a value

tryItOut 568

tryItOut 569
Compiling threw: SyntaxError: missing ) after condition

tryItOut 570
Running threw: ReferenceError: reference to undefined XML name *

tryItOut 571

tryItOut 572
Compiling threw: SyntaxError: missing variable name

tryItOut 573

tryItOut 574
Compiling threw: SyntaxError: invalid for/in left-hand side

tryItOut 575

tryItOut 576
Compiling threw: SyntaxError: invalid for/in left-hand side

tryItOut 577
Compiling threw: SyntaxError: missing variable name

tryItOut 578
Running threw: ReferenceError: reference to undefined XML name @foo

tryItOut 579
Compiling threw: TypeError: generator function anonymous returns a value

tryItOut 580
Compiling threw: SyntaxError: invalid for/in left-hand side

tryItOut 581

tryItOut 582
Compiling threw: SyntaxError: missing ) in parenthetical

tryItOut 583
Compiling threw: TypeError: generator function anonymous returns a value

tryItOut 584
Running threw: ReferenceError: yyy is not defined

tryItOut 585
It's an iterator!
Iterating succeeded, iterCount == 0

tryItOut 586

tryItOut 587

tryItOut 588
It's an iterator!
Iterating succeeded, iterCount == 2

tryItOut 589

tryItOut 590
Compiling threw: SyntaxError: missing { before function body

tryItOut 591
Compiling threw: SyntaxError: syntax error

tryItOut 592
Compiling threw: SyntaxError: missing variable name

tryItOut 593
Compiling threw: SyntaxError: missing variable name

tryItOut 594
It's an iterator!
Iterating succeeded, iterCount == 1

tryItOut 595
It's an iterator!
Iterating succeeded, iterCount == 1

tryItOut 596
Compiling threw: SyntaxError: syntax error

tryItOut 597
Compiling threw: SyntaxError: missing variable name

tryItOut 598
It's an iterator!
Iterating threw!
Iterating threw: TypeError: this.zzz has no properties

tryItOut 599
Compiling threw: SyntaxError: missing formal parameter

tryItOut 600

tryItOut 601

tryItOut 602

tryItOut 603
Compiling threw: SyntaxError: missing ) after argument list

tryItOut 604

tryItOut 605

tryItOut 606
It's an iterator!
Iterating threw!
Iterating threw: ReferenceError: reference to undefined XML name *::*

tryItOut 607
Compiling threw: TypeError: generator function anonymous returns a value

tryItOut 608
It's an iterator!
Iterating threw!
Iterating threw: TypeError: this.zzz has no properties

tryItOut 609
Compiling threw: SyntaxError: syntax error

tryItOut 610
Compiling threw: SyntaxError: syntax error

tryItOut 611
Compiling threw: SyntaxError: missing name after . operator

tryItOut 612
Compiling threw: TypeError: generator function anonymous returns a value

tryItOut 613

tryItOut 614
Compiling threw: SyntaxError: duplicate label

tryItOut 615
Compiling threw: SyntaxError: syntax error

tryItOut 616
It's an iterator!
Iterating threw!
Iterating threw: ReferenceError: reference to undefined XML name *::*

tryItOut 617

tryItOut 618
It's an iterator!
Iterating succeeded, iterCount == 1

tryItOut 619
It's an iterator!
Iterating threw!
Iterating threw: TypeError: arguments[0] has no properties

tryItOut 620
Compiling threw: TypeError: generator function anonymous returns a value

tryItOut 621

tryItOut 622
Compiling threw: SyntaxError: missing ; before statement

tryItOut 623

tryItOut 624
Compiling threw: SyntaxError: missing ) in parenthetical

tryItOut 625
Compiling threw: SyntaxError: missing variable name

tryItOut 626
Compiling threw: SyntaxError: missing ; before statement

tryItOut 627
Compiling threw: SyntaxError: syntax error

tryItOut 628

tryItOut 629
Compiling threw: SyntaxError: syntax error

tryItOut 630
Compiling threw: TypeError: generator function anonymous returns a value

tryItOut 631
Compiling threw: SyntaxError: missing } in compound statement

tryItOut 632
Compiling threw: SyntaxError: invalid for/in left-hand side

tryItOut 633
Running threw: ReferenceError: reference to undefined XML name *

tryItOut 634
It's an iterator!
Iterating succeeded, iterCount == 1

tryItOut 635

tryItOut 636

tryItOut 637

tryItOut 638
It's an iterator!
Iterating threw!
Iterating threw: ReferenceError: reference to undefined XML name *::*

tryItOut 639
Compiling threw: SyntaxError: syntax error

tryItOut 640

tryItOut 641
Compiling threw: SyntaxError: syntax error

tryItOut 642

tryItOut 643
Compiling threw: SyntaxError: syntax error

tryItOut 644
Compiling threw: SyntaxError: syntax error

tryItOut 645
Compiling threw: SyntaxError: invalid destructuring assignment operator

tryItOut 646

tryItOut 647
Compiling threw: SyntaxError: syntax error

tryItOut 648
Compiling threw: SyntaxError: invalid assignment left-hand side

tryItOut 649

tryItOut 650
Compiling threw: SyntaxError: missing { before function body

tryItOut 651

tryItOut 652
Compiling threw: SyntaxError: invalid for/in left-hand side

tryItOut 653
Compiling threw: SyntaxError: missing while after do-loop body

tryItOut 654
Compiling threw: SyntaxError: missing ; before statement

tryItOut 655
Compiling threw: SyntaxError: syntax error

tryItOut 656
Compiling threw: SyntaxError: missing } after let block

tryItOut 657

tryItOut 658
Compiling threw: SyntaxError: missing ; before statement

tryItOut 659
It's an iterator!
Iterating succeeded, iterCount == 0

tryItOut 660
Compiling threw: SyntaxError: syntax error

tryItOut 661
Compiling threw: SyntaxError: syntax error

tryItOut 662
It's an iterator!
Iterating succeeded, iterCount == 2

tryItOut 663
It's an iterator!
Iterating threw!
Iterating threw: TypeError: arguments[0] has no properties

tryItOut 664
Compiling threw: SyntaxError: missing { before function body

tryItOut 665
Compiling threw: SyntaxError: invalid assignment left-hand side

tryItOut 666

tryItOut 667
Compiling threw: SyntaxError: syntax error

tryItOut 668

tryItOut 669
Compiling threw: SyntaxError: syntax error

tryItOut 670
Compiling threw: SyntaxError: missing ; before statement

tryItOut 671

tryItOut 672

tryItOut 673
Compiling threw: SyntaxError: missing ; before statement

tryItOut 674

tryItOut 675
It's an iterator!
Iterating succeeded, iterCount == 0

tryItOut 676
Compiling threw: SyntaxError: syntax error

tryItOut 677

tryItOut 678
Compiling threw: SyntaxError: missing { before function body

tryItOut 679
Compiling threw: SyntaxError: invalid destructuring assignment operator

tryItOut 680
Compiling threw: SyntaxError: missing ; before statement

tryItOut 681
Compiling threw: SyntaxError: missing ; before statement

tryItOut 682
Compiling threw: SyntaxError: syntax error

tryItOut 683
Compiling threw: TypeError: generator function anonymous returns a value

tryItOut 684
Compiling threw: SyntaxError: missing ; before statement

tryItOut 685
Compiling threw: SyntaxError: invalid for/in left-hand side

tryItOut 686
It's an iterator!
Iterating succeeded, iterCount == 1

tryItOut 687
Compiling threw: SyntaxError: missing { before function body

tryItOut 688
Compiling threw: SyntaxError: syntax error

tryItOut 689
Compiling threw: SyntaxError: syntax error

tryItOut 690
Compiling threw: SyntaxError: syntax error

tryItOut 691
It's an iterator!
Iterating threw!
Iterating threw: ReferenceError: z1 is not defined

tryItOut 692

tryItOut 693
Compiling threw: SyntaxError: syntax error

tryItOut 694

tryItOut 695
Compiling threw: SyntaxError: missing ; before statement

tryItOut 696
It's an iterator!
Iterating threw!
Iterating threw: ReferenceError: reference to undefined XML name @foo

tryItOut 697
It's an iterator!
Iterating threw!
Iterating threw: TypeError: null has no properties

tryItOut 698
Running threw: ReferenceError: reference to undefined XML name *::*

tryItOut 699
Compiling threw: SyntaxError: duplicate label

tryItOut 700

tryItOut 701
It's an iterator!
Iterating threw!
Iterating threw: TypeError: p.z = (let (__iterator__ = false) [, ]) is not a function

tryItOut 702
Compiling threw: SyntaxError: missing : after property id

tryItOut 703
It's an iterator!
Iterating succeeded, iterCount == 0

tryItOut 704

tryItOut 705
Compiling threw: SyntaxError: syntax error

tryItOut 706

tryItOut 707
Compiling threw: SyntaxError: missing ; before statement

tryItOut 708
Compiling threw: SyntaxError: invalid for/in left-hand side

tryItOut 709
It's an iterator!
Iterating threw!
Iterating threw: TypeError: false is not a function

tryItOut 710
Compiling threw: SyntaxError: missing ) in parenthetical

tryItOut 711

tryItOut 712
Compiling threw: SyntaxError: missing ; before statement

tryItOut 713
Compiling threw: SyntaxError: syntax error

tryItOut 714
Compiling threw: SyntaxError: illegal XML character

tryItOut 715
Compiling threw: SyntaxError: syntax error

tryItOut 716

tryItOut 717
Compiling threw: SyntaxError: invalid for/in left-hand side

tryItOut 718
It's an iterator!
Iterating succeeded, iterCount == 1

tryItOut 719
Compiling threw: SyntaxError: missing ; before statement

tryItOut 720
Compiling threw: TypeError: generator function anonymous returns a value

tryItOut 721
Compiling threw: SyntaxError: syntax error

tryItOut 722

tryItOut 723

tryItOut 724
It's an iterator!
Iterating succeeded, iterCount == 1

tryItOut 725
It's an iterator!
Iterating succeeded, iterCount == 2

tryItOut 726
It's an iterator!
Iterating threw!
Iterating threw: ReferenceError: reference to undefined XML name *::*

tryItOut 727
Compiling threw: SyntaxError: missing } after let block

tryItOut 728
Compiling threw: SyntaxError: missing { before function body

tryItOut 729
Compiling threw: SyntaxError: missing { before function body

tryItOut 730

tryItOut 731
Running threw: ReferenceError: reference to undefined XML name *

tryItOut 732
Compiling threw: SyntaxError: missing ; before statement

tryItOut 733
Compiling threw: SyntaxError: invalid for/in left-hand side

tryItOut 734
Compiling threw: SyntaxError: syntax error

tryItOut 735
Compiling threw: SyntaxError: missing } after let block

tryItOut 736
Compiling threw: SyntaxError: missing ) after condition

tryItOut 737
Compiling threw: SyntaxError: syntax error

tryItOut 738
Compiling threw: SyntaxError: invalid default XML namespace

tryItOut 739
Compiling threw: SyntaxError: missing ) in parenthetical

tryItOut 740

tryItOut 741
Compiling threw: SyntaxError: missing { before function body

tryItOut 742
Compiling threw: SyntaxError: missing ; before statement

tryItOut 743
Compiling threw: SyntaxError: invalid label

tryItOut 744
Compiling threw: SyntaxError: missing { before function body

tryItOut 745
Compiling threw: SyntaxError: missing { before function body

tryItOut 746

tryItOut 747
It's an iterator!
Iterating succeeded, iterCount == 1

tryItOut 748

tryItOut 749
Compiling threw: SyntaxError: syntax error

tryItOut 750
Compiling threw: SyntaxError: syntax error

tryItOut 751

tryItOut 752
Compiling threw: TypeError: generator function anonymous returns a value

tryItOut 753
It's an iterator!
Iterating threw!
Iterating threw: ReferenceError: reference to undefined XML name *::*

tryItOut 754

tryItOut 755
Compiling threw: SyntaxError: missing { before function body

tryItOut 756
Compiling threw: SyntaxError: duplicate label

tryItOut 757

tryItOut 758
Compiling threw: SyntaxError: syntax error

tryItOut 759

tryItOut 760
Compiling threw: SyntaxError: missing variable name

tryItOut 761

tryItOut 762
Compiling threw: SyntaxError: missing ; before statement

tryItOut 763
Running threw: true

tryItOut 764
Compiling threw: SyntaxError: invalid assignment left-hand side

tryItOut 765
Compiling threw: SyntaxError: missing { before function body

tryItOut 766
Compiling threw: SyntaxError: syntax error

tryItOut 767
Compiling threw: SyntaxError: missing while after do-loop body

tryItOut 768

tryItOut 769
Compiling threw: SyntaxError: missing ; before statement

tryItOut 770
Compiling threw: SyntaxError: missing ; before statement

tryItOut 771

tryItOut 772
Compiling threw: SyntaxError: invalid for/in left-hand side

tryItOut 773
Compiling threw: SyntaxError: syntax error

tryItOut 774
Compiling threw: SyntaxError: missing ) in parenthetical

tryItOut 775

tryItOut 776
Running threw: ReferenceError: reference to undefined XML name @foo

tryItOut 777

tryItOut 778
Compiling threw: TypeError: generator function anonymous returns a value

tryItOut 779
Compiling threw: SyntaxError: missing while after do-loop body

tryItOut 780

tryItOut 781

tryItOut 782
Compiling threw: SyntaxError: missing ) after condition

tryItOut 783
Compiling threw: TypeError: generator function anonymous returns a value

tryItOut 784
Compiling threw: SyntaxError: missing variable name

tryItOut 785
Compiling threw: SyntaxError: missing } after let block

tryItOut 786

tryItOut 787
Compiling threw: SyntaxError: missing ) after condition

tryItOut 788

tryItOut 789
It's an iterator!
Iterating threw!
Iterating threw: ReferenceError: __proto__ is not defined

tryItOut 790
Running threw: Error: invalid sharp variable use #1#

tryItOut 791
It's an iterator!
Iterating threw!
Iterating threw: ReferenceError: reference to undefined XML name *::*

tryItOut 792
Running threw: ReferenceError: __proto__ is not defined

tryItOut 793
It's an iterator!
Iterating threw!
Iterating threw: ReferenceError: prototype is not defined

tryItOut 794
Compiling threw: SyntaxError: syntax error

tryItOut 795
It's an iterator!
Iterating succeeded, iterCount == 1

tryItOut 796

tryItOut 797

tryItOut 798
Running threw: TypeError: false is not a function

tryItOut 799

tryItOut 800

tryItOut 801

tryItOut 802
It's an iterator!
Iterating threw!
Iterating threw: ReferenceError: z2 is not defined

tryItOut 803
It's an iterator!
Iterating succeeded, iterCount == 1

tryItOut 804

tryItOut 805

tryItOut 806
It's an iterator!
Iterating threw!
Iterating threw: ReferenceError: prototype is not defined

tryItOut 807
Compiling threw: SyntaxError: syntax error

tryItOut 808

tryItOut 809
Running threw: ReferenceError: reference to undefined XML name @foo

tryItOut 810
It's an iterator!
Iterating threw!
Iterating threw: ReferenceError: z2 is not defined

tryItOut 811
Compiling threw: SyntaxError: missing ) in parenthetical

tryItOut 812
Compiling threw: TypeError: generator function anonymous returns a value

tryItOut 813

tryItOut 814
Running threw: ReferenceError: reference to undefined XML name @foo

tryItOut 815
Running threw: TypeError: null is not a function

tryItOut 816
It's an iterator!
Iterating succeeded, iterCount == 1

tryItOut 817
Compiling threw: SyntaxError: missing name in export statement

tryItOut 818
It's an iterator!
Iterating threw!
Iterating threw: ReferenceError: Exception is not defined

tryItOut 819

tryItOut 820
Compiling threw: SyntaxError: missing ; before statement

tryItOut 821
Compiling threw: SyntaxError: invalid for/in left-hand side

tryItOut 822

tryItOut 823

tryItOut 824
Compiling threw: TypeError: generator function anonymous returns a value

tryItOut 825

tryItOut 826

tryItOut 827
Compiling threw: SyntaxError: missing ; before statement

tryItOut 828
Compiling threw: SyntaxError: missing : after property id

tryItOut 829
Compiling threw: SyntaxError: syntax error

tryItOut 830
Running threw: ReferenceError: reference to undefined XML name *

tryItOut 831

tryItOut 832

tryItOut 833
Compiling threw: SyntaxError: syntax error

tryItOut 834
Compiling threw: TypeError: generator function anonymous returns a value

tryItOut 835

tryItOut 836
Compiling threw: SyntaxError: invalid increment operand

tryItOut 837
Compiling threw: SyntaxError: invalid for/in left-hand side

tryItOut 838
Running threw: SyntaxError: malformed formal parameter

tryItOut 839
Running threw: ReferenceError: reference to undefined XML name @foo

tryItOut 840
It's an iterator!
Iterating threw!
Iterating threw: ReferenceError: reference to undefined XML name @foo

tryItOut 841
Compiling threw: SyntaxError: missing variable name

tryItOut 842
Compiling threw: SyntaxError: missing { before function body

tryItOut 843

tryItOut 844
Compiling threw: SyntaxError: missing variable name

tryItOut 845
It's an iterator!
Iterating threw!
Iterating threw: ReferenceError: reference to undefined XML name *::*

tryItOut 846
It's an iterator!
Iterating threw!
Iterating threw: TypeError: invalid XML namespace ccc

tryItOut 847
Compiling threw: SyntaxError: invalid assignment left-hand side

tryItOut 848
Compiling threw: SyntaxError: syntax error

tryItOut 849

tryItOut 850
Compiling threw: SyntaxError: invalid for/in left-hand side

tryItOut 851
Compiling threw: SyntaxError: duplicate label

tryItOut 852

tryItOut 853

tryItOut 854
Compiling threw: SyntaxError: invalid increment operand

tryItOut 855

tryItOut 856
Running threw: ReferenceError: reference to undefined XML name *::*

tryItOut 857
Compiling threw: SyntaxError: invalid for/in left-hand side

tryItOut 858
Compiling threw: SyntaxError: missing ) after condition

tryItOut 859
Compiling threw: SyntaxError: syntax error

tryItOut 860
Compiling threw: SyntaxError: duplicate label

tryItOut 861
Compiling threw: SyntaxError: syntax error

tryItOut 862

tryItOut 863
Compiling threw: TypeError: redeclaration of const constructor

tryItOut 864
Running threw: ReferenceError: reference to undefined XML name *

tryItOut 865
It's an iterator!
Iterating succeeded, iterCount == 0

tryItOut 866
It's an iterator!
Iterating succeeded, iterCount == 1

tryItOut 867
It's an iterator!
Iterating threw!
Iterating threw: ReferenceError: reference to undefined XML name *::*

tryItOut 868
Compiling threw: SyntaxError: missing variable name

tryItOut 869
Compiling threw: TypeError: generator function anonymous returns a value

tryItOut 870

tryItOut 871

tryItOut 872
Compiling threw: SyntaxError: missing variable name

tryItOut 873
It's an iterator!
Iterating threw!
Iterating threw: ReferenceError: reference to undefined XML name *

tryItOut 874
Compiling threw: SyntaxError: invalid for/in left-hand side

tryItOut 875
It's an iterator!
Iterating succeeded, iterCount == 0

tryItOut 876

tryItOut 877
Compiling threw: SyntaxError: missing ) in parenthetical

tryItOut 878
Running threw: ReferenceError: reference to undefined XML name @foo

tryItOut 879
Compiling threw: SyntaxError: invalid for/in left-hand side

tryItOut 880
Compiling threw: SyntaxError: invalid for/in left-hand side

tryItOut 881
It's an iterator!
Iterating succeeded, iterCount == 1

tryItOut 882
It's an iterator!
Iterating threw!
Iterating threw: ReferenceError: reference to undefined XML name *::*

tryItOut 883
Compiling threw: SyntaxError: missing { before function body

tryItOut 884
Running threw: ReferenceError: reference to undefined XML name @foo

tryItOut 885
Compiling threw: SyntaxError: syntax error

tryItOut 886
It's an iterator!
Iterating succeeded, iterCount == 0

tryItOut 887

tryItOut 888
Compiling threw: SyntaxError: syntax error

tryItOut 889
Running threw: TypeError: undefined is not a function

tryItOut 890
Compiling threw: SyntaxError: syntax error

tryItOut 891
It's an iterator!
Iterating threw!
Iterating threw: ReferenceError: reference to undefined XML name *::*

tryItOut 892
Running threw: TypeError: XML filtering predicate operator called on incompatible Boolean

tryItOut 893

tryItOut 894
Compiling threw: SyntaxError: invalid assignment left-hand side

tryItOut 895
It's an iterator!
Iterating threw!
Iterating threw: ReferenceError: reference to undefined XML name *::*

tryItOut 896

tryItOut 897
Running threw: ReferenceError: reference to undefined XML name @foo

tryItOut 898

tryItOut 899
It's an iterator!
Iterating succeeded, iterCount == 2

tryItOut 900

tryItOut 901
Compiling threw: SyntaxError: syntax error

tryItOut 902
Compiling threw: SyntaxError: syntax error

tryItOut 903
Compiling threw: SyntaxError: missing { before function body

tryItOut 904
Compiling threw: SyntaxError: illegal character

tryItOut 905
Compiling threw: SyntaxError: syntax error

tryItOut 906
It's an iterator!
Iterating threw!
Iterating threw: ReferenceError: reference to undefined XML name *::*

tryItOut 907
Compiling threw: SyntaxError: syntax error

tryItOut 908

tryItOut 909

tryItOut 910
Compiling threw: SyntaxError: syntax error

tryItOut 911
Compiling threw: SyntaxError: invalid for/in left-hand side

tryItOut 912
Compiling threw: SyntaxError: invalid assignment left-hand side

tryItOut 913

tryItOut 914
Compiling threw: SyntaxError: invalid for/in left-hand side

tryItOut 915

tryItOut 916

tryItOut 917

tryItOut 918

tryItOut 919
Compiling threw: SyntaxError: syntax error

tryItOut 920
Compiling threw: SyntaxError: missing variable name

tryItOut 921

tryItOut 922
Compiling threw: SyntaxError: invalid for/in left-hand side

tryItOut 923

tryItOut 924
It's an iterator!
Iterating threw!
Iterating threw: ReferenceError: z1 is not defined

tryItOut 925
Compiling threw: SyntaxError: missing { before function body

tryItOut 926
Compiling threw: SyntaxError: missing ) after condition

tryItOut 927
Compiling threw: SyntaxError: invalid for/in left-hand side

tryItOut 928
Compiling threw: SyntaxError: invalid decrement operand

tryItOut 929

tryItOut 930

tryItOut 931
Compiling threw: SyntaxError: missing { before function body

tryItOut 932
Compiling threw: SyntaxError: invalid for/in left-hand side

tryItOut 933
Compiling threw: SyntaxError: missing ) in parenthetical

tryItOut 934
Compiling threw: SyntaxError: missing { before function body

tryItOut 935
Compiling threw: SyntaxError: syntax error

tryItOut 936
Compiling threw: SyntaxError: missing { before function body

tryItOut 937

tryItOut 938
Compiling threw: SyntaxError: missing ; before statement

tryItOut 939
Compiling threw: SyntaxError: invalid for/in left-hand side

tryItOut 940
Compiling threw: SyntaxError: missing { before function body

tryItOut 941
Running threw: true

tryItOut 942
Compiling threw: SyntaxError: missing ) after condition

tryItOut 943
Compiling threw: SyntaxError: missing variable name

tryItOut 944
It's an iterator!
Iterating succeeded, iterCount == 1

tryItOut 945
It's an iterator!
Iterating succeeded, iterCount == 1

tryItOut 946
It's an iterator!
Iterating succeeded, iterCount == 0

tryItOut 947
Compiling threw: SyntaxError: missing variable name

tryItOut 948
Compiling threw: TypeError: generator function anonymous returns a value

tryItOut 949

tryItOut 950
Compiling threw: SyntaxError: invalid assignment left-hand side

tryItOut 951

tryItOut 952

tryItOut 953

tryItOut 954

tryItOut 955
It's an iterator!
Iterating threw!
Iterating threw: ReferenceError: z1 is not defined

tryItOut 956
Running threw: ReferenceError: reference to undefined XML name *

tryItOut 957
Compiling threw: SyntaxError: missing ; before statement

tryItOut 958

tryItOut 959
Compiling threw: SyntaxError: syntax error

tryItOut 960
Compiling threw: SyntaxError: yield expression must be parenthesized

tryItOut 961

tryItOut 962
Compiling threw: SyntaxError: missing ; before statement

tryItOut 963
Compiling threw: SyntaxError: duplicate label

tryItOut 964
Running threw: ReferenceError: reference to undefined XML name *

tryItOut 965
Compiling threw: SyntaxError: invalid for/in left-hand side

tryItOut 966
Compiling threw: SyntaxError: missing ; before statement

tryItOut 967

tryItOut 968
Compiling threw: SyntaxError: syntax error

tryItOut 969
Compiling threw: SyntaxError: invalid assignment left-hand side

tryItOut 970
It's an iterator!
Iterating threw!
Iterating threw: ReferenceError: reference to undefined XML name @foo

tryItOut 971
Compiling threw: TypeError: generator function anonymous returns a value

tryItOut 972
Compiling threw: SyntaxError: missing variable name

tryItOut 973
Compiling threw: SyntaxError: invalid for/in left-hand side

tryItOut 974
Compiling threw: SyntaxError: missing { before function body

tryItOut 975

tryItOut 976

tryItOut 977

tryItOut 978
Compiling threw: SyntaxError: missing ; after for-loop initializer

tryItOut 979
Compiling threw: SyntaxError: syntax error

tryItOut 980
Compiling threw: SyntaxError: syntax error

tryItOut 981

tryItOut 982
Compiling threw: SyntaxError: missing ; after for-loop initializer

tryItOut 983
It's an iterator!
Iterating succeeded, iterCount == 1

tryItOut 984
Compiling threw: SyntaxError: invalid for/in left-hand side

tryItOut 985
It's an iterator!
Iterating threw!
Iterating threw: ReferenceError: reference to undefined XML name @foo

tryItOut 986
Compiling threw: SyntaxError: missing { before function body

tryItOut 987

tryItOut 988
Compiling threw: SyntaxError: syntax error

tryItOut 989
Compiling threw: SyntaxError: syntax error

tryItOut 990
Compiling threw: SyntaxError: invalid for/in left-hand side

tryItOut 991
Compiling threw: SyntaxError: missing ; after for-loop initializer

tryItOut 992
Compiling threw: SyntaxError: missing ; after for-loop initializer

tryItOut 993

tryItOut 994
Compiling threw: SyntaxError: syntax error

tryItOut 995
It's an iterator!
Iterating threw!
Iterating threw: ReferenceError: z1 is not defined

tryItOut 996
It's an iterator!
Iterating succeeded, iterCount == 1

tryItOut 997
It's an iterator!
Iterating threw!
Iterating threw: TypeError: arguments[0] has no properties

tryItOut 998
Compiling threw: SyntaxError: invalid increment operand

tryItOut 999

tryItOut 1000

ALL OK

Script done on Sat 04 May 2013 07:33:00 AM PDT
