Script started on Sat 04 May 2013 07:33:13 AM PDT
***
Targeting SpiderMonkey / Gecko.

tryItOut 1

tryItOut 2
Running threw: ReferenceError: prop is not defined

tryItOut 3
Compiling threw: SyntaxError: invalid assignment left-hand side

tryItOut 4

tryItOut 5
Running threw: ReferenceError: z1 is not defined

tryItOut 6
IGNORING BUG 379528!

tryItOut 7
Compiling threw: SyntaxError: invalid XML name

tryItOut 8
Compiling threw: SyntaxError: invalid decrement operand

tryItOut 9

tryItOut 10

tryItOut 11

tryItOut 12

tryItOut 13
Running threw: Error: invalid sharp variable use #1#

tryItOut 14
Compiling threw: SyntaxError: illegal XML character

tryItOut 15

tryItOut 16
Compiling threw: SyntaxError: syntax error

tryItOut 17
Compiling threw: SyntaxError: missing variable name

tryItOut 18

tryItOut 19
Compiling threw: SyntaxError: syntax error

tryItOut 20
Compiling threw: SyntaxError: label not found

tryItOut 21

tryItOut 22

tryItOut 23
Compiling threw: TypeError: redeclaration of const prototype

tryItOut 24
Compiling threw: SyntaxError: syntax error

tryItOut 25
Compiling threw: SyntaxError: invalid for/in left-hand side

tryItOut 26
It's an iterator!
Iterating threw!
Iterating threw: ReferenceError: reference to undefined XML name @foo

tryItOut 27
Compiling threw: SyntaxError: invalid assignment left-hand side

tryItOut 28
Compiling threw: SyntaxError: invalid assignment left-hand side

tryItOut 29
Compiling threw: SyntaxError: invalid continue

tryItOut 30

tryItOut 31
Compiling threw: SyntaxError: illegal XML character

tryItOut 32

tryItOut 33

tryItOut 34

tryItOut 35
Compiling threw: SyntaxError: missing } after let block

tryItOut 36

tryItOut 37
Compiling threw: SyntaxError: invalid for/in left-hand side

tryItOut 38
Running threw: 105

tryItOut 39
Running threw: function Function() {
    [native code]
}

tryItOut 40

tryItOut 41
Compiling threw: SyntaxError: missing ; before statement

tryItOut 42
Compiling threw: SyntaxError: invalid assignment left-hand side

tryItOut 43
Compiling threw: TypeError: generator function anonymous returns a value

tryItOut 44
Running threw: TypeError: arguments[0] has no properties

tryItOut 45
Compiling threw: SyntaxError: syntax error

tryItOut 46

tryItOut 47

tryItOut 48

tryItOut 49
Running threw: function Function() {
    [native code]
}

tryItOut 50

tryItOut 51
It's an iterator!
Iterating threw!
Iterating threw: ReferenceError: window is not defined

tryItOut 52

tryItOut 53
Running threw: ReferenceError: window is not defined

tryItOut 54
Compiling threw: SyntaxError: syntax error

tryItOut 55
Compiling threw: SyntaxError: missing ) in parenthetical

tryItOut 56
Compiling threw: TypeError: generator function anonymous returns a value

tryItOut 57
Running threw: ReferenceError: window is not defined

tryItOut 58

tryItOut 59

tryItOut 60

tryItOut 61
Compiling threw: SyntaxError: invalid sharp variable definition

tryItOut 62

tryItOut 63

tryItOut 64
Compiling threw: SyntaxError: syntax error

tryItOut 65

tryItOut 66
Compiling threw: SyntaxError: invalid destructuring assignment operator

tryItOut 67
Compiling threw: SyntaxError: missing variable name

tryItOut 68
Compiling threw: SyntaxError: syntax error

tryItOut 69
Compiling threw: SyntaxError: missing variable name

tryItOut 70

tryItOut 71
It's an iterator!
Iterating threw!
Iterating threw: ReferenceError: reference to undefined XML name *

tryItOut 72

tryItOut 73

tryItOut 74
Running threw: [object StopIteration]

tryItOut 75
Compiling threw: SyntaxError: syntax error

tryItOut 76

tryItOut 77

tryItOut 78

tryItOut 79

tryItOut 80

tryItOut 81
Compiling threw: SyntaxError: missing variable name

tryItOut 82
Compiling threw: SyntaxError: label not found

tryItOut 83
Compiling threw: SyntaxError: syntax error

tryItOut 84
Compiling threw: SyntaxError: invalid assignment left-hand side

tryItOut 85
Compiling threw: SyntaxError: invalid for/in left-hand side

tryItOut 86
Compiling threw: SyntaxError: syntax error

tryItOut 87

tryItOut 88

tryItOut 89
Compiling threw: SyntaxError: syntax error

tryItOut 90
Running threw: ReferenceError: __iterator__ is not defined

tryItOut 91

tryItOut 92

tryItOut 93

tryItOut 94

tryItOut 95
Compiling threw: TypeError: redeclaration of const constructor

tryItOut 96
Running threw: [object StopIteration]

tryItOut 97

tryItOut 98
Compiling threw: SyntaxError: missing ) in parenthetical

tryItOut 99
Compiling threw: SyntaxError: yield expression must be parenthesized

tryItOut 100
Compiling threw: SyntaxError: syntax error

tryItOut 101
Compiling threw: SyntaxError: syntax error

tryItOut 102

tryItOut 103

tryItOut 104
Compiling threw: SyntaxError: missing variable name

tryItOut 105
Compiling threw: SyntaxError: invalid for/in left-hand side

tryItOut 106
Compiling threw: SyntaxError: syntax error

tryItOut 107
before 122080, after 122080, break 01fed000
Running threw: ReferenceError: __noSuchMethod__ is not defined

tryItOut 108
Compiling threw: SyntaxError: invalid for/in left-hand side

tryItOut 109

tryItOut 110
Compiling threw: SyntaxError: invalid for/in left-hand side

tryItOut 111

tryItOut 112
Running threw: ReferenceError: window is not defined

tryItOut 113

tryItOut 114
Running threw: ReferenceError: reference to undefined XML name *::*

tryItOut 115

tryItOut 116
Compiling threw: SyntaxError: invalid for each loop

tryItOut 117
Running threw: TypeError: redeclaration of var __proto__

tryItOut 118

tryItOut 119

tryItOut 120
Compiling threw: SyntaxError: invalid for/in left-hand side

tryItOut 121

tryItOut 122

tryItOut 123

tryItOut 124
Compiling threw: SyntaxError: invalid for/in left-hand side

tryItOut 125

tryItOut 126
Compiling threw: SyntaxError: syntax error

tryItOut 127
Running threw: ReferenceError: reference to undefined XML name @foo

tryItOut 128

tryItOut 129
It's an iterator!
Iterating succeeded, iterCount == 1

tryItOut 130
Compiling threw: SyntaxError: missing ) in parenthetical

tryItOut 131
Compiling threw: TypeError: redeclaration of const constructor

tryItOut 132
Compiling threw: SyntaxError: missing variable name

tryItOut 133
Compiling threw: SyntaxError: missing variable name

tryItOut 134
Compiling threw: SyntaxError: illegal character

tryItOut 135
Compiling threw: SyntaxError: invalid for/in left-hand side

tryItOut 136

tryItOut 137
Compiling threw: SyntaxError: missing ) in parenthetical

tryItOut 138
Running threw: ReferenceError: reference to undefined XML name *::*

tryItOut 139
Compiling threw: SyntaxError: missing ; before statement

tryItOut 140

tryItOut 141
Compiling threw: TypeError: redeclaration of var __proto__

tryItOut 142
Compiling threw: SyntaxError: missing ) in parenthetical

tryItOut 143
Compiling threw: SyntaxError: invalid for/in left-hand side

tryItOut 144
Compiling threw: SyntaxError: missing variable name

tryItOut 145

tryItOut 146
Compiling threw: SyntaxError: invalid for/in left-hand side

tryItOut 147

tryItOut 148
Compiling threw: SyntaxError: syntax error

tryItOut 149

tryItOut 150
Compiling threw: SyntaxError: syntax error

tryItOut 151
Compiling threw: SyntaxError: syntax error

tryItOut 152

tryItOut 153
Compiling threw: SyntaxError: illegal XML character

tryItOut 154
Compiling threw: SyntaxError: label not found

tryItOut 155
Compiling threw: SyntaxError: syntax error

tryItOut 156
Compiling threw: SyntaxError: missing } in XML expression

tryItOut 157
Compiling threw: SyntaxError: label not found

tryItOut 158

tryItOut 159

tryItOut 160

tryItOut 161
It's an iterator!
Iterating threw!
Iterating threw: ReferenceError: reference to undefined XML name *

tryItOut 162
Compiling threw: SyntaxError: illegal XML character

tryItOut 163
Compiling threw: SyntaxError: invalid break

tryItOut 164

tryItOut 165

tryItOut 166
Compiling threw: SyntaxError: invalid XML list syntax

tryItOut 167
Running threw: function Function() {
    [native code]
}

tryItOut 168

tryItOut 169
Compiling threw: SyntaxError: missing ; before statement

tryItOut 170

tryItOut 171

tryItOut 172

tryItOut 173
Compiling threw: SyntaxError: syntax error

tryItOut 174
Compiling threw: SyntaxError: invalid for/in left-hand side

tryItOut 175
Compiling threw: SyntaxError: invalid assignment left-hand side

tryItOut 176
Running threw: ReferenceError: reference to undefined XML name @foo

tryItOut 177
It's an iterator!
Iterating threw!
Iterating threw: ReferenceError: reference to undefined XML name *

tryItOut 178

tryItOut 179
Running threw: ReferenceError: reference to undefined XML name *

tryItOut 180
Compiling threw: SyntaxError: syntax error

tryItOut 181

tryItOut 182
Compiling threw: TypeError: redeclaration of variable prototype

tryItOut 183
Compiling threw: SyntaxError: invalid XML name

tryItOut 184

tryItOut 185
Compiling threw: SyntaxError: invalid assignment left-hand side

tryItOut 186
Compiling threw: SyntaxError: syntax error

tryItOut 187
before 122080, after 122080, break 01fed000

tryItOut 188
It's an iterator!
before 122080, after 122080, break 01fed000
Iterating threw!
Iterating threw: ReferenceError: reference to undefined XML name *

tryItOut 189
Running threw: ReferenceError: reference to undefined XML name *::*

tryItOut 190

tryItOut 191

tryItOut 192
It's an iterator!
Iterating succeeded, iterCount == 2

tryItOut 193

tryItOut 194

tryItOut 195
Compiling threw: SyntaxError: missing variable name

tryItOut 196
Compiling threw: SyntaxError: syntax error

tryItOut 197

tryItOut 198
Compiling threw: SyntaxError: invalid break

tryItOut 199
Compiling threw: SyntaxError: missing ; before statement

tryItOut 200

tryItOut 201
Compiling threw: SyntaxError: syntax error

tryItOut 202

tryItOut 203
Compiling threw: SyntaxError: invalid default XML namespace

tryItOut 204

tryItOut 205

tryItOut 206
Compiling threw: SyntaxError: syntax error

tryItOut 207

tryItOut 208
Compiling threw: SyntaxError: invalid for/in left-hand side

tryItOut 209

tryItOut 210
It's an iterator!
Iterating threw!
Iterating threw: ReferenceError: reference to undefined XML name *::*

tryItOut 211

tryItOut 212
Compiling threw: SyntaxError: syntax error

tryItOut 213

tryItOut 214
Compiling threw: SyntaxError: illegal XML character

tryItOut 215
Compiling threw: SyntaxError: yield expression must be parenthesized

tryItOut 216
Compiling threw: SyntaxError: invalid for/in left-hand side

tryItOut 217
before 122080, after 122080, break 01fed000

tryItOut 218
Compiling threw: SyntaxError: syntax error

tryItOut 219
Compiling threw: SyntaxError: missing ; before statement

tryItOut 220
Compiling threw: SyntaxError: invalid continue

tryItOut 221

tryItOut 222
Compiling threw: SyntaxError: invalid sharp variable definition

tryItOut 223
Running threw: ReferenceError: reference to undefined XML name @foo

tryItOut 224
Compiling threw: SyntaxError: missing ; before statement

tryItOut 225
Compiling threw: SyntaxError: syntax error

tryItOut 226

tryItOut 227
It's an iterator!
Iterating threw!
Iterating threw: ReferenceError: window is not defined

tryItOut 228

tryItOut 229
Compiling threw: SyntaxError: missing ; before statement

tryItOut 230
Compiling threw: SyntaxError: invalid for each loop

tryItOut 231
Compiling threw: SyntaxError: invalid decrement operand

tryItOut 232

tryItOut 233
Compiling threw: SyntaxError: missing variable name

tryItOut 234

tryItOut 235
Running threw: ReferenceError: z2 is not defined

tryItOut 236
Compiling threw: TypeError: generator function anonymous returns a value

tryItOut 237
Running threw: ReferenceError: window is not defined

tryItOut 238

tryItOut 239

tryItOut 240

tryItOut 241
Running threw: ReferenceError: window is not defined

tryItOut 242

tryItOut 243
Running threw: ReferenceError: __noSuchMethod__ is not defined

tryItOut 244
Compiling threw: SyntaxError: invalid for/in left-hand side

tryItOut 245

tryItOut 246

tryItOut 247

tryItOut 248
Running threw: ReferenceError: window is not defined

tryItOut 249

tryItOut 250
It's an iterator!
Iterating threw!
Iterating threw: TypeError: ({a1:1}) is not a function

tryItOut 251
Compiling threw: SyntaxError: invalid break

tryItOut 252
Compiling threw: SyntaxError: label not found

tryItOut 253
Compiling threw: SyntaxError: invalid label

tryItOut 254
Compiling threw: TypeError: generator function anonymous returns a value

tryItOut 255
It's an iterator!
Iterating succeeded, iterCount == 1

tryItOut 256

tryItOut 257
Compiling threw: SyntaxError: invalid assignment left-hand side

tryItOut 258
Compiling threw: SyntaxError: missing } after let block

tryItOut 259

tryItOut 260

tryItOut 261

tryItOut 262
Running threw: ReferenceError: window is not defined

tryItOut 263

tryItOut 264

tryItOut 265

tryItOut 266
Compiling threw: SyntaxError: label not found

tryItOut 267

tryItOut 268
Compiling threw: SyntaxError: missing ; before statement

tryItOut 269

tryItOut 270

tryItOut 271

tryItOut 272
Compiling threw: SyntaxError: invalid break

tryItOut 273
Compiling threw: SyntaxError: syntax error

tryItOut 274
Compiling threw: SyntaxError: invalid for/in left-hand side

tryItOut 275
Running threw: function ([y]) {
}

tryItOut 276
Compiling threw: SyntaxError: invalid for/in left-hand side

tryItOut 277
Compiling threw: SyntaxError: syntax error

tryItOut 278
Compiling threw: SyntaxError: missing ; before statement

tryItOut 279
It's an iterator!
Iterating succeeded, iterCount == 1

tryItOut 280
Running threw: ReferenceError: window is not defined

tryItOut 281
Compiling threw: SyntaxError: missing : after property id

tryItOut 282

tryItOut 283
Compiling threw: SyntaxError: invalid assignment left-hand side

tryItOut 284
Compiling threw: SyntaxError: invalid for/in left-hand side

tryItOut 285
Running threw: ReferenceError: window is not defined

tryItOut 286

tryItOut 287
Compiling threw: SyntaxError: syntax error

tryItOut 288
Compiling threw: SyntaxError: duplicate label

tryItOut 289
Compiling threw: SyntaxError: syntax error

tryItOut 290
before 122080, after 122080, break 01fec000

tryItOut 291

tryItOut 292
Compiling threw: SyntaxError: missing ) after condition

tryItOut 293

tryItOut 294

tryItOut 295

tryItOut 296
Compiling threw: SyntaxError: label not found

tryItOut 297
Compiling threw: SyntaxError: missing ; before statement

tryItOut 298
before 122080, after 122080, break 01fec000

tryItOut 299
Compiling threw: SyntaxError: invalid assignment left-hand side

tryItOut 300
Compiling threw: SyntaxError: invalid default XML namespace

tryItOut 301
Compiling threw: SyntaxError: invalid for/in left-hand side

tryItOut 302
Compiling threw: SyntaxError: syntax error

tryItOut 303

tryItOut 304

tryItOut 305

tryItOut 306
Compiling threw: TypeError: generator function anonymous returns a value

tryItOut 307

tryItOut 308

tryItOut 309
before 122080, after 122080, break 01fec000

tryItOut 310
Compiling threw: SyntaxError: invalid XML list syntax

tryItOut 311
Compiling threw: SyntaxError: missing variable name

tryItOut 312
before 122080, after 122080, break 01fec000

tryItOut 313

tryItOut 314

tryItOut 315

tryItOut 316
before 122080, after 122080, break 01fec000

tryItOut 317
Running threw: [object StopIteration]

tryItOut 318

tryItOut 319
Compiling threw: SyntaxError: invalid assignment left-hand side

tryItOut 320
uneval returned the string: [undefined]

tryItOut 321

tryItOut 322
Compiling threw: SyntaxError: invalid increment operand

tryItOut 323

tryItOut 324

tryItOut 325
Compiling threw: TypeError: redeclaration of variable __noSuchMethod__

tryItOut 326

tryItOut 327
Compiling threw: SyntaxError: unterminated string literal

tryItOut 328
before 122080, after 122080, break 01fec000

tryItOut 329
Running threw: ReferenceError: reference to undefined XML name *::*

tryItOut 330
Compiling threw: SyntaxError: syntax error

tryItOut 331
Compiling threw: SyntaxError: label not found

tryItOut 332
Compiling threw: SyntaxError: syntax error

tryItOut 333

tryItOut 334
Running threw: TypeError: arguments[0] has no properties

tryItOut 335
Running threw: [object StopIteration]

tryItOut 336

tryItOut 337
Compiling threw: SyntaxError: invalid for/in left-hand side

tryItOut 338
Compiling threw: SyntaxError: invalid assignment left-hand side

tryItOut 339
Compiling threw: SyntaxError: invalid XML name

tryItOut 340
Compiling threw: SyntaxError: missing ) in parenthetical

tryItOut 341
Compiling threw: SyntaxError: missing ; before statement

tryItOut 342

tryItOut 343
Compiling threw: SyntaxError: invalid for/in left-hand side

tryItOut 344
Compiling threw: SyntaxError: missing } after let block

tryItOut 345
Compiling threw: SyntaxError: missing variable name

tryItOut 346
Compiling threw: SyntaxError: label not found

tryItOut 347

tryItOut 348
Running threw: ReferenceError: reference to undefined XML name @foo

tryItOut 349
Compiling threw: SyntaxError: missing variable name

tryItOut 350

tryItOut 351

tryItOut 352
Running threw: TypeError: [1, undefined] is not a function

tryItOut 353
Compiling threw: SyntaxError: missing ; before statement

tryItOut 354

tryItOut 355
Compiling threw: SyntaxError: invalid break

tryItOut 356
Running threw: [object Object]

tryItOut 357
It's an iterator!
Iterating threw!
Iterating threw: ReferenceError: reference to undefined XML name *::*

tryItOut 358
Running threw: ReferenceError: window is not defined

tryItOut 359
Compiling threw: TypeError: generator function anonymous returns a value

tryItOut 360
Running threw: ReferenceError: reference to undefined XML name *

tryItOut 361

tryItOut 362
Running threw: ReferenceError: reference to undefined XML name *::*

tryItOut 363
Compiling threw: SyntaxError: missing ; before statement

tryItOut 364

tryItOut 365
Compiling threw: SyntaxError: label not found

tryItOut 366

tryItOut 367

tryItOut 368
Running threw: ReferenceError: prop is not defined

tryItOut 369

tryItOut 370

tryItOut 371

tryItOut 372

tryItOut 373
Compiling threw: SyntaxError: label not found

tryItOut 374
Running threw: ReferenceError: reference to undefined XML name @foo

tryItOut 375

tryItOut 376

tryItOut 377
Compiling threw: SyntaxError: syntax error

tryItOut 378

tryItOut 379
Compiling threw: SyntaxError: label not found

tryItOut 380
Running threw: TypeError: XML filtering predicate operator called on incompatible Function

tryItOut 381
Compiling threw: SyntaxError: invalid for/in left-hand side

tryItOut 382
Compiling threw: SyntaxError: invalid for/in left-hand side

tryItOut 383

tryItOut 384

tryItOut 385

tryItOut 386
Compiling threw: SyntaxError: invalid break

tryItOut 387
Running threw: ReferenceError: __noSuchMethod__ is not defined

tryItOut 388
Compiling threw: SyntaxError: invalid for/in left-hand side

tryItOut 389

tryItOut 390
before 139520, after 139520, break 02001000
Running threw: ReferenceError: reference to undefined XML name *::*

tryItOut 391
Compiling threw: SyntaxError: missing ) after argument list

tryItOut 392
before 139520, after 139520, break 02001000

tryItOut 393

tryItOut 394

tryItOut 395
Compiling threw: SyntaxError: missing ; before statement

tryItOut 396
Running threw: [object Object]

tryItOut 397
Running threw: ReferenceError: reference to undefined XML name *::*

tryItOut 398

tryItOut 399
Compiling threw: SyntaxError: label not found

tryItOut 400
Compiling threw: SyntaxError: invalid assignment left-hand side

tryItOut 401

tryItOut 402
It's an iterator!
Iterating threw!
Iterating threw: ReferenceError: window is not defined

tryItOut 403
Compiling threw: SyntaxError: label not found

tryItOut 404
Compiling threw: SyntaxError: invalid sharp variable definition

tryItOut 405
Compiling threw: SyntaxError: invalid assignment left-hand side

tryItOut 406

tryItOut 407
Compiling threw: SyntaxError: invalid break

tryItOut 408

tryItOut 409

tryItOut 410
Compiling threw: SyntaxError: invalid continue

tryItOut 411
Compiling threw: SyntaxError: invalid for/in left-hand side

tryItOut 412
Compiling threw: SyntaxError: invalid for/in left-hand side

tryItOut 413
Compiling threw: SyntaxError: invalid for/in left-hand side

tryItOut 414
It's an iterator!
Iterating succeeded, iterCount == 1

tryItOut 415

tryItOut 416
Compiling threw: SyntaxError: syntax error

tryItOut 417

tryItOut 418
Compiling threw: SyntaxError: invalid assignment left-hand side

tryItOut 419
It's an iterator!
Iterating threw!
Iterating threw: ReferenceError: window is not defined

tryItOut 420

tryItOut 421

tryItOut 422

tryItOut 423
Compiling threw: SyntaxError: invalid break

tryItOut 424
It's an iterator!
Iterating threw!
Iterating threw: ReferenceError: reference to undefined XML name *

tryItOut 425
before 139520, after 139520, break 0200a000

tryItOut 426
Compiling threw: SyntaxError: invalid for/in left-hand side

tryItOut 427
Running threw: ReferenceError: reference to undefined XML name *::*

tryItOut 428
Compiling threw: SyntaxError: missing { before function body

tryItOut 429
Running threw: ReferenceError: window is not defined

tryItOut 430
Running threw: ReferenceError: z2 is not defined

tryItOut 431

tryItOut 432

tryItOut 433
Running threw: ReferenceError: window is not defined

tryItOut 434
Error while trying to determine whether it's an iterator!
The error was: TypeError: Iterator(rv) has invalid __iterator__ value []

tryItOut 435
Compiling threw: SyntaxError: missing } in compound statement

tryItOut 436

tryItOut 437

tryItOut 438
Running threw: [object StopIteration]

tryItOut 439
It's an iterator!
Iterating threw!
Iterating threw: ReferenceError: window is not defined

tryItOut 440
Compiling threw: SyntaxError: label not found

tryItOut 441
Compiling threw: SyntaxError: label not found

tryItOut 442

tryItOut 443

tryItOut 444
Compiling threw: SyntaxError: syntax error

tryItOut 445
before 139520, after 139520, break 0200a000
before 139520, after 139520, break 0200a000

tryItOut 446
Running threw: ReferenceError: reference to undefined XML name *

tryItOut 447
Compiling threw: SyntaxError: invalid for/in left-hand side

tryItOut 448

tryItOut 449
Compiling threw: TypeError: generator function anonymous returns a value

tryItOut 450
Compiling threw: SyntaxError: missing ; before statement

tryItOut 451

tryItOut 452
Compiling threw: SyntaxError: invalid increment operand

tryItOut 453
Running threw: [object Object]

tryItOut 454
Running threw: ReferenceError: reference to undefined XML name *::*

tryItOut 455

tryItOut 456
Compiling threw: SyntaxError: syntax error

tryItOut 457
Compiling threw: SyntaxError: label not found

tryItOut 458
Running threw: ReferenceError: window is not defined

tryItOut 459
Compiling threw: TypeError: generator function anonymous returns a value

tryItOut 460

tryItOut 461
Compiling threw: SyntaxError: syntax error

tryItOut 462
It's an iterator!
Iterating threw!
Iterating threw: ReferenceError: reference to undefined XML name *::*

tryItOut 463
Compiling threw: SyntaxError: invalid break

tryItOut 464

tryItOut 465

tryItOut 466
Compiling threw: SyntaxError: missing while after do-loop body

tryItOut 467
Running threw: ReferenceError: reference to undefined XML name *

tryItOut 468

tryItOut 469
It's an iterator!
Iterating threw!
Iterating threw: ReferenceError: reference to undefined XML name @foo

tryItOut 470
Compiling threw: SyntaxError: missing : after property id

tryItOut 471

tryItOut 472

tryItOut 473

tryItOut 474
Compiling threw: SyntaxError: missing ; before statement

tryItOut 475
Compiling threw: SyntaxError: invalid for/in left-hand side

tryItOut 476
Running threw: ReferenceError: window is not defined

tryItOut 477
Compiling threw: SyntaxError: invalid assignment left-hand side

tryItOut 478

tryItOut 479
Compiling threw: SyntaxError: syntax error

tryItOut 480

tryItOut 481

tryItOut 482

tryItOut 483
Compiling threw: SyntaxError: missing ; before statement

tryItOut 484

tryItOut 485
Running threw: ReferenceError: window is not defined

tryItOut 486
Compiling threw: TypeError: generator function anonymous returns a value

tryItOut 487

tryItOut 488

tryItOut 489
It's an iterator!
Iterating threw!
Iterating threw: ReferenceError: window is not defined

tryItOut 490
Compiling threw: SyntaxError: missing ; before statement

tryItOut 491
Compiling threw: SyntaxError: invalid for/in left-hand side

tryItOut 492
Compiling threw: SyntaxError: syntax error

tryItOut 493

tryItOut 494

tryItOut 495
Compiling threw: SyntaxError: label not found

tryItOut 496
Compiling threw: TypeError: generator function anonymous returns a value

tryItOut 497
Compiling threw: SyntaxError: syntax error

tryItOut 498

tryItOut 499

tryItOut 500
Compiling threw: SyntaxError: missing } after let block

tryItOut 501

tryItOut 502
Compiling threw: SyntaxError: missing ; before statement

tryItOut 503
Running threw: [object StopIteration]

tryItOut 504
Compiling threw: SyntaxError: invalid XML name

tryItOut 505

tryItOut 506
It's an iterator!
Iterating threw!
Iterating threw: ReferenceError: reference to undefined XML name @foo

tryItOut 507

tryItOut 508
Running threw: function ([y]) {
}

tryItOut 509

tryItOut 510

tryItOut 511

tryItOut 512
Compiling threw: SyntaxError: syntax error

tryItOut 513
It's an iterator!
Iterating succeeded, iterCount == 1

tryItOut 514

tryItOut 515
It's an iterator!
Iterating succeeded, iterCount == 1

tryItOut 516

tryItOut 517
Compiling threw: SyntaxError: syntax error

tryItOut 518
Compiling threw: SyntaxError: invalid for/in left-hand side

tryItOut 519

tryItOut 520
Compiling threw: SyntaxError: invalid for/in left-hand side

tryItOut 521
Running threw: ReferenceError: window is not defined

tryItOut 522

tryItOut 523
Compiling threw: TypeError: redeclaration of var __count__

tryItOut 524

tryItOut 525
Compiling threw: SyntaxError: syntax error

tryItOut 526
Compiling threw: SyntaxError: syntax error

tryItOut 527
Compiling threw: TypeError: generator function anonymous returns a value

tryItOut 528
Running threw: ReferenceError: reference to undefined XML name @foo

tryItOut 529

tryItOut 530
Running threw: function ([y]) {
}

tryItOut 531
Compiling threw: TypeError: generator function anonymous returns a value

tryItOut 532
Compiling threw: SyntaxError: invalid for/in left-hand side

tryItOut 533
Compiling threw: SyntaxError: invalid for/in left-hand side

tryItOut 534

tryItOut 535

tryItOut 536
Compiling threw: SyntaxError: label not found

tryItOut 537
Compiling threw: SyntaxError: syntax error

tryItOut 538

tryItOut 539

tryItOut 540
Compiling threw: SyntaxError: illegal XML character

tryItOut 541
Compiling threw: SyntaxError: invalid break

tryItOut 542

tryItOut 543
Compiling threw: SyntaxError: label not found

tryItOut 544

tryItOut 545

tryItOut 546
Running threw: [object Object]

tryItOut 547

tryItOut 548

tryItOut 549
Compiling threw: SyntaxError: syntax error

tryItOut 550

tryItOut 551
It's an iterator!
Iterating succeeded, iterCount == 1

tryItOut 552

tryItOut 553

tryItOut 554

tryItOut 555
Running threw: ReferenceError: reference to undefined XML name @foo

tryItOut 556

tryItOut 557

tryItOut 558
Compiling threw: TypeError: redeclaration of variable __proto__

tryItOut 559
Compiling threw: SyntaxError: invalid continue

tryItOut 560

tryItOut 561
Compiling threw: SyntaxError: missing ) after switch expression

tryItOut 562

tryItOut 563

tryItOut 564
Running threw: [object StopIteration]

tryItOut 565
Running threw: ReferenceError: reference to undefined XML name *::*

tryItOut 566

tryItOut 567

tryItOut 568

tryItOut 569

tryItOut 570

tryItOut 571
Running threw: [object StopIteration]

tryItOut 572
Running threw: ReferenceError: z1 is not defined

tryItOut 573
before 191840, after 191840, break 02073000

tryItOut 574
Compiling threw: SyntaxError: invalid for/in left-hand side

tryItOut 575

tryItOut 576
Compiling threw: SyntaxError: missing ; before statement

tryItOut 577
Compiling threw: SyntaxError: invalid for/in left-hand side

tryItOut 578

tryItOut 579
Compiling threw: SyntaxError: missing while after do-loop body

tryItOut 580
Compiling threw: SyntaxError: missing ; after for-loop initializer

tryItOut 581
Error while trying to determine whether it's an iterator!
The error was: TypeError: Iterator(rv) has invalid __iterator__ value []
IGNORING BUG 379528!

tryItOut 582
Compiling threw: SyntaxError: label not found

tryItOut 583
Compiling threw: SyntaxError: missing = in destructuring declaration

tryItOut 584
Compiling threw: SyntaxError: invalid destructuring assignment operator

tryItOut 585
Compiling threw: SyntaxError: invalid XML qualified name

tryItOut 586

tryItOut 587

tryItOut 588
Compiling threw: SyntaxError: missing } after let block

tryItOut 589

tryItOut 590

tryItOut 591
Compiling threw: SyntaxError: syntax error

tryItOut 592
Compiling threw: SyntaxError: missing ; before statement

tryItOut 593
Running threw: ReferenceError: reference to undefined XML name @foo

tryItOut 594
Running threw: SyntaxError: label not found

tryItOut 595
Compiling threw: SyntaxError: invalid XML name

tryItOut 596

tryItOut 597

tryItOut 598
Compiling threw: SyntaxError: missing ; before statement

tryItOut 599
Compiling threw: SyntaxError: invalid assignment left-hand side

tryItOut 600
Compiling threw: SyntaxError: invalid XML name

tryItOut 601
Compiling threw: SyntaxError: invalid for/in left-hand side

tryItOut 602
Compiling threw: SyntaxError: syntax error

tryItOut 603

tryItOut 604
Compiling threw: SyntaxError: syntax error

tryItOut 605
Running threw: [object StopIteration]

tryItOut 606

tryItOut 607

tryItOut 608

tryItOut 609
Compiling threw: SyntaxError: syntax error

tryItOut 610
Compiling threw: SyntaxError: invalid increment operand

tryItOut 611
Compiling threw: SyntaxError: syntax error

tryItOut 612

tryItOut 613
Compiling threw: SyntaxError: invalid break

tryItOut 614
Running threw: ReferenceError: reference to undefined XML name *::*

tryItOut 615
Compiling threw: TypeError: generator function anonymous returns a value

tryItOut 616

tryItOut 617
Compiling threw: SyntaxError: missing } after let block

tryItOut 618
Compiling threw: SyntaxError: invalid XML name

tryItOut 619

tryItOut 620
Compiling threw: SyntaxError: missing variable name

tryItOut 621

tryItOut 622
Running threw: ReferenceError: reference to undefined XML name *

tryItOut 623
Compiling threw: SyntaxError: missing ) in parenthetical

tryItOut 624
It's an iterator!
Iterating threw!
Iterating threw: ReferenceError: reference to undefined XML name @foo

tryItOut 625

tryItOut 626

tryItOut 627
Compiling threw: SyntaxError: invalid continue

tryItOut 628
Running threw: ReferenceError: reference to undefined XML name *

tryItOut 629
Running threw: ReferenceError: z1 is not defined

tryItOut 630
It's an iterator!
Iterating threw!
Iterating threw: ReferenceError: reference to undefined XML name *::*

tryItOut 631
before 191840, after 191840, break 02085000

tryItOut 632
Compiling threw: TypeError: redeclaration of const prop

tryItOut 633

tryItOut 634

tryItOut 635
Compiling threw: SyntaxError: invalid XML name

tryItOut 636

tryItOut 637

tryItOut 638
Compiling threw: SyntaxError: missing } after let block

tryItOut 639
It's an iterator!
Iterating succeeded, iterCount == 1

tryItOut 640
It's an iterator!
Iterating succeeded, iterCount == 1

tryItOut 641

tryItOut 642

tryItOut 643
Compiling threw: SyntaxError: invalid XML list syntax

tryItOut 644
Running threw: TypeError: new Number is not a constructor

tryItOut 645

tryItOut 646

tryItOut 647
Compiling threw: SyntaxError: syntax error

tryItOut 648
Compiling threw: SyntaxError: invalid XML name

tryItOut 649
Compiling threw: SyntaxError: missing variable name

tryItOut 650

tryItOut 651

tryItOut 652

tryItOut 653
Compiling threw: SyntaxError: label not found

tryItOut 654
It's an iterator!
Iterating threw!
Iterating threw: ReferenceError: reference to undefined XML name @foo

tryItOut 655

tryItOut 656
Running threw: ReferenceError: reference to undefined XML name *::*

tryItOut 657

tryItOut 658
Compiling threw: SyntaxError: syntax error

tryItOut 659
before 191840, after 191840, break 02085000

tryItOut 660

tryItOut 661

tryItOut 662

tryItOut 663

tryItOut 664
Compiling threw: SyntaxError: missing variable name

tryItOut 665
Compiling threw: SyntaxError: syntax error

tryItOut 666
Compiling threw: SyntaxError: invalid continue

tryItOut 667
Compiling threw: SyntaxError: duplicate label

tryItOut 668
Compiling threw: SyntaxError: invalid decrement operand

tryItOut 669
Compiling threw: SyntaxError: invalid for/in left-hand side

tryItOut 670
Running threw: ReferenceError: reference to undefined XML name @foo

tryItOut 671

tryItOut 672

tryItOut 673

tryItOut 674
Compiling threw: SyntaxError: invalid assignment left-hand side

tryItOut 675

tryItOut 676
Compiling threw: SyntaxError: syntax error

tryItOut 677
before 191840, after 191840, break 02085000

tryItOut 678
Running threw: function ([y]) {
}

tryItOut 679
Running threw: ReferenceError: reference to undefined XML name *

tryItOut 680
Compiling threw: TypeError: generator function anonymous returns a value

tryItOut 681

tryItOut 682
It's an iterator!
Iterating threw!
Iterating threw: ReferenceError: window is not defined

tryItOut 683
Compiling threw: SyntaxError: illegal XML character

tryItOut 684

tryItOut 685

tryItOut 686
Compiling threw: SyntaxError: syntax error

tryItOut 687

tryItOut 688
Compiling threw: SyntaxError: invalid for/in left-hand side

tryItOut 689
It's an iterator!
Iterating succeeded, iterCount == 1

tryItOut 690

tryItOut 691
Compiling threw: SyntaxError: invalid destructuring assignment operator

tryItOut 692

tryItOut 693

tryItOut 694
It's an iterator!
Iterating succeeded, iterCount == 1

tryItOut 695

tryItOut 696

tryItOut 697

tryItOut 698
Compiling threw: SyntaxError: invalid assignment left-hand side

tryItOut 699
Compiling threw: SyntaxError: missing ) after argument list

tryItOut 700
uneval returned the string: [,]
Skipping re-eval test

tryItOut 701
Compiling threw: SyntaxError: invalid continue

tryItOut 702

tryItOut 703

tryItOut 704

tryItOut 705
Running threw: ReferenceError: window is not defined

tryItOut 706
Compiling threw: SyntaxError: illegal XML character

tryItOut 707

tryItOut 708
Compiling threw: SyntaxError: syntax error

tryItOut 709
Compiling threw: SyntaxError: missing variable name

tryItOut 710

tryItOut 711
Compiling threw: SyntaxError: invalid for/in left-hand side

tryItOut 712
Compiling threw: SyntaxError: missing ( before let head

tryItOut 713

tryItOut 714

tryItOut 715

tryItOut 716
Compiling threw: TypeError: generator function anonymous returns a value

tryItOut 717
Compiling threw: SyntaxError: invalid sharp variable definition

tryItOut 718
Compiling threw: SyntaxError: invalid break

tryItOut 719
Compiling threw: SyntaxError: invalid for/in left-hand side

tryItOut 720
Compiling threw: SyntaxError: invalid continue

tryItOut 721
Compiling threw: SyntaxError: syntax error

tryItOut 722
Running threw: ReferenceError: reference to undefined XML name *::*

tryItOut 723
Compiling threw: TypeError: redeclaration of variable __count__

tryItOut 724
Running threw: ReferenceError: window is not defined

tryItOut 725

tryItOut 726
Compiling threw: TypeError: redeclaration of const __noSuchMethod__

tryItOut 727

tryItOut 728
Compiling threw: SyntaxError: invalid for/in left-hand side

tryItOut 729

tryItOut 730

tryItOut 731
Compiling threw: SyntaxError: missing : after property id

tryItOut 732

tryItOut 733
Compiling threw: SyntaxError: missing variable name

tryItOut 734
Compiling threw: SyntaxError: invalid sharp variable definition

tryItOut 735
Compiling threw: SyntaxError: invalid for/in left-hand side

tryItOut 736
Compiling threw: SyntaxError: invalid for/in left-hand side

tryItOut 737
Running threw: ReferenceError: reference to undefined XML name *::*

tryItOut 738

tryItOut 739

tryItOut 740
Compiling threw: SyntaxError: syntax error

tryItOut 741
Compiling threw: SyntaxError: invalid for/in left-hand side

tryItOut 742
Compiling threw: SyntaxError: label not found

tryItOut 743

tryItOut 744
Compiling threw: SyntaxError: invalid for/in left-hand side

tryItOut 745

tryItOut 746

tryItOut 747
Running threw: ReferenceError: window is not defined

tryItOut 748
Compiling threw: SyntaxError: syntax error

tryItOut 749
Running threw: function Object() {
    [native code]
}

tryItOut 750
Running threw: [object StopIteration]

tryItOut 751
Compiling threw: SyntaxError: missing ; before statement

tryItOut 752
Running threw: ReferenceError: z1 is not defined

tryItOut 753
Compiling threw: SyntaxError: invalid for/in left-hand side

tryItOut 754
Compiling threw: SyntaxError: missing variable name

tryItOut 755
Compiling threw: SyntaxError: invalid break

tryItOut 756

tryItOut 757

tryItOut 758
Compiling threw: SyntaxError: invalid for/in left-hand side

tryItOut 759
It's an iterator!
Iterating threw!
Iterating threw: ReferenceError: reference to undefined XML name *

tryItOut 760

tryItOut 761

tryItOut 762

tryItOut 763
Compiling threw: SyntaxError: invalid assignment left-hand side

tryItOut 764
Compiling threw: SyntaxError: syntax error

tryItOut 765

tryItOut 766

tryItOut 767
Compiling threw: SyntaxError: syntax error

tryItOut 768
Compiling threw: TypeError: generator function anonymous returns a value

tryItOut 769
Compiling threw: SyntaxError: missing ( before formal parameters

tryItOut 770
Compiling threw: SyntaxError: invalid increment operand

tryItOut 771
Compiling threw: SyntaxError: label not found

tryItOut 772
Compiling threw: SyntaxError: missing variable name

tryItOut 773
Compiling threw: SyntaxError: missing ; before statement

tryItOut 774

tryItOut 775

tryItOut 776
Compiling threw: SyntaxError: invalid XML name

tryItOut 777

tryItOut 778

tryItOut 779
Running threw: ReferenceError: reference to undefined XML name *::*

tryItOut 780
Compiling threw: SyntaxError: invalid destructuring assignment operator

tryItOut 781
Compiling threw: SyntaxError: syntax error

tryItOut 782
Compiling threw: SyntaxError: invalid continue

tryItOut 783

tryItOut 784
Compiling threw: SyntaxError: label not found

tryItOut 785

tryItOut 786
Compiling threw: SyntaxError: missing while after do-loop body

tryItOut 787
Compiling threw: TypeError: redeclaration of variable constructor

tryItOut 788
Compiling threw: SyntaxError: invalid for/in left-hand side

tryItOut 789

tryItOut 790
Compiling threw: SyntaxError: missing ) after condition

tryItOut 791

tryItOut 792

tryItOut 793
Compiling threw: TypeError: generator function anonymous returns a value

tryItOut 794
Compiling threw: SyntaxError: invalid assignment left-hand side

tryItOut 795

tryItOut 796
Running threw: ReferenceError: z1 is not defined

tryItOut 797
Running threw: ReferenceError: window is not defined

tryItOut 798

tryItOut 799

tryItOut 800

tryItOut 801
Compiling threw: SyntaxError: invalid for/in left-hand side

tryItOut 802

tryItOut 803

tryItOut 804
Running threw: ReferenceError: reference to undefined XML name @foo

tryItOut 805
Compiling threw: SyntaxError: missing variable name

tryItOut 806
Compiling threw: SyntaxError: invalid destructuring assignment operator

tryItOut 807
Compiling threw: SyntaxError: syntax error

tryItOut 808
Compiling threw: SyntaxError: syntax error

tryItOut 809

tryItOut 810
Compiling threw: TypeError: redeclaration of variable prop

tryItOut 811

tryItOut 812
Running threw: ReferenceError: window is not defined

tryItOut 813
Compiling threw: SyntaxError: invalid assignment left-hand side

tryItOut 814

tryItOut 815
Compiling threw: SyntaxError: missing ) after condition

tryItOut 816
Compiling threw: SyntaxError: syntax error

tryItOut 817
Compiling threw: SyntaxError: illegal XML character

tryItOut 818

tryItOut 819
Compiling threw: SyntaxError: invalid continue

tryItOut 820
Running threw: ReferenceError: reference to undefined XML name *

tryItOut 821
Compiling threw: SyntaxError: label not found

tryItOut 822
Running threw: ReferenceError: reference to undefined XML name @foo

tryItOut 823
before 209280, after 209280, break 020c1000
Running threw: ReferenceError: window is not defined

tryItOut 824

tryItOut 825

tryItOut 826

tryItOut 827
Compiling threw: SyntaxError: syntax error

tryItOut 828

tryItOut 829
Compiling threw: SyntaxError: invalid for/in left-hand side

tryItOut 830
Compiling threw: SyntaxError: missing ) in parenthetical

tryItOut 831

tryItOut 832
Compiling threw: TypeError: redeclaration of const prop

tryItOut 833

tryItOut 834
Running threw: Error: invalid sharp variable use #1#

tryItOut 835

tryItOut 836
Running threw: ReferenceError: reference to undefined XML name @foo

tryItOut 837
Running threw: ReferenceError: reference to undefined XML name @foo

tryItOut 838
Running threw: ReferenceError: window is not defined

tryItOut 839

tryItOut 840
Compiling threw: SyntaxError: missing ) after let head

tryItOut 841

tryItOut 842
Running threw: ReferenceError: z is not defined

tryItOut 843
Compiling threw: SyntaxError: missing : after property id

tryItOut 844

tryItOut 845
Running threw: ReferenceError: window is not defined

tryItOut 846

tryItOut 847

tryItOut 848
Compiling threw: SyntaxError: syntax error

tryItOut 849

tryItOut 850
before 209280, after 209280, break 020d5000

tryItOut 851
Compiling threw: SyntaxError: invalid assignment left-hand side

tryItOut 852
Compiling threw: SyntaxError: invalid assignment left-hand side

tryItOut 853
Compiling threw: TypeError: generator function anonymous returns a value

tryItOut 854

tryItOut 855

tryItOut 856
before 209280, after 209280, break 020d5000

tryItOut 857
Compiling threw: SyntaxError: syntax error

tryItOut 858
It's an iterator!
Iterating threw!
Iterating threw: TypeError: XML filtering predicate operator called on incompatible Number

tryItOut 859
Running threw: [object StopIteration]

tryItOut 860
Compiling threw: SyntaxError: invalid assignment left-hand side

tryItOut 861

tryItOut 862
Compiling threw: SyntaxError: invalid XML name

tryItOut 863

tryItOut 864
Compiling threw: SyntaxError: invalid for/in left-hand side

tryItOut 865
Compiling threw: SyntaxError: missing ) after for-loop control

tryItOut 866
Compiling threw: SyntaxError: invalid assignment left-hand side

tryItOut 867

tryItOut 868

tryItOut 869
Running threw: ReferenceError: reference to undefined XML name *::*

tryItOut 870

tryItOut 871
Running threw: [object StopIteration]

tryItOut 872
Compiling threw: TypeError: generator function anonymous returns a value

tryItOut 873

tryItOut 874

tryItOut 875
Compiling threw: SyntaxError: syntax error

tryItOut 876
before 209280, after 209280, break 020d5000

tryItOut 877
Compiling threw: SyntaxError: missing ; before statement

tryItOut 878
Compiling threw: SyntaxError: label not found

tryItOut 879
Compiling threw: SyntaxError: syntax error

tryItOut 880
uneval returned the string: [undefined]

tryItOut 881
Compiling threw: SyntaxError: invalid for/in left-hand side

tryItOut 882
Running threw: ReferenceError: z1 is not defined

tryItOut 883

tryItOut 884
Compiling threw: SyntaxError: missing ) in parenthetical

tryItOut 885
Running threw: [object StopIteration]

tryItOut 886
It's an iterator!
Iterating threw!
Iterating threw: ReferenceError: reference to undefined XML name *::*

tryItOut 887

tryItOut 888

tryItOut 889

tryItOut 890
Compiling threw: SyntaxError: missing variable name

tryItOut 891

tryItOut 892

tryItOut 893

tryItOut 894
Compiling threw: SyntaxError: syntax error

tryItOut 895
Compiling threw: SyntaxError: invalid XML name

tryItOut 896
Running threw: [object StopIteration]

tryItOut 897

tryItOut 898
Running threw: ReferenceError: reference to undefined XML name *

tryItOut 899
before 209280, after 209280, break 020d5000

tryItOut 900
Compiling threw: SyntaxError: duplicate label

tryItOut 901
Compiling threw: SyntaxError: invalid continue

tryItOut 902

tryItOut 903

tryItOut 904
Compiling threw: SyntaxError: syntax error

tryItOut 905
Compiling threw: SyntaxError: invalid XML tag syntax

tryItOut 906

tryItOut 907
Compiling threw: TypeError: generator function anonymous returns a value

tryItOut 908

tryItOut 909

tryItOut 910
Running threw: ReferenceError: window is not defined

tryItOut 911
Compiling threw: SyntaxError: illegal XML character

tryItOut 912

tryItOut 913
Compiling threw: TypeError: redeclaration of const prototype

tryItOut 914

tryItOut 915
Compiling threw: SyntaxError: invalid for/in left-hand side

tryItOut 916
Compiling threw: SyntaxError: missing while after do-loop body

tryItOut 917

tryItOut 918
Compiling threw: SyntaxError: label not found

tryItOut 919
Compiling threw: SyntaxError: invalid for/in left-hand side

tryItOut 920
Compiling threw: SyntaxError: invalid continue

tryItOut 921

tryItOut 922

tryItOut 923

tryItOut 924
Compiling threw: SyntaxError: syntax error

tryItOut 925
Compiling threw: SyntaxError: missing ) after switch expression

tryItOut 926
Compiling threw: SyntaxError: missing } after let block

tryItOut 927
Compiling threw: SyntaxError: syntax error

tryItOut 928

tryItOut 929

tryItOut 930

tryItOut 931
Compiling threw: SyntaxError: missing ; before statement

tryItOut 932
Compiling threw: SyntaxError: syntax error

tryItOut 933

tryItOut 934

tryItOut 935

tryItOut 936
Compiling threw: SyntaxError: label not found

tryItOut 937
Compiling threw: SyntaxError: missing ) in parenthetical

tryItOut 938
Running threw: ReferenceError: reference to undefined XML name @foo

tryItOut 939

tryItOut 940

tryItOut 941

tryItOut 942

tryItOut 943
Compiling threw: SyntaxError: invalid for/in left-hand side

tryItOut 944
Compiling threw: SyntaxError: duplicate label

tryItOut 945
Compiling threw: SyntaxError: missing } in compound statement

tryItOut 946
Compiling threw: SyntaxError: invalid for/in left-hand side

tryItOut 947

tryItOut 948

tryItOut 949
It's an iterator!
Iterating succeeded, iterCount == 1

tryItOut 950
Compiling threw: SyntaxError: missing ) in parenthetical

tryItOut 951
Compiling threw: SyntaxError: invalid increment operand

tryItOut 952
Running threw: ReferenceError: reference to undefined XML name *::*

tryItOut 953

tryItOut 954
Compiling threw: SyntaxError: label not found

tryItOut 955
Compiling threw: SyntaxError: invalid sharp variable definition

tryItOut 956

tryItOut 957

tryItOut 958

tryItOut 959
Running threw: ReferenceError: reference to undefined XML name *::*

tryItOut 960

tryItOut 961
Running threw: ReferenceError: reference to undefined XML name *::*

tryItOut 962
Compiling threw: SyntaxError: syntax error

tryItOut 963
Compiling threw: TypeError: redeclaration of variable __parent__

tryItOut 964
Compiling threw: SyntaxError: invalid continue

tryItOut 965
Compiling threw: SyntaxError: missing } in compound statement

tryItOut 966
Compiling threw: TypeError: redeclaration of variable __noSuchMethod__

tryItOut 967

tryItOut 968

tryItOut 969
Compiling threw: SyntaxError: missing ; before statement

tryItOut 970

tryItOut 971
Compiling threw: SyntaxError: missing variable name

tryItOut 972
Compiling threw: SyntaxError: missing variable name

tryItOut 973
Running threw: [object StopIteration]

tryItOut 974

tryItOut 975

tryItOut 976

tryItOut 977
Compiling threw: SyntaxError: syntax error

tryItOut 978

tryItOut 979

tryItOut 980

tryItOut 981
Compiling threw: SyntaxError: syntax error

tryItOut 982
Running threw: [object StopIteration]

tryItOut 983

tryItOut 984
Compiling threw: SyntaxError: missing ) in parenthetical

tryItOut 985
Running threw: [object StopIteration]

tryItOut 986
Running threw: [object StopIteration]

tryItOut 987

tryItOut 988
Compiling threw: TypeError: redeclaration of const __count__

tryItOut 989
before 226720, after 226720, break 020d5000

tryItOut 990
Compiling threw: TypeError: redeclaration of var prototype

tryItOut 991
Compiling threw: SyntaxError: syntax error

tryItOut 992

tryItOut 993
Compiling threw: SyntaxError: missing ; before statement

tryItOut 994
Compiling threw: SyntaxError: missing ; before statement

tryItOut 995
Compiling threw: SyntaxError: label not found

tryItOut 996
Compiling threw: SyntaxError: label not found

tryItOut 997
Compiling threw: SyntaxError: syntax error

tryItOut 998

tryItOut 999
Compiling threw: SyntaxError: invalid for/in left-hand side

tryItOut 1000
Compiling threw: SyntaxError: invalid continue

ALL OK

Script done on Sat 04 May 2013 07:33:13 AM PDT
