Script started on Sat 04 May 2013 04:59:43 AM PDT
***
Targeting SpiderMonkey / Gecko.

tryItOut 1

tryItOut 2
Compiling threw: SyntaxError: invalid for/in left-hand side

tryItOut 3
Compiling threw: SyntaxError: missing { before function body

tryItOut 4

tryItOut 5
Compiling threw: SyntaxError: illegal XML character

tryItOut 6

tryItOut 7

tryItOut 8
Compiling threw: SyntaxError: duplicate label

tryItOut 9

tryItOut 10
Compiling threw: SyntaxError: missing } after let block

tryItOut 11
Compiling threw: SyntaxError: invalid assignment left-hand side

tryItOut 12

tryItOut 13
Running threw: ReferenceError: __iterator__ is not defined

tryItOut 14

tryItOut 15
Running threw: TypeError: this.zzz has no properties

tryItOut 16
Compiling threw: SyntaxError: invalid assignment left-hand side

tryItOut 17
Running threw: ReferenceError: prototype is not defined

tryItOut 18

tryItOut 19
Compiling threw: SyntaxError: illegal XML character

tryItOut 20
Running threw: ReferenceError: z1 is not defined

tryItOut 21
Running threw: TypeError: <x>
  <y/>
</x> is not a function

tryItOut 22
Compiling threw: SyntaxError: syntax error

tryItOut 23

tryItOut 24

tryItOut 25
Running threw: TypeError: this.zzz has no properties

tryItOut 26

tryItOut 27
Compiling threw: SyntaxError: invalid assignment left-hand side

tryItOut 28
Compiling threw: SyntaxError: invalid for/in left-hand side

tryItOut 29

tryItOut 30
Compiling threw: SyntaxError: missing name after . operator

tryItOut 31
Compiling threw: SyntaxError: syntax error

tryItOut 32
Compiling threw: SyntaxError: invalid XML name

tryItOut 33
It's an iterator!
Iterating succeeded, iterCount == 1

tryItOut 34
Compiling threw: SyntaxError: missing ; after for-loop initializer

tryItOut 35
Compiling threw: SyntaxError: illegal XML character

tryItOut 36

tryItOut 37

tryItOut 38
Compiling threw: SyntaxError: invalid increment operand

tryItOut 39
Running threw: TypeError: this.zzz has no properties

tryItOut 40

tryItOut 41
Compiling threw: TypeError: redeclaration of variable prototype

tryItOut 42
Compiling threw: SyntaxError: invalid for/in left-hand side

tryItOut 43
Compiling threw: SyntaxError: invalid assignment left-hand side

tryItOut 44

tryItOut 45

tryItOut 46

tryItOut 47

tryItOut 48

tryItOut 49

tryItOut 50
Compiling threw: SyntaxError: missing variable name

tryItOut 51
Compiling threw: SyntaxError: missing ) in parenthetical

tryItOut 52
Running threw: ReferenceError: prototype is not defined

tryItOut 53
Compiling threw: SyntaxError: invalid for/in left-hand side

tryItOut 54

tryItOut 55
Compiling threw: SyntaxError: invalid increment operand

tryItOut 56
Compiling threw: SyntaxError: syntax error

tryItOut 57
It's an iterator!
Iterating succeeded, iterCount == 1

tryItOut 58
Compiling threw: SyntaxError: invalid for/in left-hand side

tryItOut 59
It's an iterator!
Iterating succeeded, iterCount == 1

tryItOut 60
Running threw: ReferenceError: prop is not defined

tryItOut 61
Compiling threw: TypeError: redeclaration of var prototype

tryItOut 62
Compiling threw: SyntaxError: invalid for/in left-hand side

tryItOut 63
Compiling threw: SyntaxError: missing ; before statement

tryItOut 64
Compiling threw: SyntaxError: missing ; after for-loop initializer

tryItOut 65

tryItOut 66

tryItOut 67

tryItOut 68
Compiling threw: SyntaxError: invalid increment operand

tryItOut 69
Running threw: ReferenceError: z1 is not defined

tryItOut 70
Compiling threw: SyntaxError: invalid assignment left-hand side

tryItOut 71

tryItOut 72
Compiling threw: SyntaxError: missing { before function body

tryItOut 73

tryItOut 74
Compiling threw: SyntaxError: missing ; after for-loop initializer

tryItOut 75
Running threw: SyntaxError: syntax error

tryItOut 76

tryItOut 77
Running threw: <x>
  <y/>
</x>

tryItOut 78

tryItOut 79
before 122080, after 122080, break 00c94000

tryItOut 80
It's an iterator!
Iterating succeeded, iterCount == 1

tryItOut 81
before 122080, after 122080, break 00c94000

tryItOut 82

tryItOut 83
before 122080, after 122080, break 00c94000

tryItOut 84

tryItOut 85

tryItOut 86

tryItOut 87
Compiling threw: SyntaxError: missing { before function body

tryItOut 88
Compiling threw: SyntaxError: invalid for/in left-hand side

tryItOut 89

tryItOut 90
Compiling threw: SyntaxError: missing = in destructuring declaration

tryItOut 91

tryItOut 92

tryItOut 93

tryItOut 94
Compiling threw: SyntaxError: invalid XML name

tryItOut 95
Compiling threw: SyntaxError: missing ] after element list

tryItOut 96
Compiling threw: SyntaxError: missing { before function body

tryItOut 97
Compiling threw: SyntaxError: invalid assignment left-hand side

tryItOut 98

tryItOut 99

tryItOut 100
Compiling threw: SyntaxError: missing { before function body

tryItOut 101

tryItOut 102

tryItOut 103
Compiling threw: SyntaxError: duplicate label

tryItOut 104
Compiling threw: TypeError: redeclaration of variable constructor

tryItOut 105
Compiling threw: SyntaxError: invalid assignment left-hand side

tryItOut 106

tryItOut 107
Compiling threw: SyntaxError: missing { before function body

tryItOut 108
Compiling threw: SyntaxError: missing { before function body

tryItOut 109
Compiling threw: SyntaxError: missing ] after element list

tryItOut 110
Compiling threw: SyntaxError: missing ) in parenthetical

tryItOut 111
Compiling threw: SyntaxError: invalid for/in left-hand side

tryItOut 112

tryItOut 113

tryItOut 114

tryItOut 115
Compiling threw: SyntaxError: syntax error

tryItOut 116
Running threw: TypeError: this.zzz has no properties

tryItOut 117
Compiling threw: SyntaxError: invalid for/in left-hand side

tryItOut 118

tryItOut 119

tryItOut 120

tryItOut 121
Compiling threw: SyntaxError: syntax error

tryItOut 122
Compiling threw: SyntaxError: syntax error

tryItOut 123

tryItOut 124
Running threw: 111

tryItOut 125
Compiling threw: SyntaxError: missing { before function body

tryItOut 126
Compiling threw: SyntaxError: invalid for each loop

tryItOut 127
Compiling threw: SyntaxError: invalid increment operand

tryItOut 128
Compiling threw: SyntaxError: invalid for/in left-hand side

tryItOut 129

tryItOut 130
Compiling threw: SyntaxError: yield expression must be parenthesized

tryItOut 131
Compiling threw: SyntaxError: illegal XML character

tryItOut 132

tryItOut 133
before 122080, after 122080, break 00c94000

tryItOut 134
Compiling threw: SyntaxError: syntax error

tryItOut 135

tryItOut 136
It's an iterator!
Iterating succeeded, iterCount == 0

tryItOut 137

tryItOut 138

tryItOut 139

tryItOut 140
Compiling threw: SyntaxError: missing variable name

tryItOut 141
Running threw: <x>
  <y/>
</x>

tryItOut 142
Running threw: [object StopIteration]

tryItOut 143
Compiling threw: SyntaxError: missing ; before statement

tryItOut 144

tryItOut 145
Compiling threw: SyntaxError: invalid for/in left-hand side

tryItOut 146

tryItOut 147
Compiling threw: SyntaxError: invalid for/in left-hand side

tryItOut 148
Compiling threw: SyntaxError: missing name after . operator

tryItOut 149
Compiling threw: SyntaxError: missing = in destructuring declaration

tryItOut 150

tryItOut 151

tryItOut 152

tryItOut 153
Compiling threw: SyntaxError: missing variable name

tryItOut 154

tryItOut 155
Compiling threw: SyntaxError: syntax error

tryItOut 156

tryItOut 157
Running threw: [object StopIteration]

tryItOut 158

tryItOut 159
Compiling threw: SyntaxError: missing } after let block

tryItOut 160
Compiling threw: SyntaxError: invalid for/in left-hand side

tryItOut 161

tryItOut 162
Compiling threw: SyntaxError: syntax error

tryItOut 163
Compiling threw: SyntaxError: invalid for/in left-hand side

tryItOut 164
before 122080, after 122080, break 00ca9000

tryItOut 165
Compiling threw: SyntaxError: missing ) in parenthetical

tryItOut 166

tryItOut 167
It's an iterator!
Iterating succeeded, iterCount == 0

tryItOut 168

tryItOut 169

tryItOut 170
Running threw: 

tryItOut 171
before 122080, after 122080, break 00ca9000

tryItOut 172

tryItOut 173

tryItOut 174

tryItOut 175

tryItOut 176

tryItOut 177

tryItOut 178

tryItOut 179
Compiling threw: SyntaxError: invalid XML name

tryItOut 180
Compiling threw: SyntaxError: yield expression must be parenthesized

tryItOut 181
Compiling threw: SyntaxError: missing name after . operator

tryItOut 182
Running threw: Error: invalid sharp variable use #1#

tryItOut 183
Running threw: 111

tryItOut 184
Compiling threw: SyntaxError: syntax error

tryItOut 185
Compiling threw: SyntaxError: invalid assignment left-hand side

tryItOut 186

tryItOut 187
Compiling threw: SyntaxError: invalid XML name

tryItOut 188

tryItOut 189
Compiling threw: SyntaxError: missing ; before statement

tryItOut 190
Compiling threw: SyntaxError: invalid XML name

tryItOut 191
Running threw: TypeError: this.zzz has no properties

tryItOut 192

tryItOut 193

tryItOut 194
Compiling threw: SyntaxError: missing variable name

tryItOut 195
Compiling threw: SyntaxError: missing { before function body

tryItOut 196
Compiling threw: SyntaxError: invalid for/in left-hand side

tryItOut 197

tryItOut 198
Compiling threw: SyntaxError: invalid for/in left-hand side

tryItOut 199
Compiling threw: TypeError: redeclaration of variable prototype

tryItOut 200
before 122080, after 122080, break 00ca9000

tryItOut 201

tryItOut 202

tryItOut 203

tryItOut 204
Compiling threw: SyntaxError: missing = in destructuring declaration

tryItOut 205
Compiling threw: SyntaxError: invalid increment operand

tryItOut 206

tryItOut 207
Compiling threw: SyntaxError: invalid for/in left-hand side

tryItOut 208
Compiling threw: SyntaxError: syntax error

tryItOut 209

tryItOut 210
Compiling threw: SyntaxError: syntax error

tryItOut 211
Compiling threw: SyntaxError: missing ; after for-loop initializer

tryItOut 212
Compiling threw: SyntaxError: illegal XML character

tryItOut 213
Compiling threw: SyntaxError: missing variable name

tryItOut 214
Compiling threw: SyntaxError: invalid assignment left-hand side

tryItOut 215

tryItOut 216
Compiling threw: SyntaxError: missing variable name

tryItOut 217
Compiling threw: SyntaxError: invalid for each loop

tryItOut 218
It's an iterator!
Iterating succeeded, iterCount == 1

tryItOut 219
before 122080, after 122080, break 00ca9000

tryItOut 220
It's an iterator!
Iterating succeeded, iterCount == 1

tryItOut 221
Compiling threw: SyntaxError: invalid assignment left-hand side

tryItOut 222

tryItOut 223

tryItOut 224
Compiling threw: SyntaxError: syntax error

tryItOut 225

tryItOut 226
Compiling threw: TypeError: redeclaration of var __parent__

tryItOut 227
Running threw: TypeError: this.zzz has no properties

tryItOut 228

tryItOut 229
Compiling threw: SyntaxError: duplicate label

tryItOut 230

tryItOut 231
Compiling threw: SyntaxError: missing ) after condition

tryItOut 232
before 122080, after 122080, break 00ca9000

tryItOut 233
Compiling threw: SyntaxError: invalid for/in left-hand side

tryItOut 234
Compiling threw: SyntaxError: missing { before function body

tryItOut 235

tryItOut 236
Compiling threw: SyntaxError: invalid assignment left-hand side

tryItOut 237
Compiling threw: SyntaxError: invalid destructuring assignment operator

tryItOut 238

tryItOut 239
Compiling threw: SyntaxError: invalid assignment left-hand side

tryItOut 240

tryItOut 241

tryItOut 242

tryItOut 243
Running threw: ReferenceError: z1 is not defined

tryItOut 244

tryItOut 245
Running threw: TypeError: __proto__ is not a function

tryItOut 246

tryItOut 247

tryItOut 248
Compiling threw: SyntaxError: syntax error

tryItOut 249
Compiling threw: SyntaxError: invalid for/in left-hand side

tryItOut 250
Compiling threw: SyntaxError: missing } after let block

tryItOut 251
Compiling threw: SyntaxError: missing ; before statement

tryItOut 252

tryItOut 253
Compiling threw: SyntaxError: missing { before function body

tryItOut 254

tryItOut 255
Compiling threw: SyntaxError: missing { before function body

tryItOut 256
Compiling threw: SyntaxError: unterminated string literal

tryItOut 257
Compiling threw: SyntaxError: invalid for/in left-hand side

tryItOut 258
It's an iterator!
Iterating threw!
Iterating threw: TypeError: this.zzz has no properties

tryItOut 259
Compiling threw: SyntaxError: invalid XML name

tryItOut 260
Compiling threw: SyntaxError: invalid assignment left-hand side

tryItOut 261
Compiling threw: TypeError: redeclaration of const __count__

tryItOut 262

tryItOut 263
before 122080, after 122080, break 00cae000

tryItOut 264
Compiling threw: SyntaxError: invalid for/in left-hand side

tryItOut 265

tryItOut 266

tryItOut 267
Compiling threw: SyntaxError: yield expression must be parenthesized

tryItOut 268

tryItOut 269
Compiling threw: SyntaxError: missing variable name

tryItOut 270
Compiling threw: SyntaxError: invalid for/in left-hand side

tryItOut 271

tryItOut 272

tryItOut 273
Compiling threw: SyntaxError: invalid for/in left-hand side

tryItOut 274
Compiling threw: SyntaxError: missing variable name

tryItOut 275

tryItOut 276
Compiling threw: SyntaxError: invalid for/in left-hand side

tryItOut 277

tryItOut 278
Running threw: 

tryItOut 279
Compiling threw: SyntaxError: missing ; before statement

tryItOut 280
Compiling threw: SyntaxError: syntax error

tryItOut 281
Compiling threw: SyntaxError: missing { before function body

tryItOut 282
Compiling threw: SyntaxError: missing = in destructuring declaration

tryItOut 283

tryItOut 284
before 122080, after 122080, break 00cae000

tryItOut 285
Compiling threw: SyntaxError: invalid assignment left-hand side

tryItOut 286

tryItOut 287
Compiling threw: SyntaxError: syntax error

tryItOut 288

tryItOut 289
Compiling threw: SyntaxError: missing : after property id

tryItOut 290

tryItOut 291
Compiling threw: SyntaxError: syntax error

tryItOut 292

tryItOut 293

tryItOut 294

tryItOut 295
Compiling threw: SyntaxError: duplicate label

tryItOut 296
Compiling threw: SyntaxError: syntax error

tryItOut 297

tryItOut 298
Compiling threw: SyntaxError: missing { before function body

tryItOut 299
Compiling threw: SyntaxError: invalid for/in left-hand side

tryItOut 300
Compiling threw: SyntaxError: invalid for/in left-hand side

tryItOut 301

tryItOut 302

tryItOut 303

tryItOut 304
Compiling threw: SyntaxError: invalid XML name

tryItOut 305
before 122080, after 122080, break 00cae000

tryItOut 306
Compiling threw: SyntaxError: missing ) in parenthetical

tryItOut 307

tryItOut 308
Compiling threw: SyntaxError: missing } after let block

tryItOut 309
Compiling threw: SyntaxError: missing = in destructuring declaration

tryItOut 310

tryItOut 311

tryItOut 312
Compiling threw: TypeError: redeclaration of const constructor

tryItOut 313

tryItOut 314
It's an iterator!
Iterating succeeded, iterCount == 0

tryItOut 315

tryItOut 316

tryItOut 317
Compiling threw: SyntaxError: invalid assignment left-hand side

tryItOut 318
Compiling threw: SyntaxError: missing ) in parenthetical

tryItOut 319
Compiling threw: SyntaxError: syntax error

tryItOut 320

tryItOut 321
Compiling threw: SyntaxError: invalid for each loop

tryItOut 322
Compiling threw: SyntaxError: duplicate label

tryItOut 323
Compiling threw: SyntaxError: missing : after property id

tryItOut 324

tryItOut 325
Compiling threw: SyntaxError: missing ) after catch

tryItOut 326

tryItOut 327

tryItOut 328
before 122080, after 122080, break 00cae000

tryItOut 329
Compiling threw: SyntaxError: missing variable name

tryItOut 330
Compiling threw: TypeError: redeclaration of const constructor

tryItOut 331

tryItOut 332
Running threw: TypeError: this.zzz has no properties

tryItOut 333
Running threw: TypeError: this.zzz has no properties

tryItOut 334

tryItOut 335
Running threw: TypeError: [[]] is not a function

tryItOut 336
Compiling threw: SyntaxError: missing variable name

tryItOut 337
Compiling threw: SyntaxError: invalid for/in left-hand side

tryItOut 338
before 122080, after 122080, break 00cae000

tryItOut 339
It's an iterator!
Iterating succeeded, iterCount == 1

tryItOut 340
before 122080, after 122080, break 00cae000

tryItOut 341

tryItOut 342

tryItOut 343
Compiling threw: SyntaxError: invalid for/in left-hand side

tryItOut 344
Compiling threw: SyntaxError: invalid increment operand

tryItOut 345
Running threw: TypeError: this.zzz has no properties

tryItOut 346
Compiling threw: SyntaxError: syntax error

tryItOut 347
Compiling threw: SyntaxError: syntax error

tryItOut 348
Running threw: <x>
  <y/>
</x>

tryItOut 349
Compiling threw: SyntaxError: invalid for/in left-hand side

tryItOut 350
Compiling threw: SyntaxError: syntax error

tryItOut 351

tryItOut 352

tryItOut 353
Compiling threw: SyntaxError: missing variable name

tryItOut 354
Compiling threw: SyntaxError: missing variable name

tryItOut 355
Running threw: Error: invalid sharp variable use #1#

tryItOut 356
Compiling threw: SyntaxError: missing { before function body

tryItOut 357
Compiling threw: SyntaxError: missing variable name

tryItOut 358

tryItOut 359
Compiling threw: SyntaxError: missing { before function body

tryItOut 360
Compiling threw: SyntaxError: invalid assignment left-hand side

tryItOut 361
Compiling threw: SyntaxError: invalid for/in left-hand side

tryItOut 362
Compiling threw: SyntaxError: syntax error

tryItOut 363

tryItOut 364

tryItOut 365

tryItOut 366
Compiling threw: SyntaxError: missing ) after condition

tryItOut 367
Compiling threw: TypeError: redeclaration of var __count__

tryItOut 368

tryItOut 369

tryItOut 370
Compiling threw: SyntaxError: missing ) in parenthetical

tryItOut 371
Compiling threw: SyntaxError: missing variable name

tryItOut 372

tryItOut 373
Compiling threw: SyntaxError: invalid for/in left-hand side

tryItOut 374
Compiling threw: SyntaxError: invalid assignment left-hand side

tryItOut 375
Compiling threw: SyntaxError: syntax error

tryItOut 376
Compiling threw: SyntaxError: missing { before function body

tryItOut 377

tryItOut 378
Compiling threw: SyntaxError: missing name after . operator

tryItOut 379

tryItOut 380
Compiling threw: SyntaxError: invalid assignment left-hand side

tryItOut 381

tryItOut 382

tryItOut 383
Compiling threw: SyntaxError: invalid for/in left-hand side

tryItOut 384
Compiling threw: SyntaxError: invalid for/in left-hand side

tryItOut 385
Compiling threw: SyntaxError: invalid for/in left-hand side

tryItOut 386
It's an iterator!
Iterating succeeded, iterCount == 1

tryItOut 387

tryItOut 388
Compiling threw: TypeError: redeclaration of variable __noSuchMethod__

tryItOut 389
Running threw: function Object() {
    [native code]
}

tryItOut 390
Running threw: 

tryItOut 391
Compiling threw: SyntaxError: illegal XML character

tryItOut 392
Compiling threw: SyntaxError: syntax error

tryItOut 393

tryItOut 394

tryItOut 395

tryItOut 396
Running threw: Can't toString the error!!

tryItOut 397

tryItOut 398

tryItOut 399
Running threw: TypeError: this.zzz has no properties

tryItOut 400
Running threw: TypeError: gc[1, 2, 3, 4] has no properties

tryItOut 401

tryItOut 402
It's an iterator!
Iterating threw!
Iterating threw: SyntaxError: invalid XML tag syntax

tryItOut 403
Running threw: Error: invalid sharp variable use #1#

tryItOut 404
Compiling threw: SyntaxError: invalid for/in left-hand side

tryItOut 405
Compiling threw: SyntaxError: missing } after let block

tryItOut 406
Compiling threw: SyntaxError: invalid for/in left-hand side

tryItOut 407
Compiling threw: SyntaxError: unterminated string literal

tryItOut 408

tryItOut 409
Compiling threw: SyntaxError: invalid for/in left-hand side

tryItOut 410

tryItOut 411
Compiling threw: SyntaxError: missing ; before statement

tryItOut 412
Running threw: TypeError: this.zzz has no properties

tryItOut 413
Compiling threw: SyntaxError: missing ) in parenthetical

tryItOut 414
Compiling threw: SyntaxError: invalid XML name

tryItOut 415
Compiling threw: SyntaxError: invalid assignment left-hand side

tryItOut 416
Compiling threw: SyntaxError: missing variable name

tryItOut 417
Compiling threw: SyntaxError: invalid assignment left-hand side

tryItOut 418
It's an iterator!
Iterating threw!
Iterating threw: TypeError: [1, , ].@foo is not a constructor

tryItOut 419

tryItOut 420
Compiling threw: SyntaxError: syntax error

tryItOut 421

tryItOut 422

tryItOut 423
Compiling threw: SyntaxError: missing { before function body

tryItOut 424
Compiling threw: SyntaxError: missing formal parameter

tryItOut 425
Compiling threw: SyntaxError: invalid property id

tryItOut 426

tryItOut 427

tryItOut 428
Compiling threw: SyntaxError: syntax error

tryItOut 429

tryItOut 430

tryItOut 431

tryItOut 432

tryItOut 433

tryItOut 434
Compiling threw: SyntaxError: missing ) after with-statement object

tryItOut 435
Compiling threw: SyntaxError: invalid for/in left-hand side

tryItOut 436
Running threw: [object StopIteration]

tryItOut 437

tryItOut 438

tryItOut 439
Compiling threw: SyntaxError: syntax error

tryItOut 440

tryItOut 441
Compiling threw: SyntaxError: missing variable name

tryItOut 442
Compiling threw: SyntaxError: duplicate label

tryItOut 443

tryItOut 444
Compiling threw: SyntaxError: invalid XML name

tryItOut 445

tryItOut 446
Compiling threw: SyntaxError: syntax error

tryItOut 447
Compiling threw: SyntaxError: missing name in export statement

tryItOut 448
Compiling threw: SyntaxError: syntax error

tryItOut 449

tryItOut 450

tryItOut 451

tryItOut 452
Compiling threw: SyntaxError: syntax error

tryItOut 453

tryItOut 454

tryItOut 455

tryItOut 456
Running threw: TypeError: __noSuchMethod__['throw'] is not a function

tryItOut 457
Compiling threw: SyntaxError: missing variable name

tryItOut 458
Compiling threw: SyntaxError: invalid for/in left-hand side

tryItOut 459
Running threw: TypeError: this.zzz has no properties

tryItOut 460
Compiling threw: SyntaxError: missing ; after for-loop initializer

tryItOut 461

tryItOut 462
Compiling threw: SyntaxError: missing } after let block

tryItOut 463

tryItOut 464
Compiling threw: SyntaxError: missing variable name

tryItOut 465
Compiling threw: SyntaxError: missing } after property list

tryItOut 466
Compiling threw: SyntaxError: invalid decrement operand

tryItOut 467
Running threw: [object StopIteration]

tryItOut 468
Compiling threw: SyntaxError: invalid assignment left-hand side

tryItOut 469
Compiling threw: SyntaxError: invalid assignment left-hand side

tryItOut 470
Compiling threw: SyntaxError: invalid for/in left-hand side

tryItOut 471

tryItOut 472
Compiling threw: SyntaxError: invalid for/in left-hand side

tryItOut 473
Compiling threw: SyntaxError: syntax error

tryItOut 474

tryItOut 475
Compiling threw: TypeError: redeclaration of const __parent__

tryItOut 476

tryItOut 477

tryItOut 478
Compiling threw: SyntaxError: invalid property id

tryItOut 479
before 174400, after 174400, break 00d2f000

tryItOut 480
Compiling threw: SyntaxError: missing ; after for-loop initializer

tryItOut 481
Compiling threw: SyntaxError: invalid assignment left-hand side

tryItOut 482
Compiling threw: SyntaxError: invalid for/in left-hand side

tryItOut 483
Compiling threw: SyntaxError: missing name after . operator

tryItOut 484
Compiling threw: SyntaxError: missing variable name

tryItOut 485

tryItOut 486
Compiling threw: SyntaxError: missing ; after for-loop initializer

tryItOut 487

tryItOut 488
Compiling threw: SyntaxError: illegal XML character

tryItOut 489
Compiling threw: SyntaxError: syntax error

tryItOut 490

tryItOut 491

tryItOut 492
Compiling threw: SyntaxError: missing variable name

tryItOut 493

tryItOut 494

tryItOut 495
Compiling threw: SyntaxError: duplicate label

tryItOut 496

tryItOut 497
Compiling threw: SyntaxError: invalid assignment left-hand side

tryItOut 498

tryItOut 499
Compiling threw: SyntaxError: invalid increment operand

tryItOut 500
It's an iterator!
Iterating succeeded, iterCount == 0

tryItOut 501

tryItOut 502

tryItOut 503
Compiling threw: SyntaxError: missing ) in parenthetical

tryItOut 504

tryItOut 505
Compiling threw: SyntaxError: missing ; after for-loop initializer

tryItOut 506

tryItOut 507
Compiling threw: SyntaxError: missing ( before let head

tryItOut 508

tryItOut 509

tryItOut 510

tryItOut 511
Running threw: [object StopIteration]

tryItOut 512

tryItOut 513
before 174400, after 174400, break 00d2f000

tryItOut 514
Compiling threw: SyntaxError: invalid for/in left-hand side

tryItOut 515
Running threw: TypeError: this.zzz has no properties

tryItOut 516
Compiling threw: SyntaxError: missing ; before statement

tryItOut 517
Compiling threw: TypeError: redeclaration of variable __proto__

tryItOut 518
Compiling threw: SyntaxError: missing } after let block

tryItOut 519

tryItOut 520

tryItOut 521
It's an iterator!
Iterating succeeded, iterCount == 1

tryItOut 522

tryItOut 523
Compiling threw: SyntaxError: missing { before function body

tryItOut 524
Compiling threw: SyntaxError: syntax error

tryItOut 525
Compiling threw: SyntaxError: missing ) after condition

tryItOut 526
Running threw: null

tryItOut 527

tryItOut 528
before 174400, after 174400, break 00d2f000

tryItOut 529
Compiling threw: SyntaxError: missing ) in parenthetical

tryItOut 530

tryItOut 531
Compiling threw: SyntaxError: missing { before function body

tryItOut 532

tryItOut 533
Compiling threw: SyntaxError: missing ; before statement

tryItOut 534

tryItOut 535
Compiling threw: SyntaxError: invalid increment operand

tryItOut 536

tryItOut 537

tryItOut 538
Compiling threw: SyntaxError: syntax error

tryItOut 539
before 174400, after 174400, break 00d2f000

tryItOut 540
It's an iterator!
Iterating succeeded, iterCount == 1

tryItOut 541

tryItOut 542

tryItOut 543

tryItOut 544

tryItOut 545
Compiling threw: SyntaxError: syntax error

tryItOut 546
Compiling threw: SyntaxError: missing ) in parenthetical

tryItOut 547
Compiling threw: SyntaxError: illegal XML character

tryItOut 548
Running threw: ReferenceError: z1 is not defined

tryItOut 549
Compiling threw: SyntaxError: invalid assignment left-hand side

tryItOut 550

tryItOut 551
Compiling threw: SyntaxError: missing } after let block

tryItOut 552
Compiling threw: TypeError: redeclaration of var __noSuchMethod__

tryItOut 553
Compiling threw: SyntaxError: missing ; after for-loop initializer

tryItOut 554
Compiling threw: SyntaxError: invalid assignment left-hand side

tryItOut 555

tryItOut 556

tryItOut 557
Compiling threw: SyntaxError: invalid for/in left-hand side

tryItOut 558
Compiling threw: SyntaxError: syntax error

tryItOut 559
Compiling threw: SyntaxError: missing } after let block

tryItOut 560

tryItOut 561

tryItOut 562
Compiling threw: SyntaxError: invalid XML name

tryItOut 563

tryItOut 564
Running threw: 

tryItOut 565

tryItOut 566
Compiling threw: SyntaxError: invalid assignment left-hand side

tryItOut 567
Compiling threw: SyntaxError: invalid for/in left-hand side

tryItOut 568
It's an iterator!
Iterating succeeded, iterCount == 1

tryItOut 569

tryItOut 570

tryItOut 571
Compiling threw: SyntaxError: illegal XML character

tryItOut 572
It's an iterator!
Iterating threw!
Iterating threw: TypeError: this.zzz has no properties

tryItOut 573

tryItOut 574
Compiling threw: TypeError: redeclaration of const constructor

tryItOut 575

tryItOut 576
It's an iterator!
Iterating threw!
Iterating threw: TypeError: <x/>.watch is not a function

tryItOut 577
Compiling threw: SyntaxError: missing variable name

tryItOut 578

tryItOut 579
It's an iterator!
Iterating succeeded, iterCount == 1

tryItOut 580

tryItOut 581
Compiling threw: SyntaxError: missing ) after argument list

tryItOut 582

tryItOut 583

tryItOut 584

tryItOut 585

tryItOut 586

tryItOut 587
Compiling threw: SyntaxError: missing ] after element list

tryItOut 588
Compiling threw: SyntaxError: missing variable name

tryItOut 589
Compiling threw: SyntaxError: missing } after let block

tryItOut 590
Running threw: TypeError: this.zzz has no properties

tryItOut 591

tryItOut 592
Compiling threw: SyntaxError: invalid decrement operand

tryItOut 593
Running threw: [object StopIteration]

tryItOut 594

tryItOut 595

tryItOut 596

tryItOut 597
Compiling threw: SyntaxError: illegal XML character

tryItOut 598
Running threw: SyntaxError: missing = in XML attribute

tryItOut 599

tryItOut 600
Compiling threw: SyntaxError: missing = in destructuring declaration

tryItOut 601
Compiling threw: SyntaxError: syntax error

tryItOut 602

tryItOut 603
Compiling threw: SyntaxError: invalid for/in left-hand side

tryItOut 604
Running threw: 112

tryItOut 605
Running threw: ReferenceError: z2 is not defined

tryItOut 606

tryItOut 607
Compiling threw: SyntaxError: syntax error

tryItOut 608

tryItOut 609
Compiling threw: SyntaxError: invalid for/in left-hand side

tryItOut 610
Compiling threw: SyntaxError: invalid XML name

tryItOut 611
Compiling threw: SyntaxError: syntax error

tryItOut 612
Compiling threw: TypeError: redeclaration of const __count__

tryItOut 613
Compiling threw: SyntaxError: syntax error

tryItOut 614

tryItOut 615
Compiling threw: SyntaxError: invalid for/in left-hand side

tryItOut 616

tryItOut 617
Running threw: [object StopIteration]

tryItOut 618

tryItOut 619
Compiling threw: SyntaxError: invalid destructuring assignment operator

tryItOut 620
Compiling threw: SyntaxError: missing variable name

tryItOut 621

tryItOut 622
Compiling threw: SyntaxError: missing } in XML expression

tryItOut 623
Compiling threw: SyntaxError: missing { before function body

tryItOut 624
It's an iterator!
Iterating threw!
Iterating threw: TypeError: <x><y/></x>['throw'] is not a function

tryItOut 625
Compiling threw: SyntaxError: invalid for/in left-hand side

tryItOut 626
Compiling threw: SyntaxError: missing } after let block

tryItOut 627
Compiling threw: SyntaxError: missing variable name

tryItOut 628

tryItOut 629
Compiling threw: SyntaxError: missing ; before statement

tryItOut 630

tryItOut 631
It's an iterator!
Iterating succeeded, iterCount == 1

tryItOut 632

tryItOut 633

tryItOut 634
Compiling threw: SyntaxError: invalid for/in left-hand side

tryItOut 635
Compiling threw: TypeError: redeclaration of variable prototype

tryItOut 636
Compiling threw: SyntaxError: missing variable name

tryItOut 637

tryItOut 638

tryItOut 639

tryItOut 640

tryItOut 641

tryItOut 642

tryItOut 643
Compiling threw: SyntaxError: syntax error

tryItOut 644
It's an iterator!
Iterating succeeded, iterCount == 1

tryItOut 645

tryItOut 646

tryItOut 647
Running threw: ReferenceError: z1 is not defined

tryItOut 648
Compiling threw: SyntaxError: missing = in destructuring declaration

tryItOut 649
Compiling threw: SyntaxError: missing } after let block

tryItOut 650
Compiling threw: SyntaxError: missing { before function body

tryItOut 651
Compiling threw: SyntaxError: invalid for/in left-hand side

tryItOut 652

tryItOut 653
Compiling threw: SyntaxError: missing ) in parenthetical

tryItOut 654
Compiling threw: SyntaxError: illegal XML character

tryItOut 655
Compiling threw: SyntaxError: syntax error

tryItOut 656
Compiling threw: SyntaxError: invalid for/in left-hand side

tryItOut 657
Compiling threw: SyntaxError: missing { before function body

tryItOut 658
before 191840, after 191840, break 00d54000

tryItOut 659
Compiling threw: SyntaxError: syntax error

tryItOut 660

tryItOut 661
Compiling threw: SyntaxError: invalid for/in left-hand side

tryItOut 662

tryItOut 663
Compiling threw: SyntaxError: syntax error

tryItOut 664

tryItOut 665

tryItOut 666
Compiling threw: SyntaxError: syntax error

tryItOut 667
Running threw: function Object() {
    [native code]
}

tryItOut 668

tryItOut 669
Compiling threw: SyntaxError: invalid assignment left-hand side

tryItOut 670

tryItOut 671
Compiling threw: SyntaxError: invalid assignment left-hand side

tryItOut 672
Compiling threw: SyntaxError: missing { before function body

tryItOut 673

tryItOut 674

tryItOut 675
Compiling threw: SyntaxError: syntax error

tryItOut 676
Compiling threw: SyntaxError: missing ( before condition

tryItOut 677
Running threw: [object StopIteration]

tryItOut 678
Compiling threw: SyntaxError: missing } after let block

tryItOut 679
Compiling threw: SyntaxError: invalid assignment left-hand side

tryItOut 680
Compiling threw: SyntaxError: invalid assignment left-hand side

tryItOut 681
Compiling threw: SyntaxError: invalid assignment left-hand side

tryItOut 682

tryItOut 683
Compiling threw: SyntaxError: invalid destructuring assignment operator

tryItOut 684

tryItOut 685
Running threw: function Object() {
    [native code]
}

tryItOut 686
Compiling threw: SyntaxError: syntax error

tryItOut 687
Compiling threw: SyntaxError: syntax error

tryItOut 688
Compiling threw: SyntaxError: invalid decrement operand

tryItOut 689
Compiling threw: SyntaxError: missing } after let block

tryItOut 690

tryItOut 691
Compiling threw: SyntaxError: invalid decrement operand

tryItOut 692
before 191840, after 174400, break 00d53000
before 174400, after 174400, break 00d53000
before 174400, after 174400, break 00d53000
before 174400, after 174400, break 00d53000

tryItOut 693
Compiling threw: TypeError: redeclaration of variable __proto__

tryItOut 694
Compiling threw: SyntaxError: invalid for/in left-hand side

tryItOut 695
Running threw: null

tryItOut 696
Compiling threw: SyntaxError: invalid for/in left-hand side

tryItOut 697
Compiling threw: SyntaxError: syntax error

tryItOut 698

tryItOut 699
It's an iterator!
Iterating succeeded, iterCount == 1

tryItOut 700
Compiling threw: SyntaxError: syntax error

tryItOut 701
Compiling threw: SyntaxError: invalid for/in left-hand side

tryItOut 702

tryItOut 703

tryItOut 704
Compiling threw: SyntaxError: illegal XML character

tryItOut 705
Compiling threw: SyntaxError: missing { before function body

tryItOut 706
Compiling threw: SyntaxError: invalid for/in left-hand side

tryItOut 707
Running threw: [object StopIteration]

tryItOut 708
Compiling threw: SyntaxError: missing { before function body

tryItOut 709

tryItOut 710

tryItOut 711
before 174400, after 174400, break 00d53000

tryItOut 712
Compiling threw: SyntaxError: missing { before function body

tryItOut 713
Compiling threw: SyntaxError: syntax error

tryItOut 714
Compiling threw: SyntaxError: missing { before function body

tryItOut 715
Compiling threw: SyntaxError: syntax error

tryItOut 716

tryItOut 717
Compiling threw: SyntaxError: syntax error

tryItOut 718

tryItOut 719

tryItOut 720
Compiling threw: SyntaxError: invalid for/in left-hand side

tryItOut 721
Compiling threw: SyntaxError: illegal XML character

tryItOut 722

tryItOut 723
Compiling threw: SyntaxError: invalid increment operand

tryItOut 724

tryItOut 725
Compiling threw: SyntaxError: syntax error

tryItOut 726

tryItOut 727

tryItOut 728
It's an iterator!
Iterating succeeded, iterCount == 1

tryItOut 729

tryItOut 730
Compiling threw: SyntaxError: syntax error

tryItOut 731
Compiling threw: SyntaxError: syntax error

tryItOut 732

tryItOut 733

tryItOut 734
It's an iterator!
Iterating succeeded, iterCount == 1

tryItOut 735

tryItOut 736
Compiling threw: SyntaxError: missing { before function body

tryItOut 737
Compiling threw: SyntaxError: invalid assignment left-hand side

tryItOut 738
It's an iterator!
Iterating succeeded, iterCount == 1

tryItOut 739

tryItOut 740
Compiling threw: SyntaxError: invalid for/in left-hand side

tryItOut 741
Compiling threw: SyntaxError: missing ; before statement

tryItOut 742

tryItOut 743

tryItOut 744
It's an iterator!
Iterating threw!
Iterating threw: ReferenceError: z1 is not defined

tryItOut 745
Compiling threw: SyntaxError: syntax error

tryItOut 746
Compiling threw: SyntaxError: missing variable name

tryItOut 747
Compiling threw: SyntaxError: invalid increment operand

tryItOut 748
Compiling threw: SyntaxError: missing variable name

tryItOut 749

tryItOut 750
Compiling threw: SyntaxError: syntax error

tryItOut 751

tryItOut 752

tryItOut 753
Compiling threw: SyntaxError: missing ) in parenthetical

tryItOut 754
Compiling threw: SyntaxError: missing variable name

tryItOut 755
Compiling threw: SyntaxError: missing variable name

tryItOut 756
Compiling threw: SyntaxError: syntax error

tryItOut 757
Compiling threw: SyntaxError: syntax error

tryItOut 758
Compiling threw: SyntaxError: missing variable name

tryItOut 759

tryItOut 760

tryItOut 761
Compiling threw: SyntaxError: invalid for/in left-hand side

tryItOut 762
Compiling threw: SyntaxError: syntax error

tryItOut 763
Running threw: TypeError: this.zzz has no properties

tryItOut 764

tryItOut 765

tryItOut 766

tryItOut 767

tryItOut 768
before 174400, after 174400, break 00d53000

tryItOut 769

tryItOut 770
Compiling threw: SyntaxError: invalid for/in left-hand side

tryItOut 771

tryItOut 772
Compiling threw: SyntaxError: invalid for each loop

tryItOut 773

tryItOut 774
Running threw: TypeError: __iterator__ has no properties

tryItOut 775
before 174400, after 174400, break 00d53000

tryItOut 776
before 174400, after 174400, break 00d53000

tryItOut 777

tryItOut 778
Compiling threw: SyntaxError: missing ; before statement

tryItOut 779
Compiling threw: SyntaxError: invalid for each loop

tryItOut 780
Compiling threw: SyntaxError: invalid XML name

tryItOut 781
Compiling threw: SyntaxError: missing { before function body

tryItOut 782

tryItOut 783
It's an iterator!
Iterating succeeded, iterCount == 1

tryItOut 784
It's an iterator!
Iterating succeeded, iterCount == 1

tryItOut 785
Compiling threw: SyntaxError: missing ) in parenthetical

tryItOut 786

tryItOut 787
Compiling threw: SyntaxError: invalid XML name

tryItOut 788
Compiling threw: SyntaxError: invalid XML name

tryItOut 789
Compiling threw: SyntaxError: missing variable name

tryItOut 790

tryItOut 791
Compiling threw: SyntaxError: invalid for/in left-hand side

tryItOut 792
Running threw: [object StopIteration]

tryItOut 793
Compiling threw: SyntaxError: missing ) after argument list

tryItOut 794
Compiling threw: SyntaxError: invalid for/in left-hand side

tryItOut 795
Compiling threw: SyntaxError: missing variable name

tryItOut 796
Compiling threw: SyntaxError: invalid destructuring assignment operator

tryItOut 797
Compiling threw: SyntaxError: syntax error

tryItOut 798
Running threw: [object StopIteration]

tryItOut 799

tryItOut 800

tryItOut 801
Compiling threw: SyntaxError: invalid for/in left-hand side

tryItOut 802
It's an iterator!
Iterating succeeded, iterCount == 1

tryItOut 803
Running threw: undefined

tryItOut 804
Compiling threw: TypeError: redeclaration of const __noSuchMethod__

tryItOut 805
Compiling threw: SyntaxError: syntax error

tryItOut 806
Compiling threw: SyntaxError: syntax error

tryItOut 807

tryItOut 808

tryItOut 809

tryItOut 810

tryItOut 811
Running threw: TypeError: <x>
  <y/>
</x> is not a constructor

tryItOut 812
Compiling threw: SyntaxError: invalid assignment left-hand side

tryItOut 813
Compiling threw: SyntaxError: missing { before function body

tryItOut 814

tryItOut 815
Running threw: function Object() {
    [native code]
}

tryItOut 816
Compiling threw: SyntaxError: invalid for/in left-hand side

tryItOut 817
It's an iterator!
Iterating threw!
Iterating threw: TypeError: arguments[0] has no properties

tryItOut 818
Compiling threw: SyntaxError: missing = in destructuring declaration

tryItOut 819
Compiling threw: TypeError: redeclaration of variable prototype

tryItOut 820
Compiling threw: SyntaxError: missing ) after argument list

tryItOut 821
Compiling threw: SyntaxError: invalid for/in left-hand side

tryItOut 822
Compiling threw: SyntaxError: missing variable name

tryItOut 823
Compiling threw: SyntaxError: invalid for/in left-hand side

tryItOut 824
Compiling threw: SyntaxError: syntax error

tryItOut 825
It's an iterator!
Iterating succeeded, iterCount == 1

tryItOut 826
Compiling threw: SyntaxError: missing ) after let head

tryItOut 827
Compiling threw: SyntaxError: missing { before function body

tryItOut 828
Compiling threw: SyntaxError: syntax error

tryItOut 829
Running threw: TypeError: /x/ is not a constructor

tryItOut 830
Compiling threw: SyntaxError: invalid assignment left-hand side

tryItOut 831

tryItOut 832

tryItOut 833

tryItOut 834

tryItOut 835
Running threw: TypeError: this.zzz has no properties

tryItOut 836

tryItOut 837
Compiling threw: SyntaxError: invalid for/in left-hand side

tryItOut 838

tryItOut 839

tryItOut 840
Running threw: [object StopIteration]

tryItOut 841
Compiling threw: SyntaxError: invalid for/in left-hand side

tryItOut 842

tryItOut 843
Compiling threw: SyntaxError: missing : after property id

tryItOut 844
Compiling threw: SyntaxError: invalid assignment left-hand side

tryItOut 845
Compiling threw: SyntaxError: missing ) after for-loop control

tryItOut 846

tryItOut 847

tryItOut 848
Compiling threw: SyntaxError: invalid for/in left-hand side

tryItOut 849
Compiling threw: SyntaxError: syntax error

tryItOut 850

tryItOut 851
Compiling threw: SyntaxError: missing { before function body

tryItOut 852
Compiling threw: SyntaxError: illegal XML character

tryItOut 853

tryItOut 854

tryItOut 855
Compiling threw: SyntaxError: missing variable name

tryItOut 856

tryItOut 857

tryItOut 858
Running threw: SyntaxError: invalid getter usage

tryItOut 859

tryItOut 860
Compiling threw: SyntaxError: missing ) in parenthetical

tryItOut 861

tryItOut 862
before 191840, after 191840, break 00d68000

tryItOut 863
Compiling threw: SyntaxError: missing variable name

tryItOut 864

tryItOut 865

tryItOut 866

tryItOut 867
Running threw: 112

tryItOut 868

tryItOut 869
Compiling threw: SyntaxError: missing ; after for-loop initializer

tryItOut 870
Compiling threw: SyntaxError: invalid for/in left-hand side

tryItOut 871
Compiling threw: SyntaxError: missing = in destructuring declaration

tryItOut 872

tryItOut 873
Compiling threw: SyntaxError: syntax error

tryItOut 874
It's an iterator!
Iterating threw!
Iterating threw: TypeError: "".yoyo is not a function

tryItOut 875
Running threw: [object StopIteration]

tryItOut 876

tryItOut 877

tryItOut 878

tryItOut 879
Running threw: undefined

tryItOut 880
Compiling threw: SyntaxError: invalid for each loop

tryItOut 881
Compiling threw: TypeError: redeclaration of variable prop

tryItOut 882

tryItOut 883
Running threw: undefined

tryItOut 884
Compiling threw: TypeError: redeclaration of variable __proto__

tryItOut 885

tryItOut 886
Compiling threw: SyntaxError: missing { before function body

tryItOut 887

tryItOut 888

tryItOut 889

tryItOut 890

tryItOut 891
Compiling threw: SyntaxError: invalid for/in left-hand side

tryItOut 892

tryItOut 893

tryItOut 894
Compiling threw: SyntaxError: invalid assignment left-hand side

tryItOut 895
Compiling threw: SyntaxError: syntax error

tryItOut 896

tryItOut 897
before 191840, after 191840, break 00d68000

tryItOut 898
Compiling threw: SyntaxError: illegal XML character

tryItOut 899

tryItOut 900
Compiling threw: SyntaxError: illegal XML character

tryItOut 901
Compiling threw: SyntaxError: syntax error

tryItOut 902

tryItOut 903

tryItOut 904

tryItOut 905
Running threw: function Object() {
    [native code]
}

tryItOut 906

tryItOut 907

tryItOut 908
Compiling threw: SyntaxError: syntax error

tryItOut 909
Compiling threw: TypeError: redeclaration of const prototype

tryItOut 910
Running threw: 

tryItOut 911
before 191840, after 191840, break 00d68000

tryItOut 912

tryItOut 913

tryItOut 914
Compiling threw: SyntaxError: missing ) in parenthetical

tryItOut 915
before 191840, after 191840, break 00d68000

tryItOut 916
Running threw: undefined

tryItOut 917
Compiling threw: SyntaxError: invalid for/in left-hand side

tryItOut 918

tryItOut 919
Compiling threw: SyntaxError: invalid for/in left-hand side

tryItOut 920

tryItOut 921

tryItOut 922

tryItOut 923

tryItOut 924

tryItOut 925
Compiling threw: SyntaxError: syntax error

tryItOut 926

tryItOut 927
It's an iterator!
Iterating succeeded, iterCount == 1

tryItOut 928
Compiling threw: SyntaxError: missing variable name

tryItOut 929

tryItOut 930

tryItOut 931
Compiling threw: SyntaxError: missing formal parameter

tryItOut 932
Compiling threw: SyntaxError: missing variable name

tryItOut 933
Compiling threw: SyntaxError: missing } after let block

tryItOut 934
Compiling threw: SyntaxError: missing variable name

tryItOut 935
Running threw: TypeError: <x/>.yoyo is not a function

tryItOut 936
It's an iterator!
Iterating succeeded, iterCount == 1

tryItOut 937
Compiling threw: SyntaxError: duplicate label

tryItOut 938
Compiling threw: SyntaxError: invalid for/in left-hand side

tryItOut 939

tryItOut 940
It's an iterator!
Iterating threw!
Iterating threw: Error: invalid sharp variable use #1#

tryItOut 941
Compiling threw: SyntaxError: invalid for/in left-hand side

tryItOut 942
Compiling threw: SyntaxError: invalid for/in left-hand side

tryItOut 943
Compiling threw: SyntaxError: invalid for/in left-hand side

tryItOut 944

tryItOut 945
Compiling threw: SyntaxError: missing } in XML expression

tryItOut 946
Running threw: TypeError: this.zzz has no properties

tryItOut 947
Compiling threw: SyntaxError: invalid increment operand

tryItOut 948
Running threw: TypeError: this.zzz has no properties

tryItOut 949

tryItOut 950
Compiling threw: SyntaxError: missing } after let block

tryItOut 951

tryItOut 952
Compiling threw: TypeError: redeclaration of var __noSuchMethod__

tryItOut 953
Compiling threw: SyntaxError: invalid for each loop

tryItOut 954
Compiling threw: SyntaxError: duplicate label

tryItOut 955

tryItOut 956
Compiling threw: SyntaxError: missing ; before statement

tryItOut 957
Compiling threw: SyntaxError: missing ; before statement

tryItOut 958

tryItOut 959

tryItOut 960

tryItOut 961
Compiling threw: SyntaxError: invalid for each loop

tryItOut 962
Compiling threw: SyntaxError: illegal XML character

tryItOut 963
Running threw: undefined

tryItOut 964

tryItOut 965
Compiling threw: SyntaxError: invalid for/in left-hand side

tryItOut 966
Compiling threw: SyntaxError: missing { before function body

tryItOut 967
Compiling threw: SyntaxError: missing variable name

tryItOut 968

tryItOut 969

tryItOut 970
Compiling threw: SyntaxError: yield expression must be parenthesized

tryItOut 971

tryItOut 972
Compiling threw: SyntaxError: missing ) after condition

tryItOut 973
Running threw: TypeError: this.zzz has no properties

tryItOut 974

tryItOut 975
Running threw: TypeError: <x>
  <y/>
</x> is not a function

tryItOut 976
Compiling threw: SyntaxError: catch without try

tryItOut 977
Compiling threw: SyntaxError: syntax error

tryItOut 978

tryItOut 979

tryItOut 980
Running threw: TypeError: false['throw'] is not a function

tryItOut 981
Compiling threw: SyntaxError: syntax error

tryItOut 982
Compiling threw: SyntaxError: syntax error

tryItOut 983
Running threw: ReferenceError: z1 is not defined

tryItOut 984
Compiling threw: SyntaxError: missing ; before statement

tryItOut 985
Running threw: [object StopIteration]

tryItOut 986
Compiling threw: SyntaxError: missing { before function body

tryItOut 987
Running threw: TypeError: ""['throw'] is not a function

tryItOut 988
before 191840, after 191840, break 00d7e000

tryItOut 989

tryItOut 990

tryItOut 991
Running threw: ReferenceError: z1 is not defined

tryItOut 992
Compiling threw: SyntaxError: syntax error

tryItOut 993
Compiling threw: SyntaxError: missing { before function body

tryItOut 994
Compiling threw: SyntaxError: invalid decrement operand

tryItOut 995

tryItOut 996
Running threw: TypeError: __noSuchMethod__ is not a function

tryItOut 997
Running threw: undefined

tryItOut 998
Compiling threw: SyntaxError: syntax error

tryItOut 999
Compiling threw: SyntaxError: missing ] after element list

tryItOut 1000

ALL OK

Script done on Sat 04 May 2013 04:59:44 AM PDT
