Script started on Sat 04 May 2013 07:34:12 AM PDT
***
Targeting SpiderMonkey / Gecko.

tryItOut 1

tryItOut 2
Compiling threw: SyntaxError: invalid assignment left-hand side

tryItOut 3
It's an iterator!
Iterating succeeded, iterCount == 1

tryItOut 4
Compiling threw: SyntaxError: missing variable name

tryItOut 5

tryItOut 6

tryItOut 7
Compiling threw: SyntaxError: missing } after let block

tryItOut 8
Compiling threw: SyntaxError: missing : after property id

tryItOut 9

tryItOut 10
before 69760, after 69760, break 01287000
before 69760, after 69760, break 01287000
before 69760, after 69760, break 01287000
before 69760, after 69760, break 01287000

tryItOut 11
Running threw: TypeError: this.zzz has no properties

tryItOut 12
Compiling threw: SyntaxError: missing = in destructuring declaration

tryItOut 13
It's an iterator!
Iterating threw!
Iterating threw: ReferenceError: reference to undefined XML name *

tryItOut 14
Running threw: 

tryItOut 15
Compiling threw: SyntaxError: missing ) after let head

tryItOut 16

tryItOut 17

tryItOut 18
Compiling threw: SyntaxError: missing ; after for-loop initializer

tryItOut 19
Running threw: ReferenceError: __noSuchMethod__ is not defined

tryItOut 20
Running threw: ReferenceError: yyy is not defined

tryItOut 21

tryItOut 22
Compiling threw: SyntaxError: invalid assignment left-hand side

tryItOut 23
Running threw: ReferenceError: prop is not defined

tryItOut 24
Compiling threw: SyntaxError: missing variable name

tryItOut 25
Compiling threw: SyntaxError: invalid assignment left-hand side

tryItOut 26
Compiling threw: SyntaxError: missing variable name

tryItOut 27

tryItOut 28

tryItOut 29
Running threw: TypeError: this.zzz has no properties

tryItOut 30

tryItOut 31

tryItOut 32
Compiling threw: SyntaxError: missing variable name

tryItOut 33
Compiling threw: SyntaxError: syntax error

tryItOut 34
Running threw: TypeError: this.zzz has no properties

tryItOut 35

tryItOut 36

tryItOut 37

tryItOut 38

tryItOut 39

tryItOut 40

tryItOut 41

tryItOut 42

tryItOut 43
Running threw: ReferenceError: z1 is not defined

tryItOut 44
before 87200, after 87200, break 01287000

tryItOut 45
Running threw: ReferenceError: reference to undefined XML name *::*

tryItOut 46

tryItOut 47
Compiling threw: SyntaxError: missing variable name

tryItOut 48
Running threw: TypeError: this.zzz has no properties

tryItOut 49
It's an iterator!
Iterating succeeded, iterCount == 1

tryItOut 50
It's an iterator!
Iterating succeeded, iterCount == 1

tryItOut 51
It's an iterator!
Iterating succeeded, iterCount == 1

tryItOut 52
It's an iterator!
before 87200, after 87200, break 01287000
Iterating threw!
Iterating threw: ReferenceError: reference to undefined XML name *

tryItOut 53

tryItOut 54
Compiling threw: TypeError: redeclaration of var __parent__

tryItOut 55
Running threw: 4

tryItOut 56
Compiling threw: SyntaxError: missing variable name

tryItOut 57
Compiling threw: SyntaxError: catch without try

tryItOut 58

tryItOut 59
Compiling threw: SyntaxError: invalid decrement operand

tryItOut 60

tryItOut 61
Running threw: ReferenceError: z1 is not defined

tryItOut 62
Compiling threw: SyntaxError: missing ; before statement

tryItOut 63
It's an iterator!
Iterating succeeded, iterCount == 4

tryItOut 64

tryItOut 65
Compiling threw: SyntaxError: syntax error

tryItOut 66

tryItOut 67
Compiling threw: SyntaxError: invalid destructuring assignment operator

tryItOut 68
Running threw: ReferenceError: reference to undefined XML name *::*

tryItOut 69
Compiling threw: SyntaxError: syntax error

tryItOut 70
Running threw: ReferenceError: prop is not defined

tryItOut 71

tryItOut 72
Compiling threw: SyntaxError: missing variable name

tryItOut 73

tryItOut 74
Compiling threw: SyntaxError: missing variable name

tryItOut 75
Compiling threw: SyntaxError: syntax error

tryItOut 76

tryItOut 77

tryItOut 78
Running threw: TypeError: <y>
  <z/>
</y> is not a function

tryItOut 79
Compiling threw: SyntaxError: invalid destructuring assignment operator

tryItOut 80
It's an iterator!
Iterating threw!
Iterating threw: TypeError: 4 is not a constructor

tryItOut 81
Compiling threw: SyntaxError: missing : after property id

tryItOut 82
Running threw: ReferenceError: reference to undefined XML name *::*

tryItOut 83

tryItOut 84

tryItOut 85
Compiling threw: SyntaxError: missing variable name

tryItOut 86

tryItOut 87

tryItOut 88
Compiling threw: SyntaxError: invalid decrement operand

tryItOut 89

tryItOut 90
Running threw: ReferenceError: reference to undefined XML name @foo

tryItOut 91
Running threw: TypeError: this.zzz has no properties

tryItOut 92

tryItOut 93
Compiling threw: SyntaxError: syntax error

tryItOut 94
Compiling threw: SyntaxError: syntax error

tryItOut 95
Compiling threw: SyntaxError: missing variable name

tryItOut 96
It's an iterator!
Iterating succeeded, iterCount == 1

tryItOut 97

tryItOut 98

tryItOut 99
It's an iterator!
Iterating succeeded, iterCount == 1

tryItOut 100

tryItOut 101

tryItOut 102
Compiling threw: SyntaxError: invalid assignment left-hand side

tryItOut 103
It's an iterator!
Iterating threw!
Iterating threw: ReferenceError: z1 is not defined

tryItOut 104

tryItOut 105

tryItOut 106
Running threw: TypeError: this.zzz has no properties

tryItOut 107
Compiling threw: SyntaxError: missing variable name

tryItOut 108
Running threw: ReferenceError: prop is not defined

tryItOut 109

tryItOut 110
Compiling threw: SyntaxError: syntax error

tryItOut 111
It's an iterator!
Iterating succeeded, iterCount == 1

tryItOut 112
Running threw: ReferenceError: reference to undefined XML name *

tryItOut 113
Running threw: TypeError: <y><z/></y>['throw'] is not a function

tryItOut 114

tryItOut 115
Running threw: TypeError: redeclaration of const prototype

tryItOut 116
Running threw: ReferenceError: reference to undefined XML name *::*

tryItOut 117
Compiling threw: SyntaxError: missing variable name

tryItOut 118

tryItOut 119
Running threw: ReferenceError: prototype is not defined

tryItOut 120
Running threw: ReferenceError: reference to undefined XML name @foo

tryItOut 121
Running threw: ReferenceError: prototype is not defined

tryItOut 122
Compiling threw: SyntaxError: syntax error

tryItOut 123
Compiling threw: SyntaxError: unterminated string literal

tryItOut 124
Compiling threw: SyntaxError: syntax error

tryItOut 125

tryItOut 126
Compiling threw: SyntaxError: missing } after let block

tryItOut 127

tryItOut 128

tryItOut 129
Running threw: TypeError: p.z = <y><z/></y> is not a function

tryItOut 130

tryItOut 131

tryItOut 132

tryItOut 133

tryItOut 134
Compiling threw: SyntaxError: missing ) in parenthetical

tryItOut 135

tryItOut 136

tryItOut 137

tryItOut 138
It's an iterator!
Iterating threw!
Iterating threw: ReferenceError: z1 is not defined

tryItOut 139

tryItOut 140
Running threw: ReferenceError: reference to undefined XML name *

tryItOut 141
Compiling threw: SyntaxError: invalid assignment left-hand side

tryItOut 142
Running threw: ReferenceError: __noSuchMethod__ is not defined

tryItOut 143

tryItOut 144

tryItOut 145
Compiling threw: SyntaxError: missing } in compound statement

tryItOut 146

tryItOut 147
It's an iterator!
Iterating succeeded, iterCount == 1

tryItOut 148
Running threw: ReferenceError: reference to undefined XML name @foo

tryItOut 149
Compiling threw: SyntaxError: missing ) in parenthetical

tryItOut 150

tryItOut 151
Compiling threw: SyntaxError: missing } after let block

tryItOut 152

tryItOut 153
Running threw: ReferenceError: reference to undefined XML name *::*

tryItOut 154

tryItOut 155
Compiling threw: SyntaxError: invalid property id

tryItOut 156

tryItOut 157
Compiling threw: SyntaxError: invalid for/in left-hand side

tryItOut 158

tryItOut 159

tryItOut 160

tryItOut 161
Running threw: TypeError: this.zzz has no properties

tryItOut 162
Compiling threw: SyntaxError: missing ; after for-loop initializer

tryItOut 163

tryItOut 164
Compiling threw: SyntaxError: missing ; after for-loop initializer

tryItOut 165
Running threw: TypeError: this.zzz has no properties

tryItOut 166
Running threw: ReferenceError: reference to undefined XML name *::*

tryItOut 167
Compiling threw: SyntaxError: missing variable name

tryItOut 168

tryItOut 169

tryItOut 170
Compiling threw: SyntaxError: missing variable name

tryItOut 171
Compiling threw: SyntaxError: missing ) in parenthetical

tryItOut 172

tryItOut 173

tryItOut 174

tryItOut 175
Compiling threw: SyntaxError: invalid assignment left-hand side

tryItOut 176
It's an iterator!
Iterating succeeded, iterCount == 1

tryItOut 177

tryItOut 178
Running threw: TypeError: this.zzz has no properties

tryItOut 179

tryItOut 180
Running threw: ReferenceError: __iterator__ is not defined

tryItOut 181
Compiling threw: SyntaxError: missing variable name

tryItOut 182

tryItOut 183
It's an iterator!
Iterating threw!
Iterating threw: TypeError: 3.141592653589793 is not a constructor

tryItOut 184
Running threw: ReferenceError: reference to undefined XML name *::*

tryItOut 185
Compiling threw: SyntaxError: missing = in destructuring declaration

tryItOut 186
Compiling threw: SyntaxError: unterminated regular expression literal

tryItOut 187

tryItOut 188
Compiling threw: SyntaxError: missing ] after element list

tryItOut 189

tryItOut 190

tryItOut 191

tryItOut 192
Running threw: ReferenceError: reference to undefined XML name *::*

tryItOut 193
before 156960, after 156960, break 0133d000

tryItOut 194

tryItOut 195
Compiling threw: SyntaxError: missing = in destructuring declaration

tryItOut 196

tryItOut 197

tryItOut 198

tryItOut 199

tryItOut 200
before 156960, after 156960, break 0133d000

tryItOut 201

tryItOut 202
Compiling threw: SyntaxError: syntax error

tryItOut 203
Compiling threw: SyntaxError: missing name after . operator

tryItOut 204
Compiling threw: SyntaxError: syntax error

tryItOut 205

tryItOut 206

tryItOut 207
It's an iterator!
Iterating threw!
Iterating threw: ReferenceError: reference to undefined XML name *::*

tryItOut 208
Compiling threw: SyntaxError: missing variable name

tryItOut 209
Compiling threw: SyntaxError: invalid assignment left-hand side

tryItOut 210
Compiling threw: SyntaxError: missing } after let block

tryItOut 211

tryItOut 212
Compiling threw: SyntaxError: missing = in destructuring declaration

tryItOut 213

tryItOut 214

tryItOut 215
It's an iterator!
Iterating succeeded, iterCount == 1

tryItOut 216
Running threw: TypeError: this.zzz has no properties

tryItOut 217
Compiling threw: SyntaxError: invalid increment operand

tryItOut 218

tryItOut 219
Compiling threw: SyntaxError: invalid assignment left-hand side

tryItOut 220
Compiling threw: SyntaxError: missing ; before statement

tryItOut 221

tryItOut 222

tryItOut 223
Running threw: ReferenceError: z1 is not defined

tryItOut 224
Running threw: ReferenceError: reference to undefined XML name @foo

tryItOut 225

tryItOut 226
Compiling threw: SyntaxError: invalid decrement operand

tryItOut 227
Running threw: TypeError: arguments[0] has no properties

tryItOut 228

tryItOut 229
Running threw: ReferenceError: Exception is not defined

tryItOut 230

tryItOut 231

tryItOut 232

tryItOut 233
Running threw: ReferenceError: reference to undefined XML name @foo

tryItOut 234

tryItOut 235
Compiling threw: SyntaxError: missing name after . operator

tryItOut 236
Compiling threw: SyntaxError: invalid assignment left-hand side

tryItOut 237
Compiling threw: SyntaxError: missing variable name

tryItOut 238

tryItOut 239
Running threw: ReferenceError: reference to undefined XML name @foo

tryItOut 240
Compiling threw: TypeError: redeclaration of const prop

tryItOut 241
Running threw: ReferenceError: reference to undefined XML name @foo

tryItOut 242
Compiling threw: SyntaxError: invalid increment operand

tryItOut 243
Running threw: ReferenceError: prop is not defined

tryItOut 244
It's an iterator!
Iterating threw!
Iterating threw: ReferenceError: reference to undefined XML name @foo

tryItOut 245
Compiling threw: SyntaxError: missing } after let block

tryItOut 246

tryItOut 247
Compiling threw: SyntaxError: missing ] after element list

tryItOut 248

tryItOut 249

tryItOut 250

tryItOut 251
Running threw: ReferenceError: z1 is not defined

tryItOut 252

tryItOut 253
Compiling threw: SyntaxError: duplicate label

tryItOut 254
Compiling threw: SyntaxError: missing = in destructuring declaration

tryItOut 255
Running threw: ReferenceError: reference to undefined XML name *

tryItOut 256
Compiling threw: SyntaxError: invalid increment operand

tryItOut 257

tryItOut 258

tryItOut 259

tryItOut 260
Running threw: 1e+81

tryItOut 261

tryItOut 262

tryItOut 263

tryItOut 264
Compiling threw: SyntaxError: missing variable name

tryItOut 265
Running threw: ReferenceError: prototype is not defined

tryItOut 266
Compiling threw: SyntaxError: missing ] after element list

tryItOut 267

tryItOut 268

tryItOut 269
Compiling threw: SyntaxError: missing } after let block

tryItOut 270

tryItOut 271
Compiling threw: SyntaxError: missing } after property list

tryItOut 272
Running threw: ReferenceError: __noSuchMethod__ is not defined

tryItOut 273
Running threw: TypeError: this.zzz has no properties

tryItOut 274
Running threw: [object Object]

tryItOut 275

tryItOut 276
Compiling threw: SyntaxError: invalid increment operand

tryItOut 277
Compiling threw: SyntaxError: missing : after property id

tryItOut 278

tryItOut 279
Compiling threw: SyntaxError: syntax error

tryItOut 280

tryItOut 281

tryItOut 282
Running threw: ReferenceError: reference to undefined XML name *

tryItOut 283

tryItOut 284

tryItOut 285

tryItOut 286

tryItOut 287

tryItOut 288

tryItOut 289
Compiling threw: SyntaxError: missing } after let block

tryItOut 290
Compiling threw: TypeError: redeclaration of const constructor

tryItOut 291
Running threw: SyntaxError: invalid setter usage

tryItOut 292

tryItOut 293
Compiling threw: SyntaxError: invalid assignment left-hand side

tryItOut 294
Compiling threw: SyntaxError: missing variable name

tryItOut 295
It's an iterator!
Iterating threw!
Iterating threw: ReferenceError: reference to undefined XML name *

tryItOut 296
Compiling threw: SyntaxError: missing variable name

tryItOut 297
It's an iterator!
Iterating succeeded, iterCount == 1

tryItOut 298

tryItOut 299

tryItOut 300

tryItOut 301
before 156960, after 156960, break 0134b000
Running threw: ReferenceError: reference to undefined XML name *

tryItOut 302

tryItOut 303
Compiling threw: SyntaxError: invalid destructuring assignment operator

tryItOut 304

tryItOut 305

tryItOut 306
Compiling threw: SyntaxError: invalid destructuring assignment operator

tryItOut 307
It's an iterator!
Iterating succeeded, iterCount == 1

tryItOut 308

tryItOut 309
Compiling threw: SyntaxError: missing ; before statement

tryItOut 310
Compiling threw: SyntaxError: missing ) in parenthetical

tryItOut 311
Compiling threw: SyntaxError: missing ; before statement

tryItOut 312

tryItOut 313
Running threw: TypeError: arguments[0] has no properties

tryItOut 314
Compiling threw: SyntaxError: syntax error

tryItOut 315
Running threw: ReferenceError: z2 is not defined

tryItOut 316
It's an iterator!
Iterating threw!
Iterating threw: TypeError: arguments[0] has no properties

tryItOut 317

tryItOut 318
Compiling threw: SyntaxError: syntax error

tryItOut 319
It's an iterator!
Iterating succeeded, iterCount == 1

tryItOut 320
Compiling threw: SyntaxError: missing : after property id

tryItOut 321

tryItOut 322
Running threw: ReferenceError: reference to undefined XML name *::*

tryItOut 323
Compiling threw: SyntaxError: missing } after let block

tryItOut 324
Compiling threw: TypeError: redeclaration of variable constructor

tryItOut 325
Compiling threw: SyntaxError: missing ; before statement

tryItOut 326

tryItOut 327
Running threw: 108

tryItOut 328
Running threw: [object Object]

tryItOut 329
Compiling threw: SyntaxError: unterminated string literal

tryItOut 330
Compiling threw: SyntaxError: invalid assignment left-hand side

tryItOut 331
Running threw: TypeError: p.z = constructor = 0 is not a function

tryItOut 332
Running threw: ReferenceError: z1 is not defined

tryItOut 333
Compiling threw: SyntaxError: invalid assignment left-hand side

tryItOut 334
Compiling threw: SyntaxError: missing ; after for-loop initializer

tryItOut 335

tryItOut 336

tryItOut 337
Compiling threw: SyntaxError: missing variable name

tryItOut 338

tryItOut 339

tryItOut 340
Compiling threw: SyntaxError: illegal character

tryItOut 341
uneval returned the string: [[]]

tryItOut 342
Running threw: ReferenceError: reference to undefined XML name *

tryItOut 343

tryItOut 344
Compiling threw: SyntaxError: invalid assignment left-hand side

tryItOut 345
Compiling threw: SyntaxError: missing : after property id

tryItOut 346
Compiling threw: SyntaxError: invalid property id

tryItOut 347
It's an iterator!
Iterating succeeded, iterCount == 0

tryItOut 348
Running threw: <y>
  <z/>
</y>

tryItOut 349
It's an iterator!
Iterating threw!
Iterating threw: ReferenceError: reference to undefined XML name *

tryItOut 350
It's an iterator!
Iterating succeeded, iterCount == 1

tryItOut 351
Compiling threw: SyntaxError: missing ; before statement

tryItOut 352

tryItOut 353
Compiling threw: SyntaxError: missing ] after element list

tryItOut 354
It's an iterator!
Iterating succeeded, iterCount == 1

tryItOut 355
Running threw: 108

tryItOut 356
Compiling threw: SyntaxError: invalid destructuring assignment operator

tryItOut 357

tryItOut 358
Running threw: ReferenceError: reference to undefined XML name @foo

tryItOut 359
Running threw: TypeError: p.z = <y><z/></y> is not a function

tryItOut 360

tryItOut 361
It's an iterator!
Iterating succeeded, iterCount == 0

tryItOut 362
Running threw: 

tryItOut 363

tryItOut 364
It's an iterator!
Iterating threw!
Iterating threw: ReferenceError: reference to undefined XML name @foo

tryItOut 365
Running threw: TypeError: this.zzz has no properties

tryItOut 366
Running threw: TypeError: this.zzz has no properties

tryItOut 367
Running threw: ReferenceError: prototype is not defined

tryItOut 368

tryItOut 369

tryItOut 370
Running threw: ReferenceError: reference to undefined XML name *::*

tryItOut 371

tryItOut 372
Compiling threw: SyntaxError: invalid for/in left-hand side

tryItOut 373
Compiling threw: SyntaxError: missing ; before statement

tryItOut 374
Compiling threw: SyntaxError: invalid for/in left-hand side

tryItOut 375
Compiling threw: SyntaxError: missing ) in parenthetical

tryItOut 376
Compiling threw: SyntaxError: missing ; after for-loop initializer

tryItOut 377
Compiling threw: SyntaxError: missing ) in parenthetical

tryItOut 378
Running threw: TypeError: p.z = prop = <y><z/></y> is not a function

tryItOut 379
Running threw: TypeError: this.zzz has no properties

tryItOut 380
Compiling threw: SyntaxError: syntax error

tryItOut 381
It's an iterator!
Iterating succeeded, iterCount == 1

tryItOut 382
Compiling threw: SyntaxError: missing variable name

tryItOut 383

tryItOut 384
Compiling threw: SyntaxError: missing variable name

tryItOut 385
Running threw: ReferenceError: z1 is not defined

tryItOut 386
Compiling threw: SyntaxError: missing variable name

tryItOut 387
Compiling threw: SyntaxError: syntax error

tryItOut 388

tryItOut 389
It's an iterator!
Iterating succeeded, iterCount == 1

tryItOut 390

tryItOut 391

tryItOut 392

tryItOut 393

tryItOut 394
Running threw: ReferenceError: reference to undefined XML name *::*

tryItOut 395
Compiling threw: SyntaxError: syntax error

tryItOut 396
It's an iterator!
Iterating threw!
Iterating threw: ReferenceError: reference to undefined XML name *::*

tryItOut 397
Running threw: ReferenceError: reference to undefined XML name *

tryItOut 398
Compiling threw: SyntaxError: invalid assignment left-hand side

tryItOut 399
Compiling threw: SyntaxError: invalid assignment left-hand side

tryItOut 400
Running threw: ReferenceError: prototype is not defined

tryItOut 401
Compiling threw: SyntaxError: missing } after let block

tryItOut 402
Running threw: ReferenceError: reference to undefined XML name *

tryItOut 403
Compiling threw: SyntaxError: missing ) after for-loop control

tryItOut 404

tryItOut 405

tryItOut 406
Compiling threw: SyntaxError: invalid assignment left-hand side

tryItOut 407
Compiling threw: SyntaxError: missing ) after let head

tryItOut 408
Compiling threw: SyntaxError: missing variable name

tryItOut 409

tryItOut 410
Running threw: ReferenceError: reference to undefined XML name *

tryItOut 411

tryItOut 412
Compiling threw: SyntaxError: syntax error

tryItOut 413
Compiling threw: SyntaxError: missing = in destructuring declaration

tryItOut 414
Compiling threw: SyntaxError: missing } after let block

tryItOut 415
Running threw: ReferenceError: reference to undefined XML name *::*

tryItOut 416

tryItOut 417
Running threw: 

tryItOut 418
Running threw: ReferenceError: reference to undefined XML name @foo

tryItOut 419
Compiling threw: SyntaxError: invalid destructuring assignment operator

tryItOut 420
Compiling threw: TypeError: redeclaration of const prop

tryItOut 421
It's an iterator!
Iterating threw!
Iterating threw: ReferenceError: z2 is not defined

tryItOut 422
Running threw: Error: invalid sharp variable use #1#

tryItOut 423
Compiling threw: TypeError: redeclaration of variable __noSuchMethod__

tryItOut 424

tryItOut 425
Compiling threw: SyntaxError: invalid assignment left-hand side

tryItOut 426
Running threw: ReferenceError: __noSuchMethod__ is not defined

tryItOut 427
Compiling threw: SyntaxError: syntax error

tryItOut 428
Compiling threw: SyntaxError: missing variable name

tryItOut 429

tryItOut 430

tryItOut 431
Running threw: ReferenceError: reference to undefined XML name *

tryItOut 432

tryItOut 433

tryItOut 434
Compiling threw: SyntaxError: syntax error

tryItOut 435

tryItOut 436
Compiling threw: SyntaxError: missing variable name

tryItOut 437
Compiling threw: SyntaxError: missing ; before statement

tryItOut 438
Compiling threw: SyntaxError: syntax error

tryItOut 439
Compiling threw: SyntaxError: missing ; after for-loop initializer

tryItOut 440
Running threw: TypeError: p.z = 0.2 is not a function

tryItOut 441

tryItOut 442
Compiling threw: SyntaxError: syntax error

tryItOut 443

tryItOut 444
Compiling threw: SyntaxError: syntax error

tryItOut 445
Running threw: ReferenceError: reference to undefined XML name @foo

tryItOut 446
Compiling threw: SyntaxError: missing ) after let head

tryItOut 447
Compiling threw: SyntaxError: invalid property id

tryItOut 448
Compiling threw: SyntaxError: invalid property id

tryItOut 449
Compiling threw: SyntaxError: invalid destructuring assignment operator

tryItOut 450
Compiling threw: SyntaxError: invalid assignment left-hand side

tryItOut 451
Compiling threw: SyntaxError: invalid for/in left-hand side

tryItOut 452

tryItOut 453
Running threw: ReferenceError: reference to undefined XML name *

tryItOut 454
Compiling threw: SyntaxError: invalid destructuring assignment operator

tryItOut 455
Compiling threw: SyntaxError: missing = in destructuring declaration

tryItOut 456
Compiling threw: SyntaxError: missing ) in parenthetical

tryItOut 457

tryItOut 458
Compiling threw: SyntaxError: invalid assignment left-hand side

tryItOut 459
Compiling threw: SyntaxError: missing variable name

tryItOut 460

tryItOut 461

tryItOut 462
Compiling threw: SyntaxError: missing ) in parenthetical

tryItOut 463
Running threw: 110

tryItOut 464
Running threw: ReferenceError: reference to undefined XML name *::*

tryItOut 465
Running threw: SyntaxError: invalid setter usage

tryItOut 466
It's an iterator!
Iterating threw!
Iterating threw: ReferenceError: reference to undefined XML name @foo

tryItOut 467

tryItOut 468

tryItOut 469
Compiling threw: SyntaxError: invalid property id

tryItOut 470
Running threw: <y>
  <z/>
</y>

tryItOut 471

tryItOut 472
Running threw: ReferenceError: reference to undefined XML name @foo

tryItOut 473
Running threw: ReferenceError: reference to undefined XML name *

tryItOut 474
Running threw: ReferenceError: reference to undefined XML name @mozilla.org/js/function::__noSuchMethod__

tryItOut 475
Compiling threw: SyntaxError: missing ; before statement

tryItOut 476
Running threw: 1e+81

tryItOut 477
Running threw: [object Object]

tryItOut 478
Running threw: ReferenceError: z1 is not defined

tryItOut 479
Compiling threw: TypeError: generator function anonymous returns a value

tryItOut 480
before 226720, after 226720, break 013e4000

tryItOut 481
Running threw: ReferenceError: reference to undefined XML name @foo

tryItOut 482

tryItOut 483
Running threw: TypeError: eval("var __count__, prop;", <y><z/></y>) has no properties

tryItOut 484
Compiling threw: SyntaxError: invalid assignment left-hand side

tryItOut 485
It's an iterator!
Iterating threw!
Iterating threw: TypeError: invalid XML name <y><z/></y>[-1]

tryItOut 486
Running threw: ReferenceError: reference to undefined XML name *

tryItOut 487

tryItOut 488
It's an iterator!
Iterating succeeded, iterCount == 1

tryItOut 489

tryItOut 490
before 226720, after 226720, break 013e4000

tryItOut 491
Running threw: ReferenceError: __noSuchMethod__ is not defined

tryItOut 492

tryItOut 493
Running threw: ReferenceError: reference to undefined XML name @foo

tryItOut 494
Running threw: ReferenceError: z1 is not defined

tryItOut 495
It's an iterator!
Iterating threw!
Iterating threw: ReferenceError: reference to undefined XML name *::*

tryItOut 496
It's an iterator!
Iterating succeeded, iterCount == 1

tryItOut 497
Running threw: TypeError: this.zzz has no properties

tryItOut 498
Running threw: TypeError: <x/> is not a constructor

tryItOut 499

tryItOut 500

tryItOut 501
before 226720, after 226720, break 013e4000

tryItOut 502
Compiling threw: SyntaxError: syntax error

tryItOut 503

tryItOut 504
It's an iterator!
Iterating succeeded, iterCount == 0

tryItOut 505
It's an iterator!
Iterating threw!
Iterating threw: TypeError: this.zzz has no properties

tryItOut 506

tryItOut 507

tryItOut 508
Compiling threw: SyntaxError: missing { before function body

tryItOut 509

tryItOut 510
Compiling threw: SyntaxError: missing variable name

tryItOut 511
Compiling threw: SyntaxError: missing variable name

tryItOut 512
Running threw: ReferenceError: reference to undefined XML name *

tryItOut 513
Compiling threw: SyntaxError: invalid destructuring assignment operator

tryItOut 514
Compiling threw: SyntaxError: missing ; after for-loop initializer

tryItOut 515
Running threw: TypeError: invalid Array.prototype.sort argument

tryItOut 516

tryItOut 517
Compiling threw: SyntaxError: missing variable name

tryItOut 518

tryItOut 519

tryItOut 520
Compiling threw: SyntaxError: missing ] after element list

tryItOut 521
Running threw: ReferenceError: z1 is not defined

tryItOut 522
Running threw: null

tryItOut 523
Running threw: ReferenceError: reference to undefined XML name *::*

tryItOut 524
Running threw: ReferenceError: reference to undefined XML name @foo

tryItOut 525
Running threw: ReferenceError: prototype is not defined

tryItOut 526

tryItOut 527
Compiling threw: SyntaxError: missing variable name

tryItOut 528
Running threw: Error: invalid sharp variable use #1#

tryItOut 529
Compiling threw: SyntaxError: missing = in destructuring declaration

tryItOut 530
Running threw: SyntaxError: missing variable name

tryItOut 531
Compiling threw: SyntaxError: invalid property id

tryItOut 532
Compiling threw: SyntaxError: missing name after . operator

tryItOut 533
Compiling threw: SyntaxError: syntax error

tryItOut 534

tryItOut 535
Compiling threw: SyntaxError: missing = in destructuring declaration

tryItOut 536

tryItOut 537
Running threw: ReferenceError: reference to undefined XML name *

tryItOut 538
Running threw: ReferenceError: reference to undefined XML name @foo

tryItOut 539

tryItOut 540

tryItOut 541

tryItOut 542

tryItOut 543
It's an iterator!
Iterating threw!
Iterating threw: TypeError: this.zzz has no properties

tryItOut 544

tryItOut 545
Running threw: TypeError: this.zzz has no properties

tryItOut 546

tryItOut 547

tryItOut 548
It's an iterator!
Iterating threw!
Iterating threw: TypeError: redeclaration of var __proto__

tryItOut 549

tryItOut 550
Compiling threw: SyntaxError: missing ) in parenthetical

tryItOut 551
Compiling threw: SyntaxError: missing ] after element list

tryItOut 552
Running threw: TypeError: this.zzz has no properties

tryItOut 553
Running threw: TypeError: <x/> is not a constructor

tryItOut 554
Compiling threw: SyntaxError: missing variable name

tryItOut 555
Running threw: ReferenceError: reference to undefined XML name *::*

tryItOut 556

tryItOut 557

tryItOut 558
Compiling threw: SyntaxError: invalid property id

tryItOut 559
Compiling threw: SyntaxError: missing ; before statement

tryItOut 560

tryItOut 561

tryItOut 562

tryItOut 563
Compiling threw: SyntaxError: syntax error

tryItOut 564
Compiling threw: SyntaxError: syntax error

tryItOut 565
Compiling threw: SyntaxError: missing } after let block

tryItOut 566

tryItOut 567
Running threw: ReferenceError: reference to undefined XML name @foo

tryItOut 568
uneval returned the string: [[1]]

tryItOut 569
before 226720, after 226720, break 013e3000

tryItOut 570
Compiling threw: SyntaxError: missing ; before statement

tryItOut 571

tryItOut 572
Running threw: ReferenceError: reference to undefined XML name *

tryItOut 573
It's an iterator!
Iterating threw!
Iterating threw: ReferenceError: reference to undefined XML name @foo

tryItOut 574
Running threw: ReferenceError: z1 is not defined

tryItOut 575
Compiling threw: SyntaxError: syntax error

tryItOut 576

tryItOut 577
It's an iterator!
Iterating threw!
Iterating threw: ReferenceError: reference to undefined XML name *::*

tryItOut 578
It's an iterator!
Iterating succeeded, iterCount == 1

tryItOut 579

tryItOut 580

tryItOut 581
Running threw: 

tryItOut 582

tryItOut 583

tryItOut 584
Compiling threw: SyntaxError: missing variable name

tryItOut 585

tryItOut 586

tryItOut 587
Compiling threw: SyntaxError: invalid assignment left-hand side

tryItOut 588

tryItOut 589
Compiling threw: SyntaxError: invalid increment operand

tryItOut 590
Compiling threw: SyntaxError: missing } after let block

tryItOut 591
Compiling threw: SyntaxError: syntax error

tryItOut 592

tryItOut 593

tryItOut 594

tryItOut 595
Running threw: ReferenceError: reference to undefined XML name *

tryItOut 596
before 226720, after 226720, break 013e3000

tryItOut 597
Compiling threw: SyntaxError: invalid decrement operand

tryItOut 598
It's an iterator!
Iterating threw!
Iterating threw: TypeError: (1.3).apply is not a constructor

tryItOut 599

tryItOut 600

tryItOut 601

tryItOut 602

tryItOut 603

tryItOut 604

tryItOut 605
Running threw: ReferenceError: reference to undefined XML name @foo

tryItOut 606
Compiling threw: SyntaxError: missing variable name

tryItOut 607
Compiling threw: SyntaxError: missing } after let block

tryItOut 608
Compiling threw: SyntaxError: invalid for/in left-hand side

tryItOut 609

tryItOut 610
Running threw: undefined

tryItOut 611
Running threw: ReferenceError: reference to undefined XML name *::*

tryItOut 612

tryItOut 613

tryItOut 614
Compiling threw: SyntaxError: missing variable name

tryItOut 615
It's an iterator!
before 226720, after 226720, break 013e3000
Iterating succeeded, iterCount == 1

tryItOut 616

tryItOut 617

tryItOut 618
It's an iterator!
Iterating threw!
Iterating threw: ReferenceError: reference to undefined XML name *

tryItOut 619
Compiling threw: SyntaxError: missing } after let block

tryItOut 620
Compiling threw: TypeError: redeclaration of variable __proto__

tryItOut 621

tryItOut 622
Running threw: ReferenceError: __noSuchMethod__ is not defined

tryItOut 623
Running threw: TypeError: this.zzz has no properties

tryItOut 624
Compiling threw: SyntaxError: invalid assignment left-hand side

tryItOut 625
Running threw: ReferenceError: reference to undefined XML name *::*

tryItOut 626

tryItOut 627
Compiling threw: SyntaxError: duplicate label

tryItOut 628

tryItOut 629
Running threw: ReferenceError: z2 is not defined

tryItOut 630

tryItOut 631
Running threw: ReferenceError: yyy is not defined

tryItOut 632
Compiling threw: SyntaxError: missing ) in parenthetical

tryItOut 633
Running threw: TypeError: this.zzz has no properties

tryItOut 634

tryItOut 635

tryItOut 636
Running threw: null

tryItOut 637
Compiling threw: SyntaxError: missing ; before statement

tryItOut 638
Running threw: ReferenceError: reference to undefined XML name @foo

tryItOut 639
Compiling threw: SyntaxError: missing variable name

tryItOut 640
before 226720, after 226720, break 013e3000

tryItOut 641

tryItOut 642
Running threw: ReferenceError: __noSuchMethod__ is not defined

tryItOut 643
It's an iterator!
Iterating threw!
Iterating threw: Error: invalid sharp variable use #1#

tryItOut 644

tryItOut 645

tryItOut 646

tryItOut 647

tryItOut 648

tryItOut 649
Running threw: TypeError: this.zzz has no properties

tryItOut 650
Running threw: 0.1

tryItOut 651

tryItOut 652

tryItOut 653

tryItOut 654

tryItOut 655
Compiling threw: TypeError: redeclaration of var constructor

tryItOut 656

tryItOut 657
Compiling threw: SyntaxError: invalid property id

tryItOut 658

tryItOut 659
Compiling threw: SyntaxError: missing { before function body

tryItOut 660
Compiling threw: SyntaxError: missing variable name

tryItOut 661
Running threw: TypeError: this.zzz has no properties

tryItOut 662

tryItOut 663
Running threw: TypeError: (4)['throw'] is not a function

tryItOut 664

tryItOut 665

tryItOut 666
Compiling threw: SyntaxError: missing variable name

tryItOut 667
Compiling threw: SyntaxError: invalid decrement operand

tryItOut 668
Running threw: ReferenceError: reference to undefined XML name @foo

tryItOut 669

tryItOut 670

tryItOut 671
Compiling threw: SyntaxError: syntax error

tryItOut 672

tryItOut 673
Compiling threw: SyntaxError: invalid for/in left-hand side

tryItOut 674
Running threw: ReferenceError: z1 is not defined

tryItOut 675
Compiling threw: SyntaxError: invalid decrement operand

tryItOut 676
Running threw: 

tryItOut 677
Compiling threw: SyntaxError: missing { before function body

tryItOut 678
Compiling threw: TypeError: redeclaration of const __proto__

tryItOut 679

tryItOut 680
Compiling threw: SyntaxError: finally without try

tryItOut 681
Compiling threw: SyntaxError: missing variable name

tryItOut 682
It's an iterator!
Iterating succeeded, iterCount == 1

tryItOut 683
before 226720, after 226720, break 013e3000

tryItOut 684
Running threw: ReferenceError: reference to undefined XML name @foo

tryItOut 685

tryItOut 686

tryItOut 687

tryItOut 688
Running threw: ReferenceError: reference to undefined XML name *

tryItOut 689
Compiling threw: SyntaxError: invalid destructuring assignment operator

tryItOut 690

tryItOut 691

tryItOut 692

tryItOut 693

tryItOut 694
Compiling threw: SyntaxError: missing variable name

tryItOut 695
Compiling threw: SyntaxError: missing ] after element list

tryItOut 696
It's an iterator!
Iterating threw!
Iterating threw: Error: invalid sharp variable use #1#

tryItOut 697
Compiling threw: SyntaxError: syntax error

tryItOut 698
Running threw: ReferenceError: __noSuchMethod__ is not defined

tryItOut 699

tryItOut 700

tryItOut 701

tryItOut 702
Compiling threw: SyntaxError: missing = in destructuring declaration

tryItOut 703
Running threw: ReferenceError: reference to undefined XML name @foo

tryItOut 704

tryItOut 705
Compiling threw: SyntaxError: invalid increment operand

tryItOut 706
Compiling threw: SyntaxError: missing ) after let head

tryItOut 707
Compiling threw: SyntaxError: missing ) after formal parameters

tryItOut 708
Compiling threw: TypeError: redeclaration of variable __proto__

tryItOut 709
Compiling threw: SyntaxError: missing variable name

tryItOut 710
Compiling threw: SyntaxError: missing ] in index expression

tryItOut 711
Compiling threw: SyntaxError: missing variable name

tryItOut 712

tryItOut 713
Compiling threw: SyntaxError: invalid destructuring assignment operator

tryItOut 714
Running threw: ReferenceError: reference to undefined XML name *::*

tryItOut 715
Running threw: ReferenceError: z1 is not defined

tryItOut 716
Running threw: 1

tryItOut 717
Running threw: 

tryItOut 718
before 226720, after 226720, break 01401000

tryItOut 719
Running threw: ReferenceError: reference to undefined XML name @foo

tryItOut 720

tryItOut 721
Running threw: Error: invalid sharp variable use #1#

tryItOut 722

tryItOut 723
Running threw: ReferenceError: reference to undefined XML name *

tryItOut 724

tryItOut 725

tryItOut 726
Compiling threw: SyntaxError: syntax error

tryItOut 727

tryItOut 728
Compiling threw: SyntaxError: missing ) after let head

tryItOut 729

tryItOut 730

tryItOut 731

tryItOut 732
Compiling threw: SyntaxError: syntax error

tryItOut 733

tryItOut 734
Running threw: ReferenceError: reference to undefined XML name *

tryItOut 735

tryItOut 736
It's an iterator!
Iterating threw!
Iterating threw: ReferenceError: reference to undefined XML name *

tryItOut 737
Running threw: ReferenceError: reference to undefined XML name @foo

tryItOut 738

tryItOut 739
Compiling threw: SyntaxError: invalid for/in left-hand side

tryItOut 740
Compiling threw: SyntaxError: missing } after let block

tryItOut 741
Compiling threw: SyntaxError: duplicate label

tryItOut 742
Compiling threw: SyntaxError: missing { before function body

tryItOut 743
Compiling threw: SyntaxError: missing ) in parenthetical

tryItOut 744

tryItOut 745
Running threw: TypeError: [[]] is not a function

tryItOut 746

tryItOut 747

tryItOut 748
Running threw: TypeError: this.zzz has no properties

tryItOut 749
Compiling threw: SyntaxError: missing ( before let head

tryItOut 750
Compiling threw: SyntaxError: missing variable name

tryItOut 751
Running threw: TypeError: this.zzz has no properties

tryItOut 752
Compiling threw: SyntaxError: invalid destructuring assignment operator

tryItOut 753
Compiling threw: SyntaxError: syntax error

tryItOut 754
Running threw: TypeError: 4 is not a constructor

tryItOut 755
Running threw: 111

tryItOut 756

tryItOut 757
Running threw: ReferenceError: reference to undefined XML name @foo

tryItOut 758
Compiling threw: SyntaxError: missing ; before statement

tryItOut 759

tryItOut 760

tryItOut 761
Compiling threw: SyntaxError: syntax error

tryItOut 762
Compiling threw: SyntaxError: missing variable name

tryItOut 763
Compiling threw: TypeError: redeclaration of variable prototype

tryItOut 764

tryItOut 765
It's an iterator!
Iterating succeeded, iterCount == 1

tryItOut 766
Compiling threw: SyntaxError: missing variable name

tryItOut 767

tryItOut 768

tryItOut 769
It's an iterator!
Iterating succeeded, iterCount == 1

tryItOut 770

tryItOut 771

tryItOut 772

tryItOut 773
Running threw: ReferenceError: reference to undefined XML name *::*

tryItOut 774
Running threw: ReferenceError: reference to undefined XML name *

tryItOut 775

tryItOut 776

tryItOut 777

tryItOut 778
Compiling threw: SyntaxError: missing ] after element list

tryItOut 779
Running threw: ReferenceError: reference to undefined XML name *::*

tryItOut 780
Running threw: 

tryItOut 781
It's an iterator!
Iterating threw!
Iterating threw: ReferenceError: reference to undefined XML name @foo

tryItOut 782
Compiling threw: SyntaxError: missing ] after element list

tryItOut 783

tryItOut 784

tryItOut 785
Running threw: ReferenceError: reference to undefined XML name *

tryItOut 786

tryItOut 787

tryItOut 788
Compiling threw: SyntaxError: missing identifier in catch

tryItOut 789
Running threw: ReferenceError: reference to undefined XML name @foo

tryItOut 790

tryItOut 791

tryItOut 792

tryItOut 793
Compiling threw: SyntaxError: missing variable name

tryItOut 794
Compiling threw: SyntaxError: missing ; before statement

tryItOut 795
Compiling threw: SyntaxError: invalid increment operand

tryItOut 796
It's an iterator!
Iterating succeeded, iterCount == 2

tryItOut 797
Compiling threw: SyntaxError: invalid destructuring assignment operator

tryItOut 798
It's an iterator!
Iterating threw!
Iterating threw: TypeError: p.z = NaN is not a function

tryItOut 799

tryItOut 800
Compiling threw: SyntaxError: invalid assignment left-hand side

tryItOut 801
Compiling threw: TypeError: redeclaration of variable __proto__

tryItOut 802
Compiling threw: SyntaxError: missing : after property id

tryItOut 803

tryItOut 804
Compiling threw: SyntaxError: missing ; after for-loop condition

tryItOut 805
Compiling threw: SyntaxError: invalid assignment left-hand side

tryItOut 806
Compiling threw: SyntaxError: invalid assignment left-hand side

tryItOut 807
Running threw: TypeError: "a" is not a function

tryItOut 808
Running threw: ReferenceError: z2 is not defined

tryItOut 809
Running threw: TypeError: this.zzz has no properties

tryItOut 810
Running threw: ReferenceError: reference to undefined XML name @foo

tryItOut 811

tryItOut 812
Running threw: <x>
  <y/>
</x>

tryItOut 813
before 244160, after 244160, break 0141b000
Running threw: TypeError: this.zzz has no properties

tryItOut 814
Compiling threw: SyntaxError: syntax error

tryItOut 815
Running threw: TypeError: this.zzz has no properties

tryItOut 816
Running threw: ReferenceError: reference to undefined XML name *::*

tryItOut 817
Compiling threw: SyntaxError: invalid assignment left-hand side

tryItOut 818
Running threw: TypeError: this.zzz has no properties

tryItOut 819

tryItOut 820
Running threw: ReferenceError: reference to undefined XML name @foo

tryItOut 821

tryItOut 822
before 244160, after 244160, break 0141b000

tryItOut 823
Running threw: TypeError: this.zzz has no properties

tryItOut 824

tryItOut 825
Compiling threw: SyntaxError: missing ] after element list

tryItOut 826
Running threw: ReferenceError: reference to undefined XML name *

tryItOut 827
Compiling threw: SyntaxError: missing ; before statement

tryItOut 828
Compiling threw: SyntaxError: syntax error

tryItOut 829

tryItOut 830
Compiling threw: SyntaxError: invalid assignment left-hand side

tryItOut 831
Compiling threw: SyntaxError: missing ; after for-loop initializer

tryItOut 832
Compiling threw: SyntaxError: missing } after let block

tryItOut 833

tryItOut 834
Running threw: ReferenceError: reference to undefined XML name *::*

tryItOut 835
Running threw: TypeError: __parent__ has no properties

tryItOut 836

tryItOut 837
Running threw: <y>
  <z/>
</y>

tryItOut 838
Compiling threw: SyntaxError: catch without try

tryItOut 839
Compiling threw: SyntaxError: missing : after property id

tryItOut 840
Compiling threw: TypeError: redeclaration of variable __proto__

tryItOut 841
Running threw: 112

tryItOut 842
Compiling threw: SyntaxError: missing ) after let head

tryItOut 843
Compiling threw: SyntaxError: missing variable name

tryItOut 844

tryItOut 845
Running threw: 

tryItOut 846

tryItOut 847
Running threw: TypeError: this.zzz has no properties

tryItOut 848
Compiling threw: TypeError: redeclaration of var prop

tryItOut 849

tryItOut 850
Compiling threw: TypeError: redeclaration of const __parent__

tryItOut 851
Compiling threw: SyntaxError: syntax error

tryItOut 852

tryItOut 853
Running threw: TypeError: this.zzz has no properties

tryItOut 854
Running threw: ReferenceError: z1 is not defined

tryItOut 855
Compiling threw: SyntaxError: missing ] after element list

tryItOut 856
Running threw: ReferenceError: z2 is not defined

tryItOut 857
Compiling threw: SyntaxError: missing = in destructuring declaration

tryItOut 858

tryItOut 859
It's an iterator!
Iterating threw!
Iterating threw: Error: invalid sharp variable use #1#

tryItOut 860
Compiling threw: TypeError: redeclaration of variable __noSuchMethod__

tryItOut 861
before 244160, after 244160, break 0141b000
Running threw: TypeError: gc() is not a function

tryItOut 862
Running threw: 10000

tryItOut 863
Running threw: ReferenceError: reference to undefined XML name @foo

tryItOut 864
Compiling threw: SyntaxError: missing variable name

tryItOut 865
before 244160, after 244160, break 0141b000

tryItOut 866
Running threw: ReferenceError: reference to undefined XML name @foo

tryItOut 867
Compiling threw: SyntaxError: invalid assignment left-hand side

tryItOut 868
Compiling threw: SyntaxError: syntax error

tryItOut 869
Running threw: TypeError: this.zzz has no properties

tryItOut 870

tryItOut 871

tryItOut 872
Compiling threw: SyntaxError: missing variable name

tryItOut 873
Running threw: 5

tryItOut 874
Compiling threw: SyntaxError: missing } in compound statement

tryItOut 875
Compiling threw: SyntaxError: missing ) in parenthetical

tryItOut 876
Compiling threw: SyntaxError: missing ; before statement

tryItOut 877
Compiling threw: SyntaxError: missing variable name

tryItOut 878
Running threw: ReferenceError: reference to undefined XML name *

tryItOut 879

tryItOut 880
Running threw: 1e-81

tryItOut 881
Running threw: TypeError: this.zzz has no properties

tryItOut 882
Compiling threw: SyntaxError: missing variable name

tryItOut 883

tryItOut 884

tryItOut 885
Running threw: 1e-81

tryItOut 886

tryItOut 887

tryItOut 888
Compiling threw: SyntaxError: missing variable name

tryItOut 889
Compiling threw: SyntaxError: missing variable name

tryItOut 890
Compiling threw: SyntaxError: missing = in destructuring declaration

tryItOut 891
Compiling threw: TypeError: redeclaration of variable __iterator__

tryItOut 892

tryItOut 893

tryItOut 894

tryItOut 895

tryItOut 896
Compiling threw: SyntaxError: invalid for/in left-hand side

tryItOut 897
Compiling threw: SyntaxError: invalid increment operand

tryItOut 898

tryItOut 899

tryItOut 900

tryItOut 901
Compiling threw: SyntaxError: syntax error

tryItOut 902

tryItOut 903
Compiling threw: SyntaxError: missing variable name

tryItOut 904

tryItOut 905
Running threw: ReferenceError: A is not defined

tryItOut 906

tryItOut 907

tryItOut 908
Running threw: TypeError: this.zzz has no properties

tryItOut 909
Compiling threw: SyntaxError: missing : after property id

tryItOut 910

tryItOut 911
Running threw: ReferenceError: reference to undefined XML name *::*

tryItOut 912
Running threw: 

tryItOut 913

tryItOut 914

tryItOut 915
Compiling threw: TypeError: redeclaration of const prototype

tryItOut 916
Compiling threw: SyntaxError: missing ; before statement

tryItOut 917

tryItOut 918

tryItOut 919

tryItOut 920

tryItOut 921
Compiling threw: SyntaxError: invalid assignment left-hand side

tryItOut 922
Compiling threw: SyntaxError: invalid assignment left-hand side

tryItOut 923

tryItOut 924

tryItOut 925

tryItOut 926

tryItOut 927

tryItOut 928
Running threw: TypeError: __parent__ is not a constructor

tryItOut 929
Running threw: TypeError: this.zzz has no properties

tryItOut 930
Compiling threw: SyntaxError: syntax error

tryItOut 931
It's an iterator!
Iterating threw!
Iterating threw: ReferenceError: reference to undefined XML name *::*

tryItOut 932

tryItOut 933

tryItOut 934

tryItOut 935

tryItOut 936
Running threw: ReferenceError: G is not defined

tryItOut 937

tryItOut 938
Compiling threw: SyntaxError: syntax error

tryItOut 939

tryItOut 940
Compiling threw: SyntaxError: missing identifier in catch

tryItOut 941
Compiling threw: SyntaxError: missing = in destructuring declaration

tryItOut 942
Compiling threw: SyntaxError: missing } after let block

tryItOut 943

tryItOut 944

tryItOut 945
Running threw: ReferenceError: reference to undefined XML name @foo

tryItOut 946
Running threw: null

tryItOut 947

tryItOut 948
It's an iterator!
Iterating threw!
Iterating threw: ReferenceError: reference to undefined XML name *

tryItOut 949
before 261600, after 261600, break 01434000

tryItOut 950
Compiling threw: SyntaxError: missing ; before statement

tryItOut 951
before 261600, after 261600, break 01434000

tryItOut 952
Compiling threw: SyntaxError: syntax error

tryItOut 953
Running threw: ReferenceError: reference to undefined XML name *::*

tryItOut 954
Compiling threw: SyntaxError: missing ; before statement

tryItOut 955
Running threw: ReferenceError: reference to undefined XML name @foo

tryItOut 956
Compiling threw: SyntaxError: syntax error

tryItOut 957
It's an iterator!
Iterating threw!
Iterating threw: ReferenceError: z1 is not defined

tryItOut 958
Running threw: ReferenceError: reference to undefined XML name @foo

tryItOut 959
Compiling threw: SyntaxError: missing variable name

tryItOut 960

tryItOut 961
Compiling threw: SyntaxError: invalid assignment left-hand side

tryItOut 962
Running threw: 1

tryItOut 963

tryItOut 964

tryItOut 965
Running threw: TypeError: arguments[0] has no properties

tryItOut 966
Compiling threw: SyntaxError: syntax error

tryItOut 967

tryItOut 968
Compiling threw: SyntaxError: missing = in destructuring declaration

tryItOut 969
Compiling threw: SyntaxError: missing variable name

tryItOut 970
Compiling threw: SyntaxError: missing variable name

tryItOut 971
It's an iterator!
Iterating succeeded, iterCount == 1

tryItOut 972

tryItOut 973
Compiling threw: SyntaxError: missing ; after for-loop initializer

tryItOut 974
Running threw: ReferenceError: reference to undefined XML name *::*

tryItOut 975

tryItOut 976
Compiling threw: SyntaxError: syntax error

tryItOut 977

tryItOut 978
Compiling threw: SyntaxError: missing variable name

tryItOut 979
Running threw: TypeError: arguments[0] has no properties

tryItOut 980
Compiling threw: SyntaxError: missing ( before formal parameters

tryItOut 981

tryItOut 982
Running threw: ReferenceError: reference to undefined XML name *

tryItOut 983

tryItOut 984

tryItOut 985
Running threw: TypeError: p.z = <x/> is not a function

tryItOut 986

tryItOut 987

tryItOut 988
before 261600, after 261600, break 0144d000

tryItOut 989
Running threw: 1

tryItOut 990

tryItOut 991

tryItOut 992

tryItOut 993
Running threw: TypeError: undefined is not a function

tryItOut 994
Compiling threw: SyntaxError: missing ] after element list

tryItOut 995
Running threw: TypeError: p.z = [[]] is not a function

tryItOut 996

tryItOut 997

tryItOut 998
Running threw: ReferenceError: Exception is not defined

tryItOut 999
Running threw: 

tryItOut 1000
Compiling threw: SyntaxError: invalid assignment left-hand side

ALL OK

Script done on Sat 04 May 2013 07:34:12 AM PDT
