Script started on Sat 04 May 2013 07:33:02 AM PDT
***
Targeting SpiderMonkey / Gecko.

tryItOut 1
Compiling threw: SyntaxError: missing ; before statement

tryItOut 2

tryItOut 3
Compiling threw: SyntaxError: invalid assignment left-hand side

tryItOut 4

tryItOut 5
Running threw: ReferenceError: prop is not defined

tryItOut 6

tryItOut 7
Compiling threw: SyntaxError: missing ; after for-loop initializer

tryItOut 8
Compiling threw: SyntaxError: missing { before function body

tryItOut 9
Compiling threw: SyntaxError: missing = in destructuring declaration

tryItOut 10
Running threw: TypeError: this.zzz has no properties

tryItOut 11

tryItOut 12

tryItOut 13
Compiling threw: SyntaxError: missing ; before statement

tryItOut 14

tryItOut 15
Compiling threw: TypeError: redeclaration of const __parent__

tryItOut 16
Compiling threw: SyntaxError: syntax error

tryItOut 17
Running threw: TypeError: <x><y/></x>.yoyo is not a function

tryItOut 18

tryItOut 19
Running threw: ReferenceError: prop is not defined

tryItOut 20
Compiling threw: SyntaxError: invalid decrement operand

tryItOut 21
Compiling threw: SyntaxError: missing ] after element list

tryItOut 22

tryItOut 23
It's an iterator!
Iterating threw!
Iterating threw: ReferenceError: __iterator__ is not defined

tryItOut 24
Compiling threw: SyntaxError: invalid assignment left-hand side

tryItOut 25
Running threw: SyntaxError: malformed formal parameter

tryItOut 26
Running threw: ReferenceError: z2 is not defined

tryItOut 27

tryItOut 28

tryItOut 29
Running threw: TypeError: [11, 12, 13, 14].filter.yoyo is not a function

tryItOut 30
Compiling threw: SyntaxError: missing { before function body

tryItOut 31
Compiling threw: SyntaxError: missing ; before statement

tryItOut 32
Compiling threw: TypeError: redeclaration of var __parent__

tryItOut 33

tryItOut 34
Compiling threw: SyntaxError: missing { before function body

tryItOut 35
Compiling threw: SyntaxError: missing : after property id

tryItOut 36

tryItOut 37
Running threw: ReferenceError: z1 is not defined

tryItOut 38

tryItOut 39
Running threw: ReferenceError: z1 is not defined

tryItOut 40
Compiling threw: SyntaxError: missing variable name

tryItOut 41
Compiling threw: TypeError: redeclaration of var prototype

tryItOut 42
Compiling threw: SyntaxError: missing { before function body

tryItOut 43
Compiling threw: SyntaxError: missing name after . operator

tryItOut 44
Compiling threw: SyntaxError: unterminated parenthetical

tryItOut 45

tryItOut 46
Compiling threw: SyntaxError: invalid destructuring assignment operator

tryItOut 47
Compiling threw: SyntaxError: missing ) in parenthetical

tryItOut 48

tryItOut 49
Compiling threw: SyntaxError: missing ) in parenthetical

tryItOut 50
It's an iterator!
Iterating succeeded, iterCount == 1

tryItOut 51
Compiling threw: SyntaxError: invalid default XML namespace

tryItOut 52
Compiling threw: TypeError: redeclaration of variable __count__

tryItOut 53
Compiling threw: SyntaxError: missing { before function body

tryItOut 54

tryItOut 55

tryItOut 56
Compiling threw: SyntaxError: missing ) in parenthetical

tryItOut 57

tryItOut 58
Running threw: [object StopIteration]

tryItOut 59
Running threw: TypeError: undefined is not a function

tryItOut 60
Running threw: <x>
  <y/>
</x>

tryItOut 61
Compiling threw: SyntaxError: missing ) in parenthetical

tryItOut 62

tryItOut 63
Compiling threw: SyntaxError: invalid for/in left-hand side

tryItOut 64
Compiling threw: SyntaxError: missing { before function body

tryItOut 65

tryItOut 66
Compiling threw: SyntaxError: missing ; before statement

tryItOut 67
Running threw: <x>
  <y/>
</x>

tryItOut 68
Running threw: ReferenceError: __iterator__ is not defined

tryItOut 69
Compiling threw: SyntaxError: syntax error

tryItOut 70
Compiling threw: SyntaxError: invalid for/in left-hand side

tryItOut 71

tryItOut 72
Compiling threw: SyntaxError: missing ; before statement

tryItOut 73
Running threw: ReferenceError: z1 is not defined

tryItOut 74

tryItOut 75
Running threw: TypeError: arguments[0] has no properties

tryItOut 76
Compiling threw: SyntaxError: syntax error

tryItOut 77
Compiling threw: SyntaxError: syntax error

tryItOut 78
Running threw: TypeError: this.zzz has no properties

tryItOut 79
Compiling threw: SyntaxError: missing variable name

tryItOut 80
Running threw: TypeError: this.zzz has no properties

tryItOut 81

tryItOut 82
Compiling threw: SyntaxError: invalid for/in left-hand side

tryItOut 83
Compiling threw: SyntaxError: missing variable name

tryItOut 84
Compiling threw: SyntaxError: invalid for/in left-hand side

tryItOut 85
Running threw: TypeError: arguments[0] has no properties

tryItOut 86

tryItOut 87
Compiling threw: SyntaxError: missing variable name

tryItOut 88
Running threw: [object Object]

tryItOut 89

tryItOut 90

tryItOut 91

tryItOut 92
Running threw: TypeError: <x>
  <y/>
</x> is not a function

tryItOut 93
Compiling threw: SyntaxError: missing variable name

tryItOut 94
Running threw: ,

tryItOut 95
Running threw: [object StopIteration]

tryItOut 96
Compiling threw: SyntaxError: missing ; before statement

tryItOut 97

tryItOut 98
Compiling threw: SyntaxError: missing variable name

tryItOut 99
Compiling threw: SyntaxError: missing variable name

tryItOut 100
Compiling threw: SyntaxError: missing ; before statement

tryItOut 101

tryItOut 102
Compiling threw: SyntaxError: missing variable name

tryItOut 103
Compiling threw: SyntaxError: syntax error

tryItOut 104
Running threw: TypeError: [undefined] is not a function

tryItOut 105

tryItOut 106
Running threw: [object StopIteration]

tryItOut 107
Compiling threw: SyntaxError: missing ) in parenthetical

tryItOut 108
Compiling threw: SyntaxError: invalid increment operand

tryItOut 109

tryItOut 110

tryItOut 111
Running threw: 

tryItOut 112
Compiling threw: SyntaxError: invalid sharp variable definition

tryItOut 113

tryItOut 114

tryItOut 115
Compiling threw: SyntaxError: missing : after property id

tryItOut 116
Compiling threw: SyntaxError: invalid for/in left-hand side

tryItOut 117
Compiling threw: SyntaxError: syntax error

tryItOut 118
Compiling threw: SyntaxError: missing formal parameter

tryItOut 119
Compiling threw: SyntaxError: invalid sharp variable definition

tryItOut 120
Compiling threw: SyntaxError: missing ] after element list

tryItOut 121
Running threw: 108

tryItOut 122
Compiling threw: SyntaxError: invalid for/in left-hand side

tryItOut 123
Compiling threw: SyntaxError: invalid for/in left-hand side

tryItOut 124
Compiling threw: SyntaxError: missing ) in parenthetical

tryItOut 125
Compiling threw: SyntaxError: missing variable name

tryItOut 126

tryItOut 127

tryItOut 128
Running threw: ReferenceError: prop is not defined

tryItOut 129
Running threw: [object Object]

tryItOut 130

tryItOut 131
Compiling threw: SyntaxError: missing ; before statement

tryItOut 132

tryItOut 133
Compiling threw: SyntaxError: missing { before function body

tryItOut 134

tryItOut 135
Running threw: <x>
  <y/>
</x>

tryItOut 136

tryItOut 137
Compiling threw: SyntaxError: missing ] after element list

tryItOut 138
Running threw: [object StopIteration]

tryItOut 139
Compiling threw: SyntaxError: invalid for/in left-hand side

tryItOut 140
Compiling threw: SyntaxError: invalid assignment left-hand side

tryItOut 141

tryItOut 142
Compiling threw: SyntaxError: missing { before function body

tryItOut 143
Compiling threw: SyntaxError: missing { before function body

tryItOut 144

tryItOut 145

tryItOut 146
Compiling threw: SyntaxError: syntax error

tryItOut 147

tryItOut 148
Compiling threw: SyntaxError: missing ] after element list

tryItOut 149
Running threw: TypeError: this.zzz has no properties

tryItOut 150
Compiling threw: SyntaxError: missing ; before statement

tryItOut 151
Compiling threw: SyntaxError: syntax error

tryItOut 152

tryItOut 153
Compiling threw: SyntaxError: missing : after property id

tryItOut 154
Compiling threw: SyntaxError: syntax error

tryItOut 155

tryItOut 156
Compiling threw: SyntaxError: missing ; before statement

tryItOut 157
Compiling threw: SyntaxError: invalid sharp variable definition

tryItOut 158

tryItOut 159

tryItOut 160

tryItOut 161

tryItOut 162

tryItOut 163

tryItOut 164

tryItOut 165
Compiling threw: SyntaxError: missing ) in parenthetical

tryItOut 166

tryItOut 167

tryItOut 168
Compiling threw: SyntaxError: missing ) after for-loop control

tryItOut 169
Running threw: 

tryItOut 170

tryItOut 171
Compiling threw: TypeError: redeclaration of variable __parent__

tryItOut 172

tryItOut 173
Compiling threw: SyntaxError: missing { before function body

tryItOut 174

tryItOut 175
uneval returned the string: [1, undefined]

tryItOut 176

tryItOut 177
Compiling threw: SyntaxError: missing variable name

tryItOut 178
Compiling threw: SyntaxError: missing variable name

tryItOut 179

tryItOut 180
Compiling threw: SyntaxError: missing ) after for-loop control

tryItOut 181

tryItOut 182
Compiling threw: SyntaxError: missing variable name

tryItOut 183
Compiling threw: SyntaxError: syntax error

tryItOut 184

tryItOut 185
Compiling threw: SyntaxError: syntax error

tryItOut 186
Compiling threw: TypeError: redeclaration of var __count__

tryItOut 187

tryItOut 188
Compiling threw: SyntaxError: missing ; before statement

tryItOut 189
Compiling threw: SyntaxError: illegal XML character

tryItOut 190
Compiling threw: SyntaxError: missing ) in parenthetical

tryItOut 191

tryItOut 192
Running threw: 

tryItOut 193

tryItOut 194

tryItOut 195
Compiling threw: SyntaxError: invalid decrement operand

tryItOut 196
Compiling threw: SyntaxError: missing formal parameter

tryItOut 197
Running threw: undefined

tryItOut 198
Compiling threw: SyntaxError: unterminated string literal

tryItOut 199
Compiling threw: SyntaxError: syntax error

tryItOut 200

tryItOut 201
Compiling threw: SyntaxError: invalid for/in left-hand side

tryItOut 202
Compiling threw: SyntaxError: unterminated regular expression literal

tryItOut 203
Running threw: TypeError: <x><y/></x>.yoyo is not a function

tryItOut 204

tryItOut 205
Compiling threw: SyntaxError: invalid decrement operand

tryItOut 206
Compiling threw: SyntaxError: syntax error

tryItOut 207
Compiling threw: SyntaxError: missing ) in parenthetical

tryItOut 208
Compiling threw: SyntaxError: missing ) after condition

tryItOut 209
Compiling threw: SyntaxError: duplicate label

tryItOut 210
Compiling threw: SyntaxError: missing : in conditional expression

tryItOut 211
Compiling threw: SyntaxError: unterminated string literal

tryItOut 212
Compiling threw: SyntaxError: missing ) after condition

tryItOut 213
Running threw: 

tryItOut 214
It's an iterator!
Iterating threw!
Iterating threw: Error: invalid sharp variable use #1#

tryItOut 215

tryItOut 216
Compiling threw: SyntaxError: missing ) in parenthetical

tryItOut 217
Running threw: TypeError: {}.unwatch("constructor") has no properties

tryItOut 218
Running threw: TypeError: this.zzz has no properties

tryItOut 219

tryItOut 220

tryItOut 221
Running threw: TypeError: this.zzz has no properties

tryItOut 222
Running threw: ReferenceError: z1 is not defined

tryItOut 223
Compiling threw: SyntaxError: missing ; before statement

tryItOut 224
Compiling threw: SyntaxError: missing variable name

tryItOut 225
Running threw: TypeError: this.zzz has no properties

tryItOut 226
Compiling threw: SyntaxError: missing variable name

tryItOut 227

tryItOut 228
Running threw: TypeError: __parent__ has no properties

tryItOut 229

tryItOut 230

tryItOut 231
Compiling threw: SyntaxError: missing { before function body

tryItOut 232
Compiling threw: TypeError: generator function anonymous returns a value

tryItOut 233
Compiling threw: SyntaxError: missing ) in parenthetical

tryItOut 234

tryItOut 235
Compiling threw: SyntaxError: missing ) after for-loop control

tryItOut 236

tryItOut 237

tryItOut 238
Compiling threw: SyntaxError: syntax error

tryItOut 239
Compiling threw: SyntaxError: missing ) in parenthetical

tryItOut 240
Compiling threw: SyntaxError: missing ) after argument list

tryItOut 241

tryItOut 242

tryItOut 243

tryItOut 244
Compiling threw: SyntaxError: missing { before function body

tryItOut 245
Compiling threw: SyntaxError: unmatched ) in regular expression

tryItOut 246
Compiling threw: SyntaxError: missing ) in parenthetical

tryItOut 247

tryItOut 248
Compiling threw: SyntaxError: missing ) in parenthetical

tryItOut 249
Running threw: TypeError: this.zzz has no properties

tryItOut 250
Compiling threw: SyntaxError: missing { before function body

tryItOut 251
Compiling threw: SyntaxError: syntax error

tryItOut 252

tryItOut 253
Compiling threw: SyntaxError: invalid assignment left-hand side

tryItOut 254
Running threw: TypeError: invalid 'instanceof' operand <x><y/></x>.__lookupGetter__("prototype")

tryItOut 255

tryItOut 256
Compiling threw: SyntaxError: missing formal parameter

tryItOut 257
Compiling threw: TypeError: generator function anonymous returns a value

tryItOut 258
Compiling threw: SyntaxError: invalid assignment left-hand side

tryItOut 259

tryItOut 260
Running threw: TypeError: <x>
  <y/>
</x> is not a function

tryItOut 261
Compiling threw: SyntaxError: invalid assignment left-hand side

tryItOut 262

tryItOut 263

tryItOut 264
Compiling threw: SyntaxError: invalid assignment left-hand side

tryItOut 265
Compiling threw: SyntaxError: invalid for/in left-hand side

tryItOut 266
It's an iterator!
Iterating succeeded, iterCount == 1

tryItOut 267
Compiling threw: SyntaxError: yield expression must be parenthesized

tryItOut 268
Compiling threw: SyntaxError: invalid for/in left-hand side

tryItOut 269

tryItOut 270
Compiling threw: SyntaxError: invalid assignment left-hand side

tryItOut 271
Running threw: 

tryItOut 272
Compiling threw: SyntaxError: missing ; before statement

tryItOut 273
Running threw: TypeError: redeclaration of var __count__

tryItOut 274

tryItOut 275
It's an iterator!
Iterating succeeded, iterCount == 1

tryItOut 276
Compiling threw: SyntaxError: missing ; before statement

tryItOut 277
It's an iterator!
Iterating succeeded, iterCount == 1

tryItOut 278
It's an iterator!
Iterating threw!
Iterating threw: TypeError: prototype has no properties

tryItOut 279

tryItOut 280
Compiling threw: SyntaxError: invalid sharp variable definition

tryItOut 281
Compiling threw: SyntaxError: missing ] after element list

tryItOut 282

tryItOut 283
Compiling threw: SyntaxError: illegal XML character

tryItOut 284
Compiling threw: SyntaxError: missing ] after element list

tryItOut 285

tryItOut 286
Compiling threw: SyntaxError: syntax error

tryItOut 287
It's an iterator!
Iterating threw!
Iterating threw: SyntaxError: invalid setter usage

tryItOut 288
Compiling threw: SyntaxError: missing ; before statement

tryItOut 289

tryItOut 290
Running threw: TypeError: arguments[0] has no properties

tryItOut 291

tryItOut 292
Compiling threw: SyntaxError: syntax error

tryItOut 293

tryItOut 294
Compiling threw: SyntaxError: missing ] after element list

tryItOut 295

tryItOut 296
Compiling threw: SyntaxError: missing ) in parenthetical

tryItOut 297
Compiling threw: SyntaxError: invalid for/in left-hand side

tryItOut 298

tryItOut 299

tryItOut 300

tryItOut 301

tryItOut 302
Running threw: Error: invalid sharp variable use #1#

tryItOut 303
Compiling threw: SyntaxError: missing variable name

tryItOut 304

tryItOut 305
Running threw: ReferenceError: z1 is not defined

tryItOut 306
Running threw: <x>
  <y/>
</x>

tryItOut 307
Running threw: TypeError: arguments[0] has no properties

tryItOut 308
Compiling threw: SyntaxError: syntax error

tryItOut 309
Compiling threw: SyntaxError: illegal XML character

tryItOut 310
Running threw: ReferenceError: z2 is not defined

tryItOut 311
Compiling threw: SyntaxError: syntax error

tryItOut 312
Compiling threw: SyntaxError: missing ] after element list

tryItOut 313

tryItOut 314
Running threw: TypeError: <y><z/></y>.yoyo is not a function

tryItOut 315

tryItOut 316
Compiling threw: SyntaxError: missing variable name

tryItOut 317
Compiling threw: SyntaxError: syntax error

tryItOut 318

tryItOut 319
Compiling threw: SyntaxError: invalid decrement operand

tryItOut 320
Compiling threw: SyntaxError: missing variable name

tryItOut 321
Compiling threw: SyntaxError: missing { before function body

tryItOut 322

tryItOut 323
Compiling threw: SyntaxError: missing ) in parenthetical

tryItOut 324
Running threw: [object StopIteration]

tryItOut 325
Compiling threw: SyntaxError: missing variable name

tryItOut 326

tryItOut 327

tryItOut 328
Compiling threw: SyntaxError: invalid for/in left-hand side

tryItOut 329

tryItOut 330

tryItOut 331

tryItOut 332

tryItOut 333

tryItOut 334

tryItOut 335
Compiling threw: SyntaxError: missing formal parameter

tryItOut 336

tryItOut 337
Running threw: TypeError: <y>
  <z/>
</y> is not a constructor

tryItOut 338
Compiling threw: SyntaxError: missing { before function body

tryItOut 339
Running threw: 

tryItOut 340
Compiling threw: SyntaxError: missing { before function body

tryItOut 341
Compiling threw: SyntaxError: missing { before function body

tryItOut 342
Compiling threw: SyntaxError: invalid for/in left-hand side

tryItOut 343
Compiling threw: SyntaxError: missing ] after element list

tryItOut 344
It's an iterator!
Iterating threw!
Iterating threw: TypeError: <x/>[<x><y/></x>] is not a constructor

tryItOut 345
Compiling threw: SyntaxError: missing { before function body

tryItOut 346
Compiling threw: TypeError: redeclaration of const prototype

tryItOut 347

tryItOut 348
Compiling threw: SyntaxError: syntax error

tryItOut 349
Running threw: ReferenceError: z2 is not defined

tryItOut 350

tryItOut 351

tryItOut 352
Compiling threw: SyntaxError: missing variable name

tryItOut 353

tryItOut 354
Running threw: [object global]

tryItOut 355
Compiling threw: SyntaxError: missing ; before statement

tryItOut 356

tryItOut 357
Running threw: [object Object]

tryItOut 358
Compiling threw: SyntaxError: invalid increment operand

tryItOut 359
Compiling threw: SyntaxError: missing ) in parenthetical

tryItOut 360
Compiling threw: TypeError: generator function anonymous returns a value

tryItOut 361

tryItOut 362
Compiling threw: SyntaxError: missing { before function body

tryItOut 363
Running threw: TypeError: constructor is not a function

tryItOut 364

tryItOut 365

tryItOut 366
Running threw: [object StopIteration]

tryItOut 367
Compiling threw: SyntaxError: invalid assignment left-hand side

tryItOut 368
Compiling threw: SyntaxError: missing variable name

tryItOut 369
Compiling threw: SyntaxError: invalid for/in left-hand side

tryItOut 370

tryItOut 371
Running threw: <y>
  <z/>
</y>

tryItOut 372
Running threw: <x>
  <y/>
</x>

tryItOut 373
Running threw: TypeError: <x>
  <y/>
</x> is not a function

tryItOut 374
Running threw: 

tryItOut 375

tryItOut 376
Running threw: TypeError: prototype has no properties

tryItOut 377
Compiling threw: SyntaxError: invalid assignment left-hand side

tryItOut 378
Compiling threw: SyntaxError: missing { before function body

tryItOut 379
Compiling threw: TypeError: redeclaration of var prototype

tryItOut 380
Compiling threw: SyntaxError: missing ) after condition

tryItOut 381

tryItOut 382
Running threw: ReferenceError: z1 is not defined

tryItOut 383

tryItOut 384
Compiling threw: SyntaxError: unterminated regular expression literal

tryItOut 385

tryItOut 386
Compiling threw: SyntaxError: syntax error

tryItOut 387
Compiling threw: SyntaxError: missing : after property id

tryItOut 388
Compiling threw: SyntaxError: invalid assignment left-hand side

tryItOut 389

tryItOut 390
Running threw: [object StopIteration]

tryItOut 391
Compiling threw: SyntaxError: syntax error

tryItOut 392
Compiling threw: SyntaxError: missing formal parameter

tryItOut 393
Running threw: [object StopIteration]

tryItOut 394

tryItOut 395

tryItOut 396
Running threw: [object StopIteration]

tryItOut 397

tryItOut 398
Running threw: Error: invalid sharp variable use #1#

tryItOut 399
Compiling threw: SyntaxError: syntax error

tryItOut 400

tryItOut 401
Compiling threw: SyntaxError: missing : after property id

tryItOut 402

tryItOut 403
Compiling threw: SyntaxError: missing ) in parenthetical

tryItOut 404
Compiling threw: SyntaxError: missing { before function body

tryItOut 405
Running threw: TypeError: __count__ is not a function

tryItOut 406
Compiling threw: SyntaxError: syntax error

tryItOut 407

tryItOut 408
Compiling threw: SyntaxError: missing { before function body

tryItOut 409
Compiling threw: SyntaxError: missing variable name

tryItOut 410
Compiling threw: SyntaxError: missing variable name

tryItOut 411
Compiling threw: SyntaxError: missing { before function body

tryItOut 412
Running threw: TypeError: this.zzz has no properties

tryItOut 413
Compiling threw: SyntaxError: missing ; before statement

tryItOut 414
Compiling threw: TypeError: redeclaration of const __count__

tryItOut 415
Compiling threw: SyntaxError: syntax error

tryItOut 416
Compiling threw: SyntaxError: missing variable name

tryItOut 417

tryItOut 418

tryItOut 419

tryItOut 420

tryItOut 421

tryItOut 422

tryItOut 423

tryItOut 424
Compiling threw: SyntaxError: invalid decrement operand

tryItOut 425
Compiling threw: SyntaxError: invalid destructuring assignment operator

tryItOut 426

tryItOut 427
Compiling threw: SyntaxError: syntax error

tryItOut 428
Compiling threw: SyntaxError: missing variable name

tryItOut 429

tryItOut 430

tryItOut 431
Running threw: [object StopIteration]

tryItOut 432

tryItOut 433
Compiling threw: SyntaxError: missing ( before let head

tryItOut 434
Compiling threw: SyntaxError: invalid decrement operand

tryItOut 435

tryItOut 436
Compiling threw: SyntaxError: missing variable name

tryItOut 437
Compiling threw: SyntaxError: missing = in destructuring declaration

tryItOut 438
Compiling threw: SyntaxError: illegal XML character

tryItOut 439

tryItOut 440
Compiling threw: SyntaxError: missing ; after for-loop initializer

tryItOut 441

tryItOut 442
Compiling threw: SyntaxError: invalid decrement operand

tryItOut 443

tryItOut 444

tryItOut 445
Compiling threw: SyntaxError: missing variable name

tryItOut 446

tryItOut 447

tryItOut 448

tryItOut 449
Compiling threw: SyntaxError: missing ) in parenthetical

tryItOut 450

tryItOut 451

tryItOut 452
Running threw: [object Object]

tryItOut 453
Compiling threw: SyntaxError: missing variable name

tryItOut 454
Running threw: TypeError: this.zzz has no properties

tryItOut 455

tryItOut 456
Compiling threw: SyntaxError: syntax error

tryItOut 457
Compiling threw: TypeError: redeclaration of variable __count__

tryItOut 458
Running threw: ReferenceError: z1 is not defined

tryItOut 459
Compiling threw: SyntaxError: missing { before function body

tryItOut 460

tryItOut 461

tryItOut 462

tryItOut 463
uneval returned the string: [[]]

tryItOut 464

tryItOut 465

tryItOut 466
Compiling threw: SyntaxError: illegal XML character

tryItOut 467

tryItOut 468

tryItOut 469
Running threw: TypeError: Function.prototype.call called on incompatible [object Object]

tryItOut 470

tryItOut 471
Compiling threw: SyntaxError: missing variable name

tryItOut 472
Running threw: TypeError: <x>
  <y/>
</x> is not a function

tryItOut 473
Compiling threw: TypeError: redeclaration of variable prop

tryItOut 474

tryItOut 475
Compiling threw: SyntaxError: missing variable name

tryItOut 476
Compiling threw: SyntaxError: missing ] after element list

tryItOut 477

tryItOut 478

tryItOut 479

tryItOut 480
Compiling threw: SyntaxError: missing variable name

tryItOut 481

tryItOut 482

tryItOut 483
Compiling threw: SyntaxError: missing ; before statement

tryItOut 484

tryItOut 485
Running threw: TypeError: this.zzz has no properties

tryItOut 486
Running threw: TypeError: prototype has no properties

tryItOut 487
Compiling threw: SyntaxError: illegal XML character

tryItOut 488
Running threw: TypeError: p.z = <y><z/></y> is not a function

tryItOut 489
Compiling threw: SyntaxError: syntax error

tryItOut 490
Compiling threw: TypeError: redeclaration of variable prop

tryItOut 491
Compiling threw: SyntaxError: missing ; before statement

tryItOut 492
Compiling threw: SyntaxError: syntax error

tryItOut 493
Compiling threw: SyntaxError: missing ) after argument list

tryItOut 494
Compiling threw: SyntaxError: missing variable name

tryItOut 495
Compiling threw: SyntaxError: invalid for/in left-hand side

tryItOut 496
Compiling threw: SyntaxError: syntax error

tryItOut 497
Compiling threw: SyntaxError: illegal XML character

tryItOut 498
Compiling threw: SyntaxError: missing ; before statement

tryItOut 499
Running threw: TypeError: __noSuchMethod__ has no properties

tryItOut 500

tryItOut 501

tryItOut 502
Running threw: 111

tryItOut 503
Compiling threw: SyntaxError: syntax error

tryItOut 504

tryItOut 505
It's an iterator!
Iterating succeeded, iterCount == 1

tryItOut 506
It's an iterator!
Iterating succeeded, iterCount == 1

tryItOut 507
Compiling threw: SyntaxError: missing ) in parenthetical

tryItOut 508
Compiling threw: SyntaxError: invalid for/in left-hand side

tryItOut 509

tryItOut 510
Compiling threw: SyntaxError: missing ; before statement

tryItOut 511
Running threw: 1

tryItOut 512

tryItOut 513
Compiling threw: SyntaxError: invalid for/in left-hand side

tryItOut 514
Compiling threw: SyntaxError: missing ] after element list

tryItOut 515
Compiling threw: SyntaxError: missing = in destructuring declaration

tryItOut 516
It's an iterator!
Iterating threw!
Iterating threw: ReferenceError: z1 is not defined

tryItOut 517
Compiling threw: SyntaxError: missing ; before statement

tryItOut 518
Compiling threw: SyntaxError: syntax error

tryItOut 519
Running threw: [object Object]

tryItOut 520
Compiling threw: SyntaxError: syntax error

tryItOut 521
Compiling threw: SyntaxError: syntax error

tryItOut 522
Compiling threw: TypeError: redeclaration of variable constructor

tryItOut 523
Running threw: [object StopIteration]

tryItOut 524
Compiling threw: TypeError: redeclaration of var __proto__

tryItOut 525

tryItOut 526
Running threw: ,

tryItOut 527
Compiling threw: SyntaxError: syntax error

tryItOut 528
Compiling threw: SyntaxError: missing ; after for-loop initializer

tryItOut 529
Compiling threw: SyntaxError: missing variable name

tryItOut 530
Running threw: TypeError: this.zzz has no properties

tryItOut 531
Compiling threw: SyntaxError: missing ) in parenthetical

tryItOut 532

tryItOut 533
Compiling threw: SyntaxError: missing ; before statement

tryItOut 534
It's an iterator!
Iterating threw!
Iterating threw: TypeError: <x/> is not a function

tryItOut 535
Running threw: TypeError: this.zzz has no properties

tryItOut 536

tryItOut 537
Running threw: ReferenceError: z2 is not defined

tryItOut 538
Compiling threw: SyntaxError: missing = in destructuring declaration

tryItOut 539

tryItOut 540
Running threw: TypeError: __iterator__ has no properties

tryItOut 541

tryItOut 542
Compiling threw: SyntaxError: missing { before function body

tryItOut 543

tryItOut 544
Compiling threw: TypeError: redeclaration of const __proto__

tryItOut 545

tryItOut 546
uneval returned the string: (new String("111"))

tryItOut 547

tryItOut 548
Running threw: [object StopIteration]

tryItOut 549
Running threw: TypeError: arguments[0] has no properties

tryItOut 550

tryItOut 551
Compiling threw: SyntaxError: missing { before function body

tryItOut 552
Running threw: TypeError: this.zzz has no properties

tryItOut 553
Compiling threw: SyntaxError: missing variable name

tryItOut 554

tryItOut 555
Compiling threw: TypeError: redeclaration of variable __count__

tryItOut 556

tryItOut 557

tryItOut 558
Compiling threw: SyntaxError: missing ) in parenthetical

tryItOut 559

tryItOut 560

tryItOut 561
Compiling threw: SyntaxError: missing { before function body

tryItOut 562
It's an iterator!
Iterating succeeded, iterCount == 1

tryItOut 563

tryItOut 564
Compiling threw: SyntaxError: missing ) in parenthetical

tryItOut 565

tryItOut 566
Compiling threw: SyntaxError: missing { before function body

tryItOut 567
Compiling threw: SyntaxError: missing ; before statement

tryItOut 568
Running threw: TypeError: this.zzz has no properties

tryItOut 569
Compiling threw: TypeError: redeclaration of var __iterator__

tryItOut 570

tryItOut 571

tryItOut 572

tryItOut 573

tryItOut 574

tryItOut 575
Compiling threw: SyntaxError: missing { before function body

tryItOut 576

tryItOut 577
Compiling threw: SyntaxError: invalid for/in left-hand side

tryItOut 578

tryItOut 579
Compiling threw: SyntaxError: missing variable name

tryItOut 580

tryItOut 581

tryItOut 582
uneval returned the string: [1]

tryItOut 583
Compiling threw: SyntaxError: missing ; after for-loop initializer

tryItOut 584
Running threw: <y>
  <z/>
</y>

tryItOut 585

tryItOut 586
Running threw: TypeError: constructor is not a function

tryItOut 587

tryItOut 588
Compiling threw: TypeError: generator function anonymous returns a value

tryItOut 589
Compiling threw: SyntaxError: missing = in destructuring declaration

tryItOut 590

tryItOut 591

tryItOut 592
It's an iterator!
Iterating threw!
Iterating threw: undefined

tryItOut 593

tryItOut 594

tryItOut 595
Running threw: function Number() {
    [native code]
}

tryItOut 596
Compiling threw: SyntaxError: missing variable name

tryItOut 597

tryItOut 598
Running threw: TypeError: this.zzz has no properties

tryItOut 599
Compiling threw: SyntaxError: unterminated string literal

tryItOut 600
Running threw: Error: invalid sharp variable use #1#

tryItOut 601

tryItOut 602

tryItOut 603

tryItOut 604
Compiling threw: SyntaxError: missing variable name

tryItOut 605
Compiling threw: SyntaxError: missing variable name

tryItOut 606

tryItOut 607
Compiling threw: SyntaxError: missing ) in parenthetical

tryItOut 608

tryItOut 609
Compiling threw: SyntaxError: syntax error

tryItOut 610

tryItOut 611

tryItOut 612
Compiling threw: SyntaxError: missing ) in parenthetical

tryItOut 613
Compiling threw: TypeError: redeclaration of variable __count__

tryItOut 614
Running threw: ReferenceError: z1 is not defined

tryItOut 615
Compiling threw: SyntaxError: missing ) in parenthetical

tryItOut 616

tryItOut 617
Compiling threw: SyntaxError: missing while after do-loop body

tryItOut 618
Compiling threw: SyntaxError: missing ; before statement

tryItOut 619

tryItOut 620

tryItOut 621
Compiling threw: SyntaxError: missing variable name

tryItOut 622
Compiling threw: SyntaxError: missing ) in parenthetical

tryItOut 623
Running threw: [object Object]

tryItOut 624
Compiling threw: SyntaxError: invalid property id

tryItOut 625

tryItOut 626
Compiling threw: SyntaxError: invalid decrement operand

tryItOut 627
Compiling threw: SyntaxError: missing ) in parenthetical

tryItOut 628
Compiling threw: SyntaxError: missing ) after condition

tryItOut 629
Compiling threw: SyntaxError: missing ) in parenthetical

tryItOut 630

tryItOut 631
Compiling threw: SyntaxError: duplicate label

tryItOut 632
Compiling threw: SyntaxError: missing { before function body

tryItOut 633

tryItOut 634
Compiling threw: SyntaxError: missing ) in parenthetical

tryItOut 635

tryItOut 636
Compiling threw: SyntaxError: missing ) in parenthetical

tryItOut 637

tryItOut 638
Compiling threw: SyntaxError: missing variable name

tryItOut 639

tryItOut 640
Compiling threw: TypeError: redeclaration of var __proto__

tryItOut 641

tryItOut 642
Compiling threw: SyntaxError: missing ) in parenthetical

tryItOut 643
Compiling threw: SyntaxError: unterminated string literal

tryItOut 644

tryItOut 645
Compiling threw: SyntaxError: missing : after property id

tryItOut 646

tryItOut 647
Compiling threw: SyntaxError: invalid assignment left-hand side

tryItOut 648

tryItOut 649
Compiling threw: SyntaxError: invalid assignment left-hand side

tryItOut 650
Compiling threw: SyntaxError: invalid increment operand

tryItOut 651
Compiling threw: SyntaxError: missing ; before statement

tryItOut 652
uneval returned the string: [1, undefined]

tryItOut 653

tryItOut 654
Running threw: TypeError: ({}) is not a function

tryItOut 655
Compiling threw: SyntaxError: invalid XML name

tryItOut 656
Running threw: <x>
  <y/>
</x>

tryItOut 657
Compiling threw: SyntaxError: missing ) in parenthetical

tryItOut 658
Compiling threw: SyntaxError: invalid default XML namespace

tryItOut 659
Compiling threw: SyntaxError: missing variable name

tryItOut 660
Compiling threw: SyntaxError: missing ] after element list

tryItOut 661

tryItOut 662
Compiling threw: SyntaxError: missing : after property id

tryItOut 663
Compiling threw: SyntaxError: missing variable name

tryItOut 664
Compiling threw: SyntaxError: missing variable name

tryItOut 665
Compiling threw: SyntaxError: missing ; after for-loop initializer

tryItOut 666

tryItOut 667
Compiling threw: SyntaxError: invalid assignment left-hand side

tryItOut 668
Compiling threw: SyntaxError: missing { before function body

tryItOut 669
Compiling threw: SyntaxError: missing : after property id

tryItOut 670

tryItOut 671
Compiling threw: SyntaxError: invalid for/in left-hand side

tryItOut 672
Compiling threw: SyntaxError: invalid assignment left-hand side

tryItOut 673
Compiling threw: SyntaxError: invalid for/in left-hand side

tryItOut 674
Compiling threw: SyntaxError: missing { before function body

tryItOut 675
Running threw: ReferenceError: z1 is not defined

tryItOut 676
Compiling threw: SyntaxError: missing variable name

tryItOut 677
Running threw: 

tryItOut 678
Compiling threw: SyntaxError: invalid label

tryItOut 679

tryItOut 680
Compiling threw: SyntaxError: missing { before function body

tryItOut 681

tryItOut 682

tryItOut 683
Compiling threw: SyntaxError: missing ] after element list

tryItOut 684

tryItOut 685

tryItOut 686
Compiling threw: SyntaxError: invalid for/in left-hand side

tryItOut 687

tryItOut 688

tryItOut 689
Compiling threw: SyntaxError: missing { before function body

tryItOut 690

tryItOut 691
Compiling threw: SyntaxError: missing ) in parenthetical

tryItOut 692
Compiling threw: SyntaxError: missing ) in parenthetical

tryItOut 693
Compiling threw: SyntaxError: invalid assignment left-hand side

tryItOut 694

tryItOut 695
Compiling threw: SyntaxError: missing ) in parenthetical

tryItOut 696
Compiling threw: SyntaxError: syntax error

tryItOut 697
Compiling threw: SyntaxError: missing variable name

tryItOut 698
Compiling threw: SyntaxError: missing : after property id

tryItOut 699
Compiling threw: SyntaxError: missing ( before formal parameters

tryItOut 700
Running threw: [object StopIteration]

tryItOut 701
Compiling threw: SyntaxError: invalid for/in left-hand side

tryItOut 702
Compiling threw: SyntaxError: invalid assignment left-hand side

tryItOut 703
Running threw: ReferenceError: z2 is not defined

tryItOut 704
Running threw: [object StopIteration]

tryItOut 705

tryItOut 706

tryItOut 707
Compiling threw: SyntaxError: duplicate label

tryItOut 708
Compiling threw: SyntaxError: missing ] after element list

tryItOut 709
Compiling threw: SyntaxError: missing ) in parenthetical

tryItOut 710

tryItOut 711

tryItOut 712

tryItOut 713

tryItOut 714
Running threw: TypeError: this.zzz has no properties

tryItOut 715

tryItOut 716

tryItOut 717
Running threw: ReferenceError: setter is not defined

tryItOut 718

tryItOut 719

tryItOut 720
Compiling threw: SyntaxError: syntax error

tryItOut 721

tryItOut 722
Running threw: <x>
  <y/>
</x>

tryItOut 723
Running threw: TypeError: __iterator__.unwatch("__proto__") has no properties

tryItOut 724
Compiling threw: TypeError: generator function anonymous returns a value

tryItOut 725
Compiling threw: SyntaxError: invalid XML name

tryItOut 726
Running threw: <y>
  <z/>
</y>

tryItOut 727
Running threw: ReferenceError: z1 is not defined

tryItOut 728
Compiling threw: SyntaxError: invalid assignment left-hand side

tryItOut 729

tryItOut 730
Running threw: <y>
  <z/>
</y>

tryItOut 731
Compiling threw: SyntaxError: missing { before function body

tryItOut 732

tryItOut 733

tryItOut 734
Compiling threw: SyntaxError: missing ) in parenthetical

tryItOut 735

tryItOut 736
Compiling threw: SyntaxError: missing ) in parenthetical

tryItOut 737

tryItOut 738
Running threw: TypeError: <y><z/></y>.__lookupGetter__("prototype") has no properties

tryItOut 739
Running threw: 111

tryItOut 740

tryItOut 741

tryItOut 742

tryItOut 743

tryItOut 744

tryItOut 745
Running threw: [object StopIteration]

tryItOut 746

tryItOut 747
Compiling threw: SyntaxError: missing = in destructuring declaration

tryItOut 748
Running threw: TypeError: this.zzz has no properties

tryItOut 749
Compiling threw: SyntaxError: invalid for/in left-hand side

tryItOut 750
Running threw: ReferenceError: Exception is not defined

tryItOut 751
Running threw: [object StopIteration]

tryItOut 752

tryItOut 753
Compiling threw: SyntaxError: invalid increment operand

tryItOut 754
Running threw: [object StopIteration]

tryItOut 755
Compiling threw: SyntaxError: missing ; before statement

tryItOut 756
Running threw: ReferenceError: z1 is not defined

tryItOut 757

tryItOut 758

tryItOut 759
Compiling threw: SyntaxError: missing { before function body

tryItOut 760

tryItOut 761

tryItOut 762

tryItOut 763
Running threw: Error: invalid sharp variable use #1#

tryItOut 764

tryItOut 765

tryItOut 766

tryItOut 767
Compiling threw: SyntaxError: missing ; before statement

tryItOut 768
It's an iterator!
Iterating succeeded, iterCount == 4

tryItOut 769

tryItOut 770
Compiling threw: SyntaxError: missing variable name

tryItOut 771
Running threw: TypeError: prototype has no properties

tryItOut 772
Compiling threw: SyntaxError: missing ; before statement

tryItOut 773
Compiling threw: SyntaxError: invalid assignment left-hand side

tryItOut 774

tryItOut 775

tryItOut 776

tryItOut 777
Running threw: ReferenceError: z1 is not defined

tryItOut 778
Compiling threw: SyntaxError: invalid decrement operand

tryItOut 779
Compiling threw: SyntaxError: invalid assignment left-hand side

tryItOut 780

tryItOut 781
Compiling threw: SyntaxError: missing : after property id

tryItOut 782
Compiling threw: SyntaxError: duplicate label

tryItOut 783
Running threw: ReferenceError: z1 is not defined

tryItOut 784

tryItOut 785

tryItOut 786
Running threw: null

tryItOut 787
Compiling threw: SyntaxError: missing ] after element list

tryItOut 788
Running threw: TypeError: <y><z/></y>.yoyo is not a function

tryItOut 789
Compiling threw: SyntaxError: syntax error

tryItOut 790
Running threw: 

tryItOut 791
Running threw: TypeError: this.zzz has no properties

tryItOut 792

tryItOut 793
Running threw: ReferenceError: z1 is not defined

tryItOut 794

tryItOut 795

tryItOut 796
It's an iterator!
Iterating threw!
Iterating threw: TypeError: <x/>.watch("constructor", [1, 2, 3, 4].map) has no properties

tryItOut 797
Compiling threw: SyntaxError: syntax error

tryItOut 798
Compiling threw: SyntaxError: unterminated regular expression literal

tryItOut 799

tryItOut 800
Running threw: TypeError: <y>
  <z/>
</y> is not a function

tryItOut 801
Running threw: TypeError: <x><y/></x>.watch("prop", {}.__lookupGetter__) has no properties

tryItOut 802
Running threw: ReferenceError: z1 is not defined

tryItOut 803
Compiling threw: TypeError: redeclaration of variable prop

tryItOut 804
Running threw: TypeError: <x><y/></x>.__lookupGetter__("prop") has no properties

tryItOut 805
Compiling threw: SyntaxError: illegal XML character

tryItOut 806

tryItOut 807

tryItOut 808
Running threw: [object StopIteration]

tryItOut 809
Compiling threw: SyntaxError: invalid for/in left-hand side

tryItOut 810
Running threw: TypeError: this.zzz has no properties

tryItOut 811
Compiling threw: SyntaxError: missing variable name

tryItOut 812
Compiling threw: SyntaxError: missing formal parameter

tryItOut 813
Compiling threw: SyntaxError: missing variable name

tryItOut 814

tryItOut 815
Running threw: <y>
  <z/>
</y>

tryItOut 816
Compiling threw: SyntaxError: invalid for/in left-hand side

tryItOut 817
Compiling threw: SyntaxError: missing ; before statement

tryItOut 818
Compiling threw: SyntaxError: invalid for/in left-hand side

tryItOut 819
Compiling threw: SyntaxError: missing formal parameter

tryItOut 820

tryItOut 821
Running threw: TypeError: this.zzz has no properties

tryItOut 822

tryItOut 823

tryItOut 824
Running threw: TypeError: ({a1:1}) is not a function

tryItOut 825

tryItOut 826

tryItOut 827

tryItOut 828
Running threw: 1

tryItOut 829
Running threw: [object StopIteration]

tryItOut 830

tryItOut 831

tryItOut 832
Running threw: TypeError: ({}) is not a constructor

tryItOut 833
Compiling threw: SyntaxError: missing variable name

tryItOut 834
Compiling threw: SyntaxError: missing ) in parenthetical

tryItOut 835
Compiling threw: SyntaxError: missing variable name

tryItOut 836
Compiling threw: SyntaxError: missing variable name

tryItOut 837
Compiling threw: SyntaxError: missing ) in parenthetical

tryItOut 838

tryItOut 839

tryItOut 840
Compiling threw: SyntaxError: invalid for/in left-hand side

tryItOut 841
Running threw: TypeError: this.zzz has no properties

tryItOut 842
Compiling threw: SyntaxError: syntax error

tryItOut 843
Compiling threw: SyntaxError: missing { before function body

tryItOut 844
Compiling threw: SyntaxError: syntax error

tryItOut 845
Running threw: ReferenceError: z1 is not defined

tryItOut 846
Running threw: [object StopIteration]

tryItOut 847
Compiling threw: SyntaxError: syntax error

tryItOut 848
Compiling threw: SyntaxError: unterminated parenthetical

tryItOut 849

tryItOut 850
Compiling threw: SyntaxError: missing variable name

tryItOut 851

tryItOut 852

tryItOut 853
Running threw: ReferenceError: z1 is not defined

tryItOut 854
Compiling threw: SyntaxError: missing ) in parenthetical

tryItOut 855

tryItOut 856

tryItOut 857
Compiling threw: SyntaxError: missing : after property id

tryItOut 858
Compiling threw: SyntaxError: invalid assignment left-hand side

tryItOut 859
Compiling threw: SyntaxError: missing { before function body

tryItOut 860
Running threw: [object StopIteration]

tryItOut 861
Compiling threw: SyntaxError: missing variable name

tryItOut 862

tryItOut 863
Compiling threw: SyntaxError: missing ) in parenthetical

tryItOut 864
Running threw: TypeError: this.zzz has no properties

tryItOut 865

tryItOut 866

tryItOut 867
Compiling threw: SyntaxError: missing { before function body

tryItOut 868
Compiling threw: SyntaxError: duplicate label

tryItOut 869
Compiling threw: SyntaxError: invalid assignment left-hand side

tryItOut 870
Compiling threw: SyntaxError: missing variable name

tryItOut 871
Running threw: TypeError: __parent__ has no properties

tryItOut 872
Compiling threw: SyntaxError: illegal XML character

tryItOut 873

tryItOut 874
Compiling threw: SyntaxError: missing { before function body

tryItOut 875
Running threw: <x>
  <y/>
</x>

tryItOut 876
Running threw: TypeError: this.zzz has no properties

tryItOut 877

tryItOut 878

tryItOut 879
Compiling threw: SyntaxError: missing ; before statement

tryItOut 880
Running threw: <x>
  <y/>
</x>

tryItOut 881
Compiling threw: SyntaxError: invalid assignment left-hand side

tryItOut 882

tryItOut 883

tryItOut 884

tryItOut 885
Compiling threw: SyntaxError: syntax error

tryItOut 886

tryItOut 887
Compiling threw: TypeError: redeclaration of variable __iterator__

tryItOut 888
Running threw: ReferenceError: z1 is not defined

tryItOut 889
Running threw: ReferenceError: z1 is not defined

tryItOut 890
Compiling threw: SyntaxError: invalid assignment left-hand side

tryItOut 891
Compiling threw: SyntaxError: missing ) in parenthetical

tryItOut 892
Running threw: <y>
  <z/>
</y>

tryItOut 893
Compiling threw: TypeError: redeclaration of const __iterator__

tryItOut 894
Running threw: ReferenceError: z1 is not defined

tryItOut 895

tryItOut 896

tryItOut 897
Compiling threw: TypeError: redeclaration of variable __count__

tryItOut 898
Compiling threw: SyntaxError: missing { before function body

tryItOut 899
Compiling threw: SyntaxError: missing ; before statement

tryItOut 900
Running threw: TypeError: eval("prototype;", <x/>) has no properties

tryItOut 901
Compiling threw: SyntaxError: missing { before function body

tryItOut 902

tryItOut 903

tryItOut 904

tryItOut 905
Compiling threw: SyntaxError: missing variable name

tryItOut 906

tryItOut 907
Running threw: TypeError: prototype has no properties

tryItOut 908
Running threw: TypeError: <y>
  <z/>
</y> is not a function

tryItOut 909
Running threw: TypeError: this.zzz has no properties

tryItOut 910
Running threw: [object StopIteration]

tryItOut 911

tryItOut 912
Compiling threw: SyntaxError: syntax error

tryItOut 913
Running threw: [object Object]

tryItOut 914
Compiling threw: SyntaxError: missing ; before statement

tryItOut 915
Running threw: ReferenceError: z2 is not defined

tryItOut 916

tryItOut 917
Compiling threw: SyntaxError: missing ( before with-statement object

tryItOut 918
Compiling threw: SyntaxError: missing ; after for-loop initializer

tryItOut 919

tryItOut 920

tryItOut 921
Running threw: <y>
  <z/>
</y>

tryItOut 922
Running threw: TypeError: this.zzz has no properties

tryItOut 923
Compiling threw: SyntaxError: missing { before function body

tryItOut 924
Compiling threw: SyntaxError: missing variable name

tryItOut 925
Compiling threw: SyntaxError: invalid for/in left-hand side

tryItOut 926

tryItOut 927
Compiling threw: SyntaxError: missing formal parameter

tryItOut 928

tryItOut 929

tryItOut 930

tryItOut 931

tryItOut 932
Running threw: TypeError: this.zzz has no properties

tryItOut 933

tryItOut 934

tryItOut 935
Compiling threw: SyntaxError: missing variable name

tryItOut 936
Compiling threw: SyntaxError: missing ; before statement

tryItOut 937

tryItOut 938

tryItOut 939
Compiling threw: SyntaxError: missing ) in parenthetical

tryItOut 940
Running threw: TypeError: prototype has no properties

tryItOut 941
Compiling threw: SyntaxError: unterminated string literal

tryItOut 942

tryItOut 943

tryItOut 944
Running threw: TypeError: this.zzz has no properties

tryItOut 945

tryItOut 946
Compiling threw: SyntaxError: missing variable name

tryItOut 947

tryItOut 948

tryItOut 949

tryItOut 950
Compiling threw: SyntaxError: invalid destructuring assignment operator

tryItOut 951
Compiling threw: SyntaxError: missing { before function body

tryItOut 952
Compiling threw: SyntaxError: syntax error

tryItOut 953
Compiling threw: SyntaxError: syntax error

tryItOut 954
Compiling threw: SyntaxError: missing variable name

tryItOut 955
Compiling threw: SyntaxError: invalid for/in left-hand side

tryItOut 956
Compiling threw: SyntaxError: missing ) after with-statement object

tryItOut 957
Compiling threw: TypeError: redeclaration of variable __noSuchMethod__

tryItOut 958

tryItOut 959
Compiling threw: SyntaxError: missing variable name

tryItOut 960
Compiling threw: SyntaxError: invalid increment operand

tryItOut 961
Compiling threw: SyntaxError: syntax error

tryItOut 962

tryItOut 963
Compiling threw: SyntaxError: missing { before function body

tryItOut 964
Compiling threw: SyntaxError: syntax error

tryItOut 965

tryItOut 966

tryItOut 967
Running threw: TypeError: this.zzz has no properties

tryItOut 968
Compiling threw: SyntaxError: invalid assignment left-hand side

tryItOut 969
Compiling threw: SyntaxError: missing ) in parenthetical

tryItOut 970
Running threw: TypeError: this.zzz has no properties

tryItOut 971
Compiling threw: SyntaxError: invalid assignment left-hand side

tryItOut 972
Compiling threw: SyntaxError: missing ; after for-loop initializer

tryItOut 973

tryItOut 974
It's an iterator!
Iterating threw!
Iterating threw: TypeError: __parent__ is not a function

tryItOut 975

tryItOut 976
Running threw: ReferenceError: z2 is not defined

tryItOut 977

tryItOut 978
Compiling threw: SyntaxError: missing variable name

tryItOut 979
Running threw: SyntaxError: illegal XML character

tryItOut 980
Compiling threw: SyntaxError: duplicate label

tryItOut 981
Compiling threw: SyntaxError: missing variable name

tryItOut 982

tryItOut 983
Compiling threw: SyntaxError: invalid for/in left-hand side

tryItOut 984

tryItOut 985

tryItOut 986
Compiling threw: SyntaxError: missing variable name

tryItOut 987

tryItOut 988

tryItOut 989
Compiling threw: SyntaxError: invalid default XML namespace

tryItOut 990

tryItOut 991
Compiling threw: TypeError: redeclaration of variable prop

tryItOut 992
Compiling threw: SyntaxError: syntax error

tryItOut 993
Compiling threw: TypeError: redeclaration of const __count__

tryItOut 994
Compiling threw: SyntaxError: invalid for/in left-hand side

tryItOut 995

tryItOut 996

tryItOut 997

tryItOut 998
Compiling threw: SyntaxError: missing { before function body

tryItOut 999
Compiling threw: SyntaxError: missing ; before statement

tryItOut 1000
Running threw: 1,

ALL OK

Script done on Sat 04 May 2013 07:33:03 AM PDT
