Script started on Sat 04 May 2013 07:33:49 AM PDT
***
Targeting SpiderMonkey / Gecko.

tryItOut 1
Running threw: ReferenceError: prototype is not defined

tryItOut 2
Compiling threw: TypeError: redeclaration of const __parent__

tryItOut 3
Running threw: <x>
  <y/>
</x>

tryItOut 4
Compiling threw: SyntaxError: invalid for/in left-hand side

tryItOut 5

tryItOut 6

tryItOut 7
Compiling threw: SyntaxError: invalid assignment left-hand side

tryItOut 8
Compiling threw: SyntaxError: invalid for/in left-hand side

tryItOut 9

tryItOut 10
Compiling threw: SyntaxError: invalid property id

tryItOut 11
Compiling threw: SyntaxError: missing ) in parenthetical

tryItOut 12
It's an iterator!
Iterating threw!
Iterating threw: ReferenceError: z1 is not defined

tryItOut 13
Compiling threw: SyntaxError: invalid for/in left-hand side

tryItOut 14
Compiling threw: SyntaxError: invalid for/in left-hand side

tryItOut 15
It's an iterator!
Iterating threw!
Iterating threw: TypeError: arguments[0] has no properties

tryItOut 16
Running threw: TypeError: arguments[0] has no properties

tryItOut 17
Compiling threw: TypeError: redeclaration of variable __proto__

tryItOut 18
Compiling threw: SyntaxError: missing ( before formal parameters

tryItOut 19
Compiling threw: TypeError: redeclaration of variable prototype

tryItOut 20
Compiling threw: SyntaxError: missing ) after for-loop control

tryItOut 21

tryItOut 22
Compiling threw: SyntaxError: syntax error

tryItOut 23
It's an iterator!
Iterating threw!
Iterating threw: TypeError: arguments[0] has no properties

tryItOut 24
Compiling threw: SyntaxError: invalid for/in left-hand side

tryItOut 25
Compiling threw: SyntaxError: missing ) in parenthetical

tryItOut 26
Compiling threw: SyntaxError: invalid for/in left-hand side

tryItOut 27

tryItOut 28

tryItOut 29
Compiling threw: SyntaxError: invalid for/in left-hand side

tryItOut 30
Running threw: ReferenceError: reference to undefined XML name *

tryItOut 31
Compiling threw: SyntaxError: missing ) after for-loop control

tryItOut 32

tryItOut 33
Compiling threw: SyntaxError: illegal XML character

tryItOut 34
Compiling threw: SyntaxError: syntax error

tryItOut 35

tryItOut 36
Compiling threw: SyntaxError: syntax error

tryItOut 37
It's an iterator!
Iterating succeeded, iterCount == 1

tryItOut 38
Compiling threw: SyntaxError: missing variable name

tryItOut 39

tryItOut 40

tryItOut 41
Compiling threw: SyntaxError: invalid for/in left-hand side

tryItOut 42
Compiling threw: SyntaxError: missing ) in parenthetical

tryItOut 43

tryItOut 44

tryItOut 45
Compiling threw: SyntaxError: invalid assignment left-hand side

tryItOut 46
Compiling threw: TypeError: redeclaration of const prototype

tryItOut 47

tryItOut 48
Compiling threw: SyntaxError: missing ; before statement

tryItOut 49
It's an iterator!
Iterating succeeded, iterCount == 1

tryItOut 50
Compiling threw: SyntaxError: missing : after property id

tryItOut 51
Compiling threw: SyntaxError: invalid increment operand

tryItOut 52
Compiling threw: SyntaxError: invalid for/in left-hand side

tryItOut 53

tryItOut 54

tryItOut 55
Compiling threw: SyntaxError: syntax error

tryItOut 56

tryItOut 57
Compiling threw: SyntaxError: missing } after let block

tryItOut 58
Compiling threw: SyntaxError: illegal XML character

tryItOut 59
Compiling threw: SyntaxError: missing variable name

tryItOut 60
Compiling threw: SyntaxError: invalid for/in left-hand side

tryItOut 61
Compiling threw: SyntaxError: invalid for/in left-hand side

tryItOut 62
Compiling threw: SyntaxError: invalid for/in left-hand side

tryItOut 63

tryItOut 64
Compiling threw: SyntaxError: missing ; before statement

tryItOut 65
Running threw: [object StopIteration]

tryItOut 66
Compiling threw: SyntaxError: invalid for/in left-hand side

tryItOut 67
Compiling threw: SyntaxError: missing ] after element list

tryItOut 68
Compiling threw: SyntaxError: syntax error

tryItOut 69
Compiling threw: SyntaxError: invalid for/in left-hand side

tryItOut 70
Compiling threw: SyntaxError: missing ; before statement

tryItOut 71

tryItOut 72
It's an iterator!
Iterating threw!
Iterating threw: ReferenceError: reference to undefined XML name *

tryItOut 73

tryItOut 74
Compiling threw: SyntaxError: syntax error

tryItOut 75
It's an iterator!
Iterating threw!
Iterating threw: ReferenceError: __noSuchMethod__ is not defined

tryItOut 76
Compiling threw: SyntaxError: invalid assignment left-hand side

tryItOut 77
Running threw: 

tryItOut 78
Compiling threw: SyntaxError: invalid for/in left-hand side

tryItOut 79
Compiling threw: SyntaxError: invalid for/in left-hand side

tryItOut 80
before 104640, after 104640, break 016fc000

tryItOut 81

tryItOut 82

tryItOut 83
Compiling threw: SyntaxError: invalid assignment left-hand side

tryItOut 84
Compiling threw: SyntaxError: missing ) after condition

tryItOut 85

tryItOut 86
Compiling threw: SyntaxError: missing ; before statement

tryItOut 87
Compiling threw: SyntaxError: invalid property id

tryItOut 88
Compiling threw: SyntaxError: invalid assignment left-hand side

tryItOut 89

tryItOut 90
Compiling threw: SyntaxError: syntax error

tryItOut 91
Compiling threw: SyntaxError: syntax error

tryItOut 92

tryItOut 93

tryItOut 94
Running threw: ReferenceError: reference to undefined XML name *

tryItOut 95
Compiling threw: SyntaxError: missing ) in parenthetical

tryItOut 96
Compiling threw: SyntaxError: invalid for/in left-hand side

tryItOut 97
Running threw: TypeError: this.zzz has no properties

tryItOut 98

tryItOut 99
Compiling threw: TypeError: generator function anonymous returns a value

tryItOut 100
before 104640, after 104640, break 016fc000

tryItOut 101

tryItOut 102
Compiling threw: SyntaxError: missing variable name

tryItOut 103
Compiling threw: SyntaxError: missing : after property id

tryItOut 104
Compiling threw: SyntaxError: invalid for/in left-hand side

tryItOut 105

tryItOut 106

tryItOut 107

tryItOut 108
Compiling threw: SyntaxError: invalid decrement operand

tryItOut 109
Compiling threw: SyntaxError: missing { before function body

tryItOut 110
Compiling threw: SyntaxError: missing ) in parenthetical

tryItOut 111
Compiling threw: SyntaxError: missing } after let block

tryItOut 112
Running threw: [object Object]

tryItOut 113
Compiling threw: SyntaxError: syntax error

tryItOut 114
Compiling threw: SyntaxError: missing ; before statement

tryItOut 115

tryItOut 116

tryItOut 117

tryItOut 118

tryItOut 119

tryItOut 120
Compiling threw: SyntaxError: missing ; before statement

tryItOut 121

tryItOut 122

tryItOut 123
Compiling threw: SyntaxError: invalid decrement operand

tryItOut 124
Compiling threw: SyntaxError: invalid for/in left-hand side

tryItOut 125
Compiling threw: SyntaxError: missing variable name

tryItOut 126

tryItOut 127
Compiling threw: SyntaxError: missing ) after condition

tryItOut 128
Compiling threw: SyntaxError: missing ] after element list

tryItOut 129

tryItOut 130
Compiling threw: SyntaxError: invalid for/in left-hand side

tryItOut 131
Compiling threw: SyntaxError: missing ; before statement

tryItOut 132
Compiling threw: SyntaxError: missing name after . operator

tryItOut 133

tryItOut 134
Compiling threw: SyntaxError: missing } after let block

tryItOut 135

tryItOut 136

tryItOut 137
Compiling threw: SyntaxError: missing : after property id

tryItOut 138
Compiling threw: SyntaxError: syntax error

tryItOut 139
before 104640, after 104640, break 016fc000

tryItOut 140

tryItOut 141
Compiling threw: SyntaxError: missing ) after argument list

tryItOut 142

tryItOut 143

tryItOut 144
Compiling threw: SyntaxError: invalid assignment left-hand side

tryItOut 145
It's an iterator!
before 104640, after 104640, break 016fc000
Iterating threw!
Iterating threw: ReferenceError: x is not defined

tryItOut 146

tryItOut 147
Compiling threw: SyntaxError: missing ) after for-loop control

tryItOut 148
Running threw: <x>
  <y/>
</x>

tryItOut 149

tryItOut 150
Compiling threw: SyntaxError: missing : after property id

tryItOut 151
Compiling threw: SyntaxError: missing ; before statement

tryItOut 152
Compiling threw: SyntaxError: yield expression must be parenthesized

tryItOut 153

tryItOut 154
Compiling threw: SyntaxError: missing ; before statement

tryItOut 155

tryItOut 156
Compiling threw: SyntaxError: missing } in XML expression

tryItOut 157
Compiling threw: SyntaxError: invalid for/in left-hand side

tryItOut 158
It's an iterator!
Iterating threw!
Iterating threw: ReferenceError: reference to undefined XML name @foo

tryItOut 159
Compiling threw: SyntaxError: missing { before function body

tryItOut 160
It's an iterator!
Iterating threw!
Iterating threw: ReferenceError: reference to undefined XML name *

tryItOut 161

tryItOut 162
Compiling threw: TypeError: generator function anonymous returns a value

tryItOut 163
Compiling threw: SyntaxError: syntax error

tryItOut 164

tryItOut 165

tryItOut 166

tryItOut 167
Compiling threw: SyntaxError: missing ) in parenthetical

tryItOut 168
Compiling threw: SyntaxError: missing ; after for-loop initializer

tryItOut 169
Compiling threw: SyntaxError: invalid for/in left-hand side

tryItOut 170
Compiling threw: SyntaxError: invalid assignment left-hand side

tryItOut 171
Compiling threw: SyntaxError: invalid assignment left-hand side

tryItOut 172

tryItOut 173
Compiling threw: SyntaxError: duplicate label

tryItOut 174
Compiling threw: SyntaxError: missing : in conditional expression

tryItOut 175
Compiling threw: SyntaxError: missing ; after for-loop initializer

tryItOut 176
Compiling threw: SyntaxError: invalid for/in left-hand side

tryItOut 177
Compiling threw: TypeError: generator function anonymous returns a value

tryItOut 178
before 104640, after 104640, break 016fc000

tryItOut 179
Running threw: 

tryItOut 180

tryItOut 181
Compiling threw: SyntaxError: missing ; before statement

tryItOut 182
Compiling threw: SyntaxError: invalid for/in left-hand side

tryItOut 183
Compiling threw: SyntaxError: missing ) after for-loop control

tryItOut 184

tryItOut 185
It's an iterator!
Iterating threw!
Iterating threw: ReferenceError: reference to undefined XML name @foo

tryItOut 186
Compiling threw: SyntaxError: missing name in export statement

tryItOut 187
Compiling threw: SyntaxError: invalid assignment left-hand side

tryItOut 188
Compiling threw: SyntaxError: missing ) after argument list

tryItOut 189

tryItOut 190

tryItOut 191
Running threw: ReferenceError: reference to undefined XML name @foo

tryItOut 192

tryItOut 193

tryItOut 194

tryItOut 195

tryItOut 196

tryItOut 197
Compiling threw: SyntaxError: missing ) in parenthetical

tryItOut 198
Compiling threw: SyntaxError: missing ; before statement

tryItOut 199
Compiling threw: SyntaxError: invalid assignment left-hand side

tryItOut 200

tryItOut 201
Compiling threw: SyntaxError: syntax error

tryItOut 202
Compiling threw: SyntaxError: unterminated string literal

tryItOut 203
Running threw: ReferenceError: reference to undefined XML name *::*

tryItOut 204

tryItOut 205
It's an iterator!
before 104640, after 104640, break 016fc000
Iterating succeeded, iterCount == 1

tryItOut 206
Compiling threw: SyntaxError: illegal XML character

tryItOut 207
It's an iterator!
Iterating threw!
Iterating threw: TypeError: redeclaration of var __proto__

tryItOut 208
Running threw: 106

tryItOut 209
Compiling threw: SyntaxError: missing variable name

tryItOut 210

tryItOut 211
Compiling threw: SyntaxError: invalid assignment left-hand side

tryItOut 212
Compiling threw: SyntaxError: invalid increment operand

tryItOut 213
It's an iterator!
Iterating succeeded, iterCount == 1

tryItOut 214

tryItOut 215

tryItOut 216
Compiling threw: TypeError: generator function anonymous returns a value

tryItOut 217
Compiling threw: SyntaxError: invalid for/in left-hand side

tryItOut 218

tryItOut 219
Compiling threw: TypeError: generator function anonymous returns a value

tryItOut 220
It's an iterator!
Iterating threw!
Iterating threw: ReferenceError: reference to undefined XML name *::*

tryItOut 221

tryItOut 222
Compiling threw: TypeError: redeclaration of variable __proto__

tryItOut 223
Compiling threw: SyntaxError: missing ) after condition

tryItOut 224
Compiling threw: SyntaxError: missing ; before statement

tryItOut 225
Running threw: [object StopIteration]

tryItOut 226
It's an iterator!
Iterating threw!
Iterating threw: ReferenceError: z1 is not defined

tryItOut 227
Compiling threw: SyntaxError: duplicate label

tryItOut 228
Compiling threw: TypeError: redeclaration of variable __parent__

tryItOut 229
Compiling threw: SyntaxError: invalid increment operand

tryItOut 230
Running threw: ReferenceError: __noSuchMethod__ is not defined

tryItOut 231
Compiling threw: TypeError: generator function anonymous returns a value

tryItOut 232
before 104640, after 104640, break 01705000

tryItOut 233
Compiling threw: SyntaxError: missing ) after argument list

tryItOut 234
Compiling threw: SyntaxError: missing ; after for-loop condition

tryItOut 235

tryItOut 236

tryItOut 237
before 104640, after 104640, break 01705000

tryItOut 238
Running threw: ReferenceError: reference to undefined XML name @foo

tryItOut 239
It's an iterator!
before 104640, after 104640, break 01705000
Iterating succeeded, iterCount == 1

tryItOut 240
Compiling threw: SyntaxError: invalid for/in left-hand side

tryItOut 241

tryItOut 242

tryItOut 243
Running threw: ReferenceError: reference to undefined XML name *

tryItOut 244

tryItOut 245
Compiling threw: SyntaxError: invalid decrement operand

tryItOut 246
Compiling threw: SyntaxError: invalid assignment left-hand side

tryItOut 247
Compiling threw: SyntaxError: missing ) in parenthetical

tryItOut 248

tryItOut 249
Running threw: TypeError: this.zzz has no properties

tryItOut 250
Compiling threw: SyntaxError: invalid for/in left-hand side

tryItOut 251

tryItOut 252

tryItOut 253
Compiling threw: SyntaxError: invalid for/in left-hand side

tryItOut 254

tryItOut 255
Compiling threw: SyntaxError: invalid for/in left-hand side

tryItOut 256
It's an iterator!
Iterating succeeded, iterCount == 1

tryItOut 257
Compiling threw: SyntaxError: missing } after let block

tryItOut 258
Compiling threw: SyntaxError: missing ; before statement

tryItOut 259
Compiling threw: SyntaxError: invalid assignment left-hand side

tryItOut 260
Compiling threw: SyntaxError: invalid decrement operand

tryItOut 261
Compiling threw: SyntaxError: missing variable name

tryItOut 262
Compiling threw: SyntaxError: missing ; before statement

tryItOut 263
Compiling threw: SyntaxError: missing ] after element list

tryItOut 264
Compiling threw: SyntaxError: invalid for/in left-hand side

tryItOut 265
Compiling threw: SyntaxError: missing ; before statement

tryItOut 266

tryItOut 267
Compiling threw: SyntaxError: missing ] after element list

tryItOut 268
Compiling threw: SyntaxError: syntax error

tryItOut 269

tryItOut 270
before 104640, after 104640, break 01705000

tryItOut 271
Compiling threw: SyntaxError: syntax error

tryItOut 272
Compiling threw: SyntaxError: invalid assignment left-hand side

tryItOut 273
Compiling threw: SyntaxError: missing } after property list

tryItOut 274
Compiling threw: SyntaxError: missing ; before statement

tryItOut 275
Running threw: ReferenceError: prototype is not defined

tryItOut 276
Compiling threw: SyntaxError: yield expression must be parenthesized

tryItOut 277
Compiling threw: SyntaxError: invalid increment operand

tryItOut 278
Compiling threw: SyntaxError: syntax error

tryItOut 279
Compiling threw: SyntaxError: missing ) after condition

tryItOut 280

tryItOut 281
Compiling threw: TypeError: generator function anonymous returns a value

tryItOut 282
Compiling threw: SyntaxError: invalid assignment left-hand side

tryItOut 283
Running threw: ReferenceError: reference to undefined XML name *

tryItOut 284
Running threw: null

tryItOut 285
Running threw: ReferenceError: reference to undefined XML name @foo

tryItOut 286
Compiling threw: TypeError: redeclaration of const prop

tryItOut 287
Compiling threw: SyntaxError: missing ) after condition

tryItOut 288

tryItOut 289
Compiling threw: SyntaxError: invalid default XML namespace

tryItOut 290

tryItOut 291
Compiling threw: SyntaxError: missing ) in parenthetical

tryItOut 292
Compiling threw: SyntaxError: missing ) after condition

tryItOut 293
Compiling threw: SyntaxError: syntax error

tryItOut 294

tryItOut 295
It's an iterator!
Iterating succeeded, iterCount == 1

tryItOut 296
Compiling threw: SyntaxError: missing ; before statement

tryItOut 297
Compiling threw: SyntaxError: invalid for/in left-hand side

tryItOut 298

tryItOut 299
Compiling threw: SyntaxError: syntax error

tryItOut 300
Compiling threw: SyntaxError: missing ] after element list

tryItOut 301
Compiling threw: SyntaxError: syntax error

tryItOut 302
Compiling threw: SyntaxError: missing { before function body

tryItOut 303
Compiling threw: SyntaxError: invalid assignment left-hand side

tryItOut 304
Compiling threw: SyntaxError: invalid XML tag syntax

tryItOut 305
Compiling threw: SyntaxError: syntax error

tryItOut 306

tryItOut 307
Compiling threw: SyntaxError: missing ] after element list

tryItOut 308

tryItOut 309
Compiling threw: TypeError: redeclaration of const __noSuchMethod__

tryItOut 310
Compiling threw: TypeError: redeclaration of variable __iterator__

tryItOut 311
Compiling threw: SyntaxError: missing ] after element list

tryItOut 312
Compiling threw: SyntaxError: syntax error

tryItOut 313
Compiling threw: SyntaxError: invalid for/in left-hand side

tryItOut 314
Compiling threw: SyntaxError: missing ; after for-loop initializer

tryItOut 315
Compiling threw: SyntaxError: missing : in conditional expression

tryItOut 316
Compiling threw: SyntaxError: invalid for/in left-hand side

tryItOut 317
Compiling threw: SyntaxError: invalid for/in left-hand side

tryItOut 318
Compiling threw: SyntaxError: missing ) in parenthetical

tryItOut 319

tryItOut 320
Compiling threw: SyntaxError: syntax error

tryItOut 321
Running threw: ReferenceError: reference to undefined XML name *::*

tryItOut 322
Running threw: null

tryItOut 323
Compiling threw: SyntaxError: missing ) in parenthetical

tryItOut 324
Compiling threw: SyntaxError: syntax error

tryItOut 325
before 122080, after 122080, break 01711000
Running threw: TypeError: gc() is not a function

tryItOut 326

tryItOut 327
Running threw: TypeError: undefined has no properties

tryItOut 328
Compiling threw: SyntaxError: invalid for/in left-hand side

tryItOut 329
Compiling threw: SyntaxError: invalid assignment left-hand side

tryItOut 330
Compiling threw: SyntaxError: missing ; before statement

tryItOut 331
It's an iterator!
Iterating threw!
Iterating threw: ReferenceError: reference to undefined XML name *

tryItOut 332
Compiling threw: SyntaxError: illegal XML character

tryItOut 333

tryItOut 334
Compiling threw: SyntaxError: missing name in export statement

tryItOut 335
Compiling threw: SyntaxError: missing ; before statement

tryItOut 336
Compiling threw: SyntaxError: syntax error

tryItOut 337
Compiling threw: SyntaxError: missing ) in parenthetical

tryItOut 338

tryItOut 339
It's an iterator!
Iterating succeeded, iterCount == 1

tryItOut 340
It's an iterator!
Iterating threw!
Iterating threw: Error: invalid sharp variable use #1#

tryItOut 341

tryItOut 342
It's an iterator!
Iterating threw!
Iterating threw: Error: invalid sharp variable use #1#

tryItOut 343

tryItOut 344
It's an iterator!
Iterating threw!
Iterating threw: ReferenceError: reference to undefined XML name @foo

tryItOut 345
Compiling threw: SyntaxError: missing ; before statement

tryItOut 346
Compiling threw: SyntaxError: invalid for/in left-hand side

tryItOut 347
Compiling threw: SyntaxError: invalid for/in left-hand side

tryItOut 348
Compiling threw: SyntaxError: missing ; after for-loop initializer

tryItOut 349
Compiling threw: SyntaxError: missing ; before statement

tryItOut 350

tryItOut 351
Compiling threw: SyntaxError: missing : after property id

tryItOut 352
Compiling threw: SyntaxError: syntax error

tryItOut 353
Compiling threw: TypeError: generator function anonymous returns a value

tryItOut 354

tryItOut 355
Compiling threw: SyntaxError: missing ] after element list

tryItOut 356
Running threw: ReferenceError: reference to undefined XML name @foo

tryItOut 357
Compiling threw: SyntaxError: missing ; before statement

tryItOut 358
Compiling threw: SyntaxError: invalid for/in left-hand side

tryItOut 359
Compiling threw: SyntaxError: invalid for/in left-hand side

tryItOut 360
It's an iterator!
Iterating succeeded, iterCount == 0

tryItOut 361
Compiling threw: SyntaxError: invalid property id

tryItOut 362
Compiling threw: SyntaxError: missing ) in parenthetical

tryItOut 363
Compiling threw: SyntaxError: invalid decrement operand

tryItOut 364

tryItOut 365

tryItOut 366
Compiling threw: SyntaxError: missing ) in parenthetical

tryItOut 367
Compiling threw: SyntaxError: missing ; after for-loop initializer

tryItOut 368

tryItOut 369
Compiling threw: SyntaxError: missing ) in parenthetical

tryItOut 370

tryItOut 371
Compiling threw: SyntaxError: syntax error

tryItOut 372
Running threw: SyntaxError: invalid getter usage

tryItOut 373
Compiling threw: SyntaxError: invalid XML name

tryItOut 374

tryItOut 375
It's an iterator!
Iterating succeeded, iterCount == 1

tryItOut 376
Compiling threw: TypeError: generator function anonymous returns a value

tryItOut 377
Compiling threw: SyntaxError: missing ; before statement

tryItOut 378
It's an iterator!
Iterating succeeded, iterCount == 4

tryItOut 379
Running threw: 10000

tryItOut 380
Compiling threw: SyntaxError: invalid for/in left-hand side

tryItOut 381
It's an iterator!
Iterating succeeded, iterCount == 1

tryItOut 382

tryItOut 383
Compiling threw: SyntaxError: missing ; before statement

tryItOut 384

tryItOut 385
Compiling threw: SyntaxError: invalid decrement operand

tryItOut 386

tryItOut 387
Running threw: 153

tryItOut 388
It's an iterator!
Iterating threw!
Iterating threw: ReferenceError: reference to undefined XML name @foo

tryItOut 389
Compiling threw: SyntaxError: invalid for/in left-hand side

tryItOut 390
Compiling threw: SyntaxError: missing ; before statement

tryItOut 391
Compiling threw: SyntaxError: duplicate label

tryItOut 392
Compiling threw: SyntaxError: syntax error

tryItOut 393

tryItOut 394
Compiling threw: TypeError: generator function anonymous returns a value

tryItOut 395

tryItOut 396
Compiling threw: SyntaxError: missing : after property id

tryItOut 397

tryItOut 398
Compiling threw: SyntaxError: invalid for/in left-hand side

tryItOut 399
Compiling threw: SyntaxError: missing ; after for-loop condition

tryItOut 400

tryItOut 401

tryItOut 402

tryItOut 403
Compiling threw: SyntaxError: missing ] after element list

tryItOut 404

tryItOut 405

tryItOut 406
It's an iterator!
Iterating succeeded, iterCount == 1

tryItOut 407
It's an iterator!
Iterating threw!
Iterating threw: ReferenceError: reference to undefined XML name *::*

tryItOut 408

tryItOut 409
Compiling threw: SyntaxError: syntax error

tryItOut 410
Compiling threw: SyntaxError: syntax error

tryItOut 411
Compiling threw: SyntaxError: syntax error

tryItOut 412

tryItOut 413
It's an iterator!
Iterating threw!
Iterating threw: function Object() {
    [native code]
}

tryItOut 414
Compiling threw: SyntaxError: duplicate label

tryItOut 415
Compiling threw: SyntaxError: invalid for/in left-hand side

tryItOut 416

tryItOut 417

tryItOut 418
Running threw: ReferenceError: __noSuchMethod__ is not defined

tryItOut 419
Running threw: TypeError: this.zzz has no properties

tryItOut 420

tryItOut 421

tryItOut 422
Compiling threw: SyntaxError: invalid assignment left-hand side

tryItOut 423
Running threw: TypeError: this.zzz has no properties

tryItOut 424
Compiling threw: SyntaxError: missing ; before statement

tryItOut 425
Running threw: 

tryItOut 426

tryItOut 427

tryItOut 428
Compiling threw: SyntaxError: missing ) after let head

tryItOut 429
Compiling threw: SyntaxError: invalid for/in left-hand side

tryItOut 430
Compiling threw: SyntaxError: invalid property id

tryItOut 431

tryItOut 432
Running threw: ReferenceError: reference to undefined XML name *

tryItOut 433

tryItOut 434
Compiling threw: SyntaxError: invalid assignment left-hand side

tryItOut 435
Compiling threw: SyntaxError: invalid increment operand

tryItOut 436
Compiling threw: SyntaxError: missing ) in parenthetical

tryItOut 437
Compiling threw: SyntaxError: invalid assignment left-hand side

tryItOut 438
Compiling threw: SyntaxError: invalid for/in left-hand side

tryItOut 439
Compiling threw: SyntaxError: invalid for/in left-hand side

tryItOut 440
Compiling threw: SyntaxError: missing ; after for-loop initializer

tryItOut 441
Compiling threw: SyntaxError: syntax error

tryItOut 442
Running threw: TypeError: 0.2 is not a constructor

tryItOut 443
Compiling threw: SyntaxError: invalid destructuring assignment operator

tryItOut 444
Compiling threw: SyntaxError: missing ; before statement

tryItOut 445
Compiling threw: SyntaxError: invalid assignment left-hand side

tryItOut 446
Compiling threw: SyntaxError: missing ) in parenthetical

tryItOut 447
Compiling threw: TypeError: redeclaration of const __count__

tryItOut 448

tryItOut 449

tryItOut 450

tryItOut 451
Compiling threw: SyntaxError: invalid property id

tryItOut 452
Compiling threw: SyntaxError: invalid for/in left-hand side

tryItOut 453
Compiling threw: SyntaxError: invalid assignment left-hand side

tryItOut 454

tryItOut 455
Compiling threw: TypeError: redeclaration of var __proto__

tryItOut 456
It's an iterator!
Iterating succeeded, iterCount == 1

tryItOut 457
Compiling threw: SyntaxError: missing ; after for-loop initializer

tryItOut 458

tryItOut 459
Running threw: ReferenceError: prototype is not defined

tryItOut 460

tryItOut 461
Compiling threw: SyntaxError: missing ; before statement

tryItOut 462

tryItOut 463
Compiling threw: SyntaxError: invalid for/in left-hand side

tryItOut 464
Running threw: ReferenceError: prototype is not defined

tryItOut 465
Compiling threw: SyntaxError: invalid for/in left-hand side

tryItOut 466
It's an iterator!
Iterating succeeded, iterCount == 1

tryItOut 467
Compiling threw: SyntaxError: invalid increment operand

tryItOut 468
It's an iterator!
Iterating threw!
Iterating threw: ReferenceError: reference to undefined XML name @foo

tryItOut 469
Compiling threw: SyntaxError: missing ] after attribute expression

tryItOut 470
Compiling threw: SyntaxError: missing ; before statement

tryItOut 471
Compiling threw: TypeError: redeclaration of variable __proto__

tryItOut 472

tryItOut 473
Compiling threw: SyntaxError: invalid for/in left-hand side

tryItOut 474
Compiling threw: SyntaxError: missing } after let block

tryItOut 475
Compiling threw: SyntaxError: missing variable name

tryItOut 476

tryItOut 477
Compiling threw: SyntaxError: invalid increment operand

tryItOut 478

tryItOut 479
Compiling threw: SyntaxError: missing ] after element list

tryItOut 480
Compiling threw: SyntaxError: missing ( before formal parameters

tryItOut 481
Compiling threw: SyntaxError: missing ) after for-loop control

tryItOut 482

tryItOut 483
Compiling threw: SyntaxError: missing variable name

tryItOut 484
Compiling threw: SyntaxError: invalid assignment left-hand side

tryItOut 485
Compiling threw: SyntaxError: missing ) in parenthetical

tryItOut 486

tryItOut 487

tryItOut 488

tryItOut 489

tryItOut 490

tryItOut 491
Compiling threw: SyntaxError: missing formal parameter

tryItOut 492

tryItOut 493
Compiling threw: SyntaxError: invalid assignment left-hand side

tryItOut 494

tryItOut 495
Compiling threw: SyntaxError: missing ; after for-loop condition

tryItOut 496
Compiling threw: SyntaxError: syntax error

tryItOut 497

tryItOut 498
Compiling threw: SyntaxError: invalid for/in left-hand side

tryItOut 499
Running threw: [object StopIteration]

tryItOut 500

tryItOut 501
Compiling threw: SyntaxError: illegal XML character

tryItOut 502
Compiling threw: SyntaxError: missing ; before statement

tryItOut 503
Compiling threw: SyntaxError: missing ; after for-loop initializer

tryItOut 504
Compiling threw: SyntaxError: missing ; before statement

tryItOut 505
Compiling threw: SyntaxError: syntax error

tryItOut 506
Compiling threw: SyntaxError: missing } in XML expression

tryItOut 507
before 191840, after 191840, break 017d9000

tryItOut 508

tryItOut 509
Compiling threw: SyntaxError: missing ; before statement

tryItOut 510
Compiling threw: SyntaxError: syntax error

tryItOut 511
Compiling threw: SyntaxError: invalid for/in left-hand side

tryItOut 512
Running threw: TypeError: arguments[0] has no properties

tryItOut 513
Compiling threw: TypeError: generator function anonymous returns a value

tryItOut 514
Compiling threw: SyntaxError: missing name in export statement

tryItOut 515
Running threw: ReferenceError: prototype is not defined

tryItOut 516
Compiling threw: SyntaxError: missing variable name

tryItOut 517

tryItOut 518

tryItOut 519
Compiling threw: SyntaxError: duplicate label

tryItOut 520
before 191840, after 191840, break 017d9000

tryItOut 521
Compiling threw: SyntaxError: missing } after property list

tryItOut 522

tryItOut 523
Compiling threw: TypeError: generator function anonymous returns a value

tryItOut 524

tryItOut 525

tryItOut 526
Compiling threw: SyntaxError: missing ; before statement

tryItOut 527
Compiling threw: SyntaxError: missing ; before statement

tryItOut 528

tryItOut 529
Compiling threw: SyntaxError: invalid for/in left-hand side

tryItOut 530
Compiling threw: SyntaxError: missing variable name

tryItOut 531
Compiling threw: SyntaxError: missing ) in parenthetical

tryItOut 532
Compiling threw: SyntaxError: invalid for/in left-hand side

tryItOut 533

tryItOut 534
Compiling threw: SyntaxError: invalid for/in left-hand side

tryItOut 535
Compiling threw: TypeError: generator function anonymous returns a value

tryItOut 536
Running threw: ReferenceError: reference to undefined XML name *

tryItOut 537
Compiling threw: TypeError: generator function anonymous returns a value

tryItOut 538
Compiling threw: SyntaxError: missing variable name

tryItOut 539

tryItOut 540
Compiling threw: SyntaxError: syntax error

tryItOut 541
Running threw: ReferenceError: __noSuchMethod__ is not defined

tryItOut 542
Compiling threw: SyntaxError: invalid for/in left-hand side

tryItOut 543

tryItOut 544
before 191840, after 191840, break 017d9000

tryItOut 545

tryItOut 546
Compiling threw: SyntaxError: missing ; before statement

tryItOut 547
It's an iterator!
Iterating threw!
Iterating threw: ReferenceError: reference to undefined XML name *

tryItOut 548
Compiling threw: SyntaxError: missing ; before statement

tryItOut 549

tryItOut 550

tryItOut 551
Compiling threw: SyntaxError: syntax error

tryItOut 552
Compiling threw: SyntaxError: invalid assignment left-hand side

tryItOut 553
Compiling threw: SyntaxError: invalid assignment left-hand side

tryItOut 554
Compiling threw: SyntaxError: missing ) after argument list

tryItOut 555
Compiling threw: SyntaxError: illegal XML character

tryItOut 556
Compiling threw: SyntaxError: invalid for/in left-hand side

tryItOut 557
It's an iterator!
Iterating threw!
Iterating threw: Error: invalid sharp variable use #1#

tryItOut 558

tryItOut 559

tryItOut 560
Compiling threw: SyntaxError: missing ) in parenthetical

tryItOut 561
Compiling threw: SyntaxError: missing ; before statement

tryItOut 562

tryItOut 563

tryItOut 564
Running threw: ReferenceError: reference to undefined XML name @foo

tryItOut 565
Running threw: 0.2

tryItOut 566
Compiling threw: SyntaxError: invalid for/in left-hand side

tryItOut 567

tryItOut 568
Compiling threw: SyntaxError: syntax error

tryItOut 569
Compiling threw: SyntaxError: missing ) after for-loop control

tryItOut 570
Compiling threw: SyntaxError: missing variable name

tryItOut 571

tryItOut 572
Compiling threw: SyntaxError: missing ; before statement

tryItOut 573
Compiling threw: SyntaxError: missing ] after element list

tryItOut 574

tryItOut 575

tryItOut 576
Compiling threw: SyntaxError: missing variable name

tryItOut 577

tryItOut 578

tryItOut 579

tryItOut 580
Compiling threw: SyntaxError: yield expression must be parenthesized

tryItOut 581
Compiling threw: SyntaxError: syntax error

tryItOut 582
Compiling threw: SyntaxError: missing ) in parenthetical

tryItOut 583
Compiling threw: TypeError: redeclaration of const prop

tryItOut 584
Compiling threw: SyntaxError: invalid for/in left-hand side

tryItOut 585

tryItOut 586
Running threw: ReferenceError: reference to undefined XML name *

tryItOut 587

tryItOut 588
Compiling threw: SyntaxError: missing ) in parenthetical

tryItOut 589
Compiling threw: SyntaxError: invalid assignment left-hand side

tryItOut 590
Compiling threw: SyntaxError: missing { before function body

tryItOut 591
Compiling threw: SyntaxError: missing } after let block

tryItOut 592

tryItOut 593
Compiling threw: SyntaxError: invalid for/in left-hand side

tryItOut 594

tryItOut 595

tryItOut 596
Compiling threw: SyntaxError: missing ; before statement

tryItOut 597
Compiling threw: SyntaxError: syntax error

tryItOut 598

tryItOut 599

tryItOut 600

tryItOut 601
Compiling threw: SyntaxError: invalid for/in left-hand side

tryItOut 602
Compiling threw: SyntaxError: missing ] after element list

tryItOut 603
Compiling threw: SyntaxError: duplicate label

tryItOut 604

tryItOut 605
Compiling threw: SyntaxError: invalid increment operand

tryItOut 606

tryItOut 607
Compiling threw: SyntaxError: invalid for/in left-hand side

tryItOut 608

tryItOut 609
before 191840, after 191840, break 017d9000

tryItOut 610
Compiling threw: SyntaxError: missing ) in parenthetical

tryItOut 611
It's an iterator!
Iterating threw!
Iterating threw: ReferenceError: yyy is not defined

tryItOut 612

tryItOut 613
It's an iterator!
Iterating succeeded, iterCount == 0

tryItOut 614
It's an iterator!
Iterating threw!
Iterating threw: ReferenceError: z1 is not defined

tryItOut 615
Compiling threw: SyntaxError: invalid assignment left-hand side

tryItOut 616

tryItOut 617
Compiling threw: SyntaxError: syntax error

tryItOut 618

tryItOut 619
Compiling threw: SyntaxError: syntax error

tryItOut 620
Compiling threw: SyntaxError: syntax error

tryItOut 621

tryItOut 622
Running threw: TypeError: this.zzz has no properties

tryItOut 623

tryItOut 624
Compiling threw: SyntaxError: missing ; before statement

tryItOut 625
Compiling threw: SyntaxError: missing variable name

tryItOut 626
Compiling threw: SyntaxError: invalid for/in left-hand side

tryItOut 627

tryItOut 628
Compiling threw: SyntaxError: illegal XML character

tryItOut 629
Compiling threw: SyntaxError: missing ] after element list

tryItOut 630

tryItOut 631
Compiling threw: SyntaxError: syntax error

tryItOut 632

tryItOut 633
Compiling threw: SyntaxError: invalid for/in left-hand side

tryItOut 634

tryItOut 635

tryItOut 636
Running threw: <y>
  <z/>
</y>

tryItOut 637

tryItOut 638

tryItOut 639

tryItOut 640
Compiling threw: SyntaxError: invalid decrement operand

tryItOut 641

tryItOut 642
Compiling threw: SyntaxError: invalid for/in left-hand side

tryItOut 643
Running threw: <x>
  <y/>
</x>

tryItOut 644

tryItOut 645
Compiling threw: SyntaxError: missing ] after element list

tryItOut 646
Compiling threw: SyntaxError: missing name in export statement

tryItOut 647

tryItOut 648
Running threw: function ([y]) {
}

tryItOut 649

tryItOut 650

tryItOut 651

tryItOut 652
Running threw: ReferenceError: reference to undefined XML name *

tryItOut 653
Compiling threw: SyntaxError: invalid assignment left-hand side

tryItOut 654

tryItOut 655

tryItOut 656

tryItOut 657
Compiling threw: SyntaxError: invalid property id

tryItOut 658
It's an iterator!
Iterating threw!
Iterating threw: ReferenceError: reference to undefined XML name *::*

tryItOut 659
It's an iterator!
Iterating threw!
Iterating threw: ReferenceError: reference to undefined XML name *

tryItOut 660
Compiling threw: SyntaxError: invalid for/in left-hand side

tryItOut 661

tryItOut 662
Compiling threw: SyntaxError: invalid assignment left-hand side

tryItOut 663
Compiling threw: SyntaxError: missing ; after for-loop initializer

tryItOut 664
Compiling threw: SyntaxError: missing variable name

tryItOut 665
Compiling threw: SyntaxError: missing ) in parenthetical

tryItOut 666
Compiling threw: SyntaxError: syntax error

tryItOut 667
before 191840, after 191840, break 017d9000

tryItOut 668
Compiling threw: SyntaxError: invalid for/in left-hand side

tryItOut 669
Compiling threw: TypeError: generator function anonymous returns a value

tryItOut 670

tryItOut 671
Compiling threw: SyntaxError: missing ; before statement

tryItOut 672
Compiling threw: SyntaxError: missing ; before statement

tryItOut 673

tryItOut 674

tryItOut 675

tryItOut 676

tryItOut 677
Compiling threw: SyntaxError: missing : after property id

tryItOut 678
Compiling threw: TypeError: generator function anonymous returns a value

tryItOut 679
before 191840, after 191840, break 017d9000

tryItOut 680
Compiling threw: TypeError: generator function anonymous returns a value

tryItOut 681
Running threw: ReferenceError: reference to undefined XML name *

tryItOut 682

tryItOut 683
It's an iterator!
Iterating threw!
Iterating threw: ReferenceError: reference to undefined XML name *::*

tryItOut 684

tryItOut 685
Compiling threw: SyntaxError: invalid assignment left-hand side

tryItOut 686

tryItOut 687
Compiling threw: SyntaxError: missing variable name

tryItOut 688
It's an iterator!
Iterating threw!
Iterating threw: ReferenceError: __noSuchMethod__ is not defined

tryItOut 689
Compiling threw: TypeError: redeclaration of var prop

tryItOut 690
Compiling threw: SyntaxError: syntax error

tryItOut 691
Compiling threw: SyntaxError: syntax error

tryItOut 692

tryItOut 693
It's an iterator!
Iterating threw!
Iterating threw: ReferenceError: reference to undefined XML name @foo

tryItOut 694

tryItOut 695

tryItOut 696
Compiling threw: SyntaxError: missing ] after element list

tryItOut 697
Compiling threw: SyntaxError: yield expression must be parenthesized

tryItOut 698
Running threw: Error: invalid sharp variable use #1#

tryItOut 699

tryItOut 700

tryItOut 701
Compiling threw: SyntaxError: invalid destructuring assignment operator

tryItOut 702
Compiling threw: SyntaxError: invalid for/in left-hand side

tryItOut 703
Compiling threw: SyntaxError: missing ; before statement

tryItOut 704
Running threw: ReferenceError: prototype is not defined

tryItOut 705

tryItOut 706

tryItOut 707
Compiling threw: SyntaxError: syntax error

tryItOut 708
Compiling threw: SyntaxError: missing ) after condition

tryItOut 709
Compiling threw: SyntaxError: syntax error

tryItOut 710
Running threw: ReferenceError: reference to undefined XML name *

tryItOut 711
It's an iterator!
Iterating succeeded, iterCount == 2

tryItOut 712
It's an iterator!
Iterating succeeded, iterCount == 2

tryItOut 713
Compiling threw: SyntaxError: missing ) in parenthetical

tryItOut 714
Compiling threw: SyntaxError: missing } after let block

tryItOut 715

tryItOut 716
Compiling threw: SyntaxError: missing { before function body

tryItOut 717
Compiling threw: SyntaxError: unterminated comment

tryItOut 718

tryItOut 719
Compiling threw: SyntaxError: missing ; before statement

tryItOut 720
Compiling threw: SyntaxError: missing ) in parenthetical

tryItOut 721

tryItOut 722
Compiling threw: SyntaxError: syntax error

tryItOut 723
It's an iterator!
Iterating succeeded, iterCount == 1

tryItOut 724
Compiling threw: SyntaxError: missing { before function body

tryItOut 725

tryItOut 726
Compiling threw: SyntaxError: missing ; before statement

tryItOut 727

tryItOut 728
Compiling threw: SyntaxError: invalid for/in left-hand side

tryItOut 729

tryItOut 730
It's an iterator!
Iterating succeeded, iterCount == 1

tryItOut 731

tryItOut 732
Compiling threw: SyntaxError: missing : after property id

tryItOut 733
It's an iterator!
Iterating threw!
Iterating threw: ReferenceError: reference to undefined XML name @foo

tryItOut 734
Compiling threw: SyntaxError: missing ; before statement

tryItOut 735
Compiling threw: SyntaxError: missing ( before let head

tryItOut 736
Compiling threw: SyntaxError: missing ; after for-loop initializer

tryItOut 737
Compiling threw: SyntaxError: missing ) after argument list

tryItOut 738

tryItOut 739
Compiling threw: SyntaxError: invalid for/in left-hand side

tryItOut 740
Compiling threw: SyntaxError: missing variable name

tryItOut 741
Running threw: TypeError: "fafafa".replace(/a/g, Math.pow) is not a constructor

tryItOut 742

tryItOut 743
Compiling threw: SyntaxError: missing ) in parenthetical

tryItOut 744

tryItOut 745
Compiling threw: SyntaxError: invalid assignment left-hand side

tryItOut 746

tryItOut 747
Compiling threw: SyntaxError: missing ) after condition

tryItOut 748

tryItOut 749
It's an iterator!
Iterating succeeded, iterCount == 2

tryItOut 750

tryItOut 751
Compiling threw: TypeError: redeclaration of variable __count__

tryItOut 752
Compiling threw: TypeError: redeclaration of const __iterator__

tryItOut 753

tryItOut 754
Compiling threw: SyntaxError: missing : after property id

tryItOut 755
Compiling threw: SyntaxError: invalid assignment left-hand side

tryItOut 756
Compiling threw: SyntaxError: illegal XML character

tryItOut 757
Compiling threw: SyntaxError: invalid for/in left-hand side

tryItOut 758

tryItOut 759

tryItOut 760

tryItOut 761
Compiling threw: SyntaxError: invalid assignment left-hand side

tryItOut 762
It's an iterator!
Iterating threw!
Iterating threw: ReferenceError: reference to undefined XML name @foo

tryItOut 763
It's an iterator!
Iterating threw!
Iterating threw: ReferenceError: reference to undefined XML name @foo

tryItOut 764
Compiling threw: SyntaxError: syntax error

tryItOut 765
Compiling threw: SyntaxError: illegal XML character

tryItOut 766
Compiling threw: SyntaxError: duplicate label

tryItOut 767
Compiling threw: SyntaxError: missing ; before statement

tryItOut 768
It's an iterator!
Iterating succeeded, iterCount == 0

tryItOut 769

tryItOut 770

tryItOut 771

tryItOut 772

tryItOut 773

tryItOut 774
Compiling threw: SyntaxError: invalid for/in left-hand side

tryItOut 775
Compiling threw: TypeError: generator function anonymous returns a value

tryItOut 776

tryItOut 777

tryItOut 778
Compiling threw: SyntaxError: missing ; before statement

tryItOut 779
Running threw: ReferenceError: reference to undefined XML name @foo

tryItOut 780
It's an iterator!
Iterating threw!
Iterating threw: SyntaxError: invalid setter usage

tryItOut 781

tryItOut 782
It's an iterator!
Iterating threw!
Iterating threw: <y>
  <z/>
</y>

tryItOut 783

tryItOut 784

tryItOut 785
It's an iterator!
Iterating threw!
Iterating threw: TypeError: [undefined, undefined] is not a function

tryItOut 786
Compiling threw: SyntaxError: missing ; before statement

tryItOut 787

tryItOut 788
Compiling threw: SyntaxError: missing ) in parenthetical

tryItOut 789
Compiling threw: SyntaxError: missing ) after argument list

tryItOut 790
Compiling threw: SyntaxError: invalid for/in left-hand side

tryItOut 791

tryItOut 792
before 191840, after 191840, break 017f7000

tryItOut 793

tryItOut 794

tryItOut 795
Compiling threw: SyntaxError: invalid assignment left-hand side

tryItOut 796
Running threw: ReferenceError: reference to undefined XML name *::*

tryItOut 797
Compiling threw: SyntaxError: syntax error

tryItOut 798
Compiling threw: SyntaxError: illegal XML character

tryItOut 799
Running threw: TypeError: this.zzz has no properties

tryItOut 800
It's an iterator!
Iterating succeeded, iterCount == 0

tryItOut 801

tryItOut 802
Compiling threw: SyntaxError: missing ; before statement

tryItOut 803

tryItOut 804
Compiling threw: SyntaxError: syntax error

tryItOut 805

tryItOut 806

tryItOut 807
Compiling threw: SyntaxError: syntax error

tryItOut 808

tryItOut 809
It's an iterator!
Iterating threw!
Iterating threw: ReferenceError: __noSuchMethod__ is not defined

tryItOut 810
Running threw: ReferenceError: reference to undefined XML name @foo

tryItOut 811
Compiling threw: SyntaxError: missing ; before statement

tryItOut 812
Compiling threw: SyntaxError: missing ] after element list

tryItOut 813
Compiling threw: SyntaxError: missing ; after for-loop initializer

tryItOut 814
It's an iterator!
Iterating threw!
Iterating threw: ReferenceError: reference to undefined XML name *

tryItOut 815
Running threw: ReferenceError: reference to undefined XML name *

tryItOut 816
Compiling threw: SyntaxError: invalid assignment left-hand side

tryItOut 817
Running threw: ReferenceError: reference to undefined XML name *::*

tryItOut 818

tryItOut 819
Compiling threw: SyntaxError: invalid destructuring assignment operator

tryItOut 820

tryItOut 821
Compiling threw: SyntaxError: missing ; after for-loop initializer

tryItOut 822
Running threw: ReferenceError: __noSuchMethod__ is not defined

tryItOut 823
Compiling threw: SyntaxError: illegal XML character

tryItOut 824
Compiling threw: SyntaxError: missing ) in parenthetical

tryItOut 825
Compiling threw: SyntaxError: missing ) in parenthetical

tryItOut 826
Running threw: ReferenceError: reference to undefined XML name *::*

tryItOut 827

tryItOut 828

tryItOut 829
Compiling threw: SyntaxError: invalid for/in left-hand side

tryItOut 830

tryItOut 831
Compiling threw: SyntaxError: missing ; after for-loop initializer

tryItOut 832
Compiling threw: SyntaxError: syntax error

tryItOut 833

tryItOut 834
Compiling threw: SyntaxError: missing ] after element list

tryItOut 835
Compiling threw: SyntaxError: missing } after property list

tryItOut 836
Compiling threw: SyntaxError: missing = in destructuring declaration

tryItOut 837
Compiling threw: SyntaxError: syntax error

tryItOut 838
Compiling threw: SyntaxError: missing ; before statement

tryItOut 839

tryItOut 840
Compiling threw: TypeError: generator function anonymous returns a value

tryItOut 841

tryItOut 842
Compiling threw: SyntaxError: yield expression must be parenthesized

tryItOut 843

tryItOut 844
Compiling threw: TypeError: generator function anonymous returns a value

tryItOut 845
Compiling threw: SyntaxError: missing ; before statement

tryItOut 846
Compiling threw: SyntaxError: invalid for/in left-hand side

tryItOut 847
Running threw: <x>
  <y/>
</x>

tryItOut 848
Compiling threw: SyntaxError: invalid assignment left-hand side

tryItOut 849

tryItOut 850
Compiling threw: SyntaxError: missing = in destructuring declaration

tryItOut 851
Compiling threw: SyntaxError: missing { before function body

tryItOut 852

tryItOut 853
Compiling threw: SyntaxError: duplicate label

tryItOut 854
Compiling threw: SyntaxError: missing ; after for-loop initializer

tryItOut 855

tryItOut 856
Running threw: ReferenceError: prototype is not defined

tryItOut 857

tryItOut 858

tryItOut 859

tryItOut 860
It's an iterator!
Iterating succeeded, iterCount == 1

tryItOut 861
Compiling threw: SyntaxError: invalid assignment left-hand side

tryItOut 862
Running threw: ReferenceError: z2 is not defined

tryItOut 863
Compiling threw: SyntaxError: syntax error

tryItOut 864
Compiling threw: SyntaxError: missing { before function body

tryItOut 865
Running threw: [object StopIteration]

tryItOut 866

tryItOut 867

tryItOut 868
Compiling threw: SyntaxError: missing ; before statement

tryItOut 869

tryItOut 870
Compiling threw: TypeError: generator function anonymous returns a value

tryItOut 871
Compiling threw: SyntaxError: missing ) in parenthetical

tryItOut 872
Running threw: TypeError: this.zzz has no properties

tryItOut 873

tryItOut 874

tryItOut 875

tryItOut 876
Running threw: ReferenceError: reference to undefined XML name *

tryItOut 877
Compiling threw: SyntaxError: missing variable name

tryItOut 878

tryItOut 879
Compiling threw: SyntaxError: syntax error

tryItOut 880

tryItOut 881
Compiling threw: SyntaxError: syntax error

tryItOut 882
Compiling threw: SyntaxError: missing ; before statement

tryItOut 883

tryItOut 884
Running threw: Error: invalid sharp variable use #1#

tryItOut 885
Compiling threw: SyntaxError: invalid assignment left-hand side

tryItOut 886
Compiling threw: SyntaxError: missing ) in parenthetical

tryItOut 887

tryItOut 888

tryItOut 889
Compiling threw: SyntaxError: syntax error

tryItOut 890

tryItOut 891

tryItOut 892

tryItOut 893

tryItOut 894
It's an iterator!
Iterating succeeded, iterCount == 2

tryItOut 895

tryItOut 896

tryItOut 897
Compiling threw: SyntaxError: missing : after property id

tryItOut 898
Compiling threw: SyntaxError: missing ) after condition

tryItOut 899
Compiling threw: SyntaxError: missing ) after condition

tryItOut 900
Running threw: ReferenceError: prototype is not defined

tryItOut 901
Compiling threw: SyntaxError: invalid for/in left-hand side

tryItOut 902
Compiling threw: SyntaxError: missing ; before statement

tryItOut 903
Compiling threw: SyntaxError: invalid assignment left-hand side

tryItOut 904
Compiling threw: TypeError: redeclaration of const __noSuchMethod__

tryItOut 905
Compiling threw: SyntaxError: missing { before function body

tryItOut 906
Compiling threw: SyntaxError: missing ] after element list

tryItOut 907
It's an iterator!
Iterating succeeded, iterCount == 1

tryItOut 908
Compiling threw: SyntaxError: missing ; after for-loop initializer

tryItOut 909
Compiling threw: SyntaxError: invalid for/in left-hand side

tryItOut 910
Running threw: TypeError: <x>
  <y/>
</x> is not a function

tryItOut 911
Compiling threw: SyntaxError: syntax error

tryItOut 912

tryItOut 913
Compiling threw: SyntaxError: missing ) in parenthetical

tryItOut 914

tryItOut 915
Compiling threw: SyntaxError: missing : after property id

tryItOut 916
It's an iterator!
Iterating succeeded, iterCount == 1

tryItOut 917
Running threw: [object StopIteration]

tryItOut 918
Compiling threw: SyntaxError: missing ; before statement

tryItOut 919
It's an iterator!
Iterating threw!
Iterating threw: TypeError: this.zzz has no properties

tryItOut 920
Compiling threw: TypeError: generator function anonymous returns a value

tryItOut 921

tryItOut 922

tryItOut 923
It's an iterator!
Iterating threw!
Iterating threw: ReferenceError: __noSuchMethod__ is not defined

tryItOut 924

tryItOut 925
Compiling threw: SyntaxError: missing ( before formal parameters

tryItOut 926
Compiling threw: SyntaxError: invalid for/in left-hand side

tryItOut 927

tryItOut 928
Running threw: SyntaxError: invalid setter usage

tryItOut 929
Compiling threw: TypeError: generator function anonymous returns a value

tryItOut 930

tryItOut 931

tryItOut 932

tryItOut 933

tryItOut 934
Compiling threw: SyntaxError: syntax error

tryItOut 935
It's an iterator!
Iterating threw!
Iterating threw: ReferenceError: reference to undefined XML name *

tryItOut 936

tryItOut 937

tryItOut 938
Compiling threw: TypeError: anonymous generator function returns a value

tryItOut 939
It's an iterator!
before 226720, after 226720, break 01829000
Iterating succeeded, iterCount == 1

tryItOut 940

tryItOut 941

tryItOut 942
Compiling threw: SyntaxError: missing { before function body

tryItOut 943

tryItOut 944
Compiling threw: SyntaxError: invalid for/in left-hand side

tryItOut 945
Compiling threw: SyntaxError: invalid for/in left-hand side

tryItOut 946
Compiling threw: SyntaxError: invalid for/in left-hand side

tryItOut 947
Compiling threw: SyntaxError: invalid for/in left-hand side

tryItOut 948

tryItOut 949
Compiling threw: SyntaxError: invalid for/in left-hand side

tryItOut 950
Running threw: TypeError: this.zzz has no properties

tryItOut 951

tryItOut 952
Compiling threw: SyntaxError: missing } after let block

tryItOut 953
Compiling threw: SyntaxError: invalid for/in left-hand side

tryItOut 954

tryItOut 955
Compiling threw: SyntaxError: invalid increment operand

tryItOut 956
Compiling threw: SyntaxError: missing ; before statement

tryItOut 957

tryItOut 958

tryItOut 959
Compiling threw: SyntaxError: missing ; before statement

tryItOut 960
Compiling threw: SyntaxError: invalid assignment left-hand side

tryItOut 961

tryItOut 962
before 226720, after 226720, break 01829000

tryItOut 963

tryItOut 964
Compiling threw: TypeError: redeclaration of formal parameter __iterator__

tryItOut 965
Running threw: ReferenceError: reference to undefined XML name *::*

tryItOut 966

tryItOut 967

tryItOut 968
Compiling threw: SyntaxError: missing ) in parenthetical

tryItOut 969

tryItOut 970
before 226720, after 226720, break 01829000

tryItOut 971

tryItOut 972
Compiling threw: SyntaxError: missing ; after for-loop initializer

tryItOut 973

tryItOut 974
It's an iterator!
Iterating succeeded, iterCount == 1

tryItOut 975

tryItOut 976
Compiling threw: SyntaxError: invalid for/in left-hand side

tryItOut 977
Compiling threw: SyntaxError: invalid for/in left-hand side

tryItOut 978
Running threw: ReferenceError: prototype is not defined

tryItOut 979

tryItOut 980
Compiling threw: SyntaxError: invalid for/in left-hand side

tryItOut 981
It's an iterator!
Iterating threw!
Iterating threw: Infinity

tryItOut 982
Compiling threw: SyntaxError: invalid for/in left-hand side

tryItOut 983
Compiling threw: SyntaxError: missing { before function body

tryItOut 984

tryItOut 985
Compiling threw: SyntaxError: syntax error

tryItOut 986

tryItOut 987
Compiling threw: SyntaxError: syntax error

tryItOut 988
It's an iterator!
Iterating succeeded, iterCount == 1

tryItOut 989

tryItOut 990

tryItOut 991

tryItOut 992

tryItOut 993
Running threw: ReferenceError: __noSuchMethod__ is not defined

tryItOut 994
Compiling threw: SyntaxError: missing ) in parenthetical

tryItOut 995
Compiling threw: SyntaxError: missing ; before statement

tryItOut 996
Running threw: ReferenceError: prototypegc is not defined

tryItOut 997
Running threw: TypeError: this.zzz has no properties

tryItOut 998
Compiling threw: SyntaxError: invalid assignment left-hand side

tryItOut 999
Compiling threw: SyntaxError: duplicate label

tryItOut 1000

ALL OK

Script done on Sat 04 May 2013 07:33:49 AM PDT
