Script started on Sat 04 May 2013 07:34:56 AM PDT
***
Targeting SpiderMonkey / Gecko.

tryItOut 1
Compiling threw: SyntaxError: missing ; before statement

tryItOut 2

tryItOut 3
Compiling threw: SyntaxError: label not found

tryItOut 4

tryItOut 5
Compiling threw: SyntaxError: invalid break

tryItOut 6
Running threw: ReferenceError: reference to undefined XML name @foo

tryItOut 7
Compiling threw: SyntaxError: missing variable name

tryItOut 8
Compiling threw: SyntaxError: invalid XML name

tryItOut 9

tryItOut 10

tryItOut 11

tryItOut 12

tryItOut 13

tryItOut 14
It's an iterator!
Iterating succeeded, iterCount == 1

tryItOut 15
Compiling threw: SyntaxError: invalid continue

tryItOut 16
Compiling threw: SyntaxError: invalid for each loop

tryItOut 17

tryItOut 18
Running threw: ReferenceError: __iterator__ is not defined

tryItOut 19

tryItOut 20
Compiling threw: SyntaxError: invalid destructuring assignment operator

tryItOut 21
Compiling threw: SyntaxError: invalid for/in left-hand side

tryItOut 22

tryItOut 23
Compiling threw: SyntaxError: label not found

tryItOut 24
Running threw: ReferenceError: z1 is not defined

tryItOut 25
It's an iterator!
Iterating succeeded, iterCount == 1

tryItOut 26

tryItOut 27
Running threw: ReferenceError: reference to undefined XML name @foo

tryItOut 28

tryItOut 29

tryItOut 30

tryItOut 31

tryItOut 32
Compiling threw: SyntaxError: invalid for each loop

tryItOut 33
Running threw: SyntaxError: label not found

tryItOut 34
It's an iterator!
Iterating succeeded, iterCount == 1

tryItOut 35
Compiling threw: SyntaxError: label not found

tryItOut 36

tryItOut 37
It's an iterator!
Iterating succeeded, iterCount == 0

tryItOut 38

tryItOut 39
Compiling threw: SyntaxError: syntax error

tryItOut 40

tryItOut 41

tryItOut 42
Compiling threw: SyntaxError: missing variable name

tryItOut 43
Compiling threw: SyntaxError: invalid XML name

tryItOut 44
Compiling threw: SyntaxError: missing variable name

tryItOut 45
Compiling threw: TypeError: redeclaration of variable prop

tryItOut 46
Compiling threw: SyntaxError: label not found

tryItOut 47
Running threw: TypeError: p.z = <y><z/></y> * Math.sin is not a function

tryItOut 48

tryItOut 49

tryItOut 50

tryItOut 51
Compiling threw: SyntaxError: missing ) in parenthetical

tryItOut 52
Compiling threw: SyntaxError: missing ) in parenthetical

tryItOut 53
Compiling threw: SyntaxError: missing variable name

tryItOut 54

tryItOut 55
Compiling threw: SyntaxError: missing = in destructuring declaration

tryItOut 56

tryItOut 57
Compiling threw: SyntaxError: invalid for/in left-hand side

tryItOut 58
Compiling threw: SyntaxError: invalid for each loop

tryItOut 59
Compiling threw: SyntaxError: invalid for/in left-hand side

tryItOut 60
It's an iterator!
Iterating threw!
Iterating threw: ReferenceError: reference to undefined XML name *::*

tryItOut 61
Compiling threw: SyntaxError: invalid XML tag syntax

tryItOut 62

tryItOut 63

tryItOut 64
Compiling threw: SyntaxError: syntax error

tryItOut 65
Compiling threw: SyntaxError: label not found

tryItOut 66

tryItOut 67
It's an iterator!
Iterating threw!
Iterating threw: SyntaxError: yield not in function

tryItOut 68

tryItOut 69
It's an iterator!
Iterating succeeded, iterCount == 1

tryItOut 70

tryItOut 71

tryItOut 72

tryItOut 73
Compiling threw: SyntaxError: syntax error

tryItOut 74

tryItOut 75

tryItOut 76

tryItOut 77
Compiling threw: SyntaxError: missing ) in parenthetical

tryItOut 78
It's an iterator!
Iterating threw!
Iterating threw: ReferenceError: reference to undefined XML name @foo

tryItOut 79

tryItOut 80

tryItOut 81
Compiling threw: SyntaxError: invalid for/in left-hand side

tryItOut 82

tryItOut 83
Compiling threw: SyntaxError: label not found

tryItOut 84

tryItOut 85

tryItOut 86
It's an iterator!
Iterating succeeded, iterCount == 1

tryItOut 87
It's an iterator!
Iterating threw!
Iterating threw: ReferenceError: z1 is not defined

tryItOut 88
Compiling threw: SyntaxError: missing } in XML expression

tryItOut 89
Compiling threw: SyntaxError: duplicate label

tryItOut 90
Compiling threw: SyntaxError: syntax error

tryItOut 91

tryItOut 92

tryItOut 93

tryItOut 94
Compiling threw: SyntaxError: invalid for each loop

tryItOut 95

tryItOut 96

tryItOut 97

tryItOut 98
Compiling threw: SyntaxError: syntax error

tryItOut 99

tryItOut 100

tryItOut 101
It's an iterator!
Iterating succeeded, iterCount == 1

tryItOut 102

tryItOut 103
Compiling threw: SyntaxError: invalid for/in left-hand side

tryItOut 104

tryItOut 105
Compiling threw: SyntaxError: syntax error

tryItOut 106

tryItOut 107

tryItOut 108
It's an iterator!
Iterating succeeded, iterCount == 1

tryItOut 109

tryItOut 110

tryItOut 111

tryItOut 112

tryItOut 113
Compiling threw: SyntaxError: label not found

tryItOut 114
It's an iterator!
Iterating threw!
Iterating threw: Error: invalid sharp variable use #1#

tryItOut 115

tryItOut 116
It's an iterator!
Iterating threw!
Iterating threw: ReferenceError: reference to undefined XML name *

tryItOut 117
Compiling threw: SyntaxError: missing = in destructuring declaration

tryItOut 118
Compiling threw: SyntaxError: invalid for/in left-hand side

tryItOut 119
Compiling threw: SyntaxError: missing variable name

tryItOut 120

tryItOut 121

tryItOut 122

tryItOut 123
Compiling threw: SyntaxError: invalid increment operand

tryItOut 124
Compiling threw: SyntaxError: missing ) after let head

tryItOut 125

tryItOut 126
Compiling threw: SyntaxError: syntax error

tryItOut 127
Compiling threw: SyntaxError: invalid for/in left-hand side

tryItOut 128

tryItOut 129

tryItOut 130

tryItOut 131

tryItOut 132

tryItOut 133

tryItOut 134

tryItOut 135

tryItOut 136

tryItOut 137
Compiling threw: SyntaxError: missing variable name

tryItOut 138
It's an iterator!
Iterating succeeded, iterCount == 1

tryItOut 139
Compiling threw: SyntaxError: missing name after . operator

tryItOut 140
It's an iterator!
Iterating succeeded, iterCount == 1

tryItOut 141

tryItOut 142
Running threw: ReferenceError: z1 is not defined

tryItOut 143

tryItOut 144

tryItOut 145

tryItOut 146
Compiling threw: SyntaxError: invalid for/in left-hand side

tryItOut 147
Compiling threw: SyntaxError: missing variable name

tryItOut 148

tryItOut 149

tryItOut 150
It's an iterator!
Iterating threw!
Iterating threw: ReferenceError: x is not defined

tryItOut 151

tryItOut 152
Compiling threw: SyntaxError: missing ; before statement

tryItOut 153
Compiling threw: SyntaxError: label not found

tryItOut 154
Compiling threw: SyntaxError: syntax error

tryItOut 155
Compiling threw: SyntaxError: missing variable name

tryItOut 156
Compiling threw: SyntaxError: syntax error

tryItOut 157

tryItOut 158

tryItOut 159
Compiling threw: SyntaxError: missing ; after for-loop initializer

tryItOut 160
Compiling threw: SyntaxError: syntax error

tryItOut 161
Compiling threw: SyntaxError: syntax error

tryItOut 162

tryItOut 163

tryItOut 164
Compiling threw: SyntaxError: invalid assignment left-hand side

tryItOut 165
Compiling threw: SyntaxError: invalid assignment left-hand side

tryItOut 166

tryItOut 167

tryItOut 168
Compiling threw: SyntaxError: missing variable name

tryItOut 169

tryItOut 170
Compiling threw: SyntaxError: missing variable name

tryItOut 171
Running threw: ReferenceError: reference to undefined XML name @foo

tryItOut 172

tryItOut 173

tryItOut 174

tryItOut 175
Compiling threw: TypeError: redeclaration of variable __parent__

tryItOut 176
It's an iterator!
Iterating threw!
Iterating threw: TypeError: this.zzz has no properties

tryItOut 177

tryItOut 178

tryItOut 179
Compiling threw: SyntaxError: missing variable name

tryItOut 180

tryItOut 181
Compiling threw: SyntaxError: syntax error

tryItOut 182

tryItOut 183
Compiling threw: SyntaxError: label not found

tryItOut 184
Compiling threw: SyntaxError: syntax error

tryItOut 185

tryItOut 186

tryItOut 187

tryItOut 188
Compiling threw: SyntaxError: syntax error

tryItOut 189

tryItOut 190
Compiling threw: SyntaxError: missing variable name

tryItOut 191
Compiling threw: SyntaxError: missing variable name

tryItOut 192
Compiling threw: SyntaxError: missing variable name

tryItOut 193

tryItOut 194
Compiling threw: SyntaxError: illegal XML character

tryItOut 195
Compiling threw: SyntaxError: illegal XML character

tryItOut 196
It's an iterator!
Iterating succeeded, iterCount == 1

tryItOut 197

tryItOut 198

tryItOut 199

tryItOut 200
Running threw: ReferenceError: a is not defined

tryItOut 201

tryItOut 202
Compiling threw: SyntaxError: label not found

tryItOut 203

tryItOut 204
It's an iterator!
Iterating succeeded, iterCount == 0

tryItOut 205
Compiling threw: SyntaxError: missing ) in parenthetical

tryItOut 206

tryItOut 207
Compiling threw: SyntaxError: missing = in destructuring declaration

tryItOut 208

tryItOut 209

tryItOut 210

tryItOut 211

tryItOut 212
It's an iterator!
Iterating succeeded, iterCount == 1

tryItOut 213

tryItOut 214
Compiling threw: SyntaxError: missing variable name

tryItOut 215
Compiling threw: SyntaxError: label not found

tryItOut 216
Compiling threw: SyntaxError: missing variable name

tryItOut 217
Compiling threw: SyntaxError: missing ; after for-loop initializer

tryItOut 218
Compiling threw: SyntaxError: invalid continue

tryItOut 219
Running threw: ReferenceError: reference to undefined XML name @foo

tryItOut 220
Compiling threw: SyntaxError: label not found

tryItOut 221

tryItOut 222
It's an iterator!
Iterating threw!
Iterating threw: TypeError: p.z = <y><z/></y> is not a function

tryItOut 223

tryItOut 224

tryItOut 225

tryItOut 226

tryItOut 227
It's an iterator!
Iterating threw!
Iterating threw: ReferenceError: reference to undefined XML name *::*

tryItOut 228

tryItOut 229
Compiling threw: TypeError: anonymous generator function returns a value

tryItOut 230

tryItOut 231
It's an iterator!
Iterating succeeded, iterCount == 1

tryItOut 232

tryItOut 233

tryItOut 234

tryItOut 235

tryItOut 236

tryItOut 237
Compiling threw: SyntaxError: missing } after property list

tryItOut 238
Compiling threw: SyntaxError: missing ) in parenthetical

tryItOut 239
Compiling threw: SyntaxError: invalid default XML namespace

tryItOut 240

tryItOut 241
Compiling threw: SyntaxError: missing ; after for-loop initializer

tryItOut 242

tryItOut 243

tryItOut 244

tryItOut 245
Compiling threw: SyntaxError: invalid for each loop

tryItOut 246
Compiling threw: TypeError: redeclaration of var __noSuchMethod__

tryItOut 247

tryItOut 248
Compiling threw: SyntaxError: missing ) in parenthetical

tryItOut 249
It's an iterator!
Iterating threw!
Iterating threw: ReferenceError: reference to undefined XML name @foo

tryItOut 250
Compiling threw: SyntaxError: missing : after property id

tryItOut 251

tryItOut 252
Compiling threw: SyntaxError: missing ) in parenthetical

tryItOut 253

tryItOut 254
Compiling threw: SyntaxError: invalid for/in left-hand side

tryItOut 255
Compiling threw: SyntaxError: missing variable name

tryItOut 256

tryItOut 257
Compiling threw: SyntaxError: duplicate label

tryItOut 258
Compiling threw: SyntaxError: illegal XML character

tryItOut 259
Compiling threw: SyntaxError: missing variable name

tryItOut 260
It's an iterator!
Iterating succeeded, iterCount == 1

tryItOut 261
Compiling threw: SyntaxError: missing ( before with-statement object

tryItOut 262

tryItOut 263
Compiling threw: SyntaxError: duplicate label

tryItOut 264
Compiling threw: SyntaxError: invalid break

tryItOut 265

tryItOut 266

tryItOut 267
Compiling threw: SyntaxError: missing variable name

tryItOut 268

tryItOut 269
Compiling threw: SyntaxError: missing ; before statement

tryItOut 270

tryItOut 271

tryItOut 272
Running threw: ReferenceError: reference to undefined XML name @foo

tryItOut 273
Compiling threw: SyntaxError: invalid for/in left-hand side

tryItOut 274
It's an iterator!
Iterating threw!
Iterating threw: ReferenceError: z2 is not defined

tryItOut 275
Running threw: ReferenceError: reference to undefined XML name *::*

tryItOut 276
Compiling threw: SyntaxError: missing ; after for-loop initializer

tryItOut 277

tryItOut 278

tryItOut 279
Compiling threw: SyntaxError: invalid break

tryItOut 280
It's an iterator!
Iterating threw!
Iterating threw: ReferenceError: z1 is not defined

tryItOut 281

tryItOut 282

tryItOut 283

tryItOut 284

tryItOut 285

tryItOut 286
It's an iterator!
Iterating threw!
Iterating threw: ReferenceError: z1 is not defined

tryItOut 287

tryItOut 288
Compiling threw: SyntaxError: invalid for/in left-hand side

tryItOut 289
Compiling threw: SyntaxError: label not found

tryItOut 290
Compiling threw: SyntaxError: missing = in destructuring declaration

tryItOut 291

tryItOut 292
Compiling threw: SyntaxError: missing ) in parenthetical

tryItOut 293
Compiling threw: SyntaxError: invalid for/in left-hand side

tryItOut 294

tryItOut 295
Compiling threw: SyntaxError: missing = in destructuring declaration

tryItOut 296
It's an iterator!
Iterating succeeded, iterCount == 1

tryItOut 297
Compiling threw: SyntaxError: invalid for/in left-hand side

tryItOut 298

tryItOut 299
Compiling threw: SyntaxError: label not found

tryItOut 300

tryItOut 301

tryItOut 302

tryItOut 303
Running threw: TypeError: (function (id) {return id;}).* is not a constructor

tryItOut 304
Compiling threw: TypeError: redeclaration of const __noSuchMethod__

tryItOut 305
Compiling threw: SyntaxError: missing ; before statement

tryItOut 306

tryItOut 307

tryItOut 308

tryItOut 309
Compiling threw: TypeError: redeclaration of formal parameter __proto__

tryItOut 310
Compiling threw: SyntaxError: missing variable name

tryItOut 311

tryItOut 312
Compiling threw: SyntaxError: missing ; before statement

tryItOut 313

tryItOut 314

tryItOut 315

tryItOut 316

tryItOut 317
It's an iterator!
Iterating succeeded, iterCount == 1

tryItOut 318
Compiling threw: SyntaxError: missing variable name

tryItOut 319
Compiling threw: SyntaxError: missing variable name

tryItOut 320

tryItOut 321
Compiling threw: SyntaxError: invalid for/in left-hand side

tryItOut 322

tryItOut 323
It's an iterator!
Iterating succeeded, iterCount == 2

tryItOut 324
Running threw: ReferenceError: reference to undefined XML name @foo

tryItOut 325

tryItOut 326

tryItOut 327

tryItOut 328
Compiling threw: SyntaxError: missing variable name

tryItOut 329

tryItOut 330
Compiling threw: SyntaxError: invalid for/in left-hand side

tryItOut 331

tryItOut 332
Compiling threw: SyntaxError: invalid XML name

tryItOut 333
Compiling threw: SyntaxError: missing variable name

tryItOut 334
Compiling threw: SyntaxError: missing ) in parenthetical

tryItOut 335
Compiling threw: SyntaxError: missing ) in parenthetical

tryItOut 336
It's an iterator!
Iterating succeeded, iterCount == 1

tryItOut 337
Compiling threw: SyntaxError: missing while after do-loop body

tryItOut 338

tryItOut 339

tryItOut 340
Compiling threw: SyntaxError: syntax error

tryItOut 341
Compiling threw: SyntaxError: syntax error

tryItOut 342

tryItOut 343
It's an iterator!
Iterating threw!
Iterating threw: TypeError: redeclaration of const __parent__

tryItOut 344
Compiling threw: SyntaxError: invalid assignment left-hand side

tryItOut 345
Compiling threw: SyntaxError: invalid break

tryItOut 346
Running threw: ReferenceError: z1 is not defined

tryItOut 347

tryItOut 348
Compiling threw: SyntaxError: missing ) in parenthetical

tryItOut 349

tryItOut 350
Compiling threw: SyntaxError: invalid destructuring assignment operator

tryItOut 351

tryItOut 352
Compiling threw: SyntaxError: invalid continue

tryItOut 353

tryItOut 354
Compiling threw: SyntaxError: duplicate label

tryItOut 355

tryItOut 356
Compiling threw: SyntaxError: label not found

tryItOut 357

tryItOut 358
Compiling threw: TypeError: redeclaration of const __iterator__

tryItOut 359
Compiling threw: SyntaxError: invalid assignment left-hand side

tryItOut 360

tryItOut 361

tryItOut 362
Compiling threw: SyntaxError: syntax error

tryItOut 363

tryItOut 364
It's an iterator!
Iterating succeeded, iterCount == 1

tryItOut 365

tryItOut 366
Compiling threw: SyntaxError: missing ; after for-loop initializer

tryItOut 367

tryItOut 368

tryItOut 369
Compiling threw: SyntaxError: duplicate label

tryItOut 370
Compiling threw: SyntaxError: missing ; after for-loop initializer

tryItOut 371

tryItOut 372
Compiling threw: SyntaxError: syntax error

tryItOut 373
Compiling threw: SyntaxError: invalid decrement operand

tryItOut 374
Compiling threw: SyntaxError: invalid for each loop

tryItOut 375

tryItOut 376

tryItOut 377
Compiling threw: SyntaxError: missing : after property id

tryItOut 378
Compiling threw: SyntaxError: duplicate label

tryItOut 379
Compiling threw: SyntaxError: label not found

tryItOut 380

tryItOut 381

tryItOut 382

tryItOut 383

tryItOut 384

tryItOut 385
It's an iterator!
Iterating succeeded, iterCount == 1

tryItOut 386

tryItOut 387
Compiling threw: SyntaxError: missing variable name

tryItOut 388
It's an iterator!
Iterating threw!
Iterating threw: ReferenceError: reference to undefined XML name *::*

tryItOut 389

tryItOut 390
Compiling threw: SyntaxError: invalid assignment left-hand side

tryItOut 391

tryItOut 392

tryItOut 393

tryItOut 394

tryItOut 395

tryItOut 396
Compiling threw: SyntaxError: invalid continue

tryItOut 397
Compiling threw: SyntaxError: missing = in destructuring declaration

tryItOut 398
Compiling threw: SyntaxError: syntax error

tryItOut 399

tryItOut 400
Compiling threw: SyntaxError: missing variable name

tryItOut 401
It's an iterator!
Iterating succeeded, iterCount == 1

tryItOut 402

tryItOut 403

tryItOut 404
Compiling threw: SyntaxError: invalid XML name

tryItOut 405
Compiling threw: SyntaxError: invalid XML tag syntax

tryItOut 406
It's an iterator!
Iterating threw!
Iterating threw: ReferenceError: reference to undefined XML name *

tryItOut 407
Compiling threw: SyntaxError: missing variable name

tryItOut 408
Compiling threw: SyntaxError: invalid continue

tryItOut 409

tryItOut 410
Compiling threw: TypeError: redeclaration of var __parent__

tryItOut 411

tryItOut 412
Compiling threw: SyntaxError: missing { before function body

tryItOut 413
Compiling threw: SyntaxError: invalid for each loop

tryItOut 414
Running threw: ReferenceError: reference to undefined XML name *::*

tryItOut 415

tryItOut 416

tryItOut 417

tryItOut 418
Compiling threw: SyntaxError: illegal XML character

tryItOut 419

tryItOut 420
Compiling threw: SyntaxError: missing while after do-loop body

tryItOut 421

tryItOut 422
It's an iterator!
Iterating succeeded, iterCount == 1

tryItOut 423
Compiling threw: SyntaxError: invalid assignment left-hand side

tryItOut 424
Compiling threw: SyntaxError: missing variable name

tryItOut 425
It's an iterator!
Iterating succeeded, iterCount == 0

tryItOut 426

tryItOut 427
Compiling threw: SyntaxError: missing } after property list

tryItOut 428
Running threw: ReferenceError: z1 is not defined

tryItOut 429

tryItOut 430

tryItOut 431

tryItOut 432

tryItOut 433

tryItOut 434
Compiling threw: SyntaxError: invalid break

tryItOut 435
Compiling threw: SyntaxError: missing ; before statement

tryItOut 436
Compiling threw: SyntaxError: invalid continue

tryItOut 437
It's an iterator!
Iterating threw!
Iterating threw: ReferenceError: reference to undefined XML name *::*

tryItOut 438
Compiling threw: SyntaxError: missing ) in parenthetical

tryItOut 439

tryItOut 440

tryItOut 441
Compiling threw: SyntaxError: missing ) in parenthetical

tryItOut 442

tryItOut 443
Compiling threw: SyntaxError: syntax error

tryItOut 444
Compiling threw: SyntaxError: missing = in destructuring declaration

tryItOut 445

tryItOut 446
Compiling threw: SyntaxError: missing ) after catch

tryItOut 447
Compiling threw: SyntaxError: missing ) in parenthetical

tryItOut 448

tryItOut 449

tryItOut 450
It's an iterator!
Iterating succeeded, iterCount == 1

tryItOut 451
Compiling threw: SyntaxError: missing variable name

tryItOut 452
Compiling threw: SyntaxError: invalid break

tryItOut 453
It's an iterator!
Iterating succeeded, iterCount == 1

tryItOut 454
Compiling threw: SyntaxError: missing variable name

tryItOut 455

tryItOut 456
Compiling threw: SyntaxError: missing variable name

tryItOut 457
Compiling threw: SyntaxError: missing ) in parenthetical

tryItOut 458

tryItOut 459
Compiling threw: SyntaxError: syntax error

tryItOut 460
Running threw: ReferenceError: z2 is not defined

tryItOut 461
Compiling threw: SyntaxError: syntax error

tryItOut 462

tryItOut 463

tryItOut 464

tryItOut 465

tryItOut 466
It's an iterator!
Iterating succeeded, iterCount == 1

tryItOut 467
Compiling threw: SyntaxError: illegal XML character

tryItOut 468
It's an iterator!
Iterating succeeded, iterCount == 1

tryItOut 469
Compiling threw: TypeError: redeclaration of const __count__

tryItOut 470
It's an iterator!
Iterating succeeded, iterCount == 1

tryItOut 471
Compiling threw: TypeError: redeclaration of const constructor

tryItOut 472

tryItOut 473
Compiling threw: SyntaxError: invalid destructuring assignment operator

tryItOut 474
Compiling threw: TypeError: redeclaration of const __count__

tryItOut 475
Compiling threw: SyntaxError: missing variable name

tryItOut 476
Running threw: ReferenceError: z1 is not defined

tryItOut 477
Compiling threw: SyntaxError: missing ; before statement

tryItOut 478
Compiling threw: SyntaxError: label not found

tryItOut 479

tryItOut 480

tryItOut 481
It's an iterator!
Iterating succeeded, iterCount == 1

tryItOut 482
Compiling threw: SyntaxError: missing { before function body

tryItOut 483
Compiling threw: SyntaxError: missing while after do-loop body

tryItOut 484
Compiling threw: SyntaxError: invalid break

tryItOut 485

tryItOut 486

tryItOut 487
Compiling threw: SyntaxError: missing ) after argument list

tryItOut 488

tryItOut 489
Compiling threw: SyntaxError: syntax error

tryItOut 490

tryItOut 491
Compiling threw: SyntaxError: illegal XML character

tryItOut 492

tryItOut 493
Compiling threw: SyntaxError: invalid decrement operand

tryItOut 494
Compiling threw: SyntaxError: invalid for/in left-hand side

tryItOut 495

tryItOut 496
Compiling threw: SyntaxError: syntax error

tryItOut 497

tryItOut 498
Running threw: SyntaxError: illegal XML character

tryItOut 499

tryItOut 500

tryItOut 501
Compiling threw: SyntaxError: invalid for/in left-hand side

tryItOut 502

tryItOut 503
Compiling threw: SyntaxError: missing ; before statement

tryItOut 504

tryItOut 505
Compiling threw: SyntaxError: missing ; before statement

tryItOut 506
Compiling threw: SyntaxError: missing variable name

tryItOut 507

tryItOut 508

tryItOut 509

tryItOut 510

tryItOut 511
It's an iterator!
Iterating threw!
Iterating threw: SyntaxError: invalid assignment left-hand side

tryItOut 512
Compiling threw: SyntaxError: missing ; after for-loop initializer

tryItOut 513

tryItOut 514
Compiling threw: SyntaxError: missing ; before statement

tryItOut 515
Compiling threw: SyntaxError: label not found

tryItOut 516

tryItOut 517
It's an iterator!
Iterating succeeded, iterCount == 0

tryItOut 518

tryItOut 519

tryItOut 520

tryItOut 521

tryItOut 522

tryItOut 523
Compiling threw: SyntaxError: missing variable name

tryItOut 524
Compiling threw: SyntaxError: syntax error

tryItOut 525
It's an iterator!
Iterating succeeded, iterCount == 1

tryItOut 526

tryItOut 527

tryItOut 528
Running threw: ReferenceError: reference to undefined XML name @foo

tryItOut 529

tryItOut 530
Compiling threw: SyntaxError: label not found

tryItOut 531

tryItOut 532
It's an iterator!
Iterating succeeded, iterCount == 1

tryItOut 533
Compiling threw: SyntaxError: missing variable name

tryItOut 534
Compiling threw: SyntaxError: missing { before function body

tryItOut 535
Running threw: ReferenceError: reference to undefined XML name @foo

tryItOut 536
Compiling threw: SyntaxError: missing variable name

tryItOut 537
Compiling threw: SyntaxError: invalid for/in left-hand side

tryItOut 538

tryItOut 539

tryItOut 540

tryItOut 541

tryItOut 542
Compiling threw: SyntaxError: syntax error

tryItOut 543
Compiling threw: SyntaxError: missing ; before statement

tryItOut 544
Compiling threw: SyntaxError: invalid increment operand

tryItOut 545
It's an iterator!
Iterating succeeded, iterCount == 1

tryItOut 546

tryItOut 547
Compiling threw: SyntaxError: syntax error

tryItOut 548
Compiling threw: SyntaxError: syntax error

tryItOut 549
Compiling threw: SyntaxError: missing ) in parenthetical

tryItOut 550

tryItOut 551
Compiling threw: SyntaxError: invalid continue

tryItOut 552

tryItOut 553

tryItOut 554

tryItOut 555

tryItOut 556
Compiling threw: SyntaxError: missing ; before statement

tryItOut 557
Compiling threw: SyntaxError: invalid continue

tryItOut 558

tryItOut 559

tryItOut 560
Running threw: ReferenceError: reference to undefined XML name @foo

tryItOut 561

tryItOut 562

tryItOut 563
Compiling threw: SyntaxError: missing = in destructuring declaration

tryItOut 564

tryItOut 565
Compiling threw: SyntaxError: missing identifier in catch

tryItOut 566
It's an iterator!
Iterating succeeded, iterCount == 1

tryItOut 567
It's an iterator!
Iterating succeeded, iterCount == 1

tryItOut 568

tryItOut 569

tryItOut 570

tryItOut 571
Compiling threw: SyntaxError: invalid increment operand

tryItOut 572

tryItOut 573
Compiling threw: SyntaxError: missing ) after let head

tryItOut 574
Compiling threw: SyntaxError: invalid continue

tryItOut 575
It's an iterator!
Iterating succeeded, iterCount == 1

tryItOut 576
It's an iterator!
Iterating succeeded, iterCount == 1

tryItOut 577
Compiling threw: SyntaxError: missing ; after for-loop initializer

tryItOut 578
Compiling threw: SyntaxError: invalid continue

tryItOut 579

tryItOut 580
It's an iterator!
Iterating succeeded, iterCount == 1

tryItOut 581

tryItOut 582
Running threw: TypeError: p.z = 0.2 is not a function

tryItOut 583
Compiling threw: SyntaxError: invalid for/in left-hand side

tryItOut 584
Compiling threw: SyntaxError: missing } after property list

tryItOut 585
Compiling threw: SyntaxError: missing ) in parenthetical

tryItOut 586
It's an iterator!
Iterating threw!
Iterating threw: ReferenceError: reference to undefined XML name *

tryItOut 587
Compiling threw: SyntaxError: syntax error

tryItOut 588
Compiling threw: SyntaxError: missing variable name

tryItOut 589

tryItOut 590

tryItOut 591

tryItOut 592

tryItOut 593
Compiling threw: SyntaxError: missing = in destructuring declaration

tryItOut 594
Compiling threw: TypeError: redeclaration of const __count__

tryItOut 595
Compiling threw: SyntaxError: invalid break

tryItOut 596
Compiling threw: SyntaxError: syntax error

tryItOut 597
It's an iterator!
Iterating succeeded, iterCount == 2

tryItOut 598
Compiling threw: SyntaxError: missing ; after for-loop initializer

tryItOut 599

tryItOut 600
Compiling threw: SyntaxError: syntax error

tryItOut 601

tryItOut 602
Compiling threw: SyntaxError: illegal XML character

tryItOut 603
Compiling threw: SyntaxError: label not found

tryItOut 604
It's an iterator!
Iterating threw!
Iterating threw: ReferenceError: z2 is not defined

tryItOut 605

tryItOut 606
Compiling threw: SyntaxError: label not found

tryItOut 607
Compiling threw: SyntaxError: missing = in destructuring declaration

tryItOut 608
It's an iterator!
Iterating succeeded, iterCount == 0

tryItOut 609

tryItOut 610
Compiling threw: SyntaxError: missing variable name

tryItOut 611

tryItOut 612
Compiling threw: SyntaxError: missing variable name

tryItOut 613

tryItOut 614

tryItOut 615
Compiling threw: SyntaxError: invalid continue

tryItOut 616

tryItOut 617
It's an iterator!
Iterating succeeded, iterCount == 1

tryItOut 618
Compiling threw: SyntaxError: invalid continue

tryItOut 619
Compiling threw: SyntaxError: missing variable name

tryItOut 620

tryItOut 621

tryItOut 622
It's an iterator!
Iterating succeeded, iterCount == 1

tryItOut 623
Compiling threw: SyntaxError: syntax error

tryItOut 624

tryItOut 625
It's an iterator!
Iterating succeeded, iterCount == 1

tryItOut 626
Compiling threw: SyntaxError: syntax error

tryItOut 627

tryItOut 628
Compiling threw: SyntaxError: missing ; before statement

tryItOut 629
Compiling threw: SyntaxError: missing formal parameter

tryItOut 630

tryItOut 631

tryItOut 632
It's an iterator!
Iterating threw!
Iterating threw: TypeError: (-1).__iterator__ has no properties

tryItOut 633
Compiling threw: SyntaxError: missing { before function body

tryItOut 634
Compiling threw: SyntaxError: invalid XML name

tryItOut 635

tryItOut 636
Compiling threw: SyntaxError: invalid for/in left-hand side

tryItOut 637
Running threw: ReferenceError: reference to undefined XML name *::*

tryItOut 638
It's an iterator!
Iterating succeeded, iterCount == 1

tryItOut 639

tryItOut 640
Compiling threw: SyntaxError: missing } in XML expression

tryItOut 641

tryItOut 642
Compiling threw: SyntaxError: missing ) after argument list

tryItOut 643

tryItOut 644

tryItOut 645
Compiling threw: SyntaxError: invalid XML list syntax

tryItOut 646

tryItOut 647

tryItOut 648

tryItOut 649
Running threw: ReferenceError: reference to undefined XML name *

tryItOut 650

tryItOut 651
Compiling threw: SyntaxError: invalid for/in left-hand side

tryItOut 652

tryItOut 653
Compiling threw: SyntaxError: missing variable name

tryItOut 654
Compiling threw: SyntaxError: label not found

tryItOut 655

tryItOut 656

tryItOut 657

tryItOut 658
Compiling threw: SyntaxError: syntax error

tryItOut 659
Compiling threw: SyntaxError: missing variable name

tryItOut 660
Compiling threw: SyntaxError: invalid for/in left-hand side

tryItOut 661
It's an iterator!
Iterating succeeded, iterCount == 2

tryItOut 662

tryItOut 663

tryItOut 664
Compiling threw: SyntaxError: missing ; before statement

tryItOut 665
Compiling threw: SyntaxError: missing ) in parenthetical

tryItOut 666
Compiling threw: SyntaxError: missing = in destructuring declaration

tryItOut 667

tryItOut 668
Compiling threw: SyntaxError: duplicate label

tryItOut 669
Compiling threw: SyntaxError: missing = in destructuring declaration

tryItOut 670
It's an iterator!
Iterating succeeded, iterCount == 1

tryItOut 671

tryItOut 672
It's an iterator!
Iterating succeeded, iterCount == 1

tryItOut 673

tryItOut 674

tryItOut 675

tryItOut 676

tryItOut 677

tryItOut 678
Compiling threw: SyntaxError: invalid for each loop

tryItOut 679
Compiling threw: SyntaxError: invalid for/in left-hand side

tryItOut 680

tryItOut 681
Compiling threw: SyntaxError: missing identifier in catch

tryItOut 682
Compiling threw: SyntaxError: label not found

tryItOut 683

tryItOut 684

tryItOut 685

tryItOut 686

tryItOut 687
Compiling threw: SyntaxError: missing while after do-loop body

tryItOut 688

tryItOut 689

tryItOut 690
Compiling threw: SyntaxError: invalid destructuring assignment operator

tryItOut 691
Compiling threw: SyntaxError: invalid continue

tryItOut 692

tryItOut 693

tryItOut 694
Compiling threw: SyntaxError: invalid for/in left-hand side

tryItOut 695
Compiling threw: SyntaxError: missing ; after for-loop initializer

tryItOut 696

tryItOut 697
Compiling threw: SyntaxError: label not found

tryItOut 698

tryItOut 699

tryItOut 700
Compiling threw: SyntaxError: syntax error

tryItOut 701
Compiling threw: SyntaxError: missing = in destructuring declaration

tryItOut 702
Compiling threw: SyntaxError: syntax error

tryItOut 703

tryItOut 704
Compiling threw: SyntaxError: missing ; before statement

tryItOut 705

tryItOut 706

tryItOut 707

tryItOut 708

tryItOut 709
Compiling threw: SyntaxError: invalid continue

tryItOut 710

tryItOut 711

tryItOut 712
Compiling threw: SyntaxError: missing ) in parenthetical

tryItOut 713
Compiling threw: SyntaxError: invalid assignment left-hand side

tryItOut 714

tryItOut 715
Compiling threw: SyntaxError: illegal XML character

tryItOut 716

tryItOut 717

tryItOut 718
Compiling threw: SyntaxError: invalid decrement operand

tryItOut 719

tryItOut 720
Compiling threw: SyntaxError: invalid assignment left-hand side

tryItOut 721

tryItOut 722

tryItOut 723

tryItOut 724

tryItOut 725

tryItOut 726

tryItOut 727
It's an iterator!
Iterating threw!
Iterating threw: TypeError: -Infinity is not a constructor

tryItOut 728
Compiling threw: SyntaxError: invalid break

tryItOut 729

tryItOut 730

tryItOut 731

tryItOut 732

tryItOut 733
before 436000, after 436000, break 01922000

tryItOut 734
Compiling threw: SyntaxError: missing { before function body

tryItOut 735
Compiling threw: SyntaxError: label not found

tryItOut 736
Compiling threw: SyntaxError: invalid assignment left-hand side

tryItOut 737

tryItOut 738
It's an iterator!
Iterating succeeded, iterCount == 1

tryItOut 739
It's an iterator!
Iterating succeeded, iterCount == 1

tryItOut 740
Compiling threw: SyntaxError: missing ) in parenthetical

tryItOut 741

tryItOut 742

tryItOut 743
Compiling threw: SyntaxError: invalid for/in left-hand side

tryItOut 744
Compiling threw: SyntaxError: label not found

tryItOut 745
Compiling threw: SyntaxError: missing variable name

tryItOut 746
Compiling threw: TypeError: redeclaration of const constructor

tryItOut 747

tryItOut 748
Compiling threw: SyntaxError: missing variable name

tryItOut 749

tryItOut 750

tryItOut 751
Compiling threw: SyntaxError: label not found

tryItOut 752
Compiling threw: SyntaxError: invalid for/in left-hand side

tryItOut 753
Compiling threw: SyntaxError: invalid break

tryItOut 754
Compiling threw: SyntaxError: missing ) in parenthetical

tryItOut 755
Running threw: ReferenceError: reference to undefined XML name @foo

tryItOut 756

tryItOut 757
Compiling threw: SyntaxError: missing variable name

tryItOut 758
It's an iterator!
Iterating threw!
Iterating threw: ReferenceError: reference to undefined XML name *::*

tryItOut 759
Compiling threw: SyntaxError: missing variable name

tryItOut 760
Compiling threw: SyntaxError: syntax error

tryItOut 761
It's an iterator!
Iterating threw!
Iterating threw: ReferenceError: reference to undefined XML name @foo

tryItOut 762
Compiling threw: SyntaxError: invalid continue

tryItOut 763

tryItOut 764
It's an iterator!
Iterating succeeded, iterCount == 1

tryItOut 765

tryItOut 766
Compiling threw: SyntaxError: illegal XML character

tryItOut 767

tryItOut 768

tryItOut 769
Compiling threw: SyntaxError: invalid break

tryItOut 770

tryItOut 771
Compiling threw: SyntaxError: missing ) in parenthetical

tryItOut 772

tryItOut 773

tryItOut 774

tryItOut 775

tryItOut 776

tryItOut 777

tryItOut 778
Compiling threw: SyntaxError: missing { before function body

tryItOut 779

tryItOut 780

tryItOut 781

tryItOut 782
Compiling threw: SyntaxError: invalid break

tryItOut 783
It's an iterator!
Iterating threw!
Iterating threw: ReferenceError: reference to undefined XML name *

tryItOut 784
Compiling threw: TypeError: redeclaration of variable constructor

tryItOut 785

tryItOut 786

tryItOut 787
Compiling threw: SyntaxError: invalid assignment left-hand side

tryItOut 788
Compiling threw: SyntaxError: syntax error

tryItOut 789

tryItOut 790
Compiling threw: SyntaxError: invalid continue

tryItOut 791
Compiling threw: SyntaxError: syntax error

tryItOut 792
Running threw: ReferenceError: x is not defined

tryItOut 793
Running threw: ReferenceError: reference to undefined XML name *

tryItOut 794

tryItOut 795

tryItOut 796

tryItOut 797

tryItOut 798

tryItOut 799

tryItOut 800
Compiling threw: SyntaxError: invalid XML name

tryItOut 801
Compiling threw: SyntaxError: invalid break

tryItOut 802
Compiling threw: SyntaxError: missing formal parameter

tryItOut 803
It's an iterator!
Iterating succeeded, iterCount == 1

tryItOut 804

tryItOut 805
It's an iterator!
Iterating succeeded, iterCount == 1

tryItOut 806

tryItOut 807

tryItOut 808
Compiling threw: SyntaxError: missing variable name

tryItOut 809
Compiling threw: SyntaxError: missing variable name

tryItOut 810

tryItOut 811

tryItOut 812

tryItOut 813
Compiling threw: SyntaxError: syntax error

tryItOut 814

tryItOut 815
Compiling threw: SyntaxError: missing { before function body

tryItOut 816

tryItOut 817
Compiling threw: SyntaxError: missing variable name

tryItOut 818

tryItOut 819
Running threw: TypeError: arguments[0] has no properties

tryItOut 820

tryItOut 821

tryItOut 822

tryItOut 823
Compiling threw: SyntaxError: invalid break

tryItOut 824

tryItOut 825

tryItOut 826

tryItOut 827

tryItOut 828
Compiling threw: SyntaxError: missing variable name

tryItOut 829

tryItOut 830
It's an iterator!
Iterating threw!
Iterating threw: ReferenceError: reference to undefined XML name *

tryItOut 831

tryItOut 832
Compiling threw: SyntaxError: missing ) after condition

tryItOut 833
Compiling threw: SyntaxError: missing ) in parenthetical

tryItOut 834

tryItOut 835

tryItOut 836
Compiling threw: SyntaxError: missing { before function body

tryItOut 837
It's an iterator!
Iterating succeeded, iterCount == 1

tryItOut 838
Compiling threw: SyntaxError: duplicate label

tryItOut 839
Compiling threw: SyntaxError: syntax error

tryItOut 840
Compiling threw: SyntaxError: label not found

tryItOut 841

tryItOut 842

tryItOut 843
It's an iterator!
Iterating threw!
Iterating threw: Error: invalid sharp variable use #1#

tryItOut 844
Compiling threw: SyntaxError: duplicate label

tryItOut 845

tryItOut 846
Compiling threw: SyntaxError: missing variable name

tryItOut 847

tryItOut 848

tryItOut 849

tryItOut 850
Compiling threw: SyntaxError: invalid for each loop

tryItOut 851
Compiling threw: SyntaxError: missing { before function body

tryItOut 852

tryItOut 853
Compiling threw: SyntaxError: missing ; before statement

tryItOut 854

tryItOut 855
Compiling threw: SyntaxError: missing ; after for-loop initializer

tryItOut 856

tryItOut 857

tryItOut 858
Compiling threw: SyntaxError: invalid for each loop

tryItOut 859
Running threw: ReferenceError: reference to undefined XML name *::*

tryItOut 860
Compiling threw: SyntaxError: missing ) in parenthetical

tryItOut 861

tryItOut 862
Compiling threw: SyntaxError: label not found

tryItOut 863
Compiling threw: SyntaxError: invalid for/in left-hand side

tryItOut 864

tryItOut 865

tryItOut 866
Compiling threw: SyntaxError: label not found

tryItOut 867
Compiling threw: SyntaxError: illegal XML character

tryItOut 868
Compiling threw: SyntaxError: syntax error

tryItOut 869

tryItOut 870

tryItOut 871
Compiling threw: SyntaxError: syntax error

tryItOut 872
Compiling threw: SyntaxError: syntax error

tryItOut 873

tryItOut 874

tryItOut 875
It's an iterator!
Iterating succeeded, iterCount == 1

tryItOut 876

tryItOut 877
It's an iterator!
Iterating succeeded, iterCount == 1

tryItOut 878

tryItOut 879
Compiling threw: SyntaxError: invalid for/in left-hand side

tryItOut 880

tryItOut 881

tryItOut 882

tryItOut 883
Compiling threw: SyntaxError: invalid for/in left-hand side

tryItOut 884

tryItOut 885

tryItOut 886

tryItOut 887
Running threw: ReferenceError: z1 is not defined

tryItOut 888

tryItOut 889
It's an iterator!
Iterating succeeded, iterCount == 1

tryItOut 890
Compiling threw: SyntaxError: label not found

tryItOut 891

tryItOut 892

tryItOut 893
Compiling threw: SyntaxError: syntax error

tryItOut 894

tryItOut 895
Compiling threw: SyntaxError: missing ( after for

tryItOut 896
It's an iterator!
Iterating succeeded, iterCount == 1

tryItOut 897
It's an iterator!
Iterating succeeded, iterCount == 1

tryItOut 898

tryItOut 899
It's an iterator!
Iterating succeeded, iterCount == 1

tryItOut 900
It's an iterator!
Iterating succeeded, iterCount == 1

tryItOut 901
It's an iterator!
Iterating succeeded, iterCount == 1

tryItOut 902

tryItOut 903
Compiling threw: SyntaxError: syntax error

tryItOut 904

tryItOut 905
Compiling threw: SyntaxError: invalid for/in left-hand side

tryItOut 906
Compiling threw: SyntaxError: invalid increment operand

tryItOut 907
Compiling threw: SyntaxError: invalid for/in left-hand side

tryItOut 908

tryItOut 909
Compiling threw: SyntaxError: missing = in destructuring declaration

tryItOut 910

tryItOut 911

tryItOut 912

tryItOut 913
Running threw: ReferenceError: reference to undefined XML name *::*

tryItOut 914

tryItOut 915

tryItOut 916
Compiling threw: SyntaxError: missing while after do-loop body

tryItOut 917
Compiling threw: SyntaxError: invalid for/in left-hand side

tryItOut 918

tryItOut 919
Running threw: ReferenceError: z1 is not defined

tryItOut 920
Compiling threw: SyntaxError: invalid break

tryItOut 921
It's an iterator!
Iterating succeeded, iterCount == 1

tryItOut 922

tryItOut 923
Compiling threw: SyntaxError: missing : after property id

tryItOut 924
Compiling threw: SyntaxError: invalid assignment left-hand side

tryItOut 925
Compiling threw: SyntaxError: missing variable name

tryItOut 926
Compiling threw: SyntaxError: invalid destructuring assignment operator

tryItOut 927

tryItOut 928
Compiling threw: SyntaxError: missing { before function body

tryItOut 929
Compiling threw: SyntaxError: invalid for/in left-hand side

tryItOut 930

tryItOut 931
Compiling threw: SyntaxError: label not found

tryItOut 932

tryItOut 933
Compiling threw: SyntaxError: missing ) in parenthetical

tryItOut 934

tryItOut 935

tryItOut 936

tryItOut 937
Compiling threw: SyntaxError: label not found

tryItOut 938
Compiling threw: SyntaxError: invalid decrement operand

tryItOut 939
Running threw: TypeError: [1, , ].yoyo is not a function

tryItOut 940
Compiling threw: SyntaxError: invalid assignment left-hand side

tryItOut 941
Running threw: TypeError: arguments[0] has no properties

tryItOut 942

tryItOut 943

tryItOut 944
Compiling threw: SyntaxError: invalid increment operand

tryItOut 945

tryItOut 946
It's an iterator!
Iterating threw!
Iterating threw: ReferenceError: reference to undefined XML name @foo

tryItOut 947

tryItOut 948

tryItOut 949

tryItOut 950

tryItOut 951
Compiling threw: SyntaxError: missing variable name

tryItOut 952
Compiling threw: SyntaxError: missing variable name

tryItOut 953

tryItOut 954
Compiling threw: SyntaxError: syntax error

tryItOut 955

tryItOut 956
Compiling threw: SyntaxError: missing variable name

tryItOut 957

tryItOut 958

tryItOut 959
Compiling threw: SyntaxError: invalid destructuring assignment operator

tryItOut 960
Compiling threw: SyntaxError: syntax error

tryItOut 961
Running threw: SyntaxError: malformed formal parameter

tryItOut 962
Compiling threw: SyntaxError: syntax error

tryItOut 963
Compiling threw: SyntaxError: invalid assignment left-hand side

tryItOut 964
Compiling threw: SyntaxError: syntax error

tryItOut 965
Compiling threw: SyntaxError: label not found

tryItOut 966
Compiling threw: SyntaxError: invalid property id

tryItOut 967
It's an iterator!
Iterating succeeded, iterCount == 1

tryItOut 968
It's an iterator!
Iterating succeeded, iterCount == 1

tryItOut 969
It's an iterator!
Iterating succeeded, iterCount == 1

tryItOut 970
Compiling threw: SyntaxError: syntax error

tryItOut 971

tryItOut 972
It's an iterator!
Iterating succeeded, iterCount == 1

tryItOut 973
Compiling threw: SyntaxError: invalid assignment left-hand side

tryItOut 974

tryItOut 975
Compiling threw: SyntaxError: label not found

tryItOut 976

tryItOut 977
It's an iterator!
Iterating succeeded, iterCount == 0

tryItOut 978

tryItOut 979
It's an iterator!
Iterating succeeded, iterCount == 1

tryItOut 980
Compiling threw: SyntaxError: missing ; after for-loop initializer

tryItOut 981

tryItOut 982

tryItOut 983

tryItOut 984
Compiling threw: SyntaxError: invalid assignment left-hand side

tryItOut 985

tryItOut 986
Compiling threw: SyntaxError: missing : after property id

tryItOut 987
Compiling threw: SyntaxError: invalid for/in left-hand side

tryItOut 988
Compiling threw: SyntaxError: missing variable name

tryItOut 989
Compiling threw: SyntaxError: missing variable name

tryItOut 990
Running threw: TypeError: arguments[0] has no properties

tryItOut 991

tryItOut 992

tryItOut 993

tryItOut 994

tryItOut 995

tryItOut 996
Compiling threw: SyntaxError: missing ; before statement

tryItOut 997
Compiling threw: SyntaxError: label not found

tryItOut 998
Compiling threw: TypeError: redeclaration of var __iterator__

tryItOut 999

tryItOut 1000
Compiling threw: SyntaxError: syntax error

ALL OK

Script done on Sat 04 May 2013 07:34:57 AM PDT
