Script started on Sat 04 May 2013 05:00:34 AM PDT
***
Targeting SpiderMonkey / Gecko.

tryItOut 1

tryItOut 2
Compiling threw: SyntaxError: illegal XML character

tryItOut 3

tryItOut 4

tryItOut 5

tryItOut 6
Running threw: true

tryItOut 7

tryItOut 8

tryItOut 9
Running threw: TypeError: <x>
  <y/>
</x> is not a constructor

tryItOut 10
Compiling threw: SyntaxError: syntax error

tryItOut 11

tryItOut 12

tryItOut 13
Running threw: TypeError: this.zzz has no properties

tryItOut 14
Compiling threw: SyntaxError: missing ) in parenthetical

tryItOut 15
Running threw: null

tryItOut 16

tryItOut 17

tryItOut 18

tryItOut 19

tryItOut 20

tryItOut 21

tryItOut 22
It's an iterator!
Iterating succeeded, iterCount == 1

tryItOut 23
Compiling threw: SyntaxError: missing ) after formal parameters

tryItOut 24

tryItOut 25
Running threw: [object StopIteration]

tryItOut 26
Compiling threw: SyntaxError: syntax error

tryItOut 27
Compiling threw: SyntaxError: syntax error

tryItOut 28
Running threw: <x>
  <y/>
</x>

tryItOut 29
Compiling threw: SyntaxError: syntax error

tryItOut 30
Running threw: TypeError: this.zzz has no properties

tryItOut 31

tryItOut 32

tryItOut 33
Compiling threw: SyntaxError: missing ) in parenthetical

tryItOut 34

tryItOut 35

tryItOut 36
Compiling threw: SyntaxError: syntax error

tryItOut 37
Compiling threw: SyntaxError: syntax error

tryItOut 38
Compiling threw: SyntaxError: invalid assignment left-hand side

tryItOut 39

tryItOut 40
Compiling threw: SyntaxError: invalid for/in left-hand side

tryItOut 41
Running threw: TypeError: null has no properties

tryItOut 42
Running threw: [object StopIteration]

tryItOut 43
Running threw: ReferenceError: prototype is not defined

tryItOut 44
Compiling threw: SyntaxError: invalid for/in left-hand side

tryItOut 45
Running threw: ReferenceError: prop is not defined

tryItOut 46
It's an iterator!
Iterating succeeded, iterCount == 1

tryItOut 47
Running threw: SyntaxError: invalid setter usage

tryItOut 48
It's an iterator!
Iterating succeeded, iterCount == 1

tryItOut 49
Compiling threw: SyntaxError: invalid XML tag syntax

tryItOut 50
Running threw: [object StopIteration]

tryItOut 51
Running threw: TypeError: this.zzz has no properties

tryItOut 52
Running threw: TypeError: arguments[0] has no properties

tryItOut 53

tryItOut 54
Compiling threw: SyntaxError: invalid assignment left-hand side

tryItOut 55
Compiling threw: SyntaxError: illegal XML character

tryItOut 56

tryItOut 57
Running threw: <x>
  <y/>
</x>

tryItOut 58
Compiling threw: SyntaxError: syntax error

tryItOut 59

tryItOut 60

tryItOut 61
Running threw: false

tryItOut 62
Compiling threw: SyntaxError: invalid assignment left-hand side

tryItOut 63
Compiling threw: SyntaxError: invalid increment operand

tryItOut 64
Compiling threw: SyntaxError: invalid destructuring assignment operator

tryItOut 65
It's an iterator!
Iterating succeeded, iterCount == 1

tryItOut 66
Running threw: [object StopIteration]

tryItOut 67

tryItOut 68
Running threw: ReferenceError: Exception is not defined

tryItOut 69

tryItOut 70
Compiling threw: TypeError: redeclaration of variable __parent__

tryItOut 71
It's an iterator!
Iterating threw!
Iterating threw: Error: invalid sharp variable use #1#

tryItOut 72
Compiling threw: SyntaxError: invalid assignment left-hand side

tryItOut 73
Running threw: undefined

tryItOut 74
It's an iterator!
Iterating succeeded, iterCount == 1

tryItOut 75
Compiling threw: SyntaxError: syntax error

tryItOut 76
Compiling threw: SyntaxError: syntax error

tryItOut 77

tryItOut 78

tryItOut 79
It's an iterator!
Iterating succeeded, iterCount == 1

tryItOut 80
Running threw: ReferenceError: __iterator__ is not defined

tryItOut 81

tryItOut 82

tryItOut 83
It's an iterator!
Iterating succeeded, iterCount == 1

tryItOut 84

tryItOut 85

tryItOut 86
Compiling threw: SyntaxError: missing { before function body

tryItOut 87
Running threw: [object Object]

tryItOut 88
Compiling threw: SyntaxError: invalid flag after regular expression

tryItOut 89
Compiling threw: SyntaxError: missing while after do-loop body

tryItOut 90
Compiling threw: SyntaxError: syntax error

tryItOut 91
Running threw: ReferenceError: z2 is not defined

tryItOut 92

tryItOut 93

tryItOut 94

tryItOut 95
Compiling threw: SyntaxError: syntax error

tryItOut 96

tryItOut 97
It's an iterator!
Iterating succeeded, iterCount == 1

tryItOut 98

tryItOut 99
It's an iterator!
Iterating succeeded, iterCount == 1

tryItOut 100
Compiling threw: SyntaxError: syntax error

tryItOut 101

tryItOut 102
Compiling threw: SyntaxError: invalid increment operand

tryItOut 103
It's an iterator!
Iterating threw!
Iterating threw: ReferenceError: z1 is not defined

tryItOut 104

tryItOut 105

tryItOut 106
Running threw: ReferenceError: reference to undefined property "__iterator__"

tryItOut 107
Compiling threw: SyntaxError: invalid for/in left-hand side

tryItOut 108
Running threw: TypeError: this.zzz has no properties

tryItOut 109

tryItOut 110
Running threw: TypeError: this.zzz has no properties

tryItOut 111
Compiling threw: SyntaxError: missing variable name

tryItOut 112

tryItOut 113
Running threw: 

tryItOut 114

tryItOut 115

tryItOut 116
Compiling threw: SyntaxError: missing ; before statement

tryItOut 117
Running threw: TypeError: this.zzz has no properties

tryItOut 118
Compiling threw: SyntaxError: missing ) in parenthetical

tryItOut 119
Compiling threw: SyntaxError: missing ; before statement

tryItOut 120

tryItOut 121

tryItOut 122

tryItOut 123
Running threw: TypeError: this.zzz has no properties

tryItOut 124

tryItOut 125

tryItOut 126
Running threw: [object StopIteration]

tryItOut 127
Compiling threw: SyntaxError: syntax error

tryItOut 128

tryItOut 129
It's an iterator!
Iterating succeeded, iterCount == 1

tryItOut 130
Running threw: true

tryItOut 131

tryItOut 132
It's an iterator!
Iterating succeeded, iterCount == 1

tryItOut 133

tryItOut 134
Compiling threw: SyntaxError: duplicate label

tryItOut 135
It's an iterator!
Iterating succeeded, iterCount == 1

tryItOut 136
Running threw: TypeError: this.zzz has no properties

tryItOut 137

tryItOut 138
Compiling threw: SyntaxError: missing while after do-loop body

tryItOut 139
Running threw: TypeError: undefined has no properties

tryItOut 140

tryItOut 141

tryItOut 142

tryItOut 143
Compiling threw: SyntaxError: syntax error

tryItOut 144

tryItOut 145

tryItOut 146

tryItOut 147
Compiling threw: SyntaxError: missing ; before statement

tryItOut 148
Running threw: 1

tryItOut 149
Running threw: ReferenceError: Exception is not defined

tryItOut 150
Running threw: null

tryItOut 151
Compiling threw: SyntaxError: invalid destructuring assignment operator

tryItOut 152

tryItOut 153
Compiling threw: SyntaxError: invalid assignment left-hand side

tryItOut 154

tryItOut 155

tryItOut 156

tryItOut 157
Compiling threw: SyntaxError: syntax error

tryItOut 158

tryItOut 159

tryItOut 160
Compiling threw: SyntaxError: syntax error

tryItOut 161
It's an iterator!
Iterating threw!
Iterating threw: Error: invalid sharp variable use #1#

tryItOut 162
Running threw: SyntaxError: invalid setter usage

tryItOut 163

tryItOut 164
It's an iterator!
Iterating succeeded, iterCount == 1

tryItOut 165
It's an iterator!
Iterating succeeded, iterCount == 1

tryItOut 166
Running threw: <x>
  <y/>
</x>

tryItOut 167

tryItOut 168

tryItOut 169
It's an iterator!
Iterating succeeded, iterCount == 1

tryItOut 170

tryItOut 171
Compiling threw: SyntaxError: missing ; before statement

tryItOut 172
Compiling threw: SyntaxError: syntax error

tryItOut 173

tryItOut 174

tryItOut 175
Compiling threw: SyntaxError: invalid for/in left-hand side

tryItOut 176

tryItOut 177

tryItOut 178
Running threw: 107

tryItOut 179
Compiling threw: SyntaxError: syntax error

tryItOut 180

tryItOut 181
Running threw: TypeError: <x>
  <y/>
</x> is not a function

tryItOut 182

tryItOut 183

tryItOut 184
Running threw: [object StopIteration]

tryItOut 185

tryItOut 186
Compiling threw: SyntaxError: yield expression must be parenthesized

tryItOut 187
It's an iterator!
Iterating threw!
Iterating threw: TypeError: <x><y/></x>.__lookupSetter__("prop") has no properties

tryItOut 188
Compiling threw: SyntaxError: syntax error

tryItOut 189
Compiling threw: SyntaxError: illegal XML character

tryItOut 190
It's an iterator!
Iterating succeeded, iterCount == 1

tryItOut 191
Compiling threw: SyntaxError: missing while after do-loop body

tryItOut 192
It's an iterator!
Iterating threw!
Iterating threw: ReferenceError: z1 is not defined

tryItOut 193

tryItOut 194
Compiling threw: SyntaxError: invalid assignment left-hand side

tryItOut 195
Compiling threw: SyntaxError: missing ; before statement

tryItOut 196

tryItOut 197
Compiling threw: SyntaxError: invalid destructuring assignment operator

tryItOut 198
Compiling threw: SyntaxError: syntax error

tryItOut 199
It's an iterator!
Iterating succeeded, iterCount == 1

tryItOut 200

tryItOut 201

tryItOut 202

tryItOut 203

tryItOut 204
Compiling threw: SyntaxError: syntax error

tryItOut 205
Compiling threw: SyntaxError: illegal XML character

tryItOut 206

tryItOut 207
Compiling threw: SyntaxError: syntax error

tryItOut 208
Compiling threw: SyntaxError: syntax error

tryItOut 209
Compiling threw: SyntaxError: missing ; after for-loop initializer

tryItOut 210
Compiling threw: SyntaxError: syntax error

tryItOut 211
Compiling threw: SyntaxError: syntax error

tryItOut 212
Compiling threw: SyntaxError: syntax error

tryItOut 213
Compiling threw: SyntaxError: invalid increment operand

tryItOut 214
Running threw: SyntaxError: invalid XML name

tryItOut 215
Compiling threw: SyntaxError: missing variable name

tryItOut 216
Running threw: 

tryItOut 217
Compiling threw: SyntaxError: syntax error

tryItOut 218
Running threw: [object StopIteration]

tryItOut 219
Running threw: ReferenceError: z1 is not defined

tryItOut 220
Running threw: 

tryItOut 221

tryItOut 222
Compiling threw: SyntaxError: syntax error

tryItOut 223
Compiling threw: SyntaxError: invalid for/in left-hand side

tryItOut 224
Compiling threw: SyntaxError: missing ) in parenthetical

tryItOut 225
Compiling threw: SyntaxError: syntax error

tryItOut 226
It's an iterator!
Iterating threw!
Iterating threw: TypeError: Function.prototype.apply called on incompatible false

tryItOut 227
Compiling threw: SyntaxError: invalid for/in left-hand side

tryItOut 228

tryItOut 229
It's an iterator!
Iterating succeeded, iterCount == 1

tryItOut 230

tryItOut 231
Compiling threw: SyntaxError: syntax error

tryItOut 232
Compiling threw: SyntaxError: missing ; before statement

tryItOut 233

tryItOut 234
Running threw: TypeError: arguments[0] has no properties

tryItOut 235
It's an iterator!
Iterating succeeded, iterCount == 1

tryItOut 236

tryItOut 237
Compiling threw: SyntaxError: missing name after . operator

tryItOut 238
Compiling threw: SyntaxError: invalid destructuring assignment operator

tryItOut 239

tryItOut 240
Compiling threw: SyntaxError: missing { before function body

tryItOut 241
It's an iterator!
Iterating succeeded, iterCount == 1

tryItOut 242
It's an iterator!
Iterating threw!
Iterating threw: TypeError: arguments[0] has no properties

tryItOut 243

tryItOut 244

tryItOut 245
Compiling threw: SyntaxError: invalid assignment left-hand side

tryItOut 246
Compiling threw: SyntaxError: missing ; before statement

tryItOut 247
Compiling threw: SyntaxError: missing variable name

tryItOut 248

tryItOut 249
Compiling threw: SyntaxError: missing ) in parenthetical

tryItOut 250
Compiling threw: SyntaxError: invalid assignment left-hand side

tryItOut 251
Compiling threw: SyntaxError: missing { before function body

tryItOut 252

tryItOut 253
Compiling threw: SyntaxError: missing ; after for-loop initializer

tryItOut 254

tryItOut 255

tryItOut 256

tryItOut 257
Compiling threw: SyntaxError: missing variable name

tryItOut 258
Compiling threw: SyntaxError: missing variable name

tryItOut 259
Compiling threw: SyntaxError: syntax error

tryItOut 260

tryItOut 261
It's an iterator!
Iterating succeeded, iterCount == 1

tryItOut 262

tryItOut 263
Compiling threw: SyntaxError: syntax error

tryItOut 264
Compiling threw: SyntaxError: illegal XML character

tryItOut 265

tryItOut 266

tryItOut 267
Running threw: TypeError: this.zzz has no properties

tryItOut 268
Compiling threw: SyntaxError: invalid for/in left-hand side

tryItOut 269
Compiling threw: SyntaxError: invalid increment operand

tryItOut 270

tryItOut 271
Compiling threw: SyntaxError: syntax error

tryItOut 272

tryItOut 273

tryItOut 274

tryItOut 275
Compiling threw: SyntaxError: syntax error

tryItOut 276

tryItOut 277

tryItOut 278
Running threw: ReferenceError: z2 is not defined

tryItOut 279

tryItOut 280

tryItOut 281

tryItOut 282

tryItOut 283

tryItOut 284
Compiling threw: SyntaxError: duplicate label

tryItOut 285
Compiling threw: SyntaxError: missing = in destructuring declaration

tryItOut 286
Running threw: 

tryItOut 287
Compiling threw: SyntaxError: invalid assignment left-hand side

tryItOut 288
Compiling threw: SyntaxError: duplicate label

tryItOut 289
It's an iterator!
Iterating succeeded, iterCount == 1

tryItOut 290
Running threw: ReferenceError: prototype is not defined

tryItOut 291
Compiling threw: SyntaxError: syntax error

tryItOut 292
Compiling threw: SyntaxError: missing ) in parenthetical

tryItOut 293
Compiling threw: SyntaxError: syntax error

tryItOut 294
It's an iterator!
Iterating threw!
Iterating threw: ReferenceError: z1 is not defined

tryItOut 295

tryItOut 296

tryItOut 297
Compiling threw: SyntaxError: missing { before function body

tryItOut 298
Running threw: TypeError: null has no properties

tryItOut 299
Compiling threw: SyntaxError: syntax error

tryItOut 300

tryItOut 301
Compiling threw: SyntaxError: invalid decrement operand

tryItOut 302

tryItOut 303
Compiling threw: SyntaxError: invalid for/in left-hand side

tryItOut 304

tryItOut 305

tryItOut 306
Compiling threw: SyntaxError: syntax error

tryItOut 307
Compiling threw: SyntaxError: syntax error

tryItOut 308

tryItOut 309

tryItOut 310

tryItOut 311

tryItOut 312
Running threw: [object StopIteration]

tryItOut 313
It's an iterator!
Iterating succeeded, iterCount == 1

tryItOut 314
Compiling threw: SyntaxError: missing ; before statement

tryItOut 315
Compiling threw: SyntaxError: syntax error

tryItOut 316
Compiling threw: SyntaxError: invalid for/in left-hand side

tryItOut 317
Compiling threw: SyntaxError: invalid for/in left-hand side

tryItOut 318

tryItOut 319

tryItOut 320
Compiling threw: SyntaxError: syntax error

tryItOut 321

tryItOut 322

tryItOut 323
Compiling threw: SyntaxError: illegal XML character

tryItOut 324
Running threw: [object StopIteration]

tryItOut 325

tryItOut 326

tryItOut 327
It's an iterator!
Iterating threw!
Iterating threw: ReferenceError: prototype is not defined

tryItOut 328
Compiling threw: SyntaxError: syntax error

tryItOut 329
Running threw: TypeError: undefined is not a function

tryItOut 330
Running threw: [object StopIteration]

tryItOut 331
It's an iterator!
Iterating succeeded, iterCount == 1

tryItOut 332
It's an iterator!
Iterating threw!
Iterating threw: TypeError: undefined has no properties

tryItOut 333

tryItOut 334

tryItOut 335

tryItOut 336
Running threw: [object StopIteration]

tryItOut 337

tryItOut 338
It's an iterator!
Iterating succeeded, iterCount == 1

tryItOut 339

tryItOut 340

tryItOut 341
Running threw: 

tryItOut 342

tryItOut 343
It's an iterator!
Iterating succeeded, iterCount == 1

tryItOut 344
Compiling threw: SyntaxError: syntax error

tryItOut 345

tryItOut 346

tryItOut 347

tryItOut 348

tryItOut 349

tryItOut 350
Running threw: TypeError: this.zzz has no properties

tryItOut 351
Running threw: ReferenceError: z1 is not defined

tryItOut 352

tryItOut 353
Compiling threw: SyntaxError: illegal XML character

tryItOut 354

tryItOut 355
Compiling threw: SyntaxError: missing name in export statement

tryItOut 356
Compiling threw: SyntaxError: missing ) in parenthetical

tryItOut 357
Compiling threw: SyntaxError: yield expression must be parenthesized

tryItOut 358
It's an iterator!
Iterating succeeded, iterCount == 1

tryItOut 359

tryItOut 360
Compiling threw: SyntaxError: missing variable name

tryItOut 361
It's an iterator!
Iterating threw!
Iterating threw: TypeError: __iterator__ has no properties

tryItOut 362

tryItOut 363

tryItOut 364
Running threw: TypeError: [][<x><y/></x>] is not a function

tryItOut 365

tryItOut 366

tryItOut 367
Running threw: [object StopIteration]

tryItOut 368
Running threw: [object Object]

tryItOut 369
Compiling threw: SyntaxError: missing variable name

tryItOut 370
Compiling threw: SyntaxError: invalid for/in left-hand side

tryItOut 371
Running threw: false

tryItOut 372
Running threw: TypeError: [[1]].prototype has no properties

tryItOut 373

tryItOut 374

tryItOut 375
Running threw: SyntaxError: invalid getter usage

tryItOut 376
Compiling threw: SyntaxError: missing variable name

tryItOut 377

tryItOut 378

tryItOut 379
Compiling threw: SyntaxError: yield expression must be parenthesized

tryItOut 380
It's an iterator!
Iterating succeeded, iterCount == 0

tryItOut 381
It's an iterator!
Iterating succeeded, iterCount == 1

tryItOut 382

tryItOut 383
Compiling threw: SyntaxError: syntax error

tryItOut 384

tryItOut 385

tryItOut 386

tryItOut 387

tryItOut 388
Compiling threw: SyntaxError: missing variable name

tryItOut 389
Compiling threw: SyntaxError: illegal XML character

tryItOut 390
Running threw: 

tryItOut 391

tryItOut 392
Compiling threw: SyntaxError: missing ; before statement

tryItOut 393

tryItOut 394
Compiling threw: SyntaxError: invalid for/in left-hand side

tryItOut 395

tryItOut 396

tryItOut 397

tryItOut 398

tryItOut 399
Compiling threw: SyntaxError: syntax error

tryItOut 400

tryItOut 401
Running threw: 

tryItOut 402
Compiling threw: SyntaxError: syntax error

tryItOut 403

tryItOut 404
Running threw: <x>
  <y/>
</x>

tryItOut 405

tryItOut 406
Compiling threw: SyntaxError: syntax error

tryItOut 407
Compiling threw: SyntaxError: syntax error

tryItOut 408
Running threw: 

tryItOut 409

tryItOut 410

tryItOut 411

tryItOut 412

tryItOut 413

tryItOut 414
Running threw: false

tryItOut 415
Compiling threw: SyntaxError: syntax error

tryItOut 416
Running threw: ReferenceError: z1 is not defined

tryItOut 417
It's an iterator!
Iterating succeeded, iterCount == 1

tryItOut 418

tryItOut 419
Running threw: Error: invalid sharp variable use #1#

tryItOut 420
Compiling threw: SyntaxError: missing ; before statement

tryItOut 421
Compiling threw: SyntaxError: syntax error

tryItOut 422
Compiling threw: SyntaxError: syntax error

tryItOut 423
Compiling threw: SyntaxError: missing variable name

tryItOut 424
Running threw: SyntaxError: invalid setter usage

tryItOut 425

tryItOut 426
Compiling threw: SyntaxError: invalid for/in left-hand side

tryItOut 427

tryItOut 428

tryItOut 429
Running threw: [object StopIteration]

tryItOut 430

tryItOut 431

tryItOut 432
Running threw: ReferenceError: z1 is not defined

tryItOut 433

tryItOut 434
Compiling threw: SyntaxError: invalid assignment left-hand side

tryItOut 435

tryItOut 436

tryItOut 437
Running threw: 

tryItOut 438

tryItOut 439
Compiling threw: SyntaxError: illegal XML character

tryItOut 440
It's an iterator!
Iterating succeeded, iterCount == 1

tryItOut 441
Compiling threw: SyntaxError: missing ; before statement

tryItOut 442

tryItOut 443

tryItOut 444

tryItOut 445
Compiling threw: SyntaxError: invalid for/in left-hand side

tryItOut 446
Compiling threw: SyntaxError: syntax error

tryItOut 447
It's an iterator!
Iterating threw!
Iterating threw: TypeError: <x><y/></x>.__parent__ is not a function

tryItOut 448

tryItOut 449

tryItOut 450

tryItOut 451
It's an iterator!
Iterating succeeded, iterCount == 0

tryItOut 452
Running threw: [object StopIteration]

tryItOut 453

tryItOut 454
Running threw: <x>
  <y/>
</x>

tryItOut 455
Compiling threw: SyntaxError: syntax error

tryItOut 456
Running threw: TypeError: invalid Array.prototype.sort argument

tryItOut 457

tryItOut 458
Running threw: <x>
  <y/>
</x>

tryItOut 459

tryItOut 460
Running threw: TypeError: #1=[#1#] is not a function

tryItOut 461
Running threw: [object StopIteration]

tryItOut 462

tryItOut 463
Compiling threw: SyntaxError: invalid for/in left-hand side

tryItOut 464
Compiling threw: SyntaxError: invalid for/in left-hand side

tryItOut 465
Compiling threw: SyntaxError: missing variable name

tryItOut 466

tryItOut 467
Running threw: TypeError: null is not a constructor

tryItOut 468
Compiling threw: SyntaxError: invalid assignment left-hand side

tryItOut 469
Compiling threw: SyntaxError: invalid XML tag syntax

tryItOut 470
Running threw: TypeError: null has no properties

tryItOut 471

tryItOut 472

tryItOut 473
Compiling threw: SyntaxError: invalid destructuring assignment operator

tryItOut 474
Running threw: [object Object]

tryItOut 475
Running threw: ReferenceError: z1 is not defined

tryItOut 476

tryItOut 477
It's an iterator!
Iterating succeeded, iterCount == 1

tryItOut 478
It's an iterator!
Iterating succeeded, iterCount == 1

tryItOut 479
Running threw: [object StopIteration]

tryItOut 480

tryItOut 481
Compiling threw: SyntaxError: syntax error

tryItOut 482

tryItOut 483
It's an iterator!
Iterating threw!
Iterating threw: TypeError: invalid XML name <x><y/></x>[null]

tryItOut 484

tryItOut 485

tryItOut 486
Running threw: 0

tryItOut 487
It's an iterator!
Iterating threw!
Iterating threw: TypeError: true is not a function

tryItOut 488

tryItOut 489
Compiling threw: SyntaxError: missing variable name

tryItOut 490
Running threw: TypeError: arguments[0] has no properties

tryItOut 491

tryItOut 492
It's an iterator!
Iterating succeeded, iterCount == 0

tryItOut 493

tryItOut 494
It's an iterator!
Iterating succeeded, iterCount == 1

tryItOut 495
Compiling threw: SyntaxError: invalid for/in left-hand side

tryItOut 496
Running threw: <x>
  <y/>
</x>

tryItOut 497
Running threw: TypeError: undefined has no properties

tryItOut 498

tryItOut 499

tryItOut 500
Running threw: [object StopIteration]

tryItOut 501
It's an iterator!
Iterating succeeded, iterCount == 1

tryItOut 502

tryItOut 503
Running threw: SyntaxError: invalid setter usage

tryItOut 504
Running threw: TypeError: this.zzz has no properties

tryItOut 505

tryItOut 506
Compiling threw: SyntaxError: invalid assignment left-hand side

tryItOut 507
Compiling threw: SyntaxError: syntax error

tryItOut 508

tryItOut 509

tryItOut 510
Compiling threw: SyntaxError: missing variable name

tryItOut 511

tryItOut 512
It's an iterator!
Iterating succeeded, iterCount == 1

tryItOut 513

tryItOut 514

tryItOut 515

tryItOut 516

tryItOut 517
Running threw: SyntaxError: invalid assignment left-hand side

tryItOut 518
Running threw: [object StopIteration]

tryItOut 519
It's an iterator!
Iterating threw!
Iterating threw: TypeError: [undefined] is not a constructor

tryItOut 520
It's an iterator!
Iterating threw!
Iterating threw: TypeError: null has no properties

tryItOut 521

tryItOut 522
It's an iterator!
Iterating succeeded, iterCount == 1

tryItOut 523
Compiling threw: SyntaxError: syntax error

tryItOut 524
Compiling threw: SyntaxError: missing while after do-loop body

tryItOut 525

tryItOut 526
Compiling threw: SyntaxError: syntax error

tryItOut 527
Running threw: ReferenceError: z1 is not defined

tryItOut 528

tryItOut 529
Running threw: [object StopIteration]

tryItOut 530

tryItOut 531

tryItOut 532
It's an iterator!
Iterating succeeded, iterCount == 1

tryItOut 533
Running threw: ReferenceError: z1 is not defined

tryItOut 534
It's an iterator!
Iterating succeeded, iterCount == 1

tryItOut 535

tryItOut 536

tryItOut 537

tryItOut 538
Compiling threw: TypeError: redeclaration of const __count__

tryItOut 539

tryItOut 540
Compiling threw: SyntaxError: missing ; after for-loop initializer

tryItOut 541
Running threw: undefined

tryItOut 542

tryItOut 543

tryItOut 544
Compiling threw: SyntaxError: missing variable name

tryItOut 545
Compiling threw: SyntaxError: syntax error

tryItOut 546

tryItOut 547

tryItOut 548
Running threw: ReferenceError: z1 is not defined

tryItOut 549

tryItOut 550
Compiling threw: SyntaxError: invalid XML qualified name

tryItOut 551
Running threw: ReferenceError: z1 is not defined

tryItOut 552
Running threw: TypeError: this.zzz has no properties

tryItOut 553

tryItOut 554

tryItOut 555
Compiling threw: SyntaxError: missing { before function body

tryItOut 556
Compiling threw: SyntaxError: syntax error

tryItOut 557

tryItOut 558
It's an iterator!
Iterating succeeded, iterCount == 1

tryItOut 559

tryItOut 560
It's an iterator!
Iterating threw!
Iterating threw: TypeError: null has no properties

tryItOut 561
Running threw: ReferenceError: z1 is not defined

tryItOut 562

tryItOut 563
Compiling threw: SyntaxError: missing ; before statement

tryItOut 564
Compiling threw: SyntaxError: invalid for/in left-hand side

tryItOut 565
Compiling threw: SyntaxError: invalid increment operand

tryItOut 566

tryItOut 567

tryItOut 568
Compiling threw: SyntaxError: invalid assignment left-hand side

tryItOut 569

tryItOut 570

tryItOut 571
Compiling threw: SyntaxError: yield expression must be parenthesized

tryItOut 572

tryItOut 573
It's an iterator!
Iterating succeeded, iterCount == 0

tryItOut 574
It's an iterator!
Iterating succeeded, iterCount == 1

tryItOut 575

tryItOut 576
Running threw: [object StopIteration]

tryItOut 577
It's an iterator!
Iterating threw!
Iterating threw: Error: invalid sharp variable use #1#

tryItOut 578

tryItOut 579

tryItOut 580

tryItOut 581
Compiling threw: SyntaxError: missing variable name

tryItOut 582

tryItOut 583

tryItOut 584

tryItOut 585

tryItOut 586

tryItOut 587
Running threw: [object StopIteration]

tryItOut 588
Compiling threw: SyntaxError: invalid for/in left-hand side

tryItOut 589
It's an iterator!
Iterating threw!
Iterating threw: TypeError: undefined has no properties

tryItOut 590
It's an iterator!
Iterating threw!
Iterating threw: ReferenceError: z1 is not defined

tryItOut 591
Compiling threw: SyntaxError: missing ) after formal parameters

tryItOut 592
Compiling threw: SyntaxError: invalid for/in left-hand side

tryItOut 593

tryItOut 594
Compiling threw: SyntaxError: missing while after do-loop body

tryItOut 595
Compiling threw: SyntaxError: invalid for/in left-hand side

tryItOut 596
Running threw: <x>
  <y/>
</x>

tryItOut 597
Compiling threw: SyntaxError: syntax error

tryItOut 598

tryItOut 599
Running threw: 110

tryItOut 600
Running threw: ReferenceError: z1 is not defined

tryItOut 601
Compiling threw: SyntaxError: missing = in destructuring declaration

tryItOut 602

tryItOut 603

tryItOut 604

tryItOut 605

tryItOut 606
It's an iterator!
Iterating succeeded, iterCount == 1

tryItOut 607

tryItOut 608
It's an iterator!
Iterating threw!
Iterating threw: TypeError: arguments[0] has no properties

tryItOut 609
It's an iterator!
Iterating threw!
Iterating threw: TypeError: false.__lookupSetter__("__iterator__") has no properties

tryItOut 610

tryItOut 611
Compiling threw: SyntaxError: invalid destructuring assignment operator

tryItOut 612

tryItOut 613
Compiling threw: SyntaxError: yield expression must be parenthesized

tryItOut 614

tryItOut 615

tryItOut 616
It's an iterator!
Iterating threw!
Iterating threw: SyntaxError: malformed formal parameter

tryItOut 617

tryItOut 618

tryItOut 619
Running threw: [object StopIteration]

tryItOut 620
Compiling threw: SyntaxError: illegal XML character

tryItOut 621
Compiling threw: SyntaxError: missing ; before statement

tryItOut 622
Running threw: 1

tryItOut 623
Compiling threw: SyntaxError: syntax error

tryItOut 624

tryItOut 625
It's an iterator!
Iterating succeeded, iterCount == 1

tryItOut 626
Running threw: TypeError: this.zzz has no properties

tryItOut 627
Compiling threw: SyntaxError: illegal XML character

tryItOut 628

tryItOut 629

tryItOut 630

tryItOut 631
Compiling threw: SyntaxError: invalid destructuring assignment operator

tryItOut 632
It's an iterator!
Iterating threw!
Iterating threw: TypeError: __noSuchMethod__ is not a function

tryItOut 633
Running threw: [object StopIteration]

tryItOut 634
Compiling threw: SyntaxError: syntax error

tryItOut 635
Compiling threw: SyntaxError: duplicate label

tryItOut 636
Running threw: TypeError: this.zzz has no properties

tryItOut 637

tryItOut 638
Compiling threw: SyntaxError: invalid property id

tryItOut 639
It's an iterator!
Iterating threw!
Iterating threw: TypeError: __parent__ has no properties

tryItOut 640

tryItOut 641

tryItOut 642

tryItOut 643

tryItOut 644
Running threw: TypeError: this.zzz has no properties

tryItOut 645
Compiling threw: SyntaxError: invalid for/in left-hand side

tryItOut 646
Running threw: <constructor>
  <__proto__>false</__proto__>
  <prototype>[object Iterator]</prototype>
</constructor>

tryItOut 647

tryItOut 648
It's an iterator!
Iterating succeeded, iterCount == 1

tryItOut 649

tryItOut 650
Compiling threw: SyntaxError: missing ; after for-loop initializer

tryItOut 651
Compiling threw: SyntaxError: invalid increment operand

tryItOut 652
Compiling threw: SyntaxError: yield expression must be parenthesized

tryItOut 653
Compiling threw: SyntaxError: missing ) in parenthetical

tryItOut 654
It's an iterator!
Iterating succeeded, iterCount == 1

tryItOut 655

tryItOut 656
It's an iterator!
Iterating succeeded, iterCount == 1

tryItOut 657
Running threw: TypeError: this.zzz has no properties

tryItOut 658
Compiling threw: SyntaxError: invalid for/in left-hand side

tryItOut 659
It's an iterator!
Iterating succeeded, iterCount == 1

tryItOut 660
Running threw: ,

tryItOut 661
It's an iterator!
Iterating succeeded, iterCount == 1

tryItOut 662
It's an iterator!
Iterating succeeded, iterCount == 0

tryItOut 663
Compiling threw: SyntaxError: syntax error

tryItOut 664

tryItOut 665
Compiling threw: SyntaxError: invalid for/in left-hand side

tryItOut 666

tryItOut 667
Compiling threw: SyntaxError: duplicate label

tryItOut 668
Running threw: <x>
  <y/>
</x>

tryItOut 669
Compiling threw: SyntaxError: invalid assignment left-hand side

tryItOut 670

tryItOut 671
It's an iterator!
Iterating succeeded, iterCount == 0

tryItOut 672

tryItOut 673

tryItOut 674

tryItOut 675
It's an iterator!
Iterating threw!
Iterating threw: 1

tryItOut 676
Compiling threw: SyntaxError: syntax error

tryItOut 677
Compiling threw: SyntaxError: invalid for/in left-hand side

tryItOut 678
Compiling threw: SyntaxError: invalid destructuring assignment operator

tryItOut 679

tryItOut 680
Running threw: TypeError: this.zzz has no properties

tryItOut 681
Compiling threw: SyntaxError: syntax error

tryItOut 682

tryItOut 683
It's an iterator!
Iterating succeeded, iterCount == 0

tryItOut 684
Compiling threw: SyntaxError: invalid for/in left-hand side

tryItOut 685

tryItOut 686
Compiling threw: SyntaxError: syntax error

tryItOut 687

tryItOut 688

tryItOut 689
Running threw: TypeError: redeclaration of var __count__

tryItOut 690
Compiling threw: SyntaxError: missing ) in parenthetical

tryItOut 691
Compiling threw: SyntaxError: invalid for/in left-hand side

tryItOut 692

tryItOut 693

tryItOut 694
It's an iterator!
Iterating succeeded, iterCount == 1

tryItOut 695

tryItOut 696
Running threw: TypeError: this.zzz has no properties

tryItOut 697
Compiling threw: SyntaxError: syntax error

tryItOut 698
Compiling threw: TypeError: redeclaration of variable prop

tryItOut 699
It's an iterator!
Iterating threw!
Iterating threw: ReferenceError: yyy is not defined

tryItOut 700
Compiling threw: SyntaxError: invalid destructuring assignment operator

tryItOut 701

tryItOut 702
Compiling threw: SyntaxError: missing ; before statement

tryItOut 703
Compiling threw: SyntaxError: syntax error

tryItOut 704
Compiling threw: SyntaxError: invalid for/in left-hand side

tryItOut 705
Compiling threw: SyntaxError: missing ; after for-loop initializer

tryItOut 706

tryItOut 707

tryItOut 708
Running threw: TypeError: false.__lookupSetter__("prop") has no properties

tryItOut 709

tryItOut 710
Compiling threw: SyntaxError: missing ) in parenthetical

tryItOut 711

tryItOut 712
Compiling threw: SyntaxError: missing variable name

tryItOut 713

tryItOut 714
Running threw: TypeError: undefined has no properties

tryItOut 715

tryItOut 716

tryItOut 717

tryItOut 718
Running threw: ReferenceError: z1 is not defined

tryItOut 719
Compiling threw: SyntaxError: missing ) in parenthetical

tryItOut 720

tryItOut 721
Compiling threw: SyntaxError: missing variable name

tryItOut 722
Running threw: false

tryItOut 723

tryItOut 724
Running threw: ReferenceError: z1 is not defined

tryItOut 725
Compiling threw: SyntaxError: missing ) after with-statement object

tryItOut 726

tryItOut 727

tryItOut 728
Compiling threw: SyntaxError: missing ) in parenthetical

tryItOut 729

tryItOut 730
Running threw: false

tryItOut 731

tryItOut 732

tryItOut 733
Running threw: [object Object]

tryItOut 734

tryItOut 735

tryItOut 736
Compiling threw: SyntaxError: illegal XML character

tryItOut 737

tryItOut 738

tryItOut 739
Running threw: <x>
  <y/>
</x>

tryItOut 740
Compiling threw: SyntaxError: invalid destructuring assignment operator

tryItOut 741

tryItOut 742

tryItOut 743
Compiling threw: SyntaxError: missing = in destructuring declaration

tryItOut 744
Compiling threw: SyntaxError: invalid for/in left-hand side

tryItOut 745
It's an iterator!
Iterating threw!
Iterating threw: TypeError: constructor has no properties

tryItOut 746

tryItOut 747
Running threw: ReferenceError: z1 is not defined

tryItOut 748

tryItOut 749
Compiling threw: SyntaxError: syntax error

tryItOut 750
Compiling threw: SyntaxError: illegal XML character

tryItOut 751
Compiling threw: SyntaxError: missing = in destructuring declaration

tryItOut 752
Compiling threw: SyntaxError: syntax error

tryItOut 753

tryItOut 754

tryItOut 755
Compiling threw: SyntaxError: missing { before function body

tryItOut 756
Running threw: SyntaxError: invalid setter usage

tryItOut 757
Compiling threw: SyntaxError: syntax error

tryItOut 758
Compiling threw: SyntaxError: missing variable name

tryItOut 759

tryItOut 760

tryItOut 761
It's an iterator!
Iterating succeeded, iterCount == 1

tryItOut 762
Running threw: TypeError: this.zzz has no properties

tryItOut 763
It's an iterator!
Iterating threw!
Iterating threw: TypeError: false is not a function

tryItOut 764

tryItOut 765
Running threw: ReferenceError: z1 is not defined

tryItOut 766

tryItOut 767

tryItOut 768
Compiling threw: SyntaxError: invalid for/in left-hand side

tryItOut 769
Running threw: SyntaxError: invalid setter usage

tryItOut 770

tryItOut 771
Running threw: ReferenceError: z1 is not defined

tryItOut 772

tryItOut 773
Compiling threw: SyntaxError: missing ) after for-loop control

tryItOut 774

tryItOut 775
It's an iterator!
Iterating succeeded, iterCount == 1

tryItOut 776
Compiling threw: SyntaxError: syntax error

tryItOut 777

tryItOut 778
It's an iterator!
Iterating threw!
Iterating threw: TypeError: arguments[0] has no properties

tryItOut 779

tryItOut 780
It's an iterator!
Iterating succeeded, iterCount == 1

tryItOut 781

tryItOut 782
Running threw: TypeError: __iterator__ has no properties

tryItOut 783
Running threw: ReferenceError: z1 is not defined

tryItOut 784
Compiling threw: SyntaxError: missing name in export statement

tryItOut 785

tryItOut 786

tryItOut 787

tryItOut 788
Compiling threw: SyntaxError: duplicate label

tryItOut 789
Running threw: [object StopIteration]

tryItOut 790
Running threw: [object StopIteration]

tryItOut 791
Compiling threw: SyntaxError: syntax error

tryItOut 792

tryItOut 793

tryItOut 794
Compiling threw: SyntaxError: syntax error

tryItOut 795
Compiling threw: SyntaxError: syntax error

tryItOut 796
Running threw: [object StopIteration]

tryItOut 797
Compiling threw: SyntaxError: invalid assignment left-hand side

tryItOut 798

tryItOut 799

tryItOut 800
It's an iterator!
Iterating succeeded, iterCount == 1

tryItOut 801
Compiling threw: SyntaxError: missing variable name

tryItOut 802

tryItOut 803

tryItOut 804
Compiling threw: SyntaxError: syntax error

tryItOut 805
Compiling threw: SyntaxError: missing ; after for-loop initializer

tryItOut 806

tryItOut 807
It's an iterator!
Iterating succeeded, iterCount == 1

tryItOut 808
Compiling threw: SyntaxError: invalid assignment left-hand side

tryItOut 809
Running threw: ReferenceError: z1 is not defined

tryItOut 810

tryItOut 811

tryItOut 812
Compiling threw: SyntaxError: syntax error

tryItOut 813
It's an iterator!
Iterating succeeded, iterCount == 1

tryItOut 814

tryItOut 815

tryItOut 816

tryItOut 817
Running threw: [object StopIteration]

tryItOut 818

tryItOut 819
Running threw: ReferenceError: x is not defined

tryItOut 820
Compiling threw: SyntaxError: missing ] after element list

tryItOut 821
Compiling threw: SyntaxError: missing variable name

tryItOut 822

tryItOut 823
It's an iterator!
Iterating succeeded, iterCount == 1

tryItOut 824

tryItOut 825
Compiling threw: SyntaxError: missing ) in parenthetical

tryItOut 826
Running threw: 

tryItOut 827
Running threw: undefined

tryItOut 828
Compiling threw: SyntaxError: missing ; before statement

tryItOut 829

tryItOut 830
It's an iterator!
Iterating threw!
Iterating threw: Error: invalid sharp variable use #1#

tryItOut 831

tryItOut 832
It's an iterator!
Iterating succeeded, iterCount == 1

tryItOut 833

tryItOut 834
It's an iterator!
Iterating succeeded, iterCount == 0

tryItOut 835

tryItOut 836
Compiling threw: SyntaxError: invalid for/in left-hand side

tryItOut 837
Compiling threw: SyntaxError: syntax error

tryItOut 838

tryItOut 839
Compiling threw: SyntaxError: invalid destructuring assignment operator

tryItOut 840
Compiling threw: SyntaxError: syntax error

tryItOut 841
Running threw: ReferenceError: z2 is not defined

tryItOut 842
Running threw: ReferenceError: z1 is not defined

tryItOut 843
Running threw: [object StopIteration]

tryItOut 844
Running threw: ReferenceError: a is not defined

tryItOut 845

tryItOut 846
Compiling threw: SyntaxError: syntax error

tryItOut 847
Running threw: [object StopIteration]

tryItOut 848

tryItOut 849
Compiling threw: SyntaxError: invalid property id

tryItOut 850

tryItOut 851

tryItOut 852
Compiling threw: SyntaxError: invalid assignment left-hand side

tryItOut 853
Compiling threw: SyntaxError: syntax error

tryItOut 854

tryItOut 855

tryItOut 856
Compiling threw: SyntaxError: syntax error

tryItOut 857
Compiling threw: SyntaxError: invalid for/in left-hand side

tryItOut 858
Compiling threw: SyntaxError: invalid assignment left-hand side

tryItOut 859
Running threw: undefined

tryItOut 860

tryItOut 861

tryItOut 862

tryItOut 863
Running threw: TypeError: this.zzz has no properties

tryItOut 864
Running threw: SyntaxError: invalid setter usage

tryItOut 865
Running threw: undefined

tryItOut 866

tryItOut 867
Compiling threw: SyntaxError: syntax error

tryItOut 868

tryItOut 869
Compiling threw: SyntaxError: invalid decrement operand

tryItOut 870

tryItOut 871
It's an iterator!
Iterating succeeded, iterCount == 1

tryItOut 872
It's an iterator!
Iterating threw!
Iterating threw: ReferenceError: get is not defined

tryItOut 873

tryItOut 874
Compiling threw: SyntaxError: syntax error

tryItOut 875
Compiling threw: SyntaxError: syntax error

tryItOut 876

tryItOut 877
It's an iterator!
Iterating succeeded, iterCount == 1

tryItOut 878

tryItOut 879

tryItOut 880
Compiling threw: SyntaxError: missing variable name

tryItOut 881

tryItOut 882

tryItOut 883

tryItOut 884
Running threw: [object StopIteration]

tryItOut 885

tryItOut 886

tryItOut 887

tryItOut 888
Compiling threw: SyntaxError: invalid decrement operand

tryItOut 889
Compiling threw: SyntaxError: syntax error

tryItOut 890
Compiling threw: SyntaxError: invalid assignment left-hand side

tryItOut 891

tryItOut 892

tryItOut 893
Compiling threw: SyntaxError: missing ) after condition

tryItOut 894

tryItOut 895
Compiling threw: SyntaxError: missing variable name

tryItOut 896
Compiling threw: SyntaxError: missing { before function body

tryItOut 897

tryItOut 898
Compiling threw: SyntaxError: invalid assignment left-hand side

tryItOut 899
Compiling threw: SyntaxError: missing = in destructuring declaration

tryItOut 900
Compiling threw: SyntaxError: syntax error

tryItOut 901
Compiling threw: SyntaxError: missing ; after for-loop initializer

tryItOut 902
Compiling threw: SyntaxError: missing variable name

tryItOut 903
Compiling threw: SyntaxError: syntax error

tryItOut 904
Running threw: TypeError: __proto__ has no properties

tryItOut 905

tryItOut 906
Compiling threw: SyntaxError: syntax error

tryItOut 907
Running threw: TypeError: this.zzz has no properties

tryItOut 908

tryItOut 909
Running threw: TypeError: null has no properties

tryItOut 910
Compiling threw: SyntaxError: missing ) in parenthetical

tryItOut 911
Compiling threw: SyntaxError: syntax error

tryItOut 912

tryItOut 913
Compiling threw: SyntaxError: syntax error

tryItOut 914

tryItOut 915
Compiling threw: SyntaxError: invalid destructuring assignment operator

tryItOut 916
Running threw: TypeError: this.zzz has no properties

tryItOut 917

tryItOut 918

tryItOut 919

tryItOut 920
Compiling threw: SyntaxError: missing ) in parenthetical

tryItOut 921
Running threw: null

tryItOut 922
Compiling threw: SyntaxError: syntax error

tryItOut 923
Running threw: null

tryItOut 924

tryItOut 925
Running threw: TypeError: uneval(false).__defineGetter__("prop", [1, 2, 3, 4].map) has no properties

tryItOut 926
Running threw: undefined

tryItOut 927

tryItOut 928

tryItOut 929
Running threw: [object StopIteration]

tryItOut 930

tryItOut 931
Compiling threw: SyntaxError: syntax error

tryItOut 932
Compiling threw: SyntaxError: missing } after let block

tryItOut 933

tryItOut 934
Running threw: null

tryItOut 935
Running threw: [object Object]

tryItOut 936
Running threw: [object Object]

tryItOut 937
Compiling threw: SyntaxError: invalid for/in left-hand side

tryItOut 938
Running threw: [object StopIteration]

tryItOut 939

tryItOut 940
Compiling threw: SyntaxError: syntax error

tryItOut 941
It's an iterator!
Iterating succeeded, iterCount == 1

tryItOut 942

tryItOut 943
Running threw: TypeError: this.zzz has no properties

tryItOut 944
Running threw: SyntaxError: invalid setter usage

tryItOut 945
Compiling threw: SyntaxError: missing ; after for-loop initializer

tryItOut 946
Running threw: ReferenceError: z1 is not defined

tryItOut 947
Compiling threw: SyntaxError: missing ; after for-loop initializer

tryItOut 948
Running threw: TypeError: constructor has no properties

tryItOut 949
Compiling threw: SyntaxError: syntax error

tryItOut 950
Compiling threw: SyntaxError: invalid decrement operand

tryItOut 951
Compiling threw: SyntaxError: invalid property id

tryItOut 952
It's an iterator!
Iterating succeeded, iterCount == 0

tryItOut 953

tryItOut 954
Compiling threw: SyntaxError: missing ) in parenthetical

tryItOut 955
Compiling threw: SyntaxError: missing { before function body

tryItOut 956

tryItOut 957
Running threw: undefined

tryItOut 958
Compiling threw: SyntaxError: invalid decrement operand

tryItOut 959

tryItOut 960
Compiling threw: SyntaxError: missing ) after for-loop control

tryItOut 961

tryItOut 962
Compiling threw: SyntaxError: invalid for/in left-hand side

tryItOut 963
Compiling threw: SyntaxError: invalid property id

tryItOut 964
Compiling threw: SyntaxError: syntax error

tryItOut 965
Compiling threw: SyntaxError: missing ; before statement

tryItOut 966
Compiling threw: SyntaxError: invalid for/in left-hand side

tryItOut 967
Running threw: [object Object]

tryItOut 968
Compiling threw: SyntaxError: missing = in destructuring declaration

tryItOut 969
It's an iterator!
Iterating succeeded, iterCount == 1

tryItOut 970
Compiling threw: SyntaxError: missing variable name

tryItOut 971

tryItOut 972

tryItOut 973
Compiling threw: SyntaxError: missing = in destructuring declaration

tryItOut 974
It's an iterator!
Iterating succeeded, iterCount == 1

tryItOut 975

tryItOut 976
Compiling threw: SyntaxError: invalid assignment left-hand side

tryItOut 977

tryItOut 978

tryItOut 979
Compiling threw: SyntaxError: missing ) in parenthetical

tryItOut 980
Running threw: null

tryItOut 981
Compiling threw: SyntaxError: invalid for/in left-hand side

tryItOut 982

tryItOut 983

tryItOut 984

tryItOut 985
It's an iterator!
Iterating succeeded, iterCount == 1

tryItOut 986
Compiling threw: SyntaxError: missing ) in parenthetical

tryItOut 987
Compiling threw: SyntaxError: missing ; after for-loop initializer

tryItOut 988

tryItOut 989
Compiling threw: SyntaxError: missing ) in parenthetical

tryItOut 990

tryItOut 991
Compiling threw: SyntaxError: invalid assignment left-hand side

tryItOut 992

tryItOut 993
Compiling threw: SyntaxError: missing ; before statement

tryItOut 994

tryItOut 995
Compiling threw: SyntaxError: syntax error

tryItOut 996
Compiling threw: SyntaxError: missing { before function body

tryItOut 997

tryItOut 998

tryItOut 999
Compiling threw: SyntaxError: syntax error

tryItOut 1000

ALL OK

Script done on Sat 04 May 2013 05:00:35 AM PDT
