Script started on Sat 04 May 2013 07:41:50 AM PDT
***
Targeting SpiderMonkey / Gecko.

tryItOut 1

tryItOut 2
Running threw: TypeError: arguments[0] has no properties

tryItOut 3
Running threw: <x>
  <y/>
</x>

tryItOut 4

tryItOut 5

tryItOut 6

tryItOut 7
Compiling threw: SyntaxError: missing ; before statement

tryItOut 8
Compiling threw: SyntaxError: syntax error

tryItOut 9
Compiling threw: SyntaxError: label not found

tryItOut 10

tryItOut 11

tryItOut 12
Running threw: SyntaxError: illegal XML character

tryItOut 13
Compiling threw: SyntaxError: label not found

tryItOut 14

tryItOut 15

tryItOut 16

tryItOut 17

tryItOut 18

tryItOut 19

tryItOut 20
Compiling threw: SyntaxError: syntax error

tryItOut 21

tryItOut 22
Compiling threw: SyntaxError: invalid assignment left-hand side

tryItOut 23

tryItOut 24

tryItOut 25
Running threw: ReferenceError: z1 is not defined

tryItOut 26

tryItOut 27
Running threw: ReferenceError: z2 is not defined

tryItOut 28
Compiling threw: SyntaxError: invalid for/in left-hand side

tryItOut 29

tryItOut 30
Compiling threw: TypeError: redeclaration of const prop

tryItOut 31

tryItOut 32
Compiling threw: SyntaxError: syntax error

tryItOut 33
Compiling threw: SyntaxError: missing { before function body

tryItOut 34
Compiling threw: SyntaxError: invalid for/in left-hand side

tryItOut 35

tryItOut 36

tryItOut 37

tryItOut 38
Compiling threw: SyntaxError: illegal XML character

tryItOut 39
Running threw: SyntaxError: invalid assignment left-hand side

tryItOut 40
Running threw: TypeError: undefined has no properties

tryItOut 41

tryItOut 42
Compiling threw: SyntaxError: missing ) after argument list

tryItOut 43

tryItOut 44

tryItOut 45

tryItOut 46

tryItOut 47
Compiling threw: SyntaxError: invalid assignment left-hand side

tryItOut 48
Compiling threw: SyntaxError: missing variable name

tryItOut 49

tryItOut 50

tryItOut 51

tryItOut 52
Compiling threw: SyntaxError: invalid XML name

tryItOut 53
Compiling threw: SyntaxError: syntax error

tryItOut 54

tryItOut 55

tryItOut 56
Compiling threw: SyntaxError: label not found

tryItOut 57

tryItOut 58

tryItOut 59

tryItOut 60

tryItOut 61
Running threw: TypeError: __parent__ has no properties

tryItOut 62
Compiling threw: SyntaxError: syntax error

tryItOut 63
Compiling threw: SyntaxError: label not found

tryItOut 64
Running threw: ReferenceError: prop is not defined

tryItOut 65

tryItOut 66
Compiling threw: SyntaxError: missing } in XML expression

tryItOut 67

tryItOut 68
Compiling threw: SyntaxError: illegal character

tryItOut 69

tryItOut 70
Compiling threw: SyntaxError: missing formal parameter

tryItOut 71
Compiling threw: SyntaxError: syntax error

tryItOut 72
Compiling threw: SyntaxError: illegal XML character

tryItOut 73
Compiling threw: SyntaxError: missing = in destructuring declaration

tryItOut 74

tryItOut 75

tryItOut 76
Compiling threw: SyntaxError: missing ; before statement

tryItOut 77
Compiling threw: SyntaxError: missing { before function body

tryItOut 78
Compiling threw: TypeError: redeclaration of variable __iterator__

tryItOut 79

tryItOut 80
Compiling threw: SyntaxError: missing { before function body

tryItOut 81

tryItOut 82
Running threw: TypeError: arguments[0] has no properties

tryItOut 83
Compiling threw: SyntaxError: duplicate label

tryItOut 84
Compiling threw: SyntaxError: invalid continue

tryItOut 85

tryItOut 86

tryItOut 87

tryItOut 88
Compiling threw: SyntaxError: invalid XML tag syntax

tryItOut 89
Compiling threw: SyntaxError: missing { before function body

tryItOut 90
Running threw: ReferenceError: prototype is not defined

tryItOut 91
Compiling threw: SyntaxError: syntax error

tryItOut 92

tryItOut 93
Compiling threw: SyntaxError: syntax error

tryItOut 94
Compiling threw: SyntaxError: invalid XML list syntax

tryItOut 95
Running threw: TypeError: undefined has no properties

tryItOut 96

tryItOut 97

tryItOut 98
It's an iterator!
Iterating threw!
Iterating threw: TypeError: this.zzz has no properties

tryItOut 99
uneval returned the string: ({__noSuchMethod__:true})
Skipping re-eval test

tryItOut 100
Compiling threw: SyntaxError: syntax error

tryItOut 101

tryItOut 102

tryItOut 103
Running threw: ReferenceError: prototype is not defined

tryItOut 104
Running threw: ReferenceError: prop is not defined

tryItOut 105

tryItOut 106

tryItOut 107

tryItOut 108

tryItOut 109
Compiling threw: SyntaxError: missing { before function body

tryItOut 110

tryItOut 111

tryItOut 112
Compiling threw: SyntaxError: label not found

tryItOut 113

tryItOut 114
Compiling threw: SyntaxError: syntax error

tryItOut 115
Compiling threw: SyntaxError: missing ) after condition

tryItOut 116

tryItOut 117

tryItOut 118
Compiling threw: SyntaxError: missing ) in parenthetical

tryItOut 119
Compiling threw: SyntaxError: invalid break

tryItOut 120
Compiling threw: SyntaxError: label not found

tryItOut 121
Running threw: TypeError: <x><y/></x>.yoyo is not a function

tryItOut 122
Running threw: TypeError: arguments[0] has no properties

tryItOut 123

tryItOut 124
Compiling threw: SyntaxError: missing { before function body

tryItOut 125
Compiling threw: SyntaxError: missing { before function body

tryItOut 126

tryItOut 127
Compiling threw: TypeError: redeclaration of variable constructor

tryItOut 128
Compiling threw: SyntaxError: invalid XML tag syntax

tryItOut 129

tryItOut 130
Compiling threw: SyntaxError: missing variable name

tryItOut 131
Compiling threw: SyntaxError: syntax error

tryItOut 132
Compiling threw: SyntaxError: missing ; before statement

tryItOut 133
Compiling threw: SyntaxError: missing ) after let head

tryItOut 134

tryItOut 135
Compiling threw: SyntaxError: missing ) in parenthetical

tryItOut 136
Compiling threw: SyntaxError: invalid continue

tryItOut 137

tryItOut 138
Compiling threw: SyntaxError: invalid for/in left-hand side

tryItOut 139

tryItOut 140
Compiling threw: TypeError: redeclaration of var __noSuchMethod__

tryItOut 141
Running threw: TypeError: redeclaration of var __count__

tryItOut 142

tryItOut 143

tryItOut 144

tryItOut 145
Compiling threw: SyntaxError: missing { before function body

tryItOut 146

tryItOut 147
Compiling threw: SyntaxError: missing { before function body

tryItOut 148
Compiling threw: SyntaxError: invalid assignment left-hand side

tryItOut 149
Compiling threw: SyntaxError: invalid for/in left-hand side

tryItOut 150
Compiling threw: SyntaxError: syntax error

tryItOut 151
Compiling threw: SyntaxError: invalid assignment left-hand side

tryItOut 152
Compiling threw: SyntaxError: syntax error

tryItOut 153

tryItOut 154

tryItOut 155
Compiling threw: SyntaxError: syntax error

tryItOut 156
Compiling threw: SyntaxError: invalid for/in left-hand side

tryItOut 157
Compiling threw: SyntaxError: invalid break

tryItOut 158
Compiling threw: SyntaxError: label not found

tryItOut 159
Compiling threw: SyntaxError: syntax error

tryItOut 160
Compiling threw: SyntaxError: missing { before function body

tryItOut 161
Compiling threw: SyntaxError: syntax error

tryItOut 162

tryItOut 163
Compiling threw: SyntaxError: invalid assignment left-hand side

tryItOut 164
Compiling threw: SyntaxError: unterminated regular expression literal

tryItOut 165
Compiling threw: TypeError: redeclaration of const __count__

tryItOut 166

tryItOut 167

tryItOut 168
Running threw: TypeError: <x><y/></x>.__lookupGetter__("__proto__") has no properties

tryItOut 169
Compiling threw: SyntaxError: missing ; before statement

tryItOut 170
Running threw: [object Object]

tryItOut 171
Running threw: ReferenceError: prototype is not defined

tryItOut 172

tryItOut 173

tryItOut 174

tryItOut 175
Compiling threw: SyntaxError: invalid for/in left-hand side

tryItOut 176
Compiling threw: SyntaxError: syntax error

tryItOut 177

tryItOut 178

tryItOut 179

tryItOut 180

tryItOut 181
Compiling threw: SyntaxError: missing { before function body

tryItOut 182
Compiling threw: SyntaxError: invalid assignment left-hand side

tryItOut 183
Compiling threw: SyntaxError: label not found

tryItOut 184
Running threw: TypeError: true.prop has no properties

tryItOut 185
Compiling threw: SyntaxError: syntax error

tryItOut 186
Compiling threw: SyntaxError: missing ) in parenthetical

tryItOut 187
Running threw: [object Object]

tryItOut 188
Compiling threw: SyntaxError: label not found

tryItOut 189
Compiling threw: SyntaxError: invalid for/in left-hand side

tryItOut 190
Running threw: <x>
  <y/>
</x>

tryItOut 191

tryItOut 192

tryItOut 193

tryItOut 194
Running threw: TypeError: ({}) is not a function

tryItOut 195
Compiling threw: SyntaxError: missing ; before statement

tryItOut 196

tryItOut 197
Running threw: ReferenceError: z2 is not defined

tryItOut 198
Compiling threw: SyntaxError: missing variable name

tryItOut 199
Compiling threw: SyntaxError: invalid XML name

tryItOut 200
Compiling threw: SyntaxError: missing = in destructuring declaration

tryItOut 201

tryItOut 202
Compiling threw: SyntaxError: label not found

tryItOut 203

tryItOut 204
Running threw: <x>
  <y/>
</x>

tryItOut 205

tryItOut 206

tryItOut 207

tryItOut 208

tryItOut 209
Compiling threw: SyntaxError: label not found

tryItOut 210
Compiling threw: SyntaxError: invalid increment operand

tryItOut 211
Compiling threw: SyntaxError: invalid break

tryItOut 212
Running threw: ReferenceError: prop is not defined

tryItOut 213
Compiling threw: SyntaxError: missing variable name

tryItOut 214
Running threw: ReferenceError: z1 is not defined

tryItOut 215

tryItOut 216

tryItOut 217

tryItOut 218
Compiling threw: SyntaxError: invalid destructuring assignment operator

tryItOut 219
Compiling threw: SyntaxError: missing ; before statement

tryItOut 220

tryItOut 221
It's an iterator!
Iterating threw!
Iterating threw: TypeError: __parent__ has no properties

tryItOut 222

tryItOut 223
Compiling threw: TypeError: redeclaration of const __count__

tryItOut 224

tryItOut 225
Running threw: [object Object]

tryItOut 226
Compiling threw: SyntaxError: invalid default XML namespace

tryItOut 227

tryItOut 228

tryItOut 229
Compiling threw: SyntaxError: missing variable name

tryItOut 230
Compiling threw: SyntaxError: missing { before function body

tryItOut 231

tryItOut 232

tryItOut 233

tryItOut 234

tryItOut 235

tryItOut 236
Running threw: ReferenceError: z2 is not defined

tryItOut 237
Compiling threw: SyntaxError: invalid assignment left-hand side

tryItOut 238
Compiling threw: TypeError: redeclaration of variable __count__

tryItOut 239

tryItOut 240
Compiling threw: SyntaxError: missing ) in parenthetical

tryItOut 241
Compiling threw: SyntaxError: missing variable name

tryItOut 242

tryItOut 243
Compiling threw: SyntaxError: label not found

tryItOut 244
Compiling threw: SyntaxError: missing ) after argument list

tryItOut 245

tryItOut 246
Compiling threw: TypeError: redeclaration of const __noSuchMethod__

tryItOut 247
Running threw: 0

tryItOut 248

tryItOut 249

tryItOut 250
Compiling threw: SyntaxError: label not found

tryItOut 251

tryItOut 252

tryItOut 253

tryItOut 254

tryItOut 255
Compiling threw: SyntaxError: invalid for/in left-hand side

tryItOut 256
Compiling threw: SyntaxError: missing ) in parenthetical

tryItOut 257

tryItOut 258

tryItOut 259
Compiling threw: SyntaxError: missing ) in parenthetical

tryItOut 260
Compiling threw: SyntaxError: label not found

tryItOut 261

tryItOut 262

tryItOut 263
Compiling threw: SyntaxError: missing ; before statement

tryItOut 264
Compiling threw: SyntaxError: missing ( before let head

tryItOut 265
Compiling threw: SyntaxError: invalid assignment left-hand side

tryItOut 266

tryItOut 267

tryItOut 268

tryItOut 269
Compiling threw: TypeError: redeclaration of const prop

tryItOut 270
Compiling threw: SyntaxError: invalid assignment left-hand side

tryItOut 271
Compiling threw: SyntaxError: syntax error

tryItOut 272

tryItOut 273

tryItOut 274
Compiling threw: SyntaxError: invalid break

tryItOut 275

tryItOut 276

tryItOut 277
Compiling threw: SyntaxError: invalid break

tryItOut 278

tryItOut 279
Compiling threw: SyntaxError: missing while after do-loop body

tryItOut 280
Compiling threw: SyntaxError: invalid break

tryItOut 281
Compiling threw: SyntaxError: syntax error

tryItOut 282
Running threw: TypeError: null has no properties

tryItOut 283
Compiling threw: SyntaxError: invalid continue

tryItOut 284

tryItOut 285

tryItOut 286
Compiling threw: SyntaxError: invalid for/in left-hand side

tryItOut 287
Compiling threw: SyntaxError: missing ; after for-loop condition

tryItOut 288
Running threw: 

tryItOut 289
Compiling threw: SyntaxError: missing ; before statement

tryItOut 290

tryItOut 291
It's an iterator!
Iterating succeeded, iterCount == 1

tryItOut 292
Running threw: <x>
  <y/>
</x>

tryItOut 293
Compiling threw: SyntaxError: missing while after do-loop body

tryItOut 294

tryItOut 295
Compiling threw: SyntaxError: missing : after property id

tryItOut 296

tryItOut 297
Compiling threw: SyntaxError: missing ; before statement

tryItOut 298
Compiling threw: SyntaxError: label not found

tryItOut 299
Compiling threw: SyntaxError: missing ) in parenthetical

tryItOut 300
Compiling threw: SyntaxError: syntax error

tryItOut 301

tryItOut 302

tryItOut 303
Compiling threw: SyntaxError: invalid increment operand

tryItOut 304

tryItOut 305

tryItOut 306
Compiling threw: SyntaxError: missing { before function body

tryItOut 307

tryItOut 308
Compiling threw: SyntaxError: invalid XML name

tryItOut 309
Compiling threw: SyntaxError: missing { before function body

tryItOut 310

tryItOut 311

tryItOut 312

tryItOut 313
Compiling threw: SyntaxError: missing } in XML expression

tryItOut 314

tryItOut 315
Compiling threw: SyntaxError: missing { before function body

tryItOut 316

tryItOut 317

tryItOut 318
Running threw: ReferenceError: prototype is not defined

tryItOut 319

tryItOut 320
Compiling threw: SyntaxError: missing { before function body

tryItOut 321

tryItOut 322

tryItOut 323
Compiling threw: SyntaxError: missing ) in parenthetical

tryItOut 324
Compiling threw: SyntaxError: missing ) in parenthetical

tryItOut 325

tryItOut 326
Compiling threw: SyntaxError: missing ; after for-loop condition

tryItOut 327

tryItOut 328

tryItOut 329
Compiling threw: SyntaxError: missing variable name

tryItOut 330
Compiling threw: SyntaxError: syntax error

tryItOut 331
Compiling threw: SyntaxError: invalid continue

tryItOut 332
Compiling threw: SyntaxError: invalid break

tryItOut 333
Running threw: TypeError: XML filtering predicate operator called on incompatible Function

tryItOut 334

tryItOut 335
Compiling threw: SyntaxError: illegal XML character

tryItOut 336

tryItOut 337
Compiling threw: SyntaxError: invalid sharp variable definition

tryItOut 338
Running threw: TypeError: __parent__ has no properties

tryItOut 339
Compiling threw: SyntaxError: invalid continue

tryItOut 340
Compiling threw: SyntaxError: missing variable name

tryItOut 341
Compiling threw: SyntaxError: missing : after property id

tryItOut 342
Compiling threw: SyntaxError: syntax error

tryItOut 343

tryItOut 344

tryItOut 345
It's an iterator!
Iterating succeeded, iterCount == 1

tryItOut 346
Compiling threw: SyntaxError: missing ) in parenthetical

tryItOut 347

tryItOut 348

tryItOut 349

tryItOut 350

tryItOut 351

tryItOut 352

tryItOut 353

tryItOut 354

tryItOut 355
Compiling threw: SyntaxError: invalid break

tryItOut 356

tryItOut 357
Compiling threw: SyntaxError: label not found

tryItOut 358

tryItOut 359
Compiling threw: SyntaxError: label not found

tryItOut 360
Compiling threw: SyntaxError: syntax error

tryItOut 361

tryItOut 362

tryItOut 363

tryItOut 364

tryItOut 365

tryItOut 366
Running threw: ReferenceError: z1 is not defined

tryItOut 367

tryItOut 368
Compiling threw: SyntaxError: missing ) after condition

tryItOut 369
Compiling threw: SyntaxError: missing : after case label

tryItOut 370
Compiling threw: SyntaxError: illegal XML character

tryItOut 371
Compiling threw: SyntaxError: missing ; before statement

tryItOut 372
Running threw: TypeError: arguments[0] has no properties

tryItOut 373

tryItOut 374
Compiling threw: SyntaxError: missing ) after argument list

tryItOut 375

tryItOut 376

tryItOut 377

tryItOut 378

tryItOut 379

tryItOut 380

tryItOut 381

tryItOut 382
Compiling threw: SyntaxError: missing ) in parenthetical

tryItOut 383
Compiling threw: SyntaxError: syntax error

tryItOut 384
Compiling threw: SyntaxError: label not found

tryItOut 385

tryItOut 386
Running threw: function Object() {
    [native code]
}

tryItOut 387

tryItOut 388

tryItOut 389

tryItOut 390
Compiling threw: SyntaxError: syntax error

tryItOut 391

tryItOut 392

tryItOut 393
Compiling threw: SyntaxError: invalid continue

tryItOut 394
Compiling threw: SyntaxError: syntax error

tryItOut 395
Compiling threw: SyntaxError: invalid assignment left-hand side

tryItOut 396

tryItOut 397
Compiling threw: SyntaxError: invalid increment operand

tryItOut 398

tryItOut 399

tryItOut 400
Compiling threw: SyntaxError: syntax error

tryItOut 401
Compiling threw: SyntaxError: invalid continue

tryItOut 402

tryItOut 403
Running threw: function ([y]) {
}

tryItOut 404
Compiling threw: SyntaxError: syntax error

tryItOut 405
Compiling threw: SyntaxError: invalid break

tryItOut 406
Compiling threw: SyntaxError: missing ; after for-loop condition

tryItOut 407

tryItOut 408
Compiling threw: SyntaxError: invalid break

tryItOut 409

tryItOut 410
Running threw: <x>
  <y/>
</x>

tryItOut 411
Compiling threw: TypeError: anonymous generator function returns a value

tryItOut 412

tryItOut 413

tryItOut 414

tryItOut 415
Running threw: 

tryItOut 416
Compiling threw: SyntaxError: missing ; before statement

tryItOut 417

tryItOut 418
Compiling threw: SyntaxError: missing { before function body

tryItOut 419

tryItOut 420

tryItOut 421
Running threw: ReferenceError: gi is not defined

tryItOut 422

tryItOut 423
Compiling threw: SyntaxError: syntax error

tryItOut 424

tryItOut 425
Compiling threw: TypeError: redeclaration of variable __iterator__

tryItOut 426

tryItOut 427

tryItOut 428

tryItOut 429
Compiling threw: SyntaxError: label not found

tryItOut 430
Compiling threw: SyntaxError: label not found

tryItOut 431
Compiling threw: SyntaxError: invalid default XML namespace

tryItOut 432
Compiling threw: SyntaxError: invalid assignment left-hand side

tryItOut 433

tryItOut 434
Compiling threw: SyntaxError: invalid for/in left-hand side

tryItOut 435
Compiling threw: SyntaxError: missing ) in parenthetical

tryItOut 436

tryItOut 437
Compiling threw: SyntaxError: missing ) in parenthetical

tryItOut 438

tryItOut 439
Compiling threw: SyntaxError: invalid break

tryItOut 440
Compiling threw: SyntaxError: syntax error

tryItOut 441
Compiling threw: SyntaxError: invalid break

tryItOut 442

tryItOut 443
Compiling threw: SyntaxError: missing ) in parenthetical

tryItOut 444

tryItOut 445
Running threw: ReferenceError: z1 is not defined

tryItOut 446

tryItOut 447

tryItOut 448

tryItOut 449

tryItOut 450

tryItOut 451
Compiling threw: SyntaxError: invalid break

tryItOut 452
Running threw: ReferenceError: z1 is not defined

tryItOut 453

tryItOut 454

tryItOut 455
Compiling threw: SyntaxError: syntax error

tryItOut 456
Compiling threw: SyntaxError: syntax error

tryItOut 457

tryItOut 458

tryItOut 459
Compiling threw: SyntaxError: missing { before function body

tryItOut 460
Compiling threw: SyntaxError: label not found

tryItOut 461
Running threw: TypeError: this.zzz has no properties

tryItOut 462

tryItOut 463
Compiling threw: SyntaxError: invalid for/in left-hand side

tryItOut 464
Compiling threw: TypeError: redeclaration of const __iterator__

tryItOut 465

tryItOut 466
Compiling threw: SyntaxError: missing ) after for-loop control

tryItOut 467
Compiling threw: SyntaxError: syntax error

tryItOut 468

tryItOut 469
Compiling threw: SyntaxError: missing ) in parenthetical

tryItOut 470

tryItOut 471
Compiling threw: SyntaxError: missing { before function body

tryItOut 472

tryItOut 473

tryItOut 474

tryItOut 475

tryItOut 476

tryItOut 477

tryItOut 478
Compiling threw: SyntaxError: missing { before function body

tryItOut 479

tryItOut 480
Compiling threw: SyntaxError: missing ) in parenthetical

tryItOut 481

tryItOut 482

tryItOut 483

tryItOut 484
Running threw: TypeError: this.zzz has no properties

tryItOut 485

tryItOut 486
Compiling threw: SyntaxError: missing ; before statement

tryItOut 487

tryItOut 488
Running threw: ReferenceError: setter is not defined

tryItOut 489

tryItOut 490

tryItOut 491

tryItOut 492
Compiling threw: SyntaxError: invalid assignment left-hand side

tryItOut 493

tryItOut 494

tryItOut 495
Compiling threw: SyntaxError: missing variable name

tryItOut 496
Compiling threw: SyntaxError: label not found

tryItOut 497
Compiling threw: SyntaxError: invalid continue

tryItOut 498

tryItOut 499

tryItOut 500
Compiling threw: SyntaxError: illegal XML character

tryItOut 501

tryItOut 502
Compiling threw: SyntaxError: invalid for/in left-hand side

tryItOut 503
Compiling threw: SyntaxError: syntax error

tryItOut 504
Compiling threw: SyntaxError: missing ) after condition

tryItOut 505
Compiling threw: SyntaxError: missing ) in parenthetical

tryItOut 506
Compiling threw: SyntaxError: missing name after . operator

tryItOut 507
Compiling threw: SyntaxError: missing { before function body

tryItOut 508

tryItOut 509

tryItOut 510
Compiling threw: SyntaxError: label not found

tryItOut 511
Compiling threw: SyntaxError: missing = in destructuring declaration

tryItOut 512
Compiling threw: SyntaxError: syntax error

tryItOut 513

tryItOut 514

tryItOut 515
Compiling threw: SyntaxError: missing ) in parenthetical

tryItOut 516

tryItOut 517

tryItOut 518

tryItOut 519
Running threw: ReferenceError: z1 is not defined

tryItOut 520
Compiling threw: SyntaxError: invalid label

tryItOut 521

tryItOut 522

tryItOut 523
Compiling threw: SyntaxError: missing ) in parenthetical

tryItOut 524

tryItOut 525
Compiling threw: SyntaxError: invalid assignment left-hand side

tryItOut 526
Compiling threw: SyntaxError: missing : after property id

tryItOut 527

tryItOut 528

tryItOut 529
Compiling threw: SyntaxError: missing ) in parenthetical

tryItOut 530
Compiling threw: SyntaxError: invalid assignment left-hand side

tryItOut 531

tryItOut 532
Compiling threw: SyntaxError: missing ) in parenthetical

tryItOut 533
Compiling threw: TypeError: redeclaration of variable __iterator__

tryItOut 534

tryItOut 535
Compiling threw: SyntaxError: missing ) in parenthetical

tryItOut 536
Compiling threw: SyntaxError: illegal XML character

tryItOut 537
Compiling threw: SyntaxError: invalid increment operand

tryItOut 538

tryItOut 539
Compiling threw: SyntaxError: invalid assignment left-hand side

tryItOut 540
Compiling threw: TypeError: redeclaration of variable __proto__

tryItOut 541
Running threw: false

tryItOut 542

tryItOut 543

tryItOut 544

tryItOut 545

tryItOut 546
Running threw: [object Object]

tryItOut 547
Compiling threw: SyntaxError: missing ) in parenthetical

tryItOut 548
Compiling threw: SyntaxError: illegal XML character

tryItOut 549

tryItOut 550

tryItOut 551
Compiling threw: SyntaxError: missing { before function body

tryItOut 552

tryItOut 553

tryItOut 554
Compiling threw: SyntaxError: syntax error

tryItOut 555
Running threw: Error: invalid sharp variable use #1#

tryItOut 556
Compiling threw: SyntaxError: syntax error

tryItOut 557
Compiling threw: SyntaxError: syntax error

tryItOut 558
Compiling threw: SyntaxError: missing ) in parenthetical

tryItOut 559

tryItOut 560
Compiling threw: SyntaxError: syntax error

tryItOut 561

tryItOut 562

tryItOut 563
Compiling threw: SyntaxError: syntax error

tryItOut 564
Compiling threw: SyntaxError: invalid destructuring assignment operator

tryItOut 565

tryItOut 566
Compiling threw: SyntaxError: missing ) after argument list

tryItOut 567
Compiling threw: SyntaxError: invalid sharp variable definition

tryItOut 568
Compiling threw: SyntaxError: missing ; before statement

tryItOut 569
Compiling threw: SyntaxError: missing ) in parenthetical

tryItOut 570

tryItOut 571

tryItOut 572
Compiling threw: SyntaxError: label not found

tryItOut 573
Compiling threw: SyntaxError: label not found

tryItOut 574

tryItOut 575

tryItOut 576
Compiling threw: SyntaxError: label not found

tryItOut 577

tryItOut 578

tryItOut 579
Running threw: null

tryItOut 580
Compiling threw: SyntaxError: missing ) in parenthetical

tryItOut 581
Compiling threw: SyntaxError: invalid assignment left-hand side

tryItOut 582
Compiling threw: SyntaxError: label not found

tryItOut 583
Compiling threw: SyntaxError: invalid break

tryItOut 584

tryItOut 585

tryItOut 586
Compiling threw: SyntaxError: invalid assignment left-hand side

tryItOut 587
Compiling threw: SyntaxError: syntax error

tryItOut 588
Compiling threw: SyntaxError: syntax error

tryItOut 589
Compiling threw: SyntaxError: missing variable name

tryItOut 590
Compiling threw: SyntaxError: invalid sharp variable definition

tryItOut 591
Compiling threw: SyntaxError: label not found

tryItOut 592
Compiling threw: SyntaxError: invalid assignment left-hand side

tryItOut 593
Running threw: 1,

tryItOut 594

tryItOut 595
Compiling threw: SyntaxError: missing ; before statement

tryItOut 596
Compiling threw: SyntaxError: missing ) after switch expression

tryItOut 597

tryItOut 598

tryItOut 599

tryItOut 600
Compiling threw: SyntaxError: missing formal parameter

tryItOut 601
Compiling threw: SyntaxError: invalid increment operand

tryItOut 602

tryItOut 603

tryItOut 604

tryItOut 605
Running threw: TypeError: this.zzz has no properties

tryItOut 606

tryItOut 607
Compiling threw: SyntaxError: missing ) in parenthetical

tryItOut 608

tryItOut 609

tryItOut 610

tryItOut 611
Compiling threw: SyntaxError: label not found

tryItOut 612
Compiling threw: SyntaxError: syntax error

tryItOut 613
Compiling threw: SyntaxError: label not found

tryItOut 614
Compiling threw: SyntaxError: invalid increment operand

tryItOut 615
Compiling threw: SyntaxError: illegal XML character

tryItOut 616
Compiling threw: SyntaxError: missing { before function body

tryItOut 617

tryItOut 618
Compiling threw: SyntaxError: label not found

tryItOut 619

tryItOut 620
Running threw: null

tryItOut 621

tryItOut 622

tryItOut 623

tryItOut 624
Compiling threw: SyntaxError: invalid decrement operand

tryItOut 625

tryItOut 626
Compiling threw: SyntaxError: duplicate label

tryItOut 627

tryItOut 628

tryItOut 629

tryItOut 630

tryItOut 631
Compiling threw: SyntaxError: missing ) in parenthetical

tryItOut 632

tryItOut 633

tryItOut 634

tryItOut 635
Compiling threw: SyntaxError: invalid continue

tryItOut 636

tryItOut 637
Compiling threw: SyntaxError: invalid continue

tryItOut 638

tryItOut 639

tryItOut 640
Compiling threw: SyntaxError: duplicate label

tryItOut 641

tryItOut 642

tryItOut 643
Compiling threw: SyntaxError: syntax error

tryItOut 644

tryItOut 645
Running threw: Error: invalid sharp variable use #1#

tryItOut 646
Compiling threw: SyntaxError: missing ) in parenthetical

tryItOut 647

tryItOut 648

tryItOut 649

tryItOut 650
It's an iterator!
Iterating succeeded, iterCount == 1

tryItOut 651
Running threw: function (id) {
    return id;
}

tryItOut 652
Compiling threw: SyntaxError: missing ) after argument list

tryItOut 653

tryItOut 654

tryItOut 655
Compiling threw: TypeError: redeclaration of const __noSuchMethod__

tryItOut 656
Compiling threw: SyntaxError: invalid for/in left-hand side

tryItOut 657
Compiling threw: SyntaxError: label not found

tryItOut 658
Compiling threw: SyntaxError: invalid for/in left-hand side

tryItOut 659
Compiling threw: SyntaxError: duplicate label

tryItOut 660

tryItOut 661

tryItOut 662
Compiling threw: SyntaxError: missing { before function body

tryItOut 663
Compiling threw: SyntaxError: invalid assignment left-hand side

tryItOut 664
Compiling threw: SyntaxError: syntax error

tryItOut 665
Compiling threw: SyntaxError: invalid decrement operand

tryItOut 666
Compiling threw: SyntaxError: syntax error

tryItOut 667
Compiling threw: SyntaxError: syntax error

tryItOut 668
Compiling threw: SyntaxError: invalid for/in left-hand side

tryItOut 669

tryItOut 670

tryItOut 671

tryItOut 672

tryItOut 673

tryItOut 674
Compiling threw: SyntaxError: unterminated regular expression literal

tryItOut 675
Compiling threw: SyntaxError: missing ; before statement

tryItOut 676
Compiling threw: SyntaxError: label not found

tryItOut 677
Compiling threw: SyntaxError: missing ) in parenthetical

tryItOut 678
Compiling threw: SyntaxError: missing ) in parenthetical

tryItOut 679
Compiling threw: SyntaxError: invalid continue

tryItOut 680
Compiling threw: SyntaxError: missing { before function body

tryItOut 681

tryItOut 682
Compiling threw: SyntaxError: invalid break

tryItOut 683

tryItOut 684
Compiling threw: SyntaxError: invalid assignment left-hand side

tryItOut 685
Compiling threw: SyntaxError: missing ; before statement

tryItOut 686
Compiling threw: SyntaxError: invalid assignment left-hand side

tryItOut 687
Compiling threw: SyntaxError: missing { before function body

tryItOut 688
Compiling threw: SyntaxError: invalid flag after regular expression

tryItOut 689
Compiling threw: SyntaxError: label not found

tryItOut 690

tryItOut 691
Compiling threw: SyntaxError: syntax error

tryItOut 692
Compiling threw: SyntaxError: syntax error

tryItOut 693
Compiling threw: SyntaxError: missing { before function body

tryItOut 694

tryItOut 695

tryItOut 696

tryItOut 697
Compiling threw: SyntaxError: missing { before function body

tryItOut 698

tryItOut 699

tryItOut 700
Compiling threw: SyntaxError: missing variable name

tryItOut 701
Compiling threw: TypeError: redeclaration of const constructor

tryItOut 702

tryItOut 703

tryItOut 704
Compiling threw: SyntaxError: label not found

tryItOut 705

tryItOut 706

tryItOut 707
Running threw: <x>
  <y/>
</x>

tryItOut 708

tryItOut 709
Compiling threw: SyntaxError: missing ; before statement

tryItOut 710

tryItOut 711

tryItOut 712
Compiling threw: SyntaxError: label not found

tryItOut 713
Running threw: SyntaxError: invalid getter usage

tryItOut 714
Running threw: TypeError: constructor has no properties

tryItOut 715
Compiling threw: SyntaxError: missing = in destructuring declaration

tryItOut 716

tryItOut 717
Compiling threw: SyntaxError: unexpected end of XML source

tryItOut 718

tryItOut 719
Compiling threw: SyntaxError: missing ; before statement

tryItOut 720
Running threw: TypeError: undefined has no properties

tryItOut 721
Running threw: null

tryItOut 722

tryItOut 723

tryItOut 724

tryItOut 725
Compiling threw: SyntaxError: invalid XML tag syntax

tryItOut 726

tryItOut 727
Compiling threw: SyntaxError: invalid for/in left-hand side

tryItOut 728
Compiling threw: SyntaxError: label not found

tryItOut 729
Compiling threw: SyntaxError: invalid continue

tryItOut 730
Compiling threw: SyntaxError: invalid break

tryItOut 731
Running threw: ReferenceError: z1 is not defined

tryItOut 732
Running threw: function Object() {
    [native code]
}

tryItOut 733

tryItOut 734
Compiling threw: SyntaxError: missing ) after argument list

tryItOut 735

tryItOut 736

tryItOut 737

tryItOut 738
Compiling threw: SyntaxError: invalid label

tryItOut 739

tryItOut 740

tryItOut 741

tryItOut 742
Compiling threw: SyntaxError: invalid property id

tryItOut 743
Compiling threw: SyntaxError: missing ) after with-statement object

tryItOut 744
Compiling threw: SyntaxError: missing variable name

tryItOut 745
Compiling threw: SyntaxError: syntax error

tryItOut 746
Compiling threw: SyntaxError: illegal XML character

tryItOut 747

tryItOut 748
Compiling threw: SyntaxError: missing variable name

tryItOut 749
Running threw: SyntaxError: invalid getter usage

tryItOut 750
Compiling threw: SyntaxError: missing { before function body

tryItOut 751

tryItOut 752
Compiling threw: SyntaxError: syntax error

tryItOut 753

tryItOut 754

tryItOut 755

tryItOut 756
Running threw: ReferenceError: z1 is not defined

tryItOut 757

tryItOut 758

tryItOut 759
Compiling threw: SyntaxError: syntax error

tryItOut 760

tryItOut 761

tryItOut 762

tryItOut 763

tryItOut 764
Compiling threw: SyntaxError: label not found

tryItOut 765
Compiling threw: SyntaxError: missing variable name

tryItOut 766

tryItOut 767
Running threw: TypeError: <x><y/></x>['throw'] is not a function

tryItOut 768
Compiling threw: SyntaxError: illegal XML character

tryItOut 769
Compiling threw: TypeError: redeclaration of const constructor

tryItOut 770
Running threw: false

tryItOut 771

tryItOut 772
Compiling threw: SyntaxError: illegal XML character

tryItOut 773

tryItOut 774
Running threw: <x>
  <y/>
</x>

tryItOut 775

tryItOut 776
Compiling threw: SyntaxError: syntax error

tryItOut 777
Compiling threw: SyntaxError: missing name in export statement

tryItOut 778
Compiling threw: SyntaxError: label not found

tryItOut 779

tryItOut 780

tryItOut 781
Running threw: TypeError: undefined has no properties

tryItOut 782
Compiling threw: SyntaxError: syntax error

tryItOut 783

tryItOut 784
Compiling threw: SyntaxError: invalid continue

tryItOut 785

tryItOut 786
Compiling threw: SyntaxError: illegal XML character

tryItOut 787

tryItOut 788
Compiling threw: SyntaxError: label not found

tryItOut 789

tryItOut 790

tryItOut 791

tryItOut 792
Compiling threw: TypeError: redeclaration of const __count__

tryItOut 793

tryItOut 794

tryItOut 795
Compiling threw: SyntaxError: invalid continue

tryItOut 796

tryItOut 797
Compiling threw: SyntaxError: syntax error

tryItOut 798
Compiling threw: SyntaxError: syntax error

tryItOut 799
Compiling threw: SyntaxError: illegal XML character

tryItOut 800

tryItOut 801

tryItOut 802

tryItOut 803
Compiling threw: SyntaxError: invalid assignment left-hand side

tryItOut 804
Compiling threw: SyntaxError: missing ) in parenthetical

tryItOut 805

tryItOut 806
Compiling threw: SyntaxError: missing variable name

tryItOut 807
Compiling threw: SyntaxError: invalid label

tryItOut 808
Compiling threw: TypeError: redeclaration of variable __parent__

tryItOut 809

tryItOut 810

tryItOut 811
Compiling threw: SyntaxError: invalid for/in left-hand side

tryItOut 812
Compiling threw: SyntaxError: missing ; before statement

tryItOut 813

tryItOut 814

tryItOut 815

tryItOut 816
Compiling threw: SyntaxError: missing variable name

tryItOut 817

tryItOut 818

tryItOut 819

tryItOut 820

tryItOut 821

tryItOut 822
Running threw: Error: invalid sharp variable use #1#

tryItOut 823

tryItOut 824

tryItOut 825
Compiling threw: SyntaxError: missing ; after for-loop condition

tryItOut 826

tryItOut 827

tryItOut 828

tryItOut 829

tryItOut 830
Running threw: 112

tryItOut 831

tryItOut 832
Compiling threw: SyntaxError: illegal XML character

tryItOut 833
Compiling threw: SyntaxError: missing ) in parenthetical

tryItOut 834
Compiling threw: SyntaxError: syntax error

tryItOut 835
Compiling threw: SyntaxError: invalid assignment left-hand side

tryItOut 836
Compiling threw: TypeError: redeclaration of var __count__

tryItOut 837
Compiling threw: SyntaxError: syntax error

tryItOut 838

tryItOut 839
Compiling threw: SyntaxError: invalid for/in left-hand side

tryItOut 840
Compiling threw: SyntaxError: missing ; after for-loop initializer

tryItOut 841

tryItOut 842
Compiling threw: TypeError: redeclaration of const prototype

tryItOut 843
Compiling threw: SyntaxError: missing ; before statement

tryItOut 844

tryItOut 845

tryItOut 846
Compiling threw: SyntaxError: invalid property id

tryItOut 847

tryItOut 848

tryItOut 849
Compiling threw: SyntaxError: syntax error

tryItOut 850

tryItOut 851
Compiling threw: SyntaxError: invalid continue

tryItOut 852
Compiling threw: SyntaxError: missing ) in parenthetical

tryItOut 853
Compiling threw: SyntaxError: invalid XML tag syntax

tryItOut 854
Compiling threw: SyntaxError: invalid break

tryItOut 855

tryItOut 856
Compiling threw: SyntaxError: missing ; before statement

tryItOut 857
Compiling threw: SyntaxError: label not found

tryItOut 858
Compiling threw: SyntaxError: syntax error

tryItOut 859

tryItOut 860

tryItOut 861
Running threw: <x>
  <y/>
</x>

tryItOut 862

tryItOut 863
Compiling threw: SyntaxError: invalid continue

tryItOut 864
Compiling threw: SyntaxError: missing ) in parenthetical

tryItOut 865
Compiling threw: SyntaxError: syntax error

tryItOut 866
Compiling threw: SyntaxError: invalid destructuring assignment operator

tryItOut 867

tryItOut 868
Compiling threw: SyntaxError: invalid for/in left-hand side

tryItOut 869
Compiling threw: SyntaxError: invalid assignment left-hand side

tryItOut 870
Compiling threw: SyntaxError: missing ; before statement

tryItOut 871

tryItOut 872
Compiling threw: SyntaxError: invalid for/in left-hand side

tryItOut 873

tryItOut 874
Compiling threw: SyntaxError: missing { before function body

tryItOut 875
Compiling threw: SyntaxError: syntax error

tryItOut 876

tryItOut 877
Compiling threw: SyntaxError: syntax error

tryItOut 878
Compiling threw: SyntaxError: missing : after property id

tryItOut 879

tryItOut 880
Compiling threw: SyntaxError: invalid assignment left-hand side

tryItOut 881

tryItOut 882
Compiling threw: SyntaxError: invalid assignment left-hand side

tryItOut 883
Compiling threw: SyntaxError: invalid continue

tryItOut 884
Compiling threw: SyntaxError: invalid decrement operand

tryItOut 885
Compiling threw: SyntaxError: syntax error

tryItOut 886
Compiling threw: SyntaxError: missing ; before statement

tryItOut 887
Compiling threw: SyntaxError: missing ; before statement

tryItOut 888
Compiling threw: SyntaxError: invalid for/in left-hand side

tryItOut 889
Compiling threw: SyntaxError: syntax error

tryItOut 890
Compiling threw: SyntaxError: missing variable name

tryItOut 891
Running threw: ReferenceError: z2 is not defined

tryItOut 892
Compiling threw: SyntaxError: syntax error

tryItOut 893

tryItOut 894

tryItOut 895

tryItOut 896
Compiling threw: SyntaxError: syntax error

tryItOut 897
Compiling threw: SyntaxError: duplicate label

tryItOut 898
Compiling threw: SyntaxError: invalid for/in left-hand side

tryItOut 899
Compiling threw: SyntaxError: missing ) in parenthetical

tryItOut 900
Compiling threw: SyntaxError: missing ) in parenthetical

tryItOut 901
Running threw: 112

tryItOut 902

tryItOut 903
Compiling threw: SyntaxError: invalid assignment left-hand side

tryItOut 904
Compiling threw: SyntaxError: syntax error

tryItOut 905

tryItOut 906

tryItOut 907
Compiling threw: SyntaxError: label not found

tryItOut 908
Compiling threw: SyntaxError: invalid for/in left-hand side

tryItOut 909
Compiling threw: SyntaxError: missing { before function body

tryItOut 910

tryItOut 911
Compiling threw: SyntaxError: syntax error

tryItOut 912
Compiling threw: SyntaxError: syntax error

tryItOut 913
Compiling threw: SyntaxError: invalid assignment left-hand side

tryItOut 914
Compiling threw: SyntaxError: missing : after property id

tryItOut 915

tryItOut 916

tryItOut 917

tryItOut 918

tryItOut 919

tryItOut 920
Running threw: TypeError: this.zzz has no properties

tryItOut 921
Compiling threw: SyntaxError: invalid continue

tryItOut 922
Compiling threw: SyntaxError: invalid assignment left-hand side

tryItOut 923

tryItOut 924

tryItOut 925
Compiling threw: SyntaxError: missing = in destructuring declaration

tryItOut 926

tryItOut 927
Compiling threw: SyntaxError: invalid for/in left-hand side

tryItOut 928
Compiling threw: SyntaxError: syntax error

tryItOut 929
Compiling threw: SyntaxError: missing ) in parenthetical

tryItOut 930
Compiling threw: SyntaxError: missing { before function body

tryItOut 931
Compiling threw: SyntaxError: illegal XML character

tryItOut 932

tryItOut 933
Running threw: false

tryItOut 934

tryItOut 935
Compiling threw: SyntaxError: missing { before function body

tryItOut 936
Compiling threw: SyntaxError: syntax error

tryItOut 937

tryItOut 938
Compiling threw: SyntaxError: missing ) in parenthetical

tryItOut 939
Running threw: ReferenceError: z1 is not defined

tryItOut 940
Compiling threw: SyntaxError: missing ) after argument list

tryItOut 941

tryItOut 942

tryItOut 943

tryItOut 944
Compiling threw: SyntaxError: missing ) after switch expression

tryItOut 945
Compiling threw: SyntaxError: missing while after do-loop body

tryItOut 946
Compiling threw: SyntaxError: syntax error

tryItOut 947
Compiling threw: SyntaxError: invalid continue

tryItOut 948
Compiling threw: SyntaxError: syntax error

tryItOut 949
Running threw: undefined

tryItOut 950

tryItOut 951

tryItOut 952

tryItOut 953
Compiling threw: SyntaxError: missing variable name

tryItOut 954

tryItOut 955
Running threw: 

tryItOut 956
Compiling threw: SyntaxError: missing ; before statement

tryItOut 957
Compiling threw: SyntaxError: syntax error

tryItOut 958

tryItOut 959

tryItOut 960

tryItOut 961
Compiling threw: SyntaxError: missing ) in parenthetical

tryItOut 962

tryItOut 963

tryItOut 964

tryItOut 965

tryItOut 966

tryItOut 967

tryItOut 968

tryItOut 969
Running threw: undefined

tryItOut 970
Compiling threw: SyntaxError: invalid decrement operand

tryItOut 971
Running threw: TypeError: [[]] is not a function

tryItOut 972

tryItOut 973
Running threw: TypeError: invalid XML name <employee id="1"><name>Joe</name><age>20</age></employee>[__iterator__ = null]

tryItOut 974
Compiling threw: SyntaxError: invalid destructuring assignment operator

tryItOut 975
Compiling threw: TypeError: redeclaration of variable prototype

tryItOut 976
Running threw: [object Object]

tryItOut 977
Compiling threw: SyntaxError: syntax error

tryItOut 978

tryItOut 979
Compiling threw: SyntaxError: invalid decrement operand

tryItOut 980
Compiling threw: SyntaxError: label not found

tryItOut 981
Compiling threw: SyntaxError: missing ) after argument list

tryItOut 982
Compiling threw: SyntaxError: invalid continue

tryItOut 983
Compiling threw: SyntaxError: missing ) in parenthetical

tryItOut 984
Compiling threw: SyntaxError: syntax error

tryItOut 985

tryItOut 986

tryItOut 987
Compiling threw: SyntaxError: syntax error

tryItOut 988
Compiling threw: SyntaxError: syntax error

tryItOut 989

tryItOut 990
Compiling threw: SyntaxError: missing ) after let head

tryItOut 991
Compiling threw: SyntaxError: missing ) after formal parameters

tryItOut 992

tryItOut 993

tryItOut 994

tryItOut 995
Compiling threw: SyntaxError: invalid break

tryItOut 996
Compiling threw: SyntaxError: missing : after property id

tryItOut 997

tryItOut 998

tryItOut 999

tryItOut 1000

ALL OK

Script done on Sat 04 May 2013 07:41:50 AM PDT
