Script started on Sat 04 May 2013 07:43:13 AM PDT
***
Targeting SpiderMonkey / Gecko.

tryItOut 1
Running threw: ReferenceError: __iterator__ is not defined

tryItOut 2
Compiling threw: SyntaxError: syntax error

tryItOut 3

tryItOut 4

tryItOut 5
Compiling threw: SyntaxError: missing variable name

tryItOut 6
Compiling threw: SyntaxError: syntax error

tryItOut 7

tryItOut 8
Compiling threw: SyntaxError: missing variable name

tryItOut 9
Compiling threw: TypeError: redeclaration of const prototype

tryItOut 10

tryItOut 11
Compiling threw: SyntaxError: syntax error

tryItOut 12

tryItOut 13
Running threw: ReferenceError: prototype is not defined

tryItOut 14
Compiling threw: SyntaxError: missing ; before statement

tryItOut 15
Compiling threw: SyntaxError: invalid break

tryItOut 16
Compiling threw: SyntaxError: invalid for/in left-hand side

tryItOut 17

tryItOut 18

tryItOut 19
Compiling threw: SyntaxError: missing ) after for-loop control

tryItOut 20

tryItOut 21
Compiling threw: SyntaxError: invalid break

tryItOut 22
Compiling threw: SyntaxError: label not found

tryItOut 23
Compiling threw: SyntaxError: missing variable name

tryItOut 24

tryItOut 25

tryItOut 26
Running threw: ReferenceError: prototype is not defined

tryItOut 27
Compiling threw: SyntaxError: missing ; before statement

tryItOut 28

tryItOut 29

tryItOut 30
Compiling threw: SyntaxError: invalid for/in left-hand side

tryItOut 31
It's an iterator!
Iterating threw!
Iterating threw: TypeError: 0.2 is not a function

tryItOut 32
Compiling threw: SyntaxError: invalid assignment left-hand side

tryItOut 33
Compiling threw: SyntaxError: invalid for/in left-hand side

tryItOut 34
Compiling threw: SyntaxError: invalid for/in left-hand side

tryItOut 35

tryItOut 36
Compiling threw: SyntaxError: invalid for/in left-hand side

tryItOut 37

tryItOut 38

tryItOut 39
Compiling threw: SyntaxError: missing ; after for-loop initializer

tryItOut 40
Compiling threw: SyntaxError: syntax error

tryItOut 41

tryItOut 42
Compiling threw: SyntaxError: invalid for each loop

tryItOut 43
Compiling threw: SyntaxError: missing ) in parenthetical

tryItOut 44

tryItOut 45
Compiling threw: SyntaxError: invalid for/in left-hand side

tryItOut 46

tryItOut 47
Compiling threw: SyntaxError: label not found

tryItOut 48
Compiling threw: SyntaxError: label not found

tryItOut 49

tryItOut 50

tryItOut 51
Compiling threw: SyntaxError: missing ) in parenthetical

tryItOut 52
Compiling threw: SyntaxError: duplicate label

tryItOut 53

tryItOut 54
Compiling threw: TypeError: redeclaration of const prop

tryItOut 55
Running threw: [object StopIteration]

tryItOut 56
Running threw: ReferenceError: prototype is not defined

tryItOut 57
Compiling threw: SyntaxError: missing ) after argument list

tryItOut 58
Running threw: ReferenceError: __noSuchMethod__ is not defined

tryItOut 59
Compiling threw: SyntaxError: label not found

tryItOut 60

tryItOut 61

tryItOut 62
Compiling threw: SyntaxError: label not found

tryItOut 63

tryItOut 64

tryItOut 65

tryItOut 66
It's an iterator!
Iterating threw!
Iterating threw: ReferenceError: reference to undefined property "window"

tryItOut 67

tryItOut 68
It's an iterator!
Iterating succeeded, iterCount == 1

tryItOut 69

tryItOut 70
Compiling threw: SyntaxError: label not found

tryItOut 71
Compiling threw: SyntaxError: missing while after do-loop body

tryItOut 72
Compiling threw: TypeError: redeclaration of variable __parent__

tryItOut 73
Compiling threw: SyntaxError: missing { before function body

tryItOut 74

tryItOut 75

tryItOut 76
Compiling threw: SyntaxError: missing ) in parenthetical

tryItOut 77
Compiling threw: SyntaxError: missing ) after for-loop control

tryItOut 78

tryItOut 79
Compiling threw: SyntaxError: label not found

tryItOut 80

tryItOut 81
Compiling threw: SyntaxError: invalid assignment left-hand side

tryItOut 82
It's an iterator!
Iterating threw!
Iterating threw: TypeError: undefined is not a constructor

tryItOut 83

tryItOut 84
Compiling threw: SyntaxError: label not found

tryItOut 85

tryItOut 86
It's an iterator!
Iterating threw!
Iterating threw: ReferenceError: get is not defined

tryItOut 87

tryItOut 88

tryItOut 89

tryItOut 90
Compiling threw: SyntaxError: invalid for/in left-hand side

tryItOut 91
Compiling threw: SyntaxError: syntax error

tryItOut 92

tryItOut 93
Compiling threw: SyntaxError: invalid for/in left-hand side

tryItOut 94

tryItOut 95
Compiling threw: SyntaxError: syntax error

tryItOut 96
Compiling threw: SyntaxError: invalid break

tryItOut 97
Compiling threw: SyntaxError: label not found

tryItOut 98
Running threw: ReferenceError: window is not defined

tryItOut 99

tryItOut 100
Compiling threw: SyntaxError: syntax error

tryItOut 101
Compiling threw: SyntaxError: missing variable name

tryItOut 102
Compiling threw: SyntaxError: label not found

tryItOut 103

tryItOut 104
It's an iterator!
Iterating succeeded, iterCount == 1

tryItOut 105
Running threw: [object StopIteration]

tryItOut 106
It's an iterator!
Iterating threw!
Iterating threw: TypeError: true is not a function

tryItOut 107
Compiling threw: SyntaxError: invalid for/in left-hand side

tryItOut 108
Compiling threw: SyntaxError: missing ) in parenthetical

tryItOut 109
It's an iterator!
Iterating succeeded, iterCount == 1

tryItOut 110
Compiling threw: SyntaxError: missing ) after for-loop control

tryItOut 111

tryItOut 112
Compiling threw: SyntaxError: invalid break

tryItOut 113

tryItOut 114

tryItOut 115

tryItOut 116

tryItOut 117

tryItOut 118
It's an iterator!
Iterating succeeded, iterCount == 1

tryItOut 119

tryItOut 120
It's an iterator!
Iterating succeeded, iterCount == 1

tryItOut 121

tryItOut 122
Compiling threw: SyntaxError: invalid for/in left-hand side

tryItOut 123

tryItOut 124
It's an iterator!
Iterating succeeded, iterCount == 1

tryItOut 125
Compiling threw: SyntaxError: invalid for/in left-hand side

tryItOut 126

tryItOut 127
Compiling threw: SyntaxError: invalid continue

tryItOut 128
Compiling threw: TypeError: redeclaration of const __noSuchMethod__

tryItOut 129

tryItOut 130
Compiling threw: SyntaxError: invalid assignment left-hand side

tryItOut 131
Compiling threw: SyntaxError: invalid assignment left-hand side

tryItOut 132

tryItOut 133

tryItOut 134

tryItOut 135

tryItOut 136
Compiling threw: SyntaxError: invalid for/in left-hand side

tryItOut 137

tryItOut 138
Compiling threw: SyntaxError: missing ) in parenthetical

tryItOut 139
Compiling threw: SyntaxError: syntax error

tryItOut 140

tryItOut 141

tryItOut 142
Compiling threw: SyntaxError: invalid increment operand

tryItOut 143
Compiling threw: SyntaxError: syntax error

tryItOut 144

tryItOut 145

tryItOut 146

tryItOut 147
Running threw: SyntaxError: invalid setter usage

tryItOut 148
It's an iterator!
Iterating succeeded, iterCount == 1

tryItOut 149
Compiling threw: SyntaxError: missing { before function body

tryItOut 150
Compiling threw: SyntaxError: missing { before function body

tryItOut 151

tryItOut 152
Compiling threw: SyntaxError: missing { before function body

tryItOut 153
Compiling threw: SyntaxError: missing variable name

tryItOut 154
Compiling threw: SyntaxError: label not found

tryItOut 155

tryItOut 156

tryItOut 157
Compiling threw: SyntaxError: missing variable name

tryItOut 158
Compiling threw: SyntaxError: invalid continue

tryItOut 159

tryItOut 160

tryItOut 161
Compiling threw: SyntaxError: missing ) after argument list

tryItOut 162
Compiling threw: SyntaxError: syntax error

tryItOut 163

tryItOut 164

tryItOut 165

tryItOut 166
Compiling threw: SyntaxError: label not found

tryItOut 167
Compiling threw: SyntaxError: syntax error

tryItOut 168

tryItOut 169

tryItOut 170
Compiling threw: SyntaxError: label not found

tryItOut 171

tryItOut 172
Compiling threw: SyntaxError: label not found

tryItOut 173
Compiling threw: SyntaxError: missing ) after condition

tryItOut 174

tryItOut 175
Compiling threw: SyntaxError: missing = in destructuring declaration

tryItOut 176
Compiling threw: SyntaxError: missing ) in parenthetical

tryItOut 177

tryItOut 178
Compiling threw: SyntaxError: unterminated regular expression literal

tryItOut 179

tryItOut 180
Compiling threw: SyntaxError: missing variable name

tryItOut 181
Compiling threw: SyntaxError: missing ) in parenthetical

tryItOut 182
Compiling threw: SyntaxError: label not found

tryItOut 183

tryItOut 184
Compiling threw: SyntaxError: invalid break

tryItOut 185
Compiling threw: SyntaxError: invalid assignment left-hand side

tryItOut 186
Running threw: ReferenceError: z1 is not defined

tryItOut 187

tryItOut 188
Compiling threw: SyntaxError: missing while after do-loop body

tryItOut 189

tryItOut 190

tryItOut 191
It's an iterator!
Iterating threw!
Iterating threw: ReferenceError: window is not defined

tryItOut 192
Compiling threw: SyntaxError: missing ; after for-loop initializer

tryItOut 193

tryItOut 194

tryItOut 195
Running threw: [object StopIteration]

tryItOut 196
Running threw: ReferenceError: z1 is not defined

tryItOut 197

tryItOut 198

tryItOut 199
Compiling threw: SyntaxError: syntax error

tryItOut 200
Compiling threw: SyntaxError: missing ; before statement

tryItOut 201
Compiling threw: SyntaxError: invalid break

tryItOut 202
Compiling threw: SyntaxError: label not found

tryItOut 203

tryItOut 204
Compiling threw: SyntaxError: invalid break

tryItOut 205
Compiling threw: SyntaxError: invalid for/in left-hand side

tryItOut 206
Compiling threw: SyntaxError: invalid break

tryItOut 207
It's an iterator!
Iterating threw!
Iterating threw: ReferenceError: z2 is not defined

tryItOut 208

tryItOut 209
Compiling threw: SyntaxError: missing { before function body

tryItOut 210
Compiling threw: SyntaxError: missing ) in parenthetical

tryItOut 211
It's an iterator!
Iterating succeeded, iterCount == 1

tryItOut 212
Compiling threw: SyntaxError: invalid for/in left-hand side

tryItOut 213
Compiling threw: SyntaxError: invalid for/in left-hand side

tryItOut 214

tryItOut 215
Running threw: [object StopIteration]

tryItOut 216

tryItOut 217

tryItOut 218

tryItOut 219

tryItOut 220
Compiling threw: SyntaxError: invalid destructuring assignment operator

tryItOut 221
Compiling threw: SyntaxError: invalid assignment left-hand side

tryItOut 222
Compiling threw: SyntaxError: label not found

tryItOut 223
Compiling threw: SyntaxError: missing ) in parenthetical

tryItOut 224

tryItOut 225

tryItOut 226
Compiling threw: SyntaxError: invalid for/in left-hand side

tryItOut 227

tryItOut 228

tryItOut 229
Running threw: ReferenceError: window is not defined

tryItOut 230
Compiling threw: SyntaxError: invalid for/in left-hand side

tryItOut 231
Compiling threw: SyntaxError: missing = in destructuring declaration

tryItOut 232

tryItOut 233
Compiling threw: SyntaxError: invalid assignment left-hand side

tryItOut 234

tryItOut 235

tryItOut 236
It's an iterator!
Iterating succeeded, iterCount == 2

tryItOut 237
It's an iterator!
Iterating succeeded, iterCount == 1

tryItOut 238

tryItOut 239
Compiling threw: TypeError: redeclaration of var __noSuchMethod__

tryItOut 240

tryItOut 241

tryItOut 242
Compiling threw: SyntaxError: missing ) in parenthetical

tryItOut 243
Compiling threw: SyntaxError: label not found

tryItOut 244

tryItOut 245
Compiling threw: SyntaxError: syntax error

tryItOut 246
Compiling threw: SyntaxError: invalid for/in left-hand side

tryItOut 247
Compiling threw: SyntaxError: invalid for/in left-hand side

tryItOut 248
Compiling threw: SyntaxError: label not found

tryItOut 249

tryItOut 250
Compiling threw: SyntaxError: invalid for/in left-hand side

tryItOut 251

tryItOut 252
Compiling threw: SyntaxError: invalid for/in left-hand side

tryItOut 253

tryItOut 254
Compiling threw: SyntaxError: label not found

tryItOut 255

tryItOut 256
Compiling threw: SyntaxError: invalid assignment left-hand side

tryItOut 257

tryItOut 258

tryItOut 259
Compiling threw: SyntaxError: missing { before function body

tryItOut 260
It's an iterator!
Iterating succeeded, iterCount == 0

tryItOut 261

tryItOut 262

tryItOut 263

tryItOut 264
Compiling threw: SyntaxError: syntax error

tryItOut 265
Compiling threw: SyntaxError: invalid break

tryItOut 266

tryItOut 267

tryItOut 268
It's an iterator!
Iterating succeeded, iterCount == 1

tryItOut 269

tryItOut 270

tryItOut 271
It's an iterator!
Iterating succeeded, iterCount == 1

tryItOut 272

tryItOut 273
Compiling threw: SyntaxError: missing ) in parenthetical

tryItOut 274

tryItOut 275
Compiling threw: SyntaxError: missing ; after for-loop initializer

tryItOut 276

tryItOut 277
Compiling threw: SyntaxError: missing ; after for-loop initializer

tryItOut 278
Compiling threw: SyntaxError: duplicate label

tryItOut 279
Compiling threw: SyntaxError: invalid for/in left-hand side

tryItOut 280
Compiling threw: SyntaxError: invalid assignment left-hand side

tryItOut 281

tryItOut 282
Compiling threw: SyntaxError: invalid assignment left-hand side

tryItOut 283
Compiling threw: SyntaxError: invalid continue

tryItOut 284
Compiling threw: SyntaxError: missing ) in parenthetical

tryItOut 285
Compiling threw: SyntaxError: invalid assignment left-hand side

tryItOut 286

tryItOut 287
Compiling threw: SyntaxError: syntax error

tryItOut 288
Compiling threw: SyntaxError: missing variable name

tryItOut 289
Compiling threw: SyntaxError: label not found

tryItOut 290

tryItOut 291
Compiling threw: SyntaxError: invalid for/in left-hand side

tryItOut 292

tryItOut 293
It's an iterator!
Iterating succeeded, iterCount == 1

tryItOut 294

tryItOut 295
Compiling threw: SyntaxError: missing ) in parenthetical

tryItOut 296
Compiling threw: SyntaxError: invalid break

tryItOut 297
Compiling threw: SyntaxError: missing variable name

tryItOut 298
Compiling threw: SyntaxError: invalid assignment left-hand side

tryItOut 299
Compiling threw: SyntaxError: invalid for/in left-hand side

tryItOut 300

tryItOut 301

tryItOut 302
Compiling threw: SyntaxError: missing variable name

tryItOut 303
Running threw: ReferenceError: window is not defined

tryItOut 304
Compiling threw: SyntaxError: missing variable name

tryItOut 305
Compiling threw: SyntaxError: missing ) in parenthetical

tryItOut 306
Compiling threw: SyntaxError: missing } after let block

tryItOut 307

tryItOut 308
Compiling threw: SyntaxError: missing ) in parenthetical

tryItOut 309
Compiling threw: SyntaxError: syntax error

tryItOut 310
Compiling threw: SyntaxError: missing ) in parenthetical

tryItOut 311
Compiling threw: SyntaxError: syntax error

tryItOut 312
Compiling threw: SyntaxError: syntax error

tryItOut 313
Compiling threw: SyntaxError: invalid for/in left-hand side

tryItOut 314

tryItOut 315
Compiling threw: SyntaxError: invalid for/in left-hand side

tryItOut 316

tryItOut 317
Compiling threw: SyntaxError: duplicate label

tryItOut 318
Compiling threw: SyntaxError: label not found

tryItOut 319
Compiling threw: SyntaxError: duplicate label

tryItOut 320
Compiling threw: SyntaxError: syntax error

tryItOut 321
Compiling threw: TypeError: redeclaration of variable prototype

tryItOut 322
Compiling threw: SyntaxError: label not found

tryItOut 323

tryItOut 324

tryItOut 325
Compiling threw: SyntaxError: missing ; after for-loop initializer

tryItOut 326

tryItOut 327
Compiling threw: SyntaxError: syntax error

tryItOut 328

tryItOut 329
Compiling threw: SyntaxError: missing variable name

tryItOut 330
Compiling threw: SyntaxError: missing = in destructuring declaration

tryItOut 331
Compiling threw: SyntaxError: duplicate label

tryItOut 332
Compiling threw: SyntaxError: invalid for/in left-hand side

tryItOut 333
Compiling threw: SyntaxError: missing ; before statement

tryItOut 334

tryItOut 335
Compiling threw: SyntaxError: label not found

tryItOut 336
Compiling threw: SyntaxError: missing variable name

tryItOut 337

tryItOut 338
Compiling threw: SyntaxError: invalid break

tryItOut 339

tryItOut 340
Compiling threw: SyntaxError: missing ; before statement

tryItOut 341

tryItOut 342
Compiling threw: SyntaxError: label not found

tryItOut 343

tryItOut 344
Compiling threw: SyntaxError: invalid for/in left-hand side

tryItOut 345
Compiling threw: SyntaxError: invalid for/in left-hand side

tryItOut 346
Compiling threw: SyntaxError: missing ; after for-loop initializer

tryItOut 347
Compiling threw: SyntaxError: invalid break

tryItOut 348
It's an iterator!
Iterating threw!
Iterating threw: TypeError: prop has no properties

tryItOut 349
Compiling threw: SyntaxError: syntax error

tryItOut 350
Compiling threw: SyntaxError: invalid for/in left-hand side

tryItOut 351
Compiling threw: SyntaxError: invalid continue

tryItOut 352
Compiling threw: SyntaxError: missing ; after for-loop initializer

tryItOut 353
Compiling threw: SyntaxError: missing variable name

tryItOut 354
Running threw: TypeError: [1, , ].__lookupGetter__("__proto__") is not a function

tryItOut 355

tryItOut 356

tryItOut 357
Compiling threw: SyntaxError: missing ) in parenthetical

tryItOut 358

tryItOut 359
Compiling threw: SyntaxError: label not found

tryItOut 360
Compiling threw: SyntaxError: invalid continue

tryItOut 361

tryItOut 362
Running threw: [object StopIteration]

tryItOut 363
Compiling threw: SyntaxError: missing = in destructuring declaration

tryItOut 364

tryItOut 365
Compiling threw: SyntaxError: invalid destructuring assignment operator

tryItOut 366

tryItOut 367

tryItOut 368
Running threw: ReferenceError: window is not defined

tryItOut 369
It's an iterator!
Iterating succeeded, iterCount == 1

tryItOut 370
Compiling threw: SyntaxError: syntax error

tryItOut 371
Compiling threw: SyntaxError: invalid decrement operand

tryItOut 372
Compiling threw: SyntaxError: missing ( before let head

tryItOut 373
Compiling threw: SyntaxError: label not found

tryItOut 374
Compiling threw: SyntaxError: invalid break

tryItOut 375
Compiling threw: SyntaxError: missing = in destructuring declaration

tryItOut 376

tryItOut 377

tryItOut 378
Compiling threw: SyntaxError: label not found

tryItOut 379
Running threw: [object StopIteration]

tryItOut 380
Compiling threw: SyntaxError: invalid for each loop

tryItOut 381

tryItOut 382
Compiling threw: SyntaxError: invalid continue

tryItOut 383
Compiling threw: SyntaxError: missing ) in parenthetical

tryItOut 384
Compiling threw: SyntaxError: missing while after do-loop body

tryItOut 385
It's an iterator!
Iterating succeeded, iterCount == 2

tryItOut 386
Compiling threw: SyntaxError: invalid for/in left-hand side

tryItOut 387

tryItOut 388

tryItOut 389
Compiling threw: SyntaxError: invalid for/in left-hand side

tryItOut 390
Compiling threw: SyntaxError: syntax error

tryItOut 391
Compiling threw: SyntaxError: invalid for/in left-hand side

tryItOut 392
Compiling threw: SyntaxError: duplicate label

tryItOut 393

tryItOut 394

tryItOut 395

tryItOut 396
Compiling threw: SyntaxError: syntax error

tryItOut 397

tryItOut 398

tryItOut 399
Compiling threw: SyntaxError: invalid assignment left-hand side

tryItOut 400
Compiling threw: SyntaxError: missing ; after for-loop initializer

tryItOut 401

tryItOut 402
Compiling threw: SyntaxError: missing ; after for-loop initializer

tryItOut 403
Compiling threw: SyntaxError: invalid for/in left-hand side

tryItOut 404

tryItOut 405
It's an iterator!
Iterating succeeded, iterCount == 0

tryItOut 406
Compiling threw: SyntaxError: missing ) in parenthetical

tryItOut 407

tryItOut 408

tryItOut 409
Compiling threw: SyntaxError: label not found

tryItOut 410
Compiling threw: SyntaxError: invalid continue

tryItOut 411

tryItOut 412

tryItOut 413
Running threw: [object StopIteration]

tryItOut 414
Running threw: Error: invalid sharp variable use #1#

tryItOut 415
Compiling threw: SyntaxError: invalid break

tryItOut 416

tryItOut 417
Running threw: [object StopIteration]

tryItOut 418
Compiling threw: SyntaxError: missing variable name

tryItOut 419

tryItOut 420
Compiling threw: SyntaxError: missing variable name

tryItOut 421
Compiling threw: SyntaxError: label not found

tryItOut 422

tryItOut 423
Compiling threw: SyntaxError: invalid increment operand

tryItOut 424
Compiling threw: TypeError: redeclaration of var __noSuchMethod__

tryItOut 425
Compiling threw: SyntaxError: label not found

tryItOut 426
Compiling threw: SyntaxError: missing variable name

tryItOut 427
Running threw: [object StopIteration]

tryItOut 428
Compiling threw: SyntaxError: label not found

tryItOut 429
Compiling threw: SyntaxError: missing ; before statement

tryItOut 430
Compiling threw: SyntaxError: syntax error

tryItOut 431
Compiling threw: SyntaxError: invalid decrement operand

tryItOut 432
Compiling threw: SyntaxError: missing : after property id

tryItOut 433
Running threw: Error: invalid sharp variable use #1#

tryItOut 434
Compiling threw: SyntaxError: invalid for/in left-hand side

tryItOut 435
Compiling threw: SyntaxError: invalid for/in left-hand side

tryItOut 436
Compiling threw: SyntaxError: invalid for/in left-hand side

tryItOut 437

tryItOut 438
Compiling threw: SyntaxError: missing ) after condition

tryItOut 439

tryItOut 440
Compiling threw: SyntaxError: label not found

tryItOut 441
It's an iterator!
Iterating succeeded, iterCount == 1

tryItOut 442

tryItOut 443
Compiling threw: SyntaxError: missing variable name

tryItOut 444
Compiling threw: SyntaxError: illegal XML character

tryItOut 445
Compiling threw: SyntaxError: invalid for/in left-hand side

tryItOut 446
Compiling threw: SyntaxError: missing variable name

tryItOut 447

tryItOut 448
Compiling threw: SyntaxError: invalid for/in left-hand side

tryItOut 449

tryItOut 450
Compiling threw: SyntaxError: invalid continue

tryItOut 451
Compiling threw: SyntaxError: syntax error

tryItOut 452
Compiling threw: SyntaxError: invalid assignment left-hand side

tryItOut 453

tryItOut 454
Compiling threw: SyntaxError: label not found

tryItOut 455

tryItOut 456

tryItOut 457
Compiling threw: SyntaxError: invalid break

tryItOut 458
Compiling threw: SyntaxError: invalid assignment left-hand side

tryItOut 459
Compiling threw: SyntaxError: label not found

tryItOut 460
It's an iterator!
Iterating succeeded, iterCount == 1

tryItOut 461
Compiling threw: SyntaxError: label not found

tryItOut 462
Compiling threw: SyntaxError: invalid for each loop

tryItOut 463

tryItOut 464
Compiling threw: SyntaxError: invalid break

tryItOut 465

tryItOut 466
Running threw: [object StopIteration]

tryItOut 467

tryItOut 468
Compiling threw: SyntaxError: invalid break

tryItOut 469
Compiling threw: SyntaxError: missing variable name

tryItOut 470
Compiling threw: SyntaxError: missing ) after for-loop control

tryItOut 471
Compiling threw: SyntaxError: invalid continue

tryItOut 472
Compiling threw: SyntaxError: invalid for each loop

tryItOut 473
Compiling threw: SyntaxError: missing variable name

tryItOut 474
Compiling threw: SyntaxError: invalid continue

tryItOut 475
Compiling threw: SyntaxError: missing variable name

tryItOut 476

tryItOut 477
Compiling threw: SyntaxError: invalid for/in left-hand side

tryItOut 478
Compiling threw: SyntaxError: missing ) in parenthetical

tryItOut 479

tryItOut 480
It's an iterator!
Iterating threw!
Iterating threw: ReferenceError: window is not defined

tryItOut 481
Compiling threw: SyntaxError: invalid for each loop

tryItOut 482
Compiling threw: SyntaxError: missing variable name

tryItOut 483

tryItOut 484
It's an iterator!
Iterating succeeded, iterCount == 1

tryItOut 485
Compiling threw: SyntaxError: missing ) in parenthetical

tryItOut 486
Compiling threw: SyntaxError: label not found

tryItOut 487
Compiling threw: TypeError: redeclaration of const __parent__

tryItOut 488
Compiling threw: SyntaxError: invalid assignment left-hand side

tryItOut 489
Compiling threw: SyntaxError: syntax error

tryItOut 490
Compiling threw: SyntaxError: missing { before function body

tryItOut 491
Compiling threw: SyntaxError: invalid for/in left-hand side

tryItOut 492
Compiling threw: SyntaxError: illegal character

tryItOut 493
Compiling threw: SyntaxError: invalid for/in left-hand side

tryItOut 494

tryItOut 495
Compiling threw: SyntaxError: syntax error

tryItOut 496

tryItOut 497
Running threw: [object StopIteration]

tryItOut 498
Compiling threw: SyntaxError: missing name after . operator

tryItOut 499
It's an iterator!
Iterating threw!
Iterating threw: SyntaxError: invalid assignment left-hand side

tryItOut 500
Compiling threw: SyntaxError: missing ) after condition

tryItOut 501
Compiling threw: SyntaxError: invalid for/in left-hand side

tryItOut 502

tryItOut 503

tryItOut 504

tryItOut 505

tryItOut 506

tryItOut 507

tryItOut 508
Running threw: ReferenceError: window is not defined

tryItOut 509
Compiling threw: SyntaxError: syntax error

tryItOut 510
Compiling threw: SyntaxError: missing ) in parenthetical

tryItOut 511

tryItOut 512
Compiling threw: SyntaxError: label not found

tryItOut 513
It's an iterator!
Iterating succeeded, iterCount == 1

tryItOut 514
Compiling threw: SyntaxError: invalid decrement operand

tryItOut 515

tryItOut 516
Compiling threw: SyntaxError: invalid break

tryItOut 517
Compiling threw: TypeError: redeclaration of variable __iterator__

tryItOut 518
Compiling threw: SyntaxError: invalid break

tryItOut 519
Compiling threw: SyntaxError: invalid assignment left-hand side

tryItOut 520
Compiling threw: SyntaxError: missing ) in parenthetical

tryItOut 521

tryItOut 522
Compiling threw: SyntaxError: invalid for/in left-hand side

tryItOut 523

tryItOut 524
Compiling threw: SyntaxError: missing variable name

tryItOut 525
Compiling threw: SyntaxError: missing ) in parenthetical

tryItOut 526

tryItOut 527
Compiling threw: SyntaxError: syntax error

tryItOut 528
Compiling threw: SyntaxError: syntax error

tryItOut 529
Compiling threw: SyntaxError: invalid property id

tryItOut 530
Compiling threw: SyntaxError: missing ) in parenthetical

tryItOut 531

tryItOut 532

tryItOut 533
It's an iterator!
Iterating succeeded, iterCount == 1

tryItOut 534
Compiling threw: SyntaxError: invalid assignment left-hand side

tryItOut 535
Compiling threw: SyntaxError: syntax error

tryItOut 536
Compiling threw: SyntaxError: invalid for/in left-hand side

tryItOut 537

tryItOut 538
Compiling threw: SyntaxError: missing ) after argument list

tryItOut 539

tryItOut 540

tryItOut 541

tryItOut 542

tryItOut 543
Compiling threw: SyntaxError: invalid decrement operand

tryItOut 544

tryItOut 545
Compiling threw: SyntaxError: missing { before function body

tryItOut 546
Compiling threw: SyntaxError: missing ; after for-loop initializer

tryItOut 547
Compiling threw: SyntaxError: label not found

tryItOut 548
Compiling threw: SyntaxError: syntax error

tryItOut 549
It's an iterator!
Iterating succeeded, iterCount == 0

tryItOut 550
Compiling threw: SyntaxError: missing ) in parenthetical

tryItOut 551
Compiling threw: SyntaxError: missing ; after for-loop initializer

tryItOut 552

tryItOut 553
Compiling threw: SyntaxError: missing variable name

tryItOut 554
Compiling threw: SyntaxError: missing ) in parenthetical

tryItOut 555

tryItOut 556

tryItOut 557

tryItOut 558
It's an iterator!
Iterating succeeded, iterCount == 1

tryItOut 559
Compiling threw: SyntaxError: invalid assignment left-hand side

tryItOut 560
Compiling threw: SyntaxError: label not found

tryItOut 561

tryItOut 562

tryItOut 563
Compiling threw: SyntaxError: invalid for/in left-hand side

tryItOut 564

tryItOut 565
Compiling threw: SyntaxError: invalid for/in left-hand side

tryItOut 566
Compiling threw: SyntaxError: missing ; after for-loop initializer

tryItOut 567
It's an iterator!
Iterating succeeded, iterCount == 1

tryItOut 568

tryItOut 569
Compiling threw: SyntaxError: syntax error

tryItOut 570

tryItOut 571
It's an iterator!
Iterating succeeded, iterCount == 1

tryItOut 572
Compiling threw: SyntaxError: missing ; after for-loop initializer

tryItOut 573
Compiling threw: SyntaxError: missing variable name

tryItOut 574
Running threw: ReferenceError: yyy is not defined

tryItOut 575
Compiling threw: SyntaxError: invalid assignment left-hand side

tryItOut 576
Running threw: [object StopIteration]

tryItOut 577
Compiling threw: SyntaxError: invalid continue

tryItOut 578
Compiling threw: SyntaxError: invalid for/in left-hand side

tryItOut 579

tryItOut 580
Compiling threw: SyntaxError: invalid for/in left-hand side

tryItOut 581
Compiling threw: SyntaxError: invalid for/in left-hand side

tryItOut 582
Compiling threw: TypeError: redeclaration of variable __proto__

tryItOut 583

tryItOut 584
It's an iterator!
Iterating succeeded, iterCount == 1

tryItOut 585

tryItOut 586

tryItOut 587

tryItOut 588
Compiling threw: SyntaxError: missing ; before statement

tryItOut 589
Compiling threw: SyntaxError: invalid assignment left-hand side

tryItOut 590

tryItOut 591
Compiling threw: SyntaxError: invalid assignment left-hand side

tryItOut 592
It's an iterator!
Iterating succeeded, iterCount == 1

tryItOut 593
Running threw: ReferenceError: window is not defined

tryItOut 594
Compiling threw: SyntaxError: syntax error

tryItOut 595

tryItOut 596
Compiling threw: SyntaxError: invalid continue

tryItOut 597
Compiling threw: SyntaxError: label not found

tryItOut 598

tryItOut 599

tryItOut 600
Compiling threw: SyntaxError: label not found

tryItOut 601
Compiling threw: SyntaxError: label not found

tryItOut 602
Compiling threw: SyntaxError: missing ) after condition

tryItOut 603
Compiling threw: SyntaxError: missing while after do-loop body

tryItOut 604
It's an iterator!
Iterating succeeded, iterCount == 1

tryItOut 605

tryItOut 606

tryItOut 607

tryItOut 608
Compiling threw: SyntaxError: invalid for each loop

tryItOut 609
Compiling threw: SyntaxError: duplicate label

tryItOut 610

tryItOut 611

tryItOut 612
Running threw: [object StopIteration]

tryItOut 613
Compiling threw: SyntaxError: label not found

tryItOut 614
Compiling threw: SyntaxError: missing ) in parenthetical

tryItOut 615

tryItOut 616
Compiling threw: SyntaxError: syntax error

tryItOut 617
It's an iterator!
Iterating succeeded, iterCount == 1

tryItOut 618

tryItOut 619
Compiling threw: SyntaxError: invalid for/in left-hand side

tryItOut 620
Compiling threw: SyntaxError: missing ) in parenthetical

tryItOut 621
Compiling threw: SyntaxError: invalid for/in left-hand side

tryItOut 622

tryItOut 623
Running threw: TypeError: [1] is not a function

tryItOut 624

tryItOut 625
Compiling threw: SyntaxError: label not found

tryItOut 626
Compiling threw: SyntaxError: missing variable name

tryItOut 627
Compiling threw: SyntaxError: invalid destructuring assignment operator

tryItOut 628

tryItOut 629
It's an iterator!
Iterating succeeded, iterCount == 1

tryItOut 630
Compiling threw: SyntaxError: label not found

tryItOut 631
Running threw: ReferenceError: window is not defined

tryItOut 632

tryItOut 633
Compiling threw: SyntaxError: invalid destructuring assignment operator

tryItOut 634
Compiling threw: SyntaxError: invalid for/in left-hand side

tryItOut 635
Compiling threw: SyntaxError: missing ; after for-loop initializer

tryItOut 636
Compiling threw: SyntaxError: invalid continue

tryItOut 637
Compiling threw: SyntaxError: missing ) after for-loop control

tryItOut 638

tryItOut 639
Compiling threw: SyntaxError: missing ) in parenthetical

tryItOut 640
It's an iterator!
Iterating succeeded, iterCount == 1

tryItOut 641

tryItOut 642
Compiling threw: SyntaxError: syntax error

tryItOut 643

tryItOut 644

tryItOut 645
Compiling threw: SyntaxError: missing ; before statement

tryItOut 646

tryItOut 647

tryItOut 648
Compiling threw: SyntaxError: missing variable name

tryItOut 649
Compiling threw: SyntaxError: label not found

tryItOut 650
Compiling threw: SyntaxError: invalid continue

tryItOut 651
Compiling threw: SyntaxError: invalid for/in left-hand side

tryItOut 652
Compiling threw: SyntaxError: missing ; before statement

tryItOut 653
Compiling threw: SyntaxError: syntax error

tryItOut 654
Compiling threw: SyntaxError: invalid continue

tryItOut 655
Compiling threw: SyntaxError: syntax error

tryItOut 656
Compiling threw: SyntaxError: missing ) after argument list

tryItOut 657
Running threw: TypeError: arguments[0] has no properties

tryItOut 658
It's an iterator!
Iterating succeeded, iterCount == 2

tryItOut 659

tryItOut 660

tryItOut 661
Compiling threw: SyntaxError: syntax error

tryItOut 662
Compiling threw: TypeError: redeclaration of const prop

tryItOut 663
It's an iterator!
Iterating threw!
Iterating threw: TypeError: [[1]] is not a constructor

tryItOut 664
Compiling threw: TypeError: redeclaration of variable __count__

tryItOut 665
Compiling threw: SyntaxError: syntax error

tryItOut 666
Compiling threw: SyntaxError: missing variable name

tryItOut 667
Compiling threw: SyntaxError: invalid for/in left-hand side

tryItOut 668
It's an iterator!
Iterating succeeded, iterCount == 1

tryItOut 669
It's an iterator!
Iterating succeeded, iterCount == 1

tryItOut 670
Compiling threw: SyntaxError: invalid for/in left-hand side

tryItOut 671

tryItOut 672
Compiling threw: SyntaxError: invalid for/in left-hand side

tryItOut 673
Compiling threw: SyntaxError: missing variable name

tryItOut 674

tryItOut 675

tryItOut 676
Running threw: Error: cyclic __proto__ value

tryItOut 677
Compiling threw: SyntaxError: invalid for each loop

tryItOut 678
Compiling threw: SyntaxError: invalid assignment left-hand side

tryItOut 679
Compiling threw: SyntaxError: invalid assignment left-hand side

tryItOut 680
It's an iterator!
Iterating succeeded, iterCount == 1

tryItOut 681
Compiling threw: TypeError: redeclaration of variable __noSuchMethod__

tryItOut 682
Compiling threw: SyntaxError: invalid for/in left-hand side

tryItOut 683
Compiling threw: SyntaxError: duplicate label

tryItOut 684
Compiling threw: SyntaxError: invalid for/in left-hand side

tryItOut 685
Compiling threw: SyntaxError: missing variable name

tryItOut 686
Running threw: ReferenceError: window is not defined

tryItOut 687

tryItOut 688
Compiling threw: SyntaxError: label not found

tryItOut 689
Compiling threw: SyntaxError: invalid for/in left-hand side

tryItOut 690

tryItOut 691
Compiling threw: SyntaxError: invalid for/in left-hand side

tryItOut 692
Compiling threw: TypeError: redeclaration of const constructor

tryItOut 693

tryItOut 694
Compiling threw: SyntaxError: missing ) in parenthetical

tryItOut 695
Compiling threw: SyntaxError: missing ; after for-loop initializer

tryItOut 696
Compiling threw: SyntaxError: invalid assignment left-hand side

tryItOut 697
Compiling threw: SyntaxError: invalid for/in left-hand side

tryItOut 698

tryItOut 699
Compiling threw: TypeError: redeclaration of variable __iterator__

tryItOut 700
Compiling threw: SyntaxError: invalid for/in left-hand side

tryItOut 701
Compiling threw: SyntaxError: missing ) after condition

tryItOut 702

tryItOut 703
Compiling threw: SyntaxError: duplicate label

tryItOut 704
Compiling threw: SyntaxError: invalid continue

tryItOut 705

tryItOut 706

tryItOut 707
Compiling threw: SyntaxError: label not found

tryItOut 708

tryItOut 709
Compiling threw: SyntaxError: missing ) after condition

tryItOut 710
It's an iterator!
Iterating threw!
Iterating threw: ReferenceError: window is not defined

tryItOut 711
Compiling threw: SyntaxError: syntax error

tryItOut 712
Compiling threw: SyntaxError: invalid for/in left-hand side

tryItOut 713

tryItOut 714
Compiling threw: SyntaxError: missing ) in parenthetical

tryItOut 715
Compiling threw: SyntaxError: invalid for/in left-hand side

tryItOut 716

tryItOut 717
Compiling threw: SyntaxError: invalid continue

tryItOut 718
Compiling threw: SyntaxError: syntax error

tryItOut 719
Compiling threw: SyntaxError: missing ; after for-loop initializer

tryItOut 720
Compiling threw: SyntaxError: missing : after property id

tryItOut 721
Compiling threw: SyntaxError: invalid break

tryItOut 722
Compiling threw: SyntaxError: syntax error

tryItOut 723
It's an iterator!
Iterating threw!
Iterating threw: TypeError: constructor.__proto__ is not a function

tryItOut 724
Compiling threw: SyntaxError: syntax error

tryItOut 725
Compiling threw: SyntaxError: invalid for/in left-hand side

tryItOut 726
Running threw: ReferenceError: window is not defined

tryItOut 727
Compiling threw: SyntaxError: invalid for/in left-hand side

tryItOut 728
It's an iterator!
Iterating succeeded, iterCount == 0

tryItOut 729

tryItOut 730
Compiling threw: SyntaxError: missing ) in parenthetical

tryItOut 731
Compiling threw: SyntaxError: syntax error

tryItOut 732
Compiling threw: SyntaxError: invalid for/in left-hand side

tryItOut 733
Compiling threw: SyntaxError: missing variable name

tryItOut 734
Running threw: ReferenceError: window is not defined

tryItOut 735
Compiling threw: SyntaxError: syntax error

tryItOut 736

tryItOut 737

tryItOut 738
Compiling threw: SyntaxError: illegal character

tryItOut 739
Compiling threw: SyntaxError: invalid for/in left-hand side

tryItOut 740
Compiling threw: TypeError: redeclaration of const prototype

tryItOut 741
Compiling threw: SyntaxError: label not found

tryItOut 742
Compiling threw: SyntaxError: syntax error

tryItOut 743
Compiling threw: SyntaxError: syntax error

tryItOut 744

tryItOut 745

tryItOut 746

tryItOut 747
Compiling threw: SyntaxError: invalid break

tryItOut 748
Compiling threw: SyntaxError: invalid for/in left-hand side

tryItOut 749
Compiling threw: SyntaxError: missing variable name

tryItOut 750
Compiling threw: SyntaxError: missing while after do-loop body

tryItOut 751

tryItOut 752

tryItOut 753

tryItOut 754
Compiling threw: SyntaxError: invalid for/in left-hand side

tryItOut 755

tryItOut 756

tryItOut 757
Compiling threw: SyntaxError: invalid for/in left-hand side

tryItOut 758

tryItOut 759
Compiling threw: SyntaxError: invalid assignment left-hand side

tryItOut 760
Compiling threw: SyntaxError: missing ( before switch expression

tryItOut 761
Compiling threw: SyntaxError: label not found

tryItOut 762
Compiling threw: SyntaxError: missing ; after for-loop initializer

tryItOut 763

tryItOut 764
Compiling threw: SyntaxError: invalid for/in left-hand side

tryItOut 765
Compiling threw: SyntaxError: missing ; after for-loop initializer

tryItOut 766
Compiling threw: SyntaxError: invalid decrement operand

tryItOut 767
Compiling threw: SyntaxError: missing variable name

tryItOut 768
Compiling threw: SyntaxError: missing ( before let head

tryItOut 769
Compiling threw: SyntaxError: syntax error

tryItOut 770
Compiling threw: SyntaxError: syntax error

tryItOut 771
Running threw: [object StopIteration]

tryItOut 772
Compiling threw: SyntaxError: missing ) in parenthetical

tryItOut 773

tryItOut 774
Compiling threw: SyntaxError: missing = in destructuring declaration

tryItOut 775

tryItOut 776
It's an iterator!
Iterating succeeded, iterCount == 1

tryItOut 777
Compiling threw: SyntaxError: label not found

tryItOut 778

tryItOut 779

tryItOut 780
Compiling threw: SyntaxError: syntax error

tryItOut 781

tryItOut 782
Compiling threw: SyntaxError: invalid for/in left-hand side

tryItOut 783

tryItOut 784
Compiling threw: SyntaxError: invalid for/in left-hand side

tryItOut 785
It's an iterator!
Iterating threw!
Iterating threw: TypeError: true is not a function

tryItOut 786
Compiling threw: TypeError: redeclaration of const prototype

tryItOut 787
Compiling threw: SyntaxError: missing variable name

tryItOut 788
Compiling threw: SyntaxError: missing variable name

tryItOut 789

tryItOut 790
Compiling threw: SyntaxError: invalid continue

tryItOut 791
Compiling threw: SyntaxError: missing ; after for-loop initializer

tryItOut 792

tryItOut 793
Compiling threw: SyntaxError: invalid assignment left-hand side

tryItOut 794

tryItOut 795
Compiling threw: SyntaxError: label not found

tryItOut 796

tryItOut 797
Running threw: ReferenceError: window is not defined

tryItOut 798
Compiling threw: SyntaxError: invalid for/in left-hand side

tryItOut 799
Compiling threw: SyntaxError: missing ) after argument list

tryItOut 800
Compiling threw: SyntaxError: syntax error

tryItOut 801
Compiling threw: SyntaxError: missing variable name

tryItOut 802
Compiling threw: SyntaxError: missing ) in parenthetical

tryItOut 803

tryItOut 804

tryItOut 805

tryItOut 806
Compiling threw: SyntaxError: missing { before function body

tryItOut 807

tryItOut 808

tryItOut 809
Compiling threw: SyntaxError: missing variable name

tryItOut 810
Compiling threw: SyntaxError: invalid break

tryItOut 811
Compiling threw: SyntaxError: syntax error

tryItOut 812

tryItOut 813

tryItOut 814

tryItOut 815
Compiling threw: SyntaxError: label not found

tryItOut 816
Compiling threw: SyntaxError: syntax error

tryItOut 817
Compiling threw: SyntaxError: invalid for/in left-hand side

tryItOut 818
It's an iterator!
Iterating succeeded, iterCount == 2

tryItOut 819

tryItOut 820
Compiling threw: SyntaxError: syntax error

tryItOut 821
Compiling threw: SyntaxError: missing { before function body

tryItOut 822
Compiling threw: SyntaxError: invalid assignment left-hand side

tryItOut 823

tryItOut 824
Compiling threw: SyntaxError: syntax error

tryItOut 825
Compiling threw: SyntaxError: invalid break

tryItOut 826
Compiling threw: SyntaxError: missing ) in parenthetical

tryItOut 827

tryItOut 828
Compiling threw: SyntaxError: missing variable name

tryItOut 829
Compiling threw: SyntaxError: invalid break

tryItOut 830
Compiling threw: SyntaxError: missing ) after argument list

tryItOut 831

tryItOut 832

tryItOut 833
Compiling threw: SyntaxError: invalid for each loop

tryItOut 834
Compiling threw: SyntaxError: missing : in conditional expression

tryItOut 835

tryItOut 836

tryItOut 837
Compiling threw: SyntaxError: invalid for/in left-hand side

tryItOut 838
Compiling threw: SyntaxError: missing ) after condition

tryItOut 839
Compiling threw: SyntaxError: invalid for/in left-hand side

tryItOut 840
It's an iterator!
Iterating succeeded, iterCount == 0

tryItOut 841

tryItOut 842

tryItOut 843
Compiling threw: SyntaxError: missing ; before statement

tryItOut 844
Compiling threw: SyntaxError: missing ; before statement

tryItOut 845
It's an iterator!
Iterating threw!
Iterating threw: TypeError: __proto__['let'] has no properties

tryItOut 846

tryItOut 847
Compiling threw: SyntaxError: label not found

tryItOut 848
It's an iterator!
Iterating succeeded, iterCount == 1

tryItOut 849
Compiling threw: SyntaxError: missing ) in parenthetical

tryItOut 850
Compiling threw: SyntaxError: label not found

tryItOut 851
Compiling threw: SyntaxError: missing ) in parenthetical

tryItOut 852

tryItOut 853
Compiling threw: SyntaxError: syntax error

tryItOut 854

tryItOut 855
Compiling threw: SyntaxError: missing ) in parenthetical

tryItOut 856
Compiling threw: SyntaxError: invalid for/in left-hand side

tryItOut 857
Compiling threw: SyntaxError: syntax error

tryItOut 858

tryItOut 859
Compiling threw: SyntaxError: duplicate label

tryItOut 860
Compiling threw: SyntaxError: invalid assignment left-hand side

tryItOut 861
Compiling threw: SyntaxError: invalid for/in left-hand side

tryItOut 862

tryItOut 863
Compiling threw: SyntaxError: syntax error

tryItOut 864
Compiling threw: SyntaxError: invalid assignment left-hand side

tryItOut 865

tryItOut 866

tryItOut 867

tryItOut 868

tryItOut 869
It's an iterator!
Iterating succeeded, iterCount == 1

tryItOut 870
Compiling threw: SyntaxError: invalid for/in left-hand side

tryItOut 871

tryItOut 872
Compiling threw: SyntaxError: invalid for/in left-hand side

tryItOut 873

tryItOut 874

tryItOut 875
Compiling threw: SyntaxError: invalid assignment left-hand side

tryItOut 876

tryItOut 877
Compiling threw: SyntaxError: label not found

tryItOut 878
Compiling threw: SyntaxError: syntax error

tryItOut 879

tryItOut 880
Compiling threw: SyntaxError: invalid for/in left-hand side

tryItOut 881
Compiling threw: SyntaxError: missing } after let block

tryItOut 882
Compiling threw: SyntaxError: missing ) in parenthetical

tryItOut 883

tryItOut 884
Compiling threw: SyntaxError: invalid break

tryItOut 885
Running threw: ReferenceError: z1 is not defined

tryItOut 886
Compiling threw: SyntaxError: label not found

tryItOut 887
Compiling threw: SyntaxError: missing ) after argument list

tryItOut 888

tryItOut 889

tryItOut 890
Compiling threw: SyntaxError: invalid for/in left-hand side

tryItOut 891
Compiling threw: SyntaxError: syntax error

tryItOut 892

tryItOut 893
It's an iterator!
Iterating succeeded, iterCount == 1

tryItOut 894

tryItOut 895
Compiling threw: SyntaxError: missing ) after for-loop control

tryItOut 896
Compiling threw: SyntaxError: invalid assignment left-hand side

tryItOut 897
Compiling threw: SyntaxError: missing variable name

tryItOut 898
Compiling threw: SyntaxError: missing ] after element list

tryItOut 899
Compiling threw: SyntaxError: syntax error

tryItOut 900
It's an iterator!
Iterating succeeded, iterCount == 1

tryItOut 901

tryItOut 902

tryItOut 903

tryItOut 904

tryItOut 905
Compiling threw: SyntaxError: invalid continue

tryItOut 906
Compiling threw: SyntaxError: invalid for/in left-hand side

tryItOut 907
Compiling threw: SyntaxError: invalid for each loop

tryItOut 908

tryItOut 909
Compiling threw: SyntaxError: invalid destructuring assignment operator

tryItOut 910
Compiling threw: SyntaxError: label not found

tryItOut 911
It's an iterator!
Iterating succeeded, iterCount == 1

tryItOut 912
Compiling threw: SyntaxError: syntax error

tryItOut 913
Compiling threw: SyntaxError: invalid continue

tryItOut 914
Compiling threw: SyntaxError: missing ) in parenthetical

tryItOut 915
Compiling threw: SyntaxError: missing ) in parenthetical

tryItOut 916
Compiling threw: SyntaxError: missing name after . operator

tryItOut 917
Compiling threw: SyntaxError: missing = in destructuring declaration

tryItOut 918
Compiling threw: SyntaxError: invalid for/in left-hand side

tryItOut 919
Compiling threw: SyntaxError: invalid for/in left-hand side

tryItOut 920
Running threw: [object StopIteration]

tryItOut 921
Compiling threw: SyntaxError: missing variable name

tryItOut 922
It's an iterator!
Iterating succeeded, iterCount == 2

tryItOut 923
Compiling threw: SyntaxError: invalid for/in left-hand side

tryItOut 924

tryItOut 925

tryItOut 926

tryItOut 927
Compiling threw: SyntaxError: invalid for/in left-hand side

tryItOut 928
Compiling threw: SyntaxError: syntax error

tryItOut 929
Compiling threw: SyntaxError: invalid assignment left-hand side

tryItOut 930
Compiling threw: SyntaxError: missing ; after for-loop initializer

tryItOut 931
Compiling threw: SyntaxError: label not found

tryItOut 932
Compiling threw: SyntaxError: missing { before function body

tryItOut 933

tryItOut 934
Compiling threw: SyntaxError: missing ) in parenthetical

tryItOut 935
Compiling threw: SyntaxError: invalid for/in left-hand side

tryItOut 936
Compiling threw: SyntaxError: label not found

tryItOut 937
Compiling threw: SyntaxError: missing = in destructuring declaration

tryItOut 938
Compiling threw: SyntaxError: missing ) in parenthetical

tryItOut 939
Compiling threw: SyntaxError: invalid for/in left-hand side

tryItOut 940
Compiling threw: SyntaxError: missing variable name

tryItOut 941
Compiling threw: SyntaxError: invalid decrement operand

tryItOut 942

tryItOut 943
Running threw: [object StopIteration]

tryItOut 944
Running threw: [object StopIteration]

tryItOut 945
Compiling threw: SyntaxError: invalid for/in left-hand side

tryItOut 946

tryItOut 947
It's an iterator!
Iterating succeeded, iterCount == 1

tryItOut 948

tryItOut 949
Compiling threw: SyntaxError: invalid for/in left-hand side

tryItOut 950

tryItOut 951

tryItOut 952

tryItOut 953
Compiling threw: SyntaxError: invalid for/in left-hand side

tryItOut 954
Compiling threw: TypeError: redeclaration of variable constructor

tryItOut 955
Compiling threw: SyntaxError: invalid for/in left-hand side

tryItOut 956
Compiling threw: SyntaxError: syntax error

tryItOut 957

tryItOut 958

tryItOut 959
It's an iterator!
Iterating succeeded, iterCount == 1

tryItOut 960

tryItOut 961
Compiling threw: SyntaxError: syntax error

tryItOut 962
Compiling threw: TypeError: redeclaration of variable __proto__

tryItOut 963
Compiling threw: SyntaxError: missing ) after for-loop control

tryItOut 964
Compiling threw: SyntaxError: invalid for/in left-hand side

tryItOut 965

tryItOut 966
Compiling threw: SyntaxError: invalid break

tryItOut 967

tryItOut 968
Compiling threw: SyntaxError: invalid for/in left-hand side

tryItOut 969
Compiling threw: SyntaxError: missing variable name

tryItOut 970
It's an iterator!
Iterating succeeded, iterCount == 0

tryItOut 971
It's an iterator!
Iterating succeeded, iterCount == 1

tryItOut 972

tryItOut 973
Compiling threw: SyntaxError: invalid for/in left-hand side

tryItOut 974

tryItOut 975

tryItOut 976
Compiling threw: SyntaxError: invalid for/in left-hand side

tryItOut 977

tryItOut 978

tryItOut 979
Compiling threw: SyntaxError: invalid assignment left-hand side

tryItOut 980
Compiling threw: SyntaxError: invalid for/in left-hand side

tryItOut 981

tryItOut 982

tryItOut 983
Compiling threw: SyntaxError: invalid for/in left-hand side

tryItOut 984

tryItOut 985
It's an iterator!
Iterating succeeded, iterCount == 1

tryItOut 986

tryItOut 987
Compiling threw: SyntaxError: missing ; before statement

tryItOut 988
Compiling threw: SyntaxError: label not found

tryItOut 989

tryItOut 990
Compiling threw: SyntaxError: missing { before function body

tryItOut 991
Compiling threw: SyntaxError: missing ) in parenthetical

tryItOut 992
Compiling threw: SyntaxError: invalid assignment left-hand side

tryItOut 993
Compiling threw: SyntaxError: missing } after property list

tryItOut 994

tryItOut 995

tryItOut 996

tryItOut 997

tryItOut 998
Compiling threw: SyntaxError: missing ; before statement

tryItOut 999
Compiling threw: SyntaxError: syntax error

tryItOut 1000
Compiling threw: SyntaxError: syntax error

ALL OK

Script done on Sat 04 May 2013 07:43:13 AM PDT
