Script started on Sat 04 May 2013 07:43:48 AM PDT
***
Targeting SpiderMonkey / Gecko.

tryItOut 1

tryItOut 2
Running threw: [object global]

tryItOut 3
Compiling threw: SyntaxError: missing ; after for-loop initializer

tryItOut 4

tryItOut 5
Compiling threw: SyntaxError: syntax error

tryItOut 6
Running threw: TypeError: this.zzz has no properties

tryItOut 7
Compiling threw: SyntaxError: invalid decrement operand

tryItOut 8

tryItOut 9
Running threw: TypeError: arguments[0] has no properties

tryItOut 10
Compiling threw: SyntaxError: missing variable name

tryItOut 11

tryItOut 12
Running threw: ReferenceError: reference to undefined XML name @foo

tryItOut 13

tryItOut 14
Compiling threw: SyntaxError: syntax error

tryItOut 15
Compiling threw: TypeError: redeclaration of variable __parent__

tryItOut 16
Compiling threw: SyntaxError: syntax error

tryItOut 17

tryItOut 18
Compiling threw: SyntaxError: invalid for/in left-hand side

tryItOut 19

tryItOut 20
Running threw: 1e+81

tryItOut 21
Compiling threw: SyntaxError: label not found

tryItOut 22

tryItOut 23
Compiling threw: SyntaxError: missing { before function body

tryItOut 24

tryItOut 25
Compiling threw: SyntaxError: missing } after let block

tryItOut 26

tryItOut 27

tryItOut 28
Compiling threw: TypeError: redeclaration of variable __noSuchMethod__

tryItOut 29
Compiling threw: SyntaxError: invalid for/in left-hand side

tryItOut 30
Compiling threw: SyntaxError: invalid for/in left-hand side

tryItOut 31

tryItOut 32

tryItOut 33
Compiling threw: SyntaxError: missing { before function body

tryItOut 34

tryItOut 35
Compiling threw: SyntaxError: missing variable name

tryItOut 36

tryItOut 37
Compiling threw: TypeError: redeclaration of variable __parent__

tryItOut 38

tryItOut 39
Compiling threw: SyntaxError: invalid assignment left-hand side

tryItOut 40
Running threw: TypeError: this.zzz has no properties

tryItOut 41

tryItOut 42

tryItOut 43

tryItOut 44
Compiling threw: SyntaxError: label not found

tryItOut 45
Compiling threw: SyntaxError: label not found

tryItOut 46

tryItOut 47

tryItOut 48
Compiling threw: SyntaxError: missing variable name

tryItOut 49

tryItOut 50

tryItOut 51

tryItOut 52

tryItOut 53
Running threw: [object StopIteration]

tryItOut 54
Compiling threw: SyntaxError: invalid for/in left-hand side

tryItOut 55

tryItOut 56

tryItOut 57

tryItOut 58

tryItOut 59
Compiling threw: SyntaxError: missing variable name

tryItOut 60
Compiling threw: SyntaxError: syntax error

tryItOut 61

tryItOut 62
Compiling threw: SyntaxError: label not found

tryItOut 63

tryItOut 64
Compiling threw: SyntaxError: missing ; after for-loop condition

tryItOut 65

tryItOut 66

tryItOut 67

tryItOut 68

tryItOut 69
Compiling threw: SyntaxError: invalid for/in left-hand side

tryItOut 70
It's an iterator!
Iterating succeeded, iterCount == 1

tryItOut 71

tryItOut 72
Compiling threw: SyntaxError: missing variable name

tryItOut 73
Compiling threw: SyntaxError: catch without try

tryItOut 74
Compiling threw: SyntaxError: invalid assignment left-hand side

tryItOut 75

tryItOut 76
Compiling threw: SyntaxError: invalid for/in left-hand side

tryItOut 77

tryItOut 78
Compiling threw: SyntaxError: invalid for/in left-hand side

tryItOut 79
Compiling threw: SyntaxError: missing ; after for-loop initializer

tryItOut 80

tryItOut 81
Running threw: ReferenceError: __iterator__ is not defined

tryItOut 82

tryItOut 83
Compiling threw: SyntaxError: missing ) in parenthetical

tryItOut 84
Compiling threw: SyntaxError: invalid for/in left-hand side

tryItOut 85
Compiling threw: SyntaxError: syntax error

tryItOut 86

tryItOut 87
Compiling threw: SyntaxError: missing ) in parenthetical

tryItOut 88
Running threw: TypeError: this.zzz has no properties

tryItOut 89
Compiling threw: SyntaxError: missing ; before statement

tryItOut 90
Compiling threw: SyntaxError: syntax error

tryItOut 91
Compiling threw: SyntaxError: syntax error

tryItOut 92
Compiling threw: SyntaxError: invalid for/in left-hand side

tryItOut 93
Compiling threw: SyntaxError: invalid for/in left-hand side

tryItOut 94

tryItOut 95
Compiling threw: SyntaxError: missing = in destructuring declaration

tryItOut 96
Compiling threw: SyntaxError: invalid for/in left-hand side

tryItOut 97
Compiling threw: SyntaxError: invalid for/in left-hand side

tryItOut 98
Compiling threw: SyntaxError: invalid assignment left-hand side

tryItOut 99

tryItOut 100
Compiling threw: SyntaxError: missing variable name

tryItOut 101

tryItOut 102

tryItOut 103
Compiling threw: SyntaxError: invalid for/in left-hand side

tryItOut 104

tryItOut 105
Compiling threw: SyntaxError: syntax error

tryItOut 106
Compiling threw: SyntaxError: missing name in export statement

tryItOut 107

tryItOut 108

tryItOut 109
Running threw: ReferenceError: __iterator__ is not defined

tryItOut 110
Running threw: [object StopIteration]

tryItOut 111

tryItOut 112
It's an iterator!
Iterating threw!
Iterating threw: ReferenceError: reference to undefined XML name @foo

tryItOut 113

tryItOut 114
It's an iterator!
Iterating threw!
Iterating threw: InternalError: yield not yet supported from filtering predicate

tryItOut 115

tryItOut 116
Compiling threw: SyntaxError: syntax error

tryItOut 117
Compiling threw: SyntaxError: missing { before function body

tryItOut 118
It's an iterator!
Iterating succeeded, iterCount == 0

tryItOut 119
Running threw: ReferenceError: reference to undefined XML name *

tryItOut 120
Running threw: ReferenceError: reference to undefined XML name @foo

tryItOut 121
Compiling threw: SyntaxError: missing ) in parenthetical

tryItOut 122

tryItOut 123
Running threw: ReferenceError: z2 is not defined

tryItOut 124

tryItOut 125

tryItOut 126

tryItOut 127

tryItOut 128

tryItOut 129
Compiling threw: SyntaxError: missing variable name

tryItOut 130
Compiling threw: SyntaxError: syntax error

tryItOut 131
Compiling threw: SyntaxError: missing ; after for-loop initializer

tryItOut 132

tryItOut 133

tryItOut 134
Compiling threw: SyntaxError: missing name after . operator

tryItOut 135

tryItOut 136
Compiling threw: SyntaxError: syntax error

tryItOut 137

tryItOut 138
Running threw: ReferenceError: prop is not defined

tryItOut 139
Running threw: ReferenceError: reference to undefined XML name *::*

tryItOut 140

tryItOut 141

tryItOut 142
Compiling threw: SyntaxError: missing ) in parenthetical

tryItOut 143

tryItOut 144

tryItOut 145
Running threw: TypeError: this.zzz has no properties

tryItOut 146
Compiling threw: SyntaxError: missing variable name

tryItOut 147

tryItOut 148

tryItOut 149
Compiling threw: SyntaxError: missing ) after switch expression

tryItOut 150

tryItOut 151
Compiling threw: SyntaxError: syntax error

tryItOut 152
It's an iterator!
Iterating succeeded, iterCount == 1

tryItOut 153
Compiling threw: SyntaxError: missing variable name

tryItOut 154
Running threw: [object StopIteration]

tryItOut 155

tryItOut 156
Compiling threw: SyntaxError: syntax error

tryItOut 157
Compiling threw: SyntaxError: invalid XML tag syntax

tryItOut 158

tryItOut 159
Compiling threw: SyntaxError: missing variable name

tryItOut 160
Compiling threw: SyntaxError: missing = in destructuring declaration

tryItOut 161
Compiling threw: SyntaxError: label not found

tryItOut 162
It's an iterator!
Iterating threw!
Iterating threw: ReferenceError: __noSuchMethod__ is not defined

tryItOut 163
Compiling threw: SyntaxError: invalid for/in left-hand side

tryItOut 164
Compiling threw: SyntaxError: invalid for/in left-hand side

tryItOut 165

tryItOut 166

tryItOut 167
Compiling threw: SyntaxError: label not found

tryItOut 168
Compiling threw: SyntaxError: missing variable name

tryItOut 169
Compiling threw: SyntaxError: missing ; after for-loop initializer

tryItOut 170

tryItOut 171

tryItOut 172

tryItOut 173

tryItOut 174
Compiling threw: SyntaxError: missing ) in parenthetical

tryItOut 175
Compiling threw: SyntaxError: missing variable name

tryItOut 176
It's an iterator!
Iterating threw!
Iterating threw: ReferenceError: window is not defined

tryItOut 177

tryItOut 178
Compiling threw: SyntaxError: missing variable name

tryItOut 179

tryItOut 180

tryItOut 181

tryItOut 182
Compiling threw: SyntaxError: missing ) after argument list

tryItOut 183
Compiling threw: SyntaxError: missing ; after for-loop initializer

tryItOut 184
Compiling threw: SyntaxError: invalid for/in left-hand side

tryItOut 185
Compiling threw: SyntaxError: invalid assignment left-hand side

tryItOut 186
Compiling threw: SyntaxError: missing ; after for-loop initializer

tryItOut 187
Running threw: ReferenceError: reference to undefined XML name @foo

tryItOut 188

tryItOut 189

tryItOut 190
Compiling threw: SyntaxError: missing } after let block

tryItOut 191
Compiling threw: SyntaxError: invalid for/in left-hand side

tryItOut 192

tryItOut 193

tryItOut 194
Running threw: [object StopIteration]

tryItOut 195

tryItOut 196
Running threw: TypeError: this.zzz has no properties

tryItOut 197

tryItOut 198
Compiling threw: SyntaxError: invalid break

tryItOut 199

tryItOut 200

tryItOut 201

tryItOut 202
Running threw: ReferenceError: constructor is not defined

tryItOut 203

tryItOut 204

tryItOut 205
Compiling threw: SyntaxError: missing ; before statement

tryItOut 206
Compiling threw: SyntaxError: invalid for/in left-hand side

tryItOut 207
Compiling threw: SyntaxError: invalid for/in left-hand side

tryItOut 208
Compiling threw: SyntaxError: label not found

tryItOut 209

tryItOut 210

tryItOut 211
Running threw: TypeError: this.zzz has no properties

tryItOut 212

tryItOut 213
Compiling threw: SyntaxError: yield expression must be parenthesized

tryItOut 214
Compiling threw: SyntaxError: invalid for/in left-hand side

tryItOut 215
Compiling threw: SyntaxError: missing } after let block

tryItOut 216
Compiling threw: SyntaxError: invalid for/in left-hand side

tryItOut 217
Compiling threw: SyntaxError: invalid for/in left-hand side

tryItOut 218

tryItOut 219

tryItOut 220
Running threw: ReferenceError: reference to undefined XML name *

tryItOut 221
Compiling threw: SyntaxError: syntax error

tryItOut 222
Running threw: TypeError: this.zzz has no properties

tryItOut 223
Compiling threw: SyntaxError: missing variable name

tryItOut 224

tryItOut 225
Compiling threw: SyntaxError: invalid assignment left-hand side

tryItOut 226
Compiling threw: SyntaxError: syntax error

tryItOut 227

tryItOut 228
Compiling threw: SyntaxError: syntax error

tryItOut 229
Compiling threw: SyntaxError: syntax error

tryItOut 230
Compiling threw: SyntaxError: missing ) in parenthetical

tryItOut 231

tryItOut 232

tryItOut 233

tryItOut 234
Compiling threw: SyntaxError: invalid decrement operand

tryItOut 235
Running threw: ReferenceError: reference to undefined XML name @foo

tryItOut 236

tryItOut 237

tryItOut 238

tryItOut 239
Compiling threw: SyntaxError: missing variable name

tryItOut 240

tryItOut 241

tryItOut 242

tryItOut 243
Compiling threw: SyntaxError: missing } after let block

tryItOut 244
Compiling threw: SyntaxError: syntax error

tryItOut 245
Compiling threw: SyntaxError: missing ) in parenthetical

tryItOut 246

tryItOut 247
Compiling threw: SyntaxError: label not found

tryItOut 248

tryItOut 249
Compiling threw: SyntaxError: missing ) in parenthetical

tryItOut 250
Compiling threw: SyntaxError: invalid for/in left-hand side

tryItOut 251
Compiling threw: SyntaxError: missing ) in parenthetical

tryItOut 252
Compiling threw: SyntaxError: missing variable name

tryItOut 253
Running threw: ReferenceError: __parent__ is not defined

tryItOut 254

tryItOut 255
Compiling threw: SyntaxError: syntax error

tryItOut 256
Compiling threw: SyntaxError: invalid for/in left-hand side

tryItOut 257
Running threw: TypeError: this.zzz has no properties

tryItOut 258
It's an iterator!
Iterating succeeded, iterCount == 1

tryItOut 259
It's an iterator!
Iterating succeeded, iterCount == 1

tryItOut 260

tryItOut 261
Compiling threw: SyntaxError: missing variable name

tryItOut 262
Running threw: [object StopIteration]

tryItOut 263
Compiling threw: SyntaxError: missing variable name

tryItOut 264

tryItOut 265
Compiling threw: SyntaxError: missing ; after for-loop initializer

tryItOut 266

tryItOut 267

tryItOut 268

tryItOut 269

tryItOut 270
Compiling threw: SyntaxError: missing { before function body

tryItOut 271

tryItOut 272
Running threw: ReferenceError: __count__ is not defined

tryItOut 273

tryItOut 274
Compiling threw: SyntaxError: missing ) after condition

tryItOut 275
Compiling threw: SyntaxError: invalid for/in left-hand side

tryItOut 276
Running threw: Can't toString the error!!

tryItOut 277

tryItOut 278
Compiling threw: TypeError: redeclaration of variable prototype

tryItOut 279

tryItOut 280
Compiling threw: SyntaxError: syntax error

tryItOut 281
Compiling threw: SyntaxError: invalid break

tryItOut 282
Running threw: ReferenceError: z2 is not defined

tryItOut 283

tryItOut 284
Compiling threw: SyntaxError: syntax error

tryItOut 285
Running threw: [object StopIteration]

tryItOut 286

tryItOut 287
Compiling threw: SyntaxError: syntax error

tryItOut 288
Compiling threw: SyntaxError: missing ; after for-loop initializer

tryItOut 289

tryItOut 290
Compiling threw: SyntaxError: syntax error

tryItOut 291
Compiling threw: SyntaxError: syntax error

tryItOut 292
Compiling threw: SyntaxError: missing ) in parenthetical

tryItOut 293

tryItOut 294
Compiling threw: SyntaxError: invalid increment operand

tryItOut 295

tryItOut 296
Running threw: ReferenceError: reference to undefined XML name @mozilla.org/js/function::__proto__

tryItOut 297
Compiling threw: SyntaxError: missing { before function body

tryItOut 298
Compiling threw: SyntaxError: invalid for/in left-hand side

tryItOut 299

tryItOut 300

tryItOut 301
Running threw: ReferenceError: reference to undefined XML name *

tryItOut 302

tryItOut 303
Compiling threw: SyntaxError: missing ; before statement

tryItOut 304

tryItOut 305

tryItOut 306
Compiling threw: SyntaxError: syntax error

tryItOut 307
Running threw: TypeError: this.zzz has no properties

tryItOut 308
Compiling threw: SyntaxError: invalid continue

tryItOut 309

tryItOut 310

tryItOut 311

tryItOut 312

tryItOut 313
Compiling threw: SyntaxError: syntax error

tryItOut 314

tryItOut 315
Compiling threw: SyntaxError: label not found

tryItOut 316

tryItOut 317
Compiling threw: SyntaxError: missing } after let block

tryItOut 318
Compiling threw: SyntaxError: invalid increment operand

tryItOut 319
Compiling threw: SyntaxError: missing ; after for-loop initializer

tryItOut 320
Compiling threw: SyntaxError: syntax error

tryItOut 321
Compiling threw: TypeError: redeclaration of variable __proto__

tryItOut 322
Compiling threw: SyntaxError: missing ) in parenthetical

tryItOut 323
Compiling threw: SyntaxError: syntax error

tryItOut 324
Running threw: ReferenceError: reference to undefined XML name *::*

tryItOut 325
Compiling threw: SyntaxError: missing while after do-loop body

tryItOut 326
Compiling threw: SyntaxError: missing variable name

tryItOut 327
Running threw: TypeError: this.zzz has no properties

tryItOut 328
Compiling threw: SyntaxError: missing ( after for

tryItOut 329

tryItOut 330
Compiling threw: SyntaxError: missing variable name

tryItOut 331

tryItOut 332
Compiling threw: SyntaxError: syntax error

tryItOut 333
Compiling threw: SyntaxError: missing ) in parenthetical

tryItOut 334

tryItOut 335

tryItOut 336
Compiling threw: SyntaxError: missing ) in parenthetical

tryItOut 337
Running threw: TypeError: this.zzz has no properties

tryItOut 338
Running threw: [object Object]

tryItOut 339
It's an iterator!
Iterating succeeded, iterCount == 1

tryItOut 340

tryItOut 341

tryItOut 342

tryItOut 343
Running threw: [object StopIteration]

tryItOut 344

tryItOut 345
Compiling threw: SyntaxError: syntax error

tryItOut 346

tryItOut 347
Compiling threw: SyntaxError: invalid assignment left-hand side

tryItOut 348

tryItOut 349
Compiling threw: SyntaxError: label not found

tryItOut 350

tryItOut 351
Running threw: ReferenceError: reference to undefined XML name *::*

tryItOut 352
It's an iterator!
Iterating threw!
Iterating threw: ReferenceError: window is not defined

tryItOut 353
Compiling threw: SyntaxError: invalid for/in left-hand side

tryItOut 354
Compiling threw: SyntaxError: missing ; before statement

tryItOut 355
Compiling threw: SyntaxError: missing variable name

tryItOut 356
Compiling threw: SyntaxError: missing { before function body

tryItOut 357

tryItOut 358
Compiling threw: SyntaxError: missing ) in parenthetical

tryItOut 359
Compiling threw: SyntaxError: syntax error

tryItOut 360

tryItOut 361
Compiling threw: SyntaxError: missing ) after condition

tryItOut 362

tryItOut 363
Compiling threw: SyntaxError: label not found

tryItOut 364

tryItOut 365
Running threw: Can't toString the error!!

tryItOut 366
Compiling threw: SyntaxError: syntax error

tryItOut 367

tryItOut 368
Compiling threw: SyntaxError: missing variable name

tryItOut 369
It's an iterator!
Iterating succeeded, iterCount == 1

tryItOut 370

tryItOut 371
Compiling threw: SyntaxError: invalid destructuring assignment operator

tryItOut 372
Compiling threw: SyntaxError: missing ) in parenthetical

tryItOut 373
Compiling threw: SyntaxError: missing variable name

tryItOut 374
Compiling threw: TypeError: redeclaration of variable __iterator__

tryItOut 375
Compiling threw: SyntaxError: invalid for/in left-hand side

tryItOut 376

tryItOut 377
Compiling threw: SyntaxError: missing variable name

tryItOut 378

tryItOut 379
Compiling threw: SyntaxError: invalid for/in left-hand side

tryItOut 380
Compiling threw: SyntaxError: label not found

tryItOut 381
Compiling threw: SyntaxError: invalid for/in left-hand side

tryItOut 382
Compiling threw: SyntaxError: missing ) in parenthetical

tryItOut 383

tryItOut 384

tryItOut 385

tryItOut 386

tryItOut 387
Compiling threw: SyntaxError: missing variable name

tryItOut 388

tryItOut 389

tryItOut 390
Compiling threw: SyntaxError: syntax error

tryItOut 391

tryItOut 392
Compiling threw: SyntaxError: missing variable name

tryItOut 393

tryItOut 394
Compiling threw: SyntaxError: missing ) in parenthetical

tryItOut 395

tryItOut 396
Running threw: TypeError: this.zzz has no properties

tryItOut 397

tryItOut 398
Compiling threw: SyntaxError: missing ) after condition

tryItOut 399
Compiling threw: SyntaxError: missing = in destructuring declaration

tryItOut 400
Compiling threw: SyntaxError: syntax error

tryItOut 401

tryItOut 402
Running threw: [object StopIteration]

tryItOut 403
Running threw: ReferenceError: reference to undefined XML name @foo

tryItOut 404

tryItOut 405

tryItOut 406

tryItOut 407
Compiling threw: SyntaxError: syntax error

tryItOut 408

tryItOut 409
It's an iterator!
Iterating threw!
Iterating threw: ReferenceError: reference to undefined XML name *::*

tryItOut 410
Running threw: [object StopIteration]

tryItOut 411

tryItOut 412

tryItOut 413
Compiling threw: SyntaxError: missing ) in parenthetical

tryItOut 414
Compiling threw: SyntaxError: missing } after let block

tryItOut 415

tryItOut 416
Compiling threw: SyntaxError: invalid for/in left-hand side

tryItOut 417
Compiling threw: SyntaxError: missing } after let block

tryItOut 418
Compiling threw: SyntaxError: invalid for/in left-hand side

tryItOut 419
Compiling threw: SyntaxError: label not found

tryItOut 420
Compiling threw: SyntaxError: invalid for/in left-hand side

tryItOut 421
Compiling threw: SyntaxError: syntax error

tryItOut 422

tryItOut 423
Compiling threw: SyntaxError: missing ; after for-loop initializer

tryItOut 424
Compiling threw: SyntaxError: syntax error

tryItOut 425
Compiling threw: SyntaxError: syntax error

tryItOut 426
Compiling threw: SyntaxError: syntax error

tryItOut 427

tryItOut 428
Compiling threw: SyntaxError: duplicate label

tryItOut 429

tryItOut 430
Compiling threw: SyntaxError: missing variable name

tryItOut 431

tryItOut 432
Compiling threw: SyntaxError: invalid assignment left-hand side

tryItOut 433
Compiling threw: SyntaxError: invalid decrement operand

tryItOut 434

tryItOut 435

tryItOut 436
Compiling threw: SyntaxError: syntax error

tryItOut 437

tryItOut 438
Running threw: TypeError: arguments[0] has no properties

tryItOut 439
Compiling threw: SyntaxError: missing ) in parenthetical

tryItOut 440
It's an iterator!
Iterating succeeded, iterCount == 1

tryItOut 441

tryItOut 442

tryItOut 443

tryItOut 444

tryItOut 445
Compiling threw: SyntaxError: missing { before function body

tryItOut 446
It's an iterator!
Iterating succeeded, iterCount == 1

tryItOut 447

tryItOut 448

tryItOut 449
It's an iterator!
Iterating succeeded, iterCount == 1

tryItOut 450
Compiling threw: SyntaxError: invalid for/in left-hand side

tryItOut 451
Running threw: TypeError: can't convert this to number

tryItOut 452
Compiling threw: SyntaxError: invalid for/in left-hand side

tryItOut 453
Compiling threw: SyntaxError: invalid for/in left-hand side

tryItOut 454
Compiling threw: SyntaxError: missing } after let block

tryItOut 455
Compiling threw: SyntaxError: invalid for/in left-hand side

tryItOut 456
Compiling threw: TypeError: redeclaration of const prop

tryItOut 457
Compiling threw: SyntaxError: invalid for/in left-hand side

tryItOut 458
Running threw: [object StopIteration]

tryItOut 459
Running threw: ReferenceError: reference to undefined XML name @foo

tryItOut 460
It's an iterator!
Iterating threw!
Iterating threw: ReferenceError: prototype is not defined

tryItOut 461

tryItOut 462

tryItOut 463

tryItOut 464
Compiling threw: SyntaxError: missing ) after for-loop control

tryItOut 465

tryItOut 466
Compiling threw: SyntaxError: invalid for/in left-hand side

tryItOut 467
Compiling threw: SyntaxError: invalid assignment left-hand side

tryItOut 468
Compiling threw: SyntaxError: syntax error

tryItOut 469

tryItOut 470
Compiling threw: SyntaxError: syntax error

tryItOut 471
Compiling threw: SyntaxError: syntax error

tryItOut 472
It's an iterator!
Iterating succeeded, iterCount == 1

tryItOut 473
Compiling threw: SyntaxError: invalid for/in left-hand side

tryItOut 474
Running threw: Infinity

tryItOut 475
Running threw: [object StopIteration]

tryItOut 476
Running threw: ReferenceError: reference to undefined XML name *::*

tryItOut 477
Running threw: ReferenceError: z1 is not defined

tryItOut 478
Compiling threw: SyntaxError: invalid for/in left-hand side

tryItOut 479
Running threw: ReferenceError: reference to undefined XML name @foo

tryItOut 480
Running threw: ReferenceError: reference to undefined XML name @foo

tryItOut 481
Compiling threw: SyntaxError: missing variable name

tryItOut 482
Running threw: ReferenceError: prototype is not defined

tryItOut 483
Compiling threw: SyntaxError: missing ; after for-loop condition

tryItOut 484
Compiling threw: SyntaxError: missing variable name

tryItOut 485

tryItOut 486

tryItOut 487

tryItOut 488

tryItOut 489
Compiling threw: SyntaxError: syntax error

tryItOut 490

tryItOut 491
Compiling threw: SyntaxError: syntax error

tryItOut 492
Compiling threw: SyntaxError: invalid assignment left-hand side

tryItOut 493
Compiling threw: SyntaxError: missing variable name

tryItOut 494

tryItOut 495
Compiling threw: SyntaxError: missing { before function body

tryItOut 496
Running threw: TypeError: this.zzz has no properties

tryItOut 497

tryItOut 498

tryItOut 499
Compiling threw: SyntaxError: missing { before function body

tryItOut 500

tryItOut 501

tryItOut 502
Compiling threw: SyntaxError: unterminated string literal

tryItOut 503

tryItOut 504
Running threw: TypeError: this.zzz has no properties

tryItOut 505

tryItOut 506
Compiling threw: SyntaxError: invalid assignment left-hand side

tryItOut 507
Running threw: ReferenceError: z1 is not defined

tryItOut 508
Compiling threw: SyntaxError: syntax error

tryItOut 509

tryItOut 510
It's an iterator!
Iterating threw!
Iterating threw: ReferenceError: window is not defined

tryItOut 511
It's an iterator!
Iterating threw!
Iterating threw: ReferenceError: reference to undefined XML name *::*

tryItOut 512
Compiling threw: SyntaxError: missing variable name

tryItOut 513
Compiling threw: SyntaxError: invalid for/in left-hand side

tryItOut 514
Running threw: [object StopIteration]

tryItOut 515

tryItOut 516
Running threw: ReferenceError: __noSuchMethod__ is not defined

tryItOut 517

tryItOut 518
It's an iterator!
Iterating succeeded, iterCount == 1

tryItOut 519

tryItOut 520

tryItOut 521
Compiling threw: SyntaxError: missing { before function body

tryItOut 522

tryItOut 523

tryItOut 524
Compiling threw: SyntaxError: missing { before function body

tryItOut 525
Compiling threw: SyntaxError: missing { before function body

tryItOut 526

tryItOut 527
Compiling threw: SyntaxError: missing } after let block

tryItOut 528

tryItOut 529
Compiling threw: SyntaxError: invalid for/in left-hand side

tryItOut 530
It's an iterator!
Iterating threw!
Iterating threw: ReferenceError: reference to undefined XML name *

tryItOut 531
Compiling threw: SyntaxError: missing } after let block

tryItOut 532
It's an iterator!
Iterating succeeded, iterCount == 1

tryItOut 533
It's an iterator!
Iterating succeeded, iterCount == 1

tryItOut 534
Compiling threw: SyntaxError: invalid for/in left-hand side

tryItOut 535

tryItOut 536
Running threw: ReferenceError: reference to undefined XML name *

tryItOut 537

tryItOut 538
Compiling threw: SyntaxError: syntax error

tryItOut 539
Compiling threw: SyntaxError: missing } after let block

tryItOut 540
Compiling threw: SyntaxError: missing } after let block

tryItOut 541
Running threw: ReferenceError: window is not defined

tryItOut 542
Compiling threw: SyntaxError: invalid decrement operand

tryItOut 543

tryItOut 544
Compiling threw: SyntaxError: missing ; after for-loop initializer

tryItOut 545
Compiling threw: SyntaxError: missing ; after for-loop initializer

tryItOut 546
Compiling threw: SyntaxError: invalid increment operand

tryItOut 547

tryItOut 548
Compiling threw: SyntaxError: invalid break

tryItOut 549
Compiling threw: SyntaxError: yield expression must be parenthesized

tryItOut 550
Compiling threw: SyntaxError: invalid assignment left-hand side

tryItOut 551

tryItOut 552
Compiling threw: SyntaxError: missing ) after condition

tryItOut 553

tryItOut 554
Running threw: [object StopIteration]

tryItOut 555

tryItOut 556
Compiling threw: SyntaxError: invalid for/in left-hand side

tryItOut 557
Running threw: TypeError: this.zzz has no properties

tryItOut 558

tryItOut 559

tryItOut 560
Compiling threw: SyntaxError: invalid decrement operand

tryItOut 561
Compiling threw: SyntaxError: missing ) in parenthetical

tryItOut 562

tryItOut 563
Compiling threw: SyntaxError: syntax error

tryItOut 564

tryItOut 565
Compiling threw: SyntaxError: invalid assignment left-hand side

tryItOut 566
Compiling threw: SyntaxError: invalid assignment left-hand side

tryItOut 567
It's an iterator!
Iterating threw!
Iterating threw: ReferenceError: reference to undefined XML name @foo

tryItOut 568

tryItOut 569
Compiling threw: SyntaxError: invalid continue

tryItOut 570
Compiling threw: SyntaxError: label not found

tryItOut 571
Compiling threw: SyntaxError: missing variable name

tryItOut 572
It's an iterator!
Iterating threw!
Iterating threw: ReferenceError: reference to undefined XML name @foo

tryItOut 573

tryItOut 574
Compiling threw: SyntaxError: syntax error

tryItOut 575

tryItOut 576

tryItOut 577

tryItOut 578

tryItOut 579
Compiling threw: SyntaxError: missing variable name

tryItOut 580

tryItOut 581

tryItOut 582
Compiling threw: SyntaxError: missing { before function body

tryItOut 583

tryItOut 584
Compiling threw: SyntaxError: invalid for/in left-hand side

tryItOut 585
Running threw: TypeError: this.zzz has no properties

tryItOut 586
Compiling threw: SyntaxError: invalid for/in left-hand side

tryItOut 587
Compiling threw: SyntaxError: missing variable name

tryItOut 588
Running threw: ReferenceError: prop is not defined

tryItOut 589
Compiling threw: SyntaxError: invalid decrement operand

tryItOut 590
It's an iterator!
Iterating threw!
Iterating threw: ReferenceError: reference to undefined XML name *

tryItOut 591
Compiling threw: SyntaxError: syntax error

tryItOut 592

tryItOut 593

tryItOut 594

tryItOut 595
Compiling threw: SyntaxError: missing ; before statement

tryItOut 596

tryItOut 597
Compiling threw: SyntaxError: invalid destructuring assignment operator

tryItOut 598
Compiling threw: SyntaxError: invalid for/in left-hand side

tryItOut 599

tryItOut 600
Compiling threw: SyntaxError: invalid assignment left-hand side

tryItOut 601
Compiling threw: SyntaxError: invalid for/in left-hand side

tryItOut 602
Compiling threw: SyntaxError: invalid assignment left-hand side

tryItOut 603
Running threw: ReferenceError: z1 is not defined

tryItOut 604
Compiling threw: SyntaxError: invalid for/in left-hand side

tryItOut 605

tryItOut 606

tryItOut 607

tryItOut 608

tryItOut 609
Compiling threw: SyntaxError: missing ; before statement

tryItOut 610
Compiling threw: SyntaxError: invalid increment operand

tryItOut 611
Compiling threw: SyntaxError: syntax error

tryItOut 612

tryItOut 613
Compiling threw: SyntaxError: invalid break

tryItOut 614
Compiling threw: SyntaxError: missing ) in parenthetical

tryItOut 615
Compiling threw: SyntaxError: missing ) in parenthetical

tryItOut 616
Running threw: ReferenceError: reference to undefined XML name @foo

tryItOut 617
Compiling threw: SyntaxError: invalid for/in left-hand side

tryItOut 618
Compiling threw: SyntaxError: syntax error

tryItOut 619
Compiling threw: SyntaxError: label not found

tryItOut 620

tryItOut 621
Compiling threw: SyntaxError: missing ) after switch expression

tryItOut 622
Compiling threw: SyntaxError: syntax error

tryItOut 623

tryItOut 624
Compiling threw: SyntaxError: label not found

tryItOut 625

tryItOut 626
Compiling threw: SyntaxError: label not found

tryItOut 627
Compiling threw: SyntaxError: syntax error

tryItOut 628

tryItOut 629

tryItOut 630
Compiling threw: SyntaxError: invalid increment operand

tryItOut 631
Compiling threw: SyntaxError: invalid break

tryItOut 632
Compiling threw: SyntaxError: yield expression must be parenthesized

tryItOut 633
Compiling threw: SyntaxError: invalid assignment left-hand side

tryItOut 634
Compiling threw: SyntaxError: invalid assignment left-hand side

tryItOut 635
Compiling threw: SyntaxError: missing ) in parenthetical

tryItOut 636

tryItOut 637
Compiling threw: SyntaxError: invalid for/in left-hand side

tryItOut 638
Compiling threw: SyntaxError: invalid for/in left-hand side

tryItOut 639

tryItOut 640

tryItOut 641

tryItOut 642

tryItOut 643
Compiling threw: SyntaxError: invalid for/in left-hand side

tryItOut 644
Compiling threw: SyntaxError: missing variable name

tryItOut 645
Running threw: ReferenceError: constructor is not defined

tryItOut 646
Running threw: TypeError: arguments[0] has no properties

tryItOut 647
Compiling threw: SyntaxError: missing variable name

tryItOut 648
Compiling threw: SyntaxError: missing { before function body

tryItOut 649
It's an iterator!
Iterating succeeded, iterCount == 1

tryItOut 650

tryItOut 651
Running threw: TypeError: this.zzz has no properties

tryItOut 652

tryItOut 653

tryItOut 654
Compiling threw: SyntaxError: missing variable name

tryItOut 655

tryItOut 656
Compiling threw: SyntaxError: missing ) after for-loop control

tryItOut 657
Compiling threw: SyntaxError: invalid continue

tryItOut 658

tryItOut 659
Running threw: ReferenceError: window is not defined

tryItOut 660
Compiling threw: SyntaxError: invalid for/in left-hand side

tryItOut 661
Compiling threw: SyntaxError: invalid for/in left-hand side

tryItOut 662

tryItOut 663
Compiling threw: SyntaxError: missing ) after condition

tryItOut 664
Running threw: ReferenceError: reference to undefined XML name *::*

tryItOut 665
Running threw: TypeError: this.zzz has no properties

tryItOut 666
Compiling threw: SyntaxError: syntax error

tryItOut 667

tryItOut 668
Compiling threw: SyntaxError: invalid decrement operand

tryItOut 669
Compiling threw: SyntaxError: syntax error

tryItOut 670

tryItOut 671
Compiling threw: SyntaxError: missing ) after argument list

tryItOut 672
Compiling threw: SyntaxError: missing variable name

tryItOut 673
Compiling threw: SyntaxError: missing ; before statement

tryItOut 674
Running threw: ReferenceError: z1 is not defined

tryItOut 675
Compiling threw: SyntaxError: syntax error

tryItOut 676
Compiling threw: SyntaxError: missing ) in parenthetical

tryItOut 677
Compiling threw: SyntaxError: invalid decrement operand

tryItOut 678
Compiling threw: SyntaxError: missing ; after for-loop initializer

tryItOut 679

tryItOut 680
Running threw: [object StopIteration]

tryItOut 681
Compiling threw: SyntaxError: invalid sharp variable definition

tryItOut 682
Compiling threw: SyntaxError: missing variable name

tryItOut 683

tryItOut 684
It's an iterator!
Iterating succeeded, iterCount == 1

tryItOut 685

tryItOut 686

tryItOut 687
Compiling threw: SyntaxError: missing ; before statement

tryItOut 688
Compiling threw: SyntaxError: missing ) in parenthetical

tryItOut 689

tryItOut 690
Compiling threw: SyntaxError: syntax error

tryItOut 691
Compiling threw: SyntaxError: invalid for/in left-hand side

tryItOut 692
Compiling threw: SyntaxError: missing ; after for-loop initializer

tryItOut 693
It's an iterator!
Iterating succeeded, iterCount == 1

tryItOut 694
Compiling threw: SyntaxError: syntax error

tryItOut 695

tryItOut 696
Compiling threw: SyntaxError: missing variable name

tryItOut 697

tryItOut 698

tryItOut 699
It's an iterator!
Iterating succeeded, iterCount == 1

tryItOut 700

tryItOut 701

tryItOut 702

tryItOut 703

tryItOut 704
Compiling threw: SyntaxError: missing ) after condition

tryItOut 705
Compiling threw: SyntaxError: syntax error

tryItOut 706
Compiling threw: SyntaxError: missing variable name

tryItOut 707

tryItOut 708

tryItOut 709
It's an iterator!
Iterating threw!
Iterating threw: ReferenceError: reference to undefined XML name *

tryItOut 710

tryItOut 711

tryItOut 712
Compiling threw: SyntaxError: missing { before function body

tryItOut 713
Compiling threw: SyntaxError: invalid assignment left-hand side

tryItOut 714
Compiling threw: SyntaxError: syntax error

tryItOut 715
Compiling threw: SyntaxError: syntax error

tryItOut 716
Compiling threw: SyntaxError: syntax error

tryItOut 717

tryItOut 718

tryItOut 719

tryItOut 720

tryItOut 721

tryItOut 722

tryItOut 723
Compiling threw: SyntaxError: invalid for/in left-hand side

tryItOut 724
Compiling threw: SyntaxError: syntax error

tryItOut 725

tryItOut 726
Running threw: ReferenceError: reference to undefined XML name @foo

tryItOut 727
Running threw: ReferenceError: window is not defined

tryItOut 728

tryItOut 729
Compiling threw: SyntaxError: missing variable name

tryItOut 730
Compiling threw: SyntaxError: invalid assignment left-hand side

tryItOut 731
Compiling threw: SyntaxError: label not found

tryItOut 732
Compiling threw: SyntaxError: illegal XML character

tryItOut 733
Running threw: ReferenceError: z1 is not defined

tryItOut 734
Compiling threw: SyntaxError: missing ; before statement

tryItOut 735

tryItOut 736

tryItOut 737

tryItOut 738

tryItOut 739
Running threw: ReferenceError: window is not defined

tryItOut 740

tryItOut 741
Compiling threw: SyntaxError: invalid decrement operand

tryItOut 742
Compiling threw: SyntaxError: invalid for/in left-hand side

tryItOut 743

tryItOut 744
Compiling threw: SyntaxError: invalid assignment left-hand side

tryItOut 745
Running threw: TypeError: __count__ is not a constructor

tryItOut 746

tryItOut 747
Compiling threw: SyntaxError: invalid assignment left-hand side

tryItOut 748
Compiling threw: SyntaxError: label not found

tryItOut 749

tryItOut 750
Compiling threw: SyntaxError: missing { before function body

tryItOut 751
Compiling threw: SyntaxError: invalid for/in left-hand side

tryItOut 752

tryItOut 753
It's an iterator!
Iterating succeeded, iterCount == 1

tryItOut 754

tryItOut 755

tryItOut 756
Compiling threw: SyntaxError: missing { before function body

tryItOut 757

tryItOut 758

tryItOut 759
Running threw: ReferenceError: reference to undefined XML name @foo

tryItOut 760
Running threw: [object StopIteration]

tryItOut 761

tryItOut 762

tryItOut 763

tryItOut 764
Compiling threw: SyntaxError: missing ) in parenthetical

tryItOut 765

tryItOut 766
Compiling threw: SyntaxError: missing ; after for-loop initializer

tryItOut 767

tryItOut 768
It's an iterator!
Iterating succeeded, iterCount == 1

tryItOut 769

tryItOut 770
Compiling threw: SyntaxError: missing while after do-loop body

tryItOut 771

tryItOut 772
Running threw: [object StopIteration]

tryItOut 773

tryItOut 774
Compiling threw: SyntaxError: invalid for/in left-hand side

tryItOut 775
Running threw: ReferenceError: reference to undefined XML name *::*

tryItOut 776
Running threw: [object StopIteration]

tryItOut 777
It's an iterator!
Iterating succeeded, iterCount == 1

tryItOut 778

tryItOut 779
Running threw: ReferenceError: reference to undefined XML name @foo

tryItOut 780
Compiling threw: SyntaxError: syntax error

tryItOut 781
Compiling threw: SyntaxError: syntax error

tryItOut 782
Running threw: TypeError: this.zzz has no properties

tryItOut 783
Compiling threw: SyntaxError: missing ; after for-loop initializer

tryItOut 784

tryItOut 785

tryItOut 786
Compiling threw: SyntaxError: missing ) in parenthetical

tryItOut 787
Running threw: TypeError: this.zzz has no properties

tryItOut 788

tryItOut 789

tryItOut 790

tryItOut 791
Compiling threw: SyntaxError: invalid for/in left-hand side

tryItOut 792
Compiling threw: SyntaxError: missing ) after switch expression

tryItOut 793

tryItOut 794

tryItOut 795

tryItOut 796

tryItOut 797
Compiling threw: SyntaxError: missing variable name

tryItOut 798

tryItOut 799

tryItOut 800
Compiling threw: SyntaxError: missing ) in parenthetical

tryItOut 801
Compiling threw: SyntaxError: syntax error

tryItOut 802
Compiling threw: SyntaxError: missing variable name

tryItOut 803

tryItOut 804

tryItOut 805

tryItOut 806
Compiling threw: SyntaxError: missing ) in parenthetical

tryItOut 807
Compiling threw: SyntaxError: invalid for/in left-hand side

tryItOut 808

tryItOut 809

tryItOut 810

tryItOut 811
Running threw: ReferenceError: reference to undefined XML name *::*

tryItOut 812
Compiling threw: SyntaxError: invalid decrement operand

tryItOut 813

tryItOut 814
Running threw: -1

tryItOut 815
Compiling threw: SyntaxError: missing variable name

tryItOut 816

tryItOut 817
Compiling threw: SyntaxError: missing } after let block

tryItOut 818
Compiling threw: SyntaxError: missing { before function body

tryItOut 819
Running threw: ReferenceError: reference to undefined XML name *

tryItOut 820

tryItOut 821
Compiling threw: SyntaxError: invalid for/in left-hand side

tryItOut 822
Compiling threw: SyntaxError: missing variable name

tryItOut 823
Compiling threw: SyntaxError: invalid for/in left-hand side

tryItOut 824

tryItOut 825
Compiling threw: SyntaxError: invalid for/in left-hand side

tryItOut 826
Compiling threw: SyntaxError: syntax error

tryItOut 827
Compiling threw: SyntaxError: invalid for/in left-hand side

tryItOut 828
Running threw: TypeError: can't convert this to number

tryItOut 829
Compiling threw: SyntaxError: missing variable name

tryItOut 830
Compiling threw: SyntaxError: invalid assignment left-hand side

tryItOut 831
Running threw: TypeError: this.zzz has no properties

tryItOut 832
Compiling threw: SyntaxError: missing ; before statement

tryItOut 833

tryItOut 834

tryItOut 835
Running threw: ReferenceError: prototype is not defined

tryItOut 836
Compiling threw: SyntaxError: syntax error

tryItOut 837

tryItOut 838

tryItOut 839

tryItOut 840

tryItOut 841
It's an iterator!
Iterating threw!
Iterating threw: ReferenceError: prototype is not defined

tryItOut 842
Compiling threw: TypeError: redeclaration of const __noSuchMethod__

tryItOut 843
Compiling threw: SyntaxError: label not found

tryItOut 844
Running threw: ReferenceError: z1 is not defined

tryItOut 845
Compiling threw: SyntaxError: label not found

tryItOut 846
Running threw: TypeError: this.zzz has no properties

tryItOut 847
Running threw: TypeError: this.zzz has no properties

tryItOut 848

tryItOut 849
Running threw: TypeError: this.zzz has no properties

tryItOut 850
Compiling threw: SyntaxError: duplicate label

tryItOut 851

tryItOut 852
It's an iterator!
Iterating succeeded, iterCount == 1

tryItOut 853
Compiling threw: SyntaxError: invalid assignment left-hand side

tryItOut 854
Running threw: ReferenceError: reference to undefined XML name *::*

tryItOut 855

tryItOut 856

tryItOut 857
Compiling threw: SyntaxError: missing ) in parenthetical

tryItOut 858
Compiling threw: SyntaxError: invalid for/in left-hand side

tryItOut 859
Compiling threw: SyntaxError: label not found

tryItOut 860

tryItOut 861
Compiling threw: SyntaxError: missing { before function body

tryItOut 862
Running threw: [object StopIteration]

tryItOut 863

tryItOut 864

tryItOut 865
Compiling threw: SyntaxError: missing ) in parenthetical

tryItOut 866

tryItOut 867

tryItOut 868

tryItOut 869

tryItOut 870

tryItOut 871
It's an iterator!
Iterating succeeded, iterCount == 1

tryItOut 872

tryItOut 873

tryItOut 874

tryItOut 875
Compiling threw: SyntaxError: missing ; before statement

tryItOut 876
Compiling threw: SyntaxError: syntax error

tryItOut 877
Running threw: TypeError: this.zzz has no properties

tryItOut 878

tryItOut 879
It's an iterator!
Iterating succeeded, iterCount == 1

tryItOut 880

tryItOut 881
Compiling threw: SyntaxError: label not found

tryItOut 882

tryItOut 883
Compiling threw: SyntaxError: missing ) after condition

tryItOut 884

tryItOut 885

tryItOut 886
Running threw: [object StopIteration]

tryItOut 887

tryItOut 888
Running threw: ReferenceError: reference to undefined XML name @foo

tryItOut 889

tryItOut 890

tryItOut 891
Compiling threw: SyntaxError: invalid for/in left-hand side

tryItOut 892

tryItOut 893

tryItOut 894

tryItOut 895

tryItOut 896
Compiling threw: TypeError: redeclaration of const constructor

tryItOut 897

tryItOut 898

tryItOut 899
Compiling threw: SyntaxError: syntax error

tryItOut 900
Running threw: ReferenceError: window is not defined

tryItOut 901
Compiling threw: SyntaxError: missing ) in parenthetical

tryItOut 902

tryItOut 903
Compiling threw: SyntaxError: syntax error

tryItOut 904

tryItOut 905

tryItOut 906

tryItOut 907
Running threw: ReferenceError: window is not defined

tryItOut 908
Compiling threw: SyntaxError: invalid assignment left-hand side

tryItOut 909

tryItOut 910
Compiling threw: SyntaxError: invalid for/in left-hand side

tryItOut 911
Compiling threw: SyntaxError: missing ) in parenthetical

tryItOut 912

tryItOut 913
Compiling threw: SyntaxError: missing ) in parenthetical

tryItOut 914
Running threw: ReferenceError: constructor is not defined

tryItOut 915
Compiling threw: SyntaxError: syntax error

tryItOut 916
Compiling threw: SyntaxError: label not found

tryItOut 917

tryItOut 918

tryItOut 919
Compiling threw: SyntaxError: missing ; before statement

tryItOut 920

tryItOut 921
Compiling threw: SyntaxError: label not found

tryItOut 922
Compiling threw: SyntaxError: missing ) in parenthetical

tryItOut 923
Running threw: ReferenceError: reference to undefined XML name *

tryItOut 924
Compiling threw: SyntaxError: missing ; after for-loop initializer

tryItOut 925

tryItOut 926
Running threw: [object StopIteration]

tryItOut 927
Compiling threw: SyntaxError: label not found

tryItOut 928
Compiling threw: SyntaxError: invalid for/in left-hand side

tryItOut 929
Running threw: [object StopIteration]

tryItOut 930

tryItOut 931
Compiling threw: SyntaxError: missing ; before statement

tryItOut 932
Running threw: ReferenceError: window is not defined

tryItOut 933
Running threw: TypeError: this.zzz has no properties

tryItOut 934
Compiling threw: SyntaxError: invalid for/in left-hand side

tryItOut 935
Compiling threw: SyntaxError: missing { before function body

tryItOut 936
Compiling threw: SyntaxError: invalid sharp variable definition

tryItOut 937

tryItOut 938

tryItOut 939
Compiling threw: SyntaxError: syntax error

tryItOut 940

tryItOut 941
Compiling threw: SyntaxError: missing ) in parenthetical

tryItOut 942
Running threw: ReferenceError: x is not defined

tryItOut 943
Compiling threw: SyntaxError: invalid for/in left-hand side

tryItOut 944
Compiling threw: SyntaxError: syntax error

tryItOut 945

tryItOut 946
Compiling threw: SyntaxError: invalid for/in left-hand side

tryItOut 947
Compiling threw: SyntaxError: syntax error

tryItOut 948
Compiling threw: SyntaxError: missing ; before statement

tryItOut 949

tryItOut 950
Compiling threw: SyntaxError: invalid for/in left-hand side

tryItOut 951

tryItOut 952
Running threw: ReferenceError: window is not defined

tryItOut 953
Compiling threw: SyntaxError: missing formal parameter

tryItOut 954

tryItOut 955
Compiling threw: SyntaxError: missing ) in parenthetical

tryItOut 956

tryItOut 957
Compiling threw: SyntaxError: missing } after let block

tryItOut 958
Compiling threw: SyntaxError: invalid for/in left-hand side

tryItOut 959

tryItOut 960
Compiling threw: SyntaxError: missing } after let block

tryItOut 961

tryItOut 962

tryItOut 963

tryItOut 964
It's an iterator!
Iterating succeeded, iterCount == 1

tryItOut 965
Compiling threw: TypeError: redeclaration of const prop

tryItOut 966

tryItOut 967
Compiling threw: SyntaxError: invalid assignment left-hand side

tryItOut 968

tryItOut 969
Compiling threw: SyntaxError: syntax error

tryItOut 970
Compiling threw: SyntaxError: missing variable name

tryItOut 971

tryItOut 972
Compiling threw: SyntaxError: invalid destructuring assignment operator

tryItOut 973
Compiling threw: SyntaxError: missing = in destructuring declaration

tryItOut 974

tryItOut 975
Compiling threw: SyntaxError: invalid for/in left-hand side

tryItOut 976
Compiling threw: SyntaxError: missing variable name

tryItOut 977
Compiling threw: SyntaxError: missing ) in parenthetical

tryItOut 978

tryItOut 979
Compiling threw: SyntaxError: missing ) after let head

tryItOut 980
Compiling threw: SyntaxError: syntax error

tryItOut 981
Running threw: TypeError: this.zzz has no properties

tryItOut 982
Compiling threw: SyntaxError: missing { before function body

tryItOut 983
Compiling threw: SyntaxError: invalid assignment left-hand side

tryItOut 984
Compiling threw: SyntaxError: syntax error

tryItOut 985
Compiling threw: SyntaxError: missing } after let block

tryItOut 986

tryItOut 987

tryItOut 988

tryItOut 989

tryItOut 990
Compiling threw: SyntaxError: invalid assignment left-hand side

tryItOut 991
Compiling threw: SyntaxError: label not found

tryItOut 992
Compiling threw: SyntaxError: syntax error

tryItOut 993
Compiling threw: SyntaxError: syntax error

tryItOut 994

tryItOut 995

tryItOut 996
Compiling threw: SyntaxError: invalid for/in left-hand side

tryItOut 997
Compiling threw: SyntaxError: missing } after let block

tryItOut 998
It's an iterator!
Iterating threw!
Iterating threw: ReferenceError: reference to undefined XML name @foo

tryItOut 999

tryItOut 1000

ALL OK

Script done on Sat 04 May 2013 07:43:48 AM PDT
