Script started on Sat 04 May 2013 07:43:28 AM PDT
***
Targeting SpiderMonkey / Gecko.

tryItOut 1

tryItOut 2

tryItOut 3
Compiling threw: SyntaxError: invalid assignment left-hand side

tryItOut 4
Compiling threw: SyntaxError: duplicate label

tryItOut 5
Compiling threw: SyntaxError: syntax error

tryItOut 6

tryItOut 7
Compiling threw: SyntaxError: missing ; before statement

tryItOut 8
Compiling threw: SyntaxError: missing variable name

tryItOut 9
Running threw: Error: invalid sharp variable use #1#

tryItOut 10
Running threw: TypeError: arguments[0] has no properties

tryItOut 11
Running threw: ReferenceError: z1 is not defined

tryItOut 12

tryItOut 13

tryItOut 14

tryItOut 15

tryItOut 16
Compiling threw: SyntaxError: missing { before function body

tryItOut 17
Compiling threw: SyntaxError: missing { before function body

tryItOut 18
Compiling threw: SyntaxError: missing ) in parenthetical

tryItOut 19
Running threw: ReferenceError: z1 is not defined

tryItOut 20

tryItOut 21
It's an iterator!
Iterating threw!
Iterating threw: ReferenceError: __noSuchMethod__ is not defined

tryItOut 22
Running threw: TypeError: /x/g.yoyo is not a function

tryItOut 23
Compiling threw: SyntaxError: missing ) after condition

tryItOut 24
Compiling threw: SyntaxError: syntax error

tryItOut 25
Compiling threw: TypeError: generator function anonymous returns a value

tryItOut 26

tryItOut 27
Compiling threw: SyntaxError: syntax error

tryItOut 28
before 87200, after 87200, break 024fc000

tryItOut 29
Compiling threw: SyntaxError: missing ; before statement

tryItOut 30
Compiling threw: SyntaxError: missing variable name

tryItOut 31
Running threw: TypeError: arguments[0] has no properties

tryItOut 32

tryItOut 33

tryItOut 34
Compiling threw: SyntaxError: missing { before function body

tryItOut 35

tryItOut 36
Compiling threw: SyntaxError: invalid decrement operand

tryItOut 37
Running threw: TypeError: invalid XML namespace ccc

tryItOut 38

tryItOut 39
It's an iterator!
Iterating threw!
Iterating threw: TypeError: this.zzz has no properties

tryItOut 40
Compiling threw: SyntaxError: missing = in destructuring declaration

tryItOut 41

tryItOut 42
Compiling threw: SyntaxError: invalid for/in left-hand side

tryItOut 43
Compiling threw: SyntaxError: missing variable name

tryItOut 44
Running threw: ReferenceError: z1 is not defined

tryItOut 45

tryItOut 46
Running threw: TypeError: this.zzz has no properties

tryItOut 47
Compiling threw: SyntaxError: syntax error

tryItOut 48
Compiling threw: TypeError: redeclaration of var __count__

tryItOut 49
Compiling threw: SyntaxError: missing { before function body

tryItOut 50
Compiling threw: SyntaxError: invalid destructuring assignment operator

tryItOut 51
Compiling threw: SyntaxError: unterminated regular expression literal

tryItOut 52
Compiling threw: SyntaxError: syntax error

tryItOut 53
Compiling threw: SyntaxError: invalid destructuring assignment operator

tryItOut 54
It's an iterator!
Iterating threw!
Iterating threw: TypeError: "" is not a function

tryItOut 55

tryItOut 56
Compiling threw: SyntaxError: missing ) in parenthetical

tryItOut 57
Compiling threw: SyntaxError: invalid assignment left-hand side

tryItOut 58
Compiling threw: SyntaxError: invalid for/in left-hand side

tryItOut 59
Compiling threw: TypeError: redeclaration of var constructor

tryItOut 60

tryItOut 61

tryItOut 62
Running threw: <x>
  <y/>
</x>

tryItOut 63

tryItOut 64

tryItOut 65
Compiling threw: SyntaxError: illegal XML character

tryItOut 66

tryItOut 67
Compiling threw: SyntaxError: missing variable name

tryItOut 68
Compiling threw: SyntaxError: missing ; before statement

tryItOut 69

tryItOut 70

tryItOut 71

tryItOut 72
Compiling threw: SyntaxError: missing variable name

tryItOut 73

tryItOut 74

tryItOut 75

tryItOut 76
It's an iterator!
Iterating succeeded, iterCount == 1

tryItOut 77

tryItOut 78
Compiling threw: SyntaxError: syntax error

tryItOut 79
Running threw: TypeError: #1=[, #1#].unwatch("prototype") has no properties

tryItOut 80
Compiling threw: SyntaxError: missing ; before statement

tryItOut 81
Compiling threw: SyntaxError: missing ) in parenthetical

tryItOut 82

tryItOut 83
Compiling threw: SyntaxError: missing ; before statement

tryItOut 84
Compiling threw: SyntaxError: missing ; before statement

tryItOut 85
Compiling threw: SyntaxError: invalid for/in left-hand side

tryItOut 86
Compiling threw: SyntaxError: finally without try

tryItOut 87
Compiling threw: SyntaxError: missing ] after element list

tryItOut 88

tryItOut 89
Compiling threw: SyntaxError: syntax error

tryItOut 90

tryItOut 91
Compiling threw: SyntaxError: invalid for/in left-hand side

tryItOut 92
Running threw: TypeError: this.zzz has no properties

tryItOut 93
before 104640, after 104640, break 02516000

tryItOut 94
Compiling threw: SyntaxError: missing ) in parenthetical

tryItOut 95
Running threw: ReferenceError: z2 is not defined

tryItOut 96
Running threw: Error: invalid sharp variable use #1#

tryItOut 97

tryItOut 98
Compiling threw: SyntaxError: invalid for/in left-hand side

tryItOut 99
Compiling threw: SyntaxError: invalid increment operand

tryItOut 100

tryItOut 101
Compiling threw: SyntaxError: missing variable name

tryItOut 102

tryItOut 103

tryItOut 104

tryItOut 105
Compiling threw: SyntaxError: missing ) after with-statement object

tryItOut 106

tryItOut 107
Compiling threw: SyntaxError: invalid sharp variable definition

tryItOut 108
Compiling threw: SyntaxError: missing { before function body

tryItOut 109
before 104640, after 104640, break 02516000

tryItOut 110
Compiling threw: SyntaxError: missing variable name

tryItOut 111

tryItOut 112
Running threw: ReferenceError: __iterator__ is not defined

tryItOut 113
Compiling threw: SyntaxError: syntax error

tryItOut 114

tryItOut 115
Compiling threw: SyntaxError: invalid assignment left-hand side

tryItOut 116

tryItOut 117

tryItOut 118
Running threw: ReferenceError: __noSuchMethod__ is not defined

tryItOut 119

tryItOut 120
Compiling threw: SyntaxError: missing ) after let head

tryItOut 121
Compiling threw: SyntaxError: missing ) in parenthetical

tryItOut 122
Compiling threw: SyntaxError: invalid assignment left-hand side

tryItOut 123
Compiling threw: SyntaxError: syntax error

tryItOut 124
Running threw: ReferenceError: z2 is not defined

tryItOut 125
Compiling threw: SyntaxError: missing ] after element list

tryItOut 126
Compiling threw: SyntaxError: invalid assignment left-hand side

tryItOut 127
Compiling threw: SyntaxError: invalid destructuring assignment operator

tryItOut 128
Compiling threw: SyntaxError: syntax error

tryItOut 129

tryItOut 130
Compiling threw: SyntaxError: syntax error

tryItOut 131
uneval returned the string: [undefined]

tryItOut 132
Compiling threw: TypeError: redeclaration of variable __count__

tryItOut 133
Compiling threw: SyntaxError: syntax error

tryItOut 134
Compiling threw: SyntaxError: syntax error

tryItOut 135

tryItOut 136

tryItOut 137

tryItOut 138

tryItOut 139
Compiling threw: SyntaxError: missing ] after element list

tryItOut 140

tryItOut 141
Compiling threw: SyntaxError: missing } in compound statement

tryItOut 142
Compiling threw: SyntaxError: invalid for/in left-hand side

tryItOut 143
Compiling threw: SyntaxError: missing = in destructuring declaration

tryItOut 144
Compiling threw: SyntaxError: syntax error

tryItOut 145

tryItOut 146
Compiling threw: SyntaxError: syntax error

tryItOut 147
Compiling threw: SyntaxError: missing { before function body

tryItOut 148
Compiling threw: SyntaxError: missing ) in parenthetical

tryItOut 149
Compiling threw: SyntaxError: syntax error

tryItOut 150
Compiling threw: SyntaxError: syntax error

tryItOut 151
Compiling threw: SyntaxError: missing ] after element list

tryItOut 152
Compiling threw: SyntaxError: missing ; before statement

tryItOut 153
Running threw: 

tryItOut 154

tryItOut 155

tryItOut 156
Compiling threw: SyntaxError: missing { before function body

tryItOut 157
Compiling threw: SyntaxError: missing ; after for-loop initializer

tryItOut 158

tryItOut 159
Running threw: /x/

tryItOut 160
Compiling threw: SyntaxError: missing ; before statement

tryItOut 161
Compiling threw: SyntaxError: invalid decrement operand

tryItOut 162
Compiling threw: TypeError: redeclaration of const __parent__

tryItOut 163
before 104640, after 104640, break 02516000

tryItOut 164

tryItOut 165
Running threw: TypeError: arguments[0] has no properties

tryItOut 166

tryItOut 167
Compiling threw: SyntaxError: invalid for/in left-hand side

tryItOut 168

tryItOut 169

tryItOut 170
Compiling threw: SyntaxError: invalid property id

tryItOut 171
Running threw: <x>
  <y/>
</x>

tryItOut 172
Compiling threw: SyntaxError: missing ) in parenthetical

tryItOut 173
Compiling threw: SyntaxError: missing ] after element list

tryItOut 174
Compiling threw: SyntaxError: missing ; after for-loop condition

tryItOut 175

tryItOut 176
Compiling threw: SyntaxError: invalid assignment left-hand side

tryItOut 177

tryItOut 178
Compiling threw: SyntaxError: invalid destructuring assignment operator

tryItOut 179
Compiling threw: SyntaxError: missing } in XML expression

tryItOut 180

tryItOut 181
Compiling threw: SyntaxError: illegal XML character

tryItOut 182
Running threw: <x>
  <y/>
</x>

tryItOut 183
Compiling threw: SyntaxError: missing variable name

tryItOut 184

tryItOut 185
Running threw: ReferenceError: __iterator__ is not defined

tryItOut 186
It's an iterator!
Iterating threw!
Iterating threw: ReferenceError: __parent__ is not defined

tryItOut 187

tryItOut 188
Running threw: ReferenceError: __iterator__ is not defined

tryItOut 189

tryItOut 190
Compiling threw: SyntaxError: missing ; before statement

tryItOut 191
Compiling threw: SyntaxError: invalid for/in left-hand side

tryItOut 192
Compiling threw: SyntaxError: invalid for/in left-hand side

tryItOut 193
Compiling threw: SyntaxError: missing { before function body

tryItOut 194
Compiling threw: SyntaxError: invalid for/in left-hand side

tryItOut 195
Running threw: ReferenceError: constructor is not defined

tryItOut 196
Compiling threw: TypeError: generator function anonymous returns a value

tryItOut 197
Compiling threw: SyntaxError: missing ) in parenthetical

tryItOut 198
Compiling threw: SyntaxError: missing variable name

tryItOut 199

tryItOut 200

tryItOut 201
Compiling threw: SyntaxError: invalid assignment left-hand side

tryItOut 202

tryItOut 203

tryItOut 204
Compiling threw: SyntaxError: missing variable name

tryItOut 205

tryItOut 206

tryItOut 207
Compiling threw: SyntaxError: missing = in destructuring declaration

tryItOut 208
It's an iterator!
Iterating threw!
Iterating threw: TypeError: (new "haha".split).__lookupSetter__("__iterator__") has no properties

tryItOut 209

tryItOut 210

tryItOut 211
Running threw: ReferenceError: z1 is not defined

tryItOut 212

tryItOut 213
Running threw: ReferenceError: prop is not defined

tryItOut 214

tryItOut 215

tryItOut 216
Compiling threw: SyntaxError: missing { before function body

tryItOut 217

tryItOut 218
It's an iterator!
Iterating threw!
Iterating threw: ReferenceError: constructor is not defined

tryItOut 219
Compiling threw: SyntaxError: missing ) in parenthetical

tryItOut 220
Compiling threw: SyntaxError: missing ) in parenthetical

tryItOut 221
Compiling threw: SyntaxError: missing ; before statement

tryItOut 222
It's an iterator!
Iterating succeeded, iterCount == 1

tryItOut 223
Compiling threw: SyntaxError: syntax error

tryItOut 224
Running threw: TypeError: [[]] is not a function

tryItOut 225

tryItOut 226
Running threw: TypeError: this.zzz has no properties

tryItOut 227

tryItOut 228

tryItOut 229

tryItOut 230
Compiling threw: SyntaxError: missing ) after argument list

tryItOut 231

tryItOut 232

tryItOut 233
Compiling threw: SyntaxError: missing { before function body

tryItOut 234

tryItOut 235
Compiling threw: SyntaxError: missing ] after element list

tryItOut 236
Running threw: TypeError: __iterator__ has no properties

tryItOut 237
Running threw: ReferenceError: constructor is not defined

tryItOut 238
Running threw: ReferenceError: __parent__ is not defined

tryItOut 239

tryItOut 240
Compiling threw: SyntaxError: syntax error

tryItOut 241

tryItOut 242

tryItOut 243
Compiling threw: SyntaxError: missing { before function body

tryItOut 244
Running threw: <x>
  <y/>
</x>

tryItOut 245
Compiling threw: SyntaxError: invalid for/in left-hand side

tryItOut 246

tryItOut 247
Compiling threw: SyntaxError: syntax error

tryItOut 248

tryItOut 249

tryItOut 250

tryItOut 251
Compiling threw: SyntaxError: invalid for/in left-hand side

tryItOut 252

tryItOut 253
Compiling threw: SyntaxError: missing ; after for-loop initializer

tryItOut 254

tryItOut 255
Compiling threw: SyntaxError: missing ) in parenthetical

tryItOut 256
Compiling threw: SyntaxError: missing = in destructuring declaration

tryItOut 257

tryItOut 258

tryItOut 259
Running threw: ReferenceError: __proto__ is not defined

tryItOut 260
before 209280, after 156960, break 025fb000

tryItOut 261
Compiling threw: SyntaxError: missing variable name

tryItOut 262

tryItOut 263

tryItOut 264

tryItOut 265

tryItOut 266
Compiling threw: SyntaxError: syntax error

tryItOut 267
Compiling threw: SyntaxError: invalid default XML namespace

tryItOut 268
Compiling threw: SyntaxError: missing ) after condition

tryItOut 269
Compiling threw: SyntaxError: missing ; after for-loop condition

tryItOut 270
Compiling threw: SyntaxError: syntax error

tryItOut 271
Compiling threw: SyntaxError: invalid assignment left-hand side

tryItOut 272

tryItOut 273

tryItOut 274
before 156960, after 156960, break 025fb000

tryItOut 275
Running threw: ReferenceError: __parent__ is not defined

tryItOut 276
Compiling threw: SyntaxError: illegal XML character

tryItOut 277

tryItOut 278

tryItOut 279
Compiling threw: TypeError: generator function anonymous returns a value

tryItOut 280

tryItOut 281
Compiling threw: TypeError: redeclaration of variable __proto__

tryItOut 282

tryItOut 283
before 156960, after 139520, break 025fb000

tryItOut 284
Compiling threw: SyntaxError: syntax error

tryItOut 285
Compiling threw: SyntaxError: invalid sharp variable definition

tryItOut 286
Compiling threw: SyntaxError: missing ) after for-loop control

tryItOut 287

tryItOut 288

tryItOut 289
Compiling threw: SyntaxError: syntax error

tryItOut 290
Compiling threw: SyntaxError: invalid for/in left-hand side

tryItOut 291

tryItOut 292
Running threw: TypeError: [[]] is not a function

tryItOut 293

tryItOut 294
It's an iterator!
Iterating succeeded, iterCount == 1

tryItOut 295
Running threw: ReferenceError: prop is not defined

tryItOut 296
Compiling threw: SyntaxError: syntax error

tryItOut 297
Compiling threw: SyntaxError: invalid assignment left-hand side

tryItOut 298
Compiling threw: SyntaxError: missing variable name

tryItOut 299

tryItOut 300
Running threw: ReferenceError: __parent__ is not defined

tryItOut 301
It's an iterator!
Iterating succeeded, iterCount == 1

tryItOut 302
Running threw: ReferenceError: z1 is not defined

tryItOut 303
Compiling threw: SyntaxError: duplicate label

tryItOut 304

tryItOut 305
Compiling threw: SyntaxError: invalid assignment left-hand side

tryItOut 306
Compiling threw: SyntaxError: invalid for/in left-hand side

tryItOut 307
Compiling threw: SyntaxError: missing { before function body

tryItOut 308

tryItOut 309
Compiling threw: SyntaxError: missing ; before statement

tryItOut 310
Compiling threw: SyntaxError: missing while after do-loop body

tryItOut 311

tryItOut 312
Compiling threw: SyntaxError: invalid XML tag syntax

tryItOut 313
before 139520, after 139520, break 025fb000

tryItOut 314
Running threw: TypeError: p.z = <x><y/></x> is not a function

tryItOut 315
Running threw: ReferenceError: z1 is not defined

tryItOut 316
before 139520, after 139520, break 025fb000
before 139520, after 139520, break 025fb000

tryItOut 317
Compiling threw: SyntaxError: missing variable name

tryItOut 318

tryItOut 319

tryItOut 320
Compiling threw: SyntaxError: missing ) in parenthetical

tryItOut 321
Compiling threw: SyntaxError: missing variable name

tryItOut 322

tryItOut 323
Compiling threw: SyntaxError: missing variable name

tryItOut 324
Compiling threw: SyntaxError: invalid for/in left-hand side

tryItOut 325
Compiling threw: SyntaxError: missing ) in parenthetical

tryItOut 326
Compiling threw: SyntaxError: missing variable name

tryItOut 327

tryItOut 328
Compiling threw: SyntaxError: missing ; before statement

tryItOut 329

tryItOut 330
Compiling threw: SyntaxError: missing ] after element list

tryItOut 331
Compiling threw: SyntaxError: missing variable name

tryItOut 332
Compiling threw: SyntaxError: invalid for/in left-hand side

tryItOut 333
Compiling threw: SyntaxError: missing ] after element list

tryItOut 334

tryItOut 335
Compiling threw: SyntaxError: missing ) in parenthetical

tryItOut 336

tryItOut 337
Compiling threw: SyntaxError: syntax error

tryItOut 338
Compiling threw: SyntaxError: missing ) after for-loop control

tryItOut 339

tryItOut 340
Running threw: TypeError: __noSuchMethod__.eval(__parent__) has no properties

tryItOut 341
Compiling threw: SyntaxError: invalid destructuring assignment operator

tryItOut 342

tryItOut 343

tryItOut 344
It's an iterator!
Iterating succeeded, iterCount == 1

tryItOut 345
Compiling threw: SyntaxError: missing ) in parenthetical

tryItOut 346

tryItOut 347
Running threw: ReferenceError: __proto__ is not defined

tryItOut 348
Compiling threw: SyntaxError: missing variable name

tryItOut 349
Compiling threw: SyntaxError: invalid for/in left-hand side

tryItOut 350
Compiling threw: SyntaxError: syntax error

tryItOut 351

tryItOut 352

tryItOut 353

tryItOut 354

tryItOut 355
Compiling threw: SyntaxError: invalid for/in left-hand side

tryItOut 356
Running threw: ReferenceError: __proto__ is not defined

tryItOut 357
Compiling threw: SyntaxError: invalid for/in left-hand side

tryItOut 358
Compiling threw: SyntaxError: duplicate label

tryItOut 359
Running threw: TypeError: [[]] is not a function

tryItOut 360
Compiling threw: SyntaxError: syntax error

tryItOut 361

tryItOut 362
Compiling threw: SyntaxError: missing variable name

tryItOut 363

tryItOut 364
Compiling threw: SyntaxError: invalid assignment left-hand side

tryItOut 365

tryItOut 366

tryItOut 367
Compiling threw: SyntaxError: missing variable name

tryItOut 368
Compiling threw: SyntaxError: invalid for/in left-hand side

tryItOut 369
It's an iterator!
Iterating succeeded, iterCount == 1

tryItOut 370

tryItOut 371

tryItOut 372
Running threw: TypeError: prop has no properties

tryItOut 373
Running threw: 

tryItOut 374

tryItOut 375

tryItOut 376

tryItOut 377
Running threw: ReferenceError: z1 is not defined

tryItOut 378

tryItOut 379

tryItOut 380
Compiling threw: SyntaxError: missing ) in parenthetical

tryItOut 381

tryItOut 382
Compiling threw: SyntaxError: missing variable name

tryItOut 383

tryItOut 384

tryItOut 385
Running threw: ReferenceError: z2 is not defined

tryItOut 386
Compiling threw: SyntaxError: invalid default XML namespace

tryItOut 387
Compiling threw: SyntaxError: syntax error

tryItOut 388
Compiling threw: SyntaxError: invalid assignment left-hand side

tryItOut 389
Running threw: TypeError: <x><y/></x>.yoyo is not a function

tryItOut 390
Compiling threw: SyntaxError: missing ; after for-loop initializer

tryItOut 391
Running threw: ReferenceError: z1 is not defined

tryItOut 392
Compiling threw: SyntaxError: syntax error

tryItOut 393

tryItOut 394
Running threw: TypeError: __parent__ has no properties

tryItOut 395
Compiling threw: SyntaxError: missing ) in parenthetical

tryItOut 396
Compiling threw: SyntaxError: missing ) after for-loop control

tryItOut 397

tryItOut 398
Compiling threw: SyntaxError: missing { before function body

tryItOut 399
Compiling threw: TypeError: redeclaration of variable constructor

tryItOut 400
Compiling threw: TypeError: generator function anonymous returns a value

tryItOut 401
Running threw: TypeError: this.zzz has no properties

tryItOut 402
Compiling threw: SyntaxError: missing variable name

tryItOut 403
Compiling threw: TypeError: redeclaration of variable prop

tryItOut 404
Compiling threw: SyntaxError: missing ) in parenthetical

tryItOut 405
Running threw: 

tryItOut 406
Compiling threw: SyntaxError: missing name in export statement

tryItOut 407

tryItOut 408

tryItOut 409
Compiling threw: SyntaxError: missing variable name

tryItOut 410

tryItOut 411

tryItOut 412
Compiling threw: SyntaxError: invalid decrement operand

tryItOut 413

tryItOut 414

tryItOut 415

tryItOut 416
Compiling threw: SyntaxError: syntax error

tryItOut 417

tryItOut 418

tryItOut 419
Running threw: TypeError: this.zzz has no properties

tryItOut 420

tryItOut 421
Compiling threw: SyntaxError: missing variable name

tryItOut 422
Running threw: 

tryItOut 423

tryItOut 424

tryItOut 425
Compiling threw: SyntaxError: missing ) after argument list

tryItOut 426

tryItOut 427
Compiling threw: SyntaxError: missing ; after for-loop initializer

tryItOut 428
Running threw: 

tryItOut 429
before 244160, after 174400, break 02656000

tryItOut 430
Compiling threw: SyntaxError: invalid for/in left-hand side

tryItOut 431
It's an iterator!
Iterating succeeded, iterCount == 1

tryItOut 432

tryItOut 433

tryItOut 434

tryItOut 435
Compiling threw: SyntaxError: missing ; before statement

tryItOut 436

tryItOut 437

tryItOut 438
Running threw: TypeError: this.zzz has no properties

tryItOut 439

tryItOut 440
Compiling threw: SyntaxError: missing variable name

tryItOut 441
It's an iterator!
Iterating succeeded, iterCount == 1

tryItOut 442
Running threw: <x>
  <y/>
</x>

tryItOut 443

tryItOut 444

tryItOut 445
Compiling threw: SyntaxError: missing variable name

tryItOut 446
Compiling threw: SyntaxError: syntax error

tryItOut 447

tryItOut 448

tryItOut 449

tryItOut 450
Compiling threw: SyntaxError: missing ) in parenthetical

tryItOut 451
Compiling threw: SyntaxError: missing { before function body

tryItOut 452
Running threw: TypeError: ({}) is not a function

tryItOut 453

tryItOut 454
It's an iterator!
Iterating threw!
Iterating threw: 1,

tryItOut 455

tryItOut 456
Compiling threw: SyntaxError: missing ] after element list

tryItOut 457
Compiling threw: SyntaxError: missing ) in parenthetical

tryItOut 458
Compiling threw: SyntaxError: missing variable name

tryItOut 459

tryItOut 460
Compiling threw: TypeError: generator function anonymous returns a value

tryItOut 461

tryItOut 462

tryItOut 463
Compiling threw: TypeError: generator function anonymous returns a value

tryItOut 464

tryItOut 465
Compiling threw: SyntaxError: missing ) after with-statement object

tryItOut 466

tryItOut 467

tryItOut 468

tryItOut 469
Compiling threw: SyntaxError: invalid destructuring assignment operator

tryItOut 470
It's an iterator!
Iterating threw!
Iterating threw: ReferenceError: z1 is not defined

tryItOut 471
Compiling threw: SyntaxError: missing ) in parenthetical

tryItOut 472
before 174400, after 174400, break 02656000

tryItOut 473
Running threw: 1,

tryItOut 474
Compiling threw: SyntaxError: invalid destructuring assignment operator

tryItOut 475
Running threw: ReferenceError: z1 is not defined

tryItOut 476

tryItOut 477
Compiling threw: SyntaxError: invalid assignment left-hand side

tryItOut 478
Compiling threw: SyntaxError: duplicate label

tryItOut 479

tryItOut 480

tryItOut 481

tryItOut 482

tryItOut 483
Running threw: TypeError: this.zzz has no properties

tryItOut 484
before 174400, after 139520, break 02656000
before 139520, after 139520, break 02656000

tryItOut 485

tryItOut 486

tryItOut 487
Compiling threw: SyntaxError: syntax error

tryItOut 488

tryItOut 489

tryItOut 490
Running threw: TypeError: this.zzz has no properties

tryItOut 491
before 139520, after 139520, break 02656000

tryItOut 492
before 139520, after 139520, break 02656000

tryItOut 493
Compiling threw: SyntaxError: invalid assignment left-hand side

tryItOut 494
Compiling threw: SyntaxError: syntax error

tryItOut 495
before 139520, after 139520, break 02656000

tryItOut 496
It's an iterator!
Iterating succeeded, iterCount == 0

tryItOut 497
It's an iterator!
Iterating succeeded, iterCount == 1

tryItOut 498
Running threw: TypeError: <x>
  <y/>
</x> is not a function

tryItOut 499
Compiling threw: SyntaxError: missing ) after for-loop control

tryItOut 500
Compiling threw: SyntaxError: missing ; before statement

tryItOut 501

tryItOut 502

tryItOut 503

tryItOut 504
Compiling threw: SyntaxError: invalid for/in left-hand side

tryItOut 505
Compiling threw: SyntaxError: missing { before function body

tryItOut 506

tryItOut 507
Compiling threw: SyntaxError: syntax error

tryItOut 508

tryItOut 509

tryItOut 510
before 139520, after 139520, break 02656000

tryItOut 511

tryItOut 512
Compiling threw: SyntaxError: missing variable name

tryItOut 513
Compiling threw: SyntaxError: invalid assignment left-hand side

tryItOut 514
Compiling threw: SyntaxError: invalid increment operand

tryItOut 515
It's an iterator!
before 139520, after 139520, break 02656000
Iterating succeeded, iterCount == 0

tryItOut 516
Compiling threw: SyntaxError: missing ) in parenthetical

tryItOut 517
Compiling threw: SyntaxError: missing { before function body

tryItOut 518

tryItOut 519
Compiling threw: SyntaxError: missing ; before statement

tryItOut 520
Compiling threw: SyntaxError: invalid assignment left-hand side

tryItOut 521

tryItOut 522

tryItOut 523
Compiling threw: SyntaxError: missing variable name

tryItOut 524

tryItOut 525
Running threw: <x>
  <y/>
</x>

tryItOut 526
Compiling threw: SyntaxError: missing ] after element list

tryItOut 527
Compiling threw: SyntaxError: unterminated regular expression literal

tryItOut 528

tryItOut 529

tryItOut 530

tryItOut 531

tryItOut 532

tryItOut 533

tryItOut 534
Compiling threw: SyntaxError: missing variable name

tryItOut 535
Compiling threw: SyntaxError: illegal character

tryItOut 536

tryItOut 537
Compiling threw: SyntaxError: syntax error

tryItOut 538

tryItOut 539
Compiling threw: SyntaxError: syntax error

tryItOut 540

tryItOut 541
Compiling threw: SyntaxError: invalid decrement operand

tryItOut 542

tryItOut 543
Compiling threw: SyntaxError: syntax error

tryItOut 544

tryItOut 545

tryItOut 546

tryItOut 547

tryItOut 548
Compiling threw: SyntaxError: invalid assignment left-hand side

tryItOut 549
Compiling threw: SyntaxError: missing ) after condition

tryItOut 550
Compiling threw: SyntaxError: missing { before function body

tryItOut 551

tryItOut 552
Compiling threw: SyntaxError: syntax error

tryItOut 553

tryItOut 554

tryItOut 555
Running threw: TypeError: this.zzz has no properties

tryItOut 556
Running threw: Error: invalid sharp variable use #1#

tryItOut 557

tryItOut 558

tryItOut 559
Compiling threw: SyntaxError: invalid for/in left-hand side

tryItOut 560
Compiling threw: SyntaxError: invalid for/in left-hand side

tryItOut 561
Compiling threw: SyntaxError: missing ; before statement

tryItOut 562
Compiling threw: SyntaxError: syntax error

tryItOut 563

tryItOut 564
Running threw: <x>
  <y/>
</x>

tryItOut 565
before 174400, after 156960, break 02656000

tryItOut 566

tryItOut 567

tryItOut 568
Compiling threw: SyntaxError: missing variable name

tryItOut 569
Compiling threw: SyntaxError: missing variable name

tryItOut 570
Compiling threw: SyntaxError: missing ] after element list

tryItOut 571
Compiling threw: SyntaxError: missing ) after argument list

tryItOut 572
Compiling threw: SyntaxError: invalid sharp variable definition

tryItOut 573

tryItOut 574
Compiling threw: SyntaxError: invalid for/in left-hand side

tryItOut 575
Compiling threw: SyntaxError: invalid destructuring assignment operator

tryItOut 576
Compiling threw: SyntaxError: missing variable name

tryItOut 577
Compiling threw: SyntaxError: missing ) in parenthetical

tryItOut 578
Running threw: TypeError: new <x><y/></x>.watch([, , ]) is not a function

tryItOut 579
Compiling threw: SyntaxError: invalid for/in left-hand side

tryItOut 580
Compiling threw: SyntaxError: syntax error

tryItOut 581

tryItOut 582
Compiling threw: SyntaxError: missing ) in parenthetical

tryItOut 583
Running threw: TypeError: __iterator__ is not a function

tryItOut 584

tryItOut 585

tryItOut 586

tryItOut 587
Compiling threw: SyntaxError: invalid assignment left-hand side

tryItOut 588

tryItOut 589
Compiling threw: SyntaxError: missing { before function body

tryItOut 590
before 156960, after 139520, break 02656000

tryItOut 591
Running threw: /x/

tryItOut 592

tryItOut 593

tryItOut 594

tryItOut 595
Running threw: TypeError: ({}) is not a function

tryItOut 596
Running threw: ReferenceError: z2 is not defined

tryItOut 597
Compiling threw: SyntaxError: missing ; before statement

tryItOut 598

tryItOut 599
Compiling threw: SyntaxError: duplicate label

tryItOut 600

tryItOut 601
Running threw: TypeError: this.zzz has no properties

tryItOut 602
before 139520, after 139520, break 02656000
before 139520, after 139520, break 02656000

tryItOut 603
Compiling threw: SyntaxError: invalid for/in left-hand side

tryItOut 604
Compiling threw: SyntaxError: invalid for/in left-hand side

tryItOut 605
Compiling threw: SyntaxError: syntax error

tryItOut 606

tryItOut 607
Compiling threw: SyntaxError: missing variable name

tryItOut 608
Compiling threw: SyntaxError: syntax error

tryItOut 609

tryItOut 610

tryItOut 611
Compiling threw: SyntaxError: missing } after let block

tryItOut 612
Compiling threw: SyntaxError: invalid assignment left-hand side

tryItOut 613
Running threw: <x>
  <y/>
</x>

tryItOut 614

tryItOut 615

tryItOut 616

tryItOut 617
Compiling threw: SyntaxError: missing ; after for-loop initializer

tryItOut 618

tryItOut 619

tryItOut 620
Running threw: ReferenceError: z1 is not defined

tryItOut 621
Compiling threw: SyntaxError: invalid for/in left-hand side

tryItOut 622

tryItOut 623

tryItOut 624
Compiling threw: SyntaxError: missing ) after for-loop control

tryItOut 625

tryItOut 626
It's an iterator!
Iterating succeeded, iterCount == 1

tryItOut 627
Compiling threw: TypeError: generator function anonymous returns a value

tryItOut 628
Running threw: TypeError: ({}) is not a constructor

tryItOut 629
Running threw: TypeError: this.zzz has no properties

tryItOut 630

tryItOut 631
Compiling threw: SyntaxError: missing ; before statement

tryItOut 632

tryItOut 633
Compiling threw: SyntaxError: missing ) in parenthetical

tryItOut 634
Compiling threw: SyntaxError: missing ) in parenthetical

tryItOut 635
Running threw: TypeError: <x>
  <y/>
</x> is not a constructor

tryItOut 636
uneval returned the string: []

tryItOut 637
Compiling threw: SyntaxError: missing ) in parenthetical

tryItOut 638
Compiling threw: SyntaxError: invalid for/in left-hand side

tryItOut 639

tryItOut 640

tryItOut 641
Compiling threw: SyntaxError: invalid for/in left-hand side

tryItOut 642
Compiling threw: SyntaxError: missing ; after for-loop initializer

tryItOut 643
Compiling threw: SyntaxError: invalid destructuring assignment operator

tryItOut 644
It's an iterator!
Iterating threw!
Iterating threw: TypeError: undefined has no properties

tryItOut 645

tryItOut 646
Compiling threw: SyntaxError: syntax error

tryItOut 647
Compiling threw: SyntaxError: invalid for/in left-hand side

tryItOut 648
before 156960, after 156960, break 02656000

tryItOut 649

tryItOut 650

tryItOut 651
Compiling threw: SyntaxError: missing name after . operator

tryItOut 652

tryItOut 653
Running threw: SyntaxError: malformed formal parameter

tryItOut 654
Compiling threw: SyntaxError: missing = in destructuring declaration

tryItOut 655
Compiling threw: SyntaxError: syntax error

tryItOut 656
Compiling threw: SyntaxError: missing ) in parenthetical

tryItOut 657
Compiling threw: SyntaxError: missing ; after for-loop initializer

tryItOut 658
It's an iterator!
Iterating succeeded, iterCount == 1

tryItOut 659

tryItOut 660

tryItOut 661
Compiling threw: SyntaxError: missing variable name

tryItOut 662
Compiling threw: SyntaxError: missing ; before statement

tryItOut 663

tryItOut 664
Compiling threw: SyntaxError: missing ] after element list

tryItOut 665
Compiling threw: SyntaxError: missing while after do-loop body

tryItOut 666
Compiling threw: SyntaxError: missing ; before statement

tryItOut 667
Compiling threw: SyntaxError: syntax error

tryItOut 668
Running threw: TypeError: #1=[, #1#].__iterator__ has no properties

tryItOut 669
Running threw: TypeError: this.zzz has no properties

tryItOut 670
Compiling threw: SyntaxError: missing ; after for-loop initializer

tryItOut 671
Compiling threw: SyntaxError: missing ) in parenthetical

tryItOut 672
Running threw: 0

tryItOut 673
Compiling threw: SyntaxError: invalid for/in left-hand side

tryItOut 674
Compiling threw: SyntaxError: invalid assignment left-hand side

tryItOut 675

tryItOut 676
Running threw: ReferenceError: z2 is not defined

tryItOut 677
Compiling threw: SyntaxError: missing { before function body

tryItOut 678
Compiling threw: SyntaxError: syntax error

tryItOut 679
Compiling threw: SyntaxError: syntax error

tryItOut 680

tryItOut 681
Compiling threw: SyntaxError: missing variable name

tryItOut 682
It's an iterator!
Iterating succeeded, iterCount == 1

tryItOut 683

tryItOut 684

tryItOut 685

tryItOut 686

tryItOut 687

tryItOut 688
Compiling threw: TypeError: redeclaration of const __count__

tryItOut 689

tryItOut 690

tryItOut 691
Compiling threw: SyntaxError: invalid sharp variable definition

tryItOut 692

tryItOut 693
Compiling threw: SyntaxError: missing { before function body

tryItOut 694

tryItOut 695
Compiling threw: SyntaxError: missing { before function body

tryItOut 696

tryItOut 697

tryItOut 698
It's an iterator!
Iterating succeeded, iterCount == 1

tryItOut 699

tryItOut 700
before 174400, after 156960, break 02656000

tryItOut 701
Compiling threw: SyntaxError: missing ( before let head

tryItOut 702

tryItOut 703
Compiling threw: SyntaxError: missing ) in parenthetical

tryItOut 704

tryItOut 705

tryItOut 706

tryItOut 707
uneval returned the string: []

tryItOut 708
before 156960, after 139520, break 02656000
uneval returned the string: [[]]

tryItOut 709

tryItOut 710
Compiling threw: SyntaxError: invalid assignment left-hand side

tryItOut 711
Running threw: TypeError: p.z = "" is not a function

tryItOut 712

tryItOut 713
Running threw: <x>
  <y/>
</x>

tryItOut 714

tryItOut 715
It's an iterator!
Iterating succeeded, iterCount == 1

tryItOut 716

tryItOut 717

tryItOut 718

tryItOut 719
Compiling threw: SyntaxError: invalid for/in left-hand side

tryItOut 720

tryItOut 721

tryItOut 722
Compiling threw: SyntaxError: invalid assignment left-hand side

tryItOut 723
Compiling threw: SyntaxError: duplicate label

tryItOut 724
Compiling threw: SyntaxError: missing ) after condition

tryItOut 725

tryItOut 726
Compiling threw: SyntaxError: missing = in destructuring declaration

tryItOut 727
Compiling threw: SyntaxError: missing ] after element list

tryItOut 728

tryItOut 729

tryItOut 730
before 139520, after 139520, break 02656000

tryItOut 731
Compiling threw: SyntaxError: invalid for/in left-hand side

tryItOut 732
Compiling threw: SyntaxError: invalid for/in left-hand side

tryItOut 733

tryItOut 734

tryItOut 735
Compiling threw: SyntaxError: missing variable name

tryItOut 736
Running threw: ReferenceError: z2 is not defined

tryItOut 737
Running threw: TypeError: ({}) is not a function

tryItOut 738
Compiling threw: SyntaxError: missing variable name

tryItOut 739

tryItOut 740
Compiling threw: SyntaxError: illegal XML character

tryItOut 741

tryItOut 742

tryItOut 743
Compiling threw: SyntaxError: invalid for/in left-hand side

tryItOut 744
Running threw: TypeError: ({}) is not a function

tryItOut 745

tryItOut 746
before 139520, after 139520, break 02656000
Running threw: <x>
  <y/>
</x>

tryItOut 747
Compiling threw: SyntaxError: syntax error

tryItOut 748

tryItOut 749
It's an iterator!
Iterating succeeded, iterCount == 1

tryItOut 750

tryItOut 751
Compiling threw: SyntaxError: missing ) in parenthetical

tryItOut 752

tryItOut 753

tryItOut 754
Compiling threw: SyntaxError: missing ) in parenthetical

tryItOut 755
Running threw: TypeError: __noSuchMethod__.__iterator__ has no properties

tryItOut 756

tryItOut 757
before 139520, after 139520, break 02656000

tryItOut 758

tryItOut 759
Compiling threw: SyntaxError: invalid assignment left-hand side

tryItOut 760
Compiling threw: SyntaxError: missing ; before statement

tryItOut 761
Running threw: TypeError: __noSuchMethod__ has no properties

tryItOut 762

tryItOut 763
Running threw: Error: invalid sharp variable use #1#

tryItOut 764
Compiling threw: SyntaxError: missing ; before statement

tryItOut 765
Compiling threw: SyntaxError: invalid for/in left-hand side

tryItOut 766
Running threw: TypeError: <x><y/></x>.(<x><y/></x>).__defineSetter__("prop", Math.sin) has no properties

tryItOut 767
Compiling threw: SyntaxError: missing ) in parenthetical

tryItOut 768
Compiling threw: SyntaxError: invalid for/in left-hand side

tryItOut 769
Compiling threw: SyntaxError: missing { before function body

tryItOut 770

tryItOut 771
Compiling threw: SyntaxError: syntax error

tryItOut 772
Compiling threw: SyntaxError: invalid for/in left-hand side

tryItOut 773

tryItOut 774
Compiling threw: SyntaxError: missing ] after element list

tryItOut 775

tryItOut 776
Running threw: <x>
  <y/>
</x>

tryItOut 777
Compiling threw: SyntaxError: missing } after finally block

tryItOut 778
Compiling threw: SyntaxError: missing } in compound statement

tryItOut 779

tryItOut 780
Compiling threw: SyntaxError: invalid assignment left-hand side

tryItOut 781
Compiling threw: SyntaxError: missing name in export statement

tryItOut 782
Running threw: <x>
  <y/>
</x>

tryItOut 783
Compiling threw: SyntaxError: invalid destructuring assignment operator

tryItOut 784

tryItOut 785

tryItOut 786

tryItOut 787
Compiling threw: SyntaxError: invalid for/in left-hand side

tryItOut 788
before 139520, after 139520, break 02656000

tryItOut 789
Compiling threw: SyntaxError: missing { before function body

tryItOut 790

tryItOut 791

tryItOut 792

tryItOut 793
before 139520, after 139520, break 02656000

tryItOut 794

tryItOut 795

tryItOut 796

tryItOut 797

tryItOut 798

tryItOut 799
Running threw: TypeError: p.z = [<x><y/></x>] is not a function

tryItOut 800

tryItOut 801
It's an iterator!
Iterating succeeded, iterCount == 1

tryItOut 802
Compiling threw: SyntaxError: missing = in destructuring declaration

tryItOut 803
Compiling threw: SyntaxError: missing ; before statement

tryItOut 804
Compiling threw: SyntaxError: missing ) in parenthetical

tryItOut 805

tryItOut 806
Compiling threw: SyntaxError: missing ] after element list

tryItOut 807
Running threw: TypeError: <x>
  <y/>
</x> is not a function

tryItOut 808
Compiling threw: SyntaxError: missing ) in parenthetical

tryItOut 809
Compiling threw: SyntaxError: missing ] after element list

tryItOut 810
Compiling threw: SyntaxError: missing { before function body

tryItOut 811
Compiling threw: SyntaxError: missing ; before statement

tryItOut 812

tryItOut 813

tryItOut 814
Running threw: ReferenceError: returnreturn is not defined

tryItOut 815

tryItOut 816
Compiling threw: SyntaxError: invalid for/in left-hand side

tryItOut 817

tryItOut 818
Compiling threw: SyntaxError: syntax error

tryItOut 819
Compiling threw: SyntaxError: missing ) in parenthetical

tryItOut 820
Compiling threw: SyntaxError: syntax error

tryItOut 821
Compiling threw: SyntaxError: invalid assignment left-hand side

tryItOut 822
Compiling threw: SyntaxError: invalid for/in left-hand side

tryItOut 823
Compiling threw: SyntaxError: invalid assignment left-hand side

tryItOut 824
Compiling threw: SyntaxError: missing } after let block

tryItOut 825
Running threw: ReferenceError: z1 is not defined

tryItOut 826
Compiling threw: SyntaxError: syntax error

tryItOut 827
Compiling threw: SyntaxError: invalid assignment left-hand side

tryItOut 828
Compiling threw: SyntaxError: missing variable name

tryItOut 829
Compiling threw: SyntaxError: syntax error

tryItOut 830
Compiling threw: SyntaxError: missing ; before statement

tryItOut 831

tryItOut 832
Compiling threw: SyntaxError: invalid default XML namespace

tryItOut 833
Running threw: 

tryItOut 834
Compiling threw: SyntaxError: invalid sharp variable definition

tryItOut 835
Running threw: undefined

tryItOut 836
Compiling threw: SyntaxError: invalid decrement operand

tryItOut 837

tryItOut 838
Compiling threw: SyntaxError: missing ; before statement

tryItOut 839

tryItOut 840
Compiling threw: SyntaxError: invalid increment operand

tryItOut 841

tryItOut 842

tryItOut 843
Compiling threw: SyntaxError: illegal XML character

tryItOut 844
Running threw: ReferenceError: z1 is not defined

tryItOut 845
Compiling threw: SyntaxError: missing ; before statement

tryItOut 846

tryItOut 847
Running threw: TypeError: true is not a constructor

tryItOut 848

tryItOut 849
before 156960, after 156960, break 02656000
before 156960, after 156960, break 02656000

tryItOut 850

tryItOut 851
Running threw: SyntaxError: invalid setter usage

tryItOut 852

tryItOut 853
Compiling threw: SyntaxError: missing ; before statement

tryItOut 854
It's an iterator!
Iterating succeeded, iterCount == 1

tryItOut 855

tryItOut 856
Compiling threw: SyntaxError: missing variable name

tryItOut 857
It's an iterator!
Iterating succeeded, iterCount == 1

tryItOut 858
Compiling threw: SyntaxError: invalid increment operand

tryItOut 859

tryItOut 860
Compiling threw: SyntaxError: missing ) in parenthetical

tryItOut 861
Compiling threw: SyntaxError: invalid increment operand

tryItOut 862

tryItOut 863
Compiling threw: SyntaxError: missing { before function body

tryItOut 864
Compiling threw: SyntaxError: syntax error

tryItOut 865
Compiling threw: SyntaxError: duplicate label

tryItOut 866

tryItOut 867
Running threw: TypeError: undefined has no properties

tryItOut 868
Compiling threw: SyntaxError: missing variable name

tryItOut 869

tryItOut 870

tryItOut 871
Running threw: Error: invalid sharp variable use #1#

tryItOut 872

tryItOut 873
Compiling threw: SyntaxError: missing ; before statement

tryItOut 874
Compiling threw: SyntaxError: missing ] after element list

tryItOut 875
Compiling threw: TypeError: redeclaration of const __parent__

tryItOut 876
It's an iterator!
Iterating succeeded, iterCount == 1

tryItOut 877
Running threw: function (id) {
    return id;
}

tryItOut 878
before 156960, after 139520, break 02656000

tryItOut 879
Running threw: TypeError: __parent__ has no properties

tryItOut 880
Compiling threw: SyntaxError: missing : in conditional expression

tryItOut 881

tryItOut 882

tryItOut 883
Compiling threw: SyntaxError: missing { before function body

tryItOut 884

tryItOut 885

tryItOut 886

tryItOut 887
It's an iterator!
Iterating succeeded, iterCount == 0

tryItOut 888
Compiling threw: SyntaxError: missing ; after for-loop initializer

tryItOut 889
Running threw: ReferenceError: z1 is not defined

tryItOut 890
Compiling threw: SyntaxError: syntax error

tryItOut 891

tryItOut 892

tryItOut 893
It's an iterator!
Iterating succeeded, iterCount == 1

tryItOut 894

tryItOut 895

tryItOut 896
Compiling threw: TypeError: generator function anonymous returns a value

tryItOut 897
Compiling threw: SyntaxError: missing ) after with-statement object

tryItOut 898
Running threw: TypeError: "" is not a function

tryItOut 899
Compiling threw: SyntaxError: missing { before function body

tryItOut 900
Compiling threw: SyntaxError: missing ; before statement

tryItOut 901

tryItOut 902
Compiling threw: SyntaxError: syntax error

tryItOut 903
Compiling threw: SyntaxError: missing variable name

tryItOut 904

tryItOut 905

tryItOut 906

tryItOut 907
Compiling threw: SyntaxError: invalid sharp variable definition

tryItOut 908

tryItOut 909
Compiling threw: SyntaxError: invalid for/in left-hand side

tryItOut 910
Compiling threw: SyntaxError: illegal XML character

tryItOut 911

tryItOut 912

tryItOut 913
Compiling threw: SyntaxError: invalid assignment left-hand side

tryItOut 914
Compiling threw: SyntaxError: invalid decrement operand

tryItOut 915

tryItOut 916

tryItOut 917

tryItOut 918
Compiling threw: SyntaxError: illegal XML character

tryItOut 919

tryItOut 920

tryItOut 921

tryItOut 922

tryItOut 923
Compiling threw: SyntaxError: missing ] after element list

tryItOut 924
It's an iterator!
Iterating succeeded, iterCount == 1

tryItOut 925
Compiling threw: SyntaxError: missing variable name

tryItOut 926

tryItOut 927
Compiling threw: TypeError: redeclaration of var prop

tryItOut 928
Compiling threw: SyntaxError: missing ) after for-loop control

tryItOut 929

tryItOut 930
Compiling threw: SyntaxError: missing variable name

tryItOut 931

tryItOut 932
Compiling threw: SyntaxError: syntax error

tryItOut 933
Compiling threw: SyntaxError: illegal XML character

tryItOut 934
Compiling threw: SyntaxError: missing ; before statement

tryItOut 935
Running threw: ReferenceError: z2 is not defined

tryItOut 936

tryItOut 937

tryItOut 938

tryItOut 939
Running threw: ReferenceError: z2 is not defined

tryItOut 940

tryItOut 941
Compiling threw: SyntaxError: missing ) in parenthetical

tryItOut 942

tryItOut 943

tryItOut 944
Compiling threw: SyntaxError: invalid assignment left-hand side

tryItOut 945

tryItOut 946
Compiling threw: SyntaxError: missing { before function body

tryItOut 947
before 191840, after 156960, break 02656000

tryItOut 948
Compiling threw: SyntaxError: missing ; before statement

tryItOut 949
Compiling threw: SyntaxError: missing variable name

tryItOut 950
Running threw: TypeError: this.zzz has no properties

tryItOut 951
Running threw: <x>
  <y/>
</x>

tryItOut 952
Compiling threw: SyntaxError: invalid for/in left-hand side

tryItOut 953

tryItOut 954

tryItOut 955
Compiling threw: SyntaxError: syntax error

tryItOut 956
Compiling threw: SyntaxError: invalid increment operand

tryItOut 957
Compiling threw: SyntaxError: missing { before function body

tryItOut 958
Compiling threw: SyntaxError: syntax error

tryItOut 959
Running threw: function RegExp() {
    [native code]
}

tryItOut 960
Compiling threw: SyntaxError: missing = in destructuring declaration

tryItOut 961

tryItOut 962

tryItOut 963

tryItOut 964

tryItOut 965
Compiling threw: SyntaxError: duplicate label

tryItOut 966

tryItOut 967
Compiling threw: SyntaxError: syntax error

tryItOut 968

tryItOut 969
Compiling threw: TypeError: redeclaration of const __noSuchMethod__

tryItOut 970
Compiling threw: SyntaxError: invalid assignment left-hand side

tryItOut 971
Running threw: ReferenceError: z2 is not defined

tryItOut 972
Compiling threw: SyntaxError: missing ) after condition

tryItOut 973
Running threw: TypeError: arguments[0] has no properties

tryItOut 974

tryItOut 975
Compiling threw: SyntaxError: syntax error

tryItOut 976

tryItOut 977

tryItOut 978
It's an iterator!
Iterating succeeded, iterCount == 1

tryItOut 979
Compiling threw: SyntaxError: invalid assignment left-hand side

tryItOut 980
Compiling threw: SyntaxError: missing variable name

tryItOut 981
Compiling threw: SyntaxError: missing ; after for-loop initializer

tryItOut 982
It's an iterator!
Iterating succeeded, iterCount == 1

tryItOut 983
Compiling threw: SyntaxError: syntax error

tryItOut 984
Compiling threw: SyntaxError: missing ; before statement

tryItOut 985
Compiling threw: SyntaxError: missing ; before statement

tryItOut 986
Running threw: <x>
  <y/>
</x>

tryItOut 987
Compiling threw: SyntaxError: missing ; before statement

tryItOut 988
Compiling threw: SyntaxError: missing ) in parenthetical

tryItOut 989

tryItOut 990
Compiling threw: SyntaxError: invalid decrement operand

tryItOut 991
Compiling threw: SyntaxError: invalid assignment left-hand side

tryItOut 992
Compiling threw: SyntaxError: missing } after let block

tryItOut 993

tryItOut 994
Compiling threw: SyntaxError: invalid for/in left-hand side

tryItOut 995

tryItOut 996

tryItOut 997
It's an iterator!
Iterating threw!
Iterating threw: Error: invalid sharp variable use #1#

tryItOut 998

tryItOut 999
Running threw: <x>
  <y/>
</x>

tryItOut 1000
It's an iterator!
Iterating succeeded, iterCount == 2

ALL OK

Script done on Sat 04 May 2013 07:43:28 AM PDT
