Script started on Sat 04 May 2013 07:44:45 AM PDT
***
Targeting SpiderMonkey / Gecko.

tryItOut 1

tryItOut 2
It's an iterator!
Iterating succeeded, iterCount == 1

tryItOut 3
Compiling threw: SyntaxError: syntax error

tryItOut 4
Compiling threw: SyntaxError: missing { before function body

tryItOut 5

tryItOut 6

tryItOut 7

tryItOut 8
Compiling threw: SyntaxError: invalid assignment left-hand side

tryItOut 9
Compiling threw: SyntaxError: syntax error

tryItOut 10
Compiling threw: SyntaxError: missing ; before statement

tryItOut 11
Compiling threw: SyntaxError: syntax error

tryItOut 12

tryItOut 13
Compiling threw: SyntaxError: invalid for/in left-hand side

tryItOut 14
Running threw: TypeError: undefined has no properties

tryItOut 15

tryItOut 16

tryItOut 17
Compiling threw: TypeError: redeclaration of variable constructor

tryItOut 18

tryItOut 19

tryItOut 20

tryItOut 21
Compiling threw: SyntaxError: missing ) after condition

tryItOut 22
Running threw: [object StopIteration]

tryItOut 23

tryItOut 24

tryItOut 25

tryItOut 26
Compiling threw: SyntaxError: invalid for/in left-hand side

tryItOut 27
Compiling threw: SyntaxError: invalid assignment left-hand side

tryItOut 28
Compiling threw: SyntaxError: missing name after . operator

tryItOut 29
It's an iterator!
Iterating succeeded, iterCount == 1

tryItOut 30

tryItOut 31
Compiling threw: SyntaxError: missing variable name

tryItOut 32

tryItOut 33
Compiling threw: SyntaxError: missing ) in parenthetical

tryItOut 34

tryItOut 35
It's an iterator!
Iterating succeeded, iterCount == 1

tryItOut 36
Running threw: ReferenceError: z1 is not defined

tryItOut 37
Compiling threw: TypeError: generator function anonymous returns a value

tryItOut 38

tryItOut 39

tryItOut 40

tryItOut 41
Compiling threw: SyntaxError: missing ; after for-loop initializer

tryItOut 42
It's an iterator!
Iterating succeeded, iterCount == 1

tryItOut 43
Compiling threw: SyntaxError: missing ) in parenthetical

tryItOut 44
Running threw: ReferenceError: prototype is not defined

tryItOut 45

tryItOut 46
Compiling threw: SyntaxError: invalid for/in left-hand side

tryItOut 47

tryItOut 48
Compiling threw: SyntaxError: missing ) after let head

tryItOut 49
Compiling threw: SyntaxError: invalid assignment left-hand side

tryItOut 50
Compiling threw: SyntaxError: missing } after let block

tryItOut 51
Running threw: TypeError: redeclaration of const __parent__

tryItOut 52

tryItOut 53
Compiling threw: SyntaxError: missing ; before statement

tryItOut 54
Compiling threw: SyntaxError: syntax error

tryItOut 55
Running threw: [object StopIteration]

tryItOut 56

tryItOut 57
Compiling threw: SyntaxError: invalid for/in left-hand side

tryItOut 58

tryItOut 59
Compiling threw: SyntaxError: missing variable name

tryItOut 60

tryItOut 61

tryItOut 62

tryItOut 63

tryItOut 64

tryItOut 65
Running threw: ReferenceError: __iterator__ is not defined

tryItOut 66
Compiling threw: SyntaxError: invalid for/in left-hand side

tryItOut 67

tryItOut 68

tryItOut 69

tryItOut 70
Compiling threw: TypeError: redeclaration of const prototype

tryItOut 71
Compiling threw: SyntaxError: invalid for/in left-hand side

tryItOut 72

tryItOut 73
Compiling threw: SyntaxError: invalid assignment left-hand side

tryItOut 74
Compiling threw: SyntaxError: invalid assignment left-hand side

tryItOut 75
It's an iterator!
Iterating succeeded, iterCount == 1

tryItOut 76

tryItOut 77

tryItOut 78
Compiling threw: SyntaxError: invalid for/in left-hand side

tryItOut 79
Compiling threw: SyntaxError: syntax error

tryItOut 80
Compiling threw: SyntaxError: invalid for/in left-hand side

tryItOut 81
Compiling threw: SyntaxError: invalid switch statement

tryItOut 82
Compiling threw: SyntaxError: missing ) in parenthetical

tryItOut 83
It's an iterator!
Iterating threw!
Iterating threw: ReferenceError: z2 is not defined

tryItOut 84
Compiling threw: SyntaxError: missing = in destructuring declaration

tryItOut 85
Running threw: TypeError: this.zzz has no properties

tryItOut 86
Running threw: [object StopIteration]

tryItOut 87

tryItOut 88
Compiling threw: SyntaxError: invalid assignment left-hand side

tryItOut 89
Compiling threw: SyntaxError: missing : after property id

tryItOut 90
Compiling threw: SyntaxError: invalid for/in left-hand side

tryItOut 91
Compiling threw: SyntaxError: missing variable name

tryItOut 92
It's an iterator!
Iterating succeeded, iterCount == 1

tryItOut 93
Compiling threw: SyntaxError: missing { before function body

tryItOut 94
Compiling threw: SyntaxError: syntax error

tryItOut 95

tryItOut 96
Compiling threw: SyntaxError: missing variable name

tryItOut 97
Compiling threw: SyntaxError: invalid assignment left-hand side

tryItOut 98
Running threw: ReferenceError: prop is not defined

tryItOut 99

tryItOut 100
Compiling threw: SyntaxError: missing ; after for-loop initializer

tryItOut 101
Compiling threw: SyntaxError: invalid assignment left-hand side

tryItOut 102
Compiling threw: SyntaxError: missing { before function body

tryItOut 103
Compiling threw: SyntaxError: syntax error

tryItOut 104

tryItOut 105
before 122080, after 122080, break 0280c000
Running threw: TypeError: ({}) is not a function

tryItOut 106

tryItOut 107

tryItOut 108

tryItOut 109

tryItOut 110

tryItOut 111

tryItOut 112
Running threw: [object StopIteration]

tryItOut 113
Running threw: TypeError: this.zzz has no properties

tryItOut 114
Compiling threw: SyntaxError: missing } after let block

tryItOut 115
Compiling threw: SyntaxError: syntax error

tryItOut 116
Running threw: [object StopIteration]

tryItOut 117
Running threw: ReferenceError: __parent__ is not defined

tryItOut 118
It's an iterator!
Iterating succeeded, iterCount == 1

tryItOut 119

tryItOut 120

tryItOut 121
Compiling threw: SyntaxError: missing variable name

tryItOut 122
Running threw: ReferenceError: prop is not defined

tryItOut 123

tryItOut 124
Compiling threw: SyntaxError: invalid for/in left-hand side

tryItOut 125
Compiling threw: SyntaxError: invalid assignment left-hand side

tryItOut 126
Running threw: SyntaxError: invalid getter usage

tryItOut 127
Running threw: ReferenceError: constructor is not defined

tryItOut 128
Compiling threw: TypeError: generator function anonymous returns a value

tryItOut 129
Compiling threw: SyntaxError: invalid for/in left-hand side

tryItOut 130

tryItOut 131

tryItOut 132

tryItOut 133
Compiling threw: SyntaxError: invalid assignment left-hand side

tryItOut 134

tryItOut 135

tryItOut 136
Running threw: TypeError: <x/> is not a constructor

tryItOut 137
Running threw: TypeError: this.zzz has no properties

tryItOut 138

tryItOut 139
Compiling threw: SyntaxError: illegal XML character

tryItOut 140
Compiling threw: TypeError: generator function anonymous returns a value

tryItOut 141
Compiling threw: SyntaxError: missing ; before statement

tryItOut 142
Compiling threw: SyntaxError: missing ; before statement

tryItOut 143
Compiling threw: SyntaxError: missing ) in parenthetical

tryItOut 144
before 139520, after 139520, break 02844000

tryItOut 145
Compiling threw: TypeError: generator function anonymous returns a value

tryItOut 146
Running threw: ReferenceError: __parent__ is not defined

tryItOut 147
Compiling threw: SyntaxError: missing { before function body

tryItOut 148
Compiling threw: SyntaxError: unterminated string literal

tryItOut 149
Compiling threw: SyntaxError: missing formal parameter

tryItOut 150
Compiling threw: SyntaxError: finally without try

tryItOut 151

tryItOut 152
Running threw: TypeError: this.zzz has no properties

tryItOut 153
Compiling threw: TypeError: generator function anonymous returns a value

tryItOut 154
Compiling threw: SyntaxError: syntax error

tryItOut 155
Compiling threw: SyntaxError: unterminated string literal

tryItOut 156
Compiling threw: TypeError: redeclaration of variable constructor

tryItOut 157
Compiling threw: SyntaxError: invalid destructuring assignment operator

tryItOut 158
Compiling threw: SyntaxError: invalid for/in left-hand side

tryItOut 159
Compiling threw: SyntaxError: syntax error

tryItOut 160
Compiling threw: SyntaxError: missing ) after for-loop control

tryItOut 161
Compiling threw: SyntaxError: invalid XML tag syntax

tryItOut 162
It's an iterator!
Iterating threw!
Iterating threw: ReferenceError: prop is not defined

tryItOut 163
Compiling threw: SyntaxError: missing { before function body

tryItOut 164
Running threw: TypeError: this.zzz has no properties

tryItOut 165
Compiling threw: SyntaxError: missing = in destructuring declaration

tryItOut 166
Compiling threw: SyntaxError: invalid assignment left-hand side

tryItOut 167
Compiling threw: SyntaxError: syntax error

tryItOut 168
Compiling threw: SyntaxError: invalid for/in left-hand side

tryItOut 169

tryItOut 170

tryItOut 171
Running threw: ReferenceError: __proto__ is not defined

tryItOut 172
Compiling threw: SyntaxError: missing { before function body

tryItOut 173
Compiling threw: SyntaxError: syntax error

tryItOut 174

tryItOut 175

tryItOut 176
Running threw: TypeError: this.zzz has no properties

tryItOut 177

tryItOut 178
Compiling threw: SyntaxError: missing } after let block

tryItOut 179
Compiling threw: SyntaxError: missing { before function body

tryItOut 180
Compiling threw: TypeError: generator function anonymous returns a value

tryItOut 181

tryItOut 182
before 139520, after 122080, break 0282a000

tryItOut 183
before 122080, after 122080, break 0281d000

tryItOut 184
Compiling threw: SyntaxError: missing { before function body

tryItOut 185
Running threw: ReferenceError: constructor is not defined

tryItOut 186
Compiling threw: SyntaxError: missing ) after argument list

tryItOut 187
Compiling threw: SyntaxError: syntax error

tryItOut 188

tryItOut 189
Running threw: ReferenceError: __parent__ is not defined

tryItOut 190
Compiling threw: SyntaxError: missing while after do-loop body

tryItOut 191
Running threw: TypeError: this.zzz has no properties

tryItOut 192
before 122080, after 122080, break 0281d000

tryItOut 193
Compiling threw: SyntaxError: missing { before function body

tryItOut 194

tryItOut 195
Compiling threw: SyntaxError: invalid assignment left-hand side

tryItOut 196
Running threw: ReferenceError: prototype is not defined

tryItOut 197
Compiling threw: SyntaxError: missing { before function body

tryItOut 198

tryItOut 199
Compiling threw: SyntaxError: missing { before function body

tryItOut 200
Running threw: TypeError: this.zzz has no properties

tryItOut 201
Running threw: ReferenceError: __proto__ is not defined

tryItOut 202

tryItOut 203
Compiling threw: SyntaxError: missing ; before statement

tryItOut 204
Compiling threw: SyntaxError: invalid XML name

tryItOut 205
Compiling threw: SyntaxError: syntax error

tryItOut 206
Running threw: ReferenceError: prototype is not defined

tryItOut 207
Compiling threw: SyntaxError: invalid sharp variable definition

tryItOut 208
Compiling threw: SyntaxError: syntax error

tryItOut 209
Running threw: Error: invalid sharp variable use #1#

tryItOut 210
Compiling threw: TypeError: redeclaration of var prototype

tryItOut 211

tryItOut 212
Compiling threw: SyntaxError: missing ) after condition

tryItOut 213
Compiling threw: TypeError: redeclaration of const __noSuchMethod__

tryItOut 214
Compiling threw: SyntaxError: missing ) in parenthetical

tryItOut 215
before 122080, after 122080, break 0281d000

tryItOut 216
Compiling threw: SyntaxError: invalid assignment left-hand side

tryItOut 217
It's an iterator!
Iterating succeeded, iterCount == 1

tryItOut 218

tryItOut 219

tryItOut 220
Compiling threw: SyntaxError: missing variable name

tryItOut 221
Compiling threw: TypeError: generator function anonymous returns a value

tryItOut 222

tryItOut 223
Compiling threw: SyntaxError: missing ) after condition

tryItOut 224
Compiling threw: SyntaxError: missing { before function body

tryItOut 225
Compiling threw: SyntaxError: syntax error

tryItOut 226
Running threw: ReferenceError: constructor is not defined

tryItOut 227

tryItOut 228
Running threw: ReferenceError: __proto__ is not defined

tryItOut 229

tryItOut 230

tryItOut 231

tryItOut 232
Running threw: ReferenceError: prototype is not defined

tryItOut 233

tryItOut 234
Running threw: ReferenceError: __parent__ is not defined

tryItOut 235

tryItOut 236
Compiling threw: SyntaxError: missing { before function body

tryItOut 237
Compiling threw: SyntaxError: syntax error

tryItOut 238
Compiling threw: SyntaxError: invalid for/in left-hand side

tryItOut 239
Compiling threw: SyntaxError: missing ) in parenthetical

tryItOut 240
Compiling threw: SyntaxError: invalid assignment left-hand side

tryItOut 241
before 122080, after 122080, break 0281d000

tryItOut 242
Compiling threw: SyntaxError: invalid decrement operand

tryItOut 243
Running threw: ReferenceError: __count__ is not defined

tryItOut 244

tryItOut 245

tryItOut 246
Compiling threw: SyntaxError: syntax error

tryItOut 247

tryItOut 248

tryItOut 249
Running threw: ReferenceError: __noSuchMethod__ is not defined

tryItOut 250

tryItOut 251

tryItOut 252
Compiling threw: SyntaxError: syntax error

tryItOut 253
before 122080, after 122080, break 0281d000
Running threw: TypeError: this.__defineSetter__ is not a function

tryItOut 254

tryItOut 255
Compiling threw: SyntaxError: invalid switch statement

tryItOut 256
Compiling threw: SyntaxError: invalid assignment left-hand side

tryItOut 257
Compiling threw: SyntaxError: invalid XML tag syntax

tryItOut 258

tryItOut 259

tryItOut 260
Compiling threw: SyntaxError: missing variable name

tryItOut 261
Compiling threw: SyntaxError: missing { before function body

tryItOut 262

tryItOut 263
Compiling threw: SyntaxError: missing { before function body

tryItOut 264

tryItOut 265
Running threw: ReferenceError: prop is not defined

tryItOut 266
Compiling threw: SyntaxError: missing ) in parenthetical

tryItOut 267
Compiling threw: SyntaxError: missing { before function body

tryItOut 268
Compiling threw: SyntaxError: invalid for/in left-hand side

tryItOut 269

tryItOut 270
Compiling threw: SyntaxError: invalid assignment left-hand side

tryItOut 271
Running threw: [object StopIteration]

tryItOut 272
Running threw: ReferenceError: prototype is not defined

tryItOut 273
Running threw: ReferenceError: __parent__ is not defined

tryItOut 274
before 122080, after 122080, break 0281d000

tryItOut 275

tryItOut 276
Compiling threw: SyntaxError: invalid assignment left-hand side

tryItOut 277

tryItOut 278
Compiling threw: SyntaxError: yield expression must be parenthesized

tryItOut 279
Compiling threw: SyntaxError: syntax error

tryItOut 280
Compiling threw: SyntaxError: missing variable name

tryItOut 281

tryItOut 282
Compiling threw: SyntaxError: missing ) after condition

tryItOut 283
Compiling threw: SyntaxError: invalid for/in left-hand side

tryItOut 284

tryItOut 285
Compiling threw: SyntaxError: invalid assignment left-hand side

tryItOut 286
Compiling threw: SyntaxError: invalid assignment left-hand side

tryItOut 287
Compiling threw: SyntaxError: illegal XML character

tryItOut 288
Compiling threw: SyntaxError: invalid for/in left-hand side

tryItOut 289

tryItOut 290
Compiling threw: SyntaxError: invalid assignment left-hand side

tryItOut 291
Compiling threw: SyntaxError: missing ; after for-loop initializer

tryItOut 292

tryItOut 293
Running threw: TypeError: this.zzz has no properties

tryItOut 294
Compiling threw: SyntaxError: invalid for/in left-hand side

tryItOut 295

tryItOut 296
Compiling threw: SyntaxError: missing while after do-loop body

tryItOut 297
before 122080, after 122080, break 0281d000

tryItOut 298
Compiling threw: SyntaxError: illegal XML character

tryItOut 299
Compiling threw: SyntaxError: syntax error

tryItOut 300

tryItOut 301
Compiling threw: SyntaxError: invalid for/in left-hand side

tryItOut 302
Compiling threw: TypeError: redeclaration of variable __iterator__

tryItOut 303

tryItOut 304
before 122080, after 122080, break 0281d000

tryItOut 305

tryItOut 306
Running threw: ReferenceError: __count__ is not defined

tryItOut 307

tryItOut 308
Compiling threw: SyntaxError: missing } in XML expression

tryItOut 309
Compiling threw: SyntaxError: syntax error

tryItOut 310
Compiling threw: SyntaxError: syntax error

tryItOut 311
Compiling threw: SyntaxError: missing ) after for-loop control

tryItOut 312
Running threw: TypeError: arguments[0] has no properties

tryItOut 313
It's an iterator!
Iterating threw!
Iterating threw: ReferenceError: __parent__ is not defined

tryItOut 314

tryItOut 315
Compiling threw: TypeError: generator function anonymous returns a value

tryItOut 316
Running threw: TypeError: this.zzz has no properties

tryItOut 317

tryItOut 318
Compiling threw: SyntaxError: missing variable name

tryItOut 319
Running threw: TypeError: this.zzz has no properties

tryItOut 320
Compiling threw: SyntaxError: missing ) after condition

tryItOut 321
Compiling threw: SyntaxError: missing while after do-loop body

tryItOut 322

tryItOut 323

tryItOut 324
It's an iterator!
Iterating succeeded, iterCount == 1

tryItOut 325
Compiling threw: SyntaxError: invalid assignment left-hand side

tryItOut 326
Compiling threw: SyntaxError: missing } after let block

tryItOut 327
It's an iterator!
Iterating succeeded, iterCount == 1

tryItOut 328

tryItOut 329

tryItOut 330
Compiling threw: SyntaxError: missing name after . operator

tryItOut 331

tryItOut 332
It's an iterator!
Iterating threw!
Iterating threw: TypeError: <x/>.yoyo is not a function

tryItOut 333

tryItOut 334
Compiling threw: SyntaxError: missing variable name

tryItOut 335
Compiling threw: SyntaxError: invalid assignment left-hand side

tryItOut 336
Running threw: ReferenceError: __iterator__ is not defined

tryItOut 337
Running threw: TypeError: this.zzz has no properties

tryItOut 338
Compiling threw: SyntaxError: invalid for/in left-hand side

tryItOut 339

tryItOut 340
Compiling threw: SyntaxError: illegal XML character

tryItOut 341

tryItOut 342
Compiling threw: SyntaxError: missing { before function body

tryItOut 343
Running threw: ReferenceError: __count__ is not defined

tryItOut 344

tryItOut 345
Compiling threw: SyntaxError: missing { before function body

tryItOut 346
Running threw: ReferenceError: __count__ is not defined

tryItOut 347

tryItOut 348

tryItOut 349

tryItOut 350

tryItOut 351

tryItOut 352
Compiling threw: SyntaxError: missing { before function body

tryItOut 353

tryItOut 354
Running threw: [object StopIteration]

tryItOut 355
Running threw: [object StopIteration]

tryItOut 356
Compiling threw: SyntaxError: missing { before function body

tryItOut 357

tryItOut 358

tryItOut 359
Running threw: [object StopIteration]

tryItOut 360
Compiling threw: SyntaxError: syntax error

tryItOut 361

tryItOut 362
Compiling threw: SyntaxError: missing { before function body

tryItOut 363

tryItOut 364
Running threw: ReferenceError: __noSuchMethod__ is not defined

tryItOut 365

tryItOut 366
Compiling threw: SyntaxError: invalid assignment left-hand side

tryItOut 367

tryItOut 368

tryItOut 369
Running threw: ReferenceError: __noSuchMethod__ is not defined

tryItOut 370
Running threw: [object StopIteration]

tryItOut 371

tryItOut 372
Compiling threw: SyntaxError: syntax error

tryItOut 373
Compiling threw: SyntaxError: unmatched ) in regular expression

tryItOut 374
Compiling threw: SyntaxError: syntax error

tryItOut 375
Compiling threw: SyntaxError: invalid for/in left-hand side

tryItOut 376
Compiling threw: SyntaxError: missing { before function body

tryItOut 377
Compiling threw: SyntaxError: syntax error

tryItOut 378
Compiling threw: SyntaxError: missing { before function body

tryItOut 379

tryItOut 380

tryItOut 381
Running threw: Error: invalid sharp variable use #1#

tryItOut 382
It's an iterator!
Iterating succeeded, iterCount == 1

tryItOut 383
Running threw: ReferenceError: __noSuchMethod__ is not defined

tryItOut 384
Running threw: TypeError: this.zzz has no properties

tryItOut 385
Compiling threw: SyntaxError: missing ; before statement

tryItOut 386
It's an iterator!
Iterating succeeded, iterCount == 2

tryItOut 387
Compiling threw: SyntaxError: invalid destructuring assignment operator

tryItOut 388
Running threw: TypeError: this.zzz has no properties

tryItOut 389
before 209280, after 156960, break 028be000
Running threw: TypeError: gc() is not a function

tryItOut 390

tryItOut 391

tryItOut 392
Compiling threw: SyntaxError: missing variable name

tryItOut 393
It's an iterator!
Iterating succeeded, iterCount == 1

tryItOut 394

tryItOut 395
Running threw: [object StopIteration]

tryItOut 396

tryItOut 397
Running threw: [object StopIteration]

tryItOut 398

tryItOut 399
before 156960, after 139520, break 028be000

tryItOut 400

tryItOut 401

tryItOut 402
Compiling threw: SyntaxError: missing { before function body

tryItOut 403
Running threw: TypeError: this.zzz has no properties

tryItOut 404
It's an iterator!
Iterating threw!
Iterating threw: ReferenceError: __noSuchMethod__ is not defined

tryItOut 405

tryItOut 406

tryItOut 407

tryItOut 408
Compiling threw: SyntaxError: invalid assignment left-hand side

tryItOut 409
Compiling threw: SyntaxError: invalid assignment left-hand side

tryItOut 410
Running threw: TypeError: this.zzz has no properties

tryItOut 411

tryItOut 412

tryItOut 413
Running threw: [object StopIteration]

tryItOut 414

tryItOut 415
Compiling threw: SyntaxError: invalid assignment left-hand side

tryItOut 416

tryItOut 417

tryItOut 418

tryItOut 419
Compiling threw: SyntaxError: missing ) in parenthetical

tryItOut 420

tryItOut 421

tryItOut 422
Compiling threw: SyntaxError: invalid for/in left-hand side

tryItOut 423
Compiling threw: SyntaxError: invalid for/in left-hand side

tryItOut 424

tryItOut 425
Compiling threw: SyntaxError: missing ; before statement

tryItOut 426

tryItOut 427
Compiling threw: SyntaxError: invalid assignment left-hand side

tryItOut 428

tryItOut 429

tryItOut 430
Compiling threw: SyntaxError: missing = in destructuring declaration

tryItOut 431
Compiling threw: SyntaxError: missing { before function body

tryItOut 432

tryItOut 433

tryItOut 434

tryItOut 435

tryItOut 436

tryItOut 437
Running threw: ReferenceError: __count__ is not defined

tryItOut 438
Compiling threw: TypeError: generator function anonymous returns a value

tryItOut 439

tryItOut 440

tryItOut 441

tryItOut 442
Running threw: ReferenceError: prototype is not defined

tryItOut 443
Compiling threw: SyntaxError: finally without try

tryItOut 444
Compiling threw: SyntaxError: missing { before function body

tryItOut 445

tryItOut 446
Compiling threw: SyntaxError: syntax error

tryItOut 447

tryItOut 448
Compiling threw: SyntaxError: syntax error

tryItOut 449

tryItOut 450

tryItOut 451
Compiling threw: SyntaxError: missing } after let block

tryItOut 452
Compiling threw: SyntaxError: missing { before function body

tryItOut 453
Running threw: [object StopIteration]

tryItOut 454
Compiling threw: SyntaxError: invalid for/in left-hand side

tryItOut 455
Compiling threw: SyntaxError: invalid assignment left-hand side

tryItOut 456

tryItOut 457

tryItOut 458
Compiling threw: SyntaxError: syntax error

tryItOut 459

tryItOut 460

tryItOut 461
Running threw: TypeError: this.zzz has no properties

tryItOut 462
Running threw: [object StopIteration]

tryItOut 463
Compiling threw: SyntaxError: invalid assignment left-hand side

tryItOut 464
Running threw: [object StopIteration]

tryItOut 465

tryItOut 466
Compiling threw: SyntaxError: syntax error

tryItOut 467

tryItOut 468
Compiling threw: SyntaxError: missing ) in parenthetical

tryItOut 469

tryItOut 470
Running threw: ReferenceError: __count__ is not defined

tryItOut 471

tryItOut 472
Compiling threw: SyntaxError: missing } after let block

tryItOut 473
It's an iterator!
Iterating succeeded, iterCount == 1

tryItOut 474
Running threw: ReferenceError: prop is not defined

tryItOut 475
Compiling threw: SyntaxError: missing variable name

tryItOut 476
Running threw: TypeError: this.zzz has no properties

tryItOut 477
Compiling threw: SyntaxError: missing ; before statement

tryItOut 478
Compiling threw: SyntaxError: missing variable name

tryItOut 479
Compiling threw: SyntaxError: missing ; before statement

tryItOut 480
Compiling threw: SyntaxError: missing } after finally block

tryItOut 481
Compiling threw: SyntaxError: invalid property id

tryItOut 482
Compiling threw: TypeError: generator function anonymous returns a value

tryItOut 483

tryItOut 484

tryItOut 485

tryItOut 486
Compiling threw: SyntaxError: missing ) in parenthetical

tryItOut 487

tryItOut 488

tryItOut 489

tryItOut 490
Compiling threw: SyntaxError: syntax error

tryItOut 491
Compiling threw: SyntaxError: invalid assignment left-hand side

tryItOut 492
Compiling threw: SyntaxError: missing { before function body

tryItOut 493

tryItOut 494
Compiling threw: SyntaxError: missing { before function body

tryItOut 495
Compiling threw: SyntaxError: missing { before function body

tryItOut 496
Compiling threw: SyntaxError: missing ) in parenthetical

tryItOut 497
Compiling threw: SyntaxError: missing } after let block

tryItOut 498
Compiling threw: SyntaxError: missing ; before statement

tryItOut 499

tryItOut 500
Compiling threw: SyntaxError: invalid assignment left-hand side

tryItOut 501

tryItOut 502

tryItOut 503
Compiling threw: SyntaxError: invalid switch statement

tryItOut 504
Compiling threw: SyntaxError: missing { before function body

tryItOut 505

tryItOut 506
Compiling threw: SyntaxError: catch without try

tryItOut 507
Compiling threw: SyntaxError: missing variable name

tryItOut 508
Compiling threw: SyntaxError: syntax error

tryItOut 509

tryItOut 510
Compiling threw: SyntaxError: invalid assignment left-hand side

tryItOut 511
before 209280, after 174400, break 028d4000

tryItOut 512
Compiling threw: SyntaxError: syntax error

tryItOut 513

tryItOut 514
Compiling threw: SyntaxError: illegal XML character

tryItOut 515
Compiling threw: SyntaxError: missing ) after condition

tryItOut 516
Compiling threw: SyntaxError: missing ) in parenthetical

tryItOut 517
Running threw: ReferenceError: prop is not defined

tryItOut 518
Compiling threw: SyntaxError: missing ) in parenthetical

tryItOut 519
Compiling threw: TypeError: generator function anonymous returns a value

tryItOut 520
Compiling threw: SyntaxError: syntax error

tryItOut 521

tryItOut 522
Compiling threw: SyntaxError: invalid for/in left-hand side

tryItOut 523

tryItOut 524
Compiling threw: SyntaxError: invalid assignment left-hand side

tryItOut 525
Compiling threw: SyntaxError: missing } after let block

tryItOut 526

tryItOut 527
Running threw: [object StopIteration]

tryItOut 528
Compiling threw: TypeError: generator function anonymous returns a value

tryItOut 529

tryItOut 530
Compiling threw: SyntaxError: missing { before function body

tryItOut 531

tryItOut 532

tryItOut 533

tryItOut 534
Compiling threw: SyntaxError: syntax error

tryItOut 535
Running threw: [object StopIteration]

tryItOut 536

tryItOut 537
Compiling threw: SyntaxError: invalid for/in left-hand side

tryItOut 538
Compiling threw: SyntaxError: missing } after let block

tryItOut 539

tryItOut 540

tryItOut 541
Running threw: ReferenceError: __count__ is not defined

tryItOut 542
Compiling threw: SyntaxError: missing variable name

tryItOut 543
Compiling threw: SyntaxError: invalid for/in left-hand side

tryItOut 544
Compiling threw: SyntaxError: missing ) in parenthetical

tryItOut 545
It's an iterator!
Iterating succeeded, iterCount == 1

tryItOut 546
It's an iterator!
Iterating succeeded, iterCount == 1

tryItOut 547
It's an iterator!
Iterating succeeded, iterCount == 1

tryItOut 548
before 174400, after 139520, break 028d4000

tryItOut 549
Compiling threw: SyntaxError: invalid for/in left-hand side

tryItOut 550

tryItOut 551
Compiling threw: SyntaxError: illegal XML character

tryItOut 552
Compiling threw: SyntaxError: missing ; before statement

tryItOut 553
Compiling threw: SyntaxError: invalid for/in left-hand side

tryItOut 554

tryItOut 555

tryItOut 556
Compiling threw: SyntaxError: syntax error

tryItOut 557

tryItOut 558
Running threw: TypeError: this.zzz has no properties

tryItOut 559

tryItOut 560

tryItOut 561
Compiling threw: TypeError: generator function anonymous returns a value

tryItOut 562

tryItOut 563
Running threw: ReferenceError: prop is not defined

tryItOut 564
Compiling threw: SyntaxError: invalid XML name

tryItOut 565
Compiling threw: SyntaxError: invalid assignment left-hand side

tryItOut 566
Compiling threw: SyntaxError: syntax error

tryItOut 567
Compiling threw: SyntaxError: invalid XML tag syntax

tryItOut 568
Running threw: <x>
  <y/>
</x>

tryItOut 569
Compiling threw: SyntaxError: illegal XML character

tryItOut 570
before 139520, after 139520, break 028d4000

tryItOut 571

tryItOut 572

tryItOut 573

tryItOut 574
Running threw: TypeError: -Infinity is not a function

tryItOut 575
Compiling threw: SyntaxError: missing ; after for-loop initializer

tryItOut 576

tryItOut 577
Compiling threw: SyntaxError: missing } after let block

tryItOut 578
Compiling threw: TypeError: redeclaration of const __proto__

tryItOut 579

tryItOut 580

tryItOut 581
Running threw: TypeError: this.zzz has no properties

tryItOut 582

tryItOut 583

tryItOut 584
Compiling threw: SyntaxError: missing { before function body

tryItOut 585

tryItOut 586

tryItOut 587
Compiling threw: SyntaxError: invalid for/in left-hand side

tryItOut 588
Compiling threw: SyntaxError: missing variable name

tryItOut 589
Compiling threw: SyntaxError: duplicate label

tryItOut 590

tryItOut 591

tryItOut 592
Compiling threw: SyntaxError: invalid for/in left-hand side

tryItOut 593
Compiling threw: SyntaxError: invalid for/in left-hand side

tryItOut 594

tryItOut 595
Running threw: ReferenceError: o is not defined

tryItOut 596
Compiling threw: SyntaxError: missing variable name

tryItOut 597

tryItOut 598
Compiling threw: SyntaxError: syntax error

tryItOut 599

tryItOut 600

tryItOut 601

tryItOut 602
Compiling threw: SyntaxError: missing ) in parenthetical

tryItOut 603

tryItOut 604
before 139520, after 139520, break 028d4000

tryItOut 605
Compiling threw: SyntaxError: invalid for/in left-hand side

tryItOut 606
before 139520, after 139520, break 028d4000

tryItOut 607

tryItOut 608

tryItOut 609
Running threw: TypeError: arguments[0] has no properties

tryItOut 610
Compiling threw: SyntaxError: missing ] in index expression

tryItOut 611
Compiling threw: SyntaxError: missing ) in parenthetical

tryItOut 612
Compiling threw: SyntaxError: missing ) after argument list

tryItOut 613

tryItOut 614
Running threw: [object StopIteration]

tryItOut 615
Compiling threw: SyntaxError: missing { before function body

tryItOut 616

tryItOut 617
Compiling threw: SyntaxError: invalid XML list syntax

tryItOut 618

tryItOut 619

tryItOut 620
Running threw: TypeError: this.zzz has no properties

tryItOut 621

tryItOut 622

tryItOut 623
Compiling threw: SyntaxError: missing ) in parenthetical

tryItOut 624

tryItOut 625

tryItOut 626

tryItOut 627

tryItOut 628

tryItOut 629

tryItOut 630

tryItOut 631

tryItOut 632

tryItOut 633

tryItOut 634

tryItOut 635

tryItOut 636
Compiling threw: SyntaxError: missing { before function body

tryItOut 637

tryItOut 638

tryItOut 639

tryItOut 640
Compiling threw: SyntaxError: syntax error

tryItOut 641

tryItOut 642
Compiling threw: SyntaxError: missing variable name

tryItOut 643

tryItOut 644

tryItOut 645
Compiling threw: SyntaxError: catch without try

tryItOut 646

tryItOut 647
Compiling threw: SyntaxError: invalid for/in left-hand side

tryItOut 648
It's an iterator!
Iterating succeeded, iterCount == 1

tryItOut 649

tryItOut 650
It's an iterator!
Iterating threw!
Iterating threw: ReferenceError: V is not defined

tryItOut 651

tryItOut 652

tryItOut 653
Compiling threw: SyntaxError: missing ) in parenthetical

tryItOut 654

tryItOut 655

tryItOut 656

tryItOut 657
Compiling threw: SyntaxError: missing { before function body

tryItOut 658
Compiling threw: SyntaxError: missing ) in parenthetical

tryItOut 659

tryItOut 660

tryItOut 661
before 156960, after 156960, break 028d4000

tryItOut 662

tryItOut 663

tryItOut 664

tryItOut 665

tryItOut 666
Compiling threw: SyntaxError: missing variable name

tryItOut 667

tryItOut 668

tryItOut 669

tryItOut 670

tryItOut 671

tryItOut 672
before 156960, after 139520, break 028d4000

tryItOut 673

tryItOut 674
Compiling threw: SyntaxError: missing ; before statement

tryItOut 675
Compiling threw: SyntaxError: missing ; before statement

tryItOut 676
Compiling threw: SyntaxError: finally without try

tryItOut 677
It's an iterator!
Iterating succeeded, iterCount == 1

tryItOut 678

tryItOut 679
Compiling threw: SyntaxError: missing { before function body

tryItOut 680
Compiling threw: SyntaxError: syntax error

tryItOut 681
Compiling threw: SyntaxError: missing = in destructuring declaration

tryItOut 682
Compiling threw: SyntaxError: invalid sharp variable definition

tryItOut 683

tryItOut 684
It's an iterator!
Iterating succeeded, iterCount == 1

tryItOut 685

tryItOut 686
Compiling threw: SyntaxError: syntax error

tryItOut 687

tryItOut 688

tryItOut 689
Compiling threw: SyntaxError: missing variable name

tryItOut 690

tryItOut 691
Compiling threw: SyntaxError: yield expression must be parenthesized

tryItOut 692

tryItOut 693

tryItOut 694

tryItOut 695
Compiling threw: SyntaxError: missing { before function body

tryItOut 696

tryItOut 697
Compiling threw: SyntaxError: missing ) after condition

tryItOut 698
Running threw: TypeError: this.zzz has no properties

tryItOut 699

tryItOut 700
Running threw: ReferenceError: prototype is not defined

tryItOut 701
Running threw: [object StopIteration]

tryItOut 702
Compiling threw: SyntaxError: invalid for/in left-hand side

tryItOut 703
Compiling threw: SyntaxError: invalid for/in left-hand side

tryItOut 704
Compiling threw: SyntaxError: invalid assignment left-hand side

tryItOut 705

tryItOut 706
Compiling threw: SyntaxError: syntax error

tryItOut 707
Compiling threw: SyntaxError: missing { before function body

tryItOut 708
Running threw: ReferenceError: z1 is not defined

tryItOut 709
Compiling threw: SyntaxError: invalid for/in left-hand side

tryItOut 710
before 139520, after 139520, break 028d4000
Running threw: TypeError: gc() is not a function

tryItOut 711
before 139520, after 139520, break 028d4000

tryItOut 712
Compiling threw: SyntaxError: invalid sharp variable definition

tryItOut 713
Compiling threw: SyntaxError: invalid assignment left-hand side

tryItOut 714

tryItOut 715
Running threw: SyntaxError: invalid getter usage

tryItOut 716

tryItOut 717

tryItOut 718
Compiling threw: SyntaxError: invalid assignment left-hand side

tryItOut 719

tryItOut 720
It's an iterator!
Iterating succeeded, iterCount == 1

tryItOut 721
Compiling threw: SyntaxError: invalid assignment left-hand side

tryItOut 722

tryItOut 723

tryItOut 724
before 139520, after 139520, break 028d4000

tryItOut 725
Compiling threw: SyntaxError: syntax error

tryItOut 726

tryItOut 727
before 139520, after 139520, break 028d4000

tryItOut 728

tryItOut 729

tryItOut 730
Compiling threw: SyntaxError: invalid for/in left-hand side

tryItOut 731
Running threw: ReferenceError: __count__ is not defined

tryItOut 732
It's an iterator!
Iterating succeeded, iterCount == 1

tryItOut 733

tryItOut 734

tryItOut 735

tryItOut 736
before 139520, after 139520, break 028d4000

tryItOut 737
Compiling threw: SyntaxError: syntax error

tryItOut 738
Compiling threw: SyntaxError: missing } after let block

tryItOut 739

tryItOut 740

tryItOut 741

tryItOut 742
Compiling threw: SyntaxError: invalid assignment left-hand side

tryItOut 743

tryItOut 744

tryItOut 745
Compiling threw: SyntaxError: invalid sharp variable definition

tryItOut 746
Compiling threw: SyntaxError: invalid assignment left-hand side

tryItOut 747

tryItOut 748
Compiling threw: SyntaxError: invalid assignment left-hand side

tryItOut 749
Compiling threw: SyntaxError: syntax error

tryItOut 750

tryItOut 751
It's an iterator!
Iterating succeeded, iterCount == 1

tryItOut 752
Compiling threw: SyntaxError: invalid assignment left-hand side

tryItOut 753

tryItOut 754
It's an iterator!
Iterating succeeded, iterCount == 1

tryItOut 755
Running threw: [object StopIteration]

tryItOut 756
It's an iterator!
Iterating threw!
Iterating threw: ReferenceError: z1 is not defined

tryItOut 757
Compiling threw: SyntaxError: syntax error

tryItOut 758
Compiling threw: SyntaxError: syntax error

tryItOut 759
It's an iterator!
Iterating succeeded, iterCount == 1

tryItOut 760

tryItOut 761
Compiling threw: SyntaxError: syntax error

tryItOut 762

tryItOut 763

tryItOut 764
It's an iterator!
Iterating succeeded, iterCount == 1

tryItOut 765

tryItOut 766

tryItOut 767
Running threw: [object StopIteration]

tryItOut 768
Running threw: [object StopIteration]

tryItOut 769
Compiling threw: SyntaxError: missing ) in parenthetical

tryItOut 770
Compiling threw: SyntaxError: missing { before function body

tryItOut 771
Compiling threw: SyntaxError: syntax error

tryItOut 772
It's an iterator!
Iterating succeeded, iterCount == 0

tryItOut 773
Running threw: TypeError: <y>
  <z/>
</y> is not a function

tryItOut 774

tryItOut 775

tryItOut 776
Compiling threw: SyntaxError: invalid sharp variable definition

tryItOut 777

tryItOut 778
before 156960, after 156960, break 028d4000
Running threw: TypeError: (27).yoyo is not a function

tryItOut 779

tryItOut 780
Compiling threw: SyntaxError: invalid for/in left-hand side

tryItOut 781

tryItOut 782
before 156960, after 139520, break 028d4000

tryItOut 783
Compiling threw: SyntaxError: missing variable name

tryItOut 784

tryItOut 785
Compiling threw: SyntaxError: invalid assignment left-hand side

tryItOut 786
Compiling threw: SyntaxError: missing ) after for-loop control

tryItOut 787
Compiling threw: SyntaxError: missing ; before statement

tryItOut 788

tryItOut 789
Running threw: ReferenceError: z1 is not defined

tryItOut 790
Compiling threw: SyntaxError: invalid assignment left-hand side

tryItOut 791

tryItOut 792

tryItOut 793
Compiling threw: SyntaxError: invalid assignment left-hand side

tryItOut 794
Running threw: [object StopIteration]

tryItOut 795
Compiling threw: SyntaxError: invalid default XML namespace

tryItOut 796
It's an iterator!
Iterating succeeded, iterCount == 1

tryItOut 797

tryItOut 798

tryItOut 799

tryItOut 800

tryItOut 801

tryItOut 802

tryItOut 803
Compiling threw: SyntaxError: syntax error

tryItOut 804
Compiling threw: SyntaxError: missing ) after condition

tryItOut 805
Compiling threw: SyntaxError: invalid assignment left-hand side

tryItOut 806
Running threw: [object StopIteration]

tryItOut 807
Compiling threw: SyntaxError: missing ) in parenthetical

tryItOut 808
It's an iterator!
Iterating succeeded, iterCount == 1

tryItOut 809

tryItOut 810
It's an iterator!
Iterating succeeded, iterCount == 1

tryItOut 811

tryItOut 812

tryItOut 813
Compiling threw: SyntaxError: missing ; before statement

tryItOut 814
Compiling threw: SyntaxError: missing { before function body

tryItOut 815
Compiling threw: SyntaxError: missing ; before statement

tryItOut 816

tryItOut 817

tryItOut 818

tryItOut 819

tryItOut 820
Running threw: ReferenceError: z1 is not defined

tryItOut 821

tryItOut 822

tryItOut 823
Compiling threw: SyntaxError: missing { before function body

tryItOut 824
before 139520, after 139520, break 028d4000

tryItOut 825
Compiling threw: TypeError: redeclaration of var __iterator__

tryItOut 826
Compiling threw: SyntaxError: syntax error

tryItOut 827
It's an iterator!
Iterating succeeded, iterCount == 1

tryItOut 828
Running threw: TypeError: this.zzz has no properties

tryItOut 829
Compiling threw: SyntaxError: missing ) in parenthetical

tryItOut 830
Running threw: TypeError: this.zzz has no properties

tryItOut 831

tryItOut 832
Compiling threw: SyntaxError: missing ; before statement

tryItOut 833

tryItOut 834
Compiling threw: SyntaxError: missing ; after for-loop initializer

tryItOut 835
uneval returned the string: [[1]]

tryItOut 836
Compiling threw: SyntaxError: missing ) in parenthetical

tryItOut 837

tryItOut 838
It's an iterator!
Iterating succeeded, iterCount == 1

tryItOut 839

tryItOut 840
Compiling threw: SyntaxError: invalid for/in left-hand side

tryItOut 841
Compiling threw: SyntaxError: missing ) after condition

tryItOut 842

tryItOut 843

tryItOut 844
Compiling threw: SyntaxError: invalid for/in left-hand side

tryItOut 845
Compiling threw: SyntaxError: missing } after let block

tryItOut 846
Compiling threw: SyntaxError: missing ) in parenthetical

tryItOut 847

tryItOut 848
Compiling threw: SyntaxError: unmatched ) in regular expression

tryItOut 849
Compiling threw: SyntaxError: missing ; before statement

tryItOut 850

tryItOut 851
Compiling threw: SyntaxError: missing { before function body

tryItOut 852

tryItOut 853

tryItOut 854

tryItOut 855
Compiling threw: SyntaxError: missing formal parameter

tryItOut 856
Compiling threw: SyntaxError: invalid destructuring assignment operator

tryItOut 857

tryItOut 858

tryItOut 859
It's an iterator!
Iterating succeeded, iterCount == 1

tryItOut 860
Compiling threw: SyntaxError: missing variable name

tryItOut 861

tryItOut 862
Compiling threw: SyntaxError: missing { before function body

tryItOut 863

tryItOut 864

tryItOut 865
Compiling threw: SyntaxError: invalid for/in left-hand side

tryItOut 866

tryItOut 867

tryItOut 868
Compiling threw: SyntaxError: missing { before function body

tryItOut 869
Compiling threw: SyntaxError: missing variable name

tryItOut 870
Compiling threw: SyntaxError: invalid for/in left-hand side

tryItOut 871
Running threw: [object StopIteration]

tryItOut 872
Compiling threw: SyntaxError: illegal XML character

tryItOut 873
Running threw: 1.3

tryItOut 874
Compiling threw: SyntaxError: missing ; before statement

tryItOut 875
Compiling threw: SyntaxError: invalid for/in left-hand side

tryItOut 876
Compiling threw: SyntaxError: syntax error

tryItOut 877
Compiling threw: SyntaxError: missing variable name

tryItOut 878
Running threw: ReferenceError: z2 is not defined

tryItOut 879
Running threw: ReferenceError: z1 is not defined

tryItOut 880

tryItOut 881
Compiling threw: SyntaxError: missing ) after let head

tryItOut 882
Compiling threw: SyntaxError: missing name after . operator

tryItOut 883

tryItOut 884
It's an iterator!
Iterating succeeded, iterCount == 1

tryItOut 885
Compiling threw: TypeError: redeclaration of variable __parent__

tryItOut 886
Running threw: [object StopIteration]

tryItOut 887
Compiling threw: SyntaxError: syntax error

tryItOut 888
Compiling threw: SyntaxError: invalid assignment left-hand side

tryItOut 889

tryItOut 890

tryItOut 891
Compiling threw: SyntaxError: missing ; before statement

tryItOut 892

tryItOut 893

tryItOut 894
before 174400, after 156960, break 028d4000

tryItOut 895
Compiling threw: SyntaxError: missing = in destructuring declaration

tryItOut 896
Compiling threw: SyntaxError: invalid for/in left-hand side

tryItOut 897

tryItOut 898
Compiling threw: SyntaxError: invalid assignment left-hand side

tryItOut 899

tryItOut 900

tryItOut 901

tryItOut 902
Compiling threw: SyntaxError: invalid for/in left-hand side

tryItOut 903

tryItOut 904
Compiling threw: SyntaxError: missing } after let block

tryItOut 905
Compiling threw: SyntaxError: invalid XML name

tryItOut 906
Compiling threw: SyntaxError: syntax error

tryItOut 907

tryItOut 908
It's an iterator!
Iterating succeeded, iterCount == 4

tryItOut 909

tryItOut 910
Compiling threw: SyntaxError: missing } after let block

tryItOut 911

tryItOut 912

tryItOut 913

tryItOut 914
Compiling threw: SyntaxError: missing ) in parenthetical

tryItOut 915
Compiling threw: SyntaxError: missing { before function body

tryItOut 916
Compiling threw: SyntaxError: syntax error

tryItOut 917

tryItOut 918
Compiling threw: SyntaxError: invalid for/in left-hand side

tryItOut 919

tryItOut 920
Compiling threw: SyntaxError: illegal XML character

tryItOut 921

tryItOut 922
Running threw: [object StopIteration]

tryItOut 923

tryItOut 924

tryItOut 925

tryItOut 926
Compiling threw: SyntaxError: syntax error

tryItOut 927
It's an iterator!
Iterating threw!
Iterating threw: TypeError: undefined is not a function

tryItOut 928
Compiling threw: SyntaxError: invalid for/in left-hand side

tryItOut 929

tryItOut 930
Compiling threw: SyntaxError: invalid for/in left-hand side

tryItOut 931

tryItOut 932
Compiling threw: SyntaxError: invalid assignment left-hand side

tryItOut 933
Compiling threw: SyntaxError: syntax error

tryItOut 934
Running threw: ReferenceError: prototype is not defined

tryItOut 935
Compiling threw: SyntaxError: syntax error

tryItOut 936

tryItOut 937
Compiling threw: SyntaxError: syntax error

tryItOut 938
Compiling threw: SyntaxError: invalid for/in left-hand side

tryItOut 939
Compiling threw: SyntaxError: missing { before function body

tryItOut 940
Compiling threw: TypeError: redeclaration of variable prototype

tryItOut 941
Compiling threw: SyntaxError: missing variable name

tryItOut 942
Compiling threw: SyntaxError: missing } after let block

tryItOut 943

tryItOut 944
Compiling threw: SyntaxError: syntax error

tryItOut 945
Compiling threw: SyntaxError: syntax error

tryItOut 946
Compiling threw: SyntaxError: missing { before function body

tryItOut 947

tryItOut 948
Running threw: TypeError: this.zzz has no properties

tryItOut 949
Compiling threw: SyntaxError: missing variable name

tryItOut 950

tryItOut 951

tryItOut 952

tryItOut 953

tryItOut 954

tryItOut 955

tryItOut 956
Running threw: ReferenceError: prototype is not defined

tryItOut 957

tryItOut 958
Running threw: 1.3

tryItOut 959

tryItOut 960
Compiling threw: SyntaxError: invalid for/in left-hand side

tryItOut 961

tryItOut 962
Compiling threw: SyntaxError: missing { before function body

tryItOut 963

tryItOut 964

tryItOut 965
It's an iterator!
Iterating succeeded, iterCount == 0

tryItOut 966
Compiling threw: SyntaxError: syntax error

tryItOut 967
Compiling threw: SyntaxError: missing ) in parenthetical

tryItOut 968
Compiling threw: SyntaxError: invalid XML tag syntax

tryItOut 969

tryItOut 970
Compiling threw: SyntaxError: missing variable name

tryItOut 971
Compiling threw: SyntaxError: missing name after . operator

tryItOut 972
Compiling threw: SyntaxError: missing variable name

tryItOut 973

tryItOut 974
Compiling threw: SyntaxError: missing } after let block

tryItOut 975
Compiling threw: SyntaxError: invalid XML tag syntax

tryItOut 976

tryItOut 977
Compiling threw: SyntaxError: invalid assignment left-hand side

tryItOut 978
Running threw: [object StopIteration]

tryItOut 979
Compiling threw: SyntaxError: syntax error

tryItOut 980
Compiling threw: SyntaxError: missing { before function body

tryItOut 981

tryItOut 982

tryItOut 983
Compiling threw: TypeError: redeclaration of variable __proto__

tryItOut 984

tryItOut 985

tryItOut 986
Compiling threw: SyntaxError: invalid for/in left-hand side

tryItOut 987

tryItOut 988

tryItOut 989

tryItOut 990
Compiling threw: SyntaxError: syntax error

tryItOut 991
Running threw: [object StopIteration]

tryItOut 992

tryItOut 993
Compiling threw: SyntaxError: missing = in destructuring declaration

tryItOut 994

tryItOut 995
Running threw: [object StopIteration]

tryItOut 996

tryItOut 997
Running threw: TypeError: 0 is not a function

tryItOut 998
Compiling threw: SyntaxError: syntax error

tryItOut 999

tryItOut 1000

ALL OK

Script done on Sat 04 May 2013 07:44:45 AM PDT
