Script started on Sat 04 May 2013 07:47:46 AM PDT
***
Targeting SpiderMonkey / Gecko.

tryItOut 1

tryItOut 2

tryItOut 3
Compiling threw: SyntaxError: missing ; before statement

tryItOut 4
Running threw: ReferenceError: z2 is not defined

tryItOut 5

tryItOut 6

tryItOut 7
Compiling threw: SyntaxError: syntax error

tryItOut 8
Compiling threw: SyntaxError: invalid for/in left-hand side

tryItOut 9
Compiling threw: SyntaxError: invalid default XML namespace

tryItOut 10
Compiling threw: SyntaxError: missing name after . operator

tryItOut 11

tryItOut 12
Compiling threw: SyntaxError: invalid increment operand

tryItOut 13

tryItOut 14

tryItOut 15

tryItOut 16

tryItOut 17
Running threw: ReferenceError: window is not defined

tryItOut 18

tryItOut 19
Running threw: 106

tryItOut 20
Compiling threw: SyntaxError: invalid for/in left-hand side

tryItOut 21
Compiling threw: SyntaxError: missing : after property id

tryItOut 22
Compiling threw: SyntaxError: missing } after let block

tryItOut 23
Compiling threw: SyntaxError: invalid assignment left-hand side

tryItOut 24

tryItOut 25
Compiling threw: SyntaxError: missing ( before formal parameters

tryItOut 26

tryItOut 27

tryItOut 28

tryItOut 29

tryItOut 30

tryItOut 31
Compiling threw: SyntaxError: syntax error

tryItOut 32

tryItOut 33

tryItOut 34
Running threw: ReferenceError: prototype is not defined

tryItOut 35
Compiling threw: SyntaxError: invalid for/in left-hand side

tryItOut 36

tryItOut 37
Compiling threw: SyntaxError: missing variable name

tryItOut 38
Compiling threw: SyntaxError: invalid decrement operand

tryItOut 39
Compiling threw: SyntaxError: missing variable name

tryItOut 40

tryItOut 41

tryItOut 42
Running threw: ReferenceError: window is not defined

tryItOut 43

tryItOut 44
Running threw: TypeError: __parent__ has no properties

tryItOut 45
Running threw: TypeError: null is not a constructor

tryItOut 46
Running threw: null

tryItOut 47
Compiling threw: SyntaxError: missing name after . operator

tryItOut 48
Compiling threw: SyntaxError: missing ) after let head

tryItOut 49
Compiling threw: SyntaxError: missing ; after for-loop initializer

tryItOut 50
Running threw: ReferenceError: window is not defined

tryItOut 51

tryItOut 52
Compiling threw: SyntaxError: missing ) in parenthetical

tryItOut 53
Compiling threw: SyntaxError: missing ) in parenthetical

tryItOut 54
Compiling threw: SyntaxError: invalid assignment left-hand side

tryItOut 55

tryItOut 56
Running threw: TypeError: arguments[0] has no properties

tryItOut 57
Compiling threw: SyntaxError: missing ; after for-loop initializer

tryItOut 58

tryItOut 59
Running threw: ReferenceError: window is not defined

tryItOut 60
Compiling threw: SyntaxError: invalid for/in left-hand side

tryItOut 61
Running threw: ReferenceError: prototype is not defined

tryItOut 62
Compiling threw: SyntaxError: missing { before function body

tryItOut 63
Compiling threw: SyntaxError: missing ; before statement

tryItOut 64
Compiling threw: SyntaxError: missing ; before statement

tryItOut 65
Compiling threw: SyntaxError: missing { before function body

tryItOut 66
Compiling threw: SyntaxError: missing ; after for-loop initializer

tryItOut 67
Running threw: [object Object]

tryItOut 68

tryItOut 69

tryItOut 70

tryItOut 71

tryItOut 72
Running threw: -Infinity

tryItOut 73

tryItOut 74

tryItOut 75
It's an iterator!
Iterating threw!
Iterating threw: ReferenceError: z1 is not defined

tryItOut 76
Running threw: ReferenceError: window is not defined

tryItOut 77
Compiling threw: SyntaxError: syntax error

tryItOut 78
Compiling threw: SyntaxError: invalid assignment left-hand side

tryItOut 79
Running threw: TypeError: this is not a function

tryItOut 80
Compiling threw: SyntaxError: invalid decrement operand

tryItOut 81
It's an iterator!
Iterating threw!
Iterating threw: ReferenceError: z1 is not defined

tryItOut 82
Compiling threw: SyntaxError: catch without try

tryItOut 83

tryItOut 84

tryItOut 85
Compiling threw: SyntaxError: duplicate label

tryItOut 86
Compiling threw: SyntaxError: syntax error

tryItOut 87
Running threw: TypeError: __parent__ has no properties

tryItOut 88
Compiling threw: SyntaxError: duplicate label

tryItOut 89

tryItOut 90
Compiling threw: SyntaxError: missing ; after for-loop initializer

tryItOut 91

tryItOut 92
Compiling threw: SyntaxError: invalid sharp variable definition

tryItOut 93

tryItOut 94

tryItOut 95

tryItOut 96
Compiling threw: SyntaxError: missing ; before statement

tryItOut 97

tryItOut 98

tryItOut 99
Compiling threw: SyntaxError: missing ) after argument list

tryItOut 100
Running threw: ReferenceError: __iterator__ is not defined

tryItOut 101
Compiling threw: SyntaxError: missing name in import statement

tryItOut 102
Compiling threw: SyntaxError: missing variable name

tryItOut 103
Running threw: ReferenceError: window is not defined

tryItOut 104

tryItOut 105

tryItOut 106

tryItOut 107
It's an iterator!
Iterating threw!
Iterating threw: SyntaxError: invalid assignment left-hand side

tryItOut 108
Compiling threw: SyntaxError: missing ) in parenthetical

tryItOut 109
Compiling threw: SyntaxError: missing ) in parenthetical

tryItOut 110
Compiling threw: SyntaxError: missing ; before statement

tryItOut 111

tryItOut 112

tryItOut 113

tryItOut 114

tryItOut 115

tryItOut 116

tryItOut 117

tryItOut 118
Running threw: ReferenceError: window is not defined

tryItOut 119

tryItOut 120
Compiling threw: SyntaxError: missing { before function body

tryItOut 121
Compiling threw: SyntaxError: invalid assignment left-hand side

tryItOut 122
Compiling threw: SyntaxError: missing variable name

tryItOut 123
Compiling threw: SyntaxError: missing } after let block

tryItOut 124
Compiling threw: SyntaxError: missing ; before statement

tryItOut 125
It's an iterator!
Iterating succeeded, iterCount == 1

tryItOut 126

tryItOut 127
Running threw: ReferenceError: prototype is not defined

tryItOut 128
Compiling threw: SyntaxError: missing ) in parenthetical

tryItOut 129
Running threw: ReferenceError: z1 is not defined

tryItOut 130

tryItOut 131

tryItOut 132

tryItOut 133

tryItOut 134

tryItOut 135
Compiling threw: SyntaxError: missing variable name

tryItOut 136

tryItOut 137

tryItOut 138
Compiling threw: SyntaxError: syntax error

tryItOut 139
Compiling threw: SyntaxError: missing { before function body

tryItOut 140

tryItOut 141
Compiling threw: SyntaxError: missing ; before statement

tryItOut 142
Running threw: ReferenceError: x is not defined

tryItOut 143

tryItOut 144

tryItOut 145
Compiling threw: SyntaxError: invalid decrement operand

tryItOut 146
Compiling threw: SyntaxError: missing variable name

tryItOut 147

tryItOut 148
Compiling threw: SyntaxError: syntax error

tryItOut 149
Compiling threw: SyntaxError: missing = in destructuring declaration

tryItOut 150
Running threw: TypeError: NaN is not a constructor

tryItOut 151
Running threw: ReferenceError: prototype is not defined

tryItOut 152
Compiling threw: SyntaxError: syntax error

tryItOut 153

tryItOut 154

tryItOut 155

tryItOut 156

tryItOut 157
Compiling threw: SyntaxError: missing { before function body

tryItOut 158
Running threw: TypeError: this.unwatch("prototype") has no properties

tryItOut 159
Compiling threw: SyntaxError: yield expression must be parenthesized

tryItOut 160

tryItOut 161
Compiling threw: SyntaxError: invalid sharp variable definition

tryItOut 162
It's an iterator!
Iterating succeeded, iterCount == 1

tryItOut 163

tryItOut 164

tryItOut 165
Running threw: ReferenceError: window is not defined

tryItOut 166
Compiling threw: SyntaxError: missing ; before statement

tryItOut 167

tryItOut 168

tryItOut 169
Compiling threw: SyntaxError: missing ) after condition

tryItOut 170
Compiling threw: SyntaxError: invalid assignment left-hand side

tryItOut 171
Compiling threw: SyntaxError: missing variable name

tryItOut 172

tryItOut 173

tryItOut 174
Running threw: TypeError: false['throw'] is not a function

tryItOut 175

tryItOut 176

tryItOut 177

tryItOut 178
Compiling threw: SyntaxError: invalid for/in left-hand side

tryItOut 179
Compiling threw: SyntaxError: missing { before function body

tryItOut 180

tryItOut 181

tryItOut 182
Compiling threw: SyntaxError: missing variable name

tryItOut 183
Compiling threw: SyntaxError: missing ) in parenthetical

tryItOut 184
Compiling threw: SyntaxError: missing variable name

tryItOut 185
Compiling threw: SyntaxError: missing = in destructuring declaration

tryItOut 186
Compiling threw: SyntaxError: missing ) in parenthetical

tryItOut 187

tryItOut 188

tryItOut 189

tryItOut 190
Running threw: TypeError: arguments[0] has no properties

tryItOut 191
Running threw: ReferenceError: __iterator__ is not defined

tryItOut 192
Running threw: ReferenceError: prototype is not defined

tryItOut 193
Compiling threw: SyntaxError: missing variable name

tryItOut 194

tryItOut 195

tryItOut 196

tryItOut 197
Running threw: ReferenceError: z1 is not defined

tryItOut 198

tryItOut 199
Compiling threw: SyntaxError: invalid assignment left-hand side

tryItOut 200
Running threw: TypeError: eval("(true);", 153).yoyo is not a function

tryItOut 201

tryItOut 202

tryItOut 203

tryItOut 204
Compiling threw: SyntaxError: missing { before function body

tryItOut 205

tryItOut 206
Compiling threw: SyntaxError: invalid increment operand

tryItOut 207

tryItOut 208
Running threw: ReferenceError: z1 is not defined

tryItOut 209

tryItOut 210
It's an iterator!
Iterating succeeded, iterCount == 1

tryItOut 211

tryItOut 212

tryItOut 213
Compiling threw: SyntaxError: syntax error

tryItOut 214

tryItOut 215
Compiling threw: SyntaxError: missing variable name

tryItOut 216
Compiling threw: SyntaxError: invalid destructuring assignment operator

tryItOut 217

tryItOut 218
Compiling threw: SyntaxError: missing ) in parenthetical

tryItOut 219
Compiling threw: SyntaxError: invalid destructuring assignment operator

tryItOut 220
It's an iterator!
Iterating threw!
Iterating threw: ReferenceError: z1 is not defined

tryItOut 221
Running threw: [object global]

tryItOut 222
Compiling threw: SyntaxError: missing ) after argument list

tryItOut 223
Compiling threw: SyntaxError: missing ; before statement

tryItOut 224
Compiling threw: SyntaxError: syntax error

tryItOut 225
Compiling threw: SyntaxError: missing ; before statement

tryItOut 226
Compiling threw: SyntaxError: missing ) in parenthetical

tryItOut 227
Compiling threw: SyntaxError: missing ; after for-loop condition

tryItOut 228
Compiling threw: SyntaxError: invalid sharp variable definition

tryItOut 229

tryItOut 230
Compiling threw: SyntaxError: missing variable name

tryItOut 231
Running threw: ReferenceError: z1 is not defined

tryItOut 232

tryItOut 233
Compiling threw: SyntaxError: invalid assignment left-hand side

tryItOut 234
Compiling threw: SyntaxError: missing ) in parenthetical

tryItOut 235

tryItOut 236

tryItOut 237
Compiling threw: SyntaxError: invalid increment operand

tryItOut 238
Running threw: TypeError: undefined has no properties

tryItOut 239

tryItOut 240
Compiling threw: SyntaxError: missing ; before statement

tryItOut 241

tryItOut 242

tryItOut 243
Compiling threw: SyntaxError: syntax error

tryItOut 244

tryItOut 245

tryItOut 246
Compiling threw: SyntaxError: missing ) in parenthetical

tryItOut 247
Compiling threw: SyntaxError: invalid for/in left-hand side

tryItOut 248

tryItOut 249

tryItOut 250

tryItOut 251
Compiling threw: SyntaxError: syntax error

tryItOut 252
Compiling threw: SyntaxError: missing { before function body

tryItOut 253
Compiling threw: SyntaxError: syntax error

tryItOut 254
Compiling threw: SyntaxError: syntax error

tryItOut 255

tryItOut 256
It's an iterator!
Iterating threw!
Iterating threw: TypeError: /x/ is not a constructor

tryItOut 257

tryItOut 258
Running threw: ReferenceError: reference to undefined XML name @mozilla.org/js/function::__noSuchMethod__

tryItOut 259

tryItOut 260

tryItOut 261

tryItOut 262
Compiling threw: SyntaxError: missing ) after with-statement object

tryItOut 263

tryItOut 264

tryItOut 265
Compiling threw: SyntaxError: syntax error

tryItOut 266
Compiling threw: SyntaxError: invalid for/in left-hand side

tryItOut 267

tryItOut 268

tryItOut 269
Compiling threw: SyntaxError: missing ) in parenthetical

tryItOut 270
Running threw: ReferenceError: window is not defined

tryItOut 271
Compiling threw: SyntaxError: missing variable name

tryItOut 272
Compiling threw: SyntaxError: missing ; before statement

tryItOut 273
Compiling threw: SyntaxError: missing ) in parenthetical

tryItOut 274

tryItOut 275
Running threw: TypeError: __parent__ has no properties

tryItOut 276
Compiling threw: SyntaxError: missing ; before statement

tryItOut 277
Compiling threw: SyntaxError: invalid property id

tryItOut 278

tryItOut 279

tryItOut 280
Compiling threw: SyntaxError: missing ; before statement

tryItOut 281
Running threw: ReferenceError: window is not defined

tryItOut 282
Compiling threw: SyntaxError: missing = in destructuring declaration

tryItOut 283
Compiling threw: SyntaxError: syntax error

tryItOut 284

tryItOut 285

tryItOut 286

tryItOut 287

tryItOut 288
Compiling threw: SyntaxError: yield expression must be parenthesized

tryItOut 289

tryItOut 290

tryItOut 291
It's an iterator!
Iterating threw!
Iterating threw: TypeError: undefined has no properties

tryItOut 292

tryItOut 293
Compiling threw: SyntaxError: invalid for/in left-hand side

tryItOut 294
Compiling threw: SyntaxError: missing variable name

tryItOut 295

tryItOut 296

tryItOut 297
Compiling threw: SyntaxError: invalid property id

tryItOut 298
Compiling threw: SyntaxError: syntax error

tryItOut 299
Compiling threw: SyntaxError: missing ) in parenthetical

tryItOut 300
Compiling threw: SyntaxError: missing { before function body

tryItOut 301

tryItOut 302
Compiling threw: SyntaxError: syntax error

tryItOut 303
Compiling threw: SyntaxError: invalid decrement operand

tryItOut 304
Compiling threw: SyntaxError: invalid assignment left-hand side

tryItOut 305
Compiling threw: SyntaxError: missing { before function body

tryItOut 306
Compiling threw: SyntaxError: missing } after let block

tryItOut 307

tryItOut 308
Compiling threw: SyntaxError: invalid destructuring assignment operator

tryItOut 309
Compiling threw: SyntaxError: syntax error

tryItOut 310

tryItOut 311
Compiling threw: SyntaxError: missing { before function body

tryItOut 312

tryItOut 313

tryItOut 314

tryItOut 315
Compiling threw: SyntaxError: missing } after finally block

tryItOut 316
Compiling threw: TypeError: generator function anonymous returns a value

tryItOut 317
Compiling threw: SyntaxError: missing ) in parenthetical

tryItOut 318

tryItOut 319
Compiling threw: SyntaxError: missing ) in parenthetical

tryItOut 320
Compiling threw: SyntaxError: missing ; before statement

tryItOut 321

tryItOut 322

tryItOut 323
Compiling threw: SyntaxError: invalid for/in left-hand side

tryItOut 324

tryItOut 325

tryItOut 326

tryItOut 327
Running threw: SyntaxError: invalid setter usage

tryItOut 328

tryItOut 329

tryItOut 330
function anonymous() {
    (NaN).__defineSetter__;
}
    vs    
function anonymous() {
    NaN.__defineSetter__;
}
Both decompile as:
function anonymous() {
    NaN.__defineSetter__;
}

tryItOut 331

tryItOut 332

tryItOut 333
Compiling threw: SyntaxError: invalid assignment left-hand side

tryItOut 334

tryItOut 335
Compiling threw: SyntaxError: missing formal parameter

tryItOut 336

tryItOut 337
Compiling threw: SyntaxError: missing { before function body

tryItOut 338
Running threw: [object global]

tryItOut 339
Compiling threw: SyntaxError: missing ) in parenthetical

tryItOut 340
It's an iterator!
Iterating threw!
Iterating threw: ReferenceError: z1 is not defined

tryItOut 341

tryItOut 342

tryItOut 343
Running threw: ReferenceError: window is not defined

tryItOut 344

tryItOut 345
Compiling threw: SyntaxError: missing { before function body

tryItOut 346

tryItOut 347

tryItOut 348
Running threw: function Object() {
    [native code]
}

tryItOut 349

tryItOut 350

tryItOut 351
Compiling threw: SyntaxError: missing = in destructuring declaration

tryItOut 352

tryItOut 353
Running threw: ReferenceError: window is not defined

tryItOut 354

tryItOut 355
Compiling threw: SyntaxError: syntax error

tryItOut 356
Compiling threw: SyntaxError: invalid destructuring assignment operator

tryItOut 357

tryItOut 358

tryItOut 359
Compiling threw: SyntaxError: missing variable name

tryItOut 360
Running threw: ReferenceError: window is not defined

tryItOut 361

tryItOut 362
Compiling threw: SyntaxError: missing { before function body

tryItOut 363
Compiling threw: SyntaxError: missing : after property id

tryItOut 364
Running threw: TypeError: arguments[0] has no properties

tryItOut 365

tryItOut 366

tryItOut 367

tryItOut 368
Running threw: ReferenceError: reference to undefined XML name @mozilla.org/js/function::__parent__

tryItOut 369

tryItOut 370
Compiling threw: SyntaxError: syntax error

tryItOut 371
It's an iterator!
Iterating threw!
Iterating threw: TypeError: (0.1)['throw'] is not a function

tryItOut 372

tryItOut 373

tryItOut 374
Running threw: TypeError: null has no properties

tryItOut 375
Compiling threw: SyntaxError: syntax error

tryItOut 376

tryItOut 377
Compiling threw: SyntaxError: invalid destructuring assignment operator

tryItOut 378
Compiling threw: SyntaxError: missing ; before statement

tryItOut 379

tryItOut 380

tryItOut 381

tryItOut 382

tryItOut 383
Compiling threw: SyntaxError: missing ; after for-loop initializer

tryItOut 384

tryItOut 385

tryItOut 386
Running threw: /x/g

tryItOut 387
Compiling threw: SyntaxError: missing ) in parenthetical

tryItOut 388
Compiling threw: SyntaxError: missing ; after for-loop initializer

tryItOut 389
Running threw: ReferenceError: __iterator__ is not defined

tryItOut 390
Compiling threw: SyntaxError: missing variable name

tryItOut 391
Compiling threw: SyntaxError: missing ) in parenthetical

tryItOut 392
Compiling threw: SyntaxError: syntax error

tryItOut 393
Compiling threw: SyntaxError: invalid for/in left-hand side

tryItOut 394
Running threw: TypeError: "fafafa".replace(/a/g, function (q) {return q;}).yoyo is not a function

tryItOut 395
Running threw: ReferenceError: window is not defined

tryItOut 396
Compiling threw: SyntaxError: missing ; before statement

tryItOut 397

tryItOut 398
Compiling threw: SyntaxError: invalid for/in left-hand side

tryItOut 399

tryItOut 400
Running threw: /x/g

tryItOut 401

tryItOut 402
Compiling threw: SyntaxError: invalid for/in left-hand side

tryItOut 403
Running threw: ReferenceError: prototype is not defined

tryItOut 404

tryItOut 405
Running threw: TypeError: __parent__ has no properties

tryItOut 406

tryItOut 407
Compiling threw: SyntaxError: invalid decrement operand

tryItOut 408

tryItOut 409
Compiling threw: SyntaxError: missing ; after for-loop initializer

tryItOut 410
Running threw: ReferenceError: Exception is not defined

tryItOut 411

tryItOut 412
Compiling threw: SyntaxError: invalid increment operand

tryItOut 413
Compiling threw: SyntaxError: missing variable name

tryItOut 414
Running threw: ReferenceError: window is not defined

tryItOut 415

tryItOut 416
Running threw: ReferenceError: window is not defined

tryItOut 417

tryItOut 418
Compiling threw: SyntaxError: missing } after let block

tryItOut 419

tryItOut 420

tryItOut 421
Compiling threw: SyntaxError: missing variable name

tryItOut 422

tryItOut 423

tryItOut 424

tryItOut 425
Running threw: Error: invalid sharp variable use #1#

tryItOut 426

tryItOut 427

tryItOut 428

tryItOut 429
Running threw: ReferenceError: window is not defined

tryItOut 430

tryItOut 431

tryItOut 432
Compiling threw: SyntaxError: invalid assignment left-hand side

tryItOut 433
Compiling threw: SyntaxError: invalid assignment left-hand side

tryItOut 434

tryItOut 435
Compiling threw: SyntaxError: syntax error

tryItOut 436
Running threw: ReferenceError: window is not defined

tryItOut 437

tryItOut 438

tryItOut 439

tryItOut 440
Compiling threw: SyntaxError: syntax error

tryItOut 441

tryItOut 442

tryItOut 443
Compiling threw: SyntaxError: syntax error

tryItOut 444

tryItOut 445
Running threw: ReferenceError: window is not defined

tryItOut 446
Compiling threw: SyntaxError: invalid assignment left-hand side

tryItOut 447
Running threw: ReferenceError: window is not defined

tryItOut 448

tryItOut 449
Compiling threw: SyntaxError: missing ) in parenthetical

tryItOut 450

tryItOut 451
Running threw: ReferenceError: window is not defined

tryItOut 452

tryItOut 453

tryItOut 454
Compiling threw: SyntaxError: duplicate label

tryItOut 455

tryItOut 456

tryItOut 457
Compiling threw: SyntaxError: syntax error

tryItOut 458

tryItOut 459

tryItOut 460
Compiling threw: SyntaxError: missing variable name

tryItOut 461
Compiling threw: SyntaxError: missing ; before statement

tryItOut 462
Running threw: TypeError: undefined has no properties

tryItOut 463
Compiling threw: SyntaxError: invalid assignment left-hand side

tryItOut 464

tryItOut 465

tryItOut 466

tryItOut 467
Compiling threw: SyntaxError: missing { before function body

tryItOut 468

tryItOut 469
Compiling threw: SyntaxError: syntax error

tryItOut 470

tryItOut 471

tryItOut 472
Compiling threw: SyntaxError: invalid assignment left-hand side

tryItOut 473
Running threw: ReferenceError: z2 is not defined

tryItOut 474

tryItOut 475

tryItOut 476
Compiling threw: SyntaxError: missing } after let block

tryItOut 477

tryItOut 478
Compiling threw: SyntaxError: invalid for/in left-hand side

tryItOut 479
Compiling threw: SyntaxError: missing ; before statement

tryItOut 480

tryItOut 481

tryItOut 482

tryItOut 483

tryItOut 484
Compiling threw: SyntaxError: missing ) in parenthetical

tryItOut 485

tryItOut 486

tryItOut 487

tryItOut 488
Compiling threw: SyntaxError: invalid increment operand

tryItOut 489

tryItOut 490

tryItOut 491

tryItOut 492
Running threw: TypeError: undefined has no properties

tryItOut 493

tryItOut 494
Compiling threw: SyntaxError: missing { before function body

tryItOut 495

tryItOut 496
Compiling threw: SyntaxError: invalid assignment left-hand side

tryItOut 497

tryItOut 498
Running threw: ReferenceError: z1 is not defined

tryItOut 499

tryItOut 500
Compiling threw: SyntaxError: missing variable name

tryItOut 501
Compiling threw: SyntaxError: missing ) in parenthetical

tryItOut 502

tryItOut 503

tryItOut 504

tryItOut 505

tryItOut 506
Compiling threw: SyntaxError: invalid label

tryItOut 507
Running threw: ReferenceError: window is not defined

tryItOut 508
Compiling threw: SyntaxError: missing ( before formal parameters

tryItOut 509
Compiling threw: SyntaxError: syntax error

tryItOut 510
Compiling threw: SyntaxError: missing ; before statement

tryItOut 511

tryItOut 512

tryItOut 513
Compiling threw: SyntaxError: invalid assignment left-hand side

tryItOut 514

tryItOut 515
Compiling threw: SyntaxError: missing ) in parenthetical

tryItOut 516
Compiling threw: SyntaxError: invalid label

tryItOut 517

tryItOut 518

tryItOut 519
Running threw: ReferenceError: z1 is not defined

tryItOut 520

tryItOut 521

tryItOut 522
Running threw: TypeError: ""['throw'] is not a function

tryItOut 523

tryItOut 524
Compiling threw: SyntaxError: missing } after let block

tryItOut 525

tryItOut 526
Compiling threw: SyntaxError: invalid assignment left-hand side

tryItOut 527

tryItOut 528
Compiling threw: TypeError: generator function anonymous returns a value

tryItOut 529
Running threw: function ([y]) {
}

tryItOut 530

tryItOut 531

tryItOut 532

tryItOut 533

tryItOut 534

tryItOut 535
Compiling threw: SyntaxError: invalid for/in left-hand side

tryItOut 536

tryItOut 537
Compiling threw: SyntaxError: missing variable name

tryItOut 538
Compiling threw: SyntaxError: invalid for/in left-hand side

tryItOut 539

tryItOut 540
Compiling threw: SyntaxError: missing { before function body

tryItOut 541
Compiling threw: TypeError: redeclaration of variable __parent__

tryItOut 542
Running threw: ReferenceError: window is not defined

tryItOut 543
Compiling threw: SyntaxError: missing } after let block

tryItOut 544
Running threw: TypeError: "" is not a constructor

tryItOut 545
Compiling threw: SyntaxError: missing ) after with-statement object

tryItOut 546
Running threw: ReferenceError: window is not defined

tryItOut 547
Compiling threw: SyntaxError: missing variable name

tryItOut 548
Compiling threw: SyntaxError: missing ) in parenthetical

tryItOut 549
Compiling threw: SyntaxError: syntax error

tryItOut 550
Running threw: ReferenceError: window is not defined

tryItOut 551

tryItOut 552
Compiling threw: SyntaxError: invalid decrement operand

tryItOut 553

tryItOut 554
Compiling threw: SyntaxError: invalid increment operand

tryItOut 555

tryItOut 556

tryItOut 557
Compiling threw: SyntaxError: missing variable name

tryItOut 558
Compiling threw: SyntaxError: missing ( before formal parameters

tryItOut 559
Compiling threw: SyntaxError: missing } after let block

tryItOut 560

tryItOut 561

tryItOut 562
Compiling threw: SyntaxError: invalid decrement operand

tryItOut 563
Compiling threw: SyntaxError: missing ; after for-loop initializer

tryItOut 564

tryItOut 565
Compiling threw: SyntaxError: syntax error

tryItOut 566
Compiling threw: SyntaxError: missing ; before statement

tryItOut 567

tryItOut 568
Compiling threw: SyntaxError: missing ; before statement

tryItOut 569
Running threw: ReferenceError: prototype is not defined

tryItOut 570
Compiling threw: SyntaxError: missing ; before statement

tryItOut 571
Compiling threw: SyntaxError: missing { before function body

tryItOut 572

tryItOut 573
Compiling threw: SyntaxError: invalid for/in left-hand side

tryItOut 574
Running threw: TypeError: {}['throw'] is not a function

tryItOut 575

tryItOut 576

tryItOut 577
Compiling threw: SyntaxError: invalid increment operand

tryItOut 578

tryItOut 579

tryItOut 580

tryItOut 581

tryItOut 582
Compiling threw: SyntaxError: invalid increment operand

tryItOut 583

tryItOut 584

tryItOut 585

tryItOut 586
Running threw: ReferenceError: window is not defined

tryItOut 587

tryItOut 588
Running threw: ReferenceError: z1 is not defined

tryItOut 589

tryItOut 590

tryItOut 591
Running threw: ReferenceError: z1 is not defined

tryItOut 592

tryItOut 593
Compiling threw: SyntaxError: missing variable name

tryItOut 594

tryItOut 595
Compiling threw: SyntaxError: missing ) after condition

tryItOut 596

tryItOut 597

tryItOut 598
Compiling threw: SyntaxError: missing { before function body

tryItOut 599

tryItOut 600

tryItOut 601

tryItOut 602
Compiling threw: SyntaxError: invalid for/in left-hand side

tryItOut 603
Compiling threw: SyntaxError: missing ; before statement

tryItOut 604
Running threw: 0

tryItOut 605

tryItOut 606
Compiling threw: SyntaxError: missing { before function body

tryItOut 607

tryItOut 608
Compiling threw: SyntaxError: missing ) after let head

tryItOut 609

tryItOut 610
Running threw: ReferenceError: window is not defined

tryItOut 611
Compiling threw: SyntaxError: missing variable name

tryItOut 612
Running threw: ReferenceError: window is not defined

tryItOut 613

tryItOut 614
Compiling threw: SyntaxError: missing : after property id

tryItOut 615
Compiling threw: SyntaxError: invalid increment operand

tryItOut 616

tryItOut 617
Compiling threw: SyntaxError: invalid sharp variable definition

tryItOut 618
Compiling threw: SyntaxError: missing ; after for-loop condition

tryItOut 619
Compiling threw: SyntaxError: missing ; after for-loop initializer

tryItOut 620
Compiling threw: TypeError: redeclaration of variable __count__

tryItOut 621
Compiling threw: SyntaxError: missing exponent

tryItOut 622

tryItOut 623
Compiling threw: SyntaxError: missing ; before statement

tryItOut 624
Compiling threw: SyntaxError: missing ; after for-loop initializer

tryItOut 625

tryItOut 626
Compiling threw: SyntaxError: missing { before function body

tryItOut 627

tryItOut 628
Running threw: ReferenceError: Exception is not defined

tryItOut 629

tryItOut 630
Compiling threw: SyntaxError: invalid assignment left-hand side

tryItOut 631

tryItOut 632

tryItOut 633
It's an iterator!
Iterating succeeded, iterCount == 1

tryItOut 634
Compiling threw: SyntaxError: invalid decrement operand

tryItOut 635

tryItOut 636
Running threw: ReferenceError: window is not defined

tryItOut 637
Compiling threw: SyntaxError: missing ; before statement

tryItOut 638

tryItOut 639
Compiling threw: SyntaxError: missing ; before statement

tryItOut 640

tryItOut 641
Compiling threw: SyntaxError: missing ; after for-loop initializer

tryItOut 642
Compiling threw: SyntaxError: missing formal parameter

tryItOut 643
Compiling threw: SyntaxError: syntax error

tryItOut 644
Compiling threw: SyntaxError: invalid assignment left-hand side

tryItOut 645
Running threw: TypeError: __parent__ has no properties

tryItOut 646
Compiling threw: SyntaxError: missing } after property list

tryItOut 647
Running threw: TypeError: true is not a function

tryItOut 648
Running threw: TypeError: ""['throw'] is not a function

tryItOut 649

tryItOut 650
Compiling threw: SyntaxError: missing ) in parenthetical

tryItOut 651
Compiling threw: SyntaxError: missing ) in parenthetical

tryItOut 652

tryItOut 653

tryItOut 654
Compiling threw: SyntaxError: invalid increment operand

tryItOut 655

tryItOut 656

tryItOut 657

tryItOut 658
Compiling threw: SyntaxError: missing variable name

tryItOut 659

tryItOut 660

tryItOut 661
Compiling threw: SyntaxError: missing ; after for-loop initializer

tryItOut 662

tryItOut 663

tryItOut 664
Compiling threw: SyntaxError: syntax error

tryItOut 665

tryItOut 666
Running threw: ReferenceError: z1 is not defined

tryItOut 667

tryItOut 668

tryItOut 669

tryItOut 670
Compiling threw: SyntaxError: missing } after let block

tryItOut 671
Compiling threw: SyntaxError: missing ; after for-loop initializer

tryItOut 672

tryItOut 673
Compiling threw: SyntaxError: missing ; before statement

tryItOut 674
Compiling threw: SyntaxError: missing ) in parenthetical

tryItOut 675
Running threw: true

tryItOut 676

tryItOut 677
Compiling threw: SyntaxError: missing variable name

tryItOut 678
Running threw: ReferenceError: z1 is not defined

tryItOut 679

tryItOut 680
Compiling threw: SyntaxError: syntax error

tryItOut 681
Compiling threw: SyntaxError: missing ) in parenthetical

tryItOut 682
Compiling threw: SyntaxError: missing ; before statement

tryItOut 683

tryItOut 684

tryItOut 685

tryItOut 686

tryItOut 687
Running threw: ReferenceError: window is not defined

tryItOut 688
Running threw: 1e+81

tryItOut 689
Compiling threw: SyntaxError: missing { before function body

tryItOut 690

tryItOut 691
Compiling threw: SyntaxError: missing ) after let head

tryItOut 692
Compiling threw: SyntaxError: syntax error

tryItOut 693
Running threw: 1e+81

tryItOut 694
Compiling threw: SyntaxError: missing ; after for-loop condition

tryItOut 695

tryItOut 696
Compiling threw: SyntaxError: syntax error

tryItOut 697

tryItOut 698
Compiling threw: SyntaxError: missing ; after for-loop initializer

tryItOut 699

tryItOut 700

tryItOut 701
Running threw: function ([y]) {
}

tryItOut 702

tryItOut 703

tryItOut 704

tryItOut 705
Compiling threw: SyntaxError: missing } after let block

tryItOut 706

tryItOut 707

tryItOut 708

tryItOut 709

tryItOut 710

tryItOut 711
Compiling threw: SyntaxError: invalid decrement operand

tryItOut 712

tryItOut 713
It's an iterator!
Iterating succeeded, iterCount == 0

tryItOut 714
Compiling threw: SyntaxError: missing ( before let head

tryItOut 715
Compiling threw: SyntaxError: invalid for/in left-hand side

tryItOut 716

tryItOut 717

tryItOut 718

tryItOut 719
Compiling threw: SyntaxError: missing ; before statement

tryItOut 720

tryItOut 721
Compiling threw: SyntaxError: missing ) in parenthetical

tryItOut 722
Compiling threw: SyntaxError: missing } after let block

tryItOut 723

tryItOut 724

tryItOut 725

tryItOut 726
Compiling threw: SyntaxError: missing { before function body

tryItOut 727

tryItOut 728
Compiling threw: SyntaxError: missing { before function body

tryItOut 729
Running threw: ReferenceError: window is not defined

tryItOut 730
Running threw: ReferenceError: a is not defined

tryItOut 731
Running threw: ReferenceError: z2 is not defined

tryItOut 732
Compiling threw: SyntaxError: invalid for/in left-hand side

tryItOut 733
Compiling threw: SyntaxError: missing ; before statement

tryItOut 734
Compiling threw: SyntaxError: missing { before function body

tryItOut 735

tryItOut 736

tryItOut 737
Running threw: function ([y]) {
}

tryItOut 738

tryItOut 739
Compiling threw: SyntaxError: missing variable name

tryItOut 740
Compiling threw: SyntaxError: invalid destructuring assignment operator

tryItOut 741
Compiling threw: SyntaxError: invalid assignment left-hand side

tryItOut 742

tryItOut 743

tryItOut 744
Compiling threw: SyntaxError: missing variable name

tryItOut 745
Compiling threw: SyntaxError: invalid assignment left-hand side

tryItOut 746

tryItOut 747

tryItOut 748

tryItOut 749

tryItOut 750
Compiling threw: SyntaxError: syntax error

tryItOut 751

tryItOut 752

tryItOut 753
Compiling threw: SyntaxError: missing { before function body

tryItOut 754

tryItOut 755

tryItOut 756

tryItOut 757

tryItOut 758
Running threw: TypeError: undefined has no properties

tryItOut 759

tryItOut 760
Running threw: ReferenceError: window is not defined

tryItOut 761
Compiling threw: SyntaxError: missing variable name

tryItOut 762

tryItOut 763

tryItOut 764

tryItOut 765
Compiling threw: SyntaxError: syntax error

tryItOut 766

tryItOut 767
It's an iterator!
Iterating succeeded, iterCount == 1

tryItOut 768

tryItOut 769
Running threw: ReferenceError: window is not defined

tryItOut 770
Compiling threw: SyntaxError: syntax error

tryItOut 771
Compiling threw: SyntaxError: missing ) in parenthetical

tryItOut 772
Compiling threw: SyntaxError: missing ; before statement

tryItOut 773

tryItOut 774

tryItOut 775
Compiling threw: SyntaxError: syntax error

tryItOut 776

tryItOut 777
Running threw: ReferenceError: window is not defined

tryItOut 778

tryItOut 779
Compiling threw: SyntaxError: missing variable name

tryItOut 780
Running threw: ReferenceError: window is not defined

tryItOut 781

tryItOut 782
Running threw: true

tryItOut 783

tryItOut 784
Running threw: ReferenceError: window is not defined

tryItOut 785

tryItOut 786

tryItOut 787
Compiling threw: SyntaxError: syntax error

tryItOut 788
Compiling threw: SyntaxError: missing ; before statement

tryItOut 789

tryItOut 790
Compiling threw: SyntaxError: missing ) in parenthetical

tryItOut 791

tryItOut 792
Compiling threw: SyntaxError: missing = in destructuring declaration

tryItOut 793
Compiling threw: SyntaxError: missing { before function body

tryItOut 794
Compiling threw: SyntaxError: missing } after let block

tryItOut 795
Compiling threw: SyntaxError: missing ) in parenthetical

tryItOut 796
Running threw: ReferenceError: z1 is not defined

tryItOut 797
Compiling threw: SyntaxError: missing variable name

tryItOut 798

tryItOut 799

tryItOut 800
Compiling threw: SyntaxError: syntax error

tryItOut 801

tryItOut 802

tryItOut 803
Compiling threw: SyntaxError: missing ) in parenthetical

tryItOut 804

tryItOut 805
Compiling threw: SyntaxError: invalid increment operand

tryItOut 806
Compiling threw: SyntaxError: syntax error

tryItOut 807
Compiling threw: SyntaxError: invalid increment operand

tryItOut 808

tryItOut 809
Compiling threw: SyntaxError: missing ; before statement

tryItOut 810

tryItOut 811
Compiling threw: SyntaxError: missing ; before statement

tryItOut 812
Compiling threw: SyntaxError: missing { before function body

tryItOut 813

tryItOut 814

tryItOut 815
Compiling threw: SyntaxError: syntax error

tryItOut 816

tryItOut 817

tryItOut 818
Compiling threw: SyntaxError: invalid increment operand

tryItOut 819

tryItOut 820

tryItOut 821
Compiling threw: SyntaxError: missing ; before statement

tryItOut 822

tryItOut 823
Running threw: ReferenceError: window is not defined

tryItOut 824

tryItOut 825

tryItOut 826
Compiling threw: SyntaxError: syntax error

tryItOut 827

tryItOut 828

tryItOut 829
Compiling threw: SyntaxError: syntax error

tryItOut 830
Running threw: TypeError: "".__defineSetter__("__noSuchMethod__", Math.sin.apply) has no properties

tryItOut 831

tryItOut 832
Compiling threw: SyntaxError: missing } after let block

tryItOut 833

tryItOut 834
Compiling threw: SyntaxError: syntax error

tryItOut 835
Compiling threw: SyntaxError: missing ) in parenthetical

tryItOut 836

tryItOut 837

tryItOut 838
Compiling threw: SyntaxError: invalid assignment left-hand side

tryItOut 839
Compiling threw: SyntaxError: missing { before function body

tryItOut 840

tryItOut 841
Compiling threw: SyntaxError: missing ) after let head

tryItOut 842
Compiling threw: SyntaxError: syntax error

tryItOut 843

tryItOut 844
Compiling threw: SyntaxError: missing ) in parenthetical

tryItOut 845
Running threw: true

tryItOut 846
Compiling threw: SyntaxError: missing ) after argument list

tryItOut 847

tryItOut 848
Compiling threw: SyntaxError: syntax error

tryItOut 849

tryItOut 850
Compiling threw: SyntaxError: missing variable name

tryItOut 851

tryItOut 852
Compiling threw: SyntaxError: missing ) in parenthetical

tryItOut 853
Compiling threw: SyntaxError: syntax error

tryItOut 854
Compiling threw: SyntaxError: invalid assignment left-hand side

tryItOut 855

tryItOut 856

tryItOut 857

tryItOut 858
Compiling threw: SyntaxError: missing ; after for-loop initializer

tryItOut 859
Compiling threw: SyntaxError: missing ) in parenthetical

tryItOut 860

tryItOut 861
Compiling threw: SyntaxError: invalid for/in left-hand side

tryItOut 862
Compiling threw: SyntaxError: invalid assignment left-hand side

tryItOut 863

tryItOut 864
Compiling threw: SyntaxError: invalid assignment left-hand side

tryItOut 865
Compiling threw: SyntaxError: missing { before function body

tryItOut 866
Compiling threw: SyntaxError: missing : after property id

tryItOut 867
Compiling threw: SyntaxError: invalid increment operand

tryItOut 868
Compiling threw: SyntaxError: missing while after do-loop body

tryItOut 869
Compiling threw: SyntaxError: invalid flag after regular expression

tryItOut 870

tryItOut 871
Compiling threw: SyntaxError: invalid assignment left-hand side

tryItOut 872
Compiling threw: SyntaxError: missing variable name

tryItOut 873

tryItOut 874
Compiling threw: SyntaxError: missing variable name

tryItOut 875
Compiling threw: SyntaxError: missing ; before statement

tryItOut 876
Running threw: ReferenceError: window is not defined

tryItOut 877
Compiling threw: SyntaxError: missing ; before statement

tryItOut 878

tryItOut 879
Compiling threw: SyntaxError: missing ; before statement

tryItOut 880
Compiling threw: SyntaxError: missing ; before statement

tryItOut 881
Compiling threw: SyntaxError: invalid assignment left-hand side

tryItOut 882
Compiling threw: SyntaxError: yield expression must be parenthesized

tryItOut 883

tryItOut 884
Compiling threw: SyntaxError: missing ; after for-loop initializer

tryItOut 885

tryItOut 886

tryItOut 887

tryItOut 888
Running threw: ReferenceError: window is not defined

tryItOut 889

tryItOut 890

tryItOut 891
Compiling threw: SyntaxError: invalid for/in left-hand side

tryItOut 892

tryItOut 893

tryItOut 894

tryItOut 895
Running threw: ReferenceError: reference to undefined XML name @mozilla.org/js/function::__iterator__

tryItOut 896
Compiling threw: SyntaxError: missing } after let block

tryItOut 897
Compiling threw: SyntaxError: syntax error

tryItOut 898

tryItOut 899
Compiling threw: SyntaxError: missing = in destructuring declaration

tryItOut 900

tryItOut 901
Compiling threw: SyntaxError: invalid for/in left-hand side

tryItOut 902

tryItOut 903
Compiling threw: SyntaxError: syntax error

tryItOut 904
Compiling threw: SyntaxError: missing ; before statement

tryItOut 905

tryItOut 906
Compiling threw: SyntaxError: missing ; before statement

tryItOut 907
Compiling threw: SyntaxError: syntax error

tryItOut 908

tryItOut 909

tryItOut 910

tryItOut 911

tryItOut 912
Compiling threw: SyntaxError: syntax error

tryItOut 913

tryItOut 914

tryItOut 915
Compiling threw: SyntaxError: missing } after let block

tryItOut 916

tryItOut 917

tryItOut 918
Running threw: true

tryItOut 919
Compiling threw: SyntaxError: missing variable name

tryItOut 920

tryItOut 921
Compiling threw: SyntaxError: missing ) after argument list

tryItOut 922

tryItOut 923

tryItOut 924
Compiling threw: SyntaxError: missing } after let block

tryItOut 925

tryItOut 926
Compiling threw: SyntaxError: missing : after property id

tryItOut 927
Running threw: TypeError: RegExp.prototype.toString called on incompatible global

tryItOut 928

tryItOut 929
Compiling threw: SyntaxError: invalid for/in left-hand side

tryItOut 930
Compiling threw: SyntaxError: missing ; before statement

tryItOut 931

tryItOut 932
Compiling threw: SyntaxError: missing : after property id

tryItOut 933
Compiling threw: SyntaxError: missing ; before statement

tryItOut 934
Compiling threw: SyntaxError: syntax error

tryItOut 935
Running threw: ReferenceError: window is not defined

tryItOut 936
Compiling threw: SyntaxError: missing variable name

tryItOut 937

tryItOut 938

tryItOut 939

tryItOut 940
Compiling threw: SyntaxError: missing ) in parenthetical

tryItOut 941
Compiling threw: SyntaxError: missing ) in parenthetical

tryItOut 942
Running threw: TypeError: __parent__ has no properties

tryItOut 943

tryItOut 944
Compiling threw: SyntaxError: missing variable name

tryItOut 945

tryItOut 946

tryItOut 947
Compiling threw: SyntaxError: syntax error

tryItOut 948
Running threw: true

tryItOut 949
Compiling threw: SyntaxError: missing ) in parenthetical

tryItOut 950

tryItOut 951

tryItOut 952
Compiling threw: SyntaxError: missing ; before statement

tryItOut 953

tryItOut 954

tryItOut 955

tryItOut 956

tryItOut 957

tryItOut 958

tryItOut 959
Compiling threw: SyntaxError: missing ( before formal parameters

tryItOut 960
It's an iterator!
Iterating threw!
Iterating threw: ReferenceError: window is not defined

tryItOut 961

tryItOut 962

tryItOut 963
Compiling threw: SyntaxError: invalid flag after regular expression

tryItOut 964
Compiling threw: SyntaxError: missing variable name

tryItOut 965

tryItOut 966

tryItOut 967

tryItOut 968
Compiling threw: SyntaxError: missing } in compound statement

tryItOut 969
Compiling threw: SyntaxError: syntax error

tryItOut 970
Compiling threw: TypeError: redeclaration of const __noSuchMethod__

tryItOut 971

tryItOut 972

tryItOut 973
Compiling threw: SyntaxError: syntax error

tryItOut 974

tryItOut 975

tryItOut 976
Compiling threw: SyntaxError: yield expression must be parenthesized

tryItOut 977

tryItOut 978
Compiling threw: SyntaxError: missing ) in parenthetical

tryItOut 979
Compiling threw: SyntaxError: syntax error

tryItOut 980
Compiling threw: SyntaxError: missing variable name

tryItOut 981
Compiling threw: SyntaxError: missing { before function body

tryItOut 982
Compiling threw: SyntaxError: missing ; after for-loop initializer

tryItOut 983

tryItOut 984
Compiling threw: SyntaxError: missing variable name

tryItOut 985

tryItOut 986

tryItOut 987

tryItOut 988

tryItOut 989
Compiling threw: SyntaxError: invalid assignment left-hand side

tryItOut 990

tryItOut 991

tryItOut 992
Compiling threw: SyntaxError: invalid sharp variable definition

tryItOut 993
Compiling threw: SyntaxError: invalid decrement operand

tryItOut 994

tryItOut 995
Compiling threw: SyntaxError: invalid decrement operand

tryItOut 996

tryItOut 997
Running threw: TypeError: -1 is not a constructor

tryItOut 998

tryItOut 999
Running threw: ReferenceError: window is not defined

tryItOut 1000

ALL OK

Script done on Sat 04 May 2013 07:47:46 AM PDT
