Script started on Sat 04 May 2013 07:51:23 AM PDT
***
Targeting SpiderMonkey / Gecko.

tryItOut 1
Compiling threw: SyntaxError: invalid for/in left-hand side

tryItOut 2
Compiling threw: SyntaxError: missing ) in parenthetical

tryItOut 3
Compiling threw: SyntaxError: syntax error

tryItOut 4
Compiling threw: SyntaxError: syntax error

tryItOut 5
Running threw: ReferenceError: __iterator__ is not defined

tryItOut 6

tryItOut 7

tryItOut 8
Compiling threw: SyntaxError: missing ) in parenthetical

tryItOut 9
Compiling threw: SyntaxError: missing { before function body

tryItOut 10
Compiling threw: SyntaxError: missing ) in parenthetical

tryItOut 11
Compiling threw: SyntaxError: missing ; before statement

tryItOut 12

tryItOut 13
Compiling threw: SyntaxError: missing ) after formal parameters

tryItOut 14
Compiling threw: SyntaxError: missing ) in parenthetical

tryItOut 15
Compiling threw: SyntaxError: missing ) after condition

tryItOut 16
Compiling threw: SyntaxError: missing ) in parenthetical

tryItOut 17

tryItOut 18
Compiling threw: SyntaxError: syntax error

tryItOut 19
Compiling threw: SyntaxError: invalid assignment left-hand side

tryItOut 20
Compiling threw: SyntaxError: syntax error

tryItOut 21
Compiling threw: SyntaxError: syntax error

tryItOut 22

tryItOut 23

tryItOut 24

tryItOut 25
Compiling threw: TypeError: generator function anonymous returns a value

tryItOut 26

tryItOut 27
Compiling threw: SyntaxError: invalid sharp variable definition

tryItOut 28

tryItOut 29
Running threw: [object StopIteration]

tryItOut 30
Compiling threw: SyntaxError: missing ) in parenthetical

tryItOut 31
Compiling threw: SyntaxError: illegal XML character

tryItOut 32
Compiling threw: SyntaxError: missing variable name

tryItOut 33
Running threw: function Object() {
    [native code]
}

tryItOut 34
Compiling threw: SyntaxError: missing ) after condition

tryItOut 35

tryItOut 36

tryItOut 37

tryItOut 38
Compiling threw: SyntaxError: invalid assignment left-hand side

tryItOut 39
Compiling threw: SyntaxError: syntax error

tryItOut 40
Running threw: null

tryItOut 41
Compiling threw: TypeError: redeclaration of variable prop

tryItOut 42
Compiling threw: SyntaxError: syntax error

tryItOut 43

tryItOut 44
Compiling threw: TypeError: redeclaration of variable constructor

tryItOut 45
Compiling threw: SyntaxError: invalid assignment left-hand side

tryItOut 46

tryItOut 47

tryItOut 48
Compiling threw: SyntaxError: invalid for/in left-hand side

tryItOut 49
Running threw: [object StopIteration]

tryItOut 50

tryItOut 51

tryItOut 52
Running threw: [object Object]

tryItOut 53

tryItOut 54
Running threw: TypeError: this.__defineSetter__("__noSuchMethod__", Math.pow) is not a function

tryItOut 55
Compiling threw: SyntaxError: catch without try

tryItOut 56

tryItOut 57
Compiling threw: SyntaxError: syntax error

tryItOut 58
Compiling threw: SyntaxError: missing ) in parenthetical

tryItOut 59

tryItOut 60
Compiling threw: SyntaxError: invalid assignment left-hand side

tryItOut 61
Compiling threw: SyntaxError: missing ) in parenthetical

tryItOut 62
Running threw: ReferenceError: reference to undefined XML name *

tryItOut 63
Running threw: TypeError: <x><y/></x>.__lookupSetter__("__proto__") has no properties

tryItOut 64
Running threw: ReferenceError: prop is not defined

tryItOut 65

tryItOut 66
Compiling threw: SyntaxError: missing variable name

tryItOut 67
Running threw: TypeError: <x/>.__lookupSetter__("constructor") has no properties

tryItOut 68

tryItOut 69

tryItOut 70
Compiling threw: SyntaxError: invalid decrement operand

tryItOut 71
Compiling threw: SyntaxError: illegal XML character

tryItOut 72

tryItOut 73
Compiling threw: SyntaxError: missing variable name

tryItOut 74
Compiling threw: SyntaxError: illegal XML character

tryItOut 75
Compiling threw: SyntaxError: invalid for each loop

tryItOut 76

tryItOut 77
Compiling threw: SyntaxError: syntax error

tryItOut 78
Running threw: ReferenceError: reference to undefined XML name @foo

tryItOut 79

tryItOut 80
Compiling threw: SyntaxError: invalid for/in left-hand side

tryItOut 81
Compiling threw: SyntaxError: invalid for/in left-hand side

tryItOut 82

tryItOut 83
Compiling threw: SyntaxError: missing ; before statement

tryItOut 84

tryItOut 85

tryItOut 86

tryItOut 87
Compiling threw: SyntaxError: invalid for/in left-hand side

tryItOut 88

tryItOut 89

tryItOut 90

tryItOut 91
Compiling threw: SyntaxError: syntax error

tryItOut 92

tryItOut 93
Compiling threw: SyntaxError: invalid for/in left-hand side

tryItOut 94
Running threw: undefined

tryItOut 95

tryItOut 96
Compiling threw: TypeError: generator function anonymous returns a value

tryItOut 97

tryItOut 98
Compiling threw: SyntaxError: invalid assignment left-hand side

tryItOut 99

tryItOut 100

tryItOut 101

tryItOut 102

tryItOut 103
Compiling threw: SyntaxError: missing ) in parenthetical

tryItOut 104
Compiling threw: SyntaxError: missing variable name

tryItOut 105

tryItOut 106

tryItOut 107

tryItOut 108

tryItOut 109
Compiling threw: SyntaxError: missing variable name

tryItOut 110
Compiling threw: SyntaxError: invalid for/in left-hand side

tryItOut 111
Compiling threw: SyntaxError: syntax error

tryItOut 112
Compiling threw: SyntaxError: invalid increment operand

tryItOut 113
Compiling threw: SyntaxError: missing ) after argument list

tryItOut 114

tryItOut 115

tryItOut 116
Running threw: ReferenceError: reference to undefined XML name *

tryItOut 117

tryItOut 118
Running threw: null

tryItOut 119
Compiling threw: SyntaxError: missing ) in parenthetical

tryItOut 120
Compiling threw: SyntaxError: missing while after do-loop body

tryItOut 121

tryItOut 122
Compiling threw: SyntaxError: missing ; after for-loop condition

tryItOut 123

tryItOut 124
Compiling threw: SyntaxError: invalid for each loop

tryItOut 125
before 139520, after 139520, break 0191e000

tryItOut 126
Compiling threw: SyntaxError: missing ; before statement

tryItOut 127
Compiling threw: SyntaxError: missing : after property id

tryItOut 128
Compiling threw: SyntaxError: missing ) in parenthetical

tryItOut 129
Compiling threw: SyntaxError: missing ) in parenthetical

tryItOut 130
Compiling threw: SyntaxError: invalid for/in left-hand side

tryItOut 131

tryItOut 132

tryItOut 133

tryItOut 134

tryItOut 135
Compiling threw: SyntaxError: missing ) in parenthetical

tryItOut 136

tryItOut 137

tryItOut 138
Compiling threw: SyntaxError: invalid assignment left-hand side

tryItOut 139
Compiling threw: SyntaxError: invalid assignment left-hand side

tryItOut 140
Running threw: null

tryItOut 141

tryItOut 142

tryItOut 143
Running threw: [object StopIteration]

tryItOut 144
Running threw: TypeError: this.zzz has no properties

tryItOut 145
Compiling threw: SyntaxError: invalid assignment left-hand side

tryItOut 146
Compiling threw: SyntaxError: missing ) after condition

tryItOut 147
Running threw: ReferenceError: prop is not defined

tryItOut 148

tryItOut 149

tryItOut 150
Compiling threw: SyntaxError: illegal XML character

tryItOut 151
Running threw: [object Object]

tryItOut 152

tryItOut 153

tryItOut 154

tryItOut 155

tryItOut 156

tryItOut 157
Compiling threw: SyntaxError: missing while after do-loop body

tryItOut 158

tryItOut 159
Compiling threw: SyntaxError: invalid for/in left-hand side

tryItOut 160
Compiling threw: SyntaxError: missing ) after condition

tryItOut 161

tryItOut 162
Compiling threw: SyntaxError: invalid assignment left-hand side

tryItOut 163
Compiling threw: SyntaxError: missing ; after for-loop initializer

tryItOut 164

tryItOut 165
Compiling threw: SyntaxError: missing ) after condition

tryItOut 166

tryItOut 167

tryItOut 168

tryItOut 169
Running threw: ReferenceError: prop is not defined

tryItOut 170

tryItOut 171

tryItOut 172

tryItOut 173

tryItOut 174
Compiling threw: SyntaxError: missing : after property id

tryItOut 175
Compiling threw: SyntaxError: invalid for each loop

tryItOut 176

tryItOut 177
Compiling threw: SyntaxError: invalid label

tryItOut 178
Compiling threw: SyntaxError: syntax error

tryItOut 179

tryItOut 180
Compiling threw: SyntaxError: syntax error

tryItOut 181
Compiling threw: SyntaxError: missing ; before statement

tryItOut 182
Compiling threw: SyntaxError: missing ) after condition

tryItOut 183
Compiling threw: SyntaxError: syntax error

tryItOut 184
Compiling threw: SyntaxError: missing ; before statement

tryItOut 185

tryItOut 186

tryItOut 187
Compiling threw: SyntaxError: invalid assignment left-hand side

tryItOut 188
Compiling threw: SyntaxError: missing : after property id

tryItOut 189

tryItOut 190
Compiling threw: SyntaxError: missing variable name

tryItOut 191

tryItOut 192

tryItOut 193
Compiling threw: SyntaxError: missing ) after argument list

tryItOut 194

tryItOut 195
Compiling threw: SyntaxError: missing } after let block

tryItOut 196
Running threw: ReferenceError: reference to undefined XML name *

tryItOut 197
Running threw: TypeError: __parent__ is not a function

tryItOut 198
Running threw: ReferenceError: reference to undefined XML name *

tryItOut 199
Compiling threw: SyntaxError: missing ) in parenthetical

tryItOut 200
Compiling threw: SyntaxError: missing ; before statement

tryItOut 201
Compiling threw: SyntaxError: syntax error

tryItOut 202
Compiling threw: SyntaxError: invalid for each loop

tryItOut 203

tryItOut 204
Running threw: TypeError: <y>
  <z/>
</y> is not a function

tryItOut 205
Compiling threw: SyntaxError: missing ; before statement

tryItOut 206

tryItOut 207
Running threw: [object StopIteration]

tryItOut 208
Compiling threw: SyntaxError: missing ; before statement

tryItOut 209
uneval returned the string: ({a1:1})
Skipping re-eval test

tryItOut 210
Running threw: ReferenceError: reference to undefined XML name *

tryItOut 211
It's an iterator!
Iterating threw!
Iterating threw: TypeError: prototype has no properties

tryItOut 212
Compiling threw: SyntaxError: invalid for each loop

tryItOut 213
Compiling threw: SyntaxError: invalid for/in left-hand side

tryItOut 214
Compiling threw: SyntaxError: invalid default XML namespace

tryItOut 215

tryItOut 216
Compiling threw: SyntaxError: invalid assignment left-hand side

tryItOut 217
Compiling threw: SyntaxError: syntax error

tryItOut 218

tryItOut 219
Compiling threw: SyntaxError: invalid for/in left-hand side

tryItOut 220
Compiling threw: TypeError: generator function anonymous returns a value

tryItOut 221

tryItOut 222

tryItOut 223
Compiling threw: SyntaxError: syntax error

tryItOut 224
Compiling threw: SyntaxError: missing ) after condition

tryItOut 225

tryItOut 226

tryItOut 227

tryItOut 228

tryItOut 229
Running threw: ReferenceError: reference to undefined XML name *::*

tryItOut 230
Compiling threw: SyntaxError: missing ; before statement

tryItOut 231

tryItOut 232

tryItOut 233
Compiling threw: SyntaxError: syntax error

tryItOut 234
Compiling threw: SyntaxError: missing variable name

tryItOut 235

tryItOut 236
Compiling threw: SyntaxError: missing ) after condition

tryItOut 237

tryItOut 238

tryItOut 239
Compiling threw: SyntaxError: missing ; before statement

tryItOut 240
Compiling threw: SyntaxError: missing } after let block

tryItOut 241
Running threw: [object StopIteration]

tryItOut 242

tryItOut 243
Compiling threw: SyntaxError: syntax error

tryItOut 244

tryItOut 245
Compiling threw: SyntaxError: syntax error

tryItOut 246
Compiling threw: SyntaxError: missing { before function body

tryItOut 247
Running threw: ReferenceError: reference to undefined XML name *

tryItOut 248

tryItOut 249
Compiling threw: SyntaxError: missing ) after let head

tryItOut 250
Running threw: [object StopIteration]

tryItOut 251

tryItOut 252
It's an iterator!
Iterating threw!
Iterating threw: ReferenceError: reference to undefined XML name *

tryItOut 253
Compiling threw: SyntaxError: invalid for each loop

tryItOut 254

tryItOut 255
Compiling threw: SyntaxError: missing ) after with-statement object

tryItOut 256

tryItOut 257

tryItOut 258

tryItOut 259
Compiling threw: SyntaxError: invalid assignment left-hand side

tryItOut 260
uneval returned the string: [1]

tryItOut 261

tryItOut 262

tryItOut 263
Compiling threw: SyntaxError: missing variable name

tryItOut 264
Compiling threw: SyntaxError: invalid for/in left-hand side

tryItOut 265
Compiling threw: SyntaxError: missing ) in parenthetical

tryItOut 266

tryItOut 267
Running threw: ReferenceError: reference to undefined XML name @foo

tryItOut 268
Compiling threw: SyntaxError: missing variable name

tryItOut 269
Running threw: [object StopIteration]

tryItOut 270
Compiling threw: SyntaxError: missing ) in parenthetical

tryItOut 271
It's an iterator!
Iterating succeeded, iterCount == 1

tryItOut 272

tryItOut 273
Compiling threw: SyntaxError: invalid assignment left-hand side

tryItOut 274
Compiling threw: SyntaxError: missing = in destructuring declaration

tryItOut 275

tryItOut 276

tryItOut 277

tryItOut 278
Compiling threw: SyntaxError: invalid sharp variable definition

tryItOut 279
Compiling threw: SyntaxError: invalid for each loop

tryItOut 280
Compiling threw: SyntaxError: syntax error

tryItOut 281

tryItOut 282
Compiling threw: SyntaxError: missing ) in parenthetical

tryItOut 283
Compiling threw: SyntaxError: syntax error

tryItOut 284
Compiling threw: SyntaxError: invalid assignment left-hand side

tryItOut 285
Compiling threw: TypeError: redeclaration of variable prop

tryItOut 286

tryItOut 287
Compiling threw: SyntaxError: invalid decrement operand

tryItOut 288
Compiling threw: SyntaxError: invalid destructuring assignment operator

tryItOut 289
Compiling threw: SyntaxError: missing { before function body

tryItOut 290

tryItOut 291

tryItOut 292

tryItOut 293

tryItOut 294
It's an iterator!
Iterating succeeded, iterCount == 1

tryItOut 295

tryItOut 296
Compiling threw: SyntaxError: missing ) in parenthetical

tryItOut 297

tryItOut 298
Compiling threw: SyntaxError: invalid for/in left-hand side

tryItOut 299
before 174400, after 174400, break 01984000

tryItOut 300

tryItOut 301

tryItOut 302
before 174400, after 174400, break 01984000
Running threw: TypeError: arguments[0] has no properties

tryItOut 303

tryItOut 304

tryItOut 305
Compiling threw: SyntaxError: invalid for each loop

tryItOut 306
Compiling threw: TypeError: anonymous generator function returns a value

tryItOut 307
It's an iterator!
Iterating succeeded, iterCount == 1

tryItOut 308
Compiling threw: SyntaxError: duplicate label

tryItOut 309

tryItOut 310
Compiling threw: SyntaxError: invalid for/in left-hand side

tryItOut 311
Compiling threw: SyntaxError: missing ) in parenthetical

tryItOut 312

tryItOut 313
Compiling threw: SyntaxError: invalid for/in left-hand side

tryItOut 314
Running threw: TypeError: this.zzz has no properties

tryItOut 315

tryItOut 316
Compiling threw: SyntaxError: missing ; after for-loop initializer

tryItOut 317
Compiling threw: SyntaxError: missing ) in parenthetical

tryItOut 318

tryItOut 319

tryItOut 320
Compiling threw: SyntaxError: syntax error

tryItOut 321
Compiling threw: SyntaxError: missing variable name

tryItOut 322

tryItOut 323
Compiling threw: SyntaxError: invalid for each loop

tryItOut 324
Running threw: null

tryItOut 325

tryItOut 326
Compiling threw: SyntaxError: syntax error

tryItOut 327

tryItOut 328
Compiling threw: SyntaxError: invalid for/in left-hand side

tryItOut 329
Compiling threw: SyntaxError: missing variable name

tryItOut 330
Compiling threw: SyntaxError: invalid for each loop

tryItOut 331

tryItOut 332

tryItOut 333
Compiling threw: SyntaxError: missing } after let block

tryItOut 334
uneval returned the string: [[]]

tryItOut 335

tryItOut 336
Compiling threw: SyntaxError: missing ) after for-loop control

tryItOut 337

tryItOut 338
Running threw: TypeError: __noSuchMethod__ has no properties

tryItOut 339
Compiling threw: SyntaxError: invalid increment operand

tryItOut 340
Compiling threw: SyntaxError: syntax error

tryItOut 341
Compiling threw: SyntaxError: missing variable name

tryItOut 342
Running threw: ReferenceError: reference to undefined XML name @foo

tryItOut 343

tryItOut 344

tryItOut 345
Compiling threw: TypeError: generator function anonymous returns a value

tryItOut 346
Compiling threw: SyntaxError: missing ; before statement

tryItOut 347
It's an iterator!
Iterating succeeded, iterCount == 1

tryItOut 348
Compiling threw: SyntaxError: missing ) after condition

tryItOut 349
Compiling threw: SyntaxError: invalid XML tag syntax

tryItOut 350
Compiling threw: SyntaxError: missing ; before statement

tryItOut 351

tryItOut 352

tryItOut 353
Compiling threw: SyntaxError: invalid for/in left-hand side

tryItOut 354

tryItOut 355

tryItOut 356

tryItOut 357
It's an iterator!
Iterating succeeded, iterCount == 1

tryItOut 358
Running threw: Error: invalid sharp variable use #1#

tryItOut 359

tryItOut 360

tryItOut 361

tryItOut 362
Compiling threw: SyntaxError: invalid destructuring assignment operator

tryItOut 363
Compiling threw: SyntaxError: missing name after . operator

tryItOut 364
Compiling threw: SyntaxError: missing { before function body

tryItOut 365
Compiling threw: SyntaxError: missing ) after argument list

tryItOut 366
Compiling threw: SyntaxError: missing = in destructuring declaration

tryItOut 367
Compiling threw: SyntaxError: invalid for/in left-hand side

tryItOut 368
It's an iterator!
Iterating succeeded, iterCount == 1

tryItOut 369
Compiling threw: SyntaxError: missing ) in parenthetical

tryItOut 370

tryItOut 371
Compiling threw: SyntaxError: invalid for/in left-hand side

tryItOut 372
Compiling threw: SyntaxError: invalid assignment left-hand side

tryItOut 373
Running threw: ReferenceError: reference to undefined XML name *::*

tryItOut 374
Compiling threw: SyntaxError: invalid assignment left-hand side

tryItOut 375
Compiling threw: SyntaxError: invalid increment operand

tryItOut 376
It's an iterator!
Iterating threw!
Iterating threw: ReferenceError: reference to undefined XML name *

tryItOut 377

tryItOut 378

tryItOut 379

tryItOut 380

tryItOut 381

tryItOut 382

tryItOut 383

tryItOut 384
Compiling threw: SyntaxError: missing ) in parenthetical

tryItOut 385

tryItOut 386

tryItOut 387
Compiling threw: SyntaxError: invalid for/in left-hand side

tryItOut 388
Compiling threw: SyntaxError: missing ) in parenthetical

tryItOut 389
Compiling threw: SyntaxError: missing ; before statement

tryItOut 390

tryItOut 391

tryItOut 392
Running threw: ReferenceError: reference to undefined XML name *

tryItOut 393

tryItOut 394
It's an iterator!
Iterating succeeded, iterCount == 0

tryItOut 395
Compiling threw: SyntaxError: syntax error

tryItOut 396

tryItOut 397
Compiling threw: SyntaxError: missing : in conditional expression

tryItOut 398
Compiling threw: SyntaxError: invalid decrement operand

tryItOut 399
Compiling threw: SyntaxError: missing ; before statement

tryItOut 400

tryItOut 401
Compiling threw: SyntaxError: missing ] after element list

tryItOut 402
Compiling threw: SyntaxError: missing ; before statement

tryItOut 403
Compiling threw: SyntaxError: missing { before function body

tryItOut 404

tryItOut 405

tryItOut 406
Compiling threw: SyntaxError: missing ; before statement

tryItOut 407

tryItOut 408

tryItOut 409
Compiling threw: SyntaxError: unterminated regular expression literal

tryItOut 410

tryItOut 411
Compiling threw: TypeError: redeclaration of variable __noSuchMethod__

tryItOut 412
Running threw: null

tryItOut 413
Compiling threw: TypeError: redeclaration of variable __parent__

tryItOut 414
Compiling threw: SyntaxError: invalid for/in left-hand side

tryItOut 415

tryItOut 416
Compiling threw: TypeError: redeclaration of variable __noSuchMethod__

tryItOut 417
Compiling threw: SyntaxError: missing ) after condition

tryItOut 418
Compiling threw: SyntaxError: missing ) in parenthetical

tryItOut 419
Running threw: ReferenceError: reference to undefined XML name @foo

tryItOut 420

tryItOut 421
Compiling threw: SyntaxError: missing variable name

tryItOut 422

tryItOut 423

tryItOut 424
Compiling threw: SyntaxError: missing ) after argument list

tryItOut 425

tryItOut 426
Compiling threw: SyntaxError: invalid for/in left-hand side

tryItOut 427

tryItOut 428
Compiling threw: SyntaxError: duplicate label

tryItOut 429
Compiling threw: SyntaxError: missing ) after condition

tryItOut 430
Compiling threw: SyntaxError: invalid for each loop

tryItOut 431
Compiling threw: SyntaxError: missing ; before statement

tryItOut 432
Running threw: ReferenceError: reference to undefined XML name *::*

tryItOut 433
Compiling threw: SyntaxError: syntax error

tryItOut 434

tryItOut 435
Compiling threw: SyntaxError: syntax error

tryItOut 436
Compiling threw: SyntaxError: missing ) in parenthetical

tryItOut 437
Compiling threw: SyntaxError: syntax error

tryItOut 438
Running threw: TypeError: <y>
  <z/>
</y> is not a function

tryItOut 439

tryItOut 440
Compiling threw: SyntaxError: missing { before function body

tryItOut 441

tryItOut 442
Compiling threw: SyntaxError: syntax error

tryItOut 443

tryItOut 444

tryItOut 445
Compiling threw: SyntaxError: missing ) in parenthetical

tryItOut 446

tryItOut 447

tryItOut 448

tryItOut 449

tryItOut 450
Compiling threw: SyntaxError: missing { before function body

tryItOut 451

tryItOut 452
Compiling threw: SyntaxError: missing ) after argument list

tryItOut 453
Compiling threw: SyntaxError: missing variable name

tryItOut 454
Running threw: TypeError: __noSuchMethod__ is not a function

tryItOut 455

tryItOut 456

tryItOut 457
Compiling threw: SyntaxError: missing variable name

tryItOut 458

tryItOut 459
Compiling threw: SyntaxError: missing ; after for-loop condition

tryItOut 460
It's an iterator!
Iterating succeeded, iterCount == 0

tryItOut 461
Compiling threw: SyntaxError: missing ; before statement

tryItOut 462
Compiling threw: SyntaxError: missing ; before statement

tryItOut 463
Compiling threw: TypeError: redeclaration of const prop

tryItOut 464
Running threw: ReferenceError: reference to undefined XML name *::*

tryItOut 465

tryItOut 466

tryItOut 467
Running threw: TypeError: constructor is not a function

tryItOut 468
Compiling threw: SyntaxError: invalid assignment left-hand side

tryItOut 469

tryItOut 470

tryItOut 471
Compiling threw: SyntaxError: missing ) in parenthetical

tryItOut 472
Compiling threw: SyntaxError: missing ) after condition

tryItOut 473

tryItOut 474
Compiling threw: SyntaxError: syntax error

tryItOut 475
Compiling threw: SyntaxError: missing ) after let head

tryItOut 476
Compiling threw: TypeError: redeclaration of variable __iterator__

tryItOut 477
Running threw: ReferenceError: reference to undefined XML name *::*

tryItOut 478

tryItOut 479

tryItOut 480
Compiling threw: SyntaxError: missing ; before statement

tryItOut 481

tryItOut 482

tryItOut 483

tryItOut 484

tryItOut 485
Compiling threw: SyntaxError: missing ) in parenthetical

tryItOut 486
Compiling threw: SyntaxError: missing ; before statement

tryItOut 487

tryItOut 488

tryItOut 489
Compiling threw: SyntaxError: duplicate label

tryItOut 490

tryItOut 491
Running threw: undefined

tryItOut 492

tryItOut 493

tryItOut 494

tryItOut 495
It's an iterator!
Iterating succeeded, iterCount == 1

tryItOut 496
Compiling threw: SyntaxError: illegal XML character

tryItOut 497
Compiling threw: SyntaxError: invalid assignment left-hand side

tryItOut 498
before 191840, after 191840, break 019c2000

tryItOut 499
Compiling threw: SyntaxError: missing ) in parenthetical

tryItOut 500
Running threw: ReferenceError: reference to undefined XML name *::*

tryItOut 501

tryItOut 502
Compiling threw: TypeError: generator function anonymous returns a value

tryItOut 503

tryItOut 504
Compiling threw: SyntaxError: illegal XML character

tryItOut 505
Running threw: ReferenceError: reference to undefined XML name @foo

tryItOut 506

tryItOut 507
Compiling threw: SyntaxError: missing ) in parenthetical

tryItOut 508
Compiling threw: SyntaxError: invalid for/in left-hand side

tryItOut 509
Compiling threw: SyntaxError: invalid for/in left-hand side

tryItOut 510

tryItOut 511

tryItOut 512

tryItOut 513
Running threw: ReferenceError: prop is not defined

tryItOut 514

tryItOut 515
Compiling threw: TypeError: redeclaration of const prototype

tryItOut 516
Running threw: TypeError: this.zzz has no properties

tryItOut 517
Compiling threw: SyntaxError: missing variable name

tryItOut 518
Compiling threw: SyntaxError: missing ) in parenthetical

tryItOut 519
Compiling threw: SyntaxError: missing ; before statement

tryItOut 520
before 191840, after 191840, break 019c2000

tryItOut 521

tryItOut 522
before 191840, after 191840, break 019c2000

tryItOut 523

tryItOut 524

tryItOut 525

tryItOut 526
Compiling threw: SyntaxError: missing : after property id

tryItOut 527

tryItOut 528
Compiling threw: SyntaxError: invalid for/in left-hand side

tryItOut 529
Compiling threw: SyntaxError: invalid XML name

tryItOut 530

tryItOut 531

tryItOut 532
Compiling threw: SyntaxError: invalid assignment left-hand side

tryItOut 533

tryItOut 534

tryItOut 535
before 191840, after 191840, break 019c2000

tryItOut 536
Running threw: TypeError: this.zzz has no properties

tryItOut 537

tryItOut 538

tryItOut 539

tryItOut 540
Compiling threw: SyntaxError: missing ; before statement

tryItOut 541

tryItOut 542
Compiling threw: SyntaxError: invalid assignment left-hand side

tryItOut 543

tryItOut 544
Compiling threw: SyntaxError: invalid for/in left-hand side

tryItOut 545

tryItOut 546
Compiling threw: SyntaxError: missing { before function body

tryItOut 547

tryItOut 548
Running threw: TypeError: constructor has no properties

tryItOut 549
Compiling threw: SyntaxError: missing variable name

tryItOut 550
Compiling threw: SyntaxError: missing variable name

tryItOut 551

tryItOut 552
Compiling threw: SyntaxError: missing ) in parenthetical

tryItOut 553
Compiling threw: SyntaxError: invalid decrement operand

tryItOut 554
Compiling threw: SyntaxError: missing ; before statement

tryItOut 555
Compiling threw: SyntaxError: missing ) after condition

tryItOut 556
It's an iterator!
Iterating succeeded, iterCount == 1

tryItOut 557
Compiling threw: SyntaxError: missing ) in parenthetical

tryItOut 558
Compiling threw: SyntaxError: missing } after let block

tryItOut 559
Compiling threw: SyntaxError: invalid assignment left-hand side

tryItOut 560
Compiling threw: SyntaxError: missing formal parameter

tryItOut 561
Compiling threw: SyntaxError: duplicate label

tryItOut 562

tryItOut 563

tryItOut 564
Compiling threw: SyntaxError: missing while after do-loop body

tryItOut 565
Compiling threw: SyntaxError: invalid property id

tryItOut 566
Compiling threw: SyntaxError: missing ) in parenthetical

tryItOut 567
Running threw: [object StopIteration]

tryItOut 568
Running threw: [object Object]

tryItOut 569

tryItOut 570

tryItOut 571

tryItOut 572

tryItOut 573
It's an iterator!
Iterating succeeded, iterCount == 1

tryItOut 574

tryItOut 575

tryItOut 576
Compiling threw: SyntaxError: invalid XML tag syntax

tryItOut 577
Compiling threw: SyntaxError: invalid assignment left-hand side

tryItOut 578
Compiling threw: SyntaxError: missing : in conditional expression

tryItOut 579

tryItOut 580

tryItOut 581
Compiling threw: SyntaxError: missing ) after condition

tryItOut 582

tryItOut 583
Compiling threw: SyntaxError: missing ) after let head

tryItOut 584
It's an iterator!
Iterating threw!
Iterating threw: ReferenceError: x is not defined

tryItOut 585

tryItOut 586
Running threw: TypeError: p.z = (let (__parent__, prop = <x/>) 1e+81) is not a function

tryItOut 587
Compiling threw: SyntaxError: invalid for/in left-hand side

tryItOut 588
Compiling threw: TypeError: redeclaration of variable __count__

tryItOut 589

tryItOut 590
Compiling threw: SyntaxError: missing : after property id

tryItOut 591
Running threw: ReferenceError: reference to undefined XML name *

tryItOut 592
Compiling threw: SyntaxError: invalid for each loop

tryItOut 593

tryItOut 594
Compiling threw: SyntaxError: missing ) in parenthetical

tryItOut 595

tryItOut 596
Compiling threw: SyntaxError: invalid for/in left-hand side

tryItOut 597
Running threw: ReferenceError: reference to undefined XML name @foo

tryItOut 598

tryItOut 599
Compiling threw: SyntaxError: missing variable name

tryItOut 600
Compiling threw: TypeError: redeclaration of const __noSuchMethod__

tryItOut 601
Compiling threw: SyntaxError: invalid for/in left-hand side

tryItOut 602
Compiling threw: SyntaxError: missing ) in parenthetical

tryItOut 603
Compiling threw: SyntaxError: invalid property id

tryItOut 604

tryItOut 605
Compiling threw: SyntaxError: missing ; before statement

tryItOut 606

tryItOut 607

tryItOut 608
Compiling threw: SyntaxError: invalid for each loop

tryItOut 609
Compiling threw: SyntaxError: syntax error

tryItOut 610

tryItOut 611

tryItOut 612

tryItOut 613

tryItOut 614
Compiling threw: SyntaxError: invalid for/in left-hand side

tryItOut 615
Compiling threw: SyntaxError: missing ) in parenthetical

tryItOut 616
before 191840, after 191840, break 019c2000

tryItOut 617
Compiling threw: SyntaxError: missing ) in parenthetical

tryItOut 618

tryItOut 619
Compiling threw: SyntaxError: missing = in destructuring declaration

tryItOut 620
Compiling threw: SyntaxError: unterminated parenthetical

tryItOut 621
Compiling threw: SyntaxError: missing { before function body

tryItOut 622

tryItOut 623

tryItOut 624

tryItOut 625
Compiling threw: SyntaxError: missing while after do-loop body

tryItOut 626
Compiling threw: SyntaxError: syntax error

tryItOut 627
Compiling threw: SyntaxError: invalid assignment left-hand side

tryItOut 628

tryItOut 629

tryItOut 630
Compiling threw: SyntaxError: invalid assignment left-hand side

tryItOut 631

tryItOut 632

tryItOut 633
Compiling threw: SyntaxError: missing ) in parenthetical

tryItOut 634

tryItOut 635

tryItOut 636

tryItOut 637
Compiling threw: SyntaxError: missing ) in parenthetical

tryItOut 638
Compiling threw: SyntaxError: syntax error

tryItOut 639
Compiling threw: SyntaxError: missing variable name

tryItOut 640
Compiling threw: SyntaxError: missing ) in parenthetical

tryItOut 641

tryItOut 642
Running threw: TypeError: this.zzz has no properties

tryItOut 643
before 191840, after 191840, break 019c2000

tryItOut 644
Compiling threw: SyntaxError: syntax error

tryItOut 645
Running threw: ReferenceError: reference to undefined XML name @foo

tryItOut 646
Compiling threw: SyntaxError: invalid for each loop

tryItOut 647
Compiling threw: SyntaxError: invalid XML name

tryItOut 648
Compiling threw: SyntaxError: invalid for/in left-hand side

tryItOut 649

tryItOut 650
before 191840, after 191840, break 019c2000

tryItOut 651

tryItOut 652

tryItOut 653
Compiling threw: SyntaxError: invalid for each loop

tryItOut 654

tryItOut 655

tryItOut 656
Compiling threw: SyntaxError: invalid destructuring assignment operator

tryItOut 657
Running threw: [object StopIteration]

tryItOut 658

tryItOut 659
Compiling threw: SyntaxError: missing variable name

tryItOut 660
Compiling threw: SyntaxError: missing ) in parenthetical

tryItOut 661
Compiling threw: SyntaxError: invalid decrement operand

tryItOut 662
Compiling threw: SyntaxError: invalid increment operand

tryItOut 663
Compiling threw: SyntaxError: missing ) after condition

tryItOut 664

tryItOut 665
Compiling threw: SyntaxError: invalid assignment left-hand side

tryItOut 666
Compiling threw: SyntaxError: missing variable name

tryItOut 667

tryItOut 668

tryItOut 669

tryItOut 670

tryItOut 671

tryItOut 672
Compiling threw: SyntaxError: invalid for/in left-hand side

tryItOut 673

tryItOut 674

tryItOut 675

tryItOut 676

tryItOut 677

tryItOut 678

tryItOut 679

tryItOut 680
Compiling threw: SyntaxError: invalid for/in left-hand side

tryItOut 681
Running threw: TypeError: __parent__ has no properties

tryItOut 682

tryItOut 683

tryItOut 684
Compiling threw: SyntaxError: invalid decrement operand

tryItOut 685
Compiling threw: SyntaxError: missing ) in parenthetical

tryItOut 686
Compiling threw: SyntaxError: illegal XML character

tryItOut 687

tryItOut 688
Compiling threw: SyntaxError: invalid for/in left-hand side

tryItOut 689

tryItOut 690
Compiling threw: SyntaxError: invalid assignment left-hand side

tryItOut 691
Compiling threw: TypeError: redeclaration of const __iterator__

tryItOut 692

tryItOut 693

tryItOut 694

tryItOut 695

tryItOut 696

tryItOut 697
Compiling threw: SyntaxError: missing ) in parenthetical

tryItOut 698
Running threw: ReferenceError: reference to undefined XML name @foo

tryItOut 699

tryItOut 700
Compiling threw: SyntaxError: syntax error

tryItOut 701
Compiling threw: SyntaxError: missing ) in parenthetical

tryItOut 702
Compiling threw: SyntaxError: missing while after do-loop body

tryItOut 703

tryItOut 704

tryItOut 705
Compiling threw: SyntaxError: invalid for/in left-hand side

tryItOut 706
It's an iterator!
Iterating succeeded, iterCount == 1

tryItOut 707

tryItOut 708

tryItOut 709
It's an iterator!
Iterating succeeded, iterCount == 1

tryItOut 710

tryItOut 711
Compiling threw: SyntaxError: missing ; after for-loop initializer

tryItOut 712
Compiling threw: SyntaxError: invalid assignment left-hand side

tryItOut 713

tryItOut 714

tryItOut 715

tryItOut 716
Compiling threw: SyntaxError: invalid destructuring assignment operator

tryItOut 717
Compiling threw: SyntaxError: missing ; before statement

tryItOut 718

tryItOut 719
Compiling threw: SyntaxError: invalid for each loop

tryItOut 720
Compiling threw: SyntaxError: missing ) in parenthetical

tryItOut 721
Running threw: ReferenceError: reference to undefined XML name @foo

tryItOut 722

tryItOut 723
Compiling threw: SyntaxError: missing ) in parenthetical

tryItOut 724

tryItOut 725

tryItOut 726
It's an iterator!
Iterating succeeded, iterCount == 1

tryItOut 727
Compiling threw: SyntaxError: missing ; before statement

tryItOut 728
before 191840, after 191840, break 019c2000

tryItOut 729
Running threw: ReferenceError: reference to undefined XML name @foo

tryItOut 730
Compiling threw: SyntaxError: missing ) in parenthetical

tryItOut 731

tryItOut 732
before 191840, after 191840, break 019c2000

tryItOut 733

tryItOut 734
Running threw: ReferenceError: reference to undefined XML name @foo

tryItOut 735

tryItOut 736

tryItOut 737

tryItOut 738
Running threw: function Object() {
    [native code]
}

tryItOut 739

tryItOut 740

tryItOut 741

tryItOut 742

tryItOut 743
Compiling threw: SyntaxError: syntax error

tryItOut 744

tryItOut 745

tryItOut 746
Compiling threw: SyntaxError: missing ] in index expression

tryItOut 747

tryItOut 748
Running threw: ReferenceError: reference to undefined XML name *

tryItOut 749

tryItOut 750

tryItOut 751
Running threw: [object StopIteration]

tryItOut 752
Compiling threw: SyntaxError: missing variable name

tryItOut 753
Running threw: ReferenceError: reference to undefined XML name *::*

tryItOut 754
Running threw: TypeError: prop has no properties

tryItOut 755

tryItOut 756
Compiling threw: SyntaxError: missing ) after condition

tryItOut 757

tryItOut 758
Compiling threw: SyntaxError: missing { before function body

tryItOut 759
Running threw: TypeError: this.zzz has no properties

tryItOut 760

tryItOut 761

tryItOut 762
Compiling threw: SyntaxError: missing ; before statement

tryItOut 763

tryItOut 764
Compiling threw: SyntaxError: invalid assignment left-hand side

tryItOut 765
Compiling threw: SyntaxError: missing : after property id

tryItOut 766
Compiling threw: SyntaxError: missing ) in parenthetical

tryItOut 767

tryItOut 768

tryItOut 769
Compiling threw: SyntaxError: missing = in destructuring declaration

tryItOut 770
Compiling threw: SyntaxError: missing ) in parenthetical

tryItOut 771

tryItOut 772
before 191840, after 191840, break 019c2000

tryItOut 773
Running threw: SyntaxError: invalid setter usage

tryItOut 774

tryItOut 775

tryItOut 776

tryItOut 777
Compiling threw: SyntaxError: invalid for/in left-hand side

tryItOut 778
Compiling threw: SyntaxError: invalid destructuring assignment operator

tryItOut 779
Compiling threw: SyntaxError: syntax error

tryItOut 780
Compiling threw: SyntaxError: invalid for/in left-hand side

tryItOut 781

tryItOut 782
Compiling threw: SyntaxError: invalid for/in left-hand side

tryItOut 783

tryItOut 784

tryItOut 785

tryItOut 786
Compiling threw: SyntaxError: invalid XML name

tryItOut 787
Compiling threw: SyntaxError: syntax error

tryItOut 788
Compiling threw: TypeError: redeclaration of variable __count__

tryItOut 789

tryItOut 790
Compiling threw: SyntaxError: syntax error

tryItOut 791

tryItOut 792
Compiling threw: SyntaxError: missing ) in parenthetical

tryItOut 793

tryItOut 794

tryItOut 795
Compiling threw: SyntaxError: missing ) after condition

tryItOut 796
Running threw: ReferenceError: z1 is not defined

tryItOut 797

tryItOut 798
Compiling threw: SyntaxError: missing { before function body

tryItOut 799
Compiling threw: SyntaxError: missing ) in parenthetical

tryItOut 800
Compiling threw: SyntaxError: invalid for/in left-hand side

tryItOut 801

tryItOut 802

tryItOut 803
Compiling threw: SyntaxError: missing ; after for-loop initializer

tryItOut 804
Compiling threw: SyntaxError: invalid XML name

tryItOut 805
uneval returned the string: [1]

tryItOut 806
Compiling threw: SyntaxError: illegal XML character

tryItOut 807

tryItOut 808

tryItOut 809
Compiling threw: SyntaxError: invalid for/in left-hand side

tryItOut 810
Running threw: ReferenceError: reference to undefined XML name *

tryItOut 811
Compiling threw: SyntaxError: illegal XML character

tryItOut 812

tryItOut 813
Running threw: TypeError: (3)[<y><z/></y>] has no properties

tryItOut 814
Compiling threw: SyntaxError: invalid increment operand

tryItOut 815

tryItOut 816
Compiling threw: SyntaxError: invalid for/in left-hand side

tryItOut 817
It's an iterator!
Iterating succeeded, iterCount == 0

tryItOut 818

tryItOut 819

tryItOut 820

tryItOut 821
Compiling threw: SyntaxError: missing ; before statement

tryItOut 822
Compiling threw: TypeError: redeclaration of variable prototype

tryItOut 823
Compiling threw: SyntaxError: missing ) in parenthetical

tryItOut 824
Compiling threw: SyntaxError: invalid assignment left-hand side

tryItOut 825

tryItOut 826
Running threw: TypeError: this.zzz has no properties

tryItOut 827
Compiling threw: SyntaxError: missing ) after condition

tryItOut 828
Compiling threw: SyntaxError: syntax error

tryItOut 829
Compiling threw: SyntaxError: invalid assignment left-hand side

tryItOut 830

tryItOut 831
It's an iterator!
Iterating threw!
Iterating threw: ReferenceError: Exception is not defined

tryItOut 832

tryItOut 833
Compiling threw: SyntaxError: missing ) in parenthetical

tryItOut 834
Compiling threw: SyntaxError: invalid assignment left-hand side

tryItOut 835
Compiling threw: SyntaxError: missing ) in parenthetical

tryItOut 836

tryItOut 837

tryItOut 838
Compiling threw: SyntaxError: illegal XML character

tryItOut 839
Running threw: TypeError: <x/> is not a function

tryItOut 840
Compiling threw: SyntaxError: syntax error

tryItOut 841
Compiling threw: SyntaxError: syntax error

tryItOut 842
It's an iterator!
Iterating threw!
Iterating threw: TypeError: 3 is not a function

tryItOut 843

tryItOut 844
Compiling threw: SyntaxError: missing ; before statement

tryItOut 845
Compiling threw: SyntaxError: missing variable name

tryItOut 846
Compiling threw: SyntaxError: missing ) in parenthetical

tryItOut 847
Running threw: ReferenceError: reference to undefined XML name @foo

tryItOut 848
Compiling threw: SyntaxError: missing ) after condition

tryItOut 849
Compiling threw: SyntaxError: missing ; before statement

tryItOut 850

tryItOut 851
Compiling threw: SyntaxError: illegal XML character

tryItOut 852

tryItOut 853
Compiling threw: SyntaxError: missing ; before statement

tryItOut 854

tryItOut 855

tryItOut 856
Compiling threw: SyntaxError: invalid sharp variable definition

tryItOut 857

tryItOut 858

tryItOut 859
Compiling threw: SyntaxError: missing ) in parenthetical

tryItOut 860
Compiling threw: SyntaxError: illegal XML character

tryItOut 861

tryItOut 862

tryItOut 863
Compiling threw: SyntaxError: invalid for/in left-hand side

tryItOut 864
Compiling threw: SyntaxError: invalid for/in left-hand side

tryItOut 865
Compiling threw: SyntaxError: missing ; before statement

tryItOut 866
Compiling threw: SyntaxError: missing ; before statement

tryItOut 867

tryItOut 868

tryItOut 869
Compiling threw: SyntaxError: missing ( before formal parameters

tryItOut 870
Compiling threw: SyntaxError: syntax error

tryItOut 871
Compiling threw: SyntaxError: missing name after . operator

tryItOut 872
It's an iterator!
before 191840, after 191840, break 019d4000
Iterating succeeded, iterCount == 0

tryItOut 873

tryItOut 874

tryItOut 875

tryItOut 876

tryItOut 877

tryItOut 878
Compiling threw: SyntaxError: missing ) after condition

tryItOut 879

tryItOut 880

tryItOut 881

tryItOut 882
Running threw: TypeError: this.zzz has no properties

tryItOut 883
Compiling threw: SyntaxError: missing ) in parenthetical

tryItOut 884
before 191840, after 191840, break 019d4000
Running threw: TypeError: undefined has no properties

tryItOut 885

tryItOut 886

tryItOut 887
Compiling threw: TypeError: redeclaration of const __noSuchMethod__

tryItOut 888
Compiling threw: SyntaxError: invalid assignment left-hand side

tryItOut 889
Compiling threw: SyntaxError: missing ) in parenthetical

tryItOut 890
Compiling threw: SyntaxError: invalid increment operand

tryItOut 891
before 191840, after 191840, break 019d4000

tryItOut 892
Compiling threw: SyntaxError: missing { before function body

tryItOut 893
Compiling threw: SyntaxError: missing ) after let head

tryItOut 894

tryItOut 895

tryItOut 896

tryItOut 897
Compiling threw: SyntaxError: missing variable name

tryItOut 898
before 191840, after 191840, break 019d4000

tryItOut 899
Compiling threw: SyntaxError: syntax error

tryItOut 900

tryItOut 901
Compiling threw: SyntaxError: missing : after property id

tryItOut 902

tryItOut 903

tryItOut 904
Compiling threw: SyntaxError: syntax error

tryItOut 905
Running threw: TypeError: XML filtering predicate operator called on incompatible Number

tryItOut 906

tryItOut 907

tryItOut 908

tryItOut 909

tryItOut 910
Running threw: ReferenceError: reference to undefined XML name @foo

tryItOut 911

tryItOut 912

tryItOut 913

tryItOut 914

tryItOut 915

tryItOut 916

tryItOut 917
It's an iterator!
Iterating succeeded, iterCount == 1

tryItOut 918

tryItOut 919
Running threw: SyntaxError: invalid setter usage

tryItOut 920

tryItOut 921
Compiling threw: SyntaxError: missing name after . operator

tryItOut 922

tryItOut 923
Compiling threw: SyntaxError: missing ) in parenthetical

tryItOut 924

tryItOut 925

tryItOut 926
Compiling threw: SyntaxError: invalid for/in left-hand side

tryItOut 927
Compiling threw: SyntaxError: illegal XML character

tryItOut 928

tryItOut 929

tryItOut 930
Compiling threw: SyntaxError: missing : after property id

tryItOut 931
Compiling threw: SyntaxError: missing ) in parenthetical

tryItOut 932
Running threw: [object StopIteration]

tryItOut 933
Compiling threw: SyntaxError: syntax error

tryItOut 934
Compiling threw: SyntaxError: invalid for/in left-hand side

tryItOut 935
Compiling threw: SyntaxError: syntax error

tryItOut 936

tryItOut 937

tryItOut 938
It's an iterator!
Iterating threw!
Iterating threw: SyntaxError: invalid setter usage

tryItOut 939
Compiling threw: TypeError: generator function anonymous returns a value

tryItOut 940
Compiling threw: SyntaxError: missing ) in parenthetical

tryItOut 941

tryItOut 942
Running threw: [object Object]

tryItOut 943
Compiling threw: SyntaxError: invalid assignment left-hand side

tryItOut 944
Compiling threw: SyntaxError: invalid destructuring assignment operator

tryItOut 945
Running threw: ReferenceError: reference to undefined XML name @foo

tryItOut 946
Compiling threw: TypeError: redeclaration of var __iterator__

tryItOut 947
Compiling threw: SyntaxError: syntax error

tryItOut 948
Compiling threw: SyntaxError: invalid for/in left-hand side

tryItOut 949
Running threw: [object StopIteration]

tryItOut 950

tryItOut 951
Compiling threw: TypeError: redeclaration of variable __iterator__

tryItOut 952

tryItOut 953

tryItOut 954

tryItOut 955
Compiling threw: SyntaxError: missing ) in parenthetical

tryItOut 956

tryItOut 957

tryItOut 958
Compiling threw: TypeError: redeclaration of const __noSuchMethod__

tryItOut 959
Running threw: ReferenceError: reference to undefined XML name *::*

tryItOut 960
It's an iterator!
Iterating threw!
Iterating threw: ReferenceError: reference to undefined XML name @foo

tryItOut 961

tryItOut 962

tryItOut 963
before 191840, after 191840, break 019d4000

tryItOut 964
Running threw: ReferenceError: reference to undefined XML name *

tryItOut 965

tryItOut 966
Compiling threw: SyntaxError: missing variable name

tryItOut 967

tryItOut 968
It's an iterator!
Iterating succeeded, iterCount == 1

tryItOut 969

tryItOut 970

tryItOut 971
Compiling threw: SyntaxError: invalid decrement operand

tryItOut 972
Compiling threw: SyntaxError: missing ) in parenthetical

tryItOut 973
Compiling threw: SyntaxError: missing while after do-loop body

tryItOut 974

tryItOut 975

tryItOut 976

tryItOut 977

tryItOut 978

tryItOut 979
Compiling threw: SyntaxError: syntax error

tryItOut 980
Compiling threw: SyntaxError: invalid for/in left-hand side

tryItOut 981

tryItOut 982

tryItOut 983
Compiling threw: SyntaxError: invalid for/in left-hand side

tryItOut 984

tryItOut 985
Compiling threw: SyntaxError: invalid for/in left-hand side

tryItOut 986
Compiling threw: SyntaxError: missing variable name

tryItOut 987

tryItOut 988

tryItOut 989

tryItOut 990
Compiling threw: SyntaxError: invalid destructuring assignment operator

tryItOut 991
Compiling threw: SyntaxError: illegal XML character

tryItOut 992
Compiling threw: SyntaxError: missing name after . operator

tryItOut 993
Compiling threw: SyntaxError: missing ) in parenthetical

tryItOut 994

tryItOut 995
Compiling threw: SyntaxError: missing ) after condition

tryItOut 996
Compiling threw: SyntaxError: invalid increment operand

tryItOut 997
Compiling threw: SyntaxError: syntax error

tryItOut 998

tryItOut 999
Running threw: ReferenceError: reference to undefined XML name *::*

tryItOut 1000

ALL OK

Script done on Sat 04 May 2013 07:51:24 AM PDT
