Script started on Sat 04 May 2013 07:55:26 AM PDT
***
Targeting SpiderMonkey / Gecko.

tryItOut 1
Compiling threw: SyntaxError: invalid for/in left-hand side

tryItOut 2
Compiling threw: SyntaxError: missing ) in parenthetical

tryItOut 3
Compiling threw: SyntaxError: label not found

tryItOut 4
Compiling threw: SyntaxError: missing { before function body

tryItOut 5
Running threw: [object StopIteration]

tryItOut 6
Compiling threw: SyntaxError: missing { before function body

tryItOut 7

tryItOut 8

tryItOut 9
Compiling threw: SyntaxError: invalid for each loop

tryItOut 10
Compiling threw: SyntaxError: missing ; before statement

tryItOut 11
Compiling threw: SyntaxError: missing { before function body

tryItOut 12
It's an iterator!
Iterating threw!
Iterating threw: ReferenceError: __iterator__ is not defined

tryItOut 13

tryItOut 14

tryItOut 15
Compiling threw: SyntaxError: missing variable name

tryItOut 16
Running threw: SyntaxError: missing = in XML attribute

tryItOut 17

tryItOut 18

tryItOut 19
Compiling threw: SyntaxError: illegal XML character

tryItOut 20
Compiling threw: SyntaxError: missing ) in parenthetical

tryItOut 21

tryItOut 22
Compiling threw: SyntaxError: missing variable name

tryItOut 23
Compiling threw: SyntaxError: invalid for/in left-hand side

tryItOut 24

tryItOut 25
Compiling threw: SyntaxError: missing { before function body

tryItOut 26

tryItOut 27

tryItOut 28

tryItOut 29

tryItOut 30
Compiling threw: SyntaxError: label not found

tryItOut 31
Compiling threw: SyntaxError: invalid for/in left-hand side

tryItOut 32
Compiling threw: SyntaxError: missing { before function body

tryItOut 33
Compiling threw: SyntaxError: missing { before function body

tryItOut 34

tryItOut 35
Compiling threw: SyntaxError: syntax error

tryItOut 36
Compiling threw: SyntaxError: missing { before function body

tryItOut 37
Compiling threw: SyntaxError: duplicate label

tryItOut 38
Compiling threw: SyntaxError: invalid break

tryItOut 39
Compiling threw: SyntaxError: missing ; after for-loop initializer

tryItOut 40
Compiling threw: SyntaxError: syntax error

tryItOut 41
It's an iterator!
Iterating threw!
Iterating threw: ReferenceError: z2 is not defined

tryItOut 42

tryItOut 43

tryItOut 44

tryItOut 45
Compiling threw: SyntaxError: illegal XML character

tryItOut 46
Compiling threw: SyntaxError: missing formal parameter

tryItOut 47
Compiling threw: SyntaxError: invalid assignment left-hand side

tryItOut 48
Compiling threw: SyntaxError: label not found

tryItOut 49
Compiling threw: SyntaxError: invalid increment operand

tryItOut 50
Compiling threw: SyntaxError: invalid XML tag syntax

tryItOut 51

tryItOut 52

tryItOut 53
Compiling threw: SyntaxError: missing ) in parenthetical

tryItOut 54
Compiling threw: SyntaxError: missing { before function body

tryItOut 55
Compiling threw: SyntaxError: missing ) after argument list

tryItOut 56
Compiling threw: SyntaxError: invalid continue

tryItOut 57
Compiling threw: SyntaxError: label not found

tryItOut 58
It's an iterator!
Iterating threw!
Iterating threw: TypeError: __parent__ has no properties

tryItOut 59

tryItOut 60
Compiling threw: SyntaxError: missing { before function body

tryItOut 61
Compiling threw: SyntaxError: missing { before function body

tryItOut 62
Compiling threw: SyntaxError: missing formal parameter

tryItOut 63
Compiling threw: SyntaxError: missing ) after for-loop control

tryItOut 64
Compiling threw: SyntaxError: invalid decrement operand

tryItOut 65
Compiling threw: SyntaxError: missing ) in parenthetical

tryItOut 66
Compiling threw: SyntaxError: label not found

tryItOut 67

tryItOut 68
Compiling threw: SyntaxError: missing variable name

tryItOut 69
Compiling threw: SyntaxError: invalid decrement operand

tryItOut 70
Compiling threw: SyntaxError: missing formal parameter

tryItOut 71
It's an iterator!
Iterating succeeded, iterCount == 1

tryItOut 72

tryItOut 73
Compiling threw: SyntaxError: syntax error

tryItOut 74

tryItOut 75
Compiling threw: SyntaxError: missing ; before statement

tryItOut 76

tryItOut 77
Running threw: ReferenceError: prototype is not defined

tryItOut 78
Compiling threw: SyntaxError: label not found

tryItOut 79
Running threw: [object StopIteration]

tryItOut 80

tryItOut 81
Compiling threw: SyntaxError: missing ) in parenthetical

tryItOut 82

tryItOut 83
Compiling threw: SyntaxError: invalid assignment left-hand side

tryItOut 84

tryItOut 85
Compiling threw: SyntaxError: label not found

tryItOut 86
Running threw: Error: invalid sharp variable use #1#

tryItOut 87
Compiling threw: SyntaxError: illegal XML character

tryItOut 88

tryItOut 89
Compiling threw: SyntaxError: missing { before function body

tryItOut 90
Compiling threw: SyntaxError: label not found

tryItOut 91
Compiling threw: SyntaxError: invalid for/in left-hand side

tryItOut 92

tryItOut 93

tryItOut 94

tryItOut 95
Compiling threw: SyntaxError: missing { before function body

tryItOut 96
Compiling threw: SyntaxError: invalid for/in left-hand side

tryItOut 97
Compiling threw: SyntaxError: missing variable name

tryItOut 98
Compiling threw: SyntaxError: missing = in destructuring declaration

tryItOut 99
Compiling threw: SyntaxError: missing ) after condition

tryItOut 100

tryItOut 101

tryItOut 102

tryItOut 103
Running threw: [object StopIteration]

tryItOut 104
Compiling threw: SyntaxError: invalid assignment left-hand side

tryItOut 105
Compiling threw: SyntaxError: missing { before function body

tryItOut 106
Compiling threw: SyntaxError: missing ) in parenthetical

tryItOut 107
It's an iterator!
Iterating threw!
Iterating threw: ReferenceError: prop is not defined

tryItOut 108
Compiling threw: SyntaxError: missing { before function body

tryItOut 109
Compiling threw: SyntaxError: missing ) in parenthetical

tryItOut 110
Compiling threw: SyntaxError: missing { before function body

tryItOut 111
Compiling threw: SyntaxError: missing ) in parenthetical

tryItOut 112
Compiling threw: SyntaxError: missing { before function body

tryItOut 113
Compiling threw: SyntaxError: invalid assignment left-hand side

tryItOut 114
Compiling threw: SyntaxError: invalid assignment left-hand side

tryItOut 115

tryItOut 116
Compiling threw: SyntaxError: invalid assignment left-hand side

tryItOut 117

tryItOut 118

tryItOut 119
Compiling threw: SyntaxError: duplicate label

tryItOut 120
Compiling threw: SyntaxError: invalid for/in left-hand side

tryItOut 121
Running threw: ReferenceError: reference to undefined XML name @mozilla.org/js/function::__iterator__

tryItOut 122
Compiling threw: SyntaxError: invalid continue

tryItOut 123

tryItOut 124
Compiling threw: SyntaxError: missing ; before statement

tryItOut 125
Compiling threw: SyntaxError: missing { before function body

tryItOut 126

tryItOut 127
Compiling threw: SyntaxError: invalid decrement operand

tryItOut 128
Compiling threw: SyntaxError: invalid for/in left-hand side

tryItOut 129
Compiling threw: SyntaxError: missing variable name

tryItOut 130
Compiling threw: SyntaxError: missing { before function body

tryItOut 131
Compiling threw: SyntaxError: missing ) in parenthetical

tryItOut 132
Compiling threw: SyntaxError: invalid break

tryItOut 133
Compiling threw: SyntaxError: invalid property id

tryItOut 134
Compiling threw: SyntaxError: invalid assignment left-hand side

tryItOut 135
Compiling threw: SyntaxError: missing ) in parenthetical

tryItOut 136
Running threw: ReferenceError: prop is not defined

tryItOut 137
Compiling threw: SyntaxError: missing { before function body

tryItOut 138

tryItOut 139
Compiling threw: SyntaxError: invalid continue

tryItOut 140
Compiling threw: SyntaxError: invalid continue

tryItOut 141
Running threw: ReferenceError: prototype is not defined

tryItOut 142
Compiling threw: SyntaxError: invalid assignment left-hand side

tryItOut 143
Compiling threw: SyntaxError: missing { before function body

tryItOut 144

tryItOut 145
Compiling threw: SyntaxError: syntax error

tryItOut 146
Compiling threw: SyntaxError: label not found

tryItOut 147

tryItOut 148

tryItOut 149
Compiling threw: SyntaxError: label not found

tryItOut 150
Running threw: [object StopIteration]

tryItOut 151
Compiling threw: SyntaxError: label not found

tryItOut 152
Compiling threw: SyntaxError: missing ) in parenthetical

tryItOut 153
Running threw: ReferenceError: prototype is not defined

tryItOut 154

tryItOut 155
Compiling threw: SyntaxError: invalid assignment left-hand side

tryItOut 156

tryItOut 157
Compiling threw: SyntaxError: invalid increment operand

tryItOut 158

tryItOut 159
Compiling threw: SyntaxError: label not found

tryItOut 160
Compiling threw: SyntaxError: syntax error

tryItOut 161
Compiling threw: SyntaxError: missing { before function body

tryItOut 162

tryItOut 163
Compiling threw: SyntaxError: invalid for/in left-hand side

tryItOut 164
Compiling threw: SyntaxError: invalid for/in left-hand side

tryItOut 165
It's an iterator!
Iterating threw!
Iterating threw: TypeError: <x>
  <y/>
</x> is not a constructor

tryItOut 166
Compiling threw: SyntaxError: duplicate label

tryItOut 167
Running threw: ReferenceError: __iterator__ is not defined

tryItOut 168
Compiling threw: SyntaxError: unterminated string literal

tryItOut 169

tryItOut 170
It's an iterator!
Iterating succeeded, iterCount == 1

tryItOut 171
Compiling threw: SyntaxError: missing ) in parenthetical

tryItOut 172

tryItOut 173

tryItOut 174
Compiling threw: SyntaxError: invalid continue

tryItOut 175
Running threw: [object StopIteration]

tryItOut 176
Compiling threw: SyntaxError: syntax error

tryItOut 177
Running threw: 1

tryItOut 178
Compiling threw: SyntaxError: missing variable name

tryItOut 179

tryItOut 180
Compiling threw: SyntaxError: invalid assignment left-hand side

tryItOut 181
Compiling threw: SyntaxError: invalid for/in left-hand side

tryItOut 182

tryItOut 183
Compiling threw: SyntaxError: label not found

tryItOut 184

tryItOut 185
Compiling threw: SyntaxError: missing ) in parenthetical

tryItOut 186

tryItOut 187
Compiling threw: SyntaxError: invalid assignment left-hand side

tryItOut 188
Compiling threw: SyntaxError: missing { before function body

tryItOut 189
Running threw: <x>
  <y/>
</x>

tryItOut 190
Compiling threw: SyntaxError: invalid assignment left-hand side

tryItOut 191
Compiling threw: SyntaxError: missing ) in parenthetical

tryItOut 192
Compiling threw: SyntaxError: invalid continue

tryItOut 193

tryItOut 194

tryItOut 195
Compiling threw: SyntaxError: missing ) in parenthetical

tryItOut 196

tryItOut 197
Compiling threw: SyntaxError: missing { before function body

tryItOut 198
Compiling threw: SyntaxError: label not found

tryItOut 199
Compiling threw: SyntaxError: missing ) in parenthetical

tryItOut 200
Compiling threw: SyntaxError: invalid continue

tryItOut 201
Compiling threw: SyntaxError: invalid continue

tryItOut 202

tryItOut 203
Compiling threw: SyntaxError: missing ) in parenthetical

tryItOut 204
Compiling threw: SyntaxError: missing formal parameter

tryItOut 205

tryItOut 206
Compiling threw: SyntaxError: invalid decrement operand

tryItOut 207
Compiling threw: SyntaxError: missing { before function body

tryItOut 208
Compiling threw: SyntaxError: invalid assignment left-hand side

tryItOut 209
Compiling threw: SyntaxError: invalid for/in left-hand side

tryItOut 210
Compiling threw: SyntaxError: missing { before function body

tryItOut 211
Compiling threw: SyntaxError: missing { before function body

tryItOut 212
Compiling threw: SyntaxError: missing formal parameter

tryItOut 213

tryItOut 214
It's an iterator!
Iterating succeeded, iterCount == 1

tryItOut 215
Compiling threw: SyntaxError: syntax error

tryItOut 216
Compiling threw: SyntaxError: syntax error

tryItOut 217
Compiling threw: SyntaxError: missing formal parameter

tryItOut 218
Compiling threw: SyntaxError: syntax error

tryItOut 219
Compiling threw: SyntaxError: missing ) in parenthetical

tryItOut 220

tryItOut 221

tryItOut 222
Compiling threw: SyntaxError: invalid for/in left-hand side

tryItOut 223
Compiling threw: SyntaxError: invalid for/in left-hand side

tryItOut 224

tryItOut 225

tryItOut 226
Compiling threw: SyntaxError: invalid assignment left-hand side

tryItOut 227
Compiling threw: SyntaxError: syntax error

tryItOut 228
Compiling threw: SyntaxError: missing ) in parenthetical

tryItOut 229
Compiling threw: SyntaxError: missing { before function body

tryItOut 230

tryItOut 231

tryItOut 232
Compiling threw: SyntaxError: invalid for/in left-hand side

tryItOut 233

tryItOut 234

tryItOut 235
Compiling threw: SyntaxError: syntax error

tryItOut 236

tryItOut 237

tryItOut 238
Compiling threw: SyntaxError: syntax error

tryItOut 239
Compiling threw: SyntaxError: syntax error

tryItOut 240

tryItOut 241
Compiling threw: SyntaxError: missing formal parameter

tryItOut 242

tryItOut 243
Compiling threw: SyntaxError: invalid assignment left-hand side

tryItOut 244
Compiling threw: SyntaxError: missing ) in parenthetical

tryItOut 245
Compiling threw: SyntaxError: missing { before function body

tryItOut 246
Running threw: [object StopIteration]

tryItOut 247
Compiling threw: SyntaxError: missing { before function body

tryItOut 248
Running threw: ReferenceError: prototype is not defined

tryItOut 249

tryItOut 250

tryItOut 251
Running threw: 1e+81

tryItOut 252
Running threw: [object StopIteration]

tryItOut 253
Compiling threw: SyntaxError: invalid increment operand

tryItOut 254
Compiling threw: SyntaxError: syntax error

tryItOut 255
Compiling threw: SyntaxError: invalid break

tryItOut 256
Compiling threw: SyntaxError: missing ) in parenthetical

tryItOut 257
Compiling threw: SyntaxError: label not found

tryItOut 258
Compiling threw: SyntaxError: missing ) after condition

tryItOut 259
Compiling threw: SyntaxError: missing ) in parenthetical

tryItOut 260

tryItOut 261
Compiling threw: SyntaxError: invalid break

tryItOut 262
Compiling threw: SyntaxError: missing ; before statement

tryItOut 263
Compiling threw: SyntaxError: missing { before function body

tryItOut 264
Running threw: TypeError: XML filtering predicate operator called on incompatible Number

tryItOut 265
Compiling threw: SyntaxError: missing ; before statement

tryItOut 266
It's an iterator!
Iterating succeeded, iterCount == 1

tryItOut 267
Compiling threw: SyntaxError: missing ) in parenthetical

tryItOut 268

tryItOut 269

tryItOut 270
Compiling threw: SyntaxError: missing ) in parenthetical

tryItOut 271
Compiling threw: SyntaxError: missing ) in parenthetical

tryItOut 272
Compiling threw: SyntaxError: missing { before function body

tryItOut 273
Compiling threw: SyntaxError: invalid for/in left-hand side

tryItOut 274
Running threw: [object StopIteration]

tryItOut 275
Compiling threw: SyntaxError: missing { before function body

tryItOut 276
Running threw: TypeError: (<x><y/></x> !== <x><y/></x>)['throw'] is not a function

tryItOut 277
Compiling threw: SyntaxError: invalid for/in left-hand side

tryItOut 278

tryItOut 279

tryItOut 280
Compiling threw: SyntaxError: missing ) in parenthetical

tryItOut 281
Running threw: 4

tryItOut 282
Compiling threw: SyntaxError: invalid break

tryItOut 283

tryItOut 284
Compiling threw: SyntaxError: invalid assignment left-hand side

tryItOut 285

tryItOut 286
Compiling threw: SyntaxError: missing { before function body

tryItOut 287
Compiling threw: SyntaxError: invalid break

tryItOut 288
Compiling threw: SyntaxError: missing { before function body

tryItOut 289

tryItOut 290

tryItOut 291

tryItOut 292
Compiling threw: SyntaxError: missing ; before statement

tryItOut 293

tryItOut 294
Compiling threw: SyntaxError: label not found

tryItOut 295
Running threw: [object StopIteration]

tryItOut 296
Compiling threw: SyntaxError: invalid assignment left-hand side

tryItOut 297

tryItOut 298
Compiling threw: SyntaxError: invalid for/in left-hand side

tryItOut 299
Compiling threw: SyntaxError: illegal XML character

tryItOut 300
Compiling threw: SyntaxError: syntax error

tryItOut 301
Compiling threw: SyntaxError: invalid for/in left-hand side

tryItOut 302
Compiling threw: SyntaxError: missing variable name

tryItOut 303
Compiling threw: SyntaxError: illegal XML character

tryItOut 304
Compiling threw: SyntaxError: invalid break

tryItOut 305
Compiling threw: SyntaxError: missing { before function body

tryItOut 306
Compiling threw: SyntaxError: missing { before function body

tryItOut 307
Compiling threw: SyntaxError: missing { before function body

tryItOut 308
Compiling threw: SyntaxError: missing { before function body

tryItOut 309
Compiling threw: SyntaxError: missing { before function body

tryItOut 310
Compiling threw: SyntaxError: missing { before function body

tryItOut 311
Compiling threw: SyntaxError: syntax error

tryItOut 312
Compiling threw: SyntaxError: invalid decrement operand

tryItOut 313
Compiling threw: SyntaxError: invalid increment operand

tryItOut 314
Compiling threw: SyntaxError: invalid for/in left-hand side

tryItOut 315

tryItOut 316
Compiling threw: SyntaxError: missing ) in parenthetical

tryItOut 317

tryItOut 318
Compiling threw: SyntaxError: missing ) in parenthetical

tryItOut 319
Compiling threw: SyntaxError: label not found

tryItOut 320

tryItOut 321
Compiling threw: SyntaxError: missing ) in parenthetical

tryItOut 322
It's an iterator!
Iterating threw!
Iterating threw: ReferenceError: __iterator__ is not defined

tryItOut 323
Running threw: TypeError: arguments[0] has no properties

tryItOut 324
Compiling threw: SyntaxError: illegal XML character

tryItOut 325

tryItOut 326
Compiling threw: SyntaxError: invalid continue

tryItOut 327
Compiling threw: SyntaxError: missing { before function body

tryItOut 328
Compiling threw: SyntaxError: syntax error

tryItOut 329
Running threw: TypeError: __parent__ has no properties

tryItOut 330

tryItOut 331
Compiling threw: SyntaxError: missing { before function body

tryItOut 332
Compiling threw: SyntaxError: invalid increment operand

tryItOut 333
Compiling threw: SyntaxError: label not found

tryItOut 334
Compiling threw: SyntaxError: missing ) in parenthetical

tryItOut 335
Compiling threw: SyntaxError: invalid for/in left-hand side

tryItOut 336
Compiling threw: SyntaxError: missing { before function body

tryItOut 337
Compiling threw: SyntaxError: invalid XML tag syntax

tryItOut 338

tryItOut 339
It's an iterator!
Iterating threw!
Iterating threw: ReferenceError: __iterator__ is not defined

tryItOut 340

tryItOut 341
Compiling threw: SyntaxError: missing ) after condition

tryItOut 342

tryItOut 343
Running threw: ReferenceError: z1 is not defined

tryItOut 344
Compiling threw: SyntaxError: missing { before function body

tryItOut 345
Compiling threw: SyntaxError: label not found

tryItOut 346

tryItOut 347
Compiling threw: SyntaxError: missing { before function body

tryItOut 348
Compiling threw: SyntaxError: missing = in XML attribute

tryItOut 349

tryItOut 350

tryItOut 351
Compiling threw: SyntaxError: missing { before function body

tryItOut 352
Compiling threw: SyntaxError: missing { before function body

tryItOut 353
It's an iterator!
Iterating succeeded, iterCount == 1

tryItOut 354
Compiling threw: SyntaxError: missing ; after for-loop initializer

tryItOut 355
Compiling threw: SyntaxError: missing { before function body

tryItOut 356

tryItOut 357

tryItOut 358
Compiling threw: SyntaxError: missing ) in parenthetical

tryItOut 359
Compiling threw: SyntaxError: label not found

tryItOut 360
Compiling threw: SyntaxError: syntax error

tryItOut 361

tryItOut 362

tryItOut 363
Running threw: ReferenceError: z1 is not defined

tryItOut 364
Compiling threw: SyntaxError: missing ; before statement

tryItOut 365

tryItOut 366
Compiling threw: SyntaxError: illegal XML character

tryItOut 367

tryItOut 368
Running threw: [object StopIteration]

tryItOut 369
It's an iterator!
Iterating succeeded, iterCount == 1

tryItOut 370

tryItOut 371
Running threw: SyntaxError: yield not in function

tryItOut 372
Compiling threw: TypeError: redeclaration of var __iterator__

tryItOut 373

tryItOut 374
Compiling threw: SyntaxError: missing ) in parenthetical

tryItOut 375
Compiling threw: SyntaxError: missing formal parameter

tryItOut 376
Compiling threw: SyntaxError: missing { before function body

tryItOut 377
Compiling threw: SyntaxError: missing variable name

tryItOut 378
Compiling threw: SyntaxError: invalid for/in left-hand side

tryItOut 379

tryItOut 380
Compiling threw: SyntaxError: missing ) in parenthetical

tryItOut 381

tryItOut 382

tryItOut 383
Compiling threw: SyntaxError: label not found

tryItOut 384
Compiling threw: SyntaxError: invalid for/in left-hand side

tryItOut 385

tryItOut 386
Compiling threw: SyntaxError: syntax error

tryItOut 387
Compiling threw: SyntaxError: invalid for/in left-hand side

tryItOut 388

tryItOut 389
Compiling threw: SyntaxError: missing variable name

tryItOut 390

tryItOut 391
Running threw: ReferenceError: __iterator__ is not defined

tryItOut 392
Compiling threw: SyntaxError: missing ) after argument list

tryItOut 393
Compiling threw: SyntaxError: missing name after . operator

tryItOut 394
Compiling threw: SyntaxError: missing { before function body

tryItOut 395
Compiling threw: SyntaxError: syntax error

tryItOut 396
Compiling threw: SyntaxError: duplicate label

tryItOut 397
Compiling threw: SyntaxError: invalid assignment left-hand side

tryItOut 398
Compiling threw: SyntaxError: yield expression must be parenthesized

tryItOut 399

tryItOut 400

tryItOut 401

tryItOut 402
Compiling threw: SyntaxError: missing ; before statement

tryItOut 403
Compiling threw: SyntaxError: invalid destructuring assignment operator

tryItOut 404

tryItOut 405
Compiling threw: SyntaxError: label not found

tryItOut 406
Compiling threw: SyntaxError: invalid destructuring assignment operator

tryItOut 407
It's an iterator!
Iterating succeeded, iterCount == 1

tryItOut 408
Compiling threw: SyntaxError: label not found

tryItOut 409
Compiling threw: SyntaxError: invalid increment operand

tryItOut 410
Compiling threw: SyntaxError: illegal XML character

tryItOut 411

tryItOut 412

tryItOut 413
Compiling threw: SyntaxError: invalid break

tryItOut 414

tryItOut 415
Compiling threw: SyntaxError: missing { before function body

tryItOut 416
Running threw: [object StopIteration]

tryItOut 417

tryItOut 418
Compiling threw: SyntaxError: label not found

tryItOut 419

tryItOut 420
Compiling threw: SyntaxError: invalid for/in left-hand side

tryItOut 421
It's an iterator!
Iterating succeeded, iterCount == 0

tryItOut 422
Compiling threw: SyntaxError: invalid break

tryItOut 423
Running threw: ReferenceError: prototype is not defined

tryItOut 424
Compiling threw: SyntaxError: invalid for/in left-hand side

tryItOut 425
Compiling threw: SyntaxError: missing { before function body

tryItOut 426

tryItOut 427
Compiling threw: SyntaxError: invalid XML list syntax

tryItOut 428
Compiling threw: SyntaxError: syntax error

tryItOut 429
Compiling threw: SyntaxError: invalid default XML namespace

tryItOut 430
Compiling threw: SyntaxError: syntax error

tryItOut 431
Compiling threw: SyntaxError: syntax error

tryItOut 432
Compiling threw: SyntaxError: missing { before function body

tryItOut 433
Running threw: ReferenceError: z1 is not defined

tryItOut 434

tryItOut 435

tryItOut 436
Compiling threw: TypeError: redeclaration of variable prototype

tryItOut 437

tryItOut 438
Compiling threw: SyntaxError: missing { before function body

tryItOut 439
Compiling threw: SyntaxError: missing ; before statement

tryItOut 440
Compiling threw: SyntaxError: invalid break

tryItOut 441
Compiling threw: SyntaxError: invalid break

tryItOut 442
Compiling threw: SyntaxError: missing ] after element list

tryItOut 443
Compiling threw: SyntaxError: missing { before function body

tryItOut 444

tryItOut 445

tryItOut 446
Compiling threw: SyntaxError: invalid continue

tryItOut 447

tryItOut 448
Compiling threw: SyntaxError: missing { before function body

tryItOut 449

tryItOut 450
Compiling threw: SyntaxError: missing { before function body

tryItOut 451
Compiling threw: SyntaxError: invalid break

tryItOut 452
Compiling threw: SyntaxError: missing formal parameter

tryItOut 453

tryItOut 454
Compiling threw: SyntaxError: label not found

tryItOut 455
Compiling threw: SyntaxError: invalid increment operand

tryItOut 456
Compiling threw: SyntaxError: missing ; before statement

tryItOut 457

tryItOut 458
It's an iterator!
Iterating succeeded, iterCount == 1

tryItOut 459

tryItOut 460

tryItOut 461
Compiling threw: SyntaxError: invalid assignment left-hand side

tryItOut 462
Compiling threw: SyntaxError: missing { before function body

tryItOut 463
Compiling threw: SyntaxError: missing ) in parenthetical

tryItOut 464
Compiling threw: SyntaxError: invalid XML tag syntax

tryItOut 465
Compiling threw: SyntaxError: missing { before function body

tryItOut 466
Running threw: 0

tryItOut 467
Compiling threw: SyntaxError: missing formal parameter

tryItOut 468
Compiling threw: SyntaxError: missing variable name

tryItOut 469
Compiling threw: SyntaxError: missing formal parameter

tryItOut 470
Compiling threw: SyntaxError: missing formal parameter

tryItOut 471

tryItOut 472
It's an iterator!
Iterating succeeded, iterCount == 1

tryItOut 473
Compiling threw: SyntaxError: label not found

tryItOut 474

tryItOut 475
It's an iterator!
Iterating threw!
Iterating threw: ReferenceError: __iterator__ is not defined

tryItOut 476
Compiling threw: SyntaxError: missing { before function body

tryItOut 477
Compiling threw: SyntaxError: label not found

tryItOut 478
Compiling threw: SyntaxError: missing = in destructuring declaration

tryItOut 479

tryItOut 480
Compiling threw: SyntaxError: invalid for/in left-hand side

tryItOut 481

tryItOut 482
Compiling threw: SyntaxError: missing { before function body

tryItOut 483

tryItOut 484
Compiling threw: SyntaxError: invalid decrement operand

tryItOut 485
Compiling threw: SyntaxError: missing variable name

tryItOut 486
Compiling threw: SyntaxError: missing { before function body

tryItOut 487
Compiling threw: SyntaxError: invalid for/in left-hand side

tryItOut 488
Compiling threw: SyntaxError: missing : after property id

tryItOut 489
Compiling threw: SyntaxError: invalid assignment left-hand side

tryItOut 490
Compiling threw: SyntaxError: invalid for/in left-hand side

tryItOut 491
Compiling threw: SyntaxError: yield expression must be parenthesized

tryItOut 492
Compiling threw: SyntaxError: invalid for/in left-hand side

tryItOut 493
Compiling threw: SyntaxError: missing { before function body

tryItOut 494
Compiling threw: SyntaxError: invalid for/in left-hand side

tryItOut 495
Compiling threw: SyntaxError: invalid assignment left-hand side

tryItOut 496
Compiling threw: SyntaxError: missing { before function body

tryItOut 497

tryItOut 498
Compiling threw: SyntaxError: missing ) in parenthetical

tryItOut 499

tryItOut 500
Compiling threw: SyntaxError: missing { before function body

tryItOut 501
It's an iterator!
Iterating succeeded, iterCount == 1

tryItOut 502
Compiling threw: SyntaxError: missing { before function body

tryItOut 503
Compiling threw: SyntaxError: missing { before function body

tryItOut 504
Compiling threw: SyntaxError: missing { before function body

tryItOut 505
Compiling threw: SyntaxError: missing ; before statement

tryItOut 506
Compiling threw: SyntaxError: illegal XML character

tryItOut 507

tryItOut 508
Compiling threw: SyntaxError: invalid assignment left-hand side

tryItOut 509

tryItOut 510
It's an iterator!
Iterating succeeded, iterCount == 1

tryItOut 511
Compiling threw: SyntaxError: invalid continue

tryItOut 512
Running threw: TypeError: this.__defineGetter__("__iterator__", eval) has no properties

tryItOut 513
Compiling threw: SyntaxError: missing variable name

tryItOut 514

tryItOut 515
Compiling threw: SyntaxError: invalid increment operand

tryItOut 516
It's an iterator!
Iterating threw!
Iterating threw: ReferenceError: z1 is not defined

tryItOut 517
Compiling threw: SyntaxError: missing { before function body

tryItOut 518
Compiling threw: SyntaxError: missing ) in parenthetical

tryItOut 519
Compiling threw: SyntaxError: invalid break

tryItOut 520

tryItOut 521

tryItOut 522
Compiling threw: SyntaxError: missing variable name

tryItOut 523
Compiling threw: SyntaxError: missing { before function body

tryItOut 524
Compiling threw: SyntaxError: missing { before function body

tryItOut 525
Compiling threw: SyntaxError: missing ; before statement

tryItOut 526
Compiling threw: SyntaxError: missing variable name

tryItOut 527
Compiling threw: SyntaxError: invalid break

tryItOut 528

tryItOut 529
Compiling threw: SyntaxError: missing { before function body

tryItOut 530
Compiling threw: SyntaxError: missing ) in parenthetical

tryItOut 531

tryItOut 532
Compiling threw: SyntaxError: label not found

tryItOut 533
Compiling threw: SyntaxError: invalid for/in left-hand side

tryItOut 534
Compiling threw: SyntaxError: label not found

tryItOut 535
Compiling threw: SyntaxError: invalid for/in left-hand side

tryItOut 536
Compiling threw: SyntaxError: invalid assignment left-hand side

tryItOut 537
Compiling threw: SyntaxError: missing { before function body

tryItOut 538
Compiling threw: TypeError: redeclaration of const prop

tryItOut 539
Compiling threw: SyntaxError: invalid assignment left-hand side

tryItOut 540

tryItOut 541
Compiling threw: SyntaxError: invalid for/in left-hand side

tryItOut 542

tryItOut 543

tryItOut 544

tryItOut 545
Compiling threw: SyntaxError: invalid for/in left-hand side

tryItOut 546
Compiling threw: SyntaxError: invalid for/in left-hand side

tryItOut 547

tryItOut 548
Compiling threw: SyntaxError: missing { before function body

tryItOut 549
Compiling threw: SyntaxError: missing { before function body

tryItOut 550
Compiling threw: SyntaxError: missing variable name

tryItOut 551
Compiling threw: SyntaxError: missing { before function body

tryItOut 552
Running threw: [object StopIteration]

tryItOut 553
Compiling threw: SyntaxError: missing ) in parenthetical

tryItOut 554
Running threw: ReferenceError: prototype is not defined

tryItOut 555
Compiling threw: SyntaxError: invalid continue

tryItOut 556

tryItOut 557
Compiling threw: SyntaxError: missing ; after for-loop initializer

tryItOut 558
It's an iterator!
Iterating succeeded, iterCount == 0

tryItOut 559
Running threw: TypeError: __noSuchMethod__ has no properties

tryItOut 560
Compiling threw: SyntaxError: missing variable name

tryItOut 561
Compiling threw: SyntaxError: missing ; before statement

tryItOut 562

tryItOut 563
Running threw: [object StopIteration]

tryItOut 564

tryItOut 565
Compiling threw: SyntaxError: invalid continue

tryItOut 566
Running threw: ReferenceError: prototype is not defined

tryItOut 567

tryItOut 568

tryItOut 569
Compiling threw: SyntaxError: missing ) in parenthetical

tryItOut 570

tryItOut 571
Compiling threw: SyntaxError: missing variable name

tryItOut 572
It's an iterator!
Iterating threw!
Iterating threw: ReferenceError: prototype is not defined

tryItOut 573
Compiling threw: SyntaxError: syntax error

tryItOut 574

tryItOut 575

tryItOut 576
Compiling threw: SyntaxError: missing { before function body

tryItOut 577
Compiling threw: SyntaxError: missing ) in parenthetical

tryItOut 578
Running threw: TypeError: [] is not a constructor

tryItOut 579

tryItOut 580

tryItOut 581
Compiling threw: SyntaxError: invalid for/in left-hand side

tryItOut 582

tryItOut 583
Compiling threw: SyntaxError: missing = in destructuring declaration

tryItOut 584

tryItOut 585
Compiling threw: SyntaxError: invalid for/in left-hand side

tryItOut 586
Compiling threw: SyntaxError: missing variable name

tryItOut 587
Compiling threw: SyntaxError: missing { before function body

tryItOut 588
Compiling threw: SyntaxError: invalid for/in left-hand side

tryItOut 589

tryItOut 590
Running threw: TypeError: __parent__ has no properties

tryItOut 591
Compiling threw: SyntaxError: invalid assignment left-hand side

tryItOut 592

tryItOut 593
Compiling threw: SyntaxError: missing ) in parenthetical

tryItOut 594
Compiling threw: SyntaxError: invalid decrement operand

tryItOut 595
Compiling threw: TypeError: redeclaration of variable constructor

tryItOut 596
Compiling threw: SyntaxError: syntax error

tryItOut 597

tryItOut 598
It's an iterator!
Iterating threw!
Iterating threw: 1e-81

tryItOut 599
Compiling threw: SyntaxError: missing { before function body

tryItOut 600
Compiling threw: SyntaxError: missing variable name

tryItOut 601

tryItOut 602
Compiling threw: SyntaxError: missing ) after switch expression

tryItOut 603

tryItOut 604

tryItOut 605

tryItOut 606
Compiling threw: SyntaxError: missing : after property id

tryItOut 607
Compiling threw: SyntaxError: missing ; after for-loop initializer

tryItOut 608
Compiling threw: SyntaxError: label not found

tryItOut 609
Running threw: 0

tryItOut 610
Compiling threw: SyntaxError: syntax error

tryItOut 611
Compiling threw: SyntaxError: missing { before function body

tryItOut 612
Compiling threw: SyntaxError: missing : after property id

tryItOut 613

tryItOut 614
Compiling threw: SyntaxError: invalid assignment left-hand side

tryItOut 615
Compiling threw: SyntaxError: missing formal parameter

tryItOut 616
Compiling threw: SyntaxError: missing { before function body

tryItOut 617

tryItOut 618
Compiling threw: SyntaxError: missing variable name

tryItOut 619

tryItOut 620
Compiling threw: SyntaxError: invalid assignment left-hand side

tryItOut 621

tryItOut 622
Running threw: [object StopIteration]

tryItOut 623
Compiling threw: SyntaxError: missing : after property id

tryItOut 624
Compiling threw: SyntaxError: invalid assignment left-hand side

tryItOut 625
Compiling threw: SyntaxError: missing formal parameter

tryItOut 626
Compiling threw: SyntaxError: missing variable name

tryItOut 627
Compiling threw: SyntaxError: label not found

tryItOut 628
Compiling threw: SyntaxError: missing { before function body

tryItOut 629
Compiling threw: SyntaxError: missing { before function body

tryItOut 630

tryItOut 631
Compiling threw: SyntaxError: missing variable name

tryItOut 632

tryItOut 633
Compiling threw: SyntaxError: invalid assignment left-hand side

tryItOut 634
Compiling threw: SyntaxError: missing { before function body

tryItOut 635
Compiling threw: SyntaxError: invalid break

tryItOut 636
It's an iterator!
Iterating succeeded, iterCount == 1

tryItOut 637
Compiling threw: TypeError: redeclaration of variable __noSuchMethod__

tryItOut 638
Compiling threw: SyntaxError: missing variable name

tryItOut 639
Compiling threw: SyntaxError: invalid continue

tryItOut 640
Compiling threw: SyntaxError: missing { before function body

tryItOut 641
Compiling threw: SyntaxError: syntax error

tryItOut 642
Compiling threw: SyntaxError: missing { before function body

tryItOut 643
Compiling threw: SyntaxError: label not found

tryItOut 644

tryItOut 645

tryItOut 646

tryItOut 647

tryItOut 648

tryItOut 649

tryItOut 650

tryItOut 651
Compiling threw: SyntaxError: invalid break

tryItOut 652

tryItOut 653
Compiling threw: SyntaxError: missing ) in parenthetical

tryItOut 654
Compiling threw: SyntaxError: XML tag name mismatch (expected y)

tryItOut 655

tryItOut 656

tryItOut 657
Compiling threw: SyntaxError: missing ; before statement

tryItOut 658
Compiling threw: SyntaxError: syntax error

tryItOut 659
Compiling threw: SyntaxError: illegal XML character

tryItOut 660
Compiling threw: SyntaxError: label not found

tryItOut 661
Compiling threw: SyntaxError: missing { before function body

tryItOut 662

tryItOut 663
Compiling threw: SyntaxError: invalid assignment left-hand side

tryItOut 664

tryItOut 665
Running threw: ReferenceError: reference to undefined XML name @mozilla.org/js/function::prototype

tryItOut 666
It's an iterator!
Iterating succeeded, iterCount == 1

tryItOut 667
Compiling threw: SyntaxError: syntax error

tryItOut 668

tryItOut 669
Compiling threw: SyntaxError: missing { before function body

tryItOut 670
Compiling threw: SyntaxError: label not found

tryItOut 671
Compiling threw: SyntaxError: missing { before function body

tryItOut 672
Compiling threw: SyntaxError: invalid increment operand

tryItOut 673
Compiling threw: SyntaxError: missing ) in parenthetical

tryItOut 674
Compiling threw: SyntaxError: label not found

tryItOut 675

tryItOut 676
Compiling threw: SyntaxError: missing ; before statement

tryItOut 677
Compiling threw: SyntaxError: missing { before function body

tryItOut 678
Compiling threw: SyntaxError: invalid for/in left-hand side

tryItOut 679
Compiling threw: SyntaxError: missing ) in parenthetical

tryItOut 680
Compiling threw: SyntaxError: missing ; after for-loop initializer

tryItOut 681

tryItOut 682

tryItOut 683
Compiling threw: SyntaxError: missing variable name

tryItOut 684
Compiling threw: SyntaxError: missing { before function body

tryItOut 685
Compiling threw: SyntaxError: invalid for/in left-hand side

tryItOut 686

tryItOut 687
Compiling threw: SyntaxError: missing ) in parenthetical

tryItOut 688

tryItOut 689
Compiling threw: TypeError: redeclaration of variable __proto__

tryItOut 690
Compiling threw: SyntaxError: missing { before function body

tryItOut 691

tryItOut 692
Compiling threw: SyntaxError: label not found

tryItOut 693

tryItOut 694
Compiling threw: SyntaxError: missing { before function body

tryItOut 695
Compiling threw: SyntaxError: missing ) in parenthetical

tryItOut 696
Compiling threw: SyntaxError: duplicate label

tryItOut 697
Compiling threw: SyntaxError: missing variable name

tryItOut 698

tryItOut 699
Compiling threw: SyntaxError: missing ) in parenthetical

tryItOut 700

tryItOut 701
Running threw: [object StopIteration]

tryItOut 702
Compiling threw: SyntaxError: invalid assignment left-hand side

tryItOut 703
Compiling threw: SyntaxError: missing { before function body

tryItOut 704
Compiling threw: SyntaxError: missing ( before formal parameters

tryItOut 705
Compiling threw: SyntaxError: syntax error

tryItOut 706

tryItOut 707

tryItOut 708
Compiling threw: SyntaxError: missing : after property id

tryItOut 709
Compiling threw: SyntaxError: label not found

tryItOut 710
Compiling threw: SyntaxError: invalid for/in left-hand side

tryItOut 711

tryItOut 712

tryItOut 713
Compiling threw: SyntaxError: missing ( before formal parameters

tryItOut 714
Compiling threw: SyntaxError: missing { before function body

tryItOut 715
Compiling threw: SyntaxError: invalid break

tryItOut 716
Compiling threw: SyntaxError: missing ; after for-loop initializer

tryItOut 717

tryItOut 718
Compiling threw: SyntaxError: missing variable name

tryItOut 719
Compiling threw: SyntaxError: invalid break

tryItOut 720
Compiling threw: SyntaxError: syntax error

tryItOut 721
Compiling threw: SyntaxError: missing ) in parenthetical

tryItOut 722
Compiling threw: SyntaxError: syntax error

tryItOut 723
Compiling threw: SyntaxError: duplicate label

tryItOut 724
Compiling threw: SyntaxError: missing { before function body

tryItOut 725
Compiling threw: SyntaxError: syntax error

tryItOut 726
Compiling threw: SyntaxError: invalid for/in left-hand side

tryItOut 727
Compiling threw: SyntaxError: invalid continue

tryItOut 728
Compiling threw: SyntaxError: invalid for/in left-hand side

tryItOut 729
Compiling threw: SyntaxError: missing ) in parenthetical

tryItOut 730
Compiling threw: SyntaxError: missing ; before statement

tryItOut 731
Compiling threw: SyntaxError: missing ) after condition

tryItOut 732

tryItOut 733
Compiling threw: SyntaxError: invalid decrement operand

tryItOut 734
Compiling threw: SyntaxError: missing { before function body

tryItOut 735
Compiling threw: SyntaxError: invalid assignment left-hand side

tryItOut 736
Compiling threw: SyntaxError: missing { before function body

tryItOut 737
Compiling threw: SyntaxError: missing ) after switch expression

tryItOut 738
Compiling threw: SyntaxError: label not found

tryItOut 739
Compiling threw: SyntaxError: invalid for/in left-hand side

tryItOut 740
Running threw: [object StopIteration]

tryItOut 741

tryItOut 742
Compiling threw: SyntaxError: invalid break

tryItOut 743
Compiling threw: SyntaxError: missing { before function body

tryItOut 744

tryItOut 745
Compiling threw: SyntaxError: invalid decrement operand

tryItOut 746
Compiling threw: SyntaxError: missing ) in parenthetical

tryItOut 747
Compiling threw: SyntaxError: syntax error

tryItOut 748

tryItOut 749
Compiling threw: SyntaxError: missing ) in parenthetical

tryItOut 750
Compiling threw: SyntaxError: label not found

tryItOut 751

tryItOut 752

tryItOut 753

tryItOut 754
It's an iterator!
Iterating succeeded, iterCount == 1

tryItOut 755
Compiling threw: SyntaxError: invalid for/in left-hand side

tryItOut 756

tryItOut 757

tryItOut 758

tryItOut 759

tryItOut 760

tryItOut 761
It's an iterator!
Iterating succeeded, iterCount == 1

tryItOut 762

tryItOut 763
Running threw: 

tryItOut 764

tryItOut 765
Compiling threw: SyntaxError: missing { before function body

tryItOut 766
Compiling threw: SyntaxError: missing } after property list

tryItOut 767
Compiling threw: SyntaxError: invalid continue

tryItOut 768
Compiling threw: SyntaxError: label not found

tryItOut 769
Compiling threw: SyntaxError: missing variable name

tryItOut 770

tryItOut 771

tryItOut 772

tryItOut 773
Compiling threw: SyntaxError: invalid for/in left-hand side

tryItOut 774
Compiling threw: SyntaxError: missing name after . operator

tryItOut 775
Compiling threw: SyntaxError: missing ) in parenthetical

tryItOut 776
Running threw: function Object() {
    [native code]
}

tryItOut 777
Compiling threw: SyntaxError: missing { before function body

tryItOut 778
Compiling threw: SyntaxError: invalid for/in left-hand side

tryItOut 779
Compiling threw: SyntaxError: missing variable name

tryItOut 780
Compiling threw: SyntaxError: missing name after . operator

tryItOut 781
Running threw: ReferenceError: prototype is not defined

tryItOut 782
It's an iterator!
Iterating threw!
Iterating threw: TypeError: ({}) is not a constructor

tryItOut 783
Compiling threw: SyntaxError: missing ) in parenthetical

tryItOut 784
Compiling threw: SyntaxError: more than one switch default

tryItOut 785
Compiling threw: SyntaxError: missing { before function body

tryItOut 786

tryItOut 787
Compiling threw: TypeError: redeclaration of variable constructor

tryItOut 788
Compiling threw: TypeError: redeclaration of const __count__

tryItOut 789
Compiling threw: SyntaxError: missing { before function body

tryItOut 790
Compiling threw: SyntaxError: missing variable name

tryItOut 791

tryItOut 792
Compiling threw: SyntaxError: missing ) in parenthetical

tryItOut 793
Compiling threw: SyntaxError: missing ) in parenthetical

tryItOut 794
Compiling threw: SyntaxError: invalid XML tag syntax

tryItOut 795
Compiling threw: SyntaxError: illegal XML character

tryItOut 796

tryItOut 797
Compiling threw: SyntaxError: illegal XML character

tryItOut 798

tryItOut 799
Compiling threw: SyntaxError: label not found

tryItOut 800
Compiling threw: SyntaxError: invalid break

tryItOut 801

tryItOut 802
Running threw: ReferenceError: prototype is not defined

tryItOut 803
Compiling threw: SyntaxError: invalid for/in left-hand side

tryItOut 804
Compiling threw: SyntaxError: missing ) in parenthetical

tryItOut 805
Compiling threw: SyntaxError: missing variable name

tryItOut 806

tryItOut 807
Compiling threw: SyntaxError: missing { before function body

tryItOut 808

tryItOut 809
It's an iterator!
Iterating succeeded, iterCount == 1

tryItOut 810

tryItOut 811
Compiling threw: SyntaxError: syntax error

tryItOut 812
Compiling threw: SyntaxError: invalid for/in left-hand side

tryItOut 813
Compiling threw: SyntaxError: missing variable name

tryItOut 814
Compiling threw: SyntaxError: illegal XML character

tryItOut 815
Compiling threw: SyntaxError: missing ) in parenthetical

tryItOut 816
Compiling threw: SyntaxError: invalid for/in left-hand side

tryItOut 817
Compiling threw: SyntaxError: missing { before function body

tryItOut 818
Compiling threw: SyntaxError: invalid for/in left-hand side

tryItOut 819
Compiling threw: SyntaxError: invalid continue

tryItOut 820
It's an iterator!
Iterating succeeded, iterCount == 1

tryItOut 821
Running threw: TypeError: arguments[0] has no properties

tryItOut 822
Running threw: 3

tryItOut 823
Compiling threw: SyntaxError: missing ) in parenthetical

tryItOut 824

tryItOut 825
Running threw: TypeError: ""[''] has no properties

tryItOut 826
Compiling threw: SyntaxError: missing { before function body

tryItOut 827
It's an iterator!
Iterating succeeded, iterCount == 1

tryItOut 828

tryItOut 829

tryItOut 830
Compiling threw: SyntaxError: label not found

tryItOut 831
Compiling threw: SyntaxError: syntax error

tryItOut 832

tryItOut 833

tryItOut 834
Compiling threw: SyntaxError: missing { before function body

tryItOut 835
Compiling threw: SyntaxError: missing variable name

tryItOut 836
Compiling threw: SyntaxError: missing ; before statement

tryItOut 837
Compiling threw: SyntaxError: missing ) in parenthetical

tryItOut 838
Compiling threw: SyntaxError: missing ) in parenthetical

tryItOut 839

tryItOut 840
Compiling threw: SyntaxError: label not found

tryItOut 841

tryItOut 842
Compiling threw: SyntaxError: invalid assignment left-hand side

tryItOut 843
Compiling threw: SyntaxError: syntax error

tryItOut 844
Running threw: [object StopIteration]

tryItOut 845
Running threw: ReferenceError: __count__break is not defined

tryItOut 846
Compiling threw: SyntaxError: illegal XML character

tryItOut 847
Compiling threw: SyntaxError: missing : after property id

tryItOut 848

tryItOut 849
Compiling threw: SyntaxError: invalid break

tryItOut 850

tryItOut 851
Compiling threw: SyntaxError: invalid assignment left-hand side

tryItOut 852
Compiling threw: SyntaxError: missing ; before statement

tryItOut 853
Compiling threw: SyntaxError: label not found

tryItOut 854

tryItOut 855
Running threw: ReferenceError: z2 is not defined

tryItOut 856
Compiling threw: SyntaxError: invalid assignment left-hand side

tryItOut 857

tryItOut 858
Running threw: TypeError: 3 is not a constructor

tryItOut 859
It's an iterator!
Iterating succeeded, iterCount == 1

tryItOut 860
Compiling threw: SyntaxError: invalid break

tryItOut 861
Compiling threw: SyntaxError: missing variable name

tryItOut 862
Compiling threw: SyntaxError: label not found

tryItOut 863

tryItOut 864
Running threw: <x>
  <y/>
</x>

tryItOut 865
Compiling threw: SyntaxError: invalid decrement operand

tryItOut 866
Compiling threw: SyntaxError: missing { before function body

tryItOut 867
Compiling threw: SyntaxError: missing { before function body

tryItOut 868

tryItOut 869
Compiling threw: SyntaxError: invalid for/in left-hand side

tryItOut 870
It's an iterator!
Iterating threw!
Iterating threw: ReferenceError: z1 is not defined

tryItOut 871

tryItOut 872
Running threw: [object StopIteration]

tryItOut 873
It's an iterator!
Iterating succeeded, iterCount == 0

tryItOut 874
Compiling threw: SyntaxError: missing { before function body

tryItOut 875

tryItOut 876
Compiling threw: SyntaxError: invalid break

tryItOut 877

tryItOut 878
Compiling threw: SyntaxError: syntax error

tryItOut 879
Compiling threw: SyntaxError: missing variable name

tryItOut 880

tryItOut 881
Compiling threw: SyntaxError: missing } after property list

tryItOut 882
Compiling threw: SyntaxError: missing variable name

tryItOut 883
Compiling threw: SyntaxError: invalid break

tryItOut 884
Compiling threw: SyntaxError: missing { before function body

tryItOut 885
Compiling threw: SyntaxError: missing ( before formal parameters

tryItOut 886
Compiling threw: SyntaxError: missing ) in parenthetical

tryItOut 887

tryItOut 888

tryItOut 889
Compiling threw: SyntaxError: invalid for/in left-hand side

tryItOut 890

tryItOut 891

tryItOut 892

tryItOut 893
Compiling threw: SyntaxError: missing { before function body

tryItOut 894
Compiling threw: SyntaxError: syntax error

tryItOut 895
Compiling threw: SyntaxError: syntax error

tryItOut 896
Compiling threw: SyntaxError: label not found

tryItOut 897
Compiling threw: SyntaxError: invalid assignment left-hand side

tryItOut 898
Compiling threw: SyntaxError: missing ) in parenthetical

tryItOut 899

tryItOut 900
Compiling threw: SyntaxError: invalid for/in left-hand side

tryItOut 901
Compiling threw: SyntaxError: invalid break

tryItOut 902
Compiling threw: SyntaxError: missing { before function body

tryItOut 903
Compiling threw: SyntaxError: invalid break

tryItOut 904
Compiling threw: SyntaxError: invalid for/in left-hand side

tryItOut 905

tryItOut 906
Compiling threw: SyntaxError: syntax error

tryItOut 907
Running threw: [object Object]

tryItOut 908
Compiling threw: SyntaxError: invalid for/in left-hand side

tryItOut 909
Compiling threw: SyntaxError: missing { before function body

tryItOut 910
Compiling threw: SyntaxError: invalid for/in left-hand side

tryItOut 911

tryItOut 912
Compiling threw: SyntaxError: missing { before function body

tryItOut 913
Compiling threw: SyntaxError: invalid break

tryItOut 914

tryItOut 915
Compiling threw: SyntaxError: invalid destructuring assignment operator

tryItOut 916
Compiling threw: SyntaxError: missing ) in parenthetical

tryItOut 917
Compiling threw: SyntaxError: invalid decrement operand

tryItOut 918
Compiling threw: SyntaxError: missing { before function body

tryItOut 919

tryItOut 920
Compiling threw: SyntaxError: missing { before function body

tryItOut 921

tryItOut 922

tryItOut 923

tryItOut 924
Compiling threw: SyntaxError: missing variable name

tryItOut 925
Compiling threw: SyntaxError: syntax error

tryItOut 926
It's an iterator!
Iterating threw!
Iterating threw: ReferenceError: prototype is not defined

tryItOut 927

tryItOut 928

tryItOut 929
Compiling threw: SyntaxError: missing { before function body

tryItOut 930
Compiling threw: SyntaxError: label not found

tryItOut 931
It's an iterator!
Iterating succeeded, iterCount == 1

tryItOut 932

tryItOut 933
Compiling threw: SyntaxError: missing ) in parenthetical

tryItOut 934
Compiling threw: SyntaxError: invalid decrement operand

tryItOut 935
Compiling threw: SyntaxError: missing ; before statement

tryItOut 936
Running threw: <x>
  <y/>
</x>

tryItOut 937
Running threw: 3.141592653589793

tryItOut 938
Compiling threw: SyntaxError: illegal XML character

tryItOut 939
It's an iterator!
Iterating threw!
Iterating threw: ReferenceError: prototype is not defined

tryItOut 940
Compiling threw: SyntaxError: missing variable name

tryItOut 941
Compiling threw: SyntaxError: missing ) in parenthetical

tryItOut 942

tryItOut 943
Compiling threw: SyntaxError: label not found

tryItOut 944
Compiling threw: SyntaxError: syntax error

tryItOut 945
Compiling threw: SyntaxError: invalid decrement operand

tryItOut 946

tryItOut 947

tryItOut 948

tryItOut 949

tryItOut 950

tryItOut 951

tryItOut 952
Compiling threw: SyntaxError: missing variable name

tryItOut 953

tryItOut 954
Compiling threw: SyntaxError: missing { before function body

tryItOut 955
Running threw: RangeError: invalid array length

tryItOut 956
It's an iterator!
Iterating threw!
Iterating threw: TypeError: __proto__ is not a constructor

tryItOut 957
Compiling threw: SyntaxError: syntax error

tryItOut 958
Compiling threw: SyntaxError: missing variable name

tryItOut 959

tryItOut 960
Compiling threw: SyntaxError: missing { before function body

tryItOut 961
Compiling threw: SyntaxError: invalid continue

tryItOut 962

tryItOut 963

tryItOut 964
Running threw: ReferenceError: prototype is not defined

tryItOut 965

tryItOut 966
Compiling threw: SyntaxError: invalid for/in left-hand side

tryItOut 967
Running threw: SyntaxError: invalid assignment left-hand side

tryItOut 968
Compiling threw: SyntaxError: label not found

tryItOut 969
Running threw: ReferenceError: prototype is not defined

tryItOut 970
Running threw: TypeError: -0 is not a constructor

tryItOut 971
It's an iterator!
Iterating succeeded, iterCount == 1

tryItOut 972

tryItOut 973
Compiling threw: SyntaxError: missing { before function body

tryItOut 974

tryItOut 975
Compiling threw: SyntaxError: missing { before function body

tryItOut 976
Compiling threw: SyntaxError: label not found

tryItOut 977

tryItOut 978

tryItOut 979
Compiling threw: TypeError: redeclaration of const prototype

tryItOut 980
Compiling threw: SyntaxError: missing ) in parenthetical

tryItOut 981
Compiling threw: SyntaxError: invalid for/in left-hand side

tryItOut 982
Compiling threw: SyntaxError: missing { before function body

tryItOut 983
Compiling threw: SyntaxError: syntax error

tryItOut 984
Compiling threw: SyntaxError: missing : after property id

tryItOut 985
Compiling threw: SyntaxError: missing variable name

tryItOut 986

tryItOut 987
Compiling threw: SyntaxError: invalid for/in left-hand side

tryItOut 988
It's an iterator!
Iterating succeeded, iterCount == 1

tryItOut 989

tryItOut 990

tryItOut 991
Compiling threw: SyntaxError: missing { before function body

tryItOut 992

tryItOut 993
Compiling threw: SyntaxError: invalid assignment left-hand side

tryItOut 994
Compiling threw: SyntaxError: missing { before function body

tryItOut 995
Compiling threw: SyntaxError: illegal XML character

tryItOut 996

tryItOut 997

tryItOut 998
Compiling threw: SyntaxError: invalid continue

tryItOut 999

tryItOut 1000
Compiling threw: SyntaxError: missing ) after formal parameters

ALL OK

Script done on Sat 04 May 2013 07:55:27 AM PDT
