Script started on Sat 04 May 2013 07:54:53 AM PDT
***
Targeting SpiderMonkey / Gecko.

tryItOut 1
Compiling threw: SyntaxError: syntax error

tryItOut 2
Running threw: ReferenceError: prototype is not defined

tryItOut 3
Running threw: ReferenceError: prop is not defined

tryItOut 4

tryItOut 5
Running threw: 

tryItOut 6
Compiling threw: SyntaxError: missing ) in parenthetical

tryItOut 7
Running threw: true

tryItOut 8
Compiling threw: SyntaxError: missing ] in index expression

tryItOut 9
Compiling threw: SyntaxError: missing ) after condition

tryItOut 10

tryItOut 11

tryItOut 12
Running threw: 27

tryItOut 13

tryItOut 14

tryItOut 15
Compiling threw: SyntaxError: missing ) in parenthetical

tryItOut 16

tryItOut 17

tryItOut 18

tryItOut 19

tryItOut 20
Compiling threw: SyntaxError: missing { before function body

tryItOut 21
Compiling threw: SyntaxError: invalid assignment left-hand side

tryItOut 22

tryItOut 23

tryItOut 24

tryItOut 25

tryItOut 26

tryItOut 27

tryItOut 28
Compiling threw: SyntaxError: invalid assignment left-hand side

tryItOut 29
Running threw: 1e-81

tryItOut 30
Compiling threw: SyntaxError: invalid decrement operand

tryItOut 31

tryItOut 32
Compiling threw: SyntaxError: missing ) after condition

tryItOut 33

tryItOut 34

tryItOut 35
Compiling threw: SyntaxError: missing { before function body

tryItOut 36

tryItOut 37

tryItOut 38
Running threw: TypeError: this.zzz has no properties

tryItOut 39

tryItOut 40
Compiling threw: SyntaxError: missing : after property id

tryItOut 41
Compiling threw: SyntaxError: missing ) in parenthetical

tryItOut 42
Compiling threw: SyntaxError: missing } in XML expression

tryItOut 43

tryItOut 44

tryItOut 45
Running threw: TypeError: undefined is not a function

tryItOut 46

tryItOut 47
Running threw: 1e-81

tryItOut 48
Running threw: 1200

tryItOut 49

tryItOut 50
Compiling threw: SyntaxError: invalid assignment left-hand side

tryItOut 51

tryItOut 52
Running threw: ReferenceError: z1 is not defined

tryItOut 53
Compiling threw: SyntaxError: syntax error

tryItOut 54

tryItOut 55

tryItOut 56
Compiling threw: SyntaxError: missing variable name

tryItOut 57

tryItOut 58

tryItOut 59

tryItOut 60

tryItOut 61

tryItOut 62
Compiling threw: SyntaxError: invalid for each loop

tryItOut 63

tryItOut 64
Running threw: ReferenceError: __iterator__ is not defined

tryItOut 65

tryItOut 66

tryItOut 67

tryItOut 68
Compiling threw: SyntaxError: invalid assignment left-hand side

tryItOut 69

tryItOut 70
Compiling threw: SyntaxError: missing : after property id

tryItOut 71
Compiling threw: SyntaxError: invalid assignment left-hand side

tryItOut 72

tryItOut 73
Compiling threw: SyntaxError: syntax error

tryItOut 74

tryItOut 75
Compiling threw: SyntaxError: missing ) after argument list

tryItOut 76

tryItOut 77

tryItOut 78

tryItOut 79

tryItOut 80

tryItOut 81

tryItOut 82

tryItOut 83

tryItOut 84
Running threw: TypeError: this.zzz has no properties

tryItOut 85

tryItOut 86

tryItOut 87

tryItOut 88

tryItOut 89
Compiling threw: SyntaxError: invalid for/in left-hand side

tryItOut 90
Compiling threw: SyntaxError: missing = in destructuring declaration

tryItOut 91
Compiling threw: SyntaxError: invalid assignment left-hand side

tryItOut 92
Compiling threw: SyntaxError: invalid increment operand

tryItOut 93
Compiling threw: SyntaxError: missing ; after for-loop initializer

tryItOut 94
Compiling threw: SyntaxError: syntax error

tryItOut 95
Running threw: TypeError: this.zzz has no properties

tryItOut 96
Compiling threw: SyntaxError: missing ( before let head

tryItOut 97

tryItOut 98
Compiling threw: SyntaxError: missing : after property id

tryItOut 99

tryItOut 100
Compiling threw: SyntaxError: missing = in destructuring declaration

tryItOut 101
Compiling threw: SyntaxError: invalid assignment left-hand side

tryItOut 102
Compiling threw: SyntaxError: syntax error

tryItOut 103

tryItOut 104
Compiling threw: SyntaxError: invalid assignment left-hand side

tryItOut 105
Running threw: TypeError: p.z = prototype = __proto__ is not a function

tryItOut 106

tryItOut 107

tryItOut 108
Running threw: ReferenceError: prop is not defined

tryItOut 109

tryItOut 110
Compiling threw: SyntaxError: syntax error

tryItOut 111
Compiling threw: SyntaxError: illegal XML character

tryItOut 112
Compiling threw: SyntaxError: missing ) after condition

tryItOut 113
Compiling threw: SyntaxError: missing ) in parenthetical

tryItOut 114

tryItOut 115

tryItOut 116

tryItOut 117

tryItOut 118

tryItOut 119

tryItOut 120

tryItOut 121

tryItOut 122

tryItOut 123
Running threw: TypeError: this.zzz has no properties

tryItOut 124
Running threw: ReferenceError: __noSuchMethod__ is not defined

tryItOut 125

tryItOut 126
Compiling threw: SyntaxError: invalid sharp variable definition

tryItOut 127

tryItOut 128
Compiling threw: SyntaxError: missing ) after condition

tryItOut 129
Running threw: undefined

tryItOut 130
Compiling threw: SyntaxError: missing ( after for

tryItOut 131

tryItOut 132
Compiling threw: SyntaxError: invalid label

tryItOut 133
Running threw: ReferenceError: __iterator__ is not defined

tryItOut 134

tryItOut 135

tryItOut 136

tryItOut 137
It's an iterator!
Iterating threw!
Iterating threw: ReferenceError: z1 is not defined

tryItOut 138
Compiling threw: SyntaxError: missing ] after element list

tryItOut 139
Compiling threw: SyntaxError: invalid assignment left-hand side

tryItOut 140
Compiling threw: SyntaxError: invalid increment operand

tryItOut 141
Compiling threw: SyntaxError: missing ] after element list

tryItOut 142
Compiling threw: SyntaxError: invalid assignment left-hand side

tryItOut 143

tryItOut 144
Compiling threw: SyntaxError: invalid assignment left-hand side

tryItOut 145
Compiling threw: SyntaxError: missing ; before statement

tryItOut 146
Compiling threw: SyntaxError: missing ; after for-loop initializer

tryItOut 147
Compiling threw: SyntaxError: missing ) in parenthetical

tryItOut 148

tryItOut 149
Compiling threw: SyntaxError: invalid assignment left-hand side

tryItOut 150

tryItOut 151

tryItOut 152
Compiling threw: SyntaxError: invalid property id

tryItOut 153
Compiling threw: SyntaxError: invalid for/in left-hand side

tryItOut 154

tryItOut 155

tryItOut 156

tryItOut 157

tryItOut 158

tryItOut 159
Running threw: TypeError: this.zzz has no properties

tryItOut 160
Compiling threw: SyntaxError: invalid assignment left-hand side

tryItOut 161
Compiling threw: SyntaxError: missing variable name

tryItOut 162

tryItOut 163

tryItOut 164
Compiling threw: SyntaxError: syntax error

tryItOut 165
Compiling threw: SyntaxError: invalid assignment left-hand side

tryItOut 166
Running threw: 

tryItOut 167

tryItOut 168
Compiling threw: SyntaxError: missing ) in parenthetical

tryItOut 169

tryItOut 170

tryItOut 171
Compiling threw: SyntaxError: invalid assignment left-hand side

tryItOut 172

tryItOut 173
Compiling threw: SyntaxError: syntax error

tryItOut 174
Compiling threw: SyntaxError: syntax error

tryItOut 175

tryItOut 176

tryItOut 177

tryItOut 178
Compiling threw: SyntaxError: duplicate label

tryItOut 179

tryItOut 180
Running threw: ReferenceError: z1 is not defined

tryItOut 181
Compiling threw: SyntaxError: invalid for each loop

tryItOut 182
Compiling threw: SyntaxError: invalid assignment left-hand side

tryItOut 183
Running threw: <y>
  <z/>
</y>

tryItOut 184
Compiling threw: SyntaxError: invalid assignment left-hand side

tryItOut 185
Running threw: TypeError: this.zzz has no properties

tryItOut 186
Compiling threw: SyntaxError: invalid sharp variable definition

tryItOut 187

tryItOut 188

tryItOut 189

tryItOut 190

tryItOut 191

tryItOut 192

tryItOut 193

tryItOut 194
Compiling threw: SyntaxError: missing ) after condition

tryItOut 195
Compiling threw: SyntaxError: missing : after property id

tryItOut 196

tryItOut 197
Running threw: false

tryItOut 198

tryItOut 199

tryItOut 200

tryItOut 201
Compiling threw: SyntaxError: missing ) in parenthetical

tryItOut 202
Running threw: TypeError: this.zzz has no properties

tryItOut 203

tryItOut 204
Running threw: TypeError: prop has no properties

tryItOut 205

tryItOut 206
Compiling threw: SyntaxError: invalid increment operand

tryItOut 207
Compiling threw: SyntaxError: missing ; after for-loop condition

tryItOut 208
Compiling threw: SyntaxError: invalid destructuring assignment operator

tryItOut 209

tryItOut 210

tryItOut 211
Compiling threw: SyntaxError: syntax error

tryItOut 212
Compiling threw: SyntaxError: invalid sharp variable definition

tryItOut 213
Running threw: 

tryItOut 214

tryItOut 215
Compiling threw: SyntaxError: syntax error

tryItOut 216
Running threw: TypeError: this.zzz has no properties

tryItOut 217
Compiling threw: SyntaxError: missing variable name

tryItOut 218
Compiling threw: SyntaxError: invalid decrement operand

tryItOut 219

tryItOut 220
Compiling threw: SyntaxError: missing ; after for-loop initializer

tryItOut 221

tryItOut 222

tryItOut 223

tryItOut 224
Compiling threw: SyntaxError: missing ) in parenthetical

tryItOut 225

tryItOut 226

tryItOut 227

tryItOut 228

tryItOut 229
Compiling threw: SyntaxError: missing ) after condition

tryItOut 230

tryItOut 231
Running threw: function (id) {
    return id;
}

tryItOut 232

tryItOut 233
Compiling threw: SyntaxError: missing ) in parenthetical

tryItOut 234

tryItOut 235

tryItOut 236
Running threw: ReferenceError: __iterator__ is not defined

tryItOut 237

tryItOut 238

tryItOut 239

tryItOut 240
Compiling threw: SyntaxError: syntax error

tryItOut 241

tryItOut 242

tryItOut 243
Compiling threw: SyntaxError: invalid property id

tryItOut 244
Compiling threw: SyntaxError: illegal XML character

tryItOut 245
Compiling threw: SyntaxError: syntax error

tryItOut 246

tryItOut 247

tryItOut 248

tryItOut 249
Compiling threw: SyntaxError: missing : after property id

tryItOut 250

tryItOut 251
Running threw: 

tryItOut 252

tryItOut 253

tryItOut 254

tryItOut 255

tryItOut 256

tryItOut 257
Running threw: TypeError: this.zzz has no properties

tryItOut 258
Compiling threw: SyntaxError: missing ) in parenthetical

tryItOut 259

tryItOut 260

tryItOut 261

tryItOut 262
Compiling threw: SyntaxError: missing ( before let head

tryItOut 263

tryItOut 264

tryItOut 265

tryItOut 266

tryItOut 267
Compiling threw: SyntaxError: missing ; before statement

tryItOut 268
Compiling threw: SyntaxError: missing ) in parenthetical

tryItOut 269
Compiling threw: SyntaxError: missing variable name

tryItOut 270
Compiling threw: SyntaxError: missing ; before statement

tryItOut 271

tryItOut 272
Running threw: <y>
  <z/>
</y>

tryItOut 273

tryItOut 274

tryItOut 275

tryItOut 276

tryItOut 277

tryItOut 278
Compiling threw: SyntaxError: missing ) after for-loop control

tryItOut 279
Running threw: <y>
  <z/>
</y>

tryItOut 280

tryItOut 281
Running threw: TypeError: this.zzz has no properties

tryItOut 282

tryItOut 283

tryItOut 284

tryItOut 285
Compiling threw: SyntaxError: invalid for/in left-hand side

tryItOut 286
Running threw: [object Object]

tryItOut 287

tryItOut 288
Running threw: false

tryItOut 289

tryItOut 290

tryItOut 291
Compiling threw: SyntaxError: missing ; before statement

tryItOut 292

tryItOut 293
Running threw: null

tryItOut 294
Compiling threw: TypeError: generator function __parent__ returns a value

tryItOut 295
Compiling threw: SyntaxError: missing ) in parenthetical

tryItOut 296

tryItOut 297

tryItOut 298
Compiling threw: SyntaxError: missing ; before statement

tryItOut 299
Running threw: ReferenceError: __iterator__ is not defined

tryItOut 300

tryItOut 301

tryItOut 302
Compiling threw: SyntaxError: invalid assignment left-hand side

tryItOut 303

tryItOut 304
Compiling threw: SyntaxError: syntax error

tryItOut 305

tryItOut 306

tryItOut 307
Running threw: 1e-81

tryItOut 308
Compiling threw: SyntaxError: invalid increment operand

tryItOut 309
Compiling threw: SyntaxError: duplicate label

tryItOut 310

tryItOut 311

tryItOut 312
Compiling threw: SyntaxError: syntax error

tryItOut 313
Compiling threw: SyntaxError: invalid for each loop

tryItOut 314

tryItOut 315

tryItOut 316
Compiling threw: SyntaxError: missing ) after condition

tryItOut 317
Compiling threw: SyntaxError: missing variable name

tryItOut 318

tryItOut 319

tryItOut 320
Compiling threw: SyntaxError: missing ) in parenthetical

tryItOut 321
Compiling threw: SyntaxError: syntax error

tryItOut 322

tryItOut 323

tryItOut 324
Running threw: ReferenceError: __iterator__ is not defined

tryItOut 325

tryItOut 326

tryItOut 327

tryItOut 328

tryItOut 329
Compiling threw: SyntaxError: invalid assignment left-hand side

tryItOut 330

tryItOut 331
Compiling threw: SyntaxError: syntax error

tryItOut 332
Compiling threw: SyntaxError: invalid assignment left-hand side

tryItOut 333

tryItOut 334

tryItOut 335

tryItOut 336

tryItOut 337
Compiling threw: SyntaxError: invalid assignment left-hand side

tryItOut 338

tryItOut 339
Compiling threw: SyntaxError: unterminated comment

tryItOut 340

tryItOut 341

tryItOut 342
Compiling threw: SyntaxError: syntax error

tryItOut 343

tryItOut 344
It's an iterator!
Iterating succeeded, iterCount == 1

tryItOut 345

tryItOut 346

tryItOut 347

tryItOut 348
Compiling threw: SyntaxError: missing variable name

tryItOut 349
Compiling threw: SyntaxError: invalid increment operand

tryItOut 350

tryItOut 351

tryItOut 352

tryItOut 353

tryItOut 354

tryItOut 355
Running threw: TypeError: XML filtering predicate operator called on incompatible Object

tryItOut 356
Compiling threw: SyntaxError: missing ] after element list

tryItOut 357

tryItOut 358

tryItOut 359

tryItOut 360
Compiling threw: SyntaxError: missing ) in parenthetical

tryItOut 361
Compiling threw: SyntaxError: invalid assignment left-hand side

tryItOut 362

tryItOut 363

tryItOut 364
Compiling threw: SyntaxError: invalid XML name

tryItOut 365

tryItOut 366
Running threw: TypeError: [undefined] is not a function

tryItOut 367

tryItOut 368
Compiling threw: SyntaxError: invalid destructuring assignment operator

tryItOut 369

tryItOut 370

tryItOut 371

tryItOut 372

tryItOut 373

tryItOut 374

tryItOut 375

tryItOut 376
Running threw: 1e+81

tryItOut 377

tryItOut 378
Compiling threw: SyntaxError: missing variable name

tryItOut 379

tryItOut 380

tryItOut 381
Compiling threw: SyntaxError: syntax error

tryItOut 382
Compiling threw: SyntaxError: missing ) after condition

tryItOut 383

tryItOut 384
Compiling threw: SyntaxError: missing ) after condition

tryItOut 385

tryItOut 386

tryItOut 387
Compiling threw: SyntaxError: missing { before function body

tryItOut 388

tryItOut 389
Compiling threw: SyntaxError: missing ) in parenthetical

tryItOut 390

tryItOut 391
Compiling threw: SyntaxError: syntax error

tryItOut 392

tryItOut 393
Compiling threw: SyntaxError: invalid assignment left-hand side

tryItOut 394
Running threw: [object Object]

tryItOut 395

tryItOut 396

tryItOut 397

tryItOut 398

tryItOut 399

tryItOut 400

tryItOut 401
Compiling threw: SyntaxError: missing ) in parenthetical

tryItOut 402

tryItOut 403
Compiling threw: SyntaxError: missing ; after for-loop condition

tryItOut 404
Compiling threw: SyntaxError: invalid for/in left-hand side

tryItOut 405

tryItOut 406

tryItOut 407

tryItOut 408
Compiling threw: SyntaxError: invalid sharp variable definition

tryItOut 409
Compiling threw: SyntaxError: invalid assignment left-hand side

tryItOut 410
Compiling threw: SyntaxError: missing ) after for-loop control

tryItOut 411
Compiling threw: SyntaxError: missing variable name

tryItOut 412
Running threw: 

tryItOut 413

tryItOut 414
Compiling threw: SyntaxError: invalid sharp variable definition

tryItOut 415
Compiling threw: SyntaxError: missing ) in parenthetical

tryItOut 416
Running threw: ReferenceError: z1 is not defined

tryItOut 417

tryItOut 418
Compiling threw: SyntaxError: missing ) after condition

tryItOut 419

tryItOut 420

tryItOut 421

tryItOut 422

tryItOut 423
Compiling threw: SyntaxError: missing { before function body

tryItOut 424
Running threw: ReferenceError: z1 is not defined

tryItOut 425

tryItOut 426

tryItOut 427

tryItOut 428
It's an iterator!
Iterating succeeded, iterCount == 1

tryItOut 429
Compiling threw: SyntaxError: invalid increment operand

tryItOut 430

tryItOut 431
Running threw: 0.2

tryItOut 432
Compiling threw: SyntaxError: invalid for/in left-hand side

tryItOut 433

tryItOut 434
Running threw: ReferenceError: z1 is not defined

tryItOut 435
Compiling threw: SyntaxError: missing variable name

tryItOut 436

tryItOut 437
Compiling threw: SyntaxError: syntax error

tryItOut 438

tryItOut 439

tryItOut 440

tryItOut 441
Compiling threw: SyntaxError: duplicate label

tryItOut 442
Compiling threw: SyntaxError: syntax error

tryItOut 443
Compiling threw: SyntaxError: duplicate label

tryItOut 444

tryItOut 445

tryItOut 446
Compiling threw: SyntaxError: missing variable name

tryItOut 447
Running threw: ReferenceError: z2 is not defined

tryItOut 448
Compiling threw: SyntaxError: missing ) in parenthetical

tryItOut 449
Running threw: TypeError: this.zzz has no properties

tryItOut 450

tryItOut 451

tryItOut 452
Running threw: 

tryItOut 453
Compiling threw: SyntaxError: invalid XML name

tryItOut 454

tryItOut 455
Running threw: true

tryItOut 456

tryItOut 457

tryItOut 458
Compiling threw: SyntaxError: syntax error

tryItOut 459

tryItOut 460

tryItOut 461

tryItOut 462

tryItOut 463

tryItOut 464
Running threw: 

tryItOut 465
Compiling threw: SyntaxError: missing ) in parenthetical

tryItOut 466

tryItOut 467
Running threw: 110

tryItOut 468

tryItOut 469
Running threw: undefined

tryItOut 470
Compiling threw: SyntaxError: invalid assignment left-hand side

tryItOut 471

tryItOut 472

tryItOut 473

tryItOut 474

tryItOut 475
Compiling threw: SyntaxError: syntax error

tryItOut 476
Compiling threw: SyntaxError: syntax error

tryItOut 477

tryItOut 478

tryItOut 479
Compiling threw: SyntaxError: syntax error

tryItOut 480
Compiling threw: SyntaxError: invalid assignment left-hand side

tryItOut 481

tryItOut 482

tryItOut 483

tryItOut 484

tryItOut 485
Compiling threw: SyntaxError: invalid assignment left-hand side

tryItOut 486
Compiling threw: SyntaxError: missing } in XML expression

tryItOut 487

tryItOut 488

tryItOut 489

tryItOut 490
Compiling threw: SyntaxError: syntax error

tryItOut 491
Compiling threw: SyntaxError: syntax error

tryItOut 492
Compiling threw: SyntaxError: invalid default XML namespace

tryItOut 493
Compiling threw: SyntaxError: syntax error

tryItOut 494
Compiling threw: SyntaxError: invalid destructuring assignment operator

tryItOut 495
Compiling threw: SyntaxError: missing = in destructuring declaration

tryItOut 496
Compiling threw: SyntaxError: missing ; after for-loop condition

tryItOut 497
Compiling threw: SyntaxError: duplicate label

tryItOut 498

tryItOut 499

tryItOut 500

tryItOut 501

tryItOut 502
Compiling threw: SyntaxError: invalid assignment left-hand side

tryItOut 503

tryItOut 504
Compiling threw: SyntaxError: missing ; after for-loop condition

tryItOut 505
Compiling threw: SyntaxError: missing ) in parenthetical

tryItOut 506

tryItOut 507
Compiling threw: SyntaxError: invalid XML name

tryItOut 508

tryItOut 509
Running threw: 1

tryItOut 510

tryItOut 511
Compiling threw: SyntaxError: syntax error

tryItOut 512

tryItOut 513

tryItOut 514

tryItOut 515
Compiling threw: SyntaxError: invalid decrement operand

tryItOut 516

tryItOut 517

tryItOut 518

tryItOut 519

tryItOut 520
Running threw: TypeError: this.zzz has no properties

tryItOut 521

tryItOut 522
Compiling threw: SyntaxError: invalid assignment left-hand side

tryItOut 523
Running threw: Error: invalid sharp variable use #1#

tryItOut 524
Running threw: ReferenceError: z2 is not defined

tryItOut 525
Compiling threw: SyntaxError: missing ) in parenthetical

tryItOut 526

tryItOut 527
Compiling threw: SyntaxError: missing variable name

tryItOut 528

tryItOut 529
Running threw: TypeError: 5 is not a function

tryItOut 530

tryItOut 531

tryItOut 532
Running threw: false

tryItOut 533

tryItOut 534

tryItOut 535

tryItOut 536

tryItOut 537
Compiling threw: SyntaxError: illegal XML character

tryItOut 538

tryItOut 539
Compiling threw: SyntaxError: missing ) after let head

tryItOut 540
Running threw: [object Object]

tryItOut 541

tryItOut 542
Compiling threw: SyntaxError: syntax error

tryItOut 543
Running threw: TypeError: #1={__iterator__:#1#} has invalid __iterator__ value #1={__iterator__:#1#}

tryItOut 544

tryItOut 545
Compiling threw: SyntaxError: invalid sharp variable definition

tryItOut 546
Compiling threw: SyntaxError: invalid for/in left-hand side

tryItOut 547
Running threw: TypeError: #1={__iterator__:#1#} has invalid __iterator__ value #1={__iterator__:#1#}

tryItOut 548

tryItOut 549
It's an iterator!
Iterating succeeded, iterCount == 1

tryItOut 550

tryItOut 551
Compiling threw: SyntaxError: invalid sharp variable definition

tryItOut 552
Compiling threw: SyntaxError: invalid assignment left-hand side

tryItOut 553

tryItOut 554

tryItOut 555
Compiling threw: SyntaxError: syntax error

tryItOut 556

tryItOut 557
Compiling threw: SyntaxError: syntax error

tryItOut 558
Running threw: <y>
  <z/>
</y>

tryItOut 559

tryItOut 560

tryItOut 561
Running threw: ReferenceError: x is not defined

tryItOut 562

tryItOut 563
Compiling threw: SyntaxError: syntax error

tryItOut 564
Compiling threw: SyntaxError: invalid XML name

tryItOut 565
Compiling threw: SyntaxError: missing ] after element list

tryItOut 566
Compiling threw: SyntaxError: invalid XML name

tryItOut 567

tryItOut 568

tryItOut 569
Compiling threw: SyntaxError: syntax error

tryItOut 570

tryItOut 571
Compiling threw: SyntaxError: missing ; after for-loop initializer

tryItOut 572

tryItOut 573

tryItOut 574

tryItOut 575
Compiling threw: SyntaxError: invalid assignment left-hand side

tryItOut 576
Compiling threw: SyntaxError: invalid assignment left-hand side

tryItOut 577

tryItOut 578
Compiling threw: SyntaxError: invalid destructuring assignment operator

tryItOut 579

tryItOut 580
Compiling threw: SyntaxError: missing ) after for-loop control

tryItOut 581

tryItOut 582
Compiling threw: SyntaxError: invalid assignment left-hand side

tryItOut 583
Compiling threw: SyntaxError: invalid for each loop

tryItOut 584

tryItOut 585

tryItOut 586
Compiling threw: SyntaxError: invalid for each loop

tryItOut 587
Running threw: 

tryItOut 588

tryItOut 589
Compiling threw: SyntaxError: missing ) in parenthetical

tryItOut 590

tryItOut 591

tryItOut 592
Compiling threw: SyntaxError: missing variable name

tryItOut 593

tryItOut 594

tryItOut 595

tryItOut 596

tryItOut 597

tryItOut 598

tryItOut 599
Compiling threw: SyntaxError: syntax error

tryItOut 600
Compiling threw: SyntaxError: missing variable name

tryItOut 601
Compiling threw: SyntaxError: missing : after property id

tryItOut 602

tryItOut 603
Compiling threw: SyntaxError: invalid assignment left-hand side

tryItOut 604

tryItOut 605
Compiling threw: SyntaxError: invalid assignment left-hand side

tryItOut 606
Compiling threw: SyntaxError: syntax error

tryItOut 607
Compiling threw: SyntaxError: invalid assignment left-hand side

tryItOut 608
Compiling threw: SyntaxError: invalid for each loop

tryItOut 609
Compiling threw: SyntaxError: syntax error

tryItOut 610

tryItOut 611

tryItOut 612
Running threw: TypeError: #1={__iterator__:#1#} has invalid __iterator__ value #1={__iterator__:#1#}

tryItOut 613
Compiling threw: SyntaxError: invalid for each loop

tryItOut 614

tryItOut 615

tryItOut 616
Compiling threw: SyntaxError: missing { before function body

tryItOut 617
Compiling threw: SyntaxError: missing : after property id

tryItOut 618
Compiling threw: SyntaxError: syntax error

tryItOut 619

tryItOut 620
Running threw: 

tryItOut 621
Compiling threw: SyntaxError: missing : after property id

tryItOut 622

tryItOut 623
Compiling threw: SyntaxError: duplicate label

tryItOut 624

tryItOut 625
Running threw: <y>
  <z/>
</y>

tryItOut 626

tryItOut 627

tryItOut 628

tryItOut 629

tryItOut 630
Compiling threw: TypeError: redeclaration of var prop

tryItOut 631
Running threw: TypeError: this.zzz has no properties

tryItOut 632
Compiling threw: SyntaxError: invalid sharp variable definition

tryItOut 633
Running threw: undefined

tryItOut 634

tryItOut 635
Running threw: TypeError: #1={__iterator__:#1#} has invalid __iterator__ value #1={__iterator__:#1#}

tryItOut 636

tryItOut 637

tryItOut 638

tryItOut 639
Running threw: [object Object]

tryItOut 640
Running threw: SyntaxError: invalid assignment left-hand side

tryItOut 641

tryItOut 642
Running threw: TypeError: #1={__iterator__:#1#} has invalid __iterator__ value #1={__iterator__:#1#}

tryItOut 643

tryItOut 644

tryItOut 645
Running threw: TypeError: this.zzz has no properties

tryItOut 646
Compiling threw: SyntaxError: invalid for/in left-hand side

tryItOut 647

tryItOut 648

tryItOut 649
Running threw: TypeError: this.zzz has no properties

tryItOut 650

tryItOut 651
Compiling threw: SyntaxError: missing ) in parenthetical

tryItOut 652

tryItOut 653
Running threw: ReferenceError: z1 is not defined

tryItOut 654
Compiling threw: SyntaxError: invalid default XML namespace

tryItOut 655

tryItOut 656

tryItOut 657
Compiling threw: SyntaxError: illegal XML character

tryItOut 658
Compiling threw: SyntaxError: missing ) after condition

tryItOut 659
Compiling threw: SyntaxError: duplicate label

tryItOut 660
Compiling threw: SyntaxError: invalid assignment left-hand side

tryItOut 661
Running threw: 1e+81

tryItOut 662
Compiling threw: SyntaxError: missing ; before statement

tryItOut 663

tryItOut 664
Running threw: TypeError: 5 is not a function

tryItOut 665

tryItOut 666
Compiling threw: SyntaxError: syntax error

tryItOut 667

tryItOut 668
Compiling threw: SyntaxError: missing ) after for-loop control

tryItOut 669

tryItOut 670
Compiling threw: SyntaxError: invalid assignment left-hand side

tryItOut 671

tryItOut 672

tryItOut 673
Compiling threw: SyntaxError: missing ; before statement

tryItOut 674
Compiling threw: SyntaxError: missing ) in parenthetical

tryItOut 675
Compiling threw: SyntaxError: missing variable name

tryItOut 676

tryItOut 677
Compiling threw: SyntaxError: duplicate label

tryItOut 678

tryItOut 679

tryItOut 680
Compiling threw: SyntaxError: invalid label

tryItOut 681
Compiling threw: SyntaxError: missing ) in parenthetical

tryItOut 682

tryItOut 683
Running threw: TypeError: #1={__iterator__:#1#} has invalid __iterator__ value #1={__iterator__:#1#}

tryItOut 684
Compiling threw: SyntaxError: missing variable name

tryItOut 685
Running threw: TypeError: false.yoyo is not a function

tryItOut 686
Compiling threw: SyntaxError: invalid destructuring assignment operator

tryItOut 687

tryItOut 688

tryItOut 689

tryItOut 690

tryItOut 691

tryItOut 692
Compiling threw: SyntaxError: syntax error

tryItOut 693

tryItOut 694

tryItOut 695
Compiling threw: SyntaxError: missing ) in parenthetical

tryItOut 696

tryItOut 697
It's an iterator!
Iterating threw!
Iterating threw: TypeError: __noSuchMethod__ is not a function

tryItOut 698

tryItOut 699
Compiling threw: SyntaxError: invalid assignment left-hand side

tryItOut 700

tryItOut 701

tryItOut 702

tryItOut 703

tryItOut 704

tryItOut 705
Running threw: TypeError: #1={__iterator__:#1#} has invalid __iterator__ value #1={__iterator__:#1#}

tryItOut 706
Compiling threw: SyntaxError: missing variable name

tryItOut 707
Compiling threw: SyntaxError: duplicate label

tryItOut 708
Compiling threw: SyntaxError: syntax error

tryItOut 709
Running threw: true

tryItOut 710
It's an iterator!
Iterating succeeded, iterCount == 1

tryItOut 711

tryItOut 712
Compiling threw: SyntaxError: missing { before function body

tryItOut 713

tryItOut 714
Running threw: true

tryItOut 715
Running threw: TypeError: this.zzz has no properties

tryItOut 716

tryItOut 717

tryItOut 718
Running threw: function ([y]) {
}

tryItOut 719
Compiling threw: SyntaxError: missing ) in parenthetical

tryItOut 720
Compiling threw: SyntaxError: missing ; after for-loop initializer

tryItOut 721

tryItOut 722
Compiling threw: SyntaxError: invalid assignment left-hand side

tryItOut 723
Compiling threw: SyntaxError: invalid XML tag syntax

tryItOut 724

tryItOut 725
Compiling threw: SyntaxError: invalid destructuring assignment operator

tryItOut 726

tryItOut 727
Compiling threw: SyntaxError: syntax error

tryItOut 728

tryItOut 729

tryItOut 730
Compiling threw: SyntaxError: invalid destructuring assignment operator

tryItOut 731

tryItOut 732
Running threw: TypeError: #1={__iterator__:#1#} has invalid __iterator__ value #1={__iterator__:#1#}

tryItOut 733

tryItOut 734

tryItOut 735

tryItOut 736

tryItOut 737

tryItOut 738

tryItOut 739
Compiling threw: SyntaxError: illegal XML character

tryItOut 740
Running threw: 110

tryItOut 741
Running threw: 1

tryItOut 742
Compiling threw: SyntaxError: invalid assignment left-hand side

tryItOut 743
Running threw: ReferenceError: C is not defined

tryItOut 744
Compiling threw: SyntaxError: invalid for/in left-hand side

tryItOut 745
Compiling threw: SyntaxError: syntax error

tryItOut 746

tryItOut 747

tryItOut 748

tryItOut 749
Running threw: -1

tryItOut 750
Compiling threw: SyntaxError: duplicate label

tryItOut 751

tryItOut 752

tryItOut 753

tryItOut 754
Running threw: ReferenceError: z1 is not defined

tryItOut 755
Compiling threw: SyntaxError: syntax error

tryItOut 756
Compiling threw: SyntaxError: missing { before function body

tryItOut 757

tryItOut 758
Compiling threw: SyntaxError: illegal XML character

tryItOut 759
Running threw: ReferenceError: z1 is not defined

tryItOut 760
Running threw: -Infinity

tryItOut 761

tryItOut 762
Compiling threw: SyntaxError: illegal XML character

tryItOut 763
Compiling threw: SyntaxError: invalid for/in left-hand side

tryItOut 764
Compiling threw: SyntaxError: missing name after . operator

tryItOut 765
Compiling threw: SyntaxError: invalid assignment left-hand side

tryItOut 766
Compiling threw: SyntaxError: invalid assignment left-hand side

tryItOut 767

tryItOut 768
Compiling threw: SyntaxError: missing ) after argument list

tryItOut 769

tryItOut 770

tryItOut 771

tryItOut 772

tryItOut 773
Compiling threw: SyntaxError: illegal character

tryItOut 774

tryItOut 775
Running threw: Infinity

tryItOut 776

tryItOut 777
Running threw: ReferenceError: z1 is not defined

tryItOut 778
Compiling threw: SyntaxError: missing ; before statement

tryItOut 779
Compiling threw: SyntaxError: invalid assignment left-hand side

tryItOut 780
Running threw: 

tryItOut 781
Compiling threw: SyntaxError: invalid assignment left-hand side

tryItOut 782

tryItOut 783
Compiling threw: SyntaxError: missing ) in parenthetical

tryItOut 784

tryItOut 785
Running threw: false

tryItOut 786
Compiling threw: SyntaxError: invalid for each loop

tryItOut 787
Compiling threw: SyntaxError: invalid assignment left-hand side

tryItOut 788

tryItOut 789
Compiling threw: SyntaxError: invalid assignment left-hand side

tryItOut 790

tryItOut 791

tryItOut 792
Compiling threw: SyntaxError: invalid for each loop

tryItOut 793

tryItOut 794
Running threw: undefined

tryItOut 795

tryItOut 796
Running threw: TypeError: this.zzz has no properties

tryItOut 797
Compiling threw: SyntaxError: missing ; before statement

tryItOut 798

tryItOut 799
Compiling threw: SyntaxError: missing ; after for-loop condition

tryItOut 800

tryItOut 801

tryItOut 802
Compiling threw: SyntaxError: invalid for each loop

tryItOut 803
Compiling threw: SyntaxError: syntax error

tryItOut 804

tryItOut 805
Running threw: 

tryItOut 806

tryItOut 807

tryItOut 808
Running threw: 1

tryItOut 809

tryItOut 810
It's an iterator!
Iterating succeeded, iterCount == 1

tryItOut 811
Running threw: TypeError: this.zzz has no properties

tryItOut 812
Running threw: [object Object]

tryItOut 813
Compiling threw: SyntaxError: missing ] after element list

tryItOut 814
Running threw: null

tryItOut 815
It's an iterator!
Iterating succeeded, iterCount == 1

tryItOut 816

tryItOut 817

tryItOut 818
Compiling threw: SyntaxError: missing ) after argument list

tryItOut 819
It's an iterator!
Iterating succeeded, iterCount == 1

tryItOut 820

tryItOut 821

tryItOut 822
Running threw: TypeError: (function ([y]) {}).yoyo is not a function

tryItOut 823

tryItOut 824

tryItOut 825
Running threw: 

tryItOut 826
Compiling threw: SyntaxError: missing : after property id

tryItOut 827

tryItOut 828

tryItOut 829
Compiling threw: SyntaxError: syntax error

tryItOut 830

tryItOut 831
Compiling threw: SyntaxError: invalid for each loop

tryItOut 832

tryItOut 833

tryItOut 834

tryItOut 835

tryItOut 836

tryItOut 837
Compiling threw: SyntaxError: syntax error

tryItOut 838
Compiling threw: SyntaxError: missing ) after condition

tryItOut 839
Compiling threw: SyntaxError: syntax error

tryItOut 840

tryItOut 841

tryItOut 842
Compiling threw: SyntaxError: missing variable name

tryItOut 843

tryItOut 844
Compiling threw: SyntaxError: illegal XML character

tryItOut 845
Running threw: TypeError: this.zzz has no properties

tryItOut 846
Compiling threw: SyntaxError: syntax error

tryItOut 847

tryItOut 848

tryItOut 849

tryItOut 850
It's an iterator!
Iterating succeeded, iterCount == 1

tryItOut 851

tryItOut 852

tryItOut 853
Compiling threw: SyntaxError: missing = in destructuring declaration

tryItOut 854

tryItOut 855

tryItOut 856

tryItOut 857
Compiling threw: SyntaxError: invalid XML name

tryItOut 858
Compiling threw: SyntaxError: missing variable name

tryItOut 859

tryItOut 860

tryItOut 861
Compiling threw: SyntaxError: missing ) after for-loop control

tryItOut 862
Compiling threw: SyntaxError: missing in after for

tryItOut 863

tryItOut 864
Compiling threw: SyntaxError: invalid assignment left-hand side

tryItOut 865

tryItOut 866
Compiling threw: SyntaxError: syntax error

tryItOut 867
Running threw: TypeError: #1={__iterator__:#1#} has invalid __iterator__ value #1={__iterator__:#1#}

tryItOut 868

tryItOut 869

tryItOut 870
Running threw: ReferenceError: z1 is not defined

tryItOut 871

tryItOut 872
Running threw: function (id) {
    return id;
}

tryItOut 873
Running threw: null

tryItOut 874
Running threw: [object Object]

tryItOut 875
Compiling threw: SyntaxError: duplicate label

tryItOut 876
Compiling threw: SyntaxError: syntax error

tryItOut 877
Compiling threw: SyntaxError: missing ) in parenthetical

tryItOut 878

tryItOut 879
Compiling threw: SyntaxError: syntax error

tryItOut 880
Running threw: -Infinity

tryItOut 881

tryItOut 882

tryItOut 883

tryItOut 884

tryItOut 885
Running threw: 1e+81

tryItOut 886

tryItOut 887

tryItOut 888

tryItOut 889
Compiling threw: SyntaxError: syntax error

tryItOut 890

tryItOut 891

tryItOut 892

tryItOut 893
Compiling threw: SyntaxError: invalid assignment left-hand side

tryItOut 894

tryItOut 895

tryItOut 896

tryItOut 897

tryItOut 898
Compiling threw: SyntaxError: missing ) in parenthetical

tryItOut 899
Running threw: TypeError: undefined is not a function

tryItOut 900
Compiling threw: SyntaxError: missing ) in parenthetical

tryItOut 901

tryItOut 902

tryItOut 903

tryItOut 904
Compiling threw: SyntaxError: yield expression must be parenthesized

tryItOut 905

tryItOut 906

tryItOut 907

tryItOut 908
Running threw: [object Object]

tryItOut 909

tryItOut 910

tryItOut 911
Compiling threw: SyntaxError: missing ) in parenthetical

tryItOut 912

tryItOut 913

tryItOut 914

tryItOut 915

tryItOut 916

tryItOut 917

tryItOut 918
Compiling threw: SyntaxError: invalid for/in left-hand side

tryItOut 919
Compiling threw: SyntaxError: missing ; after for-loop initializer

tryItOut 920
It's an iterator!
Iterating succeeded, iterCount == 1

tryItOut 921
Running threw: true

tryItOut 922

tryItOut 923
Compiling threw: SyntaxError: missing variable name

tryItOut 924
Compiling threw: SyntaxError: missing = in destructuring declaration

tryItOut 925
Running threw: TypeError: #1={__iterator__:#1#} has invalid __iterator__ value #1={__iterator__:#1#}

tryItOut 926
It's an iterator!
Iterating threw!
Iterating threw: 111

tryItOut 927
Compiling threw: SyntaxError: missing ; after for-loop initializer

tryItOut 928

tryItOut 929
Compiling threw: SyntaxError: illegal XML character

tryItOut 930

tryItOut 931

tryItOut 932
Compiling threw: SyntaxError: missing ) in parenthetical

tryItOut 933
Compiling threw: SyntaxError: syntax error

tryItOut 934

tryItOut 935

tryItOut 936

tryItOut 937
Compiling threw: SyntaxError: invalid for each loop

tryItOut 938
Compiling threw: SyntaxError: missing variable name

tryItOut 939

tryItOut 940
Compiling threw: SyntaxError: invalid assignment left-hand side

tryItOut 941

tryItOut 942

tryItOut 943
Compiling threw: SyntaxError: missing variable name

tryItOut 944

tryItOut 945
Compiling threw: SyntaxError: invalid for/in left-hand side

tryItOut 946
Compiling threw: SyntaxError: invalid assignment left-hand side

tryItOut 947

tryItOut 948
Compiling threw: SyntaxError: invalid assignment left-hand side

tryItOut 949
Compiling threw: SyntaxError: syntax error

tryItOut 950

tryItOut 951

tryItOut 952
Compiling threw: SyntaxError: missing ( before let head

tryItOut 953

tryItOut 954
Compiling threw: SyntaxError: missing : after property id

tryItOut 955
It's an iterator!
Iterating succeeded, iterCount == 1

tryItOut 956

tryItOut 957
Compiling threw: SyntaxError: syntax error

tryItOut 958
Compiling threw: SyntaxError: invalid for/in left-hand side

tryItOut 959
Compiling threw: SyntaxError: missing ; before statement

tryItOut 960
Compiling threw: SyntaxError: missing ; before statement

tryItOut 961
Compiling threw: SyntaxError: syntax error

tryItOut 962
Running threw: undefined

tryItOut 963

tryItOut 964

tryItOut 965
Compiling threw: SyntaxError: missing ) in parenthetical

tryItOut 966

tryItOut 967

tryItOut 968
It's an iterator!
Iterating succeeded, iterCount == 1

tryItOut 969
Compiling threw: SyntaxError: syntax error

tryItOut 970
Compiling threw: SyntaxError: invalid destructuring assignment operator

tryItOut 971

tryItOut 972
Compiling threw: SyntaxError: syntax error

tryItOut 973
Running threw: <y>
  <z/>
</y>

tryItOut 974
It's an iterator!
Iterating succeeded, iterCount == 1

tryItOut 975

tryItOut 976
Running threw: null

tryItOut 977
Compiling threw: SyntaxError: missing ) after condition

tryItOut 978
Compiling threw: SyntaxError: syntax error

tryItOut 979

tryItOut 980

tryItOut 981

tryItOut 982

tryItOut 983
Compiling threw: SyntaxError: missing ) after condition

tryItOut 984
Running threw: TypeError: #1={__iterator__:#1#} has invalid __iterator__ value #1={__iterator__:#1#}

tryItOut 985
Running threw: TypeError: #1={__iterator__:#1#} has invalid __iterator__ value #1={__iterator__:#1#}

tryItOut 986
Compiling threw: SyntaxError: missing ] after element list

tryItOut 987

tryItOut 988

tryItOut 989

tryItOut 990
Running threw: TypeError: [, , ].yoyo is not a function

tryItOut 991

tryItOut 992
Compiling threw: SyntaxError: syntax error

tryItOut 993

tryItOut 994

tryItOut 995

tryItOut 996

tryItOut 997

tryItOut 998
Compiling threw: SyntaxError: missing ( before condition

tryItOut 999
Compiling threw: SyntaxError: missing variable name

tryItOut 1000

ALL OK

Script done on Sat 04 May 2013 07:54:53 AM PDT
