Script started on Sat 04 May 2013 07:54:23 AM PDT
***
Targeting SpiderMonkey / Gecko.

tryItOut 1

tryItOut 2

tryItOut 3
Compiling threw: SyntaxError: syntax error

tryItOut 4

tryItOut 5
It's an iterator!
Iterating threw!
Iterating threw: ReferenceError: reference to undefined XML name @foo

tryItOut 6

tryItOut 7
Compiling threw: SyntaxError: invalid for/in left-hand side

tryItOut 8
It's an iterator!
Iterating threw!
Iterating threw: ReferenceError: reference to undefined XML name *

tryItOut 9
Compiling threw: SyntaxError: syntax error

tryItOut 10
Compiling threw: SyntaxError: invalid for/in left-hand side

tryItOut 11

tryItOut 12

tryItOut 13
It's an iterator!
Iterating succeeded, iterCount == 0

tryItOut 14
Compiling threw: SyntaxError: missing ; before statement

tryItOut 15
Compiling threw: SyntaxError: invalid increment operand

tryItOut 16
Compiling threw: SyntaxError: invalid for/in left-hand side

tryItOut 17

tryItOut 18
Compiling threw: SyntaxError: syntax error

tryItOut 19
Compiling threw: SyntaxError: invalid assignment left-hand side

tryItOut 20
Compiling threw: SyntaxError: missing variable name

tryItOut 21
Running threw: ReferenceError: reference to undefined XML name *::*

tryItOut 22

tryItOut 23

tryItOut 24
Compiling threw: SyntaxError: syntax error

tryItOut 25
Compiling threw: SyntaxError: missing ; after for-loop initializer

tryItOut 26

tryItOut 27
It's an iterator!
Iterating succeeded, iterCount == 0

tryItOut 28
Compiling threw: SyntaxError: syntax error

tryItOut 29

tryItOut 30

tryItOut 31

tryItOut 32
before 87200, after 87200, break 01cea000

tryItOut 33

tryItOut 34

tryItOut 35
Compiling threw: SyntaxError: invalid for/in left-hand side

tryItOut 36
Compiling threw: SyntaxError: missing { before function body

tryItOut 37
Compiling threw: SyntaxError: missing ; after for-loop condition

tryItOut 38
Compiling threw: SyntaxError: invalid assignment left-hand side

tryItOut 39
before 87200, after 87200, break 01cff000

tryItOut 40
before 87200, after 87200, break 01cff000

tryItOut 41

tryItOut 42

tryItOut 43
Compiling threw: SyntaxError: syntax error

tryItOut 44
Compiling threw: SyntaxError: missing { before function body

tryItOut 45

tryItOut 46

tryItOut 47
Compiling threw: SyntaxError: missing ; before statement

tryItOut 48

tryItOut 49
Compiling threw: SyntaxError: missing { before function body

tryItOut 50

tryItOut 51
Compiling threw: SyntaxError: missing ) in parenthetical

tryItOut 52
Compiling threw: SyntaxError: invalid for/in left-hand side

tryItOut 53
Compiling threw: SyntaxError: yield expression must be parenthesized

tryItOut 54
Compiling threw: SyntaxError: missing { before function body

tryItOut 55
Compiling threw: SyntaxError: missing { before function body

tryItOut 56
Running threw: TypeError: this is not a constructor

tryItOut 57
Compiling threw: SyntaxError: syntax error

tryItOut 58

tryItOut 59
Compiling threw: SyntaxError: missing variable name

tryItOut 60

tryItOut 61
Compiling threw: TypeError: redeclaration of variable __noSuchMethod__

tryItOut 62
It's an iterator!
Iterating threw!
Iterating threw: ReferenceError: reference to undefined XML name @foo

tryItOut 63
Compiling threw: SyntaxError: missing variable name

tryItOut 64

tryItOut 65

tryItOut 66
Compiling threw: SyntaxError: missing ; before statement

tryItOut 67
Compiling threw: SyntaxError: invalid default XML namespace

tryItOut 68
Compiling threw: SyntaxError: invalid for/in left-hand side

tryItOut 69
Compiling threw: SyntaxError: missing while after do-loop body

tryItOut 70
Compiling threw: SyntaxError: syntax error

tryItOut 71
Running threw: Error: invalid sharp variable use #1#

tryItOut 72
Compiling threw: SyntaxError: missing ) in parenthetical

tryItOut 73
Compiling threw: SyntaxError: missing ; after for-loop condition

tryItOut 74

tryItOut 75
before 87200, after 87200, break 01cff000

tryItOut 76
before 87200, after 87200, break 01cff000

tryItOut 77
Compiling threw: SyntaxError: unterminated regular expression literal

tryItOut 78
Compiling threw: SyntaxError: syntax error

tryItOut 79
Running threw: ReferenceError: __iterator__ is not defined

tryItOut 80
Compiling threw: SyntaxError: syntax error

tryItOut 81

tryItOut 82
Compiling threw: SyntaxError: syntax error

tryItOut 83
Compiling threw: SyntaxError: missing ; before statement

tryItOut 84

tryItOut 85
Compiling threw: SyntaxError: missing ; after for-loop initializer

tryItOut 86

tryItOut 87
It's an iterator!
Iterating succeeded, iterCount == 0

tryItOut 88
Running threw: [object global]

tryItOut 89

tryItOut 90
Compiling threw: SyntaxError: syntax error

tryItOut 91
Compiling threw: SyntaxError: missing { before function body

tryItOut 92
Compiling threw: SyntaxError: missing ; after for-loop initializer

tryItOut 93

tryItOut 94
Compiling threw: SyntaxError: syntax error

tryItOut 95
Compiling threw: SyntaxError: invalid for/in left-hand side

tryItOut 96
Compiling threw: SyntaxError: missing ) after argument list

tryItOut 97
Compiling threw: SyntaxError: syntax error

tryItOut 98
Compiling threw: SyntaxError: missing ) in parenthetical

tryItOut 99

tryItOut 100
Compiling threw: TypeError: redeclaration of const prototype

tryItOut 101
Compiling threw: SyntaxError: missing ; before statement

tryItOut 102

tryItOut 103
Compiling threw: SyntaxError: missing formal parameter

tryItOut 104
Compiling threw: SyntaxError: missing ; after for-loop initializer

tryItOut 105
Compiling threw: SyntaxError: missing } after property list

tryItOut 106

tryItOut 107

tryItOut 108

tryItOut 109
Compiling threw: SyntaxError: missing ; before statement

tryItOut 110
Compiling threw: SyntaxError: invalid for/in left-hand side

tryItOut 111
Compiling threw: SyntaxError: invalid assignment left-hand side

tryItOut 112

tryItOut 113

tryItOut 114
Compiling threw: SyntaxError: missing variable name

tryItOut 115
Compiling threw: SyntaxError: missing ; after for-loop initializer

tryItOut 116
Compiling threw: SyntaxError: syntax error

tryItOut 117

tryItOut 118

tryItOut 119
Compiling threw: SyntaxError: invalid for/in left-hand side

tryItOut 120

tryItOut 121
It's an iterator!
Iterating succeeded, iterCount == 1

tryItOut 122
Running threw: ReferenceError: z1 is not defined

tryItOut 123

tryItOut 124

tryItOut 125

tryItOut 126
Compiling threw: SyntaxError: missing ) in parenthetical

tryItOut 127
Compiling threw: SyntaxError: syntax error

tryItOut 128
Running threw: ReferenceError: reference to undefined XML name *

tryItOut 129
Compiling threw: SyntaxError: invalid assignment left-hand side

tryItOut 130
Compiling threw: SyntaxError: missing ; before statement

tryItOut 131

tryItOut 132
Compiling threw: TypeError: redeclaration of const prop

tryItOut 133
Compiling threw: SyntaxError: missing ) after condition

tryItOut 134
Running threw: ReferenceError: prototype is not defined

tryItOut 135
Compiling threw: SyntaxError: invalid for/in left-hand side

tryItOut 136
Compiling threw: SyntaxError: missing ; before statement

tryItOut 137
Compiling threw: SyntaxError: missing { before function body

tryItOut 138
It's an iterator!
Iterating succeeded, iterCount == 1

tryItOut 139
Compiling threw: TypeError: redeclaration of variable __count__

tryItOut 140

tryItOut 141
Compiling threw: SyntaxError: missing { before function body

tryItOut 142
Compiling threw: SyntaxError: missing ; after for-loop initializer

tryItOut 143
Compiling threw: SyntaxError: missing ; before statement

tryItOut 144
Compiling threw: SyntaxError: missing ) in parenthetical

tryItOut 145
before 104640, after 104640, break 01d1e000

tryItOut 146
Compiling threw: SyntaxError: missing ) in parenthetical

tryItOut 147

tryItOut 148
Running threw: ReferenceError: reference to undefined XML name *

tryItOut 149
Compiling threw: SyntaxError: missing ) after argument list

tryItOut 150
Compiling threw: SyntaxError: syntax error

tryItOut 151
Running threw: ReferenceError: prototype is not defined

tryItOut 152
Compiling threw: SyntaxError: missing ) in parenthetical

tryItOut 153
It's an iterator!
Iterating threw!
Iterating threw: ReferenceError: reference to undefined XML name *::*

tryItOut 154
Compiling threw: SyntaxError: syntax error

tryItOut 155
It's an iterator!
Iterating threw!
Iterating threw: ReferenceError: __noSuchMethod__ is not defined

tryItOut 156
Compiling threw: SyntaxError: invalid for/in left-hand side

tryItOut 157
It's an iterator!
Iterating threw!
Iterating threw: ReferenceError: window is not defined

tryItOut 158
Compiling threw: SyntaxError: missing { before function body

tryItOut 159

tryItOut 160

tryItOut 161
Compiling threw: SyntaxError: missing { before function body

tryItOut 162

tryItOut 163
It's an iterator!
Iterating threw!
Iterating threw: Infinity

tryItOut 164
Running threw: <x>
  <y/>
</x>

tryItOut 165
Compiling threw: SyntaxError: invalid assignment left-hand side

tryItOut 166

tryItOut 167
Running threw: function Object() {
    [native code]
}

tryItOut 168

tryItOut 169
Compiling threw: SyntaxError: invalid for/in left-hand side

tryItOut 170
before 104640, after 104640, break 01d1e000

tryItOut 171
It's an iterator!
Iterating succeeded, iterCount == 1

tryItOut 172
Compiling threw: SyntaxError: missing ) in parenthetical

tryItOut 173

tryItOut 174

tryItOut 175

tryItOut 176

tryItOut 177

tryItOut 178
Compiling threw: SyntaxError: missing variable name

tryItOut 179

tryItOut 180
Compiling threw: SyntaxError: syntax error

tryItOut 181
Compiling threw: SyntaxError: missing ; before statement

tryItOut 182
Compiling threw: SyntaxError: syntax error

tryItOut 183
Compiling threw: SyntaxError: missing ) in parenthetical

tryItOut 184
Compiling threw: SyntaxError: missing ; before statement

tryItOut 185
Compiling threw: SyntaxError: syntax error

tryItOut 186
It's an iterator!
Iterating threw!
Iterating threw: SyntaxError: invalid getter usage

tryItOut 187
Compiling threw: SyntaxError: missing = in destructuring declaration

tryItOut 188

tryItOut 189

tryItOut 190

tryItOut 191
Compiling threw: SyntaxError: invalid property id

tryItOut 192
Compiling threw: SyntaxError: syntax error

tryItOut 193
Running threw: ReferenceError: __noSuchMethod__ is not defined

tryItOut 194
Compiling threw: SyntaxError: invalid assignment left-hand side

tryItOut 195
It's an iterator!
Iterating threw!
Iterating threw: ReferenceError: prototype is not defined

tryItOut 196

tryItOut 197

tryItOut 198
Compiling threw: SyntaxError: missing ; before statement

tryItOut 199

tryItOut 200

tryItOut 201
Compiling threw: SyntaxError: syntax error

tryItOut 202
Compiling threw: SyntaxError: missing ; before statement

tryItOut 203
Running threw: ReferenceError: prototype is not defined

tryItOut 204
Compiling threw: SyntaxError: invalid property id

tryItOut 205
Compiling threw: SyntaxError: syntax error

tryItOut 206
Compiling threw: SyntaxError: missing ; before statement

tryItOut 207
Compiling threw: SyntaxError: missing ; before statement

tryItOut 208
Compiling threw: SyntaxError: missing } after property list

tryItOut 209
Compiling threw: SyntaxError: missing ; before statement

tryItOut 210

tryItOut 211
Running threw: /x/

tryItOut 212
Compiling threw: SyntaxError: syntax error

tryItOut 213

tryItOut 214
Running threw: ReferenceError: window is not defined

tryItOut 215
Compiling threw: SyntaxError: syntax error

tryItOut 216

tryItOut 217
Compiling threw: SyntaxError: missing formal parameter

tryItOut 218

tryItOut 219
Compiling threw: SyntaxError: missing ; before statement

tryItOut 220
Compiling threw: SyntaxError: invalid assignment left-hand side

tryItOut 221
It's an iterator!
Iterating succeeded, iterCount == 1

tryItOut 222
Compiling threw: SyntaxError: missing { before function body

tryItOut 223
Compiling threw: SyntaxError: missing ; before statement

tryItOut 224
Compiling threw: SyntaxError: syntax error

tryItOut 225
Running threw: 0

tryItOut 226

tryItOut 227
Compiling threw: SyntaxError: invalid assignment left-hand side

tryItOut 228
It's an iterator!
Iterating threw!
Iterating threw: TypeError: "".yoyo is not a function

tryItOut 229
Compiling threw: SyntaxError: invalid for/in left-hand side

tryItOut 230

tryItOut 231

tryItOut 232

tryItOut 233
Compiling threw: SyntaxError: invalid for/in left-hand side

tryItOut 234
Running threw: ReferenceError: reference to undefined XML name *

tryItOut 235
Compiling threw: SyntaxError: missing ) after for-loop control

tryItOut 236
Running threw: ReferenceError: __noSuchMethod__ is not defined

tryItOut 237

tryItOut 238
Compiling threw: SyntaxError: syntax error

tryItOut 239
It's an iterator!
Iterating threw!
Iterating threw: ReferenceError: reference to undefined XML name *

tryItOut 240
Compiling threw: SyntaxError: syntax error

tryItOut 241
Compiling threw: SyntaxError: missing ) in parenthetical

tryItOut 242
Compiling threw: SyntaxError: missing variable name

tryItOut 243

tryItOut 244

tryItOut 245

tryItOut 246
Compiling threw: SyntaxError: missing ; before statement

tryItOut 247
Compiling threw: SyntaxError: missing ; before statement

tryItOut 248

tryItOut 249
Compiling threw: SyntaxError: missing ; before statement

tryItOut 250

tryItOut 251
Running threw: TypeError: __parent__ has no properties

tryItOut 252
Compiling threw: SyntaxError: syntax error

tryItOut 253
Compiling threw: SyntaxError: invalid for/in left-hand side

tryItOut 254
Compiling threw: SyntaxError: syntax error

tryItOut 255

tryItOut 256
Compiling threw: SyntaxError: missing variable name

tryItOut 257
Compiling threw: SyntaxError: missing ; before statement

tryItOut 258

tryItOut 259
Compiling threw: SyntaxError: illegal XML character

tryItOut 260
Compiling threw: TypeError: redeclaration of const constructor

tryItOut 261

tryItOut 262
Compiling threw: SyntaxError: missing ) in parenthetical

tryItOut 263

tryItOut 264
Running threw: [object global]

tryItOut 265

tryItOut 266
It's an iterator!
Iterating succeeded, iterCount == 1

tryItOut 267
Compiling threw: SyntaxError: missing { before function body

tryItOut 268

tryItOut 269

tryItOut 270
Running threw: /x/

tryItOut 271
Compiling threw: SyntaxError: missing { before function body

tryItOut 272

tryItOut 273
Compiling threw: SyntaxError: missing { before function body

tryItOut 274

tryItOut 275
Running threw: ReferenceError: window is not defined

tryItOut 276
Compiling threw: SyntaxError: missing { before function body

tryItOut 277
Compiling threw: SyntaxError: invalid for/in left-hand side

tryItOut 278
Compiling threw: SyntaxError: invalid default XML namespace

tryItOut 279
Compiling threw: SyntaxError: invalid assignment left-hand side

tryItOut 280
Compiling threw: SyntaxError: missing ) after for-loop control

tryItOut 281
Compiling threw: SyntaxError: invalid for/in left-hand side

tryItOut 282
Compiling threw: SyntaxError: missing variable name

tryItOut 283

tryItOut 284
Compiling threw: SyntaxError: invalid assignment left-hand side

tryItOut 285

tryItOut 286

tryItOut 287
Compiling threw: SyntaxError: missing { before function body

tryItOut 288
Compiling threw: SyntaxError: syntax error

tryItOut 289

tryItOut 290
Compiling threw: SyntaxError: syntax error

tryItOut 291

tryItOut 292

tryItOut 293
Compiling threw: SyntaxError: missing ) after condition

tryItOut 294
Running threw: [object Object]

tryItOut 295
Compiling threw: SyntaxError: missing ; before statement

tryItOut 296
Compiling threw: SyntaxError: missing ) in parenthetical

tryItOut 297
Compiling threw: TypeError: redeclaration of const prop

tryItOut 298

tryItOut 299
Compiling threw: SyntaxError: missing { before function body

tryItOut 300
Compiling threw: SyntaxError: missing ) after argument list

tryItOut 301

tryItOut 302
It's an iterator!
Iterating succeeded, iterCount == 0

tryItOut 303

tryItOut 304

tryItOut 305
Running threw: ReferenceError: reference to undefined XML name @foo

tryItOut 306
Compiling threw: SyntaxError: missing ; before statement

tryItOut 307
Compiling threw: SyntaxError: missing { before function body

tryItOut 308
Running threw: [object StopIteration]

tryItOut 309

tryItOut 310

tryItOut 311

tryItOut 312
Running threw: <x>
  <y/>
</x>

tryItOut 313

tryItOut 314

tryItOut 315

tryItOut 316

tryItOut 317
Running threw: ReferenceError: window is not defined

tryItOut 318
Compiling threw: SyntaxError: missing ; before statement

tryItOut 319
Compiling threw: SyntaxError: invalid for/in left-hand side

tryItOut 320
Running threw: ReferenceError: window is not defined

tryItOut 321

tryItOut 322
Compiling threw: SyntaxError: missing ) after condition

tryItOut 323
Compiling threw: SyntaxError: syntax error

tryItOut 324
Compiling threw: SyntaxError: invalid assignment left-hand side

tryItOut 325

tryItOut 326
Compiling threw: SyntaxError: missing ; before statement

tryItOut 327

tryItOut 328
It's an iterator!
Iterating threw!
Iterating threw: ReferenceError: reference to undefined XML name *

tryItOut 329
Compiling threw: SyntaxError: invalid decrement operand

tryItOut 330
Compiling threw: SyntaxError: syntax error

tryItOut 331
It's an iterator!
Iterating threw!
Iterating threw: Error: invalid sharp variable use #1#

tryItOut 332

tryItOut 333
Running threw: -Infinity

tryItOut 334

tryItOut 335
Compiling threw: SyntaxError: invalid for/in left-hand side

tryItOut 336
Compiling threw: SyntaxError: missing ) in parenthetical

tryItOut 337
Compiling threw: SyntaxError: missing { before function body

tryItOut 338

tryItOut 339
Running threw: [object StopIteration]

tryItOut 340
Compiling threw: SyntaxError: missing ) after condition

tryItOut 341
Running threw: ReferenceError: reference to undefined XML name @foo

tryItOut 342
Compiling threw: SyntaxError: invalid sharp variable definition

tryItOut 343
Compiling threw: SyntaxError: invalid increment operand

tryItOut 344
Compiling threw: SyntaxError: missing ; before statement

tryItOut 345
Compiling threw: SyntaxError: missing { before function body

tryItOut 346
It's an iterator!
Iterating succeeded, iterCount == 1

tryItOut 347

tryItOut 348
Compiling threw: SyntaxError: syntax error

tryItOut 349
It's an iterator!
Iterating threw!
Iterating threw: ReferenceError: reference to undefined XML name *

tryItOut 350
It's an iterator!
Iterating succeeded, iterCount == 0

tryItOut 351

tryItOut 352
Compiling threw: SyntaxError: invalid for/in left-hand side

tryItOut 353
It's an iterator!
Iterating threw!
Iterating threw: ReferenceError: reference to undefined XML name *::*

tryItOut 354
Running threw: ReferenceError: reference to undefined XML name *

tryItOut 355

tryItOut 356
Compiling threw: SyntaxError: missing { before function body

tryItOut 357

tryItOut 358
Running threw: TypeError: invalid 'in' operand "fafafa".replace(/a/g, "haha".split)

tryItOut 359
Compiling threw: SyntaxError: syntax error

tryItOut 360
before 191840, after 191840, break 01dfb000

tryItOut 361
Running threw: TypeError: redeclaration of const __parent__

tryItOut 362
Running threw: ReferenceError: reference to undefined XML name *::*

tryItOut 363

tryItOut 364
Compiling threw: SyntaxError: syntax error

tryItOut 365
Compiling threw: SyntaxError: missing variable name

tryItOut 366
Compiling threw: SyntaxError: missing ) in parenthetical

tryItOut 367

tryItOut 368
Running threw: /x/g

tryItOut 369
Running threw: ReferenceError: z1 is not defined

tryItOut 370

tryItOut 371
Compiling threw: SyntaxError: missing variable name

tryItOut 372
Compiling threw: SyntaxError: syntax error

tryItOut 373
It's an iterator!
Iterating threw!
Iterating threw: ReferenceError: reference to undefined XML name *::*

tryItOut 374
Compiling threw: SyntaxError: missing { before function body

tryItOut 375
Compiling threw: SyntaxError: missing { before function body

tryItOut 376

tryItOut 377
It's an iterator!
Iterating threw!
Iterating threw: ReferenceError: reference to undefined XML name *

tryItOut 378
Compiling threw: SyntaxError: missing } after property list

tryItOut 379
before 191840, after 191840, break 01dfa000

tryItOut 380
before 191840, after 191840, break 01dfa000

tryItOut 381
It's an iterator!
before 191840, after 191840, break 01dfa000
Iterating succeeded, iterCount == 1

tryItOut 382

tryItOut 383
Compiling threw: SyntaxError: syntax error

tryItOut 384
before 191840, after 191840, break 01dfa000

tryItOut 385
Compiling threw: SyntaxError: invalid for/in left-hand side

tryItOut 386
It's an iterator!
Iterating succeeded, iterCount == 1

tryItOut 387
Compiling threw: SyntaxError: missing ) in parenthetical

tryItOut 388
Compiling threw: SyntaxError: syntax error

tryItOut 389
Compiling threw: SyntaxError: missing variable name

tryItOut 390
Compiling threw: SyntaxError: missing ; before statement

tryItOut 391
Compiling threw: SyntaxError: syntax error

tryItOut 392
Compiling threw: SyntaxError: invalid assignment left-hand side

tryItOut 393

tryItOut 394

tryItOut 395
Compiling threw: SyntaxError: invalid for/in left-hand side

tryItOut 396
Compiling threw: SyntaxError: missing ) in parenthetical

tryItOut 397
Compiling threw: SyntaxError: syntax error

tryItOut 398
Compiling threw: SyntaxError: missing { before function body

tryItOut 399
Running threw: NaN

tryItOut 400

tryItOut 401

tryItOut 402

tryItOut 403
Compiling threw: SyntaxError: invalid for/in left-hand side

tryItOut 404
Compiling threw: SyntaxError: missing ; before statement

tryItOut 405

tryItOut 406
Compiling threw: SyntaxError: missing ; before statement

tryItOut 407
Compiling threw: SyntaxError: missing ; before statement

tryItOut 408
Compiling threw: SyntaxError: missing variable name

tryItOut 409
before 191840, after 191840, break 01dfa000

tryItOut 410

tryItOut 411
Compiling threw: SyntaxError: invalid assignment left-hand side

tryItOut 412

tryItOut 413
before 191840, after 191840, break 01dfa000

tryItOut 414
Compiling threw: SyntaxError: missing { before function body

tryItOut 415
Compiling threw: SyntaxError: missing { before function body

tryItOut 416
It's an iterator!
Iterating threw!
Iterating threw: ReferenceError: reference to undefined XML name *

tryItOut 417
Compiling threw: SyntaxError: invalid assignment left-hand side

tryItOut 418
Compiling threw: SyntaxError: invalid for/in left-hand side

tryItOut 419

tryItOut 420

tryItOut 421
Running threw: ReferenceError: evalreturn is not defined

tryItOut 422

tryItOut 423
Compiling threw: SyntaxError: invalid for/in left-hand side

tryItOut 424

tryItOut 425
Compiling threw: SyntaxError: syntax error

tryItOut 426
Running threw: ReferenceError: prototype is not defined

tryItOut 427
It's an iterator!
Iterating threw!
Iterating threw: ReferenceError: reference to undefined XML name *

tryItOut 428
Compiling threw: SyntaxError: missing ) after condition

tryItOut 429
Compiling threw: SyntaxError: syntax error

tryItOut 430
Compiling threw: SyntaxError: invalid for/in left-hand side

tryItOut 431
Compiling threw: SyntaxError: missing ; before statement

tryItOut 432
Compiling threw: SyntaxError: missing variable name

tryItOut 433
Compiling threw: SyntaxError: missing variable name

tryItOut 434

tryItOut 435

tryItOut 436
Running threw: [object global]

tryItOut 437
Compiling threw: SyntaxError: missing variable name

tryItOut 438
Compiling threw: SyntaxError: syntax error

tryItOut 439

tryItOut 440

tryItOut 441

tryItOut 442

tryItOut 443

tryItOut 444
Compiling threw: SyntaxError: invalid for/in left-hand side

tryItOut 445

tryItOut 446
Compiling threw: SyntaxError: invalid for/in left-hand side

tryItOut 447
Compiling threw: SyntaxError: missing ) after let head

tryItOut 448
Running threw: ReferenceError: reference to undefined XML name @foo

tryItOut 449
Running threw: [object StopIteration]

tryItOut 450

tryItOut 451
Compiling threw: SyntaxError: syntax error

tryItOut 452
Compiling threw: SyntaxError: missing ; before statement

tryItOut 453

tryItOut 454
Compiling threw: SyntaxError: missing ) after condition

tryItOut 455
Compiling threw: SyntaxError: missing { before function body

tryItOut 456
Compiling threw: SyntaxError: missing while after do-loop body

tryItOut 457
before 191840, after 191840, break 01dfa000

tryItOut 458

tryItOut 459
It's an iterator!
Iterating threw!
Iterating threw: ReferenceError: window is not defined

tryItOut 460
Running threw: [object StopIteration]

tryItOut 461

tryItOut 462
Compiling threw: SyntaxError: missing ; before statement

tryItOut 463
Compiling threw: SyntaxError: invalid assignment left-hand side

tryItOut 464
Compiling threw: SyntaxError: syntax error

tryItOut 465
Compiling threw: SyntaxError: invalid for/in left-hand side

tryItOut 466
Compiling threw: SyntaxError: invalid for/in left-hand side

tryItOut 467
Compiling threw: SyntaxError: missing ; before statement

tryItOut 468

tryItOut 469

tryItOut 470
Compiling threw: SyntaxError: missing ) in parenthetical

tryItOut 471
Compiling threw: SyntaxError: missing ) in parenthetical

tryItOut 472
Running threw: Can't toString the error!!

tryItOut 473

tryItOut 474
It's an iterator!
before 191840, after 191840, break 01dfa000
Iterating succeeded, iterCount == 1

tryItOut 475
Compiling threw: SyntaxError: invalid for/in left-hand side

tryItOut 476
It's an iterator!
Iterating succeeded, iterCount == 1

tryItOut 477
Compiling threw: SyntaxError: syntax error

tryItOut 478

tryItOut 479

tryItOut 480
Compiling threw: SyntaxError: invalid for/in left-hand side

tryItOut 481

tryItOut 482

tryItOut 483

tryItOut 484

tryItOut 485
Compiling threw: SyntaxError: syntax error

tryItOut 486
Running threw: ReferenceError: window is not defined

tryItOut 487
It's an iterator!
Iterating succeeded, iterCount == 0

tryItOut 488
Compiling threw: SyntaxError: syntax error

tryItOut 489
Compiling threw: SyntaxError: invalid for/in left-hand side

tryItOut 490
It's an iterator!
Iterating succeeded, iterCount == 1

tryItOut 491

tryItOut 492

tryItOut 493
Running threw: TypeError: redeclaration of const __parent__

tryItOut 494
Compiling threw: SyntaxError: invalid for/in left-hand side

tryItOut 495
Compiling threw: SyntaxError: missing ) in parenthetical

tryItOut 496
It's an iterator!
Iterating succeeded, iterCount == 1

tryItOut 497
It's an iterator!
Iterating succeeded, iterCount == 0

tryItOut 498

tryItOut 499
It's an iterator!
Iterating succeeded, iterCount == 0

tryItOut 500
Compiling threw: SyntaxError: missing ; after for-loop initializer

tryItOut 501
Compiling threw: SyntaxError: missing ; before statement

tryItOut 502
Compiling threw: SyntaxError: missing ) in parenthetical

tryItOut 503

tryItOut 504
Compiling threw: SyntaxError: syntax error

tryItOut 505

tryItOut 506

tryItOut 507
Running threw: ReferenceError: reference to undefined XML name @foo

tryItOut 508
Compiling threw: SyntaxError: missing variable name

tryItOut 509
Compiling threw: SyntaxError: syntax error

tryItOut 510
Compiling threw: SyntaxError: syntax error

tryItOut 511

tryItOut 512
Running threw: TypeError: redeclaration of const __parent__

tryItOut 513
Compiling threw: SyntaxError: invalid for/in left-hand side

tryItOut 514
It's an iterator!
Iterating succeeded, iterCount == 1

tryItOut 515
It's an iterator!
Iterating threw!
Iterating threw: ReferenceError: reference to undefined XML name @foo

tryItOut 516

tryItOut 517
Compiling threw: SyntaxError: missing ) in parenthetical

tryItOut 518
Compiling threw: SyntaxError: missing ; before statement

tryItOut 519
Compiling threw: SyntaxError: invalid assignment left-hand side

tryItOut 520
Compiling threw: SyntaxError: invalid assignment left-hand side

tryItOut 521
Compiling threw: SyntaxError: missing { before function body

tryItOut 522
Compiling threw: SyntaxError: missing formal parameter

tryItOut 523
Compiling threw: SyntaxError: illegal XML character

tryItOut 524

tryItOut 525

tryItOut 526

tryItOut 527

tryItOut 528
Compiling threw: SyntaxError: syntax error

tryItOut 529
Compiling threw: SyntaxError: missing while after do-loop body

tryItOut 530
Compiling threw: SyntaxError: illegal XML character

tryItOut 531
It's an iterator!
Iterating succeeded, iterCount == 1

tryItOut 532
Compiling threw: SyntaxError: missing ; before statement

tryItOut 533

tryItOut 534
Compiling threw: SyntaxError: invalid for/in left-hand side

tryItOut 535
Compiling threw: SyntaxError: missing ) in parenthetical

tryItOut 536
Compiling threw: SyntaxError: invalid decrement operand

tryItOut 537
before 191840, after 191840, break 01dfa000

tryItOut 538
Compiling threw: SyntaxError: syntax error

tryItOut 539
It's an iterator!
Iterating succeeded, iterCount == 1

tryItOut 540
It's an iterator!
Iterating succeeded, iterCount == 1

tryItOut 541
Compiling threw: SyntaxError: missing ; after for-loop initializer

tryItOut 542
Compiling threw: SyntaxError: missing : after property id

tryItOut 543

tryItOut 544

tryItOut 545

tryItOut 546
Compiling threw: SyntaxError: missing { before function body

tryItOut 547
It's an iterator!
Iterating succeeded, iterCount == 1

tryItOut 548
Compiling threw: SyntaxError: missing while after do-loop body

tryItOut 549

tryItOut 550
Compiling threw: SyntaxError: syntax error

tryItOut 551
Compiling threw: SyntaxError: invalid for/in left-hand side

tryItOut 552
Compiling threw: SyntaxError: missing ) after condition

tryItOut 553
Compiling threw: SyntaxError: missing ; before statement

tryItOut 554

tryItOut 555

tryItOut 556
Running threw: /x/g

tryItOut 557
Running threw: ReferenceError: yyy is not defined

tryItOut 558
Compiling threw: SyntaxError: missing ( before let head

tryItOut 559
Compiling threw: SyntaxError: missing ; before statement

tryItOut 560
before 191840, after 191840, break 01dfa000

tryItOut 561

tryItOut 562
Compiling threw: SyntaxError: missing ; before statement

tryItOut 563

tryItOut 564
Compiling threw: SyntaxError: invalid for/in left-hand side

tryItOut 565

tryItOut 566

tryItOut 567
Compiling threw: SyntaxError: syntax error

tryItOut 568
Compiling threw: SyntaxError: missing ) in parenthetical

tryItOut 569

tryItOut 570

tryItOut 571
Compiling threw: SyntaxError: missing variable name

tryItOut 572
Running threw: ReferenceError: prop is not defined

tryItOut 573
Compiling threw: SyntaxError: syntax error

tryItOut 574
Compiling threw: SyntaxError: invalid for/in left-hand side

tryItOut 575

tryItOut 576
before 191840, after 191840, break 01dfa000

tryItOut 577

tryItOut 578
Compiling threw: SyntaxError: missing : after property id

tryItOut 579
Compiling threw: SyntaxError: missing ; before statement

tryItOut 580
It's an iterator!
Iterating threw!
Iterating threw: ReferenceError: reference to undefined XML name *

tryItOut 581

tryItOut 582
Compiling threw: SyntaxError: missing ; before statement

tryItOut 583
Compiling threw: SyntaxError: syntax error

tryItOut 584
before 191840, after 191840, break 01dfa000

tryItOut 585

tryItOut 586

tryItOut 587
Compiling threw: SyntaxError: invalid default XML namespace

tryItOut 588
Compiling threw: SyntaxError: invalid for/in left-hand side

tryItOut 589
Compiling threw: SyntaxError: missing ; before statement

tryItOut 590

tryItOut 591
It's an iterator!
Iterating threw!
Iterating threw: ,

tryItOut 592

tryItOut 593
Running threw: ReferenceError: reference to undefined XML name @foo

tryItOut 594
It's an iterator!
Iterating threw!
Iterating threw: ReferenceError: z1 is not defined

tryItOut 595

tryItOut 596
Compiling threw: SyntaxError: missing ; before statement

tryItOut 597

tryItOut 598

tryItOut 599
Running threw: ReferenceError: __noSuchMethod__ is not defined

tryItOut 600
Compiling threw: SyntaxError: missing ; before statement

tryItOut 601
Compiling threw: SyntaxError: invalid increment operand

tryItOut 602
Compiling threw: SyntaxError: syntax error

tryItOut 603

tryItOut 604

tryItOut 605
Compiling threw: SyntaxError: missing ; before statement

tryItOut 606

tryItOut 607
Compiling threw: SyntaxError: missing ; before statement

tryItOut 608
Compiling threw: SyntaxError: missing while after do-loop body

tryItOut 609
Compiling threw: SyntaxError: invalid for/in left-hand side

tryItOut 610
Running threw: 5

tryItOut 611

tryItOut 612

tryItOut 613
Compiling threw: SyntaxError: missing ; before statement

tryItOut 614

tryItOut 615
Compiling threw: SyntaxError: missing ; before statement

tryItOut 616
Running threw: ReferenceError: prop is not defined

tryItOut 617
Compiling threw: SyntaxError: missing ; before statement

tryItOut 618
Compiling threw: SyntaxError: invalid for/in left-hand side

tryItOut 619
Compiling threw: SyntaxError: syntax error

tryItOut 620
Compiling threw: SyntaxError: syntax error

tryItOut 621
Compiling threw: SyntaxError: missing { before function body

tryItOut 622
Compiling threw: SyntaxError: invalid assignment left-hand side

tryItOut 623

tryItOut 624
It's an iterator!
Iterating threw!
Iterating threw: ReferenceError: reference to undefined XML name @foo

tryItOut 625
Compiling threw: SyntaxError: missing { before function body

tryItOut 626
It's an iterator!
Iterating succeeded, iterCount == 0

tryItOut 627

tryItOut 628

tryItOut 629

tryItOut 630

tryItOut 631
Compiling threw: SyntaxError: syntax error

tryItOut 632
Compiling threw: SyntaxError: missing ) in parenthetical

tryItOut 633

tryItOut 634
Compiling threw: SyntaxError: missing ( before let head

tryItOut 635

tryItOut 636

tryItOut 637

tryItOut 638
Compiling threw: SyntaxError: syntax error

tryItOut 639
Running threw: TypeError: Function.prototype.toString called on incompatible object

tryItOut 640

tryItOut 641
Compiling threw: SyntaxError: syntax error

tryItOut 642

tryItOut 643
Compiling threw: SyntaxError: missing { before function body

tryItOut 644
Running threw: ReferenceError: z1 is not defined

tryItOut 645
It's an iterator!
Iterating threw!
Iterating threw: ReferenceError: reference to undefined XML name @foo

tryItOut 646

tryItOut 647
Compiling threw: SyntaxError: syntax error

tryItOut 648

tryItOut 649
Compiling threw: SyntaxError: invalid for/in left-hand side

tryItOut 650
It's an iterator!
Iterating succeeded, iterCount == 0

tryItOut 651
Compiling threw: SyntaxError: missing : after property id

tryItOut 652

tryItOut 653

tryItOut 654
Compiling threw: SyntaxError: missing ; before statement

tryItOut 655
Compiling threw: SyntaxError: missing ; before statement

tryItOut 656

tryItOut 657
Compiling threw: SyntaxError: duplicate label

tryItOut 658
It's an iterator!
Iterating threw!
Iterating threw: ReferenceError: window is not defined

tryItOut 659

tryItOut 660
Compiling threw: SyntaxError: missing ) in parenthetical

tryItOut 661
Compiling threw: SyntaxError: missing ) in parenthetical

tryItOut 662

tryItOut 663
Compiling threw: SyntaxError: missing { before function body

tryItOut 664

tryItOut 665
Compiling threw: SyntaxError: missing variable name

tryItOut 666
Compiling threw: SyntaxError: syntax error

tryItOut 667
Compiling threw: SyntaxError: missing ) after condition

tryItOut 668

tryItOut 669
Compiling threw: SyntaxError: missing while after do-loop body

tryItOut 670
It's an iterator!
Iterating threw!
Iterating threw: ReferenceError: window is not defined

tryItOut 671

tryItOut 672

tryItOut 673

tryItOut 674
It's an iterator!
Iterating threw!
Iterating threw: ReferenceError: z2 is not defined

tryItOut 675
Compiling threw: SyntaxError: syntax error

tryItOut 676
Compiling threw: SyntaxError: missing ; after for-loop condition

tryItOut 677
Compiling threw: SyntaxError: missing : after property id

tryItOut 678
Compiling threw: SyntaxError: invalid for/in left-hand side

tryItOut 679
Compiling threw: SyntaxError: invalid property id

tryItOut 680
Compiling threw: SyntaxError: missing { before function body

tryItOut 681
Compiling threw: SyntaxError: missing ( before formal parameters

tryItOut 682
Compiling threw: SyntaxError: missing variable name

tryItOut 683
Compiling threw: SyntaxError: missing { before function body

tryItOut 684
Compiling threw: SyntaxError: missing : after property id

tryItOut 685

tryItOut 686

tryItOut 687
Compiling threw: SyntaxError: syntax error

tryItOut 688

tryItOut 689
Compiling threw: SyntaxError: missing ; before statement

tryItOut 690

tryItOut 691

tryItOut 692
Compiling threw: SyntaxError: missing ; after for-loop initializer

tryItOut 693
Compiling threw: SyntaxError: syntax error

tryItOut 694

tryItOut 695
Compiling threw: SyntaxError: syntax error

tryItOut 696
Compiling threw: SyntaxError: invalid XML tag syntax

tryItOut 697
before 191840, after 191840, break 01e10000

tryItOut 698
It's an iterator!
Iterating succeeded, iterCount == 1

tryItOut 699

tryItOut 700

tryItOut 701
Compiling threw: SyntaxError: missing ) in parenthetical

tryItOut 702

tryItOut 703
It's an iterator!
Iterating succeeded, iterCount == 0

tryItOut 704
Compiling threw: SyntaxError: invalid for/in left-hand side

tryItOut 705
Compiling threw: SyntaxError: missing variable name

tryItOut 706
Compiling threw: SyntaxError: syntax error

tryItOut 707
Running threw: /x/g

tryItOut 708

tryItOut 709

tryItOut 710
Compiling threw: SyntaxError: missing ) in parenthetical

tryItOut 711

tryItOut 712
Compiling threw: SyntaxError: missing ; before statement

tryItOut 713
Compiling threw: SyntaxError: syntax error

tryItOut 714
Running threw: ReferenceError: reference to undefined XML name *

tryItOut 715
It's an iterator!
Iterating threw!
Iterating threw: ReferenceError: reference to undefined XML name *::*

tryItOut 716
Compiling threw: SyntaxError: invalid for/in left-hand side

tryItOut 717

tryItOut 718
Running threw: ReferenceError: prototype is not defined

tryItOut 719

tryItOut 720
Compiling threw: SyntaxError: syntax error

tryItOut 721
Compiling threw: SyntaxError: missing ; before statement

tryItOut 722
before 191840, after 191840, break 01e10000

tryItOut 723
Compiling threw: SyntaxError: invalid for/in left-hand side

tryItOut 724
Compiling threw: SyntaxError: invalid for/in left-hand side

tryItOut 725
Compiling threw: SyntaxError: syntax error

tryItOut 726
Compiling threw: SyntaxError: illegal XML character

tryItOut 727
Compiling threw: SyntaxError: missing ; after for-loop initializer

tryItOut 728
Compiling threw: SyntaxError: syntax error

tryItOut 729
Compiling threw: SyntaxError: missing ) after argument list

tryItOut 730
Compiling threw: SyntaxError: syntax error

tryItOut 731
Compiling threw: SyntaxError: syntax error

tryItOut 732
Compiling threw: SyntaxError: missing { before function body

tryItOut 733
Compiling threw: SyntaxError: missing ) in parenthetical

tryItOut 734
Compiling threw: SyntaxError: missing { before function body

tryItOut 735
Compiling threw: SyntaxError: missing ) after condition

tryItOut 736

tryItOut 737
Compiling threw: SyntaxError: missing ; before statement

tryItOut 738

tryItOut 739

tryItOut 740
Compiling threw: SyntaxError: invalid for/in left-hand side

tryItOut 741
before 191840, after 191840, break 01e10000
before 191840, after 191840, break 01e10000

tryItOut 742

tryItOut 743
Compiling threw: SyntaxError: missing variable name

tryItOut 744
Running threw: /x/g

tryItOut 745
Running threw: ReferenceError: prop is not defined

tryItOut 746

tryItOut 747
Compiling threw: SyntaxError: missing ; after for-loop initializer

tryItOut 748
Compiling threw: SyntaxError: missing ) in parenthetical

tryItOut 749

tryItOut 750
Compiling threw: SyntaxError: illegal XML character

tryItOut 751
Compiling threw: SyntaxError: invalid for/in left-hand side

tryItOut 752
Compiling threw: SyntaxError: missing ; before statement

tryItOut 753
It's an iterator!
Iterating threw!
Iterating threw: ReferenceError: reference to undefined property "window"

tryItOut 754
Compiling threw: SyntaxError: missing ; before statement

tryItOut 755

tryItOut 756
Compiling threw: SyntaxError: syntax error

tryItOut 757

tryItOut 758
Running threw: [object Object]

tryItOut 759
Compiling threw: SyntaxError: missing ; before statement

tryItOut 760
It's an iterator!
Iterating threw!
Iterating threw: TypeError: undefined has no properties

tryItOut 761
Compiling threw: SyntaxError: missing ; before statement

tryItOut 762
Compiling threw: TypeError: redeclaration of const prototype

tryItOut 763

tryItOut 764
Compiling threw: SyntaxError: missing ; before statement

tryItOut 765
Compiling threw: SyntaxError: missing ; before statement

tryItOut 766
Compiling threw: SyntaxError: missing formal parameter

tryItOut 767
Compiling threw: SyntaxError: invalid increment operand

tryItOut 768
It's an iterator!
Iterating succeeded, iterCount == 1

tryItOut 769

tryItOut 770
Compiling threw: SyntaxError: syntax error

tryItOut 771
Running threw: TypeError: /x/g.__lookupSetter__("constructor") has no properties

tryItOut 772
Compiling threw: SyntaxError: missing ; after for-loop initializer

tryItOut 773
Compiling threw: SyntaxError: missing ; before statement

tryItOut 774
Compiling threw: SyntaxError: syntax error

tryItOut 775

tryItOut 776
Compiling threw: SyntaxError: missing variable name

tryItOut 777
Compiling threw: SyntaxError: missing ) in parenthetical

tryItOut 778

tryItOut 779
Compiling threw: SyntaxError: invalid for/in left-hand side

tryItOut 780

tryItOut 781
Compiling threw: SyntaxError: missing ) in parenthetical

tryItOut 782

tryItOut 783
Compiling threw: SyntaxError: missing ) in parenthetical

tryItOut 784

tryItOut 785
Compiling threw: SyntaxError: missing ; before statement

tryItOut 786
Running threw: [object Object]

tryItOut 787
Compiling threw: SyntaxError: invalid for/in left-hand side

tryItOut 788
Compiling threw: SyntaxError: missing variable name

tryItOut 789
Compiling threw: SyntaxError: missing ) after condition

tryItOut 790
Compiling threw: SyntaxError: illegal XML character

tryItOut 791
It's an iterator!
Iterating threw!
Iterating threw: ReferenceError: reference to undefined property "prop"

tryItOut 792
Compiling threw: SyntaxError: missing ; before statement

tryItOut 793

tryItOut 794
Compiling threw: SyntaxError: duplicate label

tryItOut 795
Compiling threw: SyntaxError: missing variable name

tryItOut 796

tryItOut 797

tryItOut 798

tryItOut 799
Running threw: ReferenceError: prototype is not defined

tryItOut 800
It's an iterator!
Iterating succeeded, iterCount == 1

tryItOut 801

tryItOut 802
Compiling threw: SyntaxError: syntax error

tryItOut 803
Compiling threw: SyntaxError: invalid for/in left-hand side

tryItOut 804
Running threw: [object StopIteration]

tryItOut 805
Compiling threw: SyntaxError: syntax error

tryItOut 806
Compiling threw: SyntaxError: syntax error

tryItOut 807

tryItOut 808
Compiling threw: SyntaxError: invalid increment operand

tryItOut 809
Compiling threw: SyntaxError: syntax error

tryItOut 810
Compiling threw: SyntaxError: missing ) in parenthetical

tryItOut 811
It's an iterator!
Iterating threw!
Iterating threw: ReferenceError: reference to undefined XML name *::*

tryItOut 812
Compiling threw: SyntaxError: syntax error

tryItOut 813
Compiling threw: TypeError: redeclaration of const prop

tryItOut 814

tryItOut 815
It's an iterator!
Iterating threw!
Iterating threw: ReferenceError: reference to undefined XML name *::*

tryItOut 816

tryItOut 817

tryItOut 818
before 191840, after 191840, break 01e10000

tryItOut 819
Compiling threw: SyntaxError: syntax error

tryItOut 820
Running threw: ReferenceError: reference to undefined XML name *

tryItOut 821
It's an iterator!
before 191840, after 191840, break 01e10000
Iterating succeeded, iterCount == 1

tryItOut 822
Compiling threw: SyntaxError: missing ; before statement

tryItOut 823
Compiling threw: SyntaxError: syntax error

tryItOut 824

tryItOut 825
Compiling threw: SyntaxError: missing while after do-loop body

tryItOut 826
Compiling threw: SyntaxError: missing variable name

tryItOut 827

tryItOut 828
Compiling threw: SyntaxError: invalid assignment left-hand side

tryItOut 829
Running threw: SyntaxError: invalid setter usage

tryItOut 830
Compiling threw: SyntaxError: missing ; before statement

tryItOut 831
Compiling threw: SyntaxError: missing variable name

tryItOut 832
Compiling threw: SyntaxError: missing ) in parenthetical

tryItOut 833
Compiling threw: SyntaxError: syntax error

tryItOut 834
It's an iterator!
Iterating threw!
Iterating threw: ReferenceError: z1 is not defined

tryItOut 835
before 191840, after 191840, break 01e10000

tryItOut 836
Compiling threw: SyntaxError: missing ; after for-loop initializer

tryItOut 837

tryItOut 838

tryItOut 839

tryItOut 840
Compiling threw: SyntaxError: missing ) in parenthetical

tryItOut 841

tryItOut 842
Running threw: ReferenceError: reference to undefined XML name *

tryItOut 843

tryItOut 844
Compiling threw: SyntaxError: missing { before function body

tryItOut 845

tryItOut 846
Compiling threw: SyntaxError: missing ) in parenthetical

tryItOut 847
Compiling threw: SyntaxError: invalid for/in left-hand side

tryItOut 848
Compiling threw: SyntaxError: missing ; before statement

tryItOut 849
Compiling threw: SyntaxError: missing ( before let head

tryItOut 850
Compiling threw: SyntaxError: missing while after do-loop body

tryItOut 851
Compiling threw: SyntaxError: syntax error

tryItOut 852

tryItOut 853
Compiling threw: SyntaxError: syntax error

tryItOut 854

tryItOut 855
Compiling threw: SyntaxError: syntax error

tryItOut 856
It's an iterator!
Iterating threw!
Iterating threw: ReferenceError: window is not defined

tryItOut 857
Compiling threw: SyntaxError: invalid destructuring assignment operator

tryItOut 858

tryItOut 859
Compiling threw: SyntaxError: syntax error

tryItOut 860
It's an iterator!
Iterating threw!
Iterating threw: [object global]

tryItOut 861

tryItOut 862
Compiling threw: SyntaxError: missing ; before statement

tryItOut 863
before 191840, after 191840, break 01e10000
Running threw: ReferenceError: reference to undefined XML name *::*

tryItOut 864
Compiling threw: SyntaxError: missing ; before statement

tryItOut 865
Compiling threw: SyntaxError: invalid assignment left-hand side

tryItOut 866
Compiling threw: SyntaxError: missing ; before statement

tryItOut 867
before 191840, after 191840, break 01e10000

tryItOut 868
Compiling threw: SyntaxError: missing variable name

tryItOut 869
It's an iterator!
Iterating threw!
Iterating threw: ReferenceError: reference to undefined XML name @foo

tryItOut 870

tryItOut 871
Compiling threw: SyntaxError: missing { before function body

tryItOut 872
Compiling threw: SyntaxError: invalid for/in left-hand side

tryItOut 873

tryItOut 874
Compiling threw: SyntaxError: missing ) after condition

tryItOut 875
Compiling threw: SyntaxError: missing ; before statement

tryItOut 876

tryItOut 877
Compiling threw: SyntaxError: invalid for/in left-hand side

tryItOut 878

tryItOut 879
Compiling threw: SyntaxError: invalid for/in left-hand side

tryItOut 880
Running threw: TypeError: (function (id) {return id;}).propertyIsEnumerable("constructor") is not a function

tryItOut 881
Compiling threw: SyntaxError: syntax error

tryItOut 882

tryItOut 883

tryItOut 884

tryItOut 885

tryItOut 886
before 191840, after 191840, break 01e10000

tryItOut 887
Compiling threw: SyntaxError: syntax error

tryItOut 888
Compiling threw: SyntaxError: missing ; before statement

tryItOut 889
It's an iterator!
Iterating succeeded, iterCount == 1

tryItOut 890
Compiling threw: SyntaxError: missing ) in parenthetical

tryItOut 891
Compiling threw: SyntaxError: missing variable name

tryItOut 892

tryItOut 893
Compiling threw: SyntaxError: missing ) in parenthetical

tryItOut 894
Compiling threw: SyntaxError: syntax error

tryItOut 895

tryItOut 896

tryItOut 897
Compiling threw: SyntaxError: missing variable name

tryItOut 898
Compiling threw: SyntaxError: missing ) after formal parameters

tryItOut 899
Compiling threw: SyntaxError: missing ) in parenthetical

tryItOut 900

tryItOut 901
Compiling threw: SyntaxError: missing ; before statement

tryItOut 902
It's an iterator!
before 191840, after 191840, break 01e10000
Iterating succeeded, iterCount == 1

tryItOut 903

tryItOut 904
Compiling threw: SyntaxError: missing ; before statement

tryItOut 905

tryItOut 906
Compiling threw: SyntaxError: missing { before function body

tryItOut 907
Compiling threw: SyntaxError: missing ; before statement

tryItOut 908

tryItOut 909
Compiling threw: SyntaxError: missing variable name

tryItOut 910
It's an iterator!
Iterating succeeded, iterCount == 2

tryItOut 911
Compiling threw: SyntaxError: syntax error

tryItOut 912

tryItOut 913
Compiling threw: SyntaxError: illegal XML character

tryItOut 914
Compiling threw: SyntaxError: missing variable name

tryItOut 915
Compiling threw: SyntaxError: syntax error

tryItOut 916
Compiling threw: SyntaxError: missing while after do-loop body

tryItOut 917

tryItOut 918

tryItOut 919

tryItOut 920
Compiling threw: SyntaxError: syntax error

tryItOut 921
Compiling threw: SyntaxError: syntax error

tryItOut 922
Compiling threw: SyntaxError: invalid for/in left-hand side

tryItOut 923
Compiling threw: SyntaxError: missing ; after for-loop initializer

tryItOut 924
Running threw: TypeError: redeclaration of var __proto__

tryItOut 925
It's an iterator!
Iterating threw!
Iterating threw: TypeError: redeclaration of var __count__

tryItOut 926
Compiling threw: SyntaxError: syntax error

tryItOut 927
Compiling threw: SyntaxError: syntax error

tryItOut 928
Compiling threw: SyntaxError: syntax error

tryItOut 929
Compiling threw: SyntaxError: missing ; after for-loop initializer

tryItOut 930
Compiling threw: SyntaxError: invalid for/in left-hand side

tryItOut 931

tryItOut 932

tryItOut 933
It's an iterator!
Iterating threw!
Iterating threw: ReferenceError: reference to undefined XML name *::*

tryItOut 934

tryItOut 935
Running threw: ReferenceError: reference to undefined XML name *

tryItOut 936
Compiling threw: SyntaxError: missing { before function body

tryItOut 937
Running threw: /x/g

tryItOut 938
Compiling threw: SyntaxError: missing ) in parenthetical

tryItOut 939

tryItOut 940
Compiling threw: SyntaxError: syntax error

tryItOut 941

tryItOut 942
Compiling threw: SyntaxError: syntax error

tryItOut 943
Compiling threw: SyntaxError: missing ) in parenthetical

tryItOut 944
Compiling threw: SyntaxError: syntax error

tryItOut 945

tryItOut 946

tryItOut 947

tryItOut 948
Compiling threw: SyntaxError: missing ; before statement

tryItOut 949

tryItOut 950
Running threw: ReferenceError: reference to undefined XML name *::*

tryItOut 951

tryItOut 952

tryItOut 953
It's an iterator!
Iterating succeeded, iterCount == 1

tryItOut 954

tryItOut 955

tryItOut 956
Running threw: ReferenceError: window is not defined

tryItOut 957
before 191840, after 191840, break 01e25000
before 191840, after 191840, break 01e25000

tryItOut 958

tryItOut 959
Compiling threw: SyntaxError: missing ; before statement

tryItOut 960

tryItOut 961
Compiling threw: SyntaxError: syntax error

tryItOut 962
Compiling threw: SyntaxError: syntax error

tryItOut 963
Compiling threw: SyntaxError: missing variable name

tryItOut 964
Compiling threw: SyntaxError: invalid assignment left-hand side

tryItOut 965

tryItOut 966
It's an iterator!
Iterating threw!
Iterating threw: ReferenceError: reference to undefined XML name *

tryItOut 967

tryItOut 968
Running threw: <x>
  <y/>
</x>

tryItOut 969
Compiling threw: SyntaxError: missing { before function body

tryItOut 970
Compiling threw: SyntaxError: syntax error

tryItOut 971

tryItOut 972
Compiling threw: SyntaxError: syntax error

tryItOut 973

tryItOut 974

tryItOut 975
Compiling threw: SyntaxError: invalid for/in left-hand side

tryItOut 976

tryItOut 977
Running threw: ReferenceError: reference to undefined XML name *

tryItOut 978

tryItOut 979
It's an iterator!
Iterating succeeded, iterCount == 2

tryItOut 980
Compiling threw: SyntaxError: missing ; before statement

tryItOut 981

tryItOut 982

tryItOut 983
Compiling threw: SyntaxError: missing ; after for-loop initializer

tryItOut 984
Compiling threw: SyntaxError: missing ; before statement

tryItOut 985
Compiling threw: SyntaxError: missing ; before statement

tryItOut 986
Compiling threw: SyntaxError: invalid decrement operand

tryItOut 987
Compiling threw: SyntaxError: syntax error

tryItOut 988

tryItOut 989
Compiling threw: SyntaxError: missing } after property list

tryItOut 990
Compiling threw: SyntaxError: missing ; before statement

tryItOut 991
Compiling threw: SyntaxError: missing variable name

tryItOut 992
Compiling threw: SyntaxError: missing { before function body

tryItOut 993
Compiling threw: SyntaxError: invalid for/in left-hand side

tryItOut 994
Compiling threw: SyntaxError: invalid for/in left-hand side

tryItOut 995
Compiling threw: SyntaxError: missing ) after condition

tryItOut 996
Running threw: ReferenceError: window is not defined

tryItOut 997
It's an iterator!
Iterating succeeded, iterCount == 1

tryItOut 998

tryItOut 999
Compiling threw: SyntaxError: missing variable name

tryItOut 1000
Compiling threw: SyntaxError: invalid increment operand

ALL OK

Script done on Sat 04 May 2013 07:54:24 AM PDT
