Script started on Sat 04 May 2013 07:56:18 AM PDT
***
Targeting SpiderMonkey / Gecko.

tryItOut 1
Compiling threw: TypeError: redeclaration of variable __noSuchMethod__

tryItOut 2
Compiling threw: SyntaxError: missing { before function body

tryItOut 3

tryItOut 4

tryItOut 5
Running threw: ReferenceError: reference to undefined XML name @foo

tryItOut 6
It's an iterator!
Iterating succeeded, iterCount == 1

tryItOut 7
Compiling threw: SyntaxError: missing { before function body

tryItOut 8

tryItOut 9
Compiling threw: SyntaxError: invalid for/in left-hand side

tryItOut 10
Compiling threw: SyntaxError: missing { before function body

tryItOut 11
Compiling threw: SyntaxError: invalid for/in left-hand side

tryItOut 12
Compiling threw: SyntaxError: invalid assignment left-hand side

tryItOut 13
Compiling threw: SyntaxError: missing name after . operator

tryItOut 14

tryItOut 15
Compiling threw: SyntaxError: missing variable name

tryItOut 16
Running threw: ReferenceError: reference to undefined XML name @foo

tryItOut 17

tryItOut 18

tryItOut 19
Compiling threw: SyntaxError: syntax error

tryItOut 20

tryItOut 21
Compiling threw: SyntaxError: syntax error

tryItOut 22

tryItOut 23
Compiling threw: SyntaxError: missing formal parameter

tryItOut 24
Compiling threw: SyntaxError: invalid XML tag syntax

tryItOut 25
Compiling threw: SyntaxError: syntax error

tryItOut 26

tryItOut 27

tryItOut 28

tryItOut 29

tryItOut 30
Compiling threw: SyntaxError: invalid default XML namespace

tryItOut 31
Compiling threw: SyntaxError: missing ) in parenthetical

tryItOut 32
Compiling threw: SyntaxError: missing ; before statement

tryItOut 33

tryItOut 34
Compiling threw: SyntaxError: syntax error

tryItOut 35
Running threw: TypeError: this.zzz has no properties

tryItOut 36
Compiling threw: SyntaxError: invalid for/in left-hand side

tryItOut 37

tryItOut 38
Compiling threw: SyntaxError: missing ; after for-loop initializer

tryItOut 39

tryItOut 40
Compiling threw: SyntaxError: invalid sharp variable definition

tryItOut 41
Running threw: ReferenceError: reference to undefined XML name @foo

tryItOut 42

tryItOut 43

tryItOut 44

tryItOut 45
Compiling threw: SyntaxError: invalid for/in left-hand side

tryItOut 46

tryItOut 47
Compiling threw: SyntaxError: missing { before function body

tryItOut 48
Compiling threw: SyntaxError: missing ) in parenthetical

tryItOut 49
Compiling threw: SyntaxError: missing { before function body

tryItOut 50
Compiling threw: SyntaxError: invalid assignment left-hand side

tryItOut 51
Compiling threw: SyntaxError: syntax error

tryItOut 52
Compiling threw: SyntaxError: invalid assignment left-hand side

tryItOut 53
It's an iterator!
Iterating succeeded, iterCount == 0

tryItOut 54
Compiling threw: SyntaxError: syntax error

tryItOut 55
Compiling threw: SyntaxError: syntax error

tryItOut 56

tryItOut 57
Running threw: TypeError: this.zzz has no properties

tryItOut 58

tryItOut 59
Compiling threw: SyntaxError: syntax error

tryItOut 60
Compiling threw: SyntaxError: missing ) after argument list

tryItOut 61

tryItOut 62

tryItOut 63
Compiling threw: SyntaxError: missing ) after condition

tryItOut 64
It's an iterator!
Iterating threw!
Iterating threw: ReferenceError: reference to undefined XML name @foo

tryItOut 65

tryItOut 66
Compiling threw: SyntaxError: syntax error

tryItOut 67
Compiling threw: SyntaxError: missing variable name

tryItOut 68
Compiling threw: SyntaxError: missing : after property id

tryItOut 69
Compiling threw: SyntaxError: missing ; after for-loop initializer

tryItOut 70
Compiling threw: SyntaxError: missing variable name

tryItOut 71

tryItOut 72
Running threw: ReferenceError: window is not defined

tryItOut 73
Running threw: ReferenceError: reference to undefined XML name *::*

tryItOut 74

tryItOut 75
Compiling threw: SyntaxError: invalid for/in left-hand side

tryItOut 76
Compiling threw: SyntaxError: syntax error

tryItOut 77
Compiling threw: TypeError: redeclaration of variable prop

tryItOut 78
Compiling threw: SyntaxError: missing = in destructuring declaration

tryItOut 79
Running threw: TypeError: this.zzz has no properties

tryItOut 80

tryItOut 81

tryItOut 82
Running threw: TypeError: null is not a constructor

tryItOut 83
Compiling threw: TypeError: redeclaration of const prop

tryItOut 84
Compiling threw: SyntaxError: missing variable name

tryItOut 85
Compiling threw: SyntaxError: syntax error

tryItOut 86
Compiling threw: SyntaxError: invalid increment operand

tryItOut 87
Compiling threw: SyntaxError: syntax error

tryItOut 88
Compiling threw: SyntaxError: invalid for/in left-hand side

tryItOut 89
Compiling threw: SyntaxError: missing ) in parenthetical

tryItOut 90

tryItOut 91
Compiling threw: SyntaxError: syntax error

tryItOut 92

tryItOut 93

tryItOut 94
Compiling threw: SyntaxError: invalid assignment left-hand side

tryItOut 95

tryItOut 96

tryItOut 97
Compiling threw: SyntaxError: invalid for/in left-hand side

tryItOut 98
Compiling threw: SyntaxError: syntax error

tryItOut 99
Compiling threw: SyntaxError: duplicate label

tryItOut 100
Compiling threw: SyntaxError: syntax error

tryItOut 101

tryItOut 102
Compiling threw: SyntaxError: invalid for/in left-hand side

tryItOut 103
Compiling threw: SyntaxError: syntax error

tryItOut 104
Running threw: SyntaxError: invalid setter usage

tryItOut 105
Running threw: ReferenceError: window is not defined

tryItOut 106

tryItOut 107
Compiling threw: SyntaxError: invalid decrement operand

tryItOut 108
Compiling threw: SyntaxError: syntax error

tryItOut 109
Running threw: TypeError: constructor.__count__ is not a constructor

tryItOut 110
Compiling threw: SyntaxError: syntax error

tryItOut 111
Compiling threw: SyntaxError: invalid for/in left-hand side

tryItOut 112
Running threw: TypeError: this.zzz has no properties

tryItOut 113
Compiling threw: SyntaxError: missing ) in parenthetical

tryItOut 114

tryItOut 115

tryItOut 116
Compiling threw: SyntaxError: invalid for/in left-hand side

tryItOut 117
Running threw: TypeError: <x>
  <y/>
</x> is not a function

tryItOut 118

tryItOut 119
Compiling threw: TypeError: redeclaration of const __iterator__

tryItOut 120

tryItOut 121
Compiling threw: SyntaxError: invalid assignment left-hand side

tryItOut 122
It's an iterator!
Iterating succeeded, iterCount == 1

tryItOut 123
Compiling threw: SyntaxError: missing ) after condition

tryItOut 124
Running threw: ReferenceError: window is not defined

tryItOut 125
Running threw: ReferenceError: reference to undefined XML name @foo

tryItOut 126
Compiling threw: SyntaxError: missing ; after for-loop initializer

tryItOut 127
Compiling threw: SyntaxError: invalid for/in left-hand side

tryItOut 128

tryItOut 129
Running threw: ReferenceError: window is not defined

tryItOut 130
Compiling threw: SyntaxError: syntax error

tryItOut 131

tryItOut 132
Running threw: ReferenceError: reference to undefined XML name *::*

tryItOut 133

tryItOut 134

tryItOut 135
Compiling threw: SyntaxError: syntax error

tryItOut 136
Running threw: ReferenceError: reference to undefined XML name @foo

tryItOut 137
Running threw: ReferenceError: __noSuchMethod__ is not defined

tryItOut 138
Compiling threw: SyntaxError: syntax error

tryItOut 139
Compiling threw: SyntaxError: syntax error

tryItOut 140

tryItOut 141
Compiling threw: SyntaxError: missing variable name

tryItOut 142
Running threw: ReferenceError: window is not defined

tryItOut 143

tryItOut 144

tryItOut 145
Running threw: TypeError: this.zzz has no properties

tryItOut 146
Compiling threw: SyntaxError: invalid for/in left-hand side

tryItOut 147
Running threw: ReferenceError: constructor is not defined

tryItOut 148
Compiling threw: SyntaxError: missing variable name

tryItOut 149
Compiling threw: SyntaxError: missing variable name

tryItOut 150

tryItOut 151
Compiling threw: SyntaxError: invalid for/in left-hand side

tryItOut 152
It's an iterator!
Iterating succeeded, iterCount == 1

tryItOut 153
Running threw: ReferenceError: window is not defined

tryItOut 154

tryItOut 155
Compiling threw: SyntaxError: syntax error

tryItOut 156
Compiling threw: SyntaxError: missing variable name

tryItOut 157

tryItOut 158
Compiling threw: SyntaxError: missing ) in parenthetical

tryItOut 159

tryItOut 160
Compiling threw: SyntaxError: invalid for/in left-hand side

tryItOut 161
Compiling threw: SyntaxError: invalid assignment left-hand side

tryItOut 162

tryItOut 163
Compiling threw: SyntaxError: missing variable name

tryItOut 164
Compiling threw: SyntaxError: syntax error

tryItOut 165

tryItOut 166

tryItOut 167

tryItOut 168
Running threw: ReferenceError: reference to undefined XML name @foo

tryItOut 169
Running threw: ReferenceError: z1 is not defined

tryItOut 170
Running threw: ReferenceError: __proto__ is not defined

tryItOut 171
Compiling threw: SyntaxError: syntax error

tryItOut 172
Compiling threw: SyntaxError: missing variable name

tryItOut 173

tryItOut 174
Compiling threw: TypeError: redeclaration of const constructor

tryItOut 175
It's an iterator!
Iterating threw!
Iterating threw: ReferenceError: window is not defined

tryItOut 176
Compiling threw: SyntaxError: invalid for/in left-hand side

tryItOut 177
Running threw: ReferenceError: prop is not defined

tryItOut 178
It's an iterator!
Iterating succeeded, iterCount == 1

tryItOut 179

tryItOut 180
Compiling threw: SyntaxError: syntax error

tryItOut 181

tryItOut 182

tryItOut 183
Compiling threw: SyntaxError: syntax error

tryItOut 184

tryItOut 185

tryItOut 186
Running threw: ReferenceError: prop is not defined

tryItOut 187

tryItOut 188

tryItOut 189
Compiling threw: SyntaxError: invalid assignment left-hand side

tryItOut 190
Running threw: TypeError: p.z = #1=[, arguments].unwatch("__iterator__") is not a function

tryItOut 191
Compiling threw: SyntaxError: invalid for/in left-hand side

tryItOut 192
It's an iterator!
Iterating threw!
Iterating threw: ReferenceError: reference to undefined XML name @foo

tryItOut 193
Compiling threw: SyntaxError: unmatched ) in regular expression

tryItOut 194
Compiling threw: SyntaxError: missing variable name

tryItOut 195
Compiling threw: SyntaxError: unterminated string literal

tryItOut 196

tryItOut 197
Running threw: ReferenceError: reference to undefined XML name *::*

tryItOut 198
Compiling threw: SyntaxError: syntax error

tryItOut 199
Running threw: [object Object]

tryItOut 200
Compiling threw: SyntaxError: invalid assignment left-hand side

tryItOut 201
Compiling threw: SyntaxError: syntax error

tryItOut 202
Compiling threw: SyntaxError: syntax error

tryItOut 203
Compiling threw: SyntaxError: syntax error

tryItOut 204
Compiling threw: SyntaxError: missing variable name

tryItOut 205
Compiling threw: SyntaxError: missing variable name

tryItOut 206
It's an iterator!
Iterating threw!
Iterating threw: ReferenceError: reference to undefined XML name @foo

tryItOut 207
Compiling threw: SyntaxError: missing variable name

tryItOut 208
Running threw: TypeError: this.__defineSetter__ is not a function

tryItOut 209
Compiling threw: SyntaxError: missing variable name

tryItOut 210
Compiling threw: TypeError: redeclaration of const __noSuchMethod__

tryItOut 211
Compiling threw: SyntaxError: invalid for/in left-hand side

tryItOut 212
Compiling threw: SyntaxError: syntax error

tryItOut 213
Running threw: ReferenceError: reference to undefined XML name @foo

tryItOut 214

tryItOut 215
Compiling threw: SyntaxError: missing ) after condition

tryItOut 216
Compiling threw: SyntaxError: invalid for/in left-hand side

tryItOut 217

tryItOut 218
Compiling threw: SyntaxError: invalid for/in left-hand side

tryItOut 219
Compiling threw: SyntaxError: invalid assignment left-hand side

tryItOut 220

tryItOut 221
Compiling threw: SyntaxError: syntax error

tryItOut 222

tryItOut 223
Compiling threw: SyntaxError: syntax error

tryItOut 224
Compiling threw: SyntaxError: missing variable name

tryItOut 225
Compiling threw: SyntaxError: invalid for/in left-hand side

tryItOut 226
Compiling threw: SyntaxError: invalid XML tag syntax

tryItOut 227
Compiling threw: SyntaxError: syntax error

tryItOut 228
Compiling threw: SyntaxError: missing ) in parenthetical

tryItOut 229

tryItOut 230

tryItOut 231

tryItOut 232

tryItOut 233
Compiling threw: SyntaxError: invalid for/in left-hand side

tryItOut 234
Compiling threw: SyntaxError: missing { before function body

tryItOut 235
Compiling threw: SyntaxError: syntax error

tryItOut 236
Compiling threw: SyntaxError: missing { before function body

tryItOut 237
Running threw: ReferenceError: reference to undefined XML name @foo

tryItOut 238
Running threw: Error: invalid sharp variable use #1#

tryItOut 239

tryItOut 240
Compiling threw: TypeError: generator function anonymous returns a value

tryItOut 241
Compiling threw: SyntaxError: invalid for/in left-hand side

tryItOut 242

tryItOut 243

tryItOut 244
Compiling threw: SyntaxError: illegal XML character

tryItOut 245
Running threw: ReferenceError: reference to undefined XML name *::*

tryItOut 246

tryItOut 247

tryItOut 248

tryItOut 249

tryItOut 250
Compiling threw: SyntaxError: invalid increment operand

tryItOut 251
Compiling threw: SyntaxError: invalid for each loop

tryItOut 252
Compiling threw: SyntaxError: invalid assignment left-hand side

tryItOut 253
Compiling threw: SyntaxError: syntax error

tryItOut 254

tryItOut 255
Compiling threw: SyntaxError: invalid for/in left-hand side

tryItOut 256
Compiling threw: SyntaxError: syntax error

tryItOut 257

tryItOut 258

tryItOut 259
Running threw: ReferenceError: prototype is not defined

tryItOut 260
Running threw: TypeError: __iterator__ has no properties

tryItOut 261
It's an iterator!
Iterating threw!
Iterating threw: ReferenceError: reference to undefined XML name @foo

tryItOut 262
Running threw: ReferenceError: reference to undefined XML name @foo

tryItOut 263
Running threw: TypeError: arguments[0] has no properties

tryItOut 264
Compiling threw: SyntaxError: invalid for/in left-hand side

tryItOut 265
Running threw: ReferenceError: reference to undefined XML name *

tryItOut 266

tryItOut 267
Compiling threw: SyntaxError: missing variable name

tryItOut 268

tryItOut 269

tryItOut 270
Compiling threw: SyntaxError: invalid XML tag syntax

tryItOut 271
Running threw: ReferenceError: z2 is not defined

tryItOut 272
Compiling threw: SyntaxError: syntax error

tryItOut 273

tryItOut 274

tryItOut 275
Running threw: ReferenceError: reference to undefined XML name *

tryItOut 276
Compiling threw: SyntaxError: syntax error

tryItOut 277
Compiling threw: SyntaxError: invalid for/in left-hand side

tryItOut 278
Running threw: TypeError: null has no properties

tryItOut 279
Running threw: ReferenceError: window is not defined

tryItOut 280

tryItOut 281

tryItOut 282
Running threw: ReferenceError: reference to undefined XML name *::*

tryItOut 283
Compiling threw: SyntaxError: missing ) in parenthetical

tryItOut 284

tryItOut 285
Compiling threw: SyntaxError: missing ) in parenthetical

tryItOut 286

tryItOut 287
Compiling threw: SyntaxError: missing ; after for-loop initializer

tryItOut 288
It's an iterator!
Iterating succeeded, iterCount == 1

tryItOut 289
uneval returned the string: [[1]]

tryItOut 290

tryItOut 291
Compiling threw: SyntaxError: syntax error

tryItOut 292
Running threw: ReferenceError: reference to undefined XML name @foo

tryItOut 293

tryItOut 294
Compiling threw: SyntaxError: invalid default XML namespace

tryItOut 295
Compiling threw: SyntaxError: syntax error

tryItOut 296
Compiling threw: SyntaxError: invalid for/in left-hand side

tryItOut 297
Compiling threw: SyntaxError: syntax error

tryItOut 298
Compiling threw: SyntaxError: missing ; before statement

tryItOut 299

tryItOut 300
It's an iterator!
Iterating succeeded, iterCount == 1

tryItOut 301
Compiling threw: SyntaxError: missing variable name

tryItOut 302

tryItOut 303
It's an iterator!
Iterating threw!
Iterating threw: TypeError: __parent__ has no properties

tryItOut 304
Compiling threw: SyntaxError: syntax error

tryItOut 305
It's an iterator!
Iterating threw!
Iterating threw: ReferenceError: window is not defined

tryItOut 306
Compiling threw: SyntaxError: missing { before function body

tryItOut 307
Compiling threw: SyntaxError: syntax error

tryItOut 308

tryItOut 309

tryItOut 310
Compiling threw: SyntaxError: syntax error

tryItOut 311
Compiling threw: SyntaxError: syntax error

tryItOut 312
Compiling threw: SyntaxError: syntax error

tryItOut 313
Running threw: TypeError: <x>
  <y/>
</x> is not a function

tryItOut 314

tryItOut 315
Compiling threw: SyntaxError: invalid assignment left-hand side

tryItOut 316

tryItOut 317
It's an iterator!
Iterating threw!
Iterating threw: TypeError: __parent__ has no properties

tryItOut 318
Compiling threw: SyntaxError: syntax error

tryItOut 319

tryItOut 320
It's an iterator!
Iterating succeeded, iterCount == 0

tryItOut 321
Running threw: ReferenceError: reference to undefined XML name *::*

tryItOut 322

tryItOut 323
Compiling threw: SyntaxError: missing variable name

tryItOut 324
Running threw: ReferenceError: z1 is not defined

tryItOut 325
Running threw: ReferenceError: reference to undefined XML name @foo

tryItOut 326

tryItOut 327

tryItOut 328
Compiling threw: SyntaxError: syntax error

tryItOut 329
Compiling threw: SyntaxError: missing variable name

tryItOut 330
Running threw: ReferenceError: prototype is not defined

tryItOut 331
Compiling threw: TypeError: redeclaration of variable __count__

tryItOut 332

tryItOut 333
Compiling threw: SyntaxError: missing ; before statement

tryItOut 334

tryItOut 335

tryItOut 336
Compiling threw: SyntaxError: invalid for/in left-hand side

tryItOut 337
Compiling threw: SyntaxError: missing variable name

tryItOut 338
Running threw: ReferenceError: reference to undefined XML name *

tryItOut 339
Compiling threw: SyntaxError: invalid for/in left-hand side

tryItOut 340
Compiling threw: SyntaxError: missing variable name

tryItOut 341
Compiling threw: SyntaxError: invalid for/in left-hand side

tryItOut 342
Compiling threw: SyntaxError: syntax error

tryItOut 343
Compiling threw: SyntaxError: missing ) in parenthetical

tryItOut 344
Compiling threw: SyntaxError: invalid for/in left-hand side

tryItOut 345

tryItOut 346

tryItOut 347
Compiling threw: SyntaxError: missing variable name

tryItOut 348
Compiling threw: SyntaxError: invalid flag after regular expression

tryItOut 349
Compiling threw: SyntaxError: missing variable name

tryItOut 350
Running threw: Can't toString the error!!

tryItOut 351
Running threw: ReferenceError: reference to undefined XML name @foo

tryItOut 352

tryItOut 353

tryItOut 354
Running threw: <x>
  <y/>
</x>

tryItOut 355

tryItOut 356
Compiling threw: SyntaxError: missing { before function body

tryItOut 357
Compiling threw: TypeError: generator function anonymous returns a value

tryItOut 358
Compiling threw: SyntaxError: invalid for/in left-hand side

tryItOut 359
Compiling threw: SyntaxError: invalid assignment left-hand side

tryItOut 360
Compiling threw: SyntaxError: missing ) after with-statement object

tryItOut 361
Compiling threw: SyntaxError: missing variable name

tryItOut 362
Running threw: ReferenceError: reference to undefined XML name *

tryItOut 363
Compiling threw: SyntaxError: missing { before function body

tryItOut 364
Compiling threw: SyntaxError: syntax error

tryItOut 365
Running threw: ReferenceError: window is not defined

tryItOut 366
Compiling threw: SyntaxError: invalid assignment left-hand side

tryItOut 367
Running threw: ReferenceError: prototype is not defined

tryItOut 368
Compiling threw: SyntaxError: syntax error

tryItOut 369

tryItOut 370
Compiling threw: SyntaxError: invalid default XML namespace

tryItOut 371

tryItOut 372

tryItOut 373
Running threw: ReferenceError: reference to undefined XML name @foo

tryItOut 374
Compiling threw: SyntaxError: syntax error

tryItOut 375

tryItOut 376
It's an iterator!
Iterating threw!
Iterating threw: TypeError: <x>
  <y/>
</x> is not a function

tryItOut 377
Compiling threw: SyntaxError: invalid for/in left-hand side

tryItOut 378
Running threw: ReferenceError: __count__ is not defined

tryItOut 379
Compiling threw: SyntaxError: invalid for/in left-hand side

tryItOut 380
Running threw: ReferenceError: reference to undefined XML name *::*

tryItOut 381
Running threw: ReferenceError: window is not defined

tryItOut 382
Running threw: TypeError: this.zzz has no properties

tryItOut 383
Compiling threw: SyntaxError: missing ) after argument list

tryItOut 384
Compiling threw: SyntaxError: invalid destructuring assignment operator

tryItOut 385
Compiling threw: SyntaxError: invalid decrement operand

tryItOut 386

tryItOut 387
Compiling threw: SyntaxError: invalid increment operand

tryItOut 388
Compiling threw: SyntaxError: invalid for/in left-hand side

tryItOut 389
Compiling threw: SyntaxError: missing variable name

tryItOut 390
Compiling threw: SyntaxError: syntax error

tryItOut 391
Compiling threw: SyntaxError: missing ) in parenthetical

tryItOut 392

tryItOut 393

tryItOut 394
Compiling threw: SyntaxError: duplicate label

tryItOut 395
Running threw: ReferenceError: __proto__ is not defined

tryItOut 396

tryItOut 397
Compiling threw: SyntaxError: invalid assignment left-hand side

tryItOut 398

tryItOut 399
uneval returned the string: [1]

tryItOut 400
Compiling threw: SyntaxError: missing ) after condition

tryItOut 401

tryItOut 402
Running threw: TypeError: [<x><y/></x>].sort(Math.sin).__defineSetter__("__iterator__", {}.hasOwnProperty) has no properties

tryItOut 403
Running threw: ReferenceError: constructor is not defined

tryItOut 404
Compiling threw: SyntaxError: syntax error

tryItOut 405
Compiling threw: SyntaxError: invalid for/in left-hand side

tryItOut 406
Compiling threw: SyntaxError: duplicate label

tryItOut 407

tryItOut 408
Compiling threw: SyntaxError: syntax error

tryItOut 409
It's an iterator!
Iterating succeeded, iterCount == 0

tryItOut 410
Running threw: ReferenceError: reference to undefined XML name *::*

tryItOut 411

tryItOut 412
Compiling threw: SyntaxError: missing { before function body

tryItOut 413
Compiling threw: SyntaxError: invalid for/in left-hand side

tryItOut 414
Compiling threw: SyntaxError: syntax error

tryItOut 415
Compiling threw: SyntaxError: missing ) after condition

tryItOut 416

tryItOut 417
Running threw: ReferenceError: constructor is not defined

tryItOut 418

tryItOut 419
Compiling threw: SyntaxError: syntax error

tryItOut 420
Compiling threw: SyntaxError: missing { before function body

tryItOut 421
Running threw: TypeError: this.zzz has no properties

tryItOut 422
Running threw: ReferenceError: Exception is not defined

tryItOut 423
Running threw: ReferenceError: reference to undefined XML name *

tryItOut 424
Compiling threw: SyntaxError: missing ; before statement

tryItOut 425
Running threw: ReferenceError: window is not defined

tryItOut 426
Compiling threw: SyntaxError: missing : after property id

tryItOut 427
Compiling threw: SyntaxError: invalid for/in left-hand side

tryItOut 428

tryItOut 429

tryItOut 430
Compiling threw: SyntaxError: missing variable name

tryItOut 431
Compiling threw: SyntaxError: missing { before function body

tryItOut 432
Compiling threw: TypeError: generator function anonymous returns a value

tryItOut 433
Compiling threw: SyntaxError: syntax error

tryItOut 434
Compiling threw: SyntaxError: syntax error

tryItOut 435
Compiling threw: SyntaxError: missing variable name

tryItOut 436
Compiling threw: SyntaxError: invalid assignment left-hand side

tryItOut 437
Compiling threw: SyntaxError: invalid for/in left-hand side

tryItOut 438

tryItOut 439
Compiling threw: SyntaxError: missing { before function body

tryItOut 440

tryItOut 441
Compiling threw: SyntaxError: missing ; before statement

tryItOut 442
Compiling threw: SyntaxError: invalid for/in left-hand side

tryItOut 443
Compiling threw: SyntaxError: missing ) after condition

tryItOut 444
Running threw: ReferenceError: reference to undefined XML name @foo

tryItOut 445

tryItOut 446
Running threw: ReferenceError: z1 is not defined

tryItOut 447
Compiling threw: SyntaxError: invalid for/in left-hand side

tryItOut 448

tryItOut 449
Running threw: ReferenceError: window is not defined

tryItOut 450

tryItOut 451
Compiling threw: SyntaxError: syntax error

tryItOut 452
Running threw: TypeError: this.zzz has no properties

tryItOut 453
Compiling threw: SyntaxError: syntax error

tryItOut 454

tryItOut 455
Running threw: [object Object]

tryItOut 456
Compiling threw: SyntaxError: syntax error

tryItOut 457

tryItOut 458

tryItOut 459

tryItOut 460
Compiling threw: SyntaxError: invalid for/in left-hand side

tryItOut 461
It's an iterator!
Iterating succeeded, iterCount == 1

tryItOut 462
Running threw: ReferenceError: reference to undefined XML name *::*

tryItOut 463

tryItOut 464
Running threw: ReferenceError: reference to undefined XML name *::*

tryItOut 465
Compiling threw: SyntaxError: syntax error

tryItOut 466
Compiling threw: SyntaxError: invalid assignment left-hand side

tryItOut 467
Compiling threw: SyntaxError: invalid XML tag syntax

tryItOut 468
Compiling threw: SyntaxError: missing ; after for-loop initializer

tryItOut 469

tryItOut 470
Compiling threw: SyntaxError: missing { before function body

tryItOut 471
Compiling threw: SyntaxError: missing ) in parenthetical

tryItOut 472
Compiling threw: SyntaxError: invalid assignment left-hand side

tryItOut 473
It's an iterator!
Iterating threw!
Iterating threw: TypeError: <x>
  <y/>
</x> is not a function

tryItOut 474
Running threw: TypeError: undefined has no properties

tryItOut 475

tryItOut 476
Compiling threw: SyntaxError: missing ; after for-loop initializer

tryItOut 477
Compiling threw: SyntaxError: missing variable name

tryItOut 478

tryItOut 479
It's an iterator!
Iterating threw!
Iterating threw: ReferenceError: window is not defined

tryItOut 480

tryItOut 481
Compiling threw: SyntaxError: missing { before function body

tryItOut 482

tryItOut 483

tryItOut 484
Running threw: ReferenceError: prototype is not defined

tryItOut 485
Compiling threw: SyntaxError: invalid for/in left-hand side

tryItOut 486
Compiling threw: SyntaxError: invalid for/in left-hand side

tryItOut 487

tryItOut 488
Running threw: ReferenceError: reference to undefined XML name @foo

tryItOut 489
Compiling threw: SyntaxError: invalid for/in left-hand side

tryItOut 490
Compiling threw: SyntaxError: missing ) in parenthetical

tryItOut 491
Compiling threw: SyntaxError: invalid destructuring assignment operator

tryItOut 492
Compiling threw: SyntaxError: syntax error

tryItOut 493
Running threw: null

tryItOut 494

tryItOut 495

tryItOut 496
Running threw: SyntaxError: syntax error

tryItOut 497
Running threw: ReferenceError: z1 is not defined

tryItOut 498
Compiling threw: SyntaxError: invalid for/in left-hand side

tryItOut 499
Compiling threw: SyntaxError: missing { before function body

tryItOut 500

tryItOut 501
Compiling threw: SyntaxError: syntax error

tryItOut 502

tryItOut 503
It's an iterator!
Iterating succeeded, iterCount == 1

tryItOut 504

tryItOut 505
Running threw: ReferenceError: __proto__ is not defined

tryItOut 506
Compiling threw: SyntaxError: invalid for/in left-hand side

tryItOut 507
Compiling threw: SyntaxError: invalid for/in left-hand side

tryItOut 508

tryItOut 509

tryItOut 510

tryItOut 511
Running threw: TypeError: null has no properties

tryItOut 512
Compiling threw: SyntaxError: invalid for each loop

tryItOut 513

tryItOut 514
Compiling threw: SyntaxError: syntax error

tryItOut 515
Running threw: ReferenceError: reference to undefined XML name *::*

tryItOut 516
Compiling threw: SyntaxError: syntax error

tryItOut 517

tryItOut 518
Compiling threw: SyntaxError: syntax error

tryItOut 519
Running threw: ReferenceError: reference to undefined XML name *::*

tryItOut 520

tryItOut 521
Compiling threw: SyntaxError: missing ; after for-loop initializer

tryItOut 522
Compiling threw: SyntaxError: syntax error

tryItOut 523
Compiling threw: SyntaxError: invalid assignment left-hand side

tryItOut 524
Running threw: false

tryItOut 525
Compiling threw: SyntaxError: missing ) in parenthetical

tryItOut 526
Compiling threw: SyntaxError: invalid for/in left-hand side

tryItOut 527
Running threw: ReferenceError: window is not defined

tryItOut 528
Compiling threw: SyntaxError: invalid assignment left-hand side

tryItOut 529

tryItOut 530
Running threw: ReferenceError: window is not defined

tryItOut 531
Compiling threw: SyntaxError: syntax error

tryItOut 532
Compiling threw: SyntaxError: missing { before function body

tryItOut 533
Running threw: ReferenceError: window is not defined

tryItOut 534

tryItOut 535
It's an iterator!
Iterating succeeded, iterCount == 1

tryItOut 536
It's an iterator!
Iterating threw!
Iterating threw: TypeError: this.zzz has no properties

tryItOut 537
Compiling threw: SyntaxError: syntax error

tryItOut 538
Compiling threw: SyntaxError: missing ; before statement

tryItOut 539
Compiling threw: SyntaxError: missing ) in parenthetical

tryItOut 540

tryItOut 541
Running threw: ReferenceError: reference to undefined XML name *

tryItOut 542
Compiling threw: SyntaxError: missing variable name

tryItOut 543

tryItOut 544
Running threw: ReferenceError: constructor is not defined

tryItOut 545

tryItOut 546

tryItOut 547
Compiling threw: SyntaxError: missing { before function body

tryItOut 548
Compiling threw: SyntaxError: syntax error

tryItOut 549

tryItOut 550
Running threw: ReferenceError: reference to undefined XML name @foo

tryItOut 551
Compiling threw: SyntaxError: missing { before function body

tryItOut 552
Compiling threw: SyntaxError: invalid for/in left-hand side

tryItOut 553

tryItOut 554

tryItOut 555

tryItOut 556
Compiling threw: SyntaxError: syntax error

tryItOut 557
It's an iterator!
Iterating threw!
Iterating threw: ReferenceError: constructor is not defined

tryItOut 558
Compiling threw: SyntaxError: missing ; after for-loop initializer

tryItOut 559

tryItOut 560
Compiling threw: SyntaxError: invalid for/in left-hand side

tryItOut 561
Compiling threw: SyntaxError: missing { before function body

tryItOut 562
Compiling threw: SyntaxError: syntax error

tryItOut 563

tryItOut 564

tryItOut 565

tryItOut 566
Compiling threw: SyntaxError: invalid assignment left-hand side

tryItOut 567
Running threw: ReferenceError: z1 is not defined

tryItOut 568
Compiling threw: SyntaxError: invalid assignment left-hand side

tryItOut 569

tryItOut 570
Compiling threw: SyntaxError: invalid for/in left-hand side

tryItOut 571
Compiling threw: SyntaxError: invalid sharp variable definition

tryItOut 572
It's an iterator!
Iterating succeeded, iterCount == 1

tryItOut 573

tryItOut 574
Compiling threw: TypeError: generator function anonymous returns a value

tryItOut 575
Compiling threw: SyntaxError: syntax error

tryItOut 576
Running threw: ReferenceError: window is not defined

tryItOut 577
Compiling threw: SyntaxError: syntax error

tryItOut 578
Compiling threw: SyntaxError: invalid assignment left-hand side

tryItOut 579

tryItOut 580
Compiling threw: SyntaxError: missing variable name

tryItOut 581
Compiling threw: SyntaxError: missing ) in parenthetical

tryItOut 582

tryItOut 583

tryItOut 584
It's an iterator!
Iterating succeeded, iterCount == 0

tryItOut 585
Compiling threw: SyntaxError: invalid assignment left-hand side

tryItOut 586
Compiling threw: TypeError: generator function anonymous returns a value

tryItOut 587
Compiling threw: SyntaxError: invalid for/in left-hand side

tryItOut 588
Running threw: Can't toString the error!!

tryItOut 589
Compiling threw: SyntaxError: syntax error

tryItOut 590
Running threw: ReferenceError: reference to undefined XML name @foo

tryItOut 591
It's an iterator!
Iterating threw!
Iterating threw: TypeError: null has no properties

tryItOut 592
Compiling threw: SyntaxError: syntax error

tryItOut 593
Compiling threw: SyntaxError: illegal XML character

tryItOut 594

tryItOut 595
Compiling threw: SyntaxError: syntax error

tryItOut 596
Compiling threw: SyntaxError: invalid for/in left-hand side

tryItOut 597
Compiling threw: SyntaxError: invalid assignment left-hand side

tryItOut 598
Compiling threw: SyntaxError: syntax error

tryItOut 599
Compiling threw: SyntaxError: missing ) after condition

tryItOut 600

tryItOut 601

tryItOut 602
Compiling threw: TypeError: redeclaration of variable __parent__

tryItOut 603
Compiling threw: SyntaxError: duplicate label

tryItOut 604
Compiling threw: SyntaxError: missing } after property list

tryItOut 605
Running threw: ReferenceError: reference to undefined XML name *

tryItOut 606
Compiling threw: SyntaxError: missing ; after for-loop initializer

tryItOut 607

tryItOut 608
Running threw: TypeError: arguments[0] has no properties

tryItOut 609
Compiling threw: SyntaxError: syntax error

tryItOut 610
Running threw: ReferenceError: __proto__ is not defined

tryItOut 611
Compiling threw: SyntaxError: syntax error

tryItOut 612
Compiling threw: SyntaxError: missing variable name

tryItOut 613

tryItOut 614
Running threw: ReferenceError: window is not defined

tryItOut 615
Compiling threw: SyntaxError: syntax error

tryItOut 616

tryItOut 617
Compiling threw: SyntaxError: syntax error

tryItOut 618
Compiling threw: SyntaxError: missing variable name

tryItOut 619

tryItOut 620
Compiling threw: SyntaxError: syntax error

tryItOut 621
Compiling threw: SyntaxError: syntax error

tryItOut 622
Running threw: ReferenceError: reference to undefined XML name *

tryItOut 623

tryItOut 624

tryItOut 625

tryItOut 626
Running threw: ,

tryItOut 627
Compiling threw: SyntaxError: syntax error

tryItOut 628

tryItOut 629
Compiling threw: SyntaxError: missing ) after condition

tryItOut 630

tryItOut 631
Compiling threw: SyntaxError: missing ; after for-loop initializer

tryItOut 632

tryItOut 633
Compiling threw: SyntaxError: missing variable name

tryItOut 634
Running threw: TypeError: this.zzz has no properties

tryItOut 635

tryItOut 636
Compiling threw: SyntaxError: syntax error

tryItOut 637

tryItOut 638
Compiling threw: SyntaxError: missing formal parameter

tryItOut 639
It's an iterator!
Iterating threw!
Iterating threw: Error: invalid sharp variable use #1#

tryItOut 640
Running threw: ,

tryItOut 641
Compiling threw: SyntaxError: illegal XML character

tryItOut 642
It's an iterator!
Iterating threw!
Iterating threw: ReferenceError: window is not defined

tryItOut 643

tryItOut 644

tryItOut 645
Compiling threw: SyntaxError: syntax error

tryItOut 646

tryItOut 647
It's an iterator!
Iterating succeeded, iterCount == 1

tryItOut 648

tryItOut 649
Compiling threw: SyntaxError: missing ; after for-loop initializer

tryItOut 650

tryItOut 651

tryItOut 652
Compiling threw: SyntaxError: invalid assignment left-hand side

tryItOut 653
Compiling threw: SyntaxError: missing ) in parenthetical

tryItOut 654
Compiling threw: SyntaxError: invalid for/in left-hand side

tryItOut 655

tryItOut 656
Compiling threw: SyntaxError: syntax error

tryItOut 657
It's an iterator!
Iterating threw!
Iterating threw: ReferenceError: z1 is not defined

tryItOut 658
Compiling threw: SyntaxError: invalid for/in left-hand side

tryItOut 659
Compiling threw: SyntaxError: syntax error

tryItOut 660

tryItOut 661

tryItOut 662

tryItOut 663

tryItOut 664
Compiling threw: SyntaxError: syntax error

tryItOut 665
Compiling threw: SyntaxError: missing : after property id

tryItOut 666
Compiling threw: SyntaxError: missing : after property id

tryItOut 667
Running threw: ReferenceError: reference to undefined XML name *

tryItOut 668

tryItOut 669
Compiling threw: SyntaxError: invalid for/in left-hand side

tryItOut 670
Compiling threw: SyntaxError: missing ) in parenthetical

tryItOut 671
Compiling threw: SyntaxError: illegal XML character

tryItOut 672
Compiling threw: SyntaxError: invalid assignment left-hand side

tryItOut 673
Compiling threw: SyntaxError: syntax error

tryItOut 674
Compiling threw: SyntaxError: invalid decrement operand

tryItOut 675
Compiling threw: SyntaxError: invalid for/in left-hand side

tryItOut 676
Compiling threw: SyntaxError: missing { before function body

tryItOut 677
Compiling threw: SyntaxError: invalid assignment left-hand side

tryItOut 678

tryItOut 679
Compiling threw: SyntaxError: missing ) in parenthetical

tryItOut 680
Running threw: ReferenceError: reference to undefined XML name *::*

tryItOut 681

tryItOut 682
Running threw: ReferenceError: window is not defined

tryItOut 683

tryItOut 684
Compiling threw: SyntaxError: duplicate label

tryItOut 685
Compiling threw: SyntaxError: syntax error

tryItOut 686
Compiling threw: SyntaxError: invalid for/in left-hand side

tryItOut 687
Running threw: TypeError: this.zzz has no properties

tryItOut 688

tryItOut 689
Compiling threw: SyntaxError: invalid for/in left-hand side

tryItOut 690
Compiling threw: TypeError: anonymous generator function returns a value

tryItOut 691

tryItOut 692
Compiling threw: SyntaxError: invalid XML tag syntax

tryItOut 693
Compiling threw: SyntaxError: illegal XML character

tryItOut 694

tryItOut 695
Compiling threw: SyntaxError: missing ; after for-loop initializer

tryItOut 696
Compiling threw: SyntaxError: syntax error

tryItOut 697

tryItOut 698
Compiling threw: SyntaxError: missing variable name

tryItOut 699
Compiling threw: SyntaxError: missing ; before statement

tryItOut 700

tryItOut 701

tryItOut 702

tryItOut 703

tryItOut 704

tryItOut 705
Compiling threw: SyntaxError: invalid assignment left-hand side

tryItOut 706
Compiling threw: SyntaxError: duplicate label

tryItOut 707
Compiling threw: SyntaxError: invalid for/in left-hand side

tryItOut 708
Compiling threw: SyntaxError: syntax error

tryItOut 709
Compiling threw: SyntaxError: invalid for each loop

tryItOut 710

tryItOut 711

tryItOut 712

tryItOut 713
Compiling threw: SyntaxError: missing ; after for-loop initializer

tryItOut 714
Compiling threw: SyntaxError: missing ; after for-loop initializer

tryItOut 715

tryItOut 716
Running threw: TypeError: this.__defineGetter__ is not a function

tryItOut 717

tryItOut 718

tryItOut 719
Compiling threw: SyntaxError: missing { before function body

tryItOut 720

tryItOut 721
Compiling threw: SyntaxError: invalid assignment left-hand side

tryItOut 722
Compiling threw: SyntaxError: invalid assignment left-hand side

tryItOut 723
Compiling threw: SyntaxError: missing = in destructuring declaration

tryItOut 724
Compiling threw: SyntaxError: syntax error

tryItOut 725
Compiling threw: SyntaxError: missing ) in parenthetical

tryItOut 726
Compiling threw: SyntaxError: invalid for each loop

tryItOut 727
Running threw: TypeError: this.zzz has no properties

tryItOut 728
Compiling threw: SyntaxError: syntax error

tryItOut 729
It's an iterator!
Iterating succeeded, iterCount == 1

tryItOut 730
Compiling threw: SyntaxError: duplicate label

tryItOut 731

tryItOut 732

tryItOut 733

tryItOut 734
Compiling threw: SyntaxError: invalid property id

tryItOut 735

tryItOut 736
Compiling threw: SyntaxError: missing while after do-loop body

tryItOut 737

tryItOut 738
Compiling threw: SyntaxError: invalid assignment left-hand side

tryItOut 739
Compiling threw: SyntaxError: missing variable name

tryItOut 740
Running threw: [object Object]

tryItOut 741
Compiling threw: SyntaxError: syntax error

tryItOut 742
Compiling threw: SyntaxError: syntax error

tryItOut 743

tryItOut 744
Running threw: true

tryItOut 745
It's an iterator!
Iterating succeeded, iterCount == 1

tryItOut 746

tryItOut 747
Compiling threw: SyntaxError: illegal XML character

tryItOut 748
Compiling threw: SyntaxError: invalid decrement operand

tryItOut 749
Compiling threw: SyntaxError: invalid assignment left-hand side

tryItOut 750
Compiling threw: SyntaxError: invalid assignment left-hand side

tryItOut 751
Running threw: ReferenceError: window is not defined

tryItOut 752
Compiling threw: SyntaxError: missing ) in parenthetical

tryItOut 753
Compiling threw: SyntaxError: syntax error

tryItOut 754

tryItOut 755
It's an iterator!
Iterating threw!
Iterating threw: TypeError: this.__defineGetter__ is not a function

tryItOut 756
Running threw: TypeError: this.zzz has no properties

tryItOut 757

tryItOut 758
Compiling threw: SyntaxError: invalid for/in left-hand side

tryItOut 759
Running threw: ReferenceError: reference to undefined XML name *

tryItOut 760
Running threw: SyntaxError: invalid setter usage

tryItOut 761
Compiling threw: SyntaxError: missing { before function body

tryItOut 762
Compiling threw: SyntaxError: missing { before function body

tryItOut 763
Compiling threw: SyntaxError: missing { before function body

tryItOut 764
Compiling threw: SyntaxError: missing ( before let head

tryItOut 765

tryItOut 766
Compiling threw: SyntaxError: missing while after do-loop body

tryItOut 767
Compiling threw: SyntaxError: syntax error

tryItOut 768
Running threw: SyntaxError: return not in function

tryItOut 769
Running threw: ReferenceError: window is not defined

tryItOut 770
Running threw: ReferenceError: reference to undefined XML name *::*

tryItOut 771

tryItOut 772

tryItOut 773
Compiling threw: SyntaxError: invalid increment operand

tryItOut 774
Running threw: ReferenceError: reference to undefined XML name *

tryItOut 775

tryItOut 776
Compiling threw: SyntaxError: duplicate label

tryItOut 777

tryItOut 778
Compiling threw: SyntaxError: missing variable name

tryItOut 779
Running threw: ReferenceError: reference to undefined XML name @foo

tryItOut 780
Compiling threw: SyntaxError: missing variable name

tryItOut 781

tryItOut 782

tryItOut 783
Compiling threw: TypeError: generator function anonymous returns a value

tryItOut 784

tryItOut 785
Compiling threw: SyntaxError: syntax error

tryItOut 786

tryItOut 787

tryItOut 788
Compiling threw: SyntaxError: missing { before function body

tryItOut 789
Compiling threw: SyntaxError: missing } after property list

tryItOut 790
Compiling threw: SyntaxError: syntax error

tryItOut 791
Compiling threw: SyntaxError: invalid for/in left-hand side

tryItOut 792

tryItOut 793

tryItOut 794
It's an iterator!
Iterating threw!
Iterating threw: ReferenceError: reference to undefined XML name @foo

tryItOut 795
Compiling threw: SyntaxError: invalid for/in left-hand side

tryItOut 796

tryItOut 797
Compiling threw: SyntaxError: invalid for/in left-hand side

tryItOut 798
Compiling threw: SyntaxError: syntax error

tryItOut 799

tryItOut 800

tryItOut 801
Compiling threw: SyntaxError: missing { before function body

tryItOut 802

tryItOut 803
Compiling threw: SyntaxError: missing variable name

tryItOut 804
Compiling threw: SyntaxError: syntax error

tryItOut 805

tryItOut 806
It's an iterator!
Iterating threw!
Iterating threw: ReferenceError: reference to undefined XML name *

tryItOut 807
Compiling threw: SyntaxError: missing while after do-loop body

tryItOut 808
Compiling threw: SyntaxError: invalid for/in left-hand side

tryItOut 809

tryItOut 810
Compiling threw: SyntaxError: syntax error

tryItOut 811
Compiling threw: SyntaxError: missing { before function body

tryItOut 812

tryItOut 813

tryItOut 814
Running threw: TypeError: constructor has no properties

tryItOut 815
Compiling threw: SyntaxError: missing ) in parenthetical

tryItOut 816
Running threw: ReferenceError: reference to undefined XML name *

tryItOut 817

tryItOut 818
It's an iterator!
Iterating threw!
Iterating threw: ReferenceError: reference to undefined XML name @foo

tryItOut 819
Compiling threw: SyntaxError: syntax error

tryItOut 820
Compiling threw: SyntaxError: syntax error

tryItOut 821
Compiling threw: TypeError: redeclaration of variable __proto__

tryItOut 822

tryItOut 823
Running threw: ReferenceError: set is not defined

tryItOut 824
Compiling threw: SyntaxError: syntax error

tryItOut 825

tryItOut 826
Running threw: ReferenceError: reference to undefined XML name @foo

tryItOut 827
Compiling threw: SyntaxError: invalid for/in left-hand side

tryItOut 828

tryItOut 829

tryItOut 830
It's an iterator!
Iterating threw!
Iterating threw: ReferenceError: reference to undefined XML name *

tryItOut 831
Running threw: TypeError: XML filtering predicate operator called on incompatible Object

tryItOut 832

tryItOut 833
Compiling threw: SyntaxError: invalid for each loop

tryItOut 834
Compiling threw: SyntaxError: invalid assignment left-hand side

tryItOut 835

tryItOut 836
Compiling threw: SyntaxError: missing variable name

tryItOut 837

tryItOut 838
Compiling threw: SyntaxError: invalid assignment left-hand side

tryItOut 839

tryItOut 840
Compiling threw: SyntaxError: missing ; before statement

tryItOut 841

tryItOut 842

tryItOut 843
Compiling threw: SyntaxError: invalid destructuring assignment operator

tryItOut 844

tryItOut 845

tryItOut 846
Compiling threw: SyntaxError: missing variable name

tryItOut 847
Running threw: true

tryItOut 848

tryItOut 849

tryItOut 850
Compiling threw: SyntaxError: invalid for/in left-hand side

tryItOut 851
It's an iterator!
Iterating succeeded, iterCount == 0

tryItOut 852
Compiling threw: SyntaxError: missing variable name

tryItOut 853
Compiling threw: SyntaxError: missing variable name

tryItOut 854
Compiling threw: SyntaxError: syntax error

tryItOut 855

tryItOut 856
Compiling threw: SyntaxError: invalid for/in left-hand side

tryItOut 857
Compiling threw: SyntaxError: missing { before function body

tryItOut 858

tryItOut 859

tryItOut 860
Compiling threw: SyntaxError: syntax error

tryItOut 861

tryItOut 862
It's an iterator!
Iterating succeeded, iterCount == 1

tryItOut 863
Compiling threw: SyntaxError: syntax error

tryItOut 864
Compiling threw: TypeError: generator function anonymous returns a value

tryItOut 865
Compiling threw: SyntaxError: missing ) in parenthetical

tryItOut 866
Compiling threw: SyntaxError: invalid for/in left-hand side

tryItOut 867

tryItOut 868
Running threw: ReferenceError: window is not defined

tryItOut 869
Compiling threw: SyntaxError: invalid increment operand

tryItOut 870
Compiling threw: SyntaxError: missing ) in parenthetical

tryItOut 871
Compiling threw: SyntaxError: missing { before function body

tryItOut 872

tryItOut 873

tryItOut 874

tryItOut 875

tryItOut 876
Running threw: ReferenceError: reference to undefined XML name @foo

tryItOut 877
It's an iterator!
Iterating threw!
Iterating threw: ReferenceError: reference to undefined XML name *

tryItOut 878
Compiling threw: SyntaxError: syntax error

tryItOut 879
Compiling threw: SyntaxError: syntax error

tryItOut 880
It's an iterator!
Iterating threw!
Iterating threw: SyntaxError: invalid regular expression flag n

tryItOut 881
Compiling threw: SyntaxError: missing ; before statement

tryItOut 882
Compiling threw: SyntaxError: invalid assignment left-hand side

tryItOut 883

tryItOut 884
Running threw: <x>
  <y/>
</x>

tryItOut 885
Running threw: ReferenceError: reference to undefined XML name @foo

tryItOut 886

tryItOut 887

tryItOut 888
Compiling threw: SyntaxError: syntax error

tryItOut 889
Compiling threw: SyntaxError: invalid for/in left-hand side

tryItOut 890
Compiling threw: SyntaxError: missing ) in parenthetical

tryItOut 891

tryItOut 892
Compiling threw: SyntaxError: syntax error

tryItOut 893
Compiling threw: SyntaxError: missing while after do-loop body

tryItOut 894
Compiling threw: SyntaxError: invalid for/in left-hand side

tryItOut 895

tryItOut 896

tryItOut 897
Compiling threw: SyntaxError: missing ) after condition

tryItOut 898
Compiling threw: SyntaxError: missing variable name

tryItOut 899
Compiling threw: SyntaxError: syntax error

tryItOut 900

tryItOut 901
Compiling threw: SyntaxError: missing { before function body

tryItOut 902
Compiling threw: SyntaxError: invalid assignment left-hand side

tryItOut 903
Compiling threw: SyntaxError: syntax error

tryItOut 904
Running threw: TypeError: this is not a function

tryItOut 905
Compiling threw: TypeError: redeclaration of const __parent__

tryItOut 906
It's an iterator!
Iterating threw!
Iterating threw: ReferenceError: reference to undefined XML name @foo

tryItOut 907

tryItOut 908

tryItOut 909
Compiling threw: SyntaxError: missing = in destructuring declaration

tryItOut 910

tryItOut 911
Compiling threw: SyntaxError: missing = in destructuring declaration

tryItOut 912
Compiling threw: SyntaxError: invalid for each loop

tryItOut 913
Compiling threw: TypeError: redeclaration of const constructor

tryItOut 914
Compiling threw: SyntaxError: invalid for/in left-hand side

tryItOut 915

tryItOut 916
Running threw: ReferenceError: reference to undefined XML name @foo

tryItOut 917
Compiling threw: SyntaxError: syntax error

tryItOut 918

tryItOut 919
Compiling threw: SyntaxError: syntax error

tryItOut 920

tryItOut 921
It's an iterator!
Iterating threw!
Iterating threw: ReferenceError: reference to undefined XML name *::*

tryItOut 922
Compiling threw: SyntaxError: missing { before function body

tryItOut 923
Compiling threw: SyntaxError: missing ) in parenthetical

tryItOut 924
Compiling threw: SyntaxError: syntax error

tryItOut 925

tryItOut 926

tryItOut 927
Compiling threw: SyntaxError: syntax error

tryItOut 928
Compiling threw: SyntaxError: missing name after . operator

tryItOut 929
Compiling threw: SyntaxError: invalid decrement operand

tryItOut 930
Running threw: ReferenceError: reference to undefined XML name *

tryItOut 931
Compiling threw: SyntaxError: syntax error

tryItOut 932
Compiling threw: SyntaxError: invalid for/in left-hand side

tryItOut 933
It's an iterator!
Iterating succeeded, iterCount == 0

tryItOut 934

tryItOut 935

tryItOut 936
Compiling threw: SyntaxError: missing { before function body

tryItOut 937
Running threw: TypeError: false.unwatch("prototype") has no properties

tryItOut 938
Compiling threw: SyntaxError: syntax error

tryItOut 939
Compiling threw: SyntaxError: invalid assignment left-hand side

tryItOut 940
Running threw: Can't toString the error!!

tryItOut 941

tryItOut 942

tryItOut 943

tryItOut 944

tryItOut 945
Compiling threw: SyntaxError: missing { before function body

tryItOut 946

tryItOut 947
Compiling threw: SyntaxError: illegal XML character

tryItOut 948
Compiling threw: SyntaxError: syntax error

tryItOut 949
Compiling threw: SyntaxError: missing { before function body

tryItOut 950
Compiling threw: SyntaxError: missing variable name

tryItOut 951

tryItOut 952

tryItOut 953

tryItOut 954
Compiling threw: SyntaxError: missing { before function body

tryItOut 955
Compiling threw: TypeError: generator function anonymous returns a value

tryItOut 956
Compiling threw: SyntaxError: invalid for/in left-hand side

tryItOut 957
Compiling threw: SyntaxError: missing while after do-loop body

tryItOut 958

tryItOut 959
Compiling threw: SyntaxError: invalid assignment left-hand side

tryItOut 960
Compiling threw: SyntaxError: syntax error

tryItOut 961
Compiling threw: SyntaxError: invalid increment operand

tryItOut 962
Compiling threw: SyntaxError: invalid increment operand

tryItOut 963
Compiling threw: SyntaxError: missing = in destructuring declaration

tryItOut 964

tryItOut 965

tryItOut 966
Compiling threw: SyntaxError: missing variable name

tryItOut 967
Compiling threw: SyntaxError: syntax error

tryItOut 968
Compiling threw: SyntaxError: missing while after do-loop body

tryItOut 969
Compiling threw: SyntaxError: syntax error

tryItOut 970

tryItOut 971
It's an iterator!
Iterating succeeded, iterCount == 1

tryItOut 972
Compiling threw: SyntaxError: duplicate label

tryItOut 973
Running threw: ReferenceError: reference to undefined XML name *

tryItOut 974
Running threw: ReferenceError: window is not defined

tryItOut 975
Compiling threw: SyntaxError: syntax error

tryItOut 976

tryItOut 977

tryItOut 978
Compiling threw: SyntaxError: syntax error

tryItOut 979
Compiling threw: SyntaxError: syntax error

tryItOut 980

tryItOut 981
Compiling threw: SyntaxError: missing ) in parenthetical

tryItOut 982
Compiling threw: SyntaxError: missing ; after for-loop initializer

tryItOut 983
Compiling threw: TypeError: generator function anonymous returns a value

tryItOut 984

tryItOut 985

tryItOut 986
Compiling threw: SyntaxError: missing variable name

tryItOut 987
Compiling threw: SyntaxError: missing ) in parenthetical

tryItOut 988
Running threw: ReferenceError: window is not defined

tryItOut 989
Running threw: TypeError: this.zzz has no properties

tryItOut 990

tryItOut 991
Compiling threw: SyntaxError: invalid assignment left-hand side

tryItOut 992

tryItOut 993
Compiling threw: SyntaxError: invalid for/in left-hand side

tryItOut 994
Compiling threw: SyntaxError: invalid for/in left-hand side

tryItOut 995

tryItOut 996
Compiling threw: SyntaxError: missing while after do-loop body

tryItOut 997

tryItOut 998

tryItOut 999
Running threw: ReferenceError: window is not defined

tryItOut 1000

ALL OK

Script done on Sat 04 May 2013 07:56:19 AM PDT
