Script started on Sat 04 May 2013 07:59:17 AM PDT
***
Targeting SpiderMonkey / Gecko.

tryItOut 1
It's an iterator!
Iterating threw!
Iterating threw: TypeError: p.z = __parent__ is not a function

tryItOut 2

tryItOut 3
Compiling threw: SyntaxError: syntax error

tryItOut 4
Compiling threw: SyntaxError: missing ; before statement

tryItOut 5
Compiling threw: SyntaxError: missing ; before statement

tryItOut 6
Running threw: TypeError: this.zzz has no properties

tryItOut 7
Compiling threw: SyntaxError: missing formal parameter

tryItOut 8
Compiling threw: SyntaxError: syntax error

tryItOut 9
It's an iterator!
Iterating succeeded, iterCount == 1

tryItOut 10
Compiling threw: SyntaxError: invalid destructuring assignment operator

tryItOut 11
Compiling threw: SyntaxError: invalid assignment left-hand side

tryItOut 12
Compiling threw: SyntaxError: invalid destructuring assignment operator

tryItOut 13

tryItOut 14
Compiling threw: SyntaxError: invalid for/in left-hand side

tryItOut 15
Compiling threw: TypeError: redeclaration of const __parent__

tryItOut 16
It's an iterator!
Iterating succeeded, iterCount == 0

tryItOut 17
It's an iterator!
Iterating threw!
Iterating threw: ReferenceError: prop is not defined

tryItOut 18
Compiling threw: SyntaxError: syntax error

tryItOut 19
Compiling threw: SyntaxError: syntax error

tryItOut 20
It's an iterator!
Iterating threw!
Iterating threw: TypeError: undefined has no properties

tryItOut 21
Compiling threw: SyntaxError: missing { before function body

tryItOut 22
It's an iterator!
Iterating threw!
Iterating threw: ReferenceError: prototype is not defined

tryItOut 23

tryItOut 24
Running threw: ReferenceError: __noSuchMethod__ is not defined

tryItOut 25
Compiling threw: SyntaxError: syntax error

tryItOut 26

tryItOut 27
Compiling threw: SyntaxError: invalid increment operand

tryItOut 28

tryItOut 29
Running threw: ReferenceError: __iterator__ is not defined

tryItOut 30
Running threw: TypeError: this.zzz has no properties

tryItOut 31
Running threw: TypeError: new {}.hasOwnProperty(<x><y/></x>, {a1:1}) is not a function

tryItOut 32
Running threw: ReferenceError: prototype is not defined

tryItOut 33

tryItOut 34
Compiling threw: SyntaxError: invalid for each loop

tryItOut 35

tryItOut 36
Compiling threw: SyntaxError: missing } after let block

tryItOut 37

tryItOut 38
Running threw: ReferenceError: prototype is not defined

tryItOut 39

tryItOut 40
Compiling threw: SyntaxError: syntax error

tryItOut 41
Compiling threw: SyntaxError: missing variable name

tryItOut 42

tryItOut 43

tryItOut 44
Compiling threw: SyntaxError: syntax error

tryItOut 45
Running threw: ReferenceError: S is not defined

tryItOut 46

tryItOut 47

tryItOut 48

tryItOut 49
Compiling threw: SyntaxError: syntax error

tryItOut 50
Compiling threw: SyntaxError: invalid for/in left-hand side

tryItOut 51

tryItOut 52
Compiling threw: SyntaxError: missing : after property id

tryItOut 53
Compiling threw: SyntaxError: invalid for/in left-hand side

tryItOut 54

tryItOut 55

tryItOut 56
Compiling threw: SyntaxError: invalid assignment left-hand side

tryItOut 57
Running threw: ReferenceError: prototype is not defined

tryItOut 58

tryItOut 59
Compiling threw: SyntaxError: missing = in destructuring declaration

tryItOut 60
Compiling threw: SyntaxError: missing } after property list

tryItOut 61
Compiling threw: SyntaxError: invalid for/in left-hand side

tryItOut 62

tryItOut 63
Running threw: TypeError: this.zzz has no properties

tryItOut 64
Compiling threw: SyntaxError: missing } after let block

tryItOut 65
It's an iterator!
Iterating succeeded, iterCount == 1

tryItOut 66

tryItOut 67

tryItOut 68
It's an iterator!
Iterating threw!
Iterating threw: ReferenceError: z1 is not defined

tryItOut 69
Compiling threw: SyntaxError: missing { before function body

tryItOut 70

tryItOut 71
before 122080, after 122080, break 010e2000

tryItOut 72

tryItOut 73

tryItOut 74
It's an iterator!
Iterating threw!
Iterating threw: Error: invalid sharp variable use #1#

tryItOut 75
Running threw: TypeError: this.zzz has no properties

tryItOut 76
Running threw: ReferenceError: z1 is not defined

tryItOut 77

tryItOut 78
Compiling threw: SyntaxError: finally without try

tryItOut 79
It's an iterator!
Iterating succeeded, iterCount == 1

tryItOut 80
Compiling threw: SyntaxError: invalid for/in left-hand side

tryItOut 81

tryItOut 82
Compiling threw: SyntaxError: missing variable name

tryItOut 83

tryItOut 84
It's an iterator!
Iterating succeeded, iterCount == 1

tryItOut 85

tryItOut 86
Compiling threw: SyntaxError: missing variable name

tryItOut 87
Compiling threw: SyntaxError: duplicate label

tryItOut 88

tryItOut 89

tryItOut 90
Compiling threw: SyntaxError: syntax error

tryItOut 91
Running threw: ReferenceError: prototype is not defined

tryItOut 92

tryItOut 93
Compiling threw: SyntaxError: missing ; before statement

tryItOut 94
Compiling threw: SyntaxError: missing { before function body

tryItOut 95

tryItOut 96

tryItOut 97
Compiling threw: SyntaxError: missing ) after let head

tryItOut 98
It's an iterator!
Iterating succeeded, iterCount == 1

tryItOut 99
It's an iterator!
Iterating threw!
Iterating threw: ReferenceError: prototype is not defined

tryItOut 100

tryItOut 101
Compiling threw: SyntaxError: missing ; before statement

tryItOut 102
Compiling threw: SyntaxError: invalid for/in left-hand side

tryItOut 103
Running threw: TypeError: arguments[0] has no properties

tryItOut 104
Running threw: ReferenceError: z2 is not defined

tryItOut 105
Compiling threw: SyntaxError: invalid for/in left-hand side

tryItOut 106
It's an iterator!
Iterating threw!
Iterating threw: ReferenceError: prototype is not defined

tryItOut 107
Compiling threw: SyntaxError: missing variable name

tryItOut 108
It's an iterator!
Iterating succeeded, iterCount == 0

tryItOut 109

tryItOut 110
Compiling threw: SyntaxError: syntax error

tryItOut 111

tryItOut 112

tryItOut 113

tryItOut 114

tryItOut 115
Compiling threw: SyntaxError: syntax error

tryItOut 116
It's an iterator!
Iterating threw!
Iterating threw: TypeError: arguments[0] has no properties

tryItOut 117
Running threw: TypeError: this.zzz has no properties

tryItOut 118
Compiling threw: SyntaxError: invalid decrement operand

tryItOut 119

tryItOut 120

tryItOut 121

tryItOut 122
Compiling threw: SyntaxError: invalid for each loop

tryItOut 123
Compiling threw: SyntaxError: missing ; before statement

tryItOut 124
It's an iterator!
Iterating threw!
Iterating threw: ReferenceError: z1 is not defined

tryItOut 125
Compiling threw: SyntaxError: syntax error

tryItOut 126
Compiling threw: SyntaxError: missing ; before statement

tryItOut 127
Compiling threw: SyntaxError: invalid for/in left-hand side

tryItOut 128

tryItOut 129
Running threw: ReferenceError: z1 is not defined

tryItOut 130
Running threw: ReferenceError: E is not defined

tryItOut 131

tryItOut 132
Compiling threw: SyntaxError: syntax error

tryItOut 133
It's an iterator!
Iterating succeeded, iterCount == 1

tryItOut 134
Compiling threw: SyntaxError: syntax error

tryItOut 135

tryItOut 136

tryItOut 137
Compiling threw: SyntaxError: missing } in compound statement

tryItOut 138
Compiling threw: SyntaxError: syntax error

tryItOut 139

tryItOut 140

tryItOut 141
Running threw: ReferenceError: prop is not defined

tryItOut 142

tryItOut 143
It's an iterator!
Iterating threw!
Iterating threw: ReferenceError: z2 is not defined

tryItOut 144

tryItOut 145
Compiling threw: SyntaxError: syntax error

tryItOut 146

tryItOut 147

tryItOut 148

tryItOut 149
Compiling threw: SyntaxError: invalid for each loop

tryItOut 150

tryItOut 151
Compiling threw: SyntaxError: invalid for each loop

tryItOut 152
Compiling threw: SyntaxError: invalid assignment left-hand side

tryItOut 153

tryItOut 154
Compiling threw: SyntaxError: missing ; before statement

tryItOut 155

tryItOut 156

tryItOut 157
Running threw: ReferenceError: prototype is not defined

tryItOut 158
Compiling threw: SyntaxError: syntax error

tryItOut 159
Compiling threw: SyntaxError: missing name after . operator

tryItOut 160
It's an iterator!
Iterating succeeded, iterCount == 0

tryItOut 161
Compiling threw: SyntaxError: invalid for/in left-hand side

tryItOut 162

tryItOut 163

tryItOut 164
Compiling threw: SyntaxError: missing } after let block

tryItOut 165

tryItOut 166
Compiling threw: SyntaxError: missing ) in parenthetical

tryItOut 167
Compiling threw: SyntaxError: syntax error

tryItOut 168
Compiling threw: SyntaxError: missing variable name

tryItOut 169
Compiling threw: SyntaxError: missing ; after for-loop initializer

tryItOut 170
Compiling threw: SyntaxError: missing ; before statement

tryItOut 171
Compiling threw: SyntaxError: invalid for/in left-hand side

tryItOut 172
It's an iterator!
Iterating threw!
Iterating threw: TypeError: this.zzz has no properties

tryItOut 173

tryItOut 174
Compiling threw: SyntaxError: missing variable name

tryItOut 175

tryItOut 176
Compiling threw: SyntaxError: invalid increment operand

tryItOut 177

tryItOut 178

tryItOut 179
It's an iterator!
Iterating threw!
Iterating threw: ReferenceError: prop is not defined

tryItOut 180
Compiling threw: SyntaxError: missing variable name

tryItOut 181

tryItOut 182
Compiling threw: SyntaxError: missing ) in parenthetical

tryItOut 183

tryItOut 184
Compiling threw: SyntaxError: invalid for/in left-hand side

tryItOut 185
Compiling threw: SyntaxError: missing } in compound statement

tryItOut 186

tryItOut 187
Compiling threw: SyntaxError: missing = in destructuring declaration

tryItOut 188
Compiling threw: SyntaxError: missing = in destructuring declaration

tryItOut 189

tryItOut 190

tryItOut 191
It's an iterator!
before 156960, after 156960, break 0112d000
Iterating succeeded, iterCount == 0

tryItOut 192

tryItOut 193
before 156960, after 156960, break 0112d000
before 156960, after 156960, break 0112d000
before 156960, after 156960, break 0112d000
before 156960, after 156960, break 0112d000
before 156960, after 156960, break 0112d000
before 156960, after 156960, break 0112d000
before 156960, after 156960, break 0112d000
before 156960, after 156960, break 0112d000
before 156960, after 156960, break 0112d000
before 156960, after 156960, break 0112d000
before 156960, after 156960, break 0112d000
before 156960, after 156960, break 0112d000
before 156960, after 156960, break 0112d000
before 156960, after 156960, break 0112d000
before 156960, after 156960, break 0112d000
before 156960, after 156960, break 0112d000

tryItOut 194
Compiling threw: SyntaxError: missing ; before statement

tryItOut 195

tryItOut 196
Compiling threw: SyntaxError: missing { before function body

tryItOut 197
It's an iterator!
Iterating threw!
Iterating threw: ReferenceError: z2 is not defined

tryItOut 198
Compiling threw: SyntaxError: missing ) after condition

tryItOut 199
Compiling threw: SyntaxError: syntax error

tryItOut 200
Compiling threw: SyntaxError: invalid increment operand

tryItOut 201
Compiling threw: SyntaxError: missing ) after condition

tryItOut 202

tryItOut 203
Running threw: ReferenceError: z1 is not defined

tryItOut 204
Compiling threw: SyntaxError: missing variable name

tryItOut 205

tryItOut 206
Running threw: Error: invalid sharp variable use #1#

tryItOut 207
It's an iterator!
Iterating threw!
Iterating threw: TypeError: <x><y/></x>.yoyo is not a function

tryItOut 208
It's an iterator!
Iterating threw!
Iterating threw: ReferenceError: __noSuchMethod__ is not defined

tryItOut 209
Compiling threw: SyntaxError: syntax error

tryItOut 210

tryItOut 211
It's an iterator!
Iterating threw!
Iterating threw: TypeError: <x><y/></x>.yoyo is not a function

tryItOut 212
It's an iterator!
Iterating threw!
Iterating threw: TypeError: this.zzz has no properties

tryItOut 213
Compiling threw: SyntaxError: invalid assignment left-hand side

tryItOut 214
Running threw: TypeError: arguments[0] has no properties

tryItOut 215

tryItOut 216
Compiling threw: SyntaxError: syntax error

tryItOut 217

tryItOut 218

tryItOut 219
Compiling threw: SyntaxError: invalid for/in left-hand side

tryItOut 220
Running threw: SyntaxError: illegal XML character

tryItOut 221

tryItOut 222
Compiling threw: SyntaxError: missing { before function body

tryItOut 223
Compiling threw: SyntaxError: missing } in XML expression

tryItOut 224

tryItOut 225
Compiling threw: SyntaxError: missing { before function body

tryItOut 226
Compiling threw: SyntaxError: missing ) after condition

tryItOut 227
Running threw: ReferenceError: z2 is not defined

tryItOut 228

tryItOut 229
Running threw: ReferenceError: prop is not defined

tryItOut 230
Compiling threw: SyntaxError: syntax error

tryItOut 231
Compiling threw: SyntaxError: syntax error

tryItOut 232
Compiling threw: SyntaxError: invalid assignment left-hand side

tryItOut 233
Compiling threw: SyntaxError: missing = in destructuring declaration

tryItOut 234
Running threw: ReferenceError: prop is not defined

tryItOut 235
Running threw: ReferenceError: z1 is not defined

tryItOut 236
Compiling threw: TypeError: redeclaration of const prototype

tryItOut 237
Compiling threw: SyntaxError: syntax error

tryItOut 238
Compiling threw: SyntaxError: missing variable name

tryItOut 239
It's an iterator!
Iterating succeeded, iterCount == 2

tryItOut 240

tryItOut 241

tryItOut 242

tryItOut 243

tryItOut 244
Running threw: TypeError: redeclaration of const __parent__

tryItOut 245
Compiling threw: SyntaxError: missing = in destructuring declaration

tryItOut 246

tryItOut 247
Compiling threw: SyntaxError: syntax error

tryItOut 248

tryItOut 249
Compiling threw: SyntaxError: missing variable name

tryItOut 250
Running threw: ReferenceError: __noSuchMethod__ is not defined

tryItOut 251

tryItOut 252
Compiling threw: SyntaxError: missing variable name

tryItOut 253
It's an iterator!
Iterating succeeded, iterCount == 1

tryItOut 254
Compiling threw: SyntaxError: invalid for/in left-hand side

tryItOut 255
Compiling threw: SyntaxError: missing ; before statement

tryItOut 256
Compiling threw: SyntaxError: invalid increment operand

tryItOut 257
Compiling threw: SyntaxError: missing ; after for-loop initializer

tryItOut 258

tryItOut 259
Compiling threw: SyntaxError: syntax error

tryItOut 260

tryItOut 261

tryItOut 262
Compiling threw: SyntaxError: invalid decrement operand

tryItOut 263
Compiling threw: SyntaxError: syntax error

tryItOut 264
Compiling threw: SyntaxError: illegal XML character

tryItOut 265
Compiling threw: SyntaxError: missing ) after condition

tryItOut 266

tryItOut 267
It's an iterator!
Iterating succeeded, iterCount == 1

tryItOut 268
Compiling threw: SyntaxError: missing = in destructuring declaration

tryItOut 269
Compiling threw: SyntaxError: invalid assignment left-hand side

tryItOut 270
Compiling threw: TypeError: redeclaration of var __parent__

tryItOut 271

tryItOut 272

tryItOut 273
Running threw: TypeError: p.z = __proto__ is not a function

tryItOut 274

tryItOut 275
Compiling threw: SyntaxError: missing ) in parenthetical

tryItOut 276

tryItOut 277
It's an iterator!
Iterating succeeded, iterCount == 1

tryItOut 278
Compiling threw: SyntaxError: illegal XML character

tryItOut 279

tryItOut 280
Compiling threw: SyntaxError: invalid for/in left-hand side

tryItOut 281
Running threw: ReferenceError: reference to undefined property "__noSuchMethod__"

tryItOut 282
Compiling threw: SyntaxError: missing { before function body

tryItOut 283

tryItOut 284
It's an iterator!
Iterating threw!
Iterating threw: TypeError: constructor.yoyo is not a function

tryItOut 285

tryItOut 286
Compiling threw: SyntaxError: invalid for/in left-hand side

tryItOut 287
Compiling threw: SyntaxError: syntax error

tryItOut 288
Compiling threw: SyntaxError: missing ) after let head

tryItOut 289
Compiling threw: SyntaxError: missing while after do-loop body

tryItOut 290
It's an iterator!
Iterating succeeded, iterCount == 4

tryItOut 291

tryItOut 292

tryItOut 293
Compiling threw: SyntaxError: missing ) in parenthetical

tryItOut 294
Compiling threw: SyntaxError: invalid assignment left-hand side

tryItOut 295
Running threw: TypeError: this.zzz has no properties

tryItOut 296
Compiling threw: TypeError: redeclaration of variable __noSuchMethod__

tryItOut 297
Running threw: ReferenceError: z2 is not defined

tryItOut 298
Compiling threw: TypeError: redeclaration of const __count__

tryItOut 299
Compiling threw: SyntaxError: missing ) in parenthetical

tryItOut 300

tryItOut 301

tryItOut 302

tryItOut 303
before 156960, after 156960, break 0115a000

tryItOut 304
Compiling threw: SyntaxError: syntax error

tryItOut 305
Compiling threw: SyntaxError: syntax error

tryItOut 306
Compiling threw: SyntaxError: missing { before function body

tryItOut 307
Running threw: ReferenceError: __noSuchMethod__ is not defined

tryItOut 308
Compiling threw: SyntaxError: missing } after let block

tryItOut 309
Compiling threw: SyntaxError: invalid for/in left-hand side

tryItOut 310
Compiling threw: SyntaxError: syntax error

tryItOut 311
Compiling threw: SyntaxError: invalid for/in left-hand side

tryItOut 312
before 156960, after 156960, break 0115a000

tryItOut 313

tryItOut 314
Compiling threw: SyntaxError: missing { before function body

tryItOut 315
Compiling threw: SyntaxError: invalid assignment left-hand side

tryItOut 316
Compiling threw: SyntaxError: missing variable name

tryItOut 317

tryItOut 318
Compiling threw: SyntaxError: syntax error

tryItOut 319
Compiling threw: SyntaxError: invalid increment operand

tryItOut 320
Compiling threw: SyntaxError: missing { before function body

tryItOut 321

tryItOut 322

tryItOut 323
It's an iterator!
Iterating succeeded, iterCount == 1

tryItOut 324
Compiling threw: SyntaxError: missing } after let block

tryItOut 325
Compiling threw: SyntaxError: missing identifier in catch

tryItOut 326
Compiling threw: SyntaxError: syntax error

tryItOut 327

tryItOut 328

tryItOut 329
Compiling threw: SyntaxError: missing } after let block

tryItOut 330
It's an iterator!
Iterating succeeded, iterCount == 1

tryItOut 331
Compiling threw: SyntaxError: syntax error

tryItOut 332

tryItOut 333

tryItOut 334

tryItOut 335

tryItOut 336

tryItOut 337

tryItOut 338
Compiling threw: SyntaxError: invalid assignment left-hand side

tryItOut 339
Compiling threw: SyntaxError: missing { before function body

tryItOut 340

tryItOut 341

tryItOut 342
Compiling threw: SyntaxError: invalid for/in left-hand side

tryItOut 343
Compiling threw: SyntaxError: missing ) after condition

tryItOut 344
Compiling threw: SyntaxError: missing variable name

tryItOut 345
It's an iterator!
Iterating succeeded, iterCount == 0

tryItOut 346
Compiling threw: SyntaxError: invalid for/in left-hand side

tryItOut 347

tryItOut 348
It's an iterator!
Iterating threw!
Iterating threw: ReferenceError: z1 is not defined

tryItOut 349

tryItOut 350

tryItOut 351
before 156960, after 156960, break 01159000

tryItOut 352
Compiling threw: SyntaxError: duplicate label

tryItOut 353
It's an iterator!
Iterating succeeded, iterCount == 1

tryItOut 354

tryItOut 355

tryItOut 356
Compiling threw: TypeError: redeclaration of variable __iterator__

tryItOut 357
It's an iterator!
Iterating threw!
Iterating threw: TypeError: redeclaration of var __count__

tryItOut 358
Compiling threw: SyntaxError: invalid for/in left-hand side

tryItOut 359
Compiling threw: SyntaxError: invalid assignment left-hand side

tryItOut 360
before 156960, after 156960, break 01159000

tryItOut 361

tryItOut 362
Compiling threw: SyntaxError: missing ) after condition

tryItOut 363

tryItOut 364
Running threw: ReferenceError: z1 is not defined

tryItOut 365
Compiling threw: SyntaxError: invalid XML name

tryItOut 366
It's an iterator!
Iterating threw!
Iterating threw: TypeError: [1].yoyo is not a function

tryItOut 367
Compiling threw: SyntaxError: missing { before function body

tryItOut 368
Compiling threw: SyntaxError: invalid for/in left-hand side

tryItOut 369
Compiling threw: SyntaxError: missing } after let block

tryItOut 370
Running threw: TypeError: this.zzz has no properties

tryItOut 371

tryItOut 372

tryItOut 373
Running threw: ReferenceError: prop is not defined

tryItOut 374

tryItOut 375
Compiling threw: SyntaxError: invalid assignment left-hand side

tryItOut 376
Compiling threw: SyntaxError: missing ; before statement

tryItOut 377

tryItOut 378

tryItOut 379
Compiling threw: SyntaxError: syntax error

tryItOut 380

tryItOut 381
Compiling threw: SyntaxError: missing { before function body

tryItOut 382
before 156960, after 156960, break 01159000
Running threw: TypeError: gc() is not a function

tryItOut 383

tryItOut 384
Compiling threw: SyntaxError: missing variable name

tryItOut 385

tryItOut 386
It's an iterator!
Iterating succeeded, iterCount == 1

tryItOut 387
Running threw: TypeError: [[]] has invalid __iterator__ value [[]]

tryItOut 388
Compiling threw: SyntaxError: invalid for/in left-hand side

tryItOut 389

tryItOut 390
Running threw: ReferenceError: __noSuchMethod__ is not defined

tryItOut 391
Compiling threw: SyntaxError: missing ; before statement

tryItOut 392

tryItOut 393
Compiling threw: SyntaxError: syntax error

tryItOut 394

tryItOut 395
Compiling threw: SyntaxError: invalid assignment left-hand side

tryItOut 396
Running threw: TypeError: this.zzz has no properties

tryItOut 397
Compiling threw: SyntaxError: duplicate label

tryItOut 398
Compiling threw: SyntaxError: invalid destructuring assignment operator

tryItOut 399

tryItOut 400
Compiling threw: TypeError: redeclaration of variable __iterator__

tryItOut 401
Compiling threw: SyntaxError: missing { before function body

tryItOut 402
Compiling threw: SyntaxError: missing variable name

tryItOut 403
Compiling threw: SyntaxError: missing = in destructuring declaration

tryItOut 404

tryItOut 405
Compiling threw: SyntaxError: missing ; before statement

tryItOut 406

tryItOut 407

tryItOut 408
Compiling threw: SyntaxError: missing } in XML expression

tryItOut 409
Running threw: TypeError: this.zzz has no properties

tryItOut 410
Compiling threw: SyntaxError: invalid for each loop

tryItOut 411
Compiling threw: SyntaxError: invalid destructuring assignment operator

tryItOut 412

tryItOut 413
Compiling threw: SyntaxError: illegal XML character

tryItOut 414

tryItOut 415
Running threw: ReferenceError: __noSuchMethod__ is not defined

tryItOut 416

tryItOut 417
It's an iterator!
Iterating succeeded, iterCount == 1

tryItOut 418

tryItOut 419
Compiling threw: SyntaxError: missing ) after condition

tryItOut 420
Compiling threw: SyntaxError: syntax error

tryItOut 421

tryItOut 422
It's an iterator!
Iterating succeeded, iterCount == 1

tryItOut 423

tryItOut 424
Compiling threw: SyntaxError: missing variable name

tryItOut 425

tryItOut 426
It's an iterator!
Iterating succeeded, iterCount == 1

tryItOut 427

tryItOut 428

tryItOut 429
Compiling threw: SyntaxError: missing ) after argument list

tryItOut 430

tryItOut 431
Compiling threw: SyntaxError: missing = in destructuring declaration

tryItOut 432
It's an iterator!
Iterating threw!
Iterating threw: ReferenceError: __noSuchMethod__ is not defined

tryItOut 433
Compiling threw: SyntaxError: missing { before function body

tryItOut 434
Running threw: TypeError: __parent__ is not a constructor

tryItOut 435

tryItOut 436
Compiling threw: SyntaxError: missing name after . operator

tryItOut 437

tryItOut 438
Compiling threw: SyntaxError: syntax error

tryItOut 439

tryItOut 440
Compiling threw: SyntaxError: invalid assignment left-hand side

tryItOut 441

tryItOut 442
Compiling threw: SyntaxError: invalid assignment left-hand side

tryItOut 443
Compiling threw: SyntaxError: invalid for/in left-hand side

tryItOut 444
Compiling threw: SyntaxError: missing = in destructuring declaration

tryItOut 445

tryItOut 446
Running threw: TypeError: [[]] has invalid __iterator__ value [[]]

tryItOut 447
Compiling threw: SyntaxError: syntax error

tryItOut 448
It's an iterator!
Iterating succeeded, iterCount == 1

tryItOut 449

tryItOut 450

tryItOut 451
Compiling threw: SyntaxError: missing variable name

tryItOut 452
It's an iterator!
Iterating succeeded, iterCount == 1

tryItOut 453
Running threw: ReferenceError: Exception is not defined

tryItOut 454

tryItOut 455

tryItOut 456
Compiling threw: SyntaxError: missing ( before let head

tryItOut 457
Running threw: ReferenceError: __parent__ is not defined

tryItOut 458
Running threw: TypeError: <zzz>[1,,]</zzz> is not a function

tryItOut 459
Compiling threw: TypeError: redeclaration of const prop

tryItOut 460

tryItOut 461
Running threw: TypeError: [[]] has invalid __iterator__ value [[]]

tryItOut 462
Compiling threw: SyntaxError: invalid assignment left-hand side

tryItOut 463
Compiling threw: SyntaxError: invalid for each loop

tryItOut 464
Running threw: ReferenceError: __parent__ is not defined

tryItOut 465

tryItOut 466

tryItOut 467

tryItOut 468

tryItOut 469

tryItOut 470
Running threw: ReferenceError: __proto__ is not defined

tryItOut 471

tryItOut 472
Compiling threw: SyntaxError: missing { before function body

tryItOut 473

tryItOut 474
Compiling threw: SyntaxError: missing ) after let head

tryItOut 475

tryItOut 476

tryItOut 477

tryItOut 478
Compiling threw: SyntaxError: missing } after let block

tryItOut 479

tryItOut 480
Compiling threw: SyntaxError: syntax error

tryItOut 481
Compiling threw: TypeError: redeclaration of variable constructor

tryItOut 482

tryItOut 483
Compiling threw: SyntaxError: missing ; before statement

tryItOut 484
It's an iterator!
Iterating succeeded, iterCount == 1

tryItOut 485

tryItOut 486
Running threw: ReferenceError: z1 is not defined

tryItOut 487
Compiling threw: SyntaxError: syntax error

tryItOut 488

tryItOut 489
It's an iterator!
Iterating succeeded, iterCount == 1

tryItOut 490
Compiling threw: SyntaxError: missing { before function body

tryItOut 491
Compiling threw: SyntaxError: missing : after property id

tryItOut 492
Compiling threw: SyntaxError: invalid assignment left-hand side

tryItOut 493

tryItOut 494

tryItOut 495
It's an iterator!
Iterating succeeded, iterCount == 0

tryItOut 496
It's an iterator!
Iterating succeeded, iterCount == 1

tryItOut 497

tryItOut 498
Compiling threw: SyntaxError: missing : in conditional expression

tryItOut 499

tryItOut 500
Compiling threw: SyntaxError: invalid assignment left-hand side

tryItOut 501
Running threw: TypeError: __noSuchMethod__ has no properties

tryItOut 502

tryItOut 503
Running threw: ReferenceError: __noSuchMethod__ is not defined

tryItOut 504
Compiling threw: SyntaxError: invalid increment operand

tryItOut 505
Compiling threw: SyntaxError: invalid for/in left-hand side

tryItOut 506
Compiling threw: SyntaxError: invalid for/in left-hand side

tryItOut 507
Running threw: ReferenceError: __proto__ is not defined

tryItOut 508
Compiling threw: SyntaxError: invalid for/in left-hand side

tryItOut 509

tryItOut 510
It's an iterator!
Iterating succeeded, iterCount == 1

tryItOut 511

tryItOut 512
Compiling threw: SyntaxError: missing ) after for-loop control

tryItOut 513

tryItOut 514
before 261600, after 226720, break 01229000

tryItOut 515
Compiling threw: SyntaxError: syntax error

tryItOut 516

tryItOut 517
It's an iterator!
Iterating succeeded, iterCount == 1

tryItOut 518

tryItOut 519

tryItOut 520

tryItOut 521

tryItOut 522
It's an iterator!
Iterating succeeded, iterCount == 1

tryItOut 523
Compiling threw: SyntaxError: syntax error

tryItOut 524

tryItOut 525
Compiling threw: SyntaxError: syntax error

tryItOut 526
Running threw: TypeError: this.zzz has no properties

tryItOut 527
Compiling threw: SyntaxError: invalid for/in left-hand side

tryItOut 528

tryItOut 529
Compiling threw: SyntaxError: missing variable name

tryItOut 530
It's an iterator!
Iterating succeeded, iterCount == 1

tryItOut 531
before 226720, after 209280, break 01229000

tryItOut 532

tryItOut 533

tryItOut 534
Compiling threw: SyntaxError: invalid for/in left-hand side

tryItOut 535
Compiling threw: SyntaxError: syntax error

tryItOut 536
Compiling threw: SyntaxError: syntax error

tryItOut 537
Running threw: ReferenceError: z1 is not defined

tryItOut 538

tryItOut 539
Running threw: ReferenceError: z1 is not defined

tryItOut 540

tryItOut 541

tryItOut 542
Compiling threw: SyntaxError: invalid assignment left-hand side

tryItOut 543
Compiling threw: SyntaxError: missing ) in parenthetical

tryItOut 544

tryItOut 545
Compiling threw: SyntaxError: invalid assignment left-hand side

tryItOut 546
Compiling threw: SyntaxError: invalid increment operand

tryItOut 547
Compiling threw: SyntaxError: syntax error

tryItOut 548
Compiling threw: SyntaxError: missing { before function body

tryItOut 549
Compiling threw: SyntaxError: syntax error

tryItOut 550
Compiling threw: SyntaxError: invalid XML name

tryItOut 551
Compiling threw: SyntaxError: missing = in destructuring declaration

tryItOut 552
Running threw: ReferenceError: __parent__ is not defined

tryItOut 553

tryItOut 554

tryItOut 555
It's an iterator!
Iterating succeeded, iterCount == 1

tryItOut 556
Compiling threw: SyntaxError: missing ) after condition

tryItOut 557
Compiling threw: SyntaxError: missing name after . operator

tryItOut 558
Compiling threw: SyntaxError: syntax error

tryItOut 559
It's an iterator!
Iterating succeeded, iterCount == 2

tryItOut 560
Running threw: ReferenceError: __noSuchMethod__ is not defined

tryItOut 561
Compiling threw: SyntaxError: missing variable name

tryItOut 562
Compiling threw: SyntaxError: invalid for/in left-hand side

tryItOut 563
Compiling threw: SyntaxError: missing variable name

tryItOut 564

tryItOut 565
Compiling threw: SyntaxError: duplicate label

tryItOut 566
Compiling threw: SyntaxError: syntax error

tryItOut 567
Compiling threw: SyntaxError: missing ) after for-loop control

tryItOut 568
Compiling threw: SyntaxError: syntax error

tryItOut 569
Compiling threw: SyntaxError: invalid for/in left-hand side

tryItOut 570
It's an iterator!
Iterating succeeded, iterCount == 1

tryItOut 571
Compiling threw: SyntaxError: missing ; before statement

tryItOut 572
Compiling threw: SyntaxError: syntax error

tryItOut 573
Compiling threw: SyntaxError: syntax error

tryItOut 574

tryItOut 575
Compiling threw: SyntaxError: missing ( before let head

tryItOut 576
Compiling threw: SyntaxError: missing variable name

tryItOut 577
Compiling threw: SyntaxError: missing { before function body

tryItOut 578
Compiling threw: SyntaxError: missing ) in parenthetical

tryItOut 579

tryItOut 580
Running threw: TypeError: __noSuchMethod__ has no properties

tryItOut 581
Compiling threw: SyntaxError: invalid destructuring assignment operator

tryItOut 582
Compiling threw: SyntaxError: missing ) in parenthetical

tryItOut 583

tryItOut 584
It's an iterator!
Iterating threw!
Iterating threw: TypeError: [] is not a function

tryItOut 585
Compiling threw: TypeError: redeclaration of variable __count__

tryItOut 586

tryItOut 587

tryItOut 588
Compiling threw: SyntaxError: syntax error

tryItOut 589

tryItOut 590

tryItOut 591

tryItOut 592

tryItOut 593
Compiling threw: SyntaxError: invalid assignment left-hand side

tryItOut 594
It's an iterator!
Iterating threw!
Iterating threw: ReferenceError: z1 is not defined

tryItOut 595
Compiling threw: SyntaxError: invalid assignment left-hand side

tryItOut 596
It's an iterator!
Iterating succeeded, iterCount == 1

tryItOut 597

tryItOut 598
Compiling threw: SyntaxError: syntax error

tryItOut 599
Compiling threw: SyntaxError: invalid assignment left-hand side

tryItOut 600

tryItOut 601
Compiling threw: SyntaxError: syntax error

tryItOut 602
It's an iterator!
Iterating succeeded, iterCount == 1

tryItOut 603
Compiling threw: SyntaxError: invalid for/in left-hand side

tryItOut 604
Running threw: TypeError: __iterator__ has no properties

tryItOut 605
It's an iterator!
Iterating succeeded, iterCount == 1

tryItOut 606
Running threw: TypeError: [[]] has invalid __iterator__ value [[]]

tryItOut 607

tryItOut 608

tryItOut 609

tryItOut 610

tryItOut 611
Compiling threw: SyntaxError: missing { before function body

tryItOut 612
Compiling threw: SyntaxError: syntax error

tryItOut 613
Running threw: TypeError: redeclaration of const __parent__

tryItOut 614
Running threw: TypeError: [[]] has invalid __iterator__ value [[]]

tryItOut 615
Compiling threw: SyntaxError: missing { before function body

tryItOut 616

tryItOut 617
Compiling threw: SyntaxError: missing variable name

tryItOut 618
Compiling threw: SyntaxError: invalid for/in left-hand side

tryItOut 619

tryItOut 620
Running threw: TypeError: [[]] has invalid __iterator__ value [[]]

tryItOut 621

tryItOut 622
Compiling threw: TypeError: redeclaration of variable __iterator__

tryItOut 623
Compiling threw: SyntaxError: invalid assignment left-hand side

tryItOut 624
Compiling threw: TypeError: redeclaration of variable prototype

tryItOut 625
Compiling threw: SyntaxError: syntax error

tryItOut 626
Running threw: ReferenceError: __noSuchMethod__ is not defined

tryItOut 627
It's an iterator!
before 261600, after 244160, break 01243000
Iterating succeeded, iterCount == 1

tryItOut 628
Compiling threw: SyntaxError: syntax error

tryItOut 629

tryItOut 630
It's an iterator!
Iterating succeeded, iterCount == 0

tryItOut 631
Compiling threw: SyntaxError: invalid for/in left-hand side

tryItOut 632
Running threw: ReferenceError: constructoryield is not defined

tryItOut 633
Compiling threw: SyntaxError: missing ; before statement

tryItOut 634
Compiling threw: SyntaxError: invalid for each loop

tryItOut 635
Compiling threw: SyntaxError: syntax error

tryItOut 636

tryItOut 637
It's an iterator!
Iterating succeeded, iterCount == 0

tryItOut 638
It's an iterator!
Iterating succeeded, iterCount == 1

tryItOut 639
Compiling threw: SyntaxError: invalid increment operand

tryItOut 640
It's an iterator!
Iterating threw!
Iterating threw: ReferenceError: __noSuchMethod__ is not defined

tryItOut 641
Compiling threw: SyntaxError: invalid for each loop

tryItOut 642
Compiling threw: SyntaxError: invalid for/in left-hand side

tryItOut 643

tryItOut 644
It's an iterator!
Iterating succeeded, iterCount == 1

tryItOut 645
Running threw: ReferenceError: z2 is not defined

tryItOut 646
Running threw: TypeError: this.zzz has no properties

tryItOut 647

tryItOut 648
Compiling threw: SyntaxError: syntax error

tryItOut 649

tryItOut 650
Compiling threw: SyntaxError: missing ) in parenthetical

tryItOut 651
Running threw: ReferenceError: __noSuchMethod__ is not defined

tryItOut 652
It's an iterator!
Iterating succeeded, iterCount == 1

tryItOut 653
Running threw: ReferenceError: __noSuchMethod__ is not defined

tryItOut 654
Compiling threw: SyntaxError: missing variable name

tryItOut 655
Compiling threw: SyntaxError: invalid assignment left-hand side

tryItOut 656
It's an iterator!
Iterating succeeded, iterCount == 1

tryItOut 657

tryItOut 658

tryItOut 659
Compiling threw: SyntaxError: syntax error

tryItOut 660
Compiling threw: SyntaxError: missing variable name

tryItOut 661
before 244160, after 209280, break 01243000

tryItOut 662

tryItOut 663

tryItOut 664
Running threw: TypeError: this.zzz has no properties

tryItOut 665
It's an iterator!
before 209280, after 209280, break 01243000
Iterating succeeded, iterCount == 1

tryItOut 666
Compiling threw: SyntaxError: syntax error

tryItOut 667
Compiling threw: SyntaxError: missing { before function body

tryItOut 668
Compiling threw: SyntaxError: invalid for/in left-hand side

tryItOut 669
Running threw: Error: invalid sharp variable use #1#

tryItOut 670
Compiling threw: SyntaxError: invalid for/in left-hand side

tryItOut 671

tryItOut 672

tryItOut 673

tryItOut 674
Compiling threw: SyntaxError: invalid assignment left-hand side

tryItOut 675

tryItOut 676
Compiling threw: SyntaxError: syntax error

tryItOut 677
Compiling threw: SyntaxError: missing ) in parenthetical

tryItOut 678

tryItOut 679

tryItOut 680
Running threw: TypeError: [[]] has invalid __iterator__ value [[]]

tryItOut 681

tryItOut 682

tryItOut 683
Compiling threw: SyntaxError: invalid for/in left-hand side

tryItOut 684
Compiling threw: SyntaxError: missing } after property list

tryItOut 685
It's an iterator!
Iterating threw!
Iterating threw: ReferenceError: __noSuchMethod__ is not defined

tryItOut 686
Compiling threw: SyntaxError: invalid for/in left-hand side

tryItOut 687

tryItOut 688
Compiling threw: SyntaxError: illegal XML character

tryItOut 689

tryItOut 690

tryItOut 691
Compiling threw: SyntaxError: invalid for/in left-hand side

tryItOut 692
Compiling threw: SyntaxError: invalid assignment left-hand side

tryItOut 693

tryItOut 694
Compiling threw: SyntaxError: syntax error

tryItOut 695

tryItOut 696
Compiling threw: SyntaxError: missing variable name

tryItOut 697
It's an iterator!
Iterating threw!
Iterating threw: TypeError: this.__defineGetter__ is not a function

tryItOut 698
Compiling threw: SyntaxError: missing } after let block

tryItOut 699
Running threw: ReferenceError: __noSuchMethod__ is not defined

tryItOut 700

tryItOut 701

tryItOut 702

tryItOut 703
Running threw: SyntaxError: invalid getter usage

tryItOut 704

tryItOut 705
Running threw: ReferenceError: __noSuchMethod__ is not defined

tryItOut 706
Compiling threw: SyntaxError: missing ; before statement

tryItOut 707
Compiling threw: SyntaxError: missing { before function body

tryItOut 708

tryItOut 709
Compiling threw: SyntaxError: invalid for/in left-hand side

tryItOut 710

tryItOut 711
Compiling threw: SyntaxError: missing variable name

tryItOut 712
Compiling threw: SyntaxError: invalid increment operand

tryItOut 713

tryItOut 714
Compiling threw: SyntaxError: invalid assignment left-hand side

tryItOut 715

tryItOut 716
Compiling threw: SyntaxError: syntax error

tryItOut 717
before 209280, after 209280, break 01243000

tryItOut 718
Running threw: TypeError: this.zzz has no properties

tryItOut 719

tryItOut 720

tryItOut 721

tryItOut 722
Running threw: TypeError: this.zzz has no properties

tryItOut 723
Compiling threw: SyntaxError: missing ) in parenthetical

tryItOut 724

tryItOut 725

tryItOut 726
Running threw: TypeError: this.zzz has no properties

tryItOut 727

tryItOut 728

tryItOut 729

tryItOut 730
It's an iterator!
Iterating succeeded, iterCount == 0

tryItOut 731
Compiling threw: SyntaxError: missing { before function body

tryItOut 732

tryItOut 733

tryItOut 734
Compiling threw: SyntaxError: duplicate label

tryItOut 735
Compiling threw: SyntaxError: invalid assignment left-hand side

tryItOut 736
Compiling threw: SyntaxError: invalid destructuring assignment operator

tryItOut 737
It's an iterator!
Iterating succeeded, iterCount == 1

tryItOut 738
before 209280, after 209280, break 01243000

tryItOut 739
Compiling threw: SyntaxError: missing { before function body

tryItOut 740
Compiling threw: SyntaxError: missing { before function body

tryItOut 741

tryItOut 742

tryItOut 743
Compiling threw: SyntaxError: syntax error

tryItOut 744

tryItOut 745
before 209280, after 209280, break 01243000

tryItOut 746
It's an iterator!
Iterating succeeded, iterCount == 0

tryItOut 747
Running threw: TypeError: this.zzz has no properties

tryItOut 748
It's an iterator!
Iterating succeeded, iterCount == 1

tryItOut 749

tryItOut 750
Running threw: TypeError: this.zzz has no properties

tryItOut 751
It's an iterator!
Iterating succeeded, iterCount == 1

tryItOut 752
before 209280, after 209280, break 01243000

tryItOut 753
Compiling threw: SyntaxError: syntax error

tryItOut 754
Compiling threw: SyntaxError: syntax error

tryItOut 755
Compiling threw: SyntaxError: syntax error

tryItOut 756

tryItOut 757

tryItOut 758
It's an iterator!
Iterating succeeded, iterCount == 1

tryItOut 759
Running threw: ReferenceError: z1 is not defined

tryItOut 760
Compiling threw: SyntaxError: syntax error

tryItOut 761
Compiling threw: SyntaxError: missing { before function body

tryItOut 762
Compiling threw: SyntaxError: syntax error

tryItOut 763
Compiling threw: TypeError: redeclaration of const constructor

tryItOut 764
Compiling threw: SyntaxError: missing ) after for-loop control

tryItOut 765
Compiling threw: SyntaxError: missing { before function body

tryItOut 766

tryItOut 767

tryItOut 768

tryItOut 769
Running threw: TypeError: [[]] has invalid __iterator__ value [[]]

tryItOut 770

tryItOut 771
Compiling threw: SyntaxError: invalid for/in left-hand side

tryItOut 772
Compiling threw: SyntaxError: syntax error

tryItOut 773

tryItOut 774

tryItOut 775
Compiling threw: SyntaxError: finally without try

tryItOut 776
Running threw: TypeError: prototype is not a function

tryItOut 777
Running threw: TypeError: this.zzz has no properties

tryItOut 778
Compiling threw: SyntaxError: illegal XML character

tryItOut 779
Compiling threw: SyntaxError: invalid assignment left-hand side

tryItOut 780
Compiling threw: TypeError: redeclaration of variable __noSuchMethod__

tryItOut 781
Running threw: TypeError: [] is not a function

tryItOut 782
Compiling threw: SyntaxError: missing ; before statement

tryItOut 783
Running threw: SyntaxError: illegal XML character

tryItOut 784

tryItOut 785

tryItOut 786

tryItOut 787
Compiling threw: SyntaxError: syntax error

tryItOut 788
Compiling threw: SyntaxError: invalid assignment left-hand side

tryItOut 789
Compiling threw: SyntaxError: missing ) after argument list

tryItOut 790

tryItOut 791
Compiling threw: SyntaxError: syntax error

tryItOut 792

tryItOut 793

tryItOut 794
Compiling threw: SyntaxError: invalid for/in left-hand side

tryItOut 795
Compiling threw: SyntaxError: missing ; after for-loop initializer

tryItOut 796
Compiling threw: SyntaxError: invalid assignment left-hand side

tryItOut 797
Compiling threw: SyntaxError: missing ; before statement

tryItOut 798
Compiling threw: SyntaxError: invalid assignment left-hand side

tryItOut 799

tryItOut 800
Compiling threw: SyntaxError: duplicate label

tryItOut 801

tryItOut 802
Compiling threw: SyntaxError: invalid increment operand

tryItOut 803
Compiling threw: SyntaxError: invalid decrement operand

tryItOut 804
Compiling threw: SyntaxError: unterminated regular expression literal

tryItOut 805
Running threw: TypeError: this.zzz has no properties

tryItOut 806
Compiling threw: SyntaxError: invalid for/in left-hand side

tryItOut 807
Compiling threw: SyntaxError: missing ) in parenthetical

tryItOut 808
Running threw: TypeError: this.__defineGetter__ is not a function

tryItOut 809
It's an iterator!
Iterating succeeded, iterCount == 0

tryItOut 810
Compiling threw: SyntaxError: duplicate label

tryItOut 811
Running threw: TypeError: [] is not a function

tryItOut 812
Running threw: TypeError: this.zzz has no properties

tryItOut 813
Compiling threw: SyntaxError: syntax error

tryItOut 814
Compiling threw: SyntaxError: missing = in destructuring declaration

tryItOut 815
Compiling threw: SyntaxError: missing ; before statement

tryItOut 816
Compiling threw: SyntaxError: missing ( before formal parameters

tryItOut 817
It's an iterator!
Iterating succeeded, iterCount == 1

tryItOut 818

tryItOut 819
Compiling threw: SyntaxError: invalid assignment left-hand side

tryItOut 820
Running threw: TypeError: [[]] has invalid __iterator__ value [[]]

tryItOut 821

tryItOut 822
It's an iterator!
Iterating succeeded, iterCount == 1

tryItOut 823
It's an iterator!
Iterating succeeded, iterCount == 0

tryItOut 824
Compiling threw: SyntaxError: invalid assignment left-hand side

tryItOut 825

tryItOut 826
Compiling threw: SyntaxError: syntax error

tryItOut 827
It's an iterator!
Iterating threw!
Iterating threw: TypeError: setting a property that has only a getter

tryItOut 828
Compiling threw: SyntaxError: invalid for/in left-hand side

tryItOut 829
Running threw: ReferenceError: z2 is not defined

tryItOut 830
It's an iterator!
Iterating succeeded, iterCount == 0

tryItOut 831

tryItOut 832
Compiling threw: SyntaxError: missing ; before statement

tryItOut 833
Compiling threw: SyntaxError: invalid assignment left-hand side

tryItOut 834
Running threw: TypeError: [[]] has invalid __iterator__ value [[]]

tryItOut 835
Compiling threw: SyntaxError: syntax error

tryItOut 836

tryItOut 837

tryItOut 838
Running threw: TypeError: p.z = prop is not a function

tryItOut 839
Running threw: TypeError: this.zzz has no properties

tryItOut 840
Running threw: TypeError: this.zzz has no properties

tryItOut 841

tryItOut 842

tryItOut 843
Compiling threw: SyntaxError: missing variable name

tryItOut 844
Compiling threw: SyntaxError: invalid assignment left-hand side

tryItOut 845

tryItOut 846

tryItOut 847
Compiling threw: SyntaxError: syntax error

tryItOut 848
Compiling threw: SyntaxError: missing ; before statement

tryItOut 849

tryItOut 850

tryItOut 851
Running threw: TypeError: __proto__ has no properties

tryItOut 852
Compiling threw: SyntaxError: syntax error

tryItOut 853
Compiling threw: SyntaxError: XML tag name mismatch (expected y)

tryItOut 854
Compiling threw: SyntaxError: syntax error

tryItOut 855
It's an iterator!
Iterating threw!
Iterating threw: ReferenceError: z1 is not defined

tryItOut 856
Compiling threw: SyntaxError: missing name in export statement

tryItOut 857
Compiling threw: SyntaxError: syntax error

tryItOut 858

tryItOut 859

tryItOut 860
Running threw: ReferenceError: __noSuchMethod__ is not defined

tryItOut 861
Compiling threw: SyntaxError: invalid increment operand

tryItOut 862
Compiling threw: SyntaxError: syntax error

tryItOut 863

tryItOut 864

tryItOut 865
It's an iterator!
Iterating threw!
Iterating threw: TypeError: new "fafafa".replace(/a/g, __count__) is not a function

tryItOut 866

tryItOut 867
It's an iterator!
Iterating threw!
Iterating threw: ReferenceError: z1 is not defined

tryItOut 868
It's an iterator!
Iterating succeeded, iterCount == 2

tryItOut 869
Compiling threw: SyntaxError: missing ) after argument list

tryItOut 870
Compiling threw: SyntaxError: illegal XML character

tryItOut 871
It's an iterator!
Iterating threw!
Iterating threw: ReferenceError: z1 is not defined

tryItOut 872

tryItOut 873
Running threw: TypeError: this.__defineGetter__ is not a function

tryItOut 874
Running threw: TypeError: this.__defineGetter__ is not a function

tryItOut 875

tryItOut 876
Compiling threw: SyntaxError: missing ; before statement

tryItOut 877
It's an iterator!
Iterating succeeded, iterCount == 1

tryItOut 878
It's an iterator!
Iterating succeeded, iterCount == 1

tryItOut 879

tryItOut 880
Running threw: TypeError: [[]] has invalid __iterator__ value [[]]

tryItOut 881

tryItOut 882

tryItOut 883
It's an iterator!
Iterating succeeded, iterCount == 0

tryItOut 884
Compiling threw: SyntaxError: duplicate label

tryItOut 885

tryItOut 886
Compiling threw: SyntaxError: syntax error

tryItOut 887
Compiling threw: SyntaxError: missing : after property id

tryItOut 888
Compiling threw: SyntaxError: missing variable name

tryItOut 889
Compiling threw: SyntaxError: syntax error

tryItOut 890

tryItOut 891

tryItOut 892
Compiling threw: SyntaxError: syntax error

tryItOut 893
Compiling threw: SyntaxError: invalid for each loop

tryItOut 894

tryItOut 895
Compiling threw: SyntaxError: missing ) after for-loop control

tryItOut 896
before 348800, after 261600, break 01311000

tryItOut 897

tryItOut 898
Compiling threw: SyntaxError: invalid increment operand

tryItOut 899
It's an iterator!
Iterating threw!
Iterating threw: TypeError: this.zzz has no properties

tryItOut 900
Compiling threw: SyntaxError: missing { before function body

tryItOut 901
It's an iterator!
Iterating threw!
Iterating threw: TypeError: this.__defineGetter__ is not a function

tryItOut 902

tryItOut 903
Compiling threw: SyntaxError: invalid destructuring assignment operator

tryItOut 904
It's an iterator!
Iterating threw!
Iterating threw: ReferenceError: z1 is not defined

tryItOut 905

tryItOut 906

tryItOut 907
Compiling threw: SyntaxError: missing ) in parenthetical

tryItOut 908
Compiling threw: SyntaxError: missing ) in parenthetical

tryItOut 909
It's an iterator!
Iterating succeeded, iterCount == 0

tryItOut 910
Running threw: TypeError: this.zzz has no properties

tryItOut 911
Compiling threw: SyntaxError: invalid assignment left-hand side

tryItOut 912
It's an iterator!
Iterating threw!
Iterating threw: TypeError: p.z = (yield __noSuchMethod__) is not a function

tryItOut 913

tryItOut 914
It's an iterator!
Iterating succeeded, iterCount == 1

tryItOut 915

tryItOut 916
Compiling threw: SyntaxError: syntax error

tryItOut 917
Compiling threw: SyntaxError: missing ) after let head

tryItOut 918
Running threw: TypeError: setting a property that has only a getter

tryItOut 919
Running threw: Error: invalid sharp variable use #1#

tryItOut 920

tryItOut 921
Compiling threw: SyntaxError: missing } after let block

tryItOut 922

tryItOut 923
Compiling threw: SyntaxError: invalid assignment left-hand side

tryItOut 924
Compiling threw: SyntaxError: missing ) after for-loop control

tryItOut 925
Compiling threw: SyntaxError: missing ( before let head

tryItOut 926

tryItOut 927
Running threw: TypeError: setting a property that has only a getter

tryItOut 928
Running threw: ReferenceError: z1 is not defined

tryItOut 929
Running threw: TypeError: [[]] has invalid __iterator__ value [[]]

tryItOut 930
Compiling threw: SyntaxError: invalid assignment left-hand side

tryItOut 931
Compiling threw: SyntaxError: missing variable name

tryItOut 932
Compiling threw: TypeError: redeclaration of variable __parent__

tryItOut 933
It's an iterator!
Iterating succeeded, iterCount == 1

tryItOut 934
Compiling threw: SyntaxError: unterminated string literal

tryItOut 935
Compiling threw: SyntaxError: syntax error

tryItOut 936
Running threw: ReferenceError: z1 is not defined

tryItOut 937
Running threw: TypeError: [[]] has invalid __iterator__ value [[]]

tryItOut 938
before 261600, after 244160, break 01311000

tryItOut 939
Compiling threw: SyntaxError: syntax error

tryItOut 940
It's an iterator!
Iterating succeeded, iterCount == 1

tryItOut 941
Compiling threw: SyntaxError: missing } after let block

tryItOut 942

tryItOut 943

tryItOut 944
Compiling threw: SyntaxError: syntax error

tryItOut 945
Compiling threw: SyntaxError: missing ; before statement

tryItOut 946
Compiling threw: SyntaxError: invalid assignment left-hand side

tryItOut 947
Compiling threw: SyntaxError: invalid for/in left-hand side

tryItOut 948

tryItOut 949
Compiling threw: SyntaxError: invalid assignment left-hand side

tryItOut 950
Running threw: TypeError: this.zzz has no properties

tryItOut 951
It's an iterator!
Iterating succeeded, iterCount == 1

tryItOut 952
Compiling threw: SyntaxError: invalid for/in left-hand side

tryItOut 953
Compiling threw: SyntaxError: invalid assignment left-hand side

tryItOut 954
Compiling threw: SyntaxError: invalid for/in left-hand side

tryItOut 955
It's an iterator!
Iterating threw!
Iterating threw: TypeError: <zzz>gc()</zzz>.__defineSetter__("prop", /a/gi) has no properties

tryItOut 956
Running threw: TypeError: this.zzz has no properties

tryItOut 957
Running threw: ReferenceError: __noSuchMethod__ is not defined

tryItOut 958
Compiling threw: SyntaxError: missing { before function body

tryItOut 959

tryItOut 960
Compiling threw: SyntaxError: invalid for/in left-hand side

tryItOut 961
It's an iterator!
Iterating succeeded, iterCount == 1

tryItOut 962
Running threw: ReferenceError: z1 is not defined

tryItOut 963

tryItOut 964
Compiling threw: SyntaxError: missing } after let block

tryItOut 965

tryItOut 966
Compiling threw: TypeError: redeclaration of const __count__

tryItOut 967
It's an iterator!
Iterating succeeded, iterCount == 1

tryItOut 968

tryItOut 969

tryItOut 970
Compiling threw: TypeError: redeclaration of variable prop

tryItOut 971

tryItOut 972
Running threw: TypeError: this.zzz has no properties

tryItOut 973
Running threw: TypeError: p.z = prop is not a function

tryItOut 974
Running threw: TypeError: this.zzz has no properties

tryItOut 975
Compiling threw: SyntaxError: invalid destructuring assignment operator

tryItOut 976
Compiling threw: SyntaxError: syntax error

tryItOut 977
It's an iterator!
Iterating succeeded, iterCount == 1

tryItOut 978

tryItOut 979
Compiling threw: SyntaxError: syntax error

tryItOut 980

tryItOut 981

tryItOut 982
Compiling threw: SyntaxError: syntax error

tryItOut 983
Compiling threw: SyntaxError: syntax error

tryItOut 984
It's an iterator!
Iterating succeeded, iterCount == 1

tryItOut 985
Running threw: ReferenceError: __noSuchMethod__ is not defined

tryItOut 986
Running threw: ReferenceError: z1 is not defined

tryItOut 987

tryItOut 988
Compiling threw: SyntaxError: invalid decrement operand

tryItOut 989
Running threw: ReferenceError: z1 is not defined

tryItOut 990
It's an iterator!
Iterating succeeded, iterCount == 1

tryItOut 991
Running threw: TypeError: this.zzz has no properties

tryItOut 992
Running threw: TypeError: new prototype.watch is not a function

tryItOut 993
Compiling threw: SyntaxError: missing variable name

tryItOut 994
It's an iterator!
Iterating threw!
Iterating threw: ReferenceError: z2 is not defined

tryItOut 995
Compiling threw: SyntaxError: syntax error

tryItOut 996
before 244160, after 244160, break 0130d000

tryItOut 997
Compiling threw: SyntaxError: invalid for/in left-hand side

tryItOut 998
Compiling threw: SyntaxError: missing ) in parenthetical

tryItOut 999

tryItOut 1000

ALL OK

Script done on Sat 04 May 2013 07:59:18 AM PDT
