Script started on Sat 04 May 2013 08:03:50 AM PDT
***
Targeting SpiderMonkey / Gecko.

tryItOut 1
Compiling threw: SyntaxError: syntax error

tryItOut 2
Compiling threw: SyntaxError: syntax error

tryItOut 3
Compiling threw: SyntaxError: invalid decrement operand

tryItOut 4

tryItOut 5
Compiling threw: TypeError: redeclaration of variable __noSuchMethod__

tryItOut 6

tryItOut 7
Running threw: TypeError: this.zzz has no properties

tryItOut 8
Compiling threw: SyntaxError: invalid for each loop

tryItOut 9

tryItOut 10
Compiling threw: SyntaxError: syntax error

tryItOut 11
Running threw: ReferenceError: reference to undefined XML name *

tryItOut 12
Compiling threw: SyntaxError: invalid for/in left-hand side

tryItOut 13
Compiling threw: SyntaxError: invalid assignment left-hand side

tryItOut 14
Compiling threw: TypeError: redeclaration of var constructor

tryItOut 15
Running threw: ReferenceError: reference to undefined XML name *

tryItOut 16

tryItOut 17
Compiling threw: SyntaxError: syntax error

tryItOut 18
Running threw: TypeError: redeclaration of var __proto__

tryItOut 19
before 87200, after 87200, break 020ea000

tryItOut 20
It's an iterator!
Iterating threw!
Iterating threw: ReferenceError: reference to undefined XML name *

tryItOut 21

tryItOut 22

tryItOut 23
Running threw: TypeError: this.zzz has no properties

tryItOut 24

tryItOut 25
Compiling threw: SyntaxError: missing ) after condition

tryItOut 26
Compiling threw: SyntaxError: missing variable name

tryItOut 27
Compiling threw: SyntaxError: missing ; before statement

tryItOut 28
It's an iterator!
Iterating threw!
Iterating threw: ReferenceError: reference to undefined XML name *

tryItOut 29
Compiling threw: SyntaxError: syntax error

tryItOut 30

tryItOut 31
Compiling threw: SyntaxError: invalid assignment left-hand side

tryItOut 32
Compiling threw: SyntaxError: missing ; after for-loop initializer

tryItOut 33
Compiling threw: SyntaxError: missing ) in parenthetical

tryItOut 34

tryItOut 35

tryItOut 36
It's an iterator!
Iterating threw!
Iterating threw: TypeError: <x>
  <y/>
</x> is not a function

tryItOut 37
Compiling threw: TypeError: redeclaration of var __noSuchMethod__

tryItOut 38
Compiling threw: SyntaxError: syntax error

tryItOut 39
Compiling threw: SyntaxError: invalid for/in left-hand side

tryItOut 40
It's an iterator!
Iterating succeeded, iterCount == 1

tryItOut 41
Compiling threw: SyntaxError: invalid for each loop

tryItOut 42
Running threw: ReferenceError: reference to undefined XML name *::*

tryItOut 43

tryItOut 44

tryItOut 45
Compiling threw: TypeError: generator function anonymous returns a value

tryItOut 46

tryItOut 47
Running threw: ReferenceError: reference to undefined XML name *::*

tryItOut 48

tryItOut 49
It's an iterator!
Iterating threw!
Iterating threw: ReferenceError: reference to undefined XML name @foo

tryItOut 50
Compiling threw: SyntaxError: missing ) in parenthetical

tryItOut 51
Compiling threw: SyntaxError: missing variable name

tryItOut 52
Running threw: TypeError: this.zzz has no properties

tryItOut 53
Running threw: ReferenceError: window is not defined

tryItOut 54

tryItOut 55
Running threw: ReferenceError: prop is not defined

tryItOut 56
Compiling threw: TypeError: generator function anonymous returns a value

tryItOut 57

tryItOut 58
Compiling threw: SyntaxError: syntax error

tryItOut 59
It's an iterator!
Iterating succeeded, iterCount == 1

tryItOut 60

tryItOut 61
Compiling threw: SyntaxError: invalid for/in left-hand side

tryItOut 62

tryItOut 63

tryItOut 64
Compiling threw: SyntaxError: missing ; before statement

tryItOut 65
It's an iterator!
Iterating succeeded, iterCount == 1

tryItOut 66
Running threw: ReferenceError: reference to undefined XML name *::*

tryItOut 67
Compiling threw: SyntaxError: invalid assignment left-hand side

tryItOut 68
Compiling threw: SyntaxError: missing ) after condition

tryItOut 69
Compiling threw: SyntaxError: invalid assignment left-hand side

tryItOut 70
Compiling threw: SyntaxError: invalid increment operand

tryItOut 71
Compiling threw: TypeError: redeclaration of variable prototype

tryItOut 72
Running threw: ReferenceError: reference to undefined XML name *

tryItOut 73
Compiling threw: SyntaxError: syntax error

tryItOut 74

tryItOut 75

tryItOut 76

tryItOut 77
Compiling threw: TypeError: generator function anonymous returns a value

tryItOut 78

tryItOut 79

tryItOut 80

tryItOut 81

tryItOut 82
Compiling threw: SyntaxError: invalid decrement operand

tryItOut 83
Compiling threw: SyntaxError: syntax error

tryItOut 84

tryItOut 85
Running threw: ReferenceError: z1 is not defined

tryItOut 86
Running threw: ReferenceError: z1 is not defined

tryItOut 87

tryItOut 88

tryItOut 89
Running threw: ReferenceError: window is not defined

tryItOut 90
Compiling threw: TypeError: redeclaration of variable __parent__

tryItOut 91
Compiling threw: SyntaxError: invalid assignment left-hand side

tryItOut 92

tryItOut 93

tryItOut 94
Compiling threw: SyntaxError: invalid for/in left-hand side

tryItOut 95
Compiling threw: SyntaxError: missing variable name

tryItOut 96
Compiling threw: SyntaxError: missing variable name

tryItOut 97

tryItOut 98
It's an iterator!
Iterating succeeded, iterCount == 1

tryItOut 99

tryItOut 100
Compiling threw: SyntaxError: invalid for/in left-hand side

tryItOut 101
Compiling threw: SyntaxError: missing ) after condition

tryItOut 102

tryItOut 103
Compiling threw: SyntaxError: missing = in destructuring declaration

tryItOut 104
It's an iterator!
Iterating succeeded, iterCount == 0

tryItOut 105
It's an iterator!
Iterating succeeded, iterCount == 1

tryItOut 106
It's an iterator!
Iterating succeeded, iterCount == 1

tryItOut 107

tryItOut 108

tryItOut 109

tryItOut 110
Compiling threw: SyntaxError: syntax error

tryItOut 111

tryItOut 112

tryItOut 113
Running threw: TypeError: (4).watch("__parent__", /a/gi) is not a function

tryItOut 114

tryItOut 115
Compiling threw: SyntaxError: syntax error

tryItOut 116

tryItOut 117
It's an iterator!
Iterating succeeded, iterCount == 1

tryItOut 118
Compiling threw: SyntaxError: missing ; after for-loop initializer

tryItOut 119
Running threw: ReferenceError: reference to undefined XML name *::*

tryItOut 120
uneval returned the string: []

tryItOut 121

tryItOut 122

tryItOut 123
Compiling threw: TypeError: generator function anonymous returns a value

tryItOut 124

tryItOut 125
Running threw: TypeError: 0.2 is not a function

tryItOut 126
Compiling threw: SyntaxError: missing ) in parenthetical

tryItOut 127

tryItOut 128

tryItOut 129
Running threw: SyntaxError: return not in function

tryItOut 130
Compiling threw: SyntaxError: missing ( before let head

tryItOut 131

tryItOut 132
Compiling threw: SyntaxError: missing ] after element list

tryItOut 133

tryItOut 134
Compiling threw: SyntaxError: missing : after property id

tryItOut 135

tryItOut 136

tryItOut 137

tryItOut 138

tryItOut 139
Compiling threw: SyntaxError: syntax error

tryItOut 140

tryItOut 141
Compiling threw: SyntaxError: missing variable name

tryItOut 142

tryItOut 143

tryItOut 144
Running threw: ReferenceError: reference to undefined XML name @foo

tryItOut 145
Compiling threw: SyntaxError: missing ) in parenthetical

tryItOut 146

tryItOut 147
Running threw: TypeError: __noSuchMethod__ has no properties

tryItOut 148

tryItOut 149
Compiling threw: SyntaxError: missing : after property id

tryItOut 150
Compiling threw: SyntaxError: missing ] after element list

tryItOut 151
Running threw: ReferenceError: window is not defined

tryItOut 152
Compiling threw: SyntaxError: invalid assignment left-hand side

tryItOut 153

tryItOut 154

tryItOut 155
Compiling threw: SyntaxError: missing ) in parenthetical

tryItOut 156

tryItOut 157
It's an iterator!
Iterating threw!
Iterating threw: ReferenceError: reference to undefined XML name @foo

tryItOut 158
Running threw: TypeError: this.zzz has no properties

tryItOut 159

tryItOut 160
Running threw: ReferenceError: reference to undefined XML name *

tryItOut 161

tryItOut 162
Compiling threw: SyntaxError: missing ) in parenthetical

tryItOut 163

tryItOut 164
before 156960, after 156960, break 021a8000

tryItOut 165
It's an iterator!
Iterating succeeded, iterCount == 0

tryItOut 166
Running threw: ReferenceError: reference to undefined XML name *

tryItOut 167

tryItOut 168
Compiling threw: SyntaxError: invalid for each loop

tryItOut 169
Compiling threw: SyntaxError: invalid destructuring assignment operator

tryItOut 170

tryItOut 171
Running threw: ReferenceError: prototype is not defined

tryItOut 172

tryItOut 173

tryItOut 174

tryItOut 175
Running threw: ReferenceError: x is not defined

tryItOut 176
Compiling threw: SyntaxError: missing ; after for-loop condition

tryItOut 177
Compiling threw: SyntaxError: missing variable name

tryItOut 178
It's an iterator!
Iterating succeeded, iterCount == 2

tryItOut 179
Compiling threw: SyntaxError: missing = in destructuring declaration

tryItOut 180
Compiling threw: SyntaxError: syntax error

tryItOut 181

tryItOut 182
Compiling threw: SyntaxError: syntax error

tryItOut 183

tryItOut 184
Compiling threw: SyntaxError: missing ) in parenthetical

tryItOut 185
Compiling threw: TypeError: generator function anonymous returns a value

tryItOut 186

tryItOut 187

tryItOut 188
Running threw: ReferenceError: z2 is not defined

tryItOut 189
It's an iterator!
Iterating threw!
Iterating threw: ReferenceError: x is not defined

tryItOut 190
Compiling threw: SyntaxError: duplicate label

tryItOut 191

tryItOut 192
Compiling threw: SyntaxError: missing ) in parenthetical

tryItOut 193
Compiling threw: SyntaxError: syntax error

tryItOut 194

tryItOut 195
Compiling threw: SyntaxError: syntax error

tryItOut 196
Compiling threw: SyntaxError: syntax error

tryItOut 197

tryItOut 198

tryItOut 199
Compiling threw: SyntaxError: missing ) in parenthetical

tryItOut 200

tryItOut 201

tryItOut 202
Compiling threw: SyntaxError: illegal XML character

tryItOut 203
Running threw: ReferenceError: reference to undefined XML name @foo

tryItOut 204
Running threw: Error: invalid sharp variable use #1#

tryItOut 205

tryItOut 206

tryItOut 207

tryItOut 208

tryItOut 209
uneval returned the string: []

tryItOut 210
Compiling threw: SyntaxError: invalid for/in left-hand side

tryItOut 211
Compiling threw: SyntaxError: missing ] after element list

tryItOut 212
Compiling threw: SyntaxError: invalid assignment left-hand side

tryItOut 213

tryItOut 214
Running threw: ReferenceError: z1 is not defined

tryItOut 215
It's an iterator!
Iterating succeeded, iterCount == 1

tryItOut 216

tryItOut 217

tryItOut 218
Compiling threw: SyntaxError: missing ; before statement

tryItOut 219
Running threw: TypeError: <x><y/></x>.__lookupSetter__("__count__") has no properties

tryItOut 220
Running threw: ReferenceError: reference to undefined XML name *

tryItOut 221
Compiling threw: SyntaxError: invalid for/in left-hand side

tryItOut 222

tryItOut 223
Running threw: ReferenceError: window is not defined

tryItOut 224
Compiling threw: SyntaxError: invalid assignment left-hand side

tryItOut 225
Compiling threw: SyntaxError: missing ] after element list

tryItOut 226

tryItOut 227

tryItOut 228
Compiling threw: SyntaxError: invalid for/in left-hand side

tryItOut 229

tryItOut 230
Running threw: ReferenceError: window is not defined

tryItOut 231
Compiling threw: SyntaxError: syntax error

tryItOut 232
Running threw: ReferenceError: window is not defined

tryItOut 233
Running threw: ReferenceError: z1 is not defined

tryItOut 234

tryItOut 235
Compiling threw: SyntaxError: invalid assignment left-hand side

tryItOut 236
It's an iterator!
Iterating succeeded, iterCount == 1

tryItOut 237

tryItOut 238

tryItOut 239

tryItOut 240
Compiling threw: SyntaxError: missing ) after argument list

tryItOut 241
Compiling threw: SyntaxError: missing ) in parenthetical

tryItOut 242
It's an iterator!
Iterating succeeded, iterCount == 1

tryItOut 243

tryItOut 244

tryItOut 245
It's an iterator!
Iterating succeeded, iterCount == 1

tryItOut 246
Running threw: ReferenceError: reference to undefined XML name @foo

tryItOut 247
Compiling threw: SyntaxError: invalid decrement operand

tryItOut 248
It's an iterator!
Iterating threw!
Iterating threw: ReferenceError: window is not defined

tryItOut 249
Compiling threw: SyntaxError: invalid for/in left-hand side

tryItOut 250

tryItOut 251

tryItOut 252

tryItOut 253
Compiling threw: SyntaxError: invalid assignment left-hand side

tryItOut 254

tryItOut 255

tryItOut 256

tryItOut 257
Running threw: ReferenceError: window is not defined

tryItOut 258

tryItOut 259

tryItOut 260
Compiling threw: SyntaxError: missing ) in parenthetical

tryItOut 261

tryItOut 262
Compiling threw: SyntaxError: unterminated regular expression literal

tryItOut 263

tryItOut 264
Compiling threw: SyntaxError: missing ) in parenthetical

tryItOut 265
Compiling threw: TypeError: redeclaration of variable __count__

tryItOut 266
Compiling threw: SyntaxError: invalid for/in left-hand side

tryItOut 267

tryItOut 268

tryItOut 269
It's an iterator!
Iterating succeeded, iterCount == 1

tryItOut 270
It's an iterator!
Iterating succeeded, iterCount == 1

tryItOut 271

tryItOut 272

tryItOut 273

tryItOut 274
Compiling threw: SyntaxError: missing ; after for-loop initializer

tryItOut 275
Compiling threw: SyntaxError: missing ; after for-loop condition

tryItOut 276
Compiling threw: SyntaxError: missing ) in parenthetical

tryItOut 277
Compiling threw: TypeError: redeclaration of const __noSuchMethod__

tryItOut 278
Compiling threw: SyntaxError: duplicate label

tryItOut 279
Compiling threw: SyntaxError: syntax error

tryItOut 280
Running threw: TypeError: XML descendants internal method called on incompatible Number

tryItOut 281

tryItOut 282
Compiling threw: TypeError: generator function anonymous returns a value

tryItOut 283

tryItOut 284

tryItOut 285

tryItOut 286
Compiling threw: SyntaxError: syntax error

tryItOut 287
Compiling threw: TypeError: redeclaration of const __parent__

tryItOut 288
Compiling threw: SyntaxError: invalid assignment left-hand side

tryItOut 289

tryItOut 290

tryItOut 291

tryItOut 292
Compiling threw: SyntaxError: missing variable name

tryItOut 293
Running threw: TypeError: this.zzz has no properties

tryItOut 294

tryItOut 295
Compiling threw: SyntaxError: invalid assignment left-hand side

tryItOut 296
It's an iterator!
Iterating succeeded, iterCount == 1

tryItOut 297

tryItOut 298
It's an iterator!
Iterating succeeded, iterCount == 0

tryItOut 299

tryItOut 300
Compiling threw: SyntaxError: missing variable name

tryItOut 301
Compiling threw: SyntaxError: invalid assignment left-hand side

tryItOut 302
Compiling threw: SyntaxError: missing ; before statement

tryItOut 303
Compiling threw: TypeError: redeclaration of const prop

tryItOut 304

tryItOut 305
Compiling threw: SyntaxError: syntax error

tryItOut 306
Running threw: ReferenceError: prototype is not defined

tryItOut 307

tryItOut 308
Compiling threw: SyntaxError: invalid property id

tryItOut 309
Compiling threw: SyntaxError: invalid for each loop

tryItOut 310
Compiling threw: SyntaxError: missing ) in parenthetical

tryItOut 311
Running threw: ReferenceError: window is not defined

tryItOut 312

tryItOut 313
Compiling threw: SyntaxError: unterminated comment

tryItOut 314

tryItOut 315

tryItOut 316
Compiling threw: SyntaxError: missing ) in parenthetical

tryItOut 317

tryItOut 318

tryItOut 319

tryItOut 320
Compiling threw: SyntaxError: missing name after . operator

tryItOut 321
Running threw: ReferenceError: reference to undefined XML name @foo

tryItOut 322

tryItOut 323

tryItOut 324

tryItOut 325

tryItOut 326
Compiling threw: SyntaxError: invalid assignment left-hand side

tryItOut 327
Compiling threw: SyntaxError: missing ; after for-loop initializer

tryItOut 328

tryItOut 329

tryItOut 330
Running threw: ReferenceError: x is not defined

tryItOut 331

tryItOut 332
Compiling threw: SyntaxError: invalid assignment left-hand side

tryItOut 333

tryItOut 334
Compiling threw: SyntaxError: invalid assignment left-hand side

tryItOut 335

tryItOut 336
Compiling threw: SyntaxError: syntax error

tryItOut 337

tryItOut 338
Running threw: TypeError: this.zzz has no properties

tryItOut 339
Compiling threw: SyntaxError: missing ) after with-statement object

tryItOut 340
Compiling threw: SyntaxError: duplicate label

tryItOut 341
It's an iterator!
Iterating succeeded, iterCount == 1

tryItOut 342
Compiling threw: SyntaxError: syntax error

tryItOut 343
Compiling threw: SyntaxError: invalid increment operand

tryItOut 344

tryItOut 345
Running threw: SyntaxError: invalid regular expression flag <

tryItOut 346
Compiling threw: SyntaxError: missing ) in parenthetical

tryItOut 347

tryItOut 348
Running threw: ReferenceError: reference to undefined XML name @foo

tryItOut 349
Compiling threw: SyntaxError: missing ) in parenthetical

tryItOut 350
Compiling threw: SyntaxError: invalid for/in left-hand side

tryItOut 351
It's an iterator!
Iterating succeeded, iterCount == 1

tryItOut 352

tryItOut 353

tryItOut 354
Compiling threw: SyntaxError: missing ) in parenthetical

tryItOut 355
Compiling threw: SyntaxError: invalid for/in left-hand side

tryItOut 356
Running threw: ReferenceError: window is not defined

tryItOut 357

tryItOut 358
Compiling threw: SyntaxError: invalid assignment left-hand side

tryItOut 359
Compiling threw: SyntaxError: missing variable name

tryItOut 360

tryItOut 361
Compiling threw: SyntaxError: missing variable name

tryItOut 362
Compiling threw: TypeError: redeclaration of const __parent__

tryItOut 363

tryItOut 364
Compiling threw: SyntaxError: syntax error

tryItOut 365
Compiling threw: SyntaxError: invalid assignment left-hand side

tryItOut 366
It's an iterator!
Iterating threw!
Iterating threw: ReferenceError: z2 is not defined

tryItOut 367

tryItOut 368

tryItOut 369
Compiling threw: SyntaxError: illegal XML character

tryItOut 370
Compiling threw: SyntaxError: missing variable name

tryItOut 371
Compiling threw: SyntaxError: invalid for/in left-hand side

tryItOut 372

tryItOut 373

tryItOut 374
Compiling threw: SyntaxError: invalid for/in left-hand side

tryItOut 375
Compiling threw: TypeError: redeclaration of variable __parent__

tryItOut 376

tryItOut 377
It's an iterator!
Iterating succeeded, iterCount == 1

tryItOut 378

tryItOut 379
Running threw: TypeError: this.zzz has no properties

tryItOut 380

tryItOut 381

tryItOut 382
Compiling threw: SyntaxError: missing ) after condition

tryItOut 383

tryItOut 384
It's an iterator!
Iterating succeeded, iterCount == 1

tryItOut 385

tryItOut 386
Running threw: ReferenceError: reference to undefined XML name *

tryItOut 387
Running threw: TypeError: undefined is not a function

tryItOut 388
Compiling threw: SyntaxError: missing ) in parenthetical

tryItOut 389

tryItOut 390

tryItOut 391
Compiling threw: SyntaxError: invalid assignment left-hand side

tryItOut 392
Compiling threw: SyntaxError: invalid for/in left-hand side

tryItOut 393

tryItOut 394
Running threw: TypeError: this.zzz has no properties

tryItOut 395

tryItOut 396
Compiling threw: SyntaxError: syntax error

tryItOut 397

tryItOut 398
Compiling threw: SyntaxError: missing ; before statement

tryItOut 399

tryItOut 400

tryItOut 401

tryItOut 402
Compiling threw: SyntaxError: invalid for/in left-hand side

tryItOut 403
It's an iterator!
Iterating threw!
Iterating threw: TypeError: __noSuchMethod__ is not a constructor

tryItOut 404
Compiling threw: SyntaxError: invalid for/in left-hand side

tryItOut 405
It's an iterator!
Iterating succeeded, iterCount == 1

tryItOut 406
Running threw: Error: invalid sharp variable use #1#

tryItOut 407

tryItOut 408
Compiling threw: TypeError: redeclaration of var __noSuchMethod__

tryItOut 409
Compiling threw: SyntaxError: missing ; after for-loop condition

tryItOut 410
Running threw: ReferenceError: reference to undefined XML name @foo

tryItOut 411
Compiling threw: SyntaxError: syntax error

tryItOut 412

tryItOut 413
Compiling threw: SyntaxError: invalid destructuring assignment operator

tryItOut 414
Compiling threw: SyntaxError: missing ) after condition

tryItOut 415
Compiling threw: SyntaxError: missing variable name

tryItOut 416
Compiling threw: SyntaxError: missing variable name

tryItOut 417

tryItOut 418
Compiling threw: SyntaxError: invalid assignment left-hand side

tryItOut 419

tryItOut 420

tryItOut 421

tryItOut 422

tryItOut 423
Running threw: ReferenceError: reference to undefined XML name @foo

tryItOut 424

tryItOut 425
Compiling threw: SyntaxError: syntax error

tryItOut 426

tryItOut 427
Compiling threw: SyntaxError: missing ) in parenthetical

tryItOut 428
Compiling threw: SyntaxError: invalid increment operand

tryItOut 429

tryItOut 430
Compiling threw: SyntaxError: invalid for/in left-hand side

tryItOut 431

tryItOut 432
It's an iterator!
Iterating threw!
Iterating threw: TypeError: <x>
  <y/>
</x> is not a constructor

tryItOut 433
Compiling threw: SyntaxError: syntax error

tryItOut 434

tryItOut 435

tryItOut 436

tryItOut 437

tryItOut 438

tryItOut 439

tryItOut 440
Running threw: ReferenceError: reference to undefined XML name *

tryItOut 441
Running threw: TypeError: arguments[0] has no properties

tryItOut 442

tryItOut 443
Compiling threw: TypeError: redeclaration of const __iterator__

tryItOut 444
Compiling threw: SyntaxError: syntax error

tryItOut 445

tryItOut 446
Compiling threw: SyntaxError: missing ) in parenthetical

tryItOut 447

tryItOut 448
Compiling threw: SyntaxError: invalid for/in left-hand side

tryItOut 449
Running threw: TypeError: #3={, a:#3#}.yoyo is not a function

tryItOut 450
It's an iterator!
Iterating succeeded, iterCount == 1

tryItOut 451

tryItOut 452
Compiling threw: SyntaxError: missing variable name

tryItOut 453

tryItOut 454
Compiling threw: SyntaxError: missing ] after element list

tryItOut 455
Running threw: ReferenceError: reference to undefined XML name @foo

tryItOut 456
Compiling threw: SyntaxError: invalid for/in left-hand side

tryItOut 457
Running threw: ReferenceError: window is not defined

tryItOut 458
It's an iterator!
Iterating succeeded, iterCount == 1

tryItOut 459
It's an iterator!
Iterating succeeded, iterCount == 1

tryItOut 460
Compiling threw: SyntaxError: invalid assignment left-hand side

tryItOut 461

tryItOut 462
Running threw: ReferenceError: reference to undefined XML name *::*

tryItOut 463
Compiling threw: SyntaxError: invalid for each loop

tryItOut 464
Compiling threw: SyntaxError: missing : after property id

tryItOut 465
Compiling threw: TypeError: redeclaration of variable __parent__

tryItOut 466

tryItOut 467
Compiling threw: TypeError: redeclaration of variable __noSuchMethod__

tryItOut 468
Compiling threw: SyntaxError: missing name after . operator

tryItOut 469

tryItOut 470
Compiling threw: SyntaxError: syntax error

tryItOut 471
Compiling threw: SyntaxError: missing ) in parenthetical

tryItOut 472
Compiling threw: SyntaxError: missing = in destructuring declaration

tryItOut 473
Running threw: TypeError: <x>
  <y/>
</x> is not a function

tryItOut 474

tryItOut 475

tryItOut 476
Compiling threw: SyntaxError: invalid assignment left-hand side

tryItOut 477
Compiling threw: SyntaxError: missing ) in parenthetical

tryItOut 478
Compiling threw: SyntaxError: invalid assignment left-hand side

tryItOut 479
Running threw: ReferenceError: reference to undefined XML name @foo

tryItOut 480

tryItOut 481
Compiling threw: SyntaxError: syntax error

tryItOut 482

tryItOut 483
It's an iterator!
Iterating succeeded, iterCount == 0

tryItOut 484

tryItOut 485

tryItOut 486

tryItOut 487
Compiling threw: SyntaxError: invalid increment operand

tryItOut 488
Compiling threw: SyntaxError: invalid for/in left-hand side

tryItOut 489
Compiling threw: SyntaxError: syntax error

tryItOut 490
Compiling threw: SyntaxError: missing variable name

tryItOut 491

tryItOut 492

tryItOut 493

tryItOut 494
Compiling threw: SyntaxError: missing = in destructuring declaration

tryItOut 495
Compiling threw: SyntaxError: missing ) in parenthetical

tryItOut 496
Compiling threw: SyntaxError: syntax error

tryItOut 497

tryItOut 498

tryItOut 499

tryItOut 500

tryItOut 501
Compiling threw: SyntaxError: illegal XML character

tryItOut 502

tryItOut 503
Running threw: ReferenceError: reference to undefined XML name *::*

tryItOut 504
It's an iterator!
Iterating succeeded, iterCount == 1

tryItOut 505
Compiling threw: SyntaxError: missing ; after for-loop initializer

tryItOut 506

tryItOut 507

tryItOut 508
before 279040, after 279040, break 022f6000

tryItOut 509

tryItOut 510

tryItOut 511

tryItOut 512
Compiling threw: SyntaxError: invalid for/in left-hand side

tryItOut 513
Compiling threw: SyntaxError: syntax error

tryItOut 514
Compiling threw: SyntaxError: syntax error

tryItOut 515

tryItOut 516

tryItOut 517

tryItOut 518
It's an iterator!
Iterating succeeded, iterCount == 1

tryItOut 519

tryItOut 520

tryItOut 521
Compiling threw: SyntaxError: invalid assignment left-hand side

tryItOut 522

tryItOut 523
Running threw: ReferenceError: reference to undefined XML name *::*

tryItOut 524
Compiling threw: SyntaxError: missing : after property id

tryItOut 525
Compiling threw: SyntaxError: missing variable name

tryItOut 526
Compiling threw: SyntaxError: invalid assignment left-hand side

tryItOut 527
Running threw: ReferenceError: window is not defined

tryItOut 528

tryItOut 529
It's an iterator!
Iterating succeeded, iterCount == 1

tryItOut 530

tryItOut 531
It's an iterator!
Iterating succeeded, iterCount == 2

tryItOut 532
Compiling threw: SyntaxError: illegal XML character

tryItOut 533
It's an iterator!
Iterating threw!
Iterating threw: ReferenceError: reference to undefined XML name @foo

tryItOut 534
Compiling threw: SyntaxError: invalid assignment left-hand side

tryItOut 535

tryItOut 536
Compiling threw: SyntaxError: missing = in destructuring declaration

tryItOut 537
It's an iterator!
Iterating threw!
Iterating threw: ReferenceError: reference to undefined XML name *

tryItOut 538
Running threw: TypeError: this.zzz has no properties

tryItOut 539

tryItOut 540
Running threw: TypeError: undefined has no properties

tryItOut 541
It's an iterator!
Iterating succeeded, iterCount == 1

tryItOut 542
Compiling threw: SyntaxError: invalid assignment left-hand side

tryItOut 543
Compiling threw: SyntaxError: invalid increment operand

tryItOut 544

tryItOut 545

tryItOut 546
Running threw: ReferenceError: reference to undefined XML name @foo

tryItOut 547
It's an iterator!
Iterating succeeded, iterCount == 1

tryItOut 548
Compiling threw: TypeError: redeclaration of variable __iterator__

tryItOut 549
before 279040, after 279040, break 0230f000

tryItOut 550
Compiling threw: SyntaxError: missing ; before statement

tryItOut 551
Compiling threw: SyntaxError: invalid decrement operand

tryItOut 552
Compiling threw: SyntaxError: syntax error

tryItOut 553

tryItOut 554
Compiling threw: SyntaxError: missing = in destructuring declaration

tryItOut 555
It's an iterator!
Iterating succeeded, iterCount == 1

tryItOut 556

tryItOut 557
Compiling threw: SyntaxError: missing ] after element list

tryItOut 558

tryItOut 559
Running threw: TypeError: this.zzz has no properties

tryItOut 560
Compiling threw: SyntaxError: invalid assignment left-hand side

tryItOut 561
Compiling threw: SyntaxError: missing ; before statement

tryItOut 562
Running threw: TypeError: this.zzz has no properties

tryItOut 563
Compiling threw: SyntaxError: invalid increment operand

tryItOut 564
Compiling threw: SyntaxError: invalid for/in left-hand side

tryItOut 565
It's an iterator!
Iterating threw!
Iterating threw: ReferenceError: reference to undefined XML name *::*

tryItOut 566

tryItOut 567
Compiling threw: SyntaxError: missing ) in parenthetical

tryItOut 568
Running threw: SyntaxError: yield not in function

tryItOut 569
Running threw: ReferenceError: reference to undefined XML name @foo

tryItOut 570

tryItOut 571

tryItOut 572

tryItOut 573

tryItOut 574
Compiling threw: TypeError: redeclaration of var __proto__

tryItOut 575
It's an iterator!
Iterating succeeded, iterCount == 1

tryItOut 576

tryItOut 577
Compiling threw: SyntaxError: missing ) in parenthetical

tryItOut 578
Compiling threw: SyntaxError: missing variable name

tryItOut 579
Running threw: ReferenceError: window is not defined

tryItOut 580

tryItOut 581

tryItOut 582
Compiling threw: SyntaxError: missing variable name

tryItOut 583

tryItOut 584

tryItOut 585
Compiling threw: TypeError: generator function anonymous returns a value

tryItOut 586

tryItOut 587
Compiling threw: SyntaxError: syntax error

tryItOut 588
Compiling threw: SyntaxError: missing = in destructuring declaration

tryItOut 589
Compiling threw: SyntaxError: missing ) in parenthetical

tryItOut 590
Compiling threw: SyntaxError: invalid for/in left-hand side

tryItOut 591
Compiling threw: SyntaxError: syntax error

tryItOut 592

tryItOut 593
It's an iterator!
Iterating succeeded, iterCount == 1

tryItOut 594

tryItOut 595
Compiling threw: SyntaxError: invalid for/in left-hand side

tryItOut 596
Compiling threw: SyntaxError: missing ; after for-loop initializer

tryItOut 597

tryItOut 598
It's an iterator!
Iterating succeeded, iterCount == 0

tryItOut 599
Compiling threw: SyntaxError: missing ) in parenthetical

tryItOut 600

tryItOut 601
Compiling threw: SyntaxError: invalid for/in left-hand side

tryItOut 602

tryItOut 603

tryItOut 604

tryItOut 605
Compiling threw: SyntaxError: invalid for/in left-hand side

tryItOut 606

tryItOut 607

tryItOut 608

tryItOut 609
Running threw: ReferenceError: reference to undefined XML name *::*

tryItOut 610
Running threw: ReferenceError: reference to undefined XML name *

tryItOut 611

tryItOut 612

tryItOut 613

tryItOut 614
Compiling threw: SyntaxError: unterminated string literal

tryItOut 615
Compiling threw: SyntaxError: missing ) in parenthetical

tryItOut 616
Compiling threw: SyntaxError: missing : after property id

tryItOut 617

tryItOut 618
Compiling threw: SyntaxError: missing variable name

tryItOut 619
It's an iterator!
Iterating succeeded, iterCount == 1

tryItOut 620

tryItOut 621

tryItOut 622
Compiling threw: SyntaxError: syntax error

tryItOut 623
Running threw: SyntaxError: invalid assignment left-hand side

tryItOut 624
Compiling threw: SyntaxError: missing variable name

tryItOut 625

tryItOut 626
Running threw: ReferenceError: reference to undefined XML name *

tryItOut 627
Compiling threw: SyntaxError: syntax error

tryItOut 628
Compiling threw: SyntaxError: missing ) in parenthetical

tryItOut 629
Compiling threw: SyntaxError: missing : after property id

tryItOut 630

tryItOut 631
Compiling threw: SyntaxError: invalid for/in left-hand side

tryItOut 632
Compiling threw: SyntaxError: invalid assignment left-hand side

tryItOut 633

tryItOut 634
Compiling threw: SyntaxError: invalid for/in left-hand side

tryItOut 635
Running threw: ReferenceError: window is not defined

tryItOut 636

tryItOut 637

tryItOut 638
Compiling threw: SyntaxError: syntax error

tryItOut 639
Compiling threw: SyntaxError: missing ; after for-loop condition

tryItOut 640
Compiling threw: TypeError: redeclaration of variable __proto__

tryItOut 641
It's an iterator!
Iterating succeeded, iterCount == 1

tryItOut 642

tryItOut 643
Compiling threw: SyntaxError: missing variable name

tryItOut 644

tryItOut 645
Compiling threw: SyntaxError: invalid assignment left-hand side

tryItOut 646

tryItOut 647

tryItOut 648
Compiling threw: SyntaxError: invalid for/in left-hand side

tryItOut 649
Compiling threw: SyntaxError: invalid assignment left-hand side

tryItOut 650
It's an iterator!
Iterating succeeded, iterCount == 1

tryItOut 651
Compiling threw: SyntaxError: invalid increment operand

tryItOut 652
Compiling threw: SyntaxError: invalid for/in left-hand side

tryItOut 653

tryItOut 654
It's an iterator!
Iterating succeeded, iterCount == 0

tryItOut 655
Compiling threw: SyntaxError: syntax error

tryItOut 656
Running threw: ReferenceError: Exception is not defined

tryItOut 657
Compiling threw: SyntaxError: invalid assignment left-hand side

tryItOut 658
Running threw: TypeError: this.__defineGetter__("__count__", gc) has no properties

tryItOut 659

tryItOut 660
Running threw: ReferenceError: reference to undefined XML name *

tryItOut 661
Compiling threw: SyntaxError: missing = in destructuring declaration

tryItOut 662
Compiling threw: SyntaxError: unterminated regular expression literal

tryItOut 663
Running threw: ReferenceError: reference to undefined XML name @foo

tryItOut 664

tryItOut 665
Compiling threw: SyntaxError: missing ) in parenthetical

tryItOut 666
Compiling threw: SyntaxError: syntax error

tryItOut 667
It's an iterator!
Iterating succeeded, iterCount == 0

tryItOut 668
It's an iterator!
before 279040, after 279040, break 0230f000
Iterating threw!
Iterating threw: TypeError: prop has no properties

tryItOut 669
Compiling threw: SyntaxError: invalid assignment left-hand side

tryItOut 670

tryItOut 671
Running threw: TypeError: window has no properties

tryItOut 672
Running threw: TypeError: this.zzz has no properties

tryItOut 673

tryItOut 674
Compiling threw: SyntaxError: invalid increment operand

tryItOut 675
Compiling threw: SyntaxError: syntax error

tryItOut 676

tryItOut 677
Compiling threw: SyntaxError: syntax error

tryItOut 678

tryItOut 679
Running threw: ReferenceError: reference to undefined XML name *

tryItOut 680

tryItOut 681

tryItOut 682
Compiling threw: SyntaxError: missing variable name

tryItOut 683

tryItOut 684
Compiling threw: SyntaxError: missing ) in parenthetical

tryItOut 685
Compiling threw: SyntaxError: missing variable name

tryItOut 686
Compiling threw: SyntaxError: invalid assignment left-hand side

tryItOut 687
Running threw: TypeError: this.zzz has no properties

tryItOut 688
Compiling threw: SyntaxError: syntax error

tryItOut 689
Compiling threw: SyntaxError: syntax error

tryItOut 690
Running threw: TypeError: [[]].yoyo is not a function

tryItOut 691

tryItOut 692
Running threw: ReferenceError: reference to undefined XML name *

tryItOut 693
Compiling threw: SyntaxError: duplicate label

tryItOut 694
Compiling threw: SyntaxError: duplicate label

tryItOut 695

tryItOut 696
Compiling threw: SyntaxError: invalid decrement operand

tryItOut 697

tryItOut 698
Compiling threw: SyntaxError: invalid for/in left-hand side

tryItOut 699

tryItOut 700

tryItOut 701

tryItOut 702
Compiling threw: SyntaxError: missing : after property id

tryItOut 703
Compiling threw: SyntaxError: invalid assignment left-hand side

tryItOut 704
Compiling threw: SyntaxError: syntax error

tryItOut 705
It's an iterator!
Iterating succeeded, iterCount == 0

tryItOut 706
Compiling threw: SyntaxError: invalid assignment left-hand side

tryItOut 707

tryItOut 708

tryItOut 709
Compiling threw: SyntaxError: invalid assignment left-hand side

tryItOut 710

tryItOut 711
Compiling threw: SyntaxError: invalid assignment left-hand side

tryItOut 712
Running threw: TypeError: this.zzz has no properties

tryItOut 713
Compiling threw: SyntaxError: missing ) in parenthetical

tryItOut 714

tryItOut 715
Running threw: TypeError: this.zzz has no properties

tryItOut 716
before 279040, after 279040, break 0230f000
Running threw: TypeError: <x>
  <y/>
</x> is not a constructor

tryItOut 717

tryItOut 718
Compiling threw: SyntaxError: syntax error

tryItOut 719

tryItOut 720
Compiling threw: SyntaxError: invalid assignment left-hand side

tryItOut 721
Running threw: ReferenceError: reference to undefined XML name @foo

tryItOut 722
Compiling threw: SyntaxError: invalid for/in left-hand side

tryItOut 723

tryItOut 724

tryItOut 725

tryItOut 726

tryItOut 727

tryItOut 728

tryItOut 729

tryItOut 730
Compiling threw: SyntaxError: invalid assignment left-hand side

tryItOut 731

tryItOut 732
It's an iterator!
Iterating succeeded, iterCount == 0

tryItOut 733

tryItOut 734
Running threw: TypeError: this is not a function

tryItOut 735

tryItOut 736
Compiling threw: SyntaxError: duplicate label

tryItOut 737
Running threw: SyntaxError: syntax error

tryItOut 738
Compiling threw: SyntaxError: invalid increment operand

tryItOut 739
Compiling threw: SyntaxError: syntax error

tryItOut 740
Compiling threw: TypeError: redeclaration of variable __parent__

tryItOut 741
Compiling threw: SyntaxError: missing variable name

tryItOut 742
Compiling threw: SyntaxError: missing ) after argument list

tryItOut 743
Compiling threw: SyntaxError: syntax error

tryItOut 744
Compiling threw: SyntaxError: missing ; after for-loop initializer

tryItOut 745

tryItOut 746
Compiling threw: SyntaxError: missing ) in parenthetical

tryItOut 747
Compiling threw: SyntaxError: missing ) in parenthetical

tryItOut 748

tryItOut 749

tryItOut 750
Compiling threw: SyntaxError: missing ; after for-loop initializer

tryItOut 751
Compiling threw: SyntaxError: syntax error

tryItOut 752
It's an iterator!
Iterating succeeded, iterCount == 1

tryItOut 753

tryItOut 754

tryItOut 755
Compiling threw: SyntaxError: invalid for/in left-hand side

tryItOut 756
Compiling threw: SyntaxError: invalid property id

tryItOut 757

tryItOut 758

tryItOut 759
Compiling threw: SyntaxError: yield expression must be parenthesized

tryItOut 760
Compiling threw: SyntaxError: missing ) in parenthetical

tryItOut 761
Compiling threw: TypeError: redeclaration of const __proto__

tryItOut 762

tryItOut 763

tryItOut 764

tryItOut 765
Compiling threw: SyntaxError: invalid for/in left-hand side

tryItOut 766
Compiling threw: SyntaxError: syntax error

tryItOut 767
It's an iterator!
Iterating threw!
Iterating threw: TypeError: __parent__ has no properties

tryItOut 768
Running threw: ReferenceError: z1 is not defined

tryItOut 769

tryItOut 770

tryItOut 771

tryItOut 772
Running threw: ReferenceError: reference to undefined XML name @foo

tryItOut 773
Compiling threw: SyntaxError: missing variable name

tryItOut 774
Compiling threw: SyntaxError: missing ) in parenthetical

tryItOut 775
It's an iterator!
Iterating succeeded, iterCount == 1

tryItOut 776

tryItOut 777

tryItOut 778
Compiling threw: SyntaxError: missing ) after argument list

tryItOut 779

tryItOut 780

tryItOut 781
Compiling threw: SyntaxError: missing ) after argument list

tryItOut 782

tryItOut 783
Compiling threw: SyntaxError: missing ) in parenthetical

tryItOut 784
Compiling threw: SyntaxError: invalid for each loop

tryItOut 785
Compiling threw: SyntaxError: syntax error

tryItOut 786

tryItOut 787
Running threw: ReferenceError: reference to undefined XML name *::*

tryItOut 788

tryItOut 789

tryItOut 790
Compiling threw: SyntaxError: syntax error

tryItOut 791

tryItOut 792
Compiling threw: SyntaxError: illegal XML character

tryItOut 793
Compiling threw: SyntaxError: missing variable name

tryItOut 794
It's an iterator!
Iterating succeeded, iterCount == 1

tryItOut 795
Compiling threw: SyntaxError: missing variable name

tryItOut 796

tryItOut 797

tryItOut 798

tryItOut 799
Compiling threw: SyntaxError: missing ) in parenthetical

tryItOut 800
Running threw: ReferenceError: reference to undefined XML name @foo

tryItOut 801
Compiling threw: SyntaxError: invalid assignment left-hand side

tryItOut 802
Compiling threw: SyntaxError: syntax error

tryItOut 803
Compiling threw: SyntaxError: syntax error

tryItOut 804

tryItOut 805

tryItOut 806

tryItOut 807

tryItOut 808
Compiling threw: SyntaxError: missing ) in parenthetical

tryItOut 809
Compiling threw: TypeError: generator function anonymous returns a value

tryItOut 810
Running threw: TypeError: p.z = window is not a function

tryItOut 811
Compiling threw: SyntaxError: invalid assignment left-hand side

tryItOut 812

tryItOut 813

tryItOut 814
before 279040, after 279040, break 0230f000

tryItOut 815
Compiling threw: SyntaxError: invalid for/in left-hand side

tryItOut 816

tryItOut 817
Compiling threw: SyntaxError: missing variable name

tryItOut 818

tryItOut 819
Compiling threw: TypeError: generator function anonymous returns a value

tryItOut 820
It's an iterator!
Iterating succeeded, iterCount == 1

tryItOut 821

tryItOut 822

tryItOut 823

tryItOut 824
Running threw: TypeError: this.zzz has no properties

tryItOut 825
Compiling threw: SyntaxError: missing ) after for-loop control

tryItOut 826

tryItOut 827
Compiling threw: SyntaxError: missing variable name

tryItOut 828
Compiling threw: SyntaxError: invalid destructuring assignment operator

tryItOut 829
Compiling threw: TypeError: generator function anonymous returns a value

tryItOut 830
Compiling threw: SyntaxError: missing ) in parenthetical

tryItOut 831
Compiling threw: SyntaxError: invalid for/in left-hand side

tryItOut 832

tryItOut 833
Running threw: TypeError: (-1)[<x><y/></x>] has no properties

tryItOut 834

tryItOut 835
It's an iterator!
Iterating threw!
Iterating threw: TypeError: [undefined, undefined] is not a function

tryItOut 836

tryItOut 837
Compiling threw: SyntaxError: missing ] after element list

tryItOut 838
Running threw: ReferenceError: reference to undefined XML name *::*

tryItOut 839

tryItOut 840
It's an iterator!
Iterating succeeded, iterCount == 1

tryItOut 841
Compiling threw: SyntaxError: missing ] after element list

tryItOut 842

tryItOut 843

tryItOut 844

tryItOut 845
before 279040, after 279040, break 0230f000

tryItOut 846
Running threw: ReferenceError: reference to undefined XML name *

tryItOut 847
Compiling threw: SyntaxError: missing ) in parenthetical

tryItOut 848
Running threw: ReferenceError: z2 is not defined

tryItOut 849
Compiling threw: SyntaxError: invalid for/in left-hand side

tryItOut 850

tryItOut 851

tryItOut 852
Running threw: TypeError: <x>
  <y/>
</x> is not a constructor

tryItOut 853
It's an iterator!
Iterating succeeded, iterCount == 1

tryItOut 854

tryItOut 855
Compiling threw: SyntaxError: invalid increment operand

tryItOut 856

tryItOut 857

tryItOut 858

tryItOut 859
Compiling threw: TypeError: redeclaration of const prototype

tryItOut 860
Compiling threw: SyntaxError: invalid for/in left-hand side

tryItOut 861
Compiling threw: SyntaxError: invalid increment operand

tryItOut 862
Compiling threw: SyntaxError: missing ) in parenthetical

tryItOut 863

tryItOut 864
Compiling threw: SyntaxError: duplicate label

tryItOut 865

tryItOut 866

tryItOut 867

tryItOut 868
Compiling threw: SyntaxError: missing ) in parenthetical

tryItOut 869
It's an iterator!
Iterating succeeded, iterCount == 0

tryItOut 870

tryItOut 871
Compiling threw: SyntaxError: syntax error

tryItOut 872

tryItOut 873
Running threw: TypeError: this.zzz has no properties

tryItOut 874
before 279040, after 279040, break 0230f000

tryItOut 875

tryItOut 876

tryItOut 877
Compiling threw: SyntaxError: missing variable name

tryItOut 878

tryItOut 879

tryItOut 880
uneval returned the string: [undefined, undefined]

tryItOut 881
It's an iterator!
Iterating succeeded, iterCount == 1

tryItOut 882

tryItOut 883
Compiling threw: SyntaxError: missing variable name

tryItOut 884
Compiling threw: SyntaxError: missing ) in parenthetical

tryItOut 885

tryItOut 886

tryItOut 887

tryItOut 888
Running threw: SyntaxError: invalid assignment left-hand side

tryItOut 889

tryItOut 890

tryItOut 891
It's an iterator!
Iterating succeeded, iterCount == 1

tryItOut 892
Compiling threw: SyntaxError: illegal XML character

tryItOut 893
Compiling threw: SyntaxError: missing ) in parenthetical

tryItOut 894
Compiling threw: TypeError: generator function anonymous returns a value

tryItOut 895
Running threw: TypeError: undefined has no properties

tryItOut 896
Compiling threw: SyntaxError: invalid for/in left-hand side

tryItOut 897
It's an iterator!
Iterating threw!
Iterating threw: TypeError: window has no properties

tryItOut 898
Compiling threw: SyntaxError: missing ) in parenthetical

tryItOut 899
Compiling threw: SyntaxError: duplicate label

tryItOut 900

tryItOut 901

tryItOut 902

tryItOut 903
It's an iterator!
Iterating succeeded, iterCount == 0

tryItOut 904
It's an iterator!
Iterating succeeded, iterCount == 1

tryItOut 905
Compiling threw: SyntaxError: missing ) after for-loop control

tryItOut 906
It's an iterator!
Iterating succeeded, iterCount == 1

tryItOut 907

tryItOut 908
It's an iterator!
Iterating succeeded, iterCount == 1

tryItOut 909

tryItOut 910
Compiling threw: SyntaxError: missing ) in parenthetical

tryItOut 911
Compiling threw: SyntaxError: syntax error

tryItOut 912

tryItOut 913

tryItOut 914

tryItOut 915
Running threw: ReferenceError: goto is not defined

tryItOut 916

tryItOut 917
Running threw: ReferenceError: z2 is not defined

tryItOut 918
It's an iterator!
Iterating succeeded, iterCount == 1

tryItOut 919

tryItOut 920
Compiling threw: SyntaxError: invalid assignment left-hand side

tryItOut 921

tryItOut 922
Compiling threw: SyntaxError: invalid increment operand

tryItOut 923

tryItOut 924
It's an iterator!
Iterating succeeded, iterCount == 1

tryItOut 925
Compiling threw: SyntaxError: missing ) in parenthetical

tryItOut 926

tryItOut 927

tryItOut 928
Compiling threw: SyntaxError: missing ) in parenthetical

tryItOut 929
Compiling threw: SyntaxError: syntax error

tryItOut 930

tryItOut 931
Running threw: ReferenceError: reference to undefined XML name *::*

tryItOut 932

tryItOut 933

tryItOut 934

tryItOut 935
Compiling threw: TypeError: generator function anonymous returns a value

tryItOut 936
It's an iterator!
Iterating succeeded, iterCount == 1

tryItOut 937
It's an iterator!
Iterating succeeded, iterCount == 1

tryItOut 938
Compiling threw: TypeError: redeclaration of var constructor

tryItOut 939
Compiling threw: SyntaxError: invalid assignment left-hand side

tryItOut 940

tryItOut 941
Compiling threw: SyntaxError: illegal XML character

tryItOut 942
Compiling threw: TypeError: redeclaration of variable prop

tryItOut 943

tryItOut 944

tryItOut 945
before 279040, after 279040, break 0230f000

tryItOut 946
Compiling threw: SyntaxError: invalid increment operand

tryItOut 947
It's an iterator!
Iterating succeeded, iterCount == 1

tryItOut 948
Compiling threw: SyntaxError: missing } after property list

tryItOut 949
Compiling threw: SyntaxError: missing ) in parenthetical

tryItOut 950

tryItOut 951

tryItOut 952

tryItOut 953
Compiling threw: SyntaxError: missing ; before statement

tryItOut 954

tryItOut 955
Compiling threw: TypeError: generator function anonymous returns a value

tryItOut 956

tryItOut 957

tryItOut 958

tryItOut 959

tryItOut 960
Compiling threw: SyntaxError: missing ) in parenthetical

tryItOut 961
Compiling threw: SyntaxError: unterminated comment

tryItOut 962

tryItOut 963
Compiling threw: SyntaxError: syntax error

tryItOut 964
It's an iterator!
Iterating succeeded, iterCount == 1

tryItOut 965
Running threw: ReferenceError: reference to undefined XML name *

tryItOut 966

tryItOut 967
Compiling threw: SyntaxError: missing variable name

tryItOut 968

tryItOut 969
Running threw: ReferenceError: reference to undefined XML name *

tryItOut 970
Compiling threw: SyntaxError: syntax error

tryItOut 971
Compiling threw: TypeError: redeclaration of variable __proto__

tryItOut 972
Running threw: ReferenceError: reference to undefined XML name *

tryItOut 973
Compiling threw: SyntaxError: invalid assignment left-hand side

tryItOut 974
Compiling threw: SyntaxError: invalid for/in left-hand side

tryItOut 975
Compiling threw: SyntaxError: invalid assignment left-hand side

tryItOut 976

tryItOut 977

tryItOut 978
Compiling threw: SyntaxError: missing } after property list

tryItOut 979
Compiling threw: SyntaxError: invalid assignment left-hand side

tryItOut 980
Compiling threw: SyntaxError: syntax error

tryItOut 981
Compiling threw: SyntaxError: missing ) in parenthetical

tryItOut 982

tryItOut 983
Running threw: ReferenceError: reference to undefined XML name *

tryItOut 984

tryItOut 985
Compiling threw: SyntaxError: invalid for/in left-hand side

tryItOut 986
Compiling threw: SyntaxError: missing variable name

tryItOut 987
Compiling threw: SyntaxError: missing variable name

tryItOut 988

tryItOut 989
Compiling threw: SyntaxError: missing = in destructuring declaration

tryItOut 990

tryItOut 991
Compiling threw: TypeError: redeclaration of variable __parent__

tryItOut 992

tryItOut 993
Compiling threw: TypeError: redeclaration of const __iterator__

tryItOut 994
Compiling threw: SyntaxError: missing ) in parenthetical

tryItOut 995
Compiling threw: SyntaxError: missing ) in parenthetical

tryItOut 996
Compiling threw: SyntaxError: missing variable name

tryItOut 997

tryItOut 998
Compiling threw: TypeError: generator function anonymous returns a value

tryItOut 999
Compiling threw: SyntaxError: missing ; after for-loop initializer

tryItOut 1000
Running threw: ReferenceError: reference to undefined XML name *

ALL OK

Script done on Sat 04 May 2013 08:03:50 AM PDT
