Script started on Sat 04 May 2013 08:02:53 AM PDT
***
Targeting SpiderMonkey / Gecko.

tryItOut 1

tryItOut 2

tryItOut 3
Running threw: ReferenceError: reference to undefined XML name *::*

tryItOut 4
Compiling threw: SyntaxError: missing : after property id

tryItOut 5
It's an iterator!
Iterating succeeded, iterCount == 1

tryItOut 6
Compiling threw: SyntaxError: invalid for/in left-hand side

tryItOut 7

tryItOut 8

tryItOut 9
Running threw: TypeError: redeclaration of var __proto__

tryItOut 10

tryItOut 11

tryItOut 12

tryItOut 13
Compiling threw: SyntaxError: missing ; after for-loop initializer

tryItOut 14
Compiling threw: TypeError: redeclaration of variable __parent__

tryItOut 15
Compiling threw: SyntaxError: invalid for/in left-hand side

tryItOut 16
Compiling threw: SyntaxError: invalid for/in left-hand side

tryItOut 17
Compiling threw: SyntaxError: label not found

tryItOut 18
Compiling threw: SyntaxError: missing variable name

tryItOut 19

tryItOut 20
Compiling threw: SyntaxError: invalid break

tryItOut 21

tryItOut 22
Running threw: TypeError: undefined has no properties

tryItOut 23

tryItOut 24
Compiling threw: SyntaxError: illegal XML character

tryItOut 25
Running threw: TypeError: this.zzz has no properties

tryItOut 26

tryItOut 27
Compiling threw: SyntaxError: invalid for/in left-hand side

tryItOut 28
Running threw: ReferenceError: window is not defined

tryItOut 29

tryItOut 30

tryItOut 31

tryItOut 32

tryItOut 33
Running threw: ReferenceError: z1 is not defined

tryItOut 34

tryItOut 35
Compiling threw: SyntaxError: missing variable name

tryItOut 36
Compiling threw: SyntaxError: syntax error

tryItOut 37

tryItOut 38

tryItOut 39
Running threw: ReferenceError: __noSuchMethod__ is not defined

tryItOut 40

tryItOut 41

tryItOut 42
Compiling threw: SyntaxError: invalid for/in left-hand side

tryItOut 43
Compiling threw: SyntaxError: invalid assignment left-hand side

tryItOut 44

tryItOut 45
Compiling threw: SyntaxError: syntax error

tryItOut 46
It's an iterator!
Iterating threw!
Iterating threw: ReferenceError: window is not defined

tryItOut 47
Compiling threw: SyntaxError: invalid assignment left-hand side

tryItOut 48

tryItOut 49

tryItOut 50

tryItOut 51

tryItOut 52
Compiling threw: SyntaxError: missing { before function body

tryItOut 53
Compiling threw: SyntaxError: missing variable name

tryItOut 54
Compiling threw: SyntaxError: missing variable name

tryItOut 55
Compiling threw: SyntaxError: syntax error

tryItOut 56
Running threw: ReferenceError: reference to undefined XML name *

tryItOut 57
Running threw: 4

tryItOut 58
Compiling threw: SyntaxError: duplicate label

tryItOut 59
Running threw: ReferenceError: z1 is not defined

tryItOut 60
Compiling threw: SyntaxError: missing ) after condition

tryItOut 61
Running threw: TypeError: undefined has no properties

tryItOut 62

tryItOut 63
Running threw: TypeError: this.zzz has no properties

tryItOut 64

tryItOut 65

tryItOut 66

tryItOut 67
Compiling threw: SyntaxError: missing variable name

tryItOut 68
Compiling threw: SyntaxError: missing ; before statement

tryItOut 69
Compiling threw: SyntaxError: missing ; before statement

tryItOut 70
Running threw: TypeError: this.zzz has no properties

tryItOut 71

tryItOut 72
Compiling threw: SyntaxError: missing } in XML expression

tryItOut 73
Compiling threw: SyntaxError: missing variable name

tryItOut 74
Compiling threw: SyntaxError: invalid continue

tryItOut 75
Running threw: TypeError: this.zzz has no properties

tryItOut 76

tryItOut 77
Compiling threw: SyntaxError: syntax error

tryItOut 78
Compiling threw: SyntaxError: invalid break

tryItOut 79

tryItOut 80

tryItOut 81
It's an iterator!
Iterating threw!
Iterating threw: TypeError: undefined has no properties

tryItOut 82
Running threw: SyntaxError: invalid break

tryItOut 83
Compiling threw: SyntaxError: missing variable name

tryItOut 84
Compiling threw: SyntaxError: invalid for/in left-hand side

tryItOut 85

tryItOut 86
Compiling threw: SyntaxError: missing { before function body

tryItOut 87
Compiling threw: SyntaxError: syntax error

tryItOut 88

tryItOut 89
Compiling threw: SyntaxError: invalid for/in left-hand side

tryItOut 90

tryItOut 91
Compiling threw: SyntaxError: missing ) in parenthetical

tryItOut 92

tryItOut 93
Compiling threw: SyntaxError: missing ; before statement

tryItOut 94
Compiling threw: SyntaxError: invalid assignment left-hand side

tryItOut 95
It's an iterator!
Iterating threw!
Iterating threw: TypeError: undefined has no properties

tryItOut 96
Compiling threw: SyntaxError: missing ; before statement

tryItOut 97
Compiling threw: SyntaxError: syntax error

tryItOut 98
Compiling threw: SyntaxError: missing variable name

tryItOut 99
Running threw: TypeError: this.zzz has no properties

tryItOut 100

tryItOut 101

tryItOut 102
Compiling threw: SyntaxError: invalid for/in left-hand side

tryItOut 103
Compiling threw: SyntaxError: syntax error

tryItOut 104
It's an iterator!
Iterating threw!
Iterating threw: ReferenceError: reference to undefined XML name *::*

tryItOut 105

tryItOut 106

tryItOut 107
Compiling threw: TypeError: redeclaration of variable __proto__

tryItOut 108

tryItOut 109
Compiling threw: SyntaxError: syntax error

tryItOut 110

tryItOut 111

tryItOut 112

tryItOut 113
Compiling threw: SyntaxError: missing ) in parenthetical

tryItOut 114
It's an iterator!
Iterating threw!
Iterating threw: ReferenceError: reference to undefined XML name @foo

tryItOut 115

tryItOut 116

tryItOut 117
Compiling threw: SyntaxError: invalid assignment left-hand side

tryItOut 118
Running threw: ReferenceError: reference to undefined XML name *

tryItOut 119

tryItOut 120

tryItOut 121

tryItOut 122
Compiling threw: SyntaxError: invalid for/in left-hand side

tryItOut 123

tryItOut 124
Running threw: ReferenceError: prop is not defined

tryItOut 125
Compiling threw: SyntaxError: missing { before function body

tryItOut 126
Compiling threw: SyntaxError: invalid assignment left-hand side

tryItOut 127
Compiling threw: SyntaxError: missing ] after element list

tryItOut 128
It's an iterator!
Iterating succeeded, iterCount == 1

tryItOut 129

tryItOut 130

tryItOut 131
It's an iterator!
Iterating succeeded, iterCount == 1

tryItOut 132

tryItOut 133
Compiling threw: SyntaxError: missing ) after let head

tryItOut 134
Running threw: ReferenceError: reference to undefined XML name @foo

tryItOut 135

tryItOut 136

tryItOut 137
It's an iterator!
Iterating succeeded, iterCount == 0

tryItOut 138
It's an iterator!
Iterating threw!
Iterating threw: ReferenceError: window is not defined

tryItOut 139
Compiling threw: SyntaxError: missing ) in parenthetical

tryItOut 140
Compiling threw: SyntaxError: missing variable name

tryItOut 141
Compiling threw: SyntaxError: syntax error

tryItOut 142
Running threw: TypeError: this.zzz has no properties

tryItOut 143
Running threw: ReferenceError: reference to undefined XML name *::*

tryItOut 144
Compiling threw: SyntaxError: syntax error

tryItOut 145
Compiling threw: TypeError: redeclaration of variable prototype

tryItOut 146

tryItOut 147

tryItOut 148

tryItOut 149
Running threw: TypeError: this.zzz has no properties

tryItOut 150

tryItOut 151
It's an iterator!
Iterating threw!
Iterating threw: ReferenceError: z1 is not defined

tryItOut 152
Compiling threw: SyntaxError: label not found

tryItOut 153
Running threw: ReferenceError: reference to undefined XML name *::*

tryItOut 154

tryItOut 155
Compiling threw: SyntaxError: label not found

tryItOut 156

tryItOut 157

tryItOut 158
Compiling threw: SyntaxError: missing ) in parenthetical

tryItOut 159
Compiling threw: SyntaxError: syntax error

tryItOut 160
Compiling threw: SyntaxError: label not found

tryItOut 161

tryItOut 162

tryItOut 163
Compiling threw: SyntaxError: missing ) in parenthetical

tryItOut 164
Running threw: ReferenceError: window is not defined

tryItOut 165
Compiling threw: SyntaxError: invalid for/in left-hand side

tryItOut 166
Compiling threw: SyntaxError: label not found

tryItOut 167
Compiling threw: SyntaxError: missing ) in parenthetical

tryItOut 168

tryItOut 169

tryItOut 170
Compiling threw: TypeError: redeclaration of var __noSuchMethod__

tryItOut 171
Running threw: ReferenceError: z1 is not defined

tryItOut 172
Compiling threw: SyntaxError: invalid for/in left-hand side

tryItOut 173
Compiling threw: SyntaxError: missing ; after for-loop initializer

tryItOut 174
Running threw: ReferenceError: reference to undefined property "__iterator__"

tryItOut 175

tryItOut 176
Running threw: TypeError: this.zzz has no properties

tryItOut 177
Running threw: ReferenceError: reference to undefined XML name @foo

tryItOut 178
Running threw: ReferenceError: reference to undefined XML name *

tryItOut 179
Compiling threw: SyntaxError: missing { before function body

tryItOut 180
Compiling threw: SyntaxError: invalid for/in left-hand side

tryItOut 181

tryItOut 182
Compiling threw: SyntaxError: missing while after do-loop body

tryItOut 183
Compiling threw: SyntaxError: invalid continue

tryItOut 184
Compiling threw: SyntaxError: syntax error

tryItOut 185

tryItOut 186

tryItOut 187
It's an iterator!
Iterating succeeded, iterCount == 1

tryItOut 188
Compiling threw: SyntaxError: invalid for/in left-hand side

tryItOut 189

tryItOut 190

tryItOut 191
Compiling threw: SyntaxError: syntax error

tryItOut 192

tryItOut 193
Compiling threw: SyntaxError: invalid assignment left-hand side

tryItOut 194
It's an iterator!
Iterating threw!
Iterating threw: ReferenceError: reference to undefined XML name @foo

tryItOut 195

tryItOut 196
Compiling threw: SyntaxError: syntax error

tryItOut 197
Compiling threw: SyntaxError: invalid for/in left-hand side

tryItOut 198
It's an iterator!
Iterating succeeded, iterCount == 1

tryItOut 199
Running threw: ReferenceError: prop is not defined

tryItOut 200
Compiling threw: SyntaxError: label not found

tryItOut 201
Compiling threw: SyntaxError: invalid for/in left-hand side

tryItOut 202
Compiling threw: SyntaxError: invalid assignment left-hand side

tryItOut 203
Compiling threw: SyntaxError: missing variable name

tryItOut 204
Compiling threw: SyntaxError: missing ] after element list

tryItOut 205
Compiling threw: SyntaxError: label not found

tryItOut 206

tryItOut 207
It's an iterator!
Iterating threw!
Iterating threw: ReferenceError: reference to undefined XML name *

tryItOut 208

tryItOut 209

tryItOut 210

tryItOut 211

tryItOut 212
Compiling threw: SyntaxError: syntax error

tryItOut 213

tryItOut 214
Compiling threw: SyntaxError: missing variable name

tryItOut 215
Compiling threw: SyntaxError: illegal XML character

tryItOut 216
Compiling threw: SyntaxError: syntax error

tryItOut 217

tryItOut 218

tryItOut 219
Compiling threw: SyntaxError: label not found

tryItOut 220
Compiling threw: SyntaxError: missing ; before statement

tryItOut 221

tryItOut 222

tryItOut 223
Compiling threw: SyntaxError: missing variable name

tryItOut 224
Compiling threw: SyntaxError: missing variable name

tryItOut 225
It's an iterator!
Iterating succeeded, iterCount == 1

tryItOut 226

tryItOut 227
Compiling threw: SyntaxError: invalid for/in left-hand side

tryItOut 228
Running threw: ReferenceError: prop is not defined

tryItOut 229

tryItOut 230
Running threw: ReferenceError: reference to undefined XML name @foo

tryItOut 231
Compiling threw: SyntaxError: invalid continue

tryItOut 232
Running threw: TypeError: this.zzz has no properties

tryItOut 233

tryItOut 234
It's an iterator!
Iterating threw!
Iterating threw: TypeError: redeclaration of var __count__

tryItOut 235
Compiling threw: SyntaxError: missing ) after with-statement object

tryItOut 236

tryItOut 237
Compiling threw: SyntaxError: label not found

tryItOut 238

tryItOut 239
Running threw: ReferenceError: reference to undefined XML name @foo

tryItOut 240

tryItOut 241
Compiling threw: SyntaxError: missing ; before statement

tryItOut 242
Running threw: ReferenceError: reference to undefined XML name *::*

tryItOut 243
It's an iterator!
Iterating threw!
Iterating threw: ReferenceError: prop is not defined

tryItOut 244

tryItOut 245

tryItOut 246
Compiling threw: SyntaxError: syntax error

tryItOut 247

tryItOut 248
Compiling threw: SyntaxError: syntax error

tryItOut 249

tryItOut 250

tryItOut 251
Running threw: ReferenceError: reference to undefined XML name *::*

tryItOut 252
It's an iterator!
Iterating threw!
Iterating threw: ReferenceError: reference to undefined XML name *

tryItOut 253

tryItOut 254

tryItOut 255
Compiling threw: SyntaxError: invalid assignment left-hand side

tryItOut 256
Compiling threw: SyntaxError: missing variable name

tryItOut 257

tryItOut 258

tryItOut 259
Compiling threw: SyntaxError: missing variable name

tryItOut 260
Compiling threw: TypeError: redeclaration of var __proto__

tryItOut 261
Running threw: 0

tryItOut 262
Compiling threw: SyntaxError: syntax error

tryItOut 263
Compiling threw: SyntaxError: missing ; before statement

tryItOut 264

tryItOut 265
Running threw: TypeError: this.zzz has no properties

tryItOut 266

tryItOut 267

tryItOut 268
Compiling threw: SyntaxError: missing variable name

tryItOut 269

tryItOut 270
It's an iterator!
Iterating succeeded, iterCount == 1

tryItOut 271

tryItOut 272
Running threw: ReferenceError: reference to undefined XML name *

tryItOut 273
Compiling threw: SyntaxError: missing variable name

tryItOut 274
Compiling threw: SyntaxError: invalid decrement operand

tryItOut 275

tryItOut 276
Running threw: TypeError: this.zzz has no properties

tryItOut 277
Running threw: 

tryItOut 278

tryItOut 279

tryItOut 280
Compiling threw: SyntaxError: syntax error

tryItOut 281

tryItOut 282
Running threw: ReferenceError: __proto__ is not defined

tryItOut 283
It's an iterator!
Iterating threw!
Iterating threw: ReferenceError: window is not defined

tryItOut 284
It's an iterator!
Iterating succeeded, iterCount == 1

tryItOut 285

tryItOut 286
Running threw: ReferenceError: reference to undefined XML name *::*

tryItOut 287
Compiling threw: SyntaxError: duplicate label

tryItOut 288
It's an iterator!
Iterating succeeded, iterCount == 1

tryItOut 289
Compiling threw: SyntaxError: yield expression must be parenthesized

tryItOut 290

tryItOut 291
Compiling threw: SyntaxError: syntax error

tryItOut 292
Compiling threw: SyntaxError: invalid for/in left-hand side

tryItOut 293
Compiling threw: SyntaxError: syntax error

tryItOut 294
Running threw: TypeError: this.zzz has no properties

tryItOut 295
Compiling threw: SyntaxError: missing ; before statement

tryItOut 296
Compiling threw: SyntaxError: missing ] after element list

tryItOut 297
Compiling threw: SyntaxError: missing ; before statement

tryItOut 298
Compiling threw: SyntaxError: invalid continue

tryItOut 299
It's an iterator!
Iterating threw!
Iterating threw: ReferenceError: reference to undefined XML name *::*

tryItOut 300
Compiling threw: SyntaxError: invalid decrement operand

tryItOut 301
Compiling threw: SyntaxError: missing variable name

tryItOut 302

tryItOut 303
Compiling threw: SyntaxError: missing variable name

tryItOut 304
Compiling threw: SyntaxError: missing : after property id

tryItOut 305

tryItOut 306

tryItOut 307
Compiling threw: SyntaxError: missing ] after element list

tryItOut 308
Running threw: TypeError: false is not a function

tryItOut 309
Compiling threw: SyntaxError: missing variable name

tryItOut 310
Compiling threw: SyntaxError: syntax error

tryItOut 311
Compiling threw: SyntaxError: illegal XML character

tryItOut 312
It's an iterator!
Iterating threw!
Iterating threw: ReferenceError: reference to undefined XML name @foo

tryItOut 313
Running threw: ReferenceError: reference to undefined XML name *::*

tryItOut 314

tryItOut 315

tryItOut 316

tryItOut 317
Compiling threw: SyntaxError: label not found

tryItOut 318
It's an iterator!
Iterating threw!
Iterating threw: ReferenceError: z2 is not defined

tryItOut 319
Compiling threw: SyntaxError: invalid assignment left-hand side

tryItOut 320
It's an iterator!
Iterating threw!
Iterating threw: ReferenceError: __iterator__ is not defined

tryItOut 321
It's an iterator!
Iterating succeeded, iterCount == 1

tryItOut 322
Compiling threw: SyntaxError: missing ] after element list

tryItOut 323
Compiling threw: SyntaxError: missing variable name

tryItOut 324
Compiling threw: SyntaxError: missing { before function body

tryItOut 325
Running threw: ReferenceError: window is not defined

tryItOut 326
Compiling threw: SyntaxError: syntax error

tryItOut 327
Compiling threw: SyntaxError: invalid continue

tryItOut 328
Compiling threw: SyntaxError: syntax error

tryItOut 329
Compiling threw: SyntaxError: missing ] after element list

tryItOut 330
Running threw: TypeError: "".@foo has no properties

tryItOut 331
Compiling threw: SyntaxError: missing ) after condition

tryItOut 332
Compiling threw: SyntaxError: missing { before function body

tryItOut 333

tryItOut 334

tryItOut 335
Compiling threw: SyntaxError: invalid for/in left-hand side

tryItOut 336
Compiling threw: SyntaxError: missing variable name

tryItOut 337
Compiling threw: SyntaxError: invalid for/in left-hand side

tryItOut 338
Running threw: ReferenceError: reference to undefined XML name *

tryItOut 339
Compiling threw: SyntaxError: label not found

tryItOut 340
Compiling threw: SyntaxError: invalid continue

tryItOut 341
Compiling threw: SyntaxError: label not found

tryItOut 342
Compiling threw: SyntaxError: label not found

tryItOut 343
Compiling threw: SyntaxError: invalid flag after regular expression

tryItOut 344
Compiling threw: SyntaxError: missing ; after for-loop initializer

tryItOut 345
Compiling threw: SyntaxError: invalid property id

tryItOut 346

tryItOut 347
Compiling threw: SyntaxError: illegal XML character

tryItOut 348

tryItOut 349

tryItOut 350
Compiling threw: SyntaxError: label not found

tryItOut 351

tryItOut 352

tryItOut 353
Compiling threw: SyntaxError: invalid continue

tryItOut 354

tryItOut 355

tryItOut 356
It's an iterator!
Iterating threw!
Iterating threw: ReferenceError: window is not defined

tryItOut 357

tryItOut 358

tryItOut 359
Compiling threw: SyntaxError: syntax error

tryItOut 360
Compiling threw: SyntaxError: yield expression must be parenthesized

tryItOut 361

tryItOut 362
It's an iterator!
Iterating succeeded, iterCount == 1

tryItOut 363

tryItOut 364

tryItOut 365

tryItOut 366
Compiling threw: SyntaxError: syntax error

tryItOut 367
Compiling threw: SyntaxError: missing variable name

tryItOut 368

tryItOut 369
Compiling threw: SyntaxError: invalid break

tryItOut 370
Compiling threw: SyntaxError: unterminated comment

tryItOut 371

tryItOut 372
Running threw: ReferenceError: __iterator__ is not defined

tryItOut 373
Compiling threw: SyntaxError: invalid continue

tryItOut 374

tryItOut 375

tryItOut 376
Compiling threw: SyntaxError: missing ; before statement

tryItOut 377
Compiling threw: SyntaxError: invalid break

tryItOut 378
Compiling threw: SyntaxError: missing ] after element list

tryItOut 379
Compiling threw: SyntaxError: invalid for/in left-hand side

tryItOut 380

tryItOut 381
Compiling threw: SyntaxError: label not found

tryItOut 382

tryItOut 383
Running threw: ReferenceError: window is not defined

tryItOut 384

tryItOut 385

tryItOut 386

tryItOut 387

tryItOut 388

tryItOut 389
Compiling threw: SyntaxError: missing ) in parenthetical

tryItOut 390
Compiling threw: SyntaxError: illegal XML character

tryItOut 391
Compiling threw: SyntaxError: missing : after property id

tryItOut 392

tryItOut 393
Running threw: ReferenceError: reference to undefined XML name @foo

tryItOut 394
Running threw: TypeError: this.zzz has no properties

tryItOut 395

tryItOut 396
Compiling threw: SyntaxError: syntax error

tryItOut 397
Compiling threw: SyntaxError: invalid assignment left-hand side

tryItOut 398
Running threw: ReferenceError: window is not defined

tryItOut 399
Compiling threw: SyntaxError: syntax error

tryItOut 400
Compiling threw: SyntaxError: missing ) in parenthetical

tryItOut 401

tryItOut 402

tryItOut 403
Running threw: TypeError: this.zzz has no properties

tryItOut 404

tryItOut 405

tryItOut 406

tryItOut 407
Compiling threw: SyntaxError: missing ; before statement

tryItOut 408

tryItOut 409

tryItOut 410

tryItOut 411

tryItOut 412
Compiling threw: SyntaxError: invalid continue

tryItOut 413
Compiling threw: SyntaxError: invalid assignment left-hand side

tryItOut 414
Compiling threw: SyntaxError: missing ; before statement

tryItOut 415
Compiling threw: SyntaxError: missing ] after element list

tryItOut 416

tryItOut 417

tryItOut 418
Compiling threw: SyntaxError: illegal XML character

tryItOut 419

tryItOut 420
Compiling threw: SyntaxError: missing ; before statement

tryItOut 421
Compiling threw: SyntaxError: missing ] after element list

tryItOut 422
Compiling threw: SyntaxError: syntax error

tryItOut 423
It's an iterator!
Iterating threw!
Iterating threw: ReferenceError: __iterator__ is not defined

tryItOut 424

tryItOut 425

tryItOut 426
Compiling threw: SyntaxError: syntax error

tryItOut 427
Running threw: TypeError: this.zzz has no properties

tryItOut 428

tryItOut 429
Compiling threw: SyntaxError: syntax error

tryItOut 430
Compiling threw: SyntaxError: missing ; before statement

tryItOut 431
Compiling threw: SyntaxError: missing variable name

tryItOut 432

tryItOut 433
Running threw: Can't toString the error!!

tryItOut 434

tryItOut 435
Compiling threw: SyntaxError: duplicate label

tryItOut 436

tryItOut 437
Compiling threw: SyntaxError: label not found

tryItOut 438

tryItOut 439

tryItOut 440
Compiling threw: TypeError: redeclaration of variable __proto__

tryItOut 441
Compiling threw: SyntaxError: label not found

tryItOut 442
Compiling threw: SyntaxError: missing variable name

tryItOut 443
Running threw: TypeError: undefined has no properties

tryItOut 444

tryItOut 445
Compiling threw: SyntaxError: missing ; before statement

tryItOut 446
Compiling threw: SyntaxError: missing variable name

tryItOut 447
Compiling threw: SyntaxError: invalid decrement operand

tryItOut 448

tryItOut 449
Compiling threw: SyntaxError: duplicate label

tryItOut 450
Running threw: TypeError: this.zzz has no properties

tryItOut 451
Compiling threw: SyntaxError: missing variable name

tryItOut 452

tryItOut 453
It's an iterator!
Iterating threw!
Iterating threw: TypeError: redeclaration of const __parent__

tryItOut 454

tryItOut 455

tryItOut 456
Compiling threw: SyntaxError: invalid for each loop

tryItOut 457

tryItOut 458

tryItOut 459
Compiling threw: SyntaxError: syntax error

tryItOut 460
Compiling threw: SyntaxError: missing = in destructuring declaration

tryItOut 461

tryItOut 462
Compiling threw: SyntaxError: missing { before function body

tryItOut 463
Compiling threw: SyntaxError: missing ) in parenthetical

tryItOut 464

tryItOut 465

tryItOut 466
Compiling threw: SyntaxError: invalid decrement operand

tryItOut 467

tryItOut 468
Compiling threw: SyntaxError: syntax error

tryItOut 469
It's an iterator!
Iterating threw!
Iterating threw: ReferenceError: z1 is not defined

tryItOut 470
Compiling threw: SyntaxError: missing ) in parenthetical

tryItOut 471
Compiling threw: SyntaxError: missing variable name

tryItOut 472

tryItOut 473
Compiling threw: SyntaxError: syntax error

tryItOut 474
Running threw: ReferenceError: reference to undefined XML name @foo

tryItOut 475

tryItOut 476
Compiling threw: SyntaxError: invalid for/in left-hand side

tryItOut 477
Compiling threw: SyntaxError: label not found

tryItOut 478
Compiling threw: SyntaxError: syntax error

tryItOut 479
Compiling threw: SyntaxError: invalid continue

tryItOut 480

tryItOut 481
Compiling threw: SyntaxError: syntax error

tryItOut 482

tryItOut 483

tryItOut 484
Running threw: ReferenceError: z1 is not defined

tryItOut 485
Running threw: <x>
  <y/>
</x>

tryItOut 486
Compiling threw: SyntaxError: syntax error

tryItOut 487

tryItOut 488

tryItOut 489
Running threw: TypeError: this.zzz has no properties

tryItOut 490
Running threw: ReferenceError: reference to undefined XML name @foo

tryItOut 491

tryItOut 492
Compiling threw: SyntaxError: missing variable name

tryItOut 493
Compiling threw: SyntaxError: syntax error

tryItOut 494
Compiling threw: SyntaxError: missing ; before statement

tryItOut 495

tryItOut 496
Compiling threw: SyntaxError: missing : after property id

tryItOut 497
Compiling threw: SyntaxError: invalid continue

tryItOut 498
Running threw: ReferenceError: reference to undefined XML name *

tryItOut 499

tryItOut 500

tryItOut 501
Compiling threw: SyntaxError: missing ) in parenthetical

tryItOut 502
Compiling threw: SyntaxError: missing variable name

tryItOut 503
Compiling threw: SyntaxError: yield expression must be parenthesized

tryItOut 504
Running threw: TypeError: this.zzz has no properties

tryItOut 505
Compiling threw: SyntaxError: missing variable name

tryItOut 506
Compiling threw: SyntaxError: invalid for/in left-hand side

tryItOut 507
Compiling threw: SyntaxError: invalid for/in left-hand side

tryItOut 508

tryItOut 509

tryItOut 510

tryItOut 511

tryItOut 512

tryItOut 513

tryItOut 514

tryItOut 515
Compiling threw: SyntaxError: invalid break

tryItOut 516
Compiling threw: SyntaxError: missing ] after element list

tryItOut 517

tryItOut 518
Compiling threw: SyntaxError: missing ) in parenthetical

tryItOut 519
Compiling threw: SyntaxError: missing variable name

tryItOut 520
It's an iterator!
Iterating succeeded, iterCount == 1

tryItOut 521
Compiling threw: SyntaxError: label not found

tryItOut 522
It's an iterator!
Iterating succeeded, iterCount == 1

tryItOut 523

tryItOut 524
Running threw: TypeError: false is not a function

tryItOut 525
Running threw: ReferenceError: reference to undefined XML name *::*

tryItOut 526
Compiling threw: SyntaxError: missing ) in parenthetical

tryItOut 527

tryItOut 528
Compiling threw: SyntaxError: syntax error

tryItOut 529
Compiling threw: SyntaxError: invalid break

tryItOut 530
Compiling threw: SyntaxError: missing ; before statement

tryItOut 531
Compiling threw: SyntaxError: syntax error

tryItOut 532

tryItOut 533
Compiling threw: SyntaxError: invalid for/in left-hand side

tryItOut 534
Compiling threw: SyntaxError: missing ; before statement

tryItOut 535
Compiling threw: SyntaxError: missing variable name

tryItOut 536
Compiling threw: SyntaxError: label not found

tryItOut 537

tryItOut 538
It's an iterator!
Iterating threw!
Iterating threw: ReferenceError: reference to undefined XML name @foo

tryItOut 539
Compiling threw: SyntaxError: syntax error

tryItOut 540
Compiling threw: SyntaxError: invalid break

tryItOut 541
Compiling threw: SyntaxError: invalid for/in left-hand side

tryItOut 542
Compiling threw: SyntaxError: missing variable name

tryItOut 543
Running threw: TypeError: redeclaration of const __parent__

tryItOut 544

tryItOut 545
Running threw: TypeError: /x/g.unwatch("__iterator__") has no properties

tryItOut 546

tryItOut 547

tryItOut 548
It's an iterator!
Iterating succeeded, iterCount == 1

tryItOut 549
Compiling threw: SyntaxError: missing ; before statement

tryItOut 550
It's an iterator!
Iterating succeeded, iterCount == 1

tryItOut 551
Compiling threw: SyntaxError: syntax error

tryItOut 552
Compiling threw: SyntaxError: invalid for/in left-hand side

tryItOut 553
Compiling threw: SyntaxError: invalid for/in left-hand side

tryItOut 554

tryItOut 555
Compiling threw: TypeError: redeclaration of const __count__

tryItOut 556
Compiling threw: SyntaxError: invalid assignment left-hand side

tryItOut 557

tryItOut 558
Compiling threw: SyntaxError: invalid for/in left-hand side

tryItOut 559
It's an iterator!
Iterating threw!
Iterating threw: TypeError: __proto__[1e+81] has no properties

tryItOut 560
Compiling threw: SyntaxError: missing = in destructuring declaration

tryItOut 561
Compiling threw: SyntaxError: missing ) in parenthetical

tryItOut 562

tryItOut 563
Running threw: TypeError: this.zzz has no properties

tryItOut 564
Compiling threw: SyntaxError: missing ; before statement

tryItOut 565
Compiling threw: SyntaxError: invalid break

tryItOut 566
Compiling threw: SyntaxError: invalid for/in left-hand side

tryItOut 567
Running threw: Error: invalid sharp variable use #1#

tryItOut 568

tryItOut 569
Compiling threw: SyntaxError: invalid continue

tryItOut 570
Compiling threw: SyntaxError: missing = in destructuring declaration

tryItOut 571
Compiling threw: SyntaxError: missing ) after argument list

tryItOut 572
It's an iterator!
Iterating succeeded, iterCount == 1

tryItOut 573
Running threw: ReferenceError: window is not defined

tryItOut 574

tryItOut 575
Compiling threw: SyntaxError: missing variable name

tryItOut 576
It's an iterator!
Iterating threw!
Iterating threw: TypeError: undefined has no properties

tryItOut 577
Compiling threw: SyntaxError: missing variable name

tryItOut 578
Compiling threw: TypeError: redeclaration of var prop

tryItOut 579

tryItOut 580
Running threw: TypeError: this.zzz has no properties

tryItOut 581

tryItOut 582
before 645280, after 296480, break 0153a000
Running threw: ReferenceError: window is not defined

tryItOut 583
Compiling threw: SyntaxError: invalid continue

tryItOut 584
Running threw: ReferenceError: window is not defined

tryItOut 585
Compiling threw: SyntaxError: duplicate label

tryItOut 586

tryItOut 587
Compiling threw: SyntaxError: syntax error

tryItOut 588

tryItOut 589
It's an iterator!
Iterating threw!
Iterating threw: 0

tryItOut 590

tryItOut 591

tryItOut 592
Running threw: ReferenceError: reference to undefined XML name *::*

tryItOut 593
Compiling threw: SyntaxError: missing ] after element list

tryItOut 594

tryItOut 595
Compiling threw: SyntaxError: invalid for/in left-hand side

tryItOut 596
Compiling threw: SyntaxError: missing ; before statement

tryItOut 597
Running threw: TypeError: ({}) is not a function

tryItOut 598

tryItOut 599

tryItOut 600

tryItOut 601

tryItOut 602

tryItOut 603

tryItOut 604
Compiling threw: SyntaxError: missing while after do-loop body

tryItOut 605

tryItOut 606
It's an iterator!
Iterating succeeded, iterCount == 1

tryItOut 607
Running threw: TypeError: this.zzz has no properties

tryItOut 608

tryItOut 609
Compiling threw: SyntaxError: invalid break

tryItOut 610
Compiling threw: SyntaxError: missing { before function body

tryItOut 611
Compiling threw: SyntaxError: missing ] after element list

tryItOut 612
Compiling threw: SyntaxError: label not found

tryItOut 613

tryItOut 614

tryItOut 615

tryItOut 616
Compiling threw: SyntaxError: missing { before function body

tryItOut 617
Compiling threw: SyntaxError: syntax error

tryItOut 618
Compiling threw: SyntaxError: duplicate label

tryItOut 619
Compiling threw: SyntaxError: missing { before function body

tryItOut 620

tryItOut 621

tryItOut 622
Compiling threw: SyntaxError: missing while after do-loop body

tryItOut 623
Running threw: ReferenceError: window is not defined

tryItOut 624
Compiling threw: SyntaxError: missing variable name

tryItOut 625
Compiling threw: SyntaxError: missing { before function body

tryItOut 626

tryItOut 627
It's an iterator!
Iterating succeeded, iterCount == 0

tryItOut 628
Running threw: undefined

tryItOut 629
Compiling threw: SyntaxError: missing ; before statement

tryItOut 630
Compiling threw: SyntaxError: syntax error

tryItOut 631

tryItOut 632

tryItOut 633
Compiling threw: SyntaxError: syntax error

tryItOut 634

tryItOut 635
Compiling threw: SyntaxError: label not found

tryItOut 636

tryItOut 637
Running threw: ReferenceError: Exception is not defined

tryItOut 638
Running threw: TypeError: this.zzz has no properties

tryItOut 639
Compiling threw: SyntaxError: invalid assignment left-hand side

tryItOut 640
Compiling threw: SyntaxError: invalid for/in left-hand side

tryItOut 641
Compiling threw: SyntaxError: missing ; before statement

tryItOut 642
Compiling threw: SyntaxError: invalid continue

tryItOut 643
Compiling threw: SyntaxError: missing variable name

tryItOut 644
Compiling threw: SyntaxError: missing ; before statement

tryItOut 645

tryItOut 646
Compiling threw: SyntaxError: syntax error

tryItOut 647
Compiling threw: SyntaxError: syntax error

tryItOut 648
Compiling threw: SyntaxError: missing = in destructuring declaration

tryItOut 649
Running threw: <x>
  <y/>
</x>

tryItOut 650
It's an iterator!
Iterating succeeded, iterCount == 1

tryItOut 651
Compiling threw: SyntaxError: missing ) in parenthetical

tryItOut 652
Compiling threw: SyntaxError: missing ; before statement

tryItOut 653

tryItOut 654
Running threw: Can't toString the error!!

tryItOut 655

tryItOut 656

tryItOut 657
Compiling threw: SyntaxError: syntax error

tryItOut 658

tryItOut 659
Compiling threw: SyntaxError: missing variable name

tryItOut 660

tryItOut 661
Compiling threw: SyntaxError: missing ) in parenthetical

tryItOut 662
Compiling threw: SyntaxError: invalid assignment left-hand side

tryItOut 663
Compiling threw: SyntaxError: duplicate label

tryItOut 664

tryItOut 665
Compiling threw: SyntaxError: invalid continue

tryItOut 666

tryItOut 667
Compiling threw: SyntaxError: label not found

tryItOut 668
It's an iterator!
Iterating threw!
Iterating threw: ReferenceError: reference to undefined XML name *::*

tryItOut 669
Compiling threw: SyntaxError: missing variable name

tryItOut 670

tryItOut 671

tryItOut 672
Running threw: ReferenceError: reference to undefined XML name *::*

tryItOut 673
Compiling threw: SyntaxError: invalid for/in left-hand side

tryItOut 674
Compiling threw: SyntaxError: invalid for/in left-hand side

tryItOut 675

tryItOut 676
Compiling threw: SyntaxError: label not found

tryItOut 677
It's an iterator!
Iterating threw!
Iterating threw: ReferenceError: reference to undefined XML name *

tryItOut 678
Compiling threw: SyntaxError: missing variable name

tryItOut 679
Compiling threw: SyntaxError: invalid for/in left-hand side

tryItOut 680
Compiling threw: SyntaxError: invalid continue

tryItOut 681

tryItOut 682
Compiling threw: SyntaxError: missing ) in parenthetical

tryItOut 683
Running threw: ReferenceError: window is not defined

tryItOut 684
Compiling threw: SyntaxError: missing { before function body

tryItOut 685

tryItOut 686
Compiling threw: SyntaxError: missing ; before statement

tryItOut 687
Compiling threw: SyntaxError: missing ; before statement

tryItOut 688
Compiling threw: SyntaxError: invalid assignment left-hand side

tryItOut 689
Compiling threw: SyntaxError: syntax error

tryItOut 690
Compiling threw: SyntaxError: invalid for/in left-hand side

tryItOut 691

tryItOut 692
Compiling threw: SyntaxError: syntax error

tryItOut 693

tryItOut 694

tryItOut 695

tryItOut 696
Running threw: false

tryItOut 697
Compiling threw: SyntaxError: missing ; before statement

tryItOut 698
Compiling threw: SyntaxError: label not found

tryItOut 699
Compiling threw: SyntaxError: invalid for/in left-hand side

tryItOut 700
Compiling threw: SyntaxError: missing { before function body

tryItOut 701

tryItOut 702

tryItOut 703
Running threw: TypeError: can't convert this to string

tryItOut 704
Running threw: TypeError: this.zzz has no properties

tryItOut 705
Compiling threw: SyntaxError: invalid for/in left-hand side

tryItOut 706
Compiling threw: SyntaxError: missing { before function body

tryItOut 707

tryItOut 708

tryItOut 709

tryItOut 710
Compiling threw: SyntaxError: invalid for/in left-hand side

tryItOut 711
It's an iterator!
Iterating succeeded, iterCount == 1

tryItOut 712
Running threw: TypeError: "".yoyo is not a function

tryItOut 713
Compiling threw: SyntaxError: invalid continue

tryItOut 714

tryItOut 715
Compiling threw: SyntaxError: missing = in destructuring declaration

tryItOut 716
Running threw: ReferenceError: reference to undefined XML name @foo

tryItOut 717
Running threw: TypeError: this.zzz has no properties

tryItOut 718
Running threw: TypeError: this.zzz has no properties

tryItOut 719
Compiling threw: SyntaxError: duplicate label

tryItOut 720

tryItOut 721
Compiling threw: SyntaxError: invalid break

tryItOut 722

tryItOut 723

tryItOut 724
Running threw: <x>
  <y/>
</x>

tryItOut 725
Running threw: ReferenceError: reference to undefined XML name *::*

tryItOut 726
Compiling threw: SyntaxError: syntax error

tryItOut 727
It's an iterator!
Iterating threw!
Iterating threw: ReferenceError: window is not defined

tryItOut 728
Compiling threw: SyntaxError: label not found

tryItOut 729
Compiling threw: SyntaxError: label not found

tryItOut 730
Running threw: TypeError: <x><y/></x>.watch("__noSuchMethod__", "haha".split) has no properties

tryItOut 731
Compiling threw: SyntaxError: missing { before function body

tryItOut 732
Running threw: <x>
  <y/>
</x>

tryItOut 733
Compiling threw: SyntaxError: missing ) in parenthetical

tryItOut 734
Compiling threw: SyntaxError: syntax error

tryItOut 735

tryItOut 736

tryItOut 737

tryItOut 738
Compiling threw: SyntaxError: syntax error

tryItOut 739
Running threw: 

tryItOut 740
Compiling threw: SyntaxError: invalid assignment left-hand side

tryItOut 741
Compiling threw: SyntaxError: label not found

tryItOut 742
Compiling threw: SyntaxError: invalid assignment left-hand side

tryItOut 743

tryItOut 744
Compiling threw: SyntaxError: invalid for/in left-hand side

tryItOut 745
Compiling threw: SyntaxError: syntax error

tryItOut 746
It's an iterator!
Iterating succeeded, iterCount == 1

tryItOut 747
Compiling threw: SyntaxError: missing ; before statement

tryItOut 748
Compiling threw: SyntaxError: missing ) in parenthetical

tryItOut 749
Running threw: null

tryItOut 750
Compiling threw: SyntaxError: invalid assignment left-hand side

tryItOut 751

tryItOut 752

tryItOut 753
Compiling threw: SyntaxError: invalid assignment left-hand side

tryItOut 754

tryItOut 755

tryItOut 756

tryItOut 757

tryItOut 758

tryItOut 759
Compiling threw: SyntaxError: missing variable name

tryItOut 760

tryItOut 761
It's an iterator!
Iterating succeeded, iterCount == 1

tryItOut 762

tryItOut 763

tryItOut 764

tryItOut 765
Compiling threw: SyntaxError: syntax error

tryItOut 766
Compiling threw: SyntaxError: invalid for/in left-hand side

tryItOut 767
It's an iterator!
Iterating succeeded, iterCount == 1

tryItOut 768
Running threw: <x>
  <y/>
</x>

tryItOut 769

tryItOut 770

tryItOut 771

tryItOut 772
Compiling threw: SyntaxError: invalid assignment left-hand side

tryItOut 773

tryItOut 774
Compiling threw: SyntaxError: label not found

tryItOut 775
Compiling threw: SyntaxError: missing variable name

tryItOut 776
Compiling threw: SyntaxError: syntax error

tryItOut 777

tryItOut 778
It's an iterator!
Iterating threw!
Iterating threw: TypeError: can't convert this to number

tryItOut 779

tryItOut 780
Running threw: ReferenceError: reference to undefined XML name *::*

tryItOut 781
Compiling threw: SyntaxError: syntax error

tryItOut 782

tryItOut 783

tryItOut 784
Compiling threw: SyntaxError: invalid break

tryItOut 785
Compiling threw: SyntaxError: missing ) in parenthetical

tryItOut 786
Running threw: <x>
  <y/>
</x>

tryItOut 787
It's an iterator!
Iterating threw!
Iterating threw: ReferenceError: reference to undefined XML name @foo

tryItOut 788

tryItOut 789
Compiling threw: SyntaxError: missing ) in parenthetical

tryItOut 790
Compiling threw: SyntaxError: syntax error

tryItOut 791

tryItOut 792
Compiling threw: SyntaxError: syntax error

tryItOut 793

tryItOut 794
Compiling threw: SyntaxError: invalid assignment left-hand side

tryItOut 795
It's an iterator!
Iterating succeeded, iterCount == 1

tryItOut 796

tryItOut 797
Running threw: TypeError: this.zzz has no properties

tryItOut 798

tryItOut 799
Compiling threw: SyntaxError: invalid property id

tryItOut 800
Compiling threw: SyntaxError: invalid assignment left-hand side

tryItOut 801

tryItOut 802

tryItOut 803
Compiling threw: SyntaxError: syntax error

tryItOut 804

tryItOut 805

tryItOut 806

tryItOut 807
Compiling threw: TypeError: redeclaration of variable __noSuchMethod__

tryItOut 808
Compiling threw: SyntaxError: invalid for/in left-hand side

tryItOut 809

tryItOut 810
Compiling threw: SyntaxError: label not found

tryItOut 811

tryItOut 812
Compiling threw: SyntaxError: invalid for/in left-hand side

tryItOut 813

tryItOut 814
Running threw: TypeError: arguments[0] has no properties

tryItOut 815
Compiling threw: SyntaxError: missing ) in parenthetical

tryItOut 816

tryItOut 817

tryItOut 818

tryItOut 819

tryItOut 820

tryItOut 821

tryItOut 822
Compiling threw: SyntaxError: missing ) after condition

tryItOut 823

tryItOut 824

tryItOut 825
Compiling threw: SyntaxError: invalid assignment left-hand side

tryItOut 826
Compiling threw: SyntaxError: syntax error

tryItOut 827
Compiling threw: SyntaxError: invalid for/in left-hand side

tryItOut 828
It's an iterator!
Iterating succeeded, iterCount == 2

tryItOut 829

tryItOut 830
It's an iterator!
Iterating succeeded, iterCount == 1

tryItOut 831
It's an iterator!
Iterating succeeded, iterCount == 1

tryItOut 832

tryItOut 833
Compiling threw: TypeError: redeclaration of const prop

tryItOut 834
Compiling threw: SyntaxError: missing = in destructuring declaration

tryItOut 835

tryItOut 836
Compiling threw: SyntaxError: label not found

tryItOut 837
It's an iterator!
Iterating succeeded, iterCount == 1

tryItOut 838
Compiling threw: SyntaxError: missing ; after for-loop initializer

tryItOut 839
Running threw: TypeError: this.zzz has no properties

tryItOut 840

tryItOut 841

tryItOut 842

tryItOut 843

tryItOut 844
It's an iterator!
Iterating threw!
Iterating threw: ReferenceError: reference to undefined XML name @mozilla.org/js/function::__count__

tryItOut 845

tryItOut 846
Running threw: TypeError: this.zzz has no properties

tryItOut 847

tryItOut 848
Compiling threw: SyntaxError: label not found

tryItOut 849
Compiling threw: SyntaxError: syntax error

tryItOut 850
Running threw: ReferenceError: reference to undefined XML name @foo

tryItOut 851
Compiling threw: SyntaxError: duplicate label

tryItOut 852
Compiling threw: SyntaxError: missing ) after condition

tryItOut 853
It's an iterator!
Iterating succeeded, iterCount == 1

tryItOut 854
Compiling threw: SyntaxError: missing { before function body

tryItOut 855
It's an iterator!
Iterating succeeded, iterCount == 1

tryItOut 856

tryItOut 857

tryItOut 858

tryItOut 859
Compiling threw: SyntaxError: invalid break

tryItOut 860

tryItOut 861

tryItOut 862
Running threw: TypeError: this.zzz has no properties

tryItOut 863
Compiling threw: SyntaxError: missing : after property id

tryItOut 864
Compiling threw: SyntaxError: missing variable name

tryItOut 865
Running threw: ReferenceError: z1 is not defined

tryItOut 866

tryItOut 867
Compiling threw: SyntaxError: invalid for/in left-hand side

tryItOut 868
Running threw: TypeError: <x>
  <y/>
</x> is not a function

tryItOut 869
Compiling threw: SyntaxError: label not found

tryItOut 870
Compiling threw: SyntaxError: label not found

tryItOut 871

tryItOut 872

tryItOut 873
Compiling threw: SyntaxError: invalid continue

tryItOut 874
Compiling threw: SyntaxError: missing ; after for-loop initializer

tryItOut 875

tryItOut 876

tryItOut 877
Compiling threw: SyntaxError: missing ) after condition

tryItOut 878

tryItOut 879

tryItOut 880
Compiling threw: SyntaxError: invalid property id

tryItOut 881
Compiling threw: SyntaxError: missing ; before statement

tryItOut 882
Compiling threw: SyntaxError: label not found

tryItOut 883
Compiling threw: SyntaxError: invalid break

tryItOut 884

tryItOut 885

tryItOut 886
Compiling threw: SyntaxError: invalid for/in left-hand side

tryItOut 887

tryItOut 888
Compiling threw: SyntaxError: syntax error

tryItOut 889
Compiling threw: SyntaxError: missing ; before statement

tryItOut 890

tryItOut 891

tryItOut 892
It's an iterator!
Iterating succeeded, iterCount == 1

tryItOut 893
Compiling threw: SyntaxError: invalid flag after regular expression

tryItOut 894
Compiling threw: SyntaxError: label not found

tryItOut 895
Compiling threw: SyntaxError: missing ; before statement

tryItOut 896
Compiling threw: SyntaxError: invalid for/in left-hand side

tryItOut 897
Compiling threw: SyntaxError: label not found

tryItOut 898
Compiling threw: SyntaxError: invalid decrement operand

tryItOut 899
Running threw: TypeError: this.zzz has no properties

tryItOut 900
It's an iterator!
Iterating threw!
Iterating threw: TypeError: #3={, a:#3#}.unwatch("__iterator__") has no properties

tryItOut 901

tryItOut 902

tryItOut 903

tryItOut 904

tryItOut 905
Running threw: ReferenceError: reference to undefined XML name @foo

tryItOut 906

tryItOut 907

tryItOut 908
Compiling threw: SyntaxError: missing { before function body

tryItOut 909

tryItOut 910

tryItOut 911

tryItOut 912
Compiling threw: TypeError: redeclaration of variable constructor

tryItOut 913
Compiling threw: SyntaxError: invalid break

tryItOut 914
It's an iterator!
Iterating succeeded, iterCount == 0

tryItOut 915
Running threw: null

tryItOut 916
It's an iterator!
Iterating threw!
Iterating threw: TypeError: this is not a function

tryItOut 917

tryItOut 918

tryItOut 919

tryItOut 920

tryItOut 921
It's an iterator!
Iterating succeeded, iterCount == 0

tryItOut 922

tryItOut 923
Compiling threw: SyntaxError: syntax error

tryItOut 924

tryItOut 925

tryItOut 926

tryItOut 927
Compiling threw: SyntaxError: missing { before try block

tryItOut 928
Compiling threw: SyntaxError: invalid assignment left-hand side

tryItOut 929

tryItOut 930
It's an iterator!
Iterating succeeded, iterCount == 0

tryItOut 931

tryItOut 932

tryItOut 933
Compiling threw: SyntaxError: syntax error

tryItOut 934

tryItOut 935

tryItOut 936

tryItOut 937
Compiling threw: SyntaxError: invalid for/in left-hand side

tryItOut 938

tryItOut 939
It's an iterator!
Iterating threw!
Iterating threw: SyntaxError: invalid continue

tryItOut 940
Compiling threw: SyntaxError: missing { before function body

tryItOut 941
Running threw: undefined

tryItOut 942

tryItOut 943

tryItOut 944
Compiling threw: SyntaxError: syntax error

tryItOut 945

tryItOut 946
Compiling threw: TypeError: redeclaration of const __noSuchMethod__

tryItOut 947
It's an iterator!
Iterating threw!
Iterating threw: TypeError: redeclaration of var __proto__

tryItOut 948
Compiling threw: TypeError: redeclaration of variable __proto__

tryItOut 949

tryItOut 950

tryItOut 951

tryItOut 952
Compiling threw: SyntaxError: missing ; before statement

tryItOut 953
Compiling threw: SyntaxError: missing ; before statement

tryItOut 954
Compiling threw: SyntaxError: label not found

tryItOut 955

tryItOut 956
Compiling threw: SyntaxError: missing ) in parenthetical

tryItOut 957
Running threw: ReferenceError: reference to undefined XML name *::*

tryItOut 958
Compiling threw: SyntaxError: syntax error

tryItOut 959
Running threw: TypeError: this.zzz has no properties

tryItOut 960
Compiling threw: SyntaxError: missing variable name

tryItOut 961
Running threw: ReferenceError: window is not defined

tryItOut 962
It's an iterator!
Iterating succeeded, iterCount == 1

tryItOut 963
Compiling threw: SyntaxError: syntax error

tryItOut 964
Running threw: TypeError: __proto__ has no properties

tryItOut 965

tryItOut 966
Compiling threw: SyntaxError: invalid assignment left-hand side

tryItOut 967
Compiling threw: SyntaxError: syntax error

tryItOut 968
Compiling threw: SyntaxError: missing ; before statement

tryItOut 969
It's an iterator!
Iterating threw!
Iterating threw: TypeError: <x>
  <y/>
</x> is not a constructor

tryItOut 970

tryItOut 971

tryItOut 972

tryItOut 973

tryItOut 974
Compiling threw: TypeError: redeclaration of const __iterator__

tryItOut 975
Compiling threw: SyntaxError: missing ; before statement

tryItOut 976
It's an iterator!
Iterating succeeded, iterCount == 1

tryItOut 977
Compiling threw: SyntaxError: invalid decrement operand

tryItOut 978
Running threw: TypeError: this.zzz has no properties

tryItOut 979
It's an iterator!
Iterating threw!
Iterating threw: ReferenceError: reference to undefined XML name @foo

tryItOut 980
Compiling threw: SyntaxError: missing { before function body

tryItOut 981

tryItOut 982
Compiling threw: SyntaxError: missing { before function body

tryItOut 983

tryItOut 984
Compiling threw: SyntaxError: missing ] after element list

tryItOut 985
Compiling threw: SyntaxError: missing ] after element list

tryItOut 986
Compiling threw: SyntaxError: syntax error

tryItOut 987
It's an iterator!
Iterating threw!
Iterating threw: ReferenceError: reference to undefined XML name @mozilla.org/js/function::__proto__

tryItOut 988

tryItOut 989
Compiling threw: SyntaxError: label not found

tryItOut 990
Compiling threw: SyntaxError: missing ) after formal parameters

tryItOut 991
It's an iterator!
Iterating threw!
Iterating threw: TypeError: can't convert this to number

tryItOut 992
Compiling threw: SyntaxError: syntax error

tryItOut 993
Compiling threw: SyntaxError: missing ] after element list

tryItOut 994

tryItOut 995
Compiling threw: SyntaxError: label not found

tryItOut 996
Running threw: TypeError: arguments[0] has no properties

tryItOut 997
Running threw: /x/g

tryItOut 998
Compiling threw: SyntaxError: missing ; before statement

tryItOut 999

tryItOut 1000

ALL OK

Script done on Sat 04 May 2013 08:02:54 AM PDT
