Script started on Sat 04 May 2013 08:05:41 AM PDT
***
Targeting SpiderMonkey / Gecko.

tryItOut 1

tryItOut 2
Compiling threw: SyntaxError: duplicate label

tryItOut 3

tryItOut 4
Compiling threw: SyntaxError: missing ) after condition

tryItOut 5

tryItOut 6
Running threw: ReferenceError: reference to undefined XML name @foo

tryItOut 7
Running threw: ReferenceError: reference to undefined XML name *

tryItOut 8
Compiling threw: SyntaxError: missing { before function body

tryItOut 9
Running threw: ReferenceError: prop is not defined

tryItOut 10
Compiling threw: SyntaxError: syntax error

tryItOut 11
Running threw: ReferenceError: prop is not defined

tryItOut 12
Compiling threw: SyntaxError: missing variable name

tryItOut 13

tryItOut 14
Running threw: ReferenceError: prop is not defined

tryItOut 15

tryItOut 16

tryItOut 17
Compiling threw: SyntaxError: invalid for/in left-hand side

tryItOut 18
Compiling threw: SyntaxError: syntax error

tryItOut 19
Running threw: TypeError: null has no properties

tryItOut 20
Compiling threw: SyntaxError: invalid continue

tryItOut 21
It's an iterator!
Iterating succeeded, iterCount == 1

tryItOut 22
Compiling threw: SyntaxError: missing ) in parenthetical

tryItOut 23
Compiling threw: SyntaxError: missing ) after let head

tryItOut 24
Compiling threw: SyntaxError: missing ; after for-loop initializer

tryItOut 25

tryItOut 26
Running threw: ReferenceError: reference to undefined XML name @foo

tryItOut 27

tryItOut 28
Compiling threw: SyntaxError: invalid continue

tryItOut 29

tryItOut 30
Compiling threw: SyntaxError: invalid property id

tryItOut 31
Compiling threw: SyntaxError: missing { before function body

tryItOut 32
Running threw: TypeError: p.z = [, ] is not a function

tryItOut 33

tryItOut 34
Compiling threw: SyntaxError: label not found

tryItOut 35
Compiling threw: SyntaxError: missing : after property id

tryItOut 36

tryItOut 37
Compiling threw: SyntaxError: missing ) in parenthetical

tryItOut 38

tryItOut 39
Compiling threw: SyntaxError: invalid for/in left-hand side

tryItOut 40
Running threw: ReferenceError: reference to undefined XML name *

tryItOut 41

tryItOut 42
Compiling threw: SyntaxError: invalid for/in left-hand side

tryItOut 43
Running threw: TypeError: redeclaration of var __count__

tryItOut 44
Compiling threw: SyntaxError: missing } after property list

tryItOut 45

tryItOut 46
Compiling threw: SyntaxError: invalid decrement operand

tryItOut 47
Compiling threw: SyntaxError: invalid decrement operand

tryItOut 48

tryItOut 49
Running threw: function Object() {
    [native code]
}

tryItOut 50
Compiling threw: SyntaxError: syntax error

tryItOut 51

tryItOut 52

tryItOut 53

tryItOut 54
Compiling threw: SyntaxError: invalid decrement operand

tryItOut 55
Compiling threw: TypeError: redeclaration of const constructor

tryItOut 56
Compiling threw: SyntaxError: syntax error

tryItOut 57

tryItOut 58
Compiling threw: SyntaxError: duplicate label

tryItOut 59
Compiling threw: SyntaxError: missing variable name

tryItOut 60

tryItOut 61
Compiling threw: SyntaxError: syntax error

tryItOut 62
Compiling threw: SyntaxError: invalid continue

tryItOut 63

tryItOut 64
Running threw: SyntaxError: invalid assignment left-hand side

tryItOut 65
Compiling threw: SyntaxError: syntax error

tryItOut 66
Compiling threw: SyntaxError: invalid assignment left-hand side

tryItOut 67

tryItOut 68
Running threw: ReferenceError: reference to undefined XML name @foo

tryItOut 69
It's an iterator!
Iterating threw!
Iterating threw: TypeError: invalid XML namespace ccc

tryItOut 70

tryItOut 71

tryItOut 72
Compiling threw: SyntaxError: syntax error

tryItOut 73
Compiling threw: SyntaxError: missing variable name

tryItOut 74
Compiling threw: SyntaxError: missing ) in parenthetical

tryItOut 75
Compiling threw: SyntaxError: missing ) in parenthetical

tryItOut 76
Compiling threw: SyntaxError: missing { before function body

tryItOut 77
Compiling threw: SyntaxError: label not found

tryItOut 78
Compiling threw: SyntaxError: syntax error

tryItOut 79
Compiling threw: SyntaxError: syntax error

tryItOut 80
Compiling threw: SyntaxError: syntax error

tryItOut 81

tryItOut 82
Compiling threw: SyntaxError: invalid assignment left-hand side

tryItOut 83
Compiling threw: SyntaxError: invalid continue

tryItOut 84
Compiling threw: SyntaxError: missing ; after for-loop condition

tryItOut 85
Compiling threw: SyntaxError: syntax error

tryItOut 86
Compiling threw: SyntaxError: label not found

tryItOut 87
Compiling threw: SyntaxError: label not found

tryItOut 88

tryItOut 89

tryItOut 90
Compiling threw: SyntaxError: label not found

tryItOut 91
Compiling threw: SyntaxError: missing ; before statement

tryItOut 92
Running threw: [object Object]

tryItOut 93
Compiling threw: SyntaxError: unterminated string literal

tryItOut 94
Compiling threw: SyntaxError: syntax error

tryItOut 95

tryItOut 96
Running threw: ReferenceError: reference to undefined XML name *

tryItOut 97
Compiling threw: SyntaxError: missing } after property list

tryItOut 98
Compiling threw: SyntaxError: missing { before function body

tryItOut 99
Compiling threw: SyntaxError: missing { before function body

tryItOut 100
Compiling threw: SyntaxError: missing name in export statement

tryItOut 101
Running threw: TypeError: redeclaration of var __count__

tryItOut 102

tryItOut 103
It's an iterator!
Iterating threw!
Iterating threw: Error: invalid sharp variable use #1#

tryItOut 104
Compiling threw: SyntaxError: invalid for/in left-hand side

tryItOut 105
Compiling threw: SyntaxError: label not found

tryItOut 106
Running threw: ReferenceError: __noSuchMethod__ is not defined

tryItOut 107

tryItOut 108
Compiling threw: SyntaxError: syntax error

tryItOut 109
Compiling threw: SyntaxError: label not found

tryItOut 110
Compiling threw: SyntaxError: missing { before function body

tryItOut 111
Compiling threw: SyntaxError: invalid for/in left-hand side

tryItOut 112
Compiling threw: SyntaxError: missing ) in parenthetical

tryItOut 113

tryItOut 114
Running threw: ReferenceError: z1 is not defined

tryItOut 115
Compiling threw: SyntaxError: syntax error

tryItOut 116

tryItOut 117
Running threw: ReferenceError: __noSuchMethod__ is not defined

tryItOut 118
Compiling threw: SyntaxError: missing : after property id

tryItOut 119

tryItOut 120
Compiling threw: SyntaxError: syntax error

tryItOut 121
Compiling threw: SyntaxError: missing ) in parenthetical

tryItOut 122

tryItOut 123
Running threw: 10000

tryItOut 124
Compiling threw: SyntaxError: syntax error

tryItOut 125
Compiling threw: SyntaxError: invalid continue

tryItOut 126
Compiling threw: SyntaxError: syntax error

tryItOut 127

tryItOut 128

tryItOut 129
Running threw: TypeError: undefined has no properties

tryItOut 130

tryItOut 131
Compiling threw: SyntaxError: invalid for/in left-hand side

tryItOut 132
Compiling threw: SyntaxError: invalid property id

tryItOut 133
Compiling threw: SyntaxError: invalid break

tryItOut 134
Compiling threw: SyntaxError: missing while after do-loop body

tryItOut 135

tryItOut 136
Compiling threw: SyntaxError: syntax error

tryItOut 137
Compiling threw: SyntaxError: invalid decrement operand

tryItOut 138

tryItOut 139

tryItOut 140

tryItOut 141

tryItOut 142
Running threw: -Infinity

tryItOut 143

tryItOut 144

tryItOut 145
Compiling threw: SyntaxError: label not found

tryItOut 146

tryItOut 147

tryItOut 148
Compiling threw: SyntaxError: missing { before function body

tryItOut 149
Compiling threw: SyntaxError: syntax error

tryItOut 150
Compiling threw: SyntaxError: invalid assignment left-hand side

tryItOut 151
Compiling threw: SyntaxError: invalid for/in left-hand side

tryItOut 152
Compiling threw: SyntaxError: missing variable name

tryItOut 153
Compiling threw: SyntaxError: invalid for/in left-hand side

tryItOut 154
Compiling threw: SyntaxError: label not found

tryItOut 155

tryItOut 156
Compiling threw: SyntaxError: label not found

tryItOut 157

tryItOut 158

tryItOut 159

tryItOut 160

tryItOut 161
Compiling threw: SyntaxError: syntax error

tryItOut 162
Running threw: SyntaxError: invalid getter usage

tryItOut 163
Compiling threw: SyntaxError: missing ) in parenthetical

tryItOut 164

tryItOut 165
Running threw: TypeError: null has no properties

tryItOut 166
Running threw: ReferenceError: reference to undefined XML name @foo

tryItOut 167
Running threw: ReferenceError: reference to undefined XML name @foo

tryItOut 168

tryItOut 169
Compiling threw: SyntaxError: missing ; before statement

tryItOut 170

tryItOut 171
Running threw: ReferenceError: reference to undefined XML name *

tryItOut 172

tryItOut 173

tryItOut 174
Running threw: [object Object]

tryItOut 175
Running threw: 1

tryItOut 176
Compiling threw: SyntaxError: syntax error

tryItOut 177
Compiling threw: SyntaxError: missing = in destructuring declaration

tryItOut 178
Compiling threw: SyntaxError: label not found

tryItOut 179
Compiling threw: SyntaxError: syntax error

tryItOut 180
Running threw: ReferenceError: reference to undefined XML name *::*

tryItOut 181

tryItOut 182
Running threw: ReferenceError: reference to undefined XML name @foo

tryItOut 183
Running threw: ReferenceError: reference to undefined XML name *::*

tryItOut 184
Compiling threw: SyntaxError: missing ; after for-loop initializer

tryItOut 185

tryItOut 186

tryItOut 187
Compiling threw: SyntaxError: syntax error

tryItOut 188

tryItOut 189
Compiling threw: SyntaxError: invalid destructuring assignment operator

tryItOut 190

tryItOut 191
Running threw: ReferenceError: z1 is not defined

tryItOut 192
Compiling threw: SyntaxError: invalid break

tryItOut 193

tryItOut 194

tryItOut 195

tryItOut 196

tryItOut 197
It's an iterator!
Iterating succeeded, iterCount == 0

tryItOut 198
Running threw: ReferenceError: reference to undefined XML name @foo

tryItOut 199
Compiling threw: SyntaxError: missing variable name

tryItOut 200
Compiling threw: SyntaxError: missing ) in parenthetical

tryItOut 201
Compiling threw: SyntaxError: invalid for/in left-hand side

tryItOut 202

tryItOut 203
Compiling threw: SyntaxError: missing ) in parenthetical

tryItOut 204
Compiling threw: SyntaxError: missing while after do-loop body

tryItOut 205
Running threw: 111

tryItOut 206
Compiling threw: SyntaxError: label not found

tryItOut 207

tryItOut 208

tryItOut 209
Compiling threw: SyntaxError: label not found

tryItOut 210
Compiling threw: SyntaxError: unterminated string literal

tryItOut 211

tryItOut 212

tryItOut 213
Running threw: ReferenceError: reference to undefined XML name *

tryItOut 214
Running threw: [object Object]

tryItOut 215
Compiling threw: SyntaxError: invalid for/in left-hand side

tryItOut 216
Compiling threw: SyntaxError: missing ) in parenthetical

tryItOut 217

tryItOut 218

tryItOut 219
Running threw: ReferenceError: reference to undefined XML name *::*

tryItOut 220
Compiling threw: SyntaxError: missing formal parameter

tryItOut 221

tryItOut 222
Compiling threw: SyntaxError: syntax error

tryItOut 223
Compiling threw: SyntaxError: missing : after property id

tryItOut 224
Compiling threw: SyntaxError: syntax error

tryItOut 225

tryItOut 226

tryItOut 227
Compiling threw: SyntaxError: missing } after property list

tryItOut 228
Running threw: TypeError: true is not a function

tryItOut 229
Running threw: 106

tryItOut 230

tryItOut 231
Running threw: Error: invalid sharp variable use #1#

tryItOut 232
Compiling threw: SyntaxError: invalid for/in left-hand side

tryItOut 233
Compiling threw: SyntaxError: label not found

tryItOut 234

tryItOut 235
Compiling threw: SyntaxError: missing ) in parenthetical

tryItOut 236
Compiling threw: SyntaxError: missing ) in parenthetical

tryItOut 237
Running threw: TypeError: invalid XML namespace ccc

tryItOut 238
Compiling threw: SyntaxError: invalid continue

tryItOut 239

tryItOut 240
Compiling threw: SyntaxError: missing variable name

tryItOut 241
Compiling threw: SyntaxError: invalid for/in left-hand side

tryItOut 242
Compiling threw: SyntaxError: syntax error

tryItOut 243

tryItOut 244

tryItOut 245
Compiling threw: SyntaxError: syntax error

tryItOut 246
Compiling threw: SyntaxError: label not found

tryItOut 247

tryItOut 248
Running threw: 106

tryItOut 249
Compiling threw: SyntaxError: invalid assignment left-hand side

tryItOut 250

tryItOut 251
Compiling threw: SyntaxError: label not found

tryItOut 252

tryItOut 253
Running threw: 1,

tryItOut 254
Compiling threw: SyntaxError: label not found

tryItOut 255
Compiling threw: SyntaxError: missing ) in parenthetical

tryItOut 256

tryItOut 257
Compiling threw: SyntaxError: label not found

tryItOut 258
Compiling threw: SyntaxError: missing ; before statement

tryItOut 259
Compiling threw: SyntaxError: syntax error

tryItOut 260
Compiling threw: SyntaxError: missing ) in parenthetical

tryItOut 261

tryItOut 262

tryItOut 263
Compiling threw: SyntaxError: missing ) in parenthetical

tryItOut 264
Compiling threw: SyntaxError: syntax error

tryItOut 265
Running threw: ReferenceError: reference to undefined XML name *::*

tryItOut 266

tryItOut 267
Compiling threw: SyntaxError: syntax error

tryItOut 268

tryItOut 269
Compiling threw: SyntaxError: missing { before function body

tryItOut 270
Compiling threw: SyntaxError: invalid break

tryItOut 271
Compiling threw: SyntaxError: missing ) in parenthetical

tryItOut 272
Compiling threw: SyntaxError: syntax error

tryItOut 273
Compiling threw: SyntaxError: invalid for/in left-hand side

tryItOut 274

tryItOut 275
Compiling threw: SyntaxError: missing ; after for-loop initializer

tryItOut 276

tryItOut 277
Compiling threw: SyntaxError: invalid continue

tryItOut 278

tryItOut 279
Running threw: ReferenceError: z2 is not defined

tryItOut 280
Running threw: ReferenceError: reference to undefined XML name @foo

tryItOut 281

tryItOut 282
Compiling threw: SyntaxError: missing ; after for-loop condition

tryItOut 283
Compiling threw: SyntaxError: unterminated string literal

tryItOut 284
Running threw: ReferenceError: reference to undefined XML name *

tryItOut 285

tryItOut 286

tryItOut 287
Compiling threw: SyntaxError: missing } after property list

tryItOut 288
Compiling threw: SyntaxError: syntax error

tryItOut 289
Compiling threw: SyntaxError: syntax error

tryItOut 290
Running threw: TypeError: arguments[0] has no properties

tryItOut 291

tryItOut 292

tryItOut 293
Compiling threw: TypeError: redeclaration of const prop

tryItOut 294

tryItOut 295
Compiling threw: TypeError: redeclaration of const __iterator__

tryItOut 296
Compiling threw: SyntaxError: invalid break

tryItOut 297
Running threw: ReferenceError: reference to undefined XML name *

tryItOut 298
Compiling threw: SyntaxError: missing : in conditional expression

tryItOut 299

tryItOut 300
Running threw: ReferenceError: reference to undefined XML name *

tryItOut 301
Compiling threw: SyntaxError: invalid for/in left-hand side

tryItOut 302
Compiling threw: SyntaxError: missing while after do-loop body

tryItOut 303

tryItOut 304
Compiling threw: SyntaxError: duplicate label

tryItOut 305
Running threw: undefined

tryItOut 306

tryItOut 307
Compiling threw: SyntaxError: missing { before function body

tryItOut 308
Compiling threw: SyntaxError: syntax error

tryItOut 309

tryItOut 310

tryItOut 311

tryItOut 312

tryItOut 313
Compiling threw: SyntaxError: missing { before function body

tryItOut 314
Compiling threw: SyntaxError: invalid continue

tryItOut 315

tryItOut 316
Compiling threw: SyntaxError: invalid break

tryItOut 317
It's an iterator!
Iterating succeeded, iterCount == 1

tryItOut 318

tryItOut 319

tryItOut 320

tryItOut 321
Compiling threw: SyntaxError: syntax error

tryItOut 322
Compiling threw: SyntaxError: invalid continue

tryItOut 323
Compiling threw: SyntaxError: label not found

tryItOut 324
Running threw: -1

tryItOut 325

tryItOut 326
Compiling threw: SyntaxError: invalid for/in left-hand side

tryItOut 327
Running threw: ReferenceError: reference to undefined XML name @foo

tryItOut 328
Compiling threw: SyntaxError: missing ) in parenthetical

tryItOut 329
Compiling threw: SyntaxError: invalid break

tryItOut 330
Compiling threw: SyntaxError: syntax error

tryItOut 331
Compiling threw: SyntaxError: label not found

tryItOut 332
Compiling threw: SyntaxError: invalid continue

tryItOut 333
Compiling threw: SyntaxError: missing ) in parenthetical

tryItOut 334

tryItOut 335

tryItOut 336
Compiling threw: TypeError: redeclaration of const __proto__

tryItOut 337

tryItOut 338

tryItOut 339

tryItOut 340
Compiling threw: SyntaxError: missing ) in parenthetical

tryItOut 341
Compiling threw: SyntaxError: missing variable name

tryItOut 342
Compiling threw: SyntaxError: invalid assignment left-hand side

tryItOut 343

tryItOut 344

tryItOut 345
Running threw: Error: invalid sharp variable use #1#

tryItOut 346
Running threw: ReferenceError: reference to undefined XML name @foo

tryItOut 347

tryItOut 348
Compiling threw: SyntaxError: duplicate label

tryItOut 349
Compiling threw: SyntaxError: invalid continue

tryItOut 350
Compiling threw: SyntaxError: missing : after property id

tryItOut 351

tryItOut 352
Compiling threw: SyntaxError: label not found

tryItOut 353
It's an iterator!
Iterating threw!
Iterating threw: ReferenceError: reference to undefined XML name @foo

tryItOut 354

tryItOut 355
Compiling threw: SyntaxError: missing { before function body

tryItOut 356
Compiling threw: SyntaxError: missing : after property id

tryItOut 357
Running threw: ReferenceError: z1 is not defined

tryItOut 358
Compiling threw: SyntaxError: missing ) after condition

tryItOut 359
Compiling threw: SyntaxError: label not found

tryItOut 360

tryItOut 361
Compiling threw: SyntaxError: missing ) in parenthetical

tryItOut 362
Running threw: ReferenceError: reference to undefined XML name *

tryItOut 363

tryItOut 364
Compiling threw: SyntaxError: label not found

tryItOut 365
Compiling threw: SyntaxError: missing ; after for-loop initializer

tryItOut 366
Running threw: 0

tryItOut 367

tryItOut 368
Compiling threw: SyntaxError: missing ) after argument list

tryItOut 369
Compiling threw: SyntaxError: missing { before function body

tryItOut 370
Compiling threw: SyntaxError: syntax error

tryItOut 371
Compiling threw: SyntaxError: missing ; after for-loop initializer

tryItOut 372
Compiling threw: SyntaxError: syntax error

tryItOut 373
Running threw: ReferenceError: reference to undefined XML name *::*

tryItOut 374
Compiling threw: SyntaxError: invalid continue

tryItOut 375
Running threw: ReferenceError: reference to undefined XML name @foo

tryItOut 376

tryItOut 377
Compiling threw: SyntaxError: missing ) after argument list

tryItOut 378
Compiling threw: SyntaxError: illegal character

tryItOut 379
Compiling threw: SyntaxError: missing ) in parenthetical

tryItOut 380
Compiling threw: SyntaxError: syntax error

tryItOut 381
Compiling threw: SyntaxError: invalid for/in left-hand side

tryItOut 382

tryItOut 383
Compiling threw: SyntaxError: invalid continue

tryItOut 384

tryItOut 385
Compiling threw: SyntaxError: duplicate label

tryItOut 386

tryItOut 387

tryItOut 388

tryItOut 389

tryItOut 390
Compiling threw: SyntaxError: label not found

tryItOut 391
Compiling threw: SyntaxError: missing ) in parenthetical

tryItOut 392
Running threw: 5

tryItOut 393
Running threw: 111

tryItOut 394
Compiling threw: SyntaxError: label not found

tryItOut 395

tryItOut 396

tryItOut 397
Compiling threw: SyntaxError: missing = in destructuring declaration

tryItOut 398
Running threw: TypeError: null has no properties

tryItOut 399
Compiling threw: SyntaxError: invalid continue

tryItOut 400

tryItOut 401
Compiling threw: SyntaxError: duplicate label

tryItOut 402
Compiling threw: SyntaxError: invalid continue

tryItOut 403
Running threw: TypeError: arguments[0] has no properties

tryItOut 404
Compiling threw: SyntaxError: missing name after . operator

tryItOut 405

tryItOut 406
Compiling threw: SyntaxError: invalid assignment left-hand side

tryItOut 407

tryItOut 408
Compiling threw: SyntaxError: invalid break

tryItOut 409

tryItOut 410
Running threw: TypeError: new (0.1).watch(1e+81) is not a function

tryItOut 411
Running threw: [object global]

tryItOut 412

tryItOut 413

tryItOut 414
It's an iterator!
Iterating succeeded, iterCount == 1

tryItOut 415
Compiling threw: SyntaxError: missing ) in parenthetical

tryItOut 416

tryItOut 417

tryItOut 418
Compiling threw: SyntaxError: missing ) after condition

tryItOut 419

tryItOut 420
before 244160, after 244160, break 00cf6000
before 244160, after 244160, break 00cf6000
before 244160, after 244160, break 00cf6000
before 244160, after 244160, break 00cf6000
before 244160, after 244160, break 00cf6000

tryItOut 421
Running threw: 0

tryItOut 422

tryItOut 423

tryItOut 424
Compiling threw: SyntaxError: missing { before function body

tryItOut 425
Compiling threw: SyntaxError: syntax error

tryItOut 426

tryItOut 427
Running threw: TypeError: undefined has no properties

tryItOut 428
Running threw: [object Object]

tryItOut 429

tryItOut 430

tryItOut 431

tryItOut 432
Compiling threw: SyntaxError: invalid continue

tryItOut 433

tryItOut 434
Compiling threw: SyntaxError: invalid assignment left-hand side

tryItOut 435

tryItOut 436
Compiling threw: SyntaxError: invalid for/in left-hand side

tryItOut 437
Compiling threw: SyntaxError: missing : after property id

tryItOut 438
Compiling threw: SyntaxError: missing ; before statement

tryItOut 439

tryItOut 440
Compiling threw: SyntaxError: label not found

tryItOut 441
Compiling threw: SyntaxError: missing { before function body

tryItOut 442
It's an iterator!
Iterating threw!
Iterating threw: TypeError: undefined has no properties

tryItOut 443
Compiling threw: SyntaxError: missing name in export statement

tryItOut 444
Compiling threw: SyntaxError: unterminated string literal

tryItOut 445
Running threw: ReferenceError: reference to undefined XML name *

tryItOut 446
Compiling threw: SyntaxError: label not found

tryItOut 447

tryItOut 448
Compiling threw: SyntaxError: missing { before function body

tryItOut 449
Compiling threw: SyntaxError: missing { before function body

tryItOut 450
Compiling threw: SyntaxError: syntax error

tryItOut 451
Compiling threw: SyntaxError: missing { before function body

tryItOut 452

tryItOut 453
Compiling threw: SyntaxError: missing ; after for-loop initializer

tryItOut 454

tryItOut 455

tryItOut 456
Compiling threw: SyntaxError: invalid for/in left-hand side

tryItOut 457
Compiling threw: SyntaxError: syntax error

tryItOut 458
Compiling threw: SyntaxError: syntax error

tryItOut 459

tryItOut 460

tryItOut 461
Compiling threw: SyntaxError: syntax error

tryItOut 462
Compiling threw: SyntaxError: duplicate label

tryItOut 463

tryItOut 464

tryItOut 465
Running threw: 110

tryItOut 466

tryItOut 467
Compiling threw: SyntaxError: missing variable name

tryItOut 468
Compiling threw: SyntaxError: invalid assignment left-hand side

tryItOut 469
Compiling threw: SyntaxError: syntax error

tryItOut 470

tryItOut 471
Compiling threw: SyntaxError: missing } in compound statement

tryItOut 472
Compiling threw: SyntaxError: missing ) in parenthetical

tryItOut 473
Compiling threw: SyntaxError: missing variable name

tryItOut 474
Compiling threw: SyntaxError: missing variable name

tryItOut 475

tryItOut 476

tryItOut 477

tryItOut 478
Running threw: TypeError: this.zzz has no properties

tryItOut 479
Compiling threw: SyntaxError: syntax error

tryItOut 480

tryItOut 481
Compiling threw: SyntaxError: invalid break

tryItOut 482

tryItOut 483
Compiling threw: SyntaxError: missing = in destructuring declaration

tryItOut 484
Compiling threw: SyntaxError: invalid for/in left-hand side

tryItOut 485

tryItOut 486
Compiling threw: SyntaxError: missing = in destructuring declaration

tryItOut 487
Compiling threw: SyntaxError: missing while after do-loop body

tryItOut 488
Compiling threw: SyntaxError: invalid for/in left-hand side

tryItOut 489
Compiling threw: SyntaxError: syntax error

tryItOut 490
Running threw: TypeError: this.zzz has no properties

tryItOut 491
Compiling threw: SyntaxError: label not found

tryItOut 492
Compiling threw: SyntaxError: missing variable name

tryItOut 493

tryItOut 494

tryItOut 495

tryItOut 496
Compiling threw: SyntaxError: missing variable name

tryItOut 497

tryItOut 498

tryItOut 499
Compiling threw: SyntaxError: syntax error

tryItOut 500
Compiling threw: SyntaxError: missing { before function body

tryItOut 501

tryItOut 502

tryItOut 503

tryItOut 504
Compiling threw: SyntaxError: invalid for/in left-hand side

tryItOut 505
Compiling threw: SyntaxError: missing ) in parenthetical

tryItOut 506
It's an iterator!
Iterating succeeded, iterCount == 4

tryItOut 507
Running threw: ReferenceError: reference to undefined XML name *

tryItOut 508

tryItOut 509

tryItOut 510
Compiling threw: SyntaxError: missing ) in parenthetical

tryItOut 511

tryItOut 512
Compiling threw: SyntaxError: invalid break

tryItOut 513

tryItOut 514

tryItOut 515
Running threw: false

tryItOut 516
Running threw: ReferenceError: reference to undefined XML name *

tryItOut 517
Running threw: ReferenceError: reference to undefined XML name *::*

tryItOut 518
Running threw: ReferenceError: reference to undefined XML name @foo

tryItOut 519
Running threw: SyntaxError: invalid getter usage

tryItOut 520

tryItOut 521

tryItOut 522

tryItOut 523
Compiling threw: SyntaxError: missing ; before statement

tryItOut 524

tryItOut 525

tryItOut 526
Compiling threw: SyntaxError: missing { before function body

tryItOut 527
Compiling threw: SyntaxError: label not found

tryItOut 528
Compiling threw: TypeError: redeclaration of variable __noSuchMethod__

tryItOut 529

tryItOut 530
Compiling threw: SyntaxError: missing exponent

tryItOut 531

tryItOut 532

tryItOut 533
Compiling threw: SyntaxError: missing variable name

tryItOut 534

tryItOut 535
Compiling threw: SyntaxError: invalid assignment left-hand side

tryItOut 536

tryItOut 537
Running threw: 0

tryItOut 538

tryItOut 539
Running threw: 106

tryItOut 540
Running threw: 110

tryItOut 541
Compiling threw: SyntaxError: missing ) after for-loop control

tryItOut 542

tryItOut 543
Compiling threw: SyntaxError: missing ) in parenthetical

tryItOut 544

tryItOut 545
Compiling threw: SyntaxError: invalid for/in left-hand side

tryItOut 546
Compiling threw: SyntaxError: invalid destructuring assignment operator

tryItOut 547
Compiling threw: SyntaxError: label not found

tryItOut 548

tryItOut 549
Running threw: ReferenceError: reference to undefined XML name @foo

tryItOut 550
Compiling threw: SyntaxError: missing variable name

tryItOut 551

tryItOut 552
Compiling threw: SyntaxError: invalid for/in left-hand side

tryItOut 553
Compiling threw: SyntaxError: syntax error

tryItOut 554

tryItOut 555

tryItOut 556
Compiling threw: SyntaxError: missing variable name

tryItOut 557

tryItOut 558
Compiling threw: TypeError: redeclaration of const constructor

tryItOut 559
Compiling threw: SyntaxError: missing { before function body

tryItOut 560

tryItOut 561
Compiling threw: SyntaxError: missing ; after for-loop initializer

tryItOut 562

tryItOut 563

tryItOut 564

tryItOut 565
Compiling threw: TypeError: redeclaration of variable prop

tryItOut 566
Compiling threw: SyntaxError: syntax error

tryItOut 567
Compiling threw: SyntaxError: invalid continue

tryItOut 568
Compiling threw: SyntaxError: duplicate label

tryItOut 569

tryItOut 570
Compiling threw: SyntaxError: syntax error

tryItOut 571

tryItOut 572

tryItOut 573
Running threw: ReferenceError: reference to undefined XML name @foo

tryItOut 574
Compiling threw: SyntaxError: missing ) in parenthetical

tryItOut 575

tryItOut 576
Compiling threw: SyntaxError: missing ) after condition

tryItOut 577
Compiling threw: SyntaxError: invalid for/in left-hand side

tryItOut 578
Compiling threw: SyntaxError: missing { before function body

tryItOut 579

tryItOut 580
Running threw: ReferenceError: reference to undefined XML name *

tryItOut 581
Compiling threw: SyntaxError: missing variable name

tryItOut 582
Compiling threw: SyntaxError: missing variable name

tryItOut 583

tryItOut 584

tryItOut 585
Compiling threw: SyntaxError: missing { before function body

tryItOut 586
Running threw: false

tryItOut 587
Compiling threw: SyntaxError: syntax error

tryItOut 588

tryItOut 589
Compiling threw: SyntaxError: label not found

tryItOut 590
Compiling threw: SyntaxError: missing ) in parenthetical

tryItOut 591

tryItOut 592
Compiling threw: SyntaxError: syntax error

tryItOut 593
Compiling threw: SyntaxError: label not found

tryItOut 594

tryItOut 595
Compiling threw: SyntaxError: missing { before function body

tryItOut 596
Compiling threw: SyntaxError: missing { before function body

tryItOut 597

tryItOut 598
Compiling threw: SyntaxError: missing { before function body

tryItOut 599

tryItOut 600

tryItOut 601

tryItOut 602

tryItOut 603

tryItOut 604
Compiling threw: SyntaxError: invalid for/in left-hand side

tryItOut 605
Compiling threw: SyntaxError: label not found

tryItOut 606

tryItOut 607

tryItOut 608
Compiling threw: SyntaxError: missing ) in parenthetical

tryItOut 609
Compiling threw: SyntaxError: missing variable name

tryItOut 610

tryItOut 611
Running threw: 1

tryItOut 612
Compiling threw: TypeError: redeclaration of const __iterator__

tryItOut 613
Running threw: ReferenceError: reference to undefined XML name *::*

tryItOut 614
Compiling threw: SyntaxError: invalid break

tryItOut 615
Compiling threw: SyntaxError: syntax error

tryItOut 616

tryItOut 617

tryItOut 618

tryItOut 619

tryItOut 620
Running threw: ReferenceError: reference to undefined XML name *::*

tryItOut 621
Running threw: -1

tryItOut 622

tryItOut 623
Compiling threw: SyntaxError: syntax error

tryItOut 624
Compiling threw: SyntaxError: missing variable name

tryItOut 625
Running threw: false

tryItOut 626

tryItOut 627
Compiling threw: SyntaxError: invalid for/in left-hand side

tryItOut 628

tryItOut 629

tryItOut 630

tryItOut 631
Running threw: 10000

tryItOut 632
Compiling threw: SyntaxError: syntax error

tryItOut 633
Compiling threw: SyntaxError: invalid increment operand

tryItOut 634
Compiling threw: SyntaxError: missing ) in parenthetical

tryItOut 635
Compiling threw: SyntaxError: invalid assignment left-hand side

tryItOut 636

tryItOut 637
Compiling threw: SyntaxError: invalid continue

tryItOut 638

tryItOut 639
Running threw: TypeError: undefined is not a constructor

tryItOut 640

tryItOut 641

tryItOut 642
Running threw: ReferenceError: reference to undefined XML name *

tryItOut 643
Compiling threw: SyntaxError: missing variable name

tryItOut 644
Running threw: 

tryItOut 645
Compiling threw: SyntaxError: missing ) after for-loop control

tryItOut 646

tryItOut 647
Running threw: ReferenceError: reference to undefined XML name *

tryItOut 648

tryItOut 649
Compiling threw: SyntaxError: invalid for/in left-hand side

tryItOut 650
Compiling threw: SyntaxError: invalid assignment left-hand side

tryItOut 651
Compiling threw: SyntaxError: syntax error

tryItOut 652

tryItOut 653

tryItOut 654

tryItOut 655

tryItOut 656

tryItOut 657

tryItOut 658
Compiling threw: SyntaxError: missing variable name

tryItOut 659
Compiling threw: SyntaxError: invalid assignment left-hand side

tryItOut 660

tryItOut 661

tryItOut 662

tryItOut 663

tryItOut 664
Compiling threw: SyntaxError: invalid break

tryItOut 665
Running threw: ReferenceError: reference to undefined XML name @foo

tryItOut 666
Running threw: undefined

tryItOut 667

tryItOut 668
Running threw: ReferenceError: reference to undefined XML name *

tryItOut 669

tryItOut 670

tryItOut 671

tryItOut 672

tryItOut 673

tryItOut 674
Compiling threw: SyntaxError: invalid assignment left-hand side

tryItOut 675

tryItOut 676
Compiling threw: SyntaxError: missing name after . operator

tryItOut 677
Compiling threw: SyntaxError: invalid continue

tryItOut 678
Compiling threw: SyntaxError: invalid break

tryItOut 679
Compiling threw: SyntaxError: missing variable name

tryItOut 680
Compiling threw: SyntaxError: invalid destructuring assignment operator

tryItOut 681

tryItOut 682

tryItOut 683

tryItOut 684
Compiling threw: TypeError: redeclaration of variable __noSuchMethod__

tryItOut 685
Compiling threw: SyntaxError: missing { before function body

tryItOut 686

tryItOut 687
Compiling threw: SyntaxError: invalid continue

tryItOut 688
Compiling threw: SyntaxError: syntax error

tryItOut 689
Compiling threw: SyntaxError: invalid increment operand

tryItOut 690
Running threw: ReferenceError: reference to undefined XML name @foo

tryItOut 691
Running threw: undefined

tryItOut 692

tryItOut 693
Compiling threw: SyntaxError: duplicate label

tryItOut 694

tryItOut 695

tryItOut 696
Compiling threw: SyntaxError: invalid break

tryItOut 697

tryItOut 698
Running threw: ReferenceError: reference to undefined XML name *::*

tryItOut 699

tryItOut 700
Running threw: TypeError: this.__defineGetter__ is not a function

tryItOut 701
Compiling threw: SyntaxError: unterminated string literal

tryItOut 702
Compiling threw: SyntaxError: label not found

tryItOut 703
Compiling threw: SyntaxError: missing ) in parenthetical

tryItOut 704
Compiling threw: SyntaxError: syntax error

tryItOut 705
It's an iterator!
Iterating threw!
Iterating threw: ReferenceError: reference to undefined XML name @foo

tryItOut 706

tryItOut 707
Compiling threw: SyntaxError: missing ) in parenthetical

tryItOut 708
Compiling threw: SyntaxError: invalid for/in left-hand side

tryItOut 709

tryItOut 710
Compiling threw: SyntaxError: missing ) after condition

tryItOut 711
Compiling threw: SyntaxError: syntax error

tryItOut 712

tryItOut 713

tryItOut 714
Compiling threw: SyntaxError: invalid break

tryItOut 715
Compiling threw: SyntaxError: invalid break

tryItOut 716
Compiling threw: SyntaxError: syntax error

tryItOut 717
Running threw: TypeError: XML filtering predicate operator called on incompatible Number

tryItOut 718
Running threw: ReferenceError: z2 is not defined

tryItOut 719
Running threw: TypeError: this.__defineGetter__ is not a function

tryItOut 720

tryItOut 721
Compiling threw: SyntaxError: missing variable name

tryItOut 722

tryItOut 723

tryItOut 724

tryItOut 725
Running threw: TypeError: null is not a function

tryItOut 726
Compiling threw: SyntaxError: label not found

tryItOut 727
Running threw: ReferenceError: reference to undefined XML name *

tryItOut 728
Running threw: ReferenceError: reference to undefined XML name *

tryItOut 729

tryItOut 730

tryItOut 731
Running threw: ReferenceError: __parent__ is not defined

tryItOut 732
Running threw: ReferenceError: __count__ is not defined

tryItOut 733
Compiling threw: SyntaxError: missing variable name

tryItOut 734

tryItOut 735
Compiling threw: SyntaxError: label not found

tryItOut 736
Compiling threw: TypeError: redeclaration of var __noSuchMethod__

tryItOut 737
Running threw: ReferenceError: reference to undefined XML name *

tryItOut 738
Running threw: NaN

tryItOut 739
Compiling threw: SyntaxError: unterminated string literal

tryItOut 740

tryItOut 741
Compiling threw: SyntaxError: syntax error

tryItOut 742

tryItOut 743
Running threw: TypeError: this.zzz has no properties

tryItOut 744

tryItOut 745
Compiling threw: SyntaxError: invalid for/in left-hand side

tryItOut 746

tryItOut 747

tryItOut 748

tryItOut 749
Compiling threw: SyntaxError: missing variable name

tryItOut 750
Compiling threw: SyntaxError: missing while after do-loop body

tryItOut 751

tryItOut 752

tryItOut 753
Compiling threw: SyntaxError: invalid for/in left-hand side

tryItOut 754
Compiling threw: SyntaxError: invalid for/in left-hand side

tryItOut 755
Running threw: ReferenceError: z1 is not defined

tryItOut 756
Compiling threw: SyntaxError: missing variable name

tryItOut 757
Compiling threw: SyntaxError: missing ) in parenthetical

tryItOut 758
Running threw: ReferenceError: __count__ is not defined

tryItOut 759
Compiling threw: SyntaxError: missing variable name

tryItOut 760
Compiling threw: SyntaxError: missing variable name

tryItOut 761
Compiling threw: SyntaxError: missing ) in parenthetical

tryItOut 762
Running threw: ReferenceError: reference to undefined XML name *

tryItOut 763
Compiling threw: TypeError: redeclaration of const __count__

tryItOut 764
Compiling threw: SyntaxError: invalid assignment left-hand side

tryItOut 765

tryItOut 766
Compiling threw: SyntaxError: missing { before function body

tryItOut 767
Running threw: ReferenceError: reference to undefined XML name @foo

tryItOut 768

tryItOut 769

tryItOut 770

tryItOut 771

tryItOut 772
It's an iterator!
Iterating threw!
Iterating threw: TypeError: p.z = [, , ] is not a function

tryItOut 773
Compiling threw: SyntaxError: syntax error

tryItOut 774
Running threw: ReferenceError: reference to undefined XML name *

tryItOut 775
Compiling threw: SyntaxError: missing ) in parenthetical

tryItOut 776
Running threw: ReferenceError: reference to undefined XML name *::*

tryItOut 777

tryItOut 778
Compiling threw: SyntaxError: missing ) after condition

tryItOut 779
Compiling threw: SyntaxError: missing { before function body

tryItOut 780
Compiling threw: SyntaxError: missing ; before statement

tryItOut 781

tryItOut 782
Compiling threw: SyntaxError: missing variable name

tryItOut 783
Compiling threw: SyntaxError: invalid continue

tryItOut 784
Compiling threw: TypeError: redeclaration of var __iterator__

tryItOut 785
Compiling threw: SyntaxError: missing : after property id

tryItOut 786
Running threw: ReferenceError: reference to undefined XML name @foo

tryItOut 787

tryItOut 788
Running threw: TypeError: this.zzz has no properties

tryItOut 789
Compiling threw: SyntaxError: missing ) in parenthetical

tryItOut 790
It's an iterator!
Iterating threw!
Iterating threw: ReferenceError: reference to undefined XML name *::*

tryItOut 791
Running threw: false

tryItOut 792
Compiling threw: SyntaxError: missing variable name

tryItOut 793
Compiling threw: SyntaxError: invalid for/in left-hand side

tryItOut 794

tryItOut 795
Compiling threw: SyntaxError: missing ) in parenthetical

tryItOut 796

tryItOut 797

tryItOut 798
Compiling threw: SyntaxError: syntax error

tryItOut 799

tryItOut 800
Compiling threw: SyntaxError: duplicate label

tryItOut 801
Compiling threw: SyntaxError: syntax error

tryItOut 802
Compiling threw: SyntaxError: syntax error

tryItOut 803
Running threw: ReferenceError: z1 is not defined

tryItOut 804

tryItOut 805

tryItOut 806

tryItOut 807

tryItOut 808
Compiling threw: SyntaxError: missing = in destructuring declaration

tryItOut 809

tryItOut 810
Compiling threw: SyntaxError: syntax error

tryItOut 811
Compiling threw: SyntaxError: missing { before function body

tryItOut 812

tryItOut 813

tryItOut 814
Compiling threw: SyntaxError: missing { before function body

tryItOut 815

tryItOut 816

tryItOut 817
Compiling threw: SyntaxError: missing ) after for-loop control

tryItOut 818
Running threw: function (id) {
    return id;
}

tryItOut 819

tryItOut 820
Compiling threw: SyntaxError: label not found

tryItOut 821
Compiling threw: SyntaxError: invalid break

tryItOut 822
Compiling threw: SyntaxError: missing { before function body

tryItOut 823
Compiling threw: SyntaxError: syntax error

tryItOut 824
Compiling threw: SyntaxError: missing { before function body

tryItOut 825
Compiling threw: SyntaxError: missing ) after condition

tryItOut 826
Compiling threw: SyntaxError: invalid for/in left-hand side

tryItOut 827
Compiling threw: SyntaxError: missing variable name

tryItOut 828

tryItOut 829
Running threw: ReferenceError: reference to undefined XML name @foo

tryItOut 830
Compiling threw: SyntaxError: missing variable name

tryItOut 831
Compiling threw: SyntaxError: label not found

tryItOut 832
Compiling threw: SyntaxError: missing variable name

tryItOut 833

tryItOut 834
Compiling threw: SyntaxError: missing ) in parenthetical

tryItOut 835
Compiling threw: TypeError: redeclaration of const prototype

tryItOut 836
Compiling threw: SyntaxError: missing { before function body

tryItOut 837
It's an iterator!
Iterating threw!
Iterating threw: ReferenceError: reference to undefined XML name @foo

tryItOut 838
Running threw: Can't toString the error!!

tryItOut 839
Compiling threw: SyntaxError: syntax error

tryItOut 840
Compiling threw: SyntaxError: syntax error

tryItOut 841
Compiling threw: SyntaxError: missing ) in parenthetical

tryItOut 842

tryItOut 843
Compiling threw: SyntaxError: missing ] in index expression

tryItOut 844

tryItOut 845

tryItOut 846
Running threw: 106

tryItOut 847

tryItOut 848

tryItOut 849

tryItOut 850
Compiling threw: SyntaxError: duplicate label

tryItOut 851
Compiling threw: SyntaxError: invalid continue

tryItOut 852
Compiling threw: SyntaxError: invalid decrement operand

tryItOut 853
Compiling threw: SyntaxError: invalid continue

tryItOut 854
Compiling threw: SyntaxError: invalid break

tryItOut 855
Compiling threw: SyntaxError: syntax error

tryItOut 856
Compiling threw: SyntaxError: missing ) after argument list

tryItOut 857

tryItOut 858
Compiling threw: SyntaxError: missing { before function body

tryItOut 859
Compiling threw: SyntaxError: syntax error

tryItOut 860
Compiling threw: SyntaxError: syntax error

tryItOut 861
Compiling threw: SyntaxError: missing ) in parenthetical

tryItOut 862

tryItOut 863

tryItOut 864
It's an iterator!
Iterating threw!
Iterating threw: ReferenceError: reference to undefined XML name @foo

tryItOut 865
Compiling threw: SyntaxError: syntax error

tryItOut 866
Running threw: TypeError: this.__defineGetter__ is not a function

tryItOut 867

tryItOut 868
Compiling threw: SyntaxError: missing { before function body

tryItOut 869
Running threw: ReferenceError: __count__ is not defined

tryItOut 870
Running threw: ReferenceError: reference to undefined XML name @foo

tryItOut 871
Compiling threw: SyntaxError: missing { before function body

tryItOut 872
Compiling threw: SyntaxError: label not found

tryItOut 873

tryItOut 874

tryItOut 875
Compiling threw: SyntaxError: missing ] in index expression

tryItOut 876

tryItOut 877

tryItOut 878

tryItOut 879
Compiling threw: SyntaxError: syntax error

tryItOut 880
Compiling threw: SyntaxError: missing { before function body

tryItOut 881
Compiling threw: SyntaxError: label not found

tryItOut 882

tryItOut 883
Compiling threw: SyntaxError: invalid sharp variable definition

tryItOut 884
Compiling threw: SyntaxError: invalid assignment left-hand side

tryItOut 885
Compiling threw: SyntaxError: label not found

tryItOut 886
Compiling threw: SyntaxError: syntax error

tryItOut 887

tryItOut 888
Compiling threw: SyntaxError: invalid default XML namespace

tryItOut 889
Running threw: 1e-81

tryItOut 890
Compiling threw: SyntaxError: syntax error

tryItOut 891

tryItOut 892

tryItOut 893
Compiling threw: SyntaxError: syntax error

tryItOut 894
Compiling threw: SyntaxError: missing : after property id

tryItOut 895
Compiling threw: SyntaxError: missing variable name

tryItOut 896
Compiling threw: SyntaxError: missing ) after for-loop control

tryItOut 897

tryItOut 898
It's an iterator!
Iterating threw!
Iterating threw: ReferenceError: reference to undefined XML name *::*

tryItOut 899

tryItOut 900
Compiling threw: SyntaxError: invalid assignment left-hand side

tryItOut 901
Running threw: TypeError: false is not a function

tryItOut 902
Compiling threw: SyntaxError: syntax error

tryItOut 903

tryItOut 904

tryItOut 905

tryItOut 906

tryItOut 907

tryItOut 908

tryItOut 909
Running threw: ReferenceError: reference to undefined XML name @foo

tryItOut 910
before 505760, after 331360, break 00f32000
before 331360, after 331360, break 00f32000
before 331360, after 331360, break 00f32000
before 331360, after 331360, break 00f32000

tryItOut 911
Running threw: ReferenceError: reference to undefined XML name @foo

tryItOut 912
Compiling threw: SyntaxError: missing variable name

tryItOut 913

tryItOut 914

tryItOut 915
Compiling threw: SyntaxError: invalid for/in left-hand side

tryItOut 916

tryItOut 917
Compiling threw: SyntaxError: missing variable name

tryItOut 918

tryItOut 919
Compiling threw: SyntaxError: missing variable name

tryItOut 920

tryItOut 921
Compiling threw: SyntaxError: invalid destructuring assignment operator

tryItOut 922

tryItOut 923
Compiling threw: SyntaxError: syntax error

tryItOut 924
Compiling threw: SyntaxError: label not found

tryItOut 925
Compiling threw: SyntaxError: invalid break

tryItOut 926
Compiling threw: SyntaxError: invalid destructuring assignment operator

tryItOut 927
Compiling threw: SyntaxError: label not found

tryItOut 928

tryItOut 929
Compiling threw: SyntaxError: missing variable name

tryItOut 930

tryItOut 931

tryItOut 932
Compiling threw: SyntaxError: missing { before function body

tryItOut 933
Compiling threw: SyntaxError: syntax error

tryItOut 934

tryItOut 935
Compiling threw: SyntaxError: invalid destructuring assignment operator

tryItOut 936

tryItOut 937
Running threw: undefined

tryItOut 938

tryItOut 939
Compiling threw: SyntaxError: label not found

tryItOut 940

tryItOut 941
Running threw: ReferenceError: reference to undefined XML name *

tryItOut 942
Compiling threw: SyntaxError: missing variable name

tryItOut 943

tryItOut 944
Running threw: TypeError: XML filtering predicate operator called on incompatible Number

tryItOut 945
Compiling threw: SyntaxError: missing ; after for-loop initializer

tryItOut 946

tryItOut 947
Compiling threw: SyntaxError: missing ) in parenthetical

tryItOut 948
Compiling threw: SyntaxError: syntax error

tryItOut 949

tryItOut 950
Running threw: ReferenceError: __parent__ is not defined

tryItOut 951
Compiling threw: SyntaxError: invalid assignment left-hand side

tryItOut 952
It's an iterator!
Iterating succeeded, iterCount == 1

tryItOut 953

tryItOut 954

tryItOut 955
Compiling threw: SyntaxError: missing ; before statement

tryItOut 956

tryItOut 957
Compiling threw: SyntaxError: missing = in destructuring declaration

tryItOut 958

tryItOut 959

tryItOut 960
Compiling threw: SyntaxError: invalid break

tryItOut 961

tryItOut 962
Compiling threw: SyntaxError: missing ) in parenthetical

tryItOut 963

tryItOut 964
Compiling threw: SyntaxError: syntax error

tryItOut 965
Compiling threw: SyntaxError: missing variable name

tryItOut 966
Compiling threw: SyntaxError: missing variable name

tryItOut 967
Compiling threw: SyntaxError: syntax error

tryItOut 968
Compiling threw: TypeError: redeclaration of variable __proto__

tryItOut 969

tryItOut 970

tryItOut 971

tryItOut 972

tryItOut 973

tryItOut 974

tryItOut 975
Compiling threw: SyntaxError: invalid break

tryItOut 976
Running threw: ReferenceError: z1 is not defined

tryItOut 977

tryItOut 978

tryItOut 979

tryItOut 980

tryItOut 981

tryItOut 982

tryItOut 983
Compiling threw: SyntaxError: missing { before function body

tryItOut 984

tryItOut 985

tryItOut 986

tryItOut 987
Running threw: ReferenceError: reference to undefined XML name *

tryItOut 988
Compiling threw: SyntaxError: label not found

tryItOut 989
Running threw: ReferenceError: __parent__ is not defined

tryItOut 990
Compiling threw: SyntaxError: missing exponent

tryItOut 991
Compiling threw: SyntaxError: syntax error

tryItOut 992

tryItOut 993
Compiling threw: SyntaxError: invalid continue

tryItOut 994

tryItOut 995

tryItOut 996

tryItOut 997
Compiling threw: SyntaxError: syntax error

tryItOut 998

tryItOut 999

tryItOut 1000
Running threw: TypeError: redeclaration of const __parent__

ALL OK

Script done on Sat 04 May 2013 08:05:42 AM PDT
