Script started on Sat 04 May 2013 08:05:50 AM PDT
***
Targeting SpiderMonkey / Gecko.

tryItOut 1

tryItOut 2
Running threw: ReferenceError: reference to undefined XML name *::*

tryItOut 3
Compiling threw: SyntaxError: missing = in destructuring declaration

tryItOut 4
Compiling threw: SyntaxError: syntax error

tryItOut 5
before 69760, after 69760, break 02103000
before 69760, after 69760, break 02103000
before 69760, after 69760, break 02103000

tryItOut 6
Compiling threw: SyntaxError: missing variable name

tryItOut 7
Compiling threw: SyntaxError: invalid XML tag syntax

tryItOut 8

tryItOut 9

tryItOut 10

tryItOut 11

tryItOut 12

tryItOut 13
Running threw: [object Object]

tryItOut 14
Compiling threw: SyntaxError: label not found

tryItOut 15
Running threw: ReferenceError: z1 is not defined

tryItOut 16

tryItOut 17
Compiling threw: SyntaxError: missing ; before statement

tryItOut 18

tryItOut 19
Running threw: ReferenceError: reference to undefined XML name *::*

tryItOut 20
Compiling threw: SyntaxError: syntax error

tryItOut 21
Running threw: ReferenceError: __noSuchMethod__ is not defined

tryItOut 22

tryItOut 23
Compiling threw: SyntaxError: invalid for/in left-hand side

tryItOut 24
Compiling threw: SyntaxError: missing variable name

tryItOut 25
Running threw: ReferenceError: prop is not defined

tryItOut 26

tryItOut 27
Compiling threw: SyntaxError: label not found

tryItOut 28
Compiling threw: SyntaxError: missing ; before statement

tryItOut 29

tryItOut 30

tryItOut 31

tryItOut 32

tryItOut 33
Compiling threw: SyntaxError: invalid continue

tryItOut 34
Running threw: ReferenceError: prop is not defined

tryItOut 35
Compiling threw: SyntaxError: missing variable name

tryItOut 36

tryItOut 37
Compiling threw: SyntaxError: invalid break

tryItOut 38

tryItOut 39
Running threw: ReferenceError: __noSuchMethod__ is not defined

tryItOut 40
Compiling threw: SyntaxError: missing } after let block

tryItOut 41

tryItOut 42
Compiling threw: SyntaxError: syntax error

tryItOut 43

tryItOut 44
Compiling threw: SyntaxError: missing ; before statement

tryItOut 45

tryItOut 46

tryItOut 47
Compiling threw: SyntaxError: missing variable name

tryItOut 48

tryItOut 49
Compiling threw: SyntaxError: label not found

tryItOut 50
Compiling threw: SyntaxError: missing = in destructuring declaration

tryItOut 51

tryItOut 52
Compiling threw: SyntaxError: missing variable name

tryItOut 53
Compiling threw: SyntaxError: missing variable name

tryItOut 54
Compiling threw: SyntaxError: missing ) after argument list

tryItOut 55
Running threw: TypeError: this.zzz has no properties

tryItOut 56
Running threw: TypeError: this.zzz has no properties

tryItOut 57
Running threw: TypeError: this.zzz has no properties

tryItOut 58
Compiling threw: SyntaxError: syntax error

tryItOut 59
Compiling threw: SyntaxError: invalid for/in left-hand side

tryItOut 60
Compiling threw: SyntaxError: label not found

tryItOut 61

tryItOut 62
Compiling threw: SyntaxError: missing = in destructuring declaration

tryItOut 63
Compiling threw: SyntaxError: invalid break

tryItOut 64
Compiling threw: SyntaxError: invalid for/in left-hand side

tryItOut 65
Running threw: TypeError: this.zzz has no properties

tryItOut 66
Compiling threw: SyntaxError: missing { before function body

tryItOut 67
before 104640, after 104640, break 0213a000
Running threw: TypeError: true is not a function

tryItOut 68
Compiling threw: SyntaxError: missing variable name

tryItOut 69

tryItOut 70
Compiling threw: SyntaxError: invalid continue

tryItOut 71
Compiling threw: SyntaxError: invalid for/in left-hand side

tryItOut 72
Compiling threw: SyntaxError: missing variable name

tryItOut 73

tryItOut 74
Running threw: ReferenceError: prop is not defined

tryItOut 75
Compiling threw: SyntaxError: invalid property id

tryItOut 76

tryItOut 77

tryItOut 78
Compiling threw: SyntaxError: missing variable name

tryItOut 79
Compiling threw: SyntaxError: syntax error

tryItOut 80

tryItOut 81
Compiling threw: SyntaxError: syntax error

tryItOut 82
Compiling threw: SyntaxError: invalid continue

tryItOut 83
Running threw: ReferenceError: __noSuchMethod__ is not defined

tryItOut 84

tryItOut 85
Running threw: TypeError: this.zzz has no properties

tryItOut 86
Compiling threw: SyntaxError: missing ; before statement

tryItOut 87
Compiling threw: SyntaxError: invalid assignment left-hand side

tryItOut 88
Compiling threw: SyntaxError: syntax error

tryItOut 89
Compiling threw: SyntaxError: invalid assignment left-hand side

tryItOut 90
Compiling threw: SyntaxError: invalid decrement operand

tryItOut 91

tryItOut 92
Compiling threw: SyntaxError: missing variable name

tryItOut 93
Compiling threw: SyntaxError: illegal XML character

tryItOut 94
Compiling threw: SyntaxError: missing variable name

tryItOut 95
before 104640, after 104640, break 02135000

tryItOut 96

tryItOut 97
Compiling threw: SyntaxError: label not found

tryItOut 98
Running threw: TypeError: this.zzz has no properties

tryItOut 99
Compiling threw: SyntaxError: invalid for/in left-hand side

tryItOut 100

tryItOut 101

tryItOut 102

tryItOut 103
Compiling threw: SyntaxError: invalid destructuring assignment operator

tryItOut 104

tryItOut 105

tryItOut 106

tryItOut 107
Running threw: TypeError: this.zzz has no properties

tryItOut 108
Running threw: TypeError: this.zzz has no properties

tryItOut 109
Running threw: TypeError: this.zzz has no properties

tryItOut 110

tryItOut 111
Compiling threw: SyntaxError: label not found

tryItOut 112

tryItOut 113

tryItOut 114

tryItOut 115
Running threw: TypeError: undefined has no properties

tryItOut 116
Compiling threw: SyntaxError: missing ; before statement

tryItOut 117

tryItOut 118
Compiling threw: SyntaxError: missing } after let block

tryItOut 119
Compiling threw: SyntaxError: syntax error

tryItOut 120
Compiling threw: SyntaxError: invalid break

tryItOut 121

tryItOut 122
Compiling threw: SyntaxError: invalid continue

tryItOut 123

tryItOut 124
Compiling threw: SyntaxError: label not found

tryItOut 125
Running threw: ReferenceError: z1 is not defined

tryItOut 126
Running threw: ReferenceError: reference to undefined XML name *

tryItOut 127
Compiling threw: SyntaxError: missing } in compound statement

tryItOut 128

tryItOut 129
Compiling threw: SyntaxError: missing ) after with-statement object

tryItOut 130
Compiling threw: SyntaxError: missing ; after for-loop initializer

tryItOut 131
Compiling threw: SyntaxError: missing } after let block

tryItOut 132
before 104640, after 104640, break 02135000

tryItOut 133
before 104640, after 104640, break 02135000

tryItOut 134
Compiling threw: SyntaxError: invalid for/in left-hand side

tryItOut 135

tryItOut 136
Compiling threw: SyntaxError: missing ; after for-loop initializer

tryItOut 137

tryItOut 138
Compiling threw: SyntaxError: syntax error

tryItOut 139
Compiling threw: SyntaxError: syntax error

tryItOut 140
Compiling threw: SyntaxError: label not found

tryItOut 141
Compiling threw: SyntaxError: invalid destructuring assignment operator

tryItOut 142
Running threw: function Object() {
    [native code]
}

tryItOut 143

tryItOut 144
before 104640, after 104640, break 02135000

tryItOut 145
before 104640, after 104640, break 02135000
before 104640, after 104640, break 02135000
before 104640, after 104640, break 02135000
before 104640, after 104640, break 02135000

tryItOut 146
Compiling threw: TypeError: redeclaration of const prop

tryItOut 147

tryItOut 148
Compiling threw: SyntaxError: missing variable name

tryItOut 149
Compiling threw: SyntaxError: invalid for/in left-hand side

tryItOut 150
Compiling threw: SyntaxError: label not found

tryItOut 151
Compiling threw: SyntaxError: syntax error

tryItOut 152
Compiling threw: SyntaxError: invalid for/in left-hand side

tryItOut 153
Running threw: TypeError: arguments[0] has no properties

tryItOut 154
Compiling threw: SyntaxError: invalid decrement operand

tryItOut 155

tryItOut 156
before 104640, after 104640, break 02135000

tryItOut 157
Compiling threw: SyntaxError: missing variable name

tryItOut 158
Running threw: ReferenceError: reference to undefined XML name *::*

tryItOut 159
Compiling threw: SyntaxError: invalid for/in left-hand side

tryItOut 160

tryItOut 161

tryItOut 162
Running threw: TypeError: undefined has no properties

tryItOut 163
Compiling threw: SyntaxError: label not found

tryItOut 164
Compiling threw: SyntaxError: syntax error

tryItOut 165

tryItOut 166

tryItOut 167
Compiling threw: SyntaxError: missing ; after for-loop initializer

tryItOut 168
Running threw: ReferenceError: z1 is not defined

tryItOut 169
Running threw: ReferenceError: z2 is not defined

tryItOut 170
Running threw: ReferenceError: reference to undefined XML name *::*

tryItOut 171

tryItOut 172

tryItOut 173
Running threw: TypeError: this.zzz has no properties

tryItOut 174

tryItOut 175
Running threw: Error: invalid sharp variable use #1#

tryItOut 176
Running threw: ReferenceError: z1 is not defined

tryItOut 177
Compiling threw: SyntaxError: invalid for/in left-hand side

tryItOut 178
Compiling threw: SyntaxError: invalid continue

tryItOut 179
Compiling threw: SyntaxError: invalid increment operand

tryItOut 180

tryItOut 181
before 104640, after 104640, break 02135000

tryItOut 182
Compiling threw: SyntaxError: invalid decrement operand

tryItOut 183
Compiling threw: SyntaxError: missing variable name

tryItOut 184
Running threw: TypeError: __proto__ has no properties

tryItOut 185
Running threw: TypeError: this.zzz has no properties

tryItOut 186

tryItOut 187
Running threw: ReferenceError: __count__ is not defined

tryItOut 188

tryItOut 189

tryItOut 190
Running threw: ReferenceError: yyy is not defined

tryItOut 191

tryItOut 192

tryItOut 193
Compiling threw: SyntaxError: missing variable name

tryItOut 194
Running threw: TypeError: this.zzz has no properties

tryItOut 195
Compiling threw: SyntaxError: invalid increment operand

tryItOut 196
Compiling threw: SyntaxError: yield expression must be parenthesized

tryItOut 197

tryItOut 198

tryItOut 199
Compiling threw: SyntaxError: missing ) after let head

tryItOut 200
Compiling threw: SyntaxError: missing ) in parenthetical

tryItOut 201

tryItOut 202

tryItOut 203

tryItOut 204
Running threw: ReferenceError: z2 is not defined

tryItOut 205

tryItOut 206
Compiling threw: SyntaxError: missing } after let block

tryItOut 207
Compiling threw: SyntaxError: missing ; after for-loop initializer

tryItOut 208
Compiling threw: SyntaxError: missing ; before statement

tryItOut 209
Running threw: ReferenceError: __noSuchMethod__ is not defined

tryItOut 210
Running threw: ReferenceError: reference to undefined XML name @foo

tryItOut 211
Compiling threw: SyntaxError: missing name after . operator

tryItOut 212

tryItOut 213

tryItOut 214

tryItOut 215
Running threw: TypeError: this.zzz has no properties

tryItOut 216
Compiling threw: SyntaxError: label not found

tryItOut 217

tryItOut 218
Compiling threw: SyntaxError: missing ; after for-loop initializer

tryItOut 219

tryItOut 220
Compiling threw: SyntaxError: missing variable name

tryItOut 221
Compiling threw: SyntaxError: missing variable name

tryItOut 222
Running threw: TypeError: this.zzz has no properties

tryItOut 223
Compiling threw: SyntaxError: invalid for/in left-hand side

tryItOut 224

tryItOut 225
before 156960, after 139520, break 02186000
before 139520, after 139520, break 02186000
before 139520, after 139520, break 02186000
before 139520, after 139520, break 02186000

tryItOut 226

tryItOut 227

tryItOut 228
Compiling threw: SyntaxError: missing ; before statement

tryItOut 229
Compiling threw: SyntaxError: syntax error

tryItOut 230
Running threw: ReferenceError: reference to undefined XML name *

tryItOut 231
Compiling threw: SyntaxError: label not found

tryItOut 232
Compiling threw: SyntaxError: invalid for/in left-hand side

tryItOut 233
Running threw: 108

tryItOut 234
before 139520, after 122080, break 02186000

tryItOut 235
Compiling threw: TypeError: redeclaration of variable __count__

tryItOut 236
Running threw: ReferenceError: yyy is not defined

tryItOut 237

tryItOut 238

tryItOut 239
Running threw: TypeError: this.zzz has no properties

tryItOut 240
Compiling threw: SyntaxError: missing ) in parenthetical

tryItOut 241
Compiling threw: SyntaxError: missing ) in parenthetical

tryItOut 242
Compiling threw: SyntaxError: invalid for/in left-hand side

tryItOut 243
Compiling threw: SyntaxError: missing : after property id

tryItOut 244
Compiling threw: SyntaxError: illegal XML character

tryItOut 245
Compiling threw: SyntaxError: invalid for/in left-hand side

tryItOut 246
Compiling threw: SyntaxError: invalid XML tag syntax

tryItOut 247
Compiling threw: SyntaxError: missing ) in parenthetical

tryItOut 248

tryItOut 249
Compiling threw: SyntaxError: missing { before function body

tryItOut 250

tryItOut 251

tryItOut 252
Compiling threw: SyntaxError: syntax error

tryItOut 253

tryItOut 254

tryItOut 255

tryItOut 256
Compiling threw: SyntaxError: missing variable name

tryItOut 257
Compiling threw: SyntaxError: missing = in destructuring declaration

tryItOut 258

tryItOut 259
Running threw: ReferenceError: __parent__ is not defined

tryItOut 260

tryItOut 261
Compiling threw: SyntaxError: syntax error

tryItOut 262
Running threw: ReferenceError: prototype is not defined

tryItOut 263
Compiling threw: SyntaxError: invalid XML tag syntax

tryItOut 264

tryItOut 265

tryItOut 266
Compiling threw: SyntaxError: missing { before function body

tryItOut 267

tryItOut 268
Running threw: ReferenceError: __parent__ is not defined

tryItOut 269

tryItOut 270
Running threw: TypeError: this.zzz has no properties

tryItOut 271

tryItOut 272
Running threw: ReferenceError: __parent__ is not defined

tryItOut 273
Compiling threw: SyntaxError: invalid for/in left-hand side

tryItOut 274

tryItOut 275
Running threw: false

tryItOut 276
Compiling threw: SyntaxError: invalid for/in left-hand side

tryItOut 277
Compiling threw: SyntaxError: missing } after function body

tryItOut 278

tryItOut 279

tryItOut 280

tryItOut 281
Compiling threw: SyntaxError: invalid for/in left-hand side

tryItOut 282
Running threw: TypeError: undefined has no properties

tryItOut 283
Compiling threw: SyntaxError: invalid for/in left-hand side

tryItOut 284
Compiling threw: SyntaxError: invalid assignment left-hand side

tryItOut 285

tryItOut 286

tryItOut 287
Compiling threw: SyntaxError: invalid for/in left-hand side

tryItOut 288
Compiling threw: SyntaxError: invalid break

tryItOut 289
Compiling threw: SyntaxError: invalid for/in left-hand side

tryItOut 290

tryItOut 291

tryItOut 292

tryItOut 293
Compiling threw: SyntaxError: invalid for/in left-hand side

tryItOut 294
Running threw: false

tryItOut 295

tryItOut 296
before 174400, after 156960, break 021cd000

tryItOut 297
Compiling threw: SyntaxError: syntax error

tryItOut 298
before 156960, after 139520, break 021cd000

tryItOut 299

tryItOut 300

tryItOut 301
Compiling threw: SyntaxError: missing variable name

tryItOut 302
Compiling threw: SyntaxError: missing variable name

tryItOut 303
Compiling threw: SyntaxError: label not found

tryItOut 304
Compiling threw: SyntaxError: invalid for/in left-hand side

tryItOut 305
Running threw: 0

tryItOut 306

tryItOut 307
Running threw: ReferenceError: __parent__ is not defined

tryItOut 308

tryItOut 309
Compiling threw: SyntaxError: missing variable name

tryItOut 310

tryItOut 311

tryItOut 312

tryItOut 313
Compiling threw: SyntaxError: invalid for/in left-hand side

tryItOut 314

tryItOut 315
Compiling threw: SyntaxError: label not found

tryItOut 316

tryItOut 317
Compiling threw: SyntaxError: invalid continue

tryItOut 318
Compiling threw: SyntaxError: invalid label

tryItOut 319
Running threw: ReferenceError: reference to undefined XML name @foo

tryItOut 320
Compiling threw: SyntaxError: syntax error

tryItOut 321

tryItOut 322

tryItOut 323
Running threw: 108

tryItOut 324
Running threw: ReferenceError: reference to undefined XML name @foo

tryItOut 325
Compiling threw: SyntaxError: label not found

tryItOut 326
Compiling threw: SyntaxError: label not found

tryItOut 327
Compiling threw: SyntaxError: missing ; before statement

tryItOut 328
Compiling threw: SyntaxError: syntax error

tryItOut 329
Compiling threw: SyntaxError: syntax error

tryItOut 330

tryItOut 331
Compiling threw: SyntaxError: invalid XML tag syntax

tryItOut 332

tryItOut 333
Compiling threw: SyntaxError: invalid assignment left-hand side

tryItOut 334

tryItOut 335
Running threw: function (id) {
    return id;
}

tryItOut 336
Running threw: ReferenceError: prototype is not defined

tryItOut 337
Running threw: 0

tryItOut 338

tryItOut 339
Compiling threw: SyntaxError: label not found

tryItOut 340
Compiling threw: SyntaxError: invalid for/in left-hand side

tryItOut 341
Running threw: TypeError: false.watchMath has no properties

tryItOut 342
Running threw: TypeError: true is not a function

tryItOut 343

tryItOut 344
Running threw: 108

tryItOut 345

tryItOut 346
Running threw: TypeError: this.zzz has no properties

tryItOut 347
Running threw: TypeError: this.zzz has no properties

tryItOut 348
Running threw: 0

tryItOut 349
Running threw: ReferenceError: reference to undefined XML name @foo

tryItOut 350

tryItOut 351
Compiling threw: SyntaxError: missing variable name

tryItOut 352
before 174400, after 139520, break 021cd000

tryItOut 353
Running threw: TypeError: second argument to Function.prototype.apply must be an array

tryItOut 354

tryItOut 355
Running threw: TypeError: this.zzz has no properties

tryItOut 356
Compiling threw: SyntaxError: invalid for/in left-hand side

tryItOut 357
Compiling threw: SyntaxError: invalid for/in left-hand side

tryItOut 358
Running threw: ReferenceError: prototype is not defined

tryItOut 359
Running threw: function (id) {
    return id;
}

tryItOut 360
Compiling threw: SyntaxError: missing } in compound statement

tryItOut 361

tryItOut 362
Compiling threw: SyntaxError: invalid continue

tryItOut 363
Running threw: ReferenceError: reference to undefined XML name @foo

tryItOut 364

tryItOut 365

tryItOut 366
Running threw: TypeError: null has no properties

tryItOut 367

tryItOut 368

tryItOut 369

tryItOut 370
Compiling threw: SyntaxError: label not found

tryItOut 371

tryItOut 372

tryItOut 373

tryItOut 374
Compiling threw: SyntaxError: invalid for/in left-hand side

tryItOut 375

tryItOut 376
Running threw: ReferenceError: prototype is not defined

tryItOut 377
Running threw: TypeError: this.zzz has no properties

tryItOut 378

tryItOut 379
Running threw: 0

tryItOut 380
Compiling threw: SyntaxError: missing ; before statement

tryItOut 381

tryItOut 382

tryItOut 383

tryItOut 384

tryItOut 385
Compiling threw: SyntaxError: label not found

tryItOut 386
Compiling threw: SyntaxError: invalid continue

tryItOut 387
Compiling threw: SyntaxError: invalid for/in left-hand side

tryItOut 388
Compiling threw: SyntaxError: missing ) after condition

tryItOut 389
Compiling threw: SyntaxError: missing ) in parenthetical

tryItOut 390

tryItOut 391
Compiling threw: SyntaxError: invalid for/in left-hand side

tryItOut 392

tryItOut 393
Running threw: TypeError: this.zzz has no properties

tryItOut 394

tryItOut 395
Running threw: TypeError: this.zzz has no properties

tryItOut 396
Running threw: SyntaxError: malformed formal parameter

tryItOut 397
Compiling threw: SyntaxError: missing ) after condition

tryItOut 398
Compiling threw: SyntaxError: label not found

tryItOut 399

tryItOut 400
Compiling threw: SyntaxError: missing variable name

tryItOut 401
Compiling threw: SyntaxError: missing ) in parenthetical

tryItOut 402
Compiling threw: SyntaxError: invalid assignment left-hand side

tryItOut 403
Compiling threw: SyntaxError: syntax error

tryItOut 404

tryItOut 405

tryItOut 406
Compiling threw: SyntaxError: missing ) after argument list

tryItOut 407

tryItOut 408

tryItOut 409
Compiling threw: SyntaxError: missing { before function body

tryItOut 410
Compiling threw: SyntaxError: invalid break

tryItOut 411
It's an iterator!
Iterating threw!
Iterating threw: TypeError: undefined has no properties

tryItOut 412

tryItOut 413
Compiling threw: SyntaxError: label not found

tryItOut 414
Compiling threw: SyntaxError: invalid continue

tryItOut 415
Compiling threw: SyntaxError: missing ) in parenthetical

tryItOut 416
Compiling threw: SyntaxError: missing } after let block

tryItOut 417
Compiling threw: SyntaxError: label not found

tryItOut 418

tryItOut 419
Running threw: 108

tryItOut 420
Compiling threw: SyntaxError: syntax error

tryItOut 421

tryItOut 422
Compiling threw: SyntaxError: syntax error

tryItOut 423
Running threw: 108

tryItOut 424
Compiling threw: SyntaxError: invalid for/in left-hand side

tryItOut 425

tryItOut 426

tryItOut 427
Compiling threw: SyntaxError: invalid increment operand

tryItOut 428
Running threw: NaN

tryItOut 429
Compiling threw: SyntaxError: invalid for/in left-hand side

tryItOut 430

tryItOut 431
Compiling threw: SyntaxError: invalid assignment left-hand side

tryItOut 432
before 191840, after 139520, break 0221b000

tryItOut 433
Compiling threw: SyntaxError: label not found

tryItOut 434
Compiling threw: SyntaxError: missing } in compound statement

tryItOut 435

tryItOut 436
Compiling threw: SyntaxError: invalid destructuring assignment operator

tryItOut 437
Compiling threw: SyntaxError: missing variable name

tryItOut 438
Running threw: TypeError: this.zzz has no properties

tryItOut 439
Compiling threw: SyntaxError: label not found

tryItOut 440

tryItOut 441
Compiling threw: SyntaxError: invalid for/in left-hand side

tryItOut 442
Compiling threw: SyntaxError: invalid continue

tryItOut 443

tryItOut 444
Compiling threw: SyntaxError: invalid assignment left-hand side

tryItOut 445

tryItOut 446

tryItOut 447
Running threw: TypeError: this.zzz has no properties

tryItOut 448
Compiling threw: SyntaxError: syntax error

tryItOut 449
Running threw: TypeError: null has no properties

tryItOut 450
Compiling threw: SyntaxError: invalid assignment left-hand side

tryItOut 451
before 139520, after 122080, break 02213000

tryItOut 452
Compiling threw: SyntaxError: invalid for/in left-hand side

tryItOut 453
Compiling threw: SyntaxError: missing ) in parenthetical

tryItOut 454

tryItOut 455
Compiling threw: SyntaxError: syntax error

tryItOut 456
Compiling threw: SyntaxError: missing = in destructuring declaration

tryItOut 457
Compiling threw: SyntaxError: missing } after let block

tryItOut 458
Running threw: ReferenceError: z1 is not defined

tryItOut 459
Compiling threw: SyntaxError: missing ) after condition

tryItOut 460

tryItOut 461
Running threw: TypeError: this.__defineSetter__ is not a function

tryItOut 462

tryItOut 463
Running threw: ReferenceError: prototype is not defined

tryItOut 464
Compiling threw: SyntaxError: missing } after let block

tryItOut 465

tryItOut 466
Running threw: function (id) {
    return id;
}

tryItOut 467
Running threw: 0

tryItOut 468
Compiling threw: SyntaxError: invalid for/in left-hand side

tryItOut 469

tryItOut 470
Running threw: TypeError: this.zzz has no properties

tryItOut 471

tryItOut 472
Compiling threw: SyntaxError: missing } after property list

tryItOut 473
before 122080, after 122080, break 02213000

tryItOut 474
Compiling threw: SyntaxError: invalid assignment left-hand side

tryItOut 475
Compiling threw: SyntaxError: invalid assignment left-hand side

tryItOut 476

tryItOut 477
before 122080, after 122080, break 02213000

tryItOut 478
Compiling threw: SyntaxError: missing = in destructuring declaration

tryItOut 479

tryItOut 480
Compiling threw: SyntaxError: invalid for/in left-hand side

tryItOut 481
Running threw: TypeError: this.zzz has no properties

tryItOut 482
Compiling threw: SyntaxError: invalid continue

tryItOut 483

tryItOut 484

tryItOut 485
Compiling threw: SyntaxError: label not found

tryItOut 486
Compiling threw: SyntaxError: invalid property id

tryItOut 487
Running threw: ReferenceError: reference to undefined XML name @mozilla.org/js/function::__noSuchMethod__

tryItOut 488
Compiling threw: SyntaxError: missing } after let block

tryItOut 489
Running threw: TypeError: this.zzz has no properties

tryItOut 490

tryItOut 491
Compiling threw: SyntaxError: syntax error

tryItOut 492

tryItOut 493
Running threw: TypeError: this.zzz has no properties

tryItOut 494
before 122080, after 122080, break 02213000

tryItOut 495
Compiling threw: SyntaxError: invalid continue

tryItOut 496

tryItOut 497

tryItOut 498
Compiling threw: SyntaxError: missing } after let block

tryItOut 499
Compiling threw: SyntaxError: label not found

tryItOut 500

tryItOut 501
Compiling threw: SyntaxError: syntax error

tryItOut 502
Compiling threw: SyntaxError: missing } after let block

tryItOut 503
before 122080, after 122080, break 02213000

tryItOut 504

tryItOut 505
Compiling threw: SyntaxError: invalid decrement operand

tryItOut 506

tryItOut 507
Compiling threw: SyntaxError: missing variable name

tryItOut 508
Running threw: TypeError: this.zzz has no properties

tryItOut 509
Compiling threw: SyntaxError: invalid property id

tryItOut 510
Compiling threw: SyntaxError: invalid assignment left-hand side

tryItOut 511

tryItOut 512

tryItOut 513

tryItOut 514

tryItOut 515
Running threw: TypeError: this.zzz has no properties

tryItOut 516

tryItOut 517
Compiling threw: SyntaxError: invalid break

tryItOut 518

tryItOut 519

tryItOut 520
Running threw: 0

tryItOut 521
Compiling threw: SyntaxError: missing ; before statement

tryItOut 522
Compiling threw: SyntaxError: invalid for/in left-hand side

tryItOut 523
Compiling threw: SyntaxError: missing } after let block

tryItOut 524
Compiling threw: SyntaxError: missing ; before statement

tryItOut 525
Compiling threw: SyntaxError: label not found

tryItOut 526

tryItOut 527

tryItOut 528
Running threw: TypeError: arguments[0] has no properties

tryItOut 529
Compiling threw: SyntaxError: invalid decrement operand

tryItOut 530
Compiling threw: SyntaxError: missing variable name

tryItOut 531

tryItOut 532
Compiling threw: SyntaxError: label not found

tryItOut 533
Compiling threw: SyntaxError: missing ; before statement

tryItOut 534
Running threw: TypeError: this.zzz has no properties

tryItOut 535
Compiling threw: SyntaxError: missing variable name

tryItOut 536
Compiling threw: SyntaxError: missing ) in parenthetical

tryItOut 537
before 139520, after 139520, break 02213000

tryItOut 538
Compiling threw: SyntaxError: label not found

tryItOut 539
Compiling threw: TypeError: redeclaration of variable __noSuchMethod__

tryItOut 540
Running threw: ReferenceError: reference to undefined XML name *

tryItOut 541
before 139520, after 122080, break 02213000

tryItOut 542
Compiling threw: SyntaxError: missing } after let block

tryItOut 543
Running threw: ReferenceError: Functionreturn is not defined

tryItOut 544
Compiling threw: SyntaxError: syntax error

tryItOut 545

tryItOut 546
Compiling threw: SyntaxError: label not found

tryItOut 547
before 122080, after 122080, break 02213000

tryItOut 548
Running threw: ReferenceError: reference to undefined XML name @foo

tryItOut 549
Compiling threw: SyntaxError: missing variable name

tryItOut 550
It's an iterator!
Iterating threw!
Iterating threw: TypeError: undefined has no properties

tryItOut 551
Compiling threw: SyntaxError: invalid for/in left-hand side

tryItOut 552

tryItOut 553
Compiling threw: SyntaxError: invalid for/in left-hand side

tryItOut 554
Compiling threw: SyntaxError: missing variable name

tryItOut 555
Compiling threw: SyntaxError: missing ; after for-loop initializer

tryItOut 556

tryItOut 557
Compiling threw: SyntaxError: syntax error

tryItOut 558
before 122080, after 122080, break 02213000

tryItOut 559
Compiling threw: SyntaxError: missing = in destructuring declaration

tryItOut 560
Compiling threw: SyntaxError: missing } after let block

tryItOut 561
Compiling threw: SyntaxError: invalid for/in left-hand side

tryItOut 562
Compiling threw: SyntaxError: missing } after let block

tryItOut 563

tryItOut 564

tryItOut 565
before 122080, after 122080, break 02213000

tryItOut 566
Compiling threw: SyntaxError: label not found

tryItOut 567
Compiling threw: SyntaxError: missing } after let block

tryItOut 568

tryItOut 569
Compiling threw: SyntaxError: invalid for/in left-hand side

tryItOut 570
Compiling threw: SyntaxError: missing ) in parenthetical

tryItOut 571

tryItOut 572

tryItOut 573

tryItOut 574

tryItOut 575
before 122080, after 122080, break 02213000

tryItOut 576
Compiling threw: SyntaxError: missing ) in parenthetical

tryItOut 577
Compiling threw: SyntaxError: syntax error

tryItOut 578
Running threw: ReferenceError: z1 is not defined

tryItOut 579
Compiling threw: SyntaxError: invalid continue

tryItOut 580

tryItOut 581
Compiling threw: SyntaxError: invalid decrement operand

tryItOut 582

tryItOut 583
before 122080, after 122080, break 02213000

tryItOut 584

tryItOut 585

tryItOut 586
Compiling threw: SyntaxError: missing variable name

tryItOut 587
Compiling threw: SyntaxError: invalid break

tryItOut 588
Compiling threw: SyntaxError: syntax error

tryItOut 589

tryItOut 590
Compiling threw: SyntaxError: missing ; after for-loop initializer

tryItOut 591
Compiling threw: SyntaxError: missing } in compound statement

tryItOut 592

tryItOut 593

tryItOut 594
Compiling threw: SyntaxError: missing } after let block

tryItOut 595
Compiling threw: SyntaxError: syntax error

tryItOut 596

tryItOut 597

tryItOut 598

tryItOut 599
Compiling threw: SyntaxError: label not found

tryItOut 600
Compiling threw: SyntaxError: invalid destructuring assignment operator

tryItOut 601
Compiling threw: SyntaxError: missing ) in parenthetical

tryItOut 602

tryItOut 603
Running threw: TypeError: <x><y/></x>['throw'] is not a function

tryItOut 604

tryItOut 605
Compiling threw: SyntaxError: invalid for/in left-hand side

tryItOut 606
Running threw: TypeError: this.zzz has no properties

tryItOut 607
Compiling threw: SyntaxError: invalid for/in left-hand side

tryItOut 608
Running threw: NaN

tryItOut 609
before 122080, after 122080, break 02213000

tryItOut 610
Compiling threw: SyntaxError: missing ; before statement

tryItOut 611
Running threw: TypeError: this.zzz has no properties

tryItOut 612

tryItOut 613

tryItOut 614

tryItOut 615
before 122080, after 122080, break 02213000
Running threw: ReferenceError: __count__with is not defined

tryItOut 616
Compiling threw: SyntaxError: invalid for/in left-hand side

tryItOut 617

tryItOut 618
Compiling threw: SyntaxError: missing ; after for-loop initializer

tryItOut 619
Running threw: TypeError: this.zzz has no properties

tryItOut 620
Compiling threw: SyntaxError: missing ; before statement

tryItOut 621
Compiling threw: SyntaxError: missing } after let block

tryItOut 622
before 122080, after 122080, break 02213000

tryItOut 623
Compiling threw: SyntaxError: missing ; before statement

tryItOut 624
Running threw: TypeError: invalid Array.prototype.sort argument

tryItOut 625

tryItOut 626
Compiling threw: SyntaxError: missing ) after argument list

tryItOut 627

tryItOut 628

tryItOut 629

tryItOut 630
Compiling threw: SyntaxError: label not found

tryItOut 631
Compiling threw: SyntaxError: invalid break

tryItOut 632
Compiling threw: SyntaxError: label not found

tryItOut 633

tryItOut 634
before 122080, after 122080, break 02213000

tryItOut 635
Running threw: ReferenceError: reference to undefined XML name *

tryItOut 636
Compiling threw: SyntaxError: illegal XML character

tryItOut 637

tryItOut 638
Compiling threw: SyntaxError: label not found

tryItOut 639

tryItOut 640
Running threw: 108

tryItOut 641
Compiling threw: SyntaxError: missing } after let block

tryItOut 642

tryItOut 643
Compiling threw: SyntaxError: invalid break

tryItOut 644

tryItOut 645
before 122080, after 122080, break 02213000

tryItOut 646
Running threw: SyntaxError: invalid assignment left-hand side

tryItOut 647
before 122080, after 122080, break 02213000

tryItOut 648
Compiling threw: SyntaxError: label not found

tryItOut 649

tryItOut 650
Compiling threw: SyntaxError: missing ; before statement

tryItOut 651
Running threw: NaN

tryItOut 652
Compiling threw: SyntaxError: invalid continue

tryItOut 653
Compiling threw: SyntaxError: invalid increment operand

tryItOut 654
Running threw: ReferenceError: reference to undefined XML name *

tryItOut 655

tryItOut 656

tryItOut 657
Compiling threw: SyntaxError: missing ) in parenthetical

tryItOut 658
Running threw: 108

tryItOut 659
Compiling threw: SyntaxError: invalid break

tryItOut 660
Compiling threw: SyntaxError: invalid continue

tryItOut 661
Compiling threw: SyntaxError: invalid for/in left-hand side

tryItOut 662

tryItOut 663

tryItOut 664

tryItOut 665

tryItOut 666
Compiling threw: SyntaxError: invalid for/in left-hand side

tryItOut 667
Compiling threw: SyntaxError: syntax error

tryItOut 668

tryItOut 669

tryItOut 670

tryItOut 671
Compiling threw: SyntaxError: invalid continue

tryItOut 672
Compiling threw: SyntaxError: missing ) in parenthetical

tryItOut 673
Running threw: ReferenceError: reference to undefined XML name @foo

tryItOut 674

tryItOut 675
Compiling threw: SyntaxError: missing variable name

tryItOut 676
Running threw: TypeError: this.zzz has no properties

tryItOut 677

tryItOut 678
Compiling threw: SyntaxError: invalid for/in left-hand side

tryItOut 679
Compiling threw: SyntaxError: invalid break

tryItOut 680
Running threw: ReferenceError: reference to undefined XML name *::*

tryItOut 681

tryItOut 682
Compiling threw: SyntaxError: invalid for/in left-hand side

tryItOut 683

tryItOut 684

tryItOut 685

tryItOut 686
Compiling threw: SyntaxError: invalid for/in left-hand side

tryItOut 687

tryItOut 688
It's an iterator!
Iterating succeeded, iterCount == 1

tryItOut 689

tryItOut 690
Running threw: TypeError: [1, , ].@* has no properties

tryItOut 691
Running threw: TypeError: this.zzz has no properties

tryItOut 692

tryItOut 693
Compiling threw: SyntaxError: missing ) after condition

tryItOut 694
Compiling threw: SyntaxError: label not found

tryItOut 695

tryItOut 696

tryItOut 697
Running threw: TypeError: this.zzz has no properties

tryItOut 698
Running threw: ReferenceError: z2 is not defined

tryItOut 699
Running threw: TypeError: this.zzz has no properties

tryItOut 700

tryItOut 701
Compiling threw: SyntaxError: missing ; before statement

tryItOut 702

tryItOut 703

tryItOut 704

tryItOut 705

tryItOut 706
Compiling threw: SyntaxError: missing ) in parenthetical

tryItOut 707
Compiling threw: SyntaxError: label not found

tryItOut 708
Compiling threw: SyntaxError: invalid assignment left-hand side

tryItOut 709

tryItOut 710

tryItOut 711
before 191840, after 139520, break 02213000

tryItOut 712
Compiling threw: SyntaxError: invalid destructuring assignment operator

tryItOut 713
Compiling threw: SyntaxError: missing ) in parenthetical

tryItOut 714
before 139520, after 122080, break 02213000
Running threw: TypeError: gc() is not a function

tryItOut 715
Compiling threw: SyntaxError: missing { before function body

tryItOut 716
Compiling threw: SyntaxError: label not found

tryItOut 717

tryItOut 718
Compiling threw: SyntaxError: missing name in export statement

tryItOut 719
Compiling threw: SyntaxError: invalid assignment left-hand side

tryItOut 720

tryItOut 721

tryItOut 722

tryItOut 723
Compiling threw: SyntaxError: invalid break

tryItOut 724

tryItOut 725
Running threw: TypeError: this.zzz has no properties

tryItOut 726

tryItOut 727

tryItOut 728

tryItOut 729

tryItOut 730

tryItOut 731
Compiling threw: SyntaxError: missing variable name

tryItOut 732
before 122080, after 122080, break 02213000

tryItOut 733

tryItOut 734
Compiling threw: SyntaxError: missing } after let block

tryItOut 735
Compiling threw: SyntaxError: invalid increment operand

tryItOut 736

tryItOut 737

tryItOut 738

tryItOut 739

tryItOut 740
Compiling threw: SyntaxError: missing ; before statement

tryItOut 741

tryItOut 742
Running threw: TypeError: this.zzz has no properties

tryItOut 743

tryItOut 744
Compiling threw: SyntaxError: missing = in destructuring declaration

tryItOut 745

tryItOut 746

tryItOut 747
Compiling threw: SyntaxError: syntax error

tryItOut 748

tryItOut 749
Running threw: function Object() {
    [native code]
}

tryItOut 750
Running threw: TypeError: this.zzz has no properties

tryItOut 751
Compiling threw: SyntaxError: missing ; before statement

tryItOut 752
Compiling threw: SyntaxError: missing ; before statement

tryItOut 753
Running threw: ReferenceError: reference to undefined XML name *::*

tryItOut 754

tryItOut 755
Compiling threw: SyntaxError: missing ; before statement

tryItOut 756

tryItOut 757

tryItOut 758

tryItOut 759
Compiling threw: SyntaxError: missing } after let block

tryItOut 760

tryItOut 761

tryItOut 762

tryItOut 763
Compiling threw: SyntaxError: label not found

tryItOut 764

tryItOut 765
Compiling threw: SyntaxError: invalid break

tryItOut 766

tryItOut 767

tryItOut 768

tryItOut 769

tryItOut 770

tryItOut 771
Compiling threw: SyntaxError: invalid assignment left-hand side

tryItOut 772

tryItOut 773

tryItOut 774
Compiling threw: SyntaxError: invalid assignment left-hand side

tryItOut 775
Compiling threw: SyntaxError: syntax error

tryItOut 776
Compiling threw: TypeError: redeclaration of variable prop

tryItOut 777
Running threw: undefined

tryItOut 778
Compiling threw: SyntaxError: missing { before function body

tryItOut 779

tryItOut 780
Running threw: TypeError: this.zzz has no properties

tryItOut 781

tryItOut 782
Running threw: TypeError: prop is not a function

tryItOut 783

tryItOut 784

tryItOut 785

tryItOut 786

tryItOut 787
Compiling threw: SyntaxError: label not found

tryItOut 788
Compiling threw: SyntaxError: invalid for/in left-hand side

tryItOut 789
Compiling threw: SyntaxError: syntax error

tryItOut 790

tryItOut 791
Compiling threw: SyntaxError: missing ) in parenthetical

tryItOut 792
Compiling threw: SyntaxError: invalid destructuring assignment operator

tryItOut 793
Compiling threw: SyntaxError: missing ; before statement

tryItOut 794

tryItOut 795
Running threw: TypeError: this.zzz has no properties

tryItOut 796

tryItOut 797

tryItOut 798
Compiling threw: SyntaxError: missing variable name

tryItOut 799

tryItOut 800
before 174400, after 156960, break 02213000

tryItOut 801
Compiling threw: SyntaxError: missing ; after for-loop initializer

tryItOut 802
Running threw: NaN

tryItOut 803
Compiling threw: SyntaxError: invalid for/in left-hand side

tryItOut 804
Compiling threw: SyntaxError: missing } after let block

tryItOut 805
Running threw: TypeError: null has no properties

tryItOut 806
Compiling threw: SyntaxError: missing ; before statement

tryItOut 807
Running threw: TypeError: this.zzz has no properties

tryItOut 808
Compiling threw: SyntaxError: invalid XML tag syntax

tryItOut 809

tryItOut 810
Compiling threw: SyntaxError: label not found

tryItOut 811
Compiling threw: SyntaxError: invalid continue

tryItOut 812
Compiling threw: SyntaxError: invalid for/in left-hand side

tryItOut 813
Running threw: NaN

tryItOut 814
before 156960, after 139520, break 02213000

tryItOut 815
Compiling threw: SyntaxError: syntax error

tryItOut 816

tryItOut 817

tryItOut 818
Compiling threw: SyntaxError: invalid for/in left-hand side

tryItOut 819
before 139520, after 139520, break 02213000

tryItOut 820
Running threw: 108

tryItOut 821
Compiling threw: SyntaxError: missing variable name

tryItOut 822
before 139520, after 139520, break 02213000
before 139520, after 139520, break 02213000
before 139520, after 139520, break 02213000
before 139520, after 139520, break 02213000
before 139520, after 139520, break 02213000
before 139520, after 139520, break 02213000
before 139520, after 139520, break 02213000
before 139520, after 139520, break 02213000
before 139520, after 139520, break 02213000
before 139520, after 139520, break 02213000
before 139520, after 139520, break 02213000
before 139520, after 139520, break 02213000
before 139520, after 139520, break 02213000
before 139520, after 139520, break 02213000
before 139520, after 139520, break 02213000
before 139520, after 139520, break 02213000

tryItOut 823
Compiling threw: SyntaxError: missing ; before statement

tryItOut 824
Compiling threw: SyntaxError: missing variable name

tryItOut 825
Compiling threw: SyntaxError: invalid for/in left-hand side

tryItOut 826
Compiling threw: SyntaxError: invalid for/in left-hand side

tryItOut 827

tryItOut 828

tryItOut 829
Compiling threw: SyntaxError: missing { before function body

tryItOut 830
Compiling threw: SyntaxError: missing ; before statement

tryItOut 831
before 139520, after 139520, break 02213000
before 139520, after 139520, break 02213000
before 139520, after 139520, break 02213000
before 139520, after 139520, break 02213000

tryItOut 832

tryItOut 833

tryItOut 834
before 139520, after 139520, break 02213000

tryItOut 835
Compiling threw: SyntaxError: missing ; after for-loop initializer

tryItOut 836

tryItOut 837
Compiling threw: SyntaxError: missing variable name

tryItOut 838
Compiling threw: SyntaxError: invalid for/in left-hand side

tryItOut 839

tryItOut 840

tryItOut 841
Running threw: TypeError: this.zzz has no properties

tryItOut 842
Compiling threw: SyntaxError: missing : after property id

tryItOut 843
Compiling threw: SyntaxError: missing } after let block

tryItOut 844

tryItOut 845
Compiling threw: SyntaxError: invalid continue

tryItOut 846

tryItOut 847
Running threw: NaN

tryItOut 848

tryItOut 849
Compiling threw: SyntaxError: missing = in destructuring declaration

tryItOut 850

tryItOut 851
Compiling threw: SyntaxError: syntax error

tryItOut 852
Compiling threw: SyntaxError: invalid for/in left-hand side

tryItOut 853

tryItOut 854
Running threw: ReferenceError: reference to undefined XML name *::*

tryItOut 855
Compiling threw: SyntaxError: missing ; before statement

tryItOut 856
Compiling threw: SyntaxError: invalid assignment left-hand side

tryItOut 857

tryItOut 858
Running threw: ReferenceError: reference to undefined XML name *

tryItOut 859

tryItOut 860
Compiling threw: SyntaxError: invalid for/in left-hand side

tryItOut 861

tryItOut 862

tryItOut 863
Compiling threw: SyntaxError: invalid for/in left-hand side

tryItOut 864
Running threw: TypeError: this.zzz has no properties

tryItOut 865
Compiling threw: SyntaxError: invalid break

tryItOut 866
Compiling threw: SyntaxError: invalid for/in left-hand side

tryItOut 867
Running threw: 0

tryItOut 868

tryItOut 869
Compiling threw: SyntaxError: invalid break

tryItOut 870
It's an iterator!
Iterating threw!
Iterating threw: ReferenceError: reference to undefined XML name @foo

tryItOut 871
Running threw: NaN

tryItOut 872
Compiling threw: SyntaxError: invalid assignment left-hand side

tryItOut 873
Compiling threw: SyntaxError: missing ; before statement

tryItOut 874
Compiling threw: SyntaxError: missing ; before statement

tryItOut 875

tryItOut 876
Compiling threw: SyntaxError: label not found

tryItOut 877
Compiling threw: SyntaxError: missing ) after condition

tryItOut 878
Compiling threw: SyntaxError: missing name in export statement

tryItOut 879
before 156960, after 156960, break 02213000

tryItOut 880
Compiling threw: SyntaxError: missing ; before statement

tryItOut 881

tryItOut 882

tryItOut 883
Running threw: TypeError: this.zzz has no properties

tryItOut 884
Compiling threw: SyntaxError: syntax error

tryItOut 885

tryItOut 886

tryItOut 887
Compiling threw: SyntaxError: syntax error

tryItOut 888

tryItOut 889
Running threw: TypeError: this.zzz has no properties

tryItOut 890
Compiling threw: SyntaxError: missing variable name

tryItOut 891
Compiling threw: SyntaxError: missing ) in parenthetical

tryItOut 892

tryItOut 893
Compiling threw: SyntaxError: missing variable name

tryItOut 894
Running threw: NaN

tryItOut 895
Compiling threw: SyntaxError: missing ; before statement

tryItOut 896
Running threw: NaN

tryItOut 897

tryItOut 898
Compiling threw: SyntaxError: missing = in destructuring declaration

tryItOut 899
Compiling threw: SyntaxError: invalid continue

tryItOut 900

tryItOut 901
Compiling threw: SyntaxError: missing { before function body

tryItOut 902

tryItOut 903

tryItOut 904

tryItOut 905

tryItOut 906

tryItOut 907
Compiling threw: TypeError: redeclaration of variable __noSuchMethod__

tryItOut 908
Compiling threw: SyntaxError: syntax error

tryItOut 909
Compiling threw: SyntaxError: missing ; before statement

tryItOut 910

tryItOut 911
Running threw: TypeError: undefined has no properties

tryItOut 912

tryItOut 913
before 156960, after 139520, break 02213000

tryItOut 914
Running threw: NaN

tryItOut 915

tryItOut 916

tryItOut 917
Running threw: TypeError: this.zzz has no properties

tryItOut 918
Running threw: TypeError: #1=[#1#] is not a function

tryItOut 919

tryItOut 920
Compiling threw: SyntaxError: invalid for/in left-hand side

tryItOut 921
Running threw: TypeError: this.zzz has no properties

tryItOut 922
Compiling threw: SyntaxError: invalid for/in left-hand side

tryItOut 923

tryItOut 924

tryItOut 925
Compiling threw: SyntaxError: syntax error

tryItOut 926
Compiling threw: SyntaxError: invalid for/in left-hand side

tryItOut 927
before 139520, after 139520, break 02213000

tryItOut 928

tryItOut 929

tryItOut 930
Compiling threw: SyntaxError: invalid decrement operand

tryItOut 931

tryItOut 932
before 139520, after 139520, break 02213000

tryItOut 933
Compiling threw: SyntaxError: missing = in destructuring declaration

tryItOut 934

tryItOut 935

tryItOut 936

tryItOut 937

tryItOut 938

tryItOut 939
Compiling threw: SyntaxError: invalid for/in left-hand side

tryItOut 940

tryItOut 941
Running threw: TypeError: __noSuchMethod__ has no properties

tryItOut 942
Compiling threw: SyntaxError: invalid increment operand

tryItOut 943

tryItOut 944
Compiling threw: SyntaxError: invalid break

tryItOut 945
Compiling threw: TypeError: redeclaration of variable __noSuchMethod__

tryItOut 946

tryItOut 947
Running threw: ReferenceError: reference to undefined XML name *

tryItOut 948
Compiling threw: SyntaxError: missing variable name

tryItOut 949

tryItOut 950

tryItOut 951

tryItOut 952

tryItOut 953
Compiling threw: SyntaxError: missing } after let block

tryItOut 954
Compiling threw: SyntaxError: invalid for/in left-hand side

tryItOut 955
Compiling threw: SyntaxError: missing = in destructuring declaration

tryItOut 956
Running threw: ReferenceError: b is not defined

tryItOut 957
Compiling threw: SyntaxError: invalid for/in left-hand side

tryItOut 958
Compiling threw: SyntaxError: invalid for/in left-hand side

tryItOut 959
Compiling threw: SyntaxError: missing ; before statement

tryItOut 960
Compiling threw: SyntaxError: invalid break

tryItOut 961

tryItOut 962
Compiling threw: SyntaxError: invalid continue

tryItOut 963
Running threw: ReferenceError: reference to undefined XML name @foo

tryItOut 964

tryItOut 965

tryItOut 966

tryItOut 967
Running threw: ReferenceError: z1 is not defined

tryItOut 968
Running threw: NaN

tryItOut 969

tryItOut 970
Compiling threw: SyntaxError: syntax error

tryItOut 971
Running threw: <x>
  <y/>
</x>

tryItOut 972

tryItOut 973

tryItOut 974
Compiling threw: SyntaxError: missing ; before statement

tryItOut 975
Compiling threw: SyntaxError: invalid XML tag syntax

tryItOut 976
Compiling threw: SyntaxError: missing } after let block

tryItOut 977
Compiling threw: SyntaxError: missing name after . operator

tryItOut 978
Compiling threw: SyntaxError: missing variable name

tryItOut 979

tryItOut 980
Compiling threw: SyntaxError: missing } after let block

tryItOut 981
Running threw: NaN

tryItOut 982

tryItOut 983
Compiling threw: SyntaxError: missing } after let block

tryItOut 984
Running threw: TypeError: undefined has no properties

tryItOut 985
Running threw: TypeError: this.zzz has no properties

tryItOut 986

tryItOut 987
Running threw: TypeError: this.zzz has no properties

tryItOut 988
Running threw: NaN

tryItOut 989
Running threw: ReferenceError: reference to undefined XML name @foo

tryItOut 990

tryItOut 991
Compiling threw: SyntaxError: label not found

tryItOut 992

tryItOut 993
Compiling threw: SyntaxError: invalid for/in left-hand side

tryItOut 994

tryItOut 995
Compiling threw: SyntaxError: missing variable name

tryItOut 996
Compiling threw: SyntaxError: missing } after let block

tryItOut 997
Running threw: TypeError: this.zzz has no properties

tryItOut 998

tryItOut 999
Compiling threw: SyntaxError: invalid continue

tryItOut 1000
Compiling threw: SyntaxError: missing ) in parenthetical

ALL OK

Script done on Sat 04 May 2013 08:05:51 AM PDT
