Script started on Sat 04 May 2013 08:08:44 AM PDT
***
Targeting SpiderMonkey / Gecko.

tryItOut 1
Compiling threw: SyntaxError: missing { before function body

tryItOut 2
Running threw: Error: invalid sharp variable definition #2=

tryItOut 3
Compiling threw: SyntaxError: missing ) after condition

tryItOut 4
Compiling threw: SyntaxError: syntax error

tryItOut 5
Running threw: null

tryItOut 6
Compiling threw: SyntaxError: missing variable name

tryItOut 7

tryItOut 8

tryItOut 9
Compiling threw: SyntaxError: syntax error

tryItOut 10

tryItOut 11
Compiling threw: TypeError: redeclaration of var __parent__

tryItOut 12

tryItOut 13

tryItOut 14
Compiling threw: SyntaxError: invalid assignment left-hand side

tryItOut 15

tryItOut 16
Compiling threw: SyntaxError: invalid for/in left-hand side

tryItOut 17

tryItOut 18
Compiling threw: SyntaxError: invalid for/in left-hand side

tryItOut 19
Compiling threw: SyntaxError: missing ) in parenthetical

tryItOut 20
Compiling threw: SyntaxError: syntax error

tryItOut 21
Compiling threw: SyntaxError: syntax error

tryItOut 22
Compiling threw: SyntaxError: missing ) after condition

tryItOut 23

tryItOut 24

tryItOut 25
Compiling threw: SyntaxError: missing ) in parenthetical

tryItOut 26
Compiling threw: SyntaxError: invalid for/in left-hand side

tryItOut 27
Compiling threw: SyntaxError: missing ; after for-loop condition

tryItOut 28
It's an iterator!
Iterating succeeded, iterCount == 1

tryItOut 29
Compiling threw: SyntaxError: missing ) in parenthetical

tryItOut 30
It's an iterator!
Iterating threw!
Iterating threw: ReferenceError: __iterator__ is not defined

tryItOut 31
Running threw: ReferenceError: __noSuchMethod__ is not defined

tryItOut 32

tryItOut 33

tryItOut 34

tryItOut 35
Compiling threw: SyntaxError: missing variable name

tryItOut 36

tryItOut 37
Compiling threw: SyntaxError: missing { before function body

tryItOut 38

tryItOut 39

tryItOut 40
It's an iterator!
Iterating succeeded, iterCount == 0

tryItOut 41
Compiling threw: SyntaxError: missing ) in parenthetical

tryItOut 42
Compiling threw: SyntaxError: missing { before function body

tryItOut 43

tryItOut 44
Running threw: ReferenceError: reference to undefined XML name @foo

tryItOut 45
Running threw: ReferenceError: prop is not defined

tryItOut 46
It's an iterator!
Iterating succeeded, iterCount == 1

tryItOut 47
Running threw: ReferenceError: __iterator__ is not defined

tryItOut 48
Compiling threw: SyntaxError: syntax error

tryItOut 49
Running threw: [object StopIteration]

tryItOut 50

tryItOut 51
It's an iterator!
Iterating succeeded, iterCount == 0

tryItOut 52
Compiling threw: SyntaxError: missing variable name

tryItOut 53
Compiling threw: SyntaxError: missing variable name

tryItOut 54
Compiling threw: SyntaxError: missing ) after argument list

tryItOut 55
Compiling threw: SyntaxError: missing variable name

tryItOut 56
Compiling threw: SyntaxError: missing ) in parenthetical

tryItOut 57
Running threw: ReferenceError: reference to undefined XML name *::*

tryItOut 58

tryItOut 59
Compiling threw: SyntaxError: syntax error

tryItOut 60

tryItOut 61
Compiling threw: SyntaxError: invalid sharp variable definition

tryItOut 62

tryItOut 63
Compiling threw: SyntaxError: missing variable name

tryItOut 64

tryItOut 65
Compiling threw: SyntaxError: missing ] after element list

tryItOut 66
Running threw: [object StopIteration]

tryItOut 67

tryItOut 68
Compiling threw: SyntaxError: invalid for/in left-hand side

tryItOut 69
Compiling threw: SyntaxError: invalid for/in left-hand side

tryItOut 70
Compiling threw: SyntaxError: missing variable name

tryItOut 71
Compiling threw: SyntaxError: missing ; before statement

tryItOut 72

tryItOut 73
Running threw: ReferenceError: prototype is not defined

tryItOut 74

tryItOut 75

tryItOut 76

tryItOut 77
Compiling threw: SyntaxError: syntax error

tryItOut 78

tryItOut 79
Compiling threw: SyntaxError: missing variable name

tryItOut 80
Compiling threw: SyntaxError: syntax error

tryItOut 81
Running threw: Error: invalid sharp variable use #1#

tryItOut 82
Compiling threw: SyntaxError: missing { before function body

tryItOut 83

tryItOut 84

tryItOut 85

tryItOut 86
Compiling threw: SyntaxError: missing variable name

tryItOut 87

tryItOut 88
Running threw: ReferenceError: reference to undefined XML name *::*

tryItOut 89

tryItOut 90
Compiling threw: SyntaxError: missing { before function body

tryItOut 91

tryItOut 92

tryItOut 93
It's an iterator!
Iterating threw!
Iterating threw: ReferenceError: z1 is not defined

tryItOut 94
Compiling threw: SyntaxError: missing ( before formal parameters

tryItOut 95

tryItOut 96

tryItOut 97
Compiling threw: SyntaxError: syntax error

tryItOut 98

tryItOut 99
Compiling threw: SyntaxError: missing ) in parenthetical

tryItOut 100
Compiling threw: SyntaxError: syntax error

tryItOut 101
Compiling threw: SyntaxError: missing : after property id

tryItOut 102
Compiling threw: SyntaxError: invalid for/in left-hand side

tryItOut 103

tryItOut 104
Compiling threw: SyntaxError: missing ) in parenthetical

tryItOut 105

tryItOut 106
It's an iterator!
Iterating threw!
Iterating threw: ReferenceError: window is not defined

tryItOut 107

tryItOut 108

tryItOut 109

tryItOut 110
It's an iterator!
Iterating succeeded, iterCount == 1

tryItOut 111
It's an iterator!
Iterating threw!
Iterating threw: ReferenceError: reference to undefined XML name *::*

tryItOut 112

tryItOut 113
Compiling threw: SyntaxError: missing ( before formal parameters

tryItOut 114
Compiling threw: SyntaxError: missing formal parameter

tryItOut 115

tryItOut 116
Compiling threw: SyntaxError: invalid for/in left-hand side

tryItOut 117
Running threw: ReferenceError: window is not defined

tryItOut 118
Compiling threw: SyntaxError: missing variable name

tryItOut 119
Compiling threw: SyntaxError: missing ) in parenthetical

tryItOut 120

tryItOut 121
It's an iterator!
Iterating threw!
Iterating threw: ReferenceError: window is not defined

tryItOut 122

tryItOut 123
It's an iterator!
Iterating threw!
Iterating threw: TypeError: __iterator__ has no properties

tryItOut 124
Compiling threw: SyntaxError: syntax error

tryItOut 125
It's an iterator!
Iterating succeeded, iterCount == 1

tryItOut 126

tryItOut 127
Compiling threw: SyntaxError: missing ) in parenthetical

tryItOut 128
Compiling threw: SyntaxError: invalid destructuring assignment operator

tryItOut 129
Compiling threw: TypeError: redeclaration of variable __count__

tryItOut 130
Compiling threw: SyntaxError: syntax error

tryItOut 131

tryItOut 132
Compiling threw: SyntaxError: missing ] after element list

tryItOut 133
Running threw: ReferenceError: reference to undefined XML name @foo

tryItOut 134
Compiling threw: SyntaxError: missing ] after element list

tryItOut 135
It's an iterator!
Iterating succeeded, iterCount == 1

tryItOut 136
Compiling threw: SyntaxError: missing variable name

tryItOut 137

tryItOut 138

tryItOut 139

tryItOut 140
It's an iterator!
Iterating succeeded, iterCount == 1

tryItOut 141
Compiling threw: SyntaxError: missing variable name

tryItOut 142

tryItOut 143
It's an iterator!
Iterating succeeded, iterCount == 1

tryItOut 144
Compiling threw: SyntaxError: missing variable name

tryItOut 145

tryItOut 146
Compiling threw: SyntaxError: missing ] after element list

tryItOut 147

tryItOut 148

tryItOut 149
Compiling threw: SyntaxError: missing ) after argument list

tryItOut 150

tryItOut 151
Compiling threw: SyntaxError: missing ( before let head

tryItOut 152
Running threw: ReferenceError: z1 is not defined

tryItOut 153
Compiling threw: SyntaxError: syntax error

tryItOut 154
Running threw: ReferenceError: reference to undefined XML name @foo

tryItOut 155
It's an iterator!
Iterating succeeded, iterCount == 1

tryItOut 156

tryItOut 157
Compiling threw: SyntaxError: missing ; before statement

tryItOut 158

tryItOut 159
It's an iterator!
Iterating threw!
Iterating threw: ReferenceError: window is not defined

tryItOut 160

tryItOut 161
It's an iterator!
Iterating threw!
Iterating threw: ReferenceError: prototype is not defined

tryItOut 162
Compiling threw: SyntaxError: syntax error

tryItOut 163

tryItOut 164
Running threw: ReferenceError: prototype is not defined

tryItOut 165

tryItOut 166
Compiling threw: TypeError: redeclaration of const prop

tryItOut 167
It's an iterator!
Iterating threw!
Iterating threw: ReferenceError: reference to undefined property "__parent__"

tryItOut 168
It's an iterator!
Iterating succeeded, iterCount == 1

tryItOut 169

tryItOut 170
Compiling threw: SyntaxError: missing ) in parenthetical

tryItOut 171
It's an iterator!
Iterating succeeded, iterCount == 0

tryItOut 172
Compiling threw: SyntaxError: missing { before function body

tryItOut 173
It's an iterator!
Iterating succeeded, iterCount == 1

tryItOut 174
Compiling threw: SyntaxError: syntax error

tryItOut 175

tryItOut 176

tryItOut 177
Compiling threw: SyntaxError: missing ] after element list

tryItOut 178
Compiling threw: SyntaxError: syntax error

tryItOut 179

tryItOut 180

tryItOut 181
Compiling threw: SyntaxError: syntax error

tryItOut 182
Compiling threw: SyntaxError: invalid assignment left-hand side

tryItOut 183

tryItOut 184
Compiling threw: SyntaxError: missing ) in parenthetical

tryItOut 185

tryItOut 186
It's an iterator!
Iterating succeeded, iterCount == 0

tryItOut 187
Running threw: [object StopIteration]

tryItOut 188

tryItOut 189

tryItOut 190

tryItOut 191
Compiling threw: SyntaxError: missing variable name

tryItOut 192
It's an iterator!
Iterating threw!
Iterating threw: ReferenceError: window is not defined

tryItOut 193
Compiling threw: SyntaxError: syntax error

tryItOut 194

tryItOut 195
Compiling threw: SyntaxError: missing variable name

tryItOut 196

tryItOut 197
Compiling threw: SyntaxError: missing ) in parenthetical

tryItOut 198

tryItOut 199

tryItOut 200
Running threw: /x/

tryItOut 201
Compiling threw: SyntaxError: syntax error

tryItOut 202
Compiling threw: SyntaxError: syntax error

tryItOut 203
Compiling threw: SyntaxError: syntax error

tryItOut 204
Compiling threw: SyntaxError: invalid for/in left-hand side

tryItOut 205
It's an iterator!
Iterating threw!
Iterating threw: ReferenceError: reference to undefined XML name *

tryItOut 206
Compiling threw: SyntaxError: missing variable name

tryItOut 207
Compiling threw: SyntaxError: invalid for/in left-hand side

tryItOut 208
It's an iterator!
Iterating threw!
Iterating threw: ReferenceError: z1 is not defined

tryItOut 209
Compiling threw: SyntaxError: missing ; before statement

tryItOut 210
Compiling threw: SyntaxError: syntax error

tryItOut 211
Compiling threw: SyntaxError: missing formal parameter

tryItOut 212
Compiling threw: SyntaxError: missing variable name

tryItOut 213
Compiling threw: SyntaxError: syntax error

tryItOut 214
It's an iterator!
Iterating threw!
Iterating threw: ReferenceError: reference to undefined XML name *

tryItOut 215
Running threw: ReferenceError: reference to undefined XML name *::*

tryItOut 216
It's an iterator!
Iterating succeeded, iterCount == 1

tryItOut 217
It's an iterator!
Iterating threw!
Iterating threw: ReferenceError: __iterator__ is not defined

tryItOut 218
Running threw: Can't toString the error!!

tryItOut 219
Compiling threw: SyntaxError: invalid assignment left-hand side

tryItOut 220

tryItOut 221
Compiling threw: SyntaxError: missing } after let block

tryItOut 222
Compiling threw: SyntaxError: duplicate label

tryItOut 223
Compiling threw: SyntaxError: missing ) in parenthetical

tryItOut 224
Running threw: ReferenceError: reference to undefined XML name @foo

tryItOut 225
It's an iterator!
Iterating threw!
Iterating threw: TypeError: prop has no properties

tryItOut 226
Compiling threw: SyntaxError: syntax error

tryItOut 227
Compiling threw: SyntaxError: invalid assignment left-hand side

tryItOut 228

tryItOut 229
Compiling threw: SyntaxError: syntax error

tryItOut 230
Running threw: ReferenceError: reference to undefined XML name *::*

tryItOut 231
Compiling threw: SyntaxError: missing ; before statement

tryItOut 232
Running threw: ReferenceError: window is not defined

tryItOut 233
Running threw: ReferenceError: window is not defined

tryItOut 234
It's an iterator!
Iterating succeeded, iterCount == 1

tryItOut 235

tryItOut 236
It's an iterator!
Iterating succeeded, iterCount == 1

tryItOut 237

tryItOut 238
Running threw: ReferenceError: window is not defined

tryItOut 239
Compiling threw: SyntaxError: missing ) in parenthetical

tryItOut 240
It's an iterator!
Iterating threw!
Iterating threw: TypeError: __noSuchMethod__.__parent__ has no properties

tryItOut 241
Compiling threw: SyntaxError: syntax error

tryItOut 242

tryItOut 243
Compiling threw: SyntaxError: missing variable name

tryItOut 244
Compiling threw: SyntaxError: syntax error

tryItOut 245
Compiling threw: SyntaxError: syntax error

tryItOut 246
Compiling threw: SyntaxError: syntax error

tryItOut 247
Compiling threw: SyntaxError: missing { before function body

tryItOut 248
Compiling threw: SyntaxError: missing variable name

tryItOut 249
Compiling threw: SyntaxError: syntax error

tryItOut 250
Compiling threw: SyntaxError: missing ) in parenthetical

tryItOut 251
It's an iterator!
Iterating threw!
Iterating threw: ReferenceError: window is not defined

tryItOut 252
Compiling threw: SyntaxError: missing variable name

tryItOut 253
Compiling threw: SyntaxError: invalid assignment left-hand side

tryItOut 254
Compiling threw: SyntaxError: missing ] after element list

tryItOut 255

tryItOut 256
Running threw: ReferenceError: reference to undefined XML name *::*

tryItOut 257
It's an iterator!
Iterating threw!
Iterating threw: TypeError: this.zzz has no properties

tryItOut 258
It's an iterator!
Iterating succeeded, iterCount == 1

tryItOut 259
Compiling threw: SyntaxError: missing ) in parenthetical

tryItOut 260

tryItOut 261
Running threw: ReferenceError: reference to undefined XML name *::*

tryItOut 262
Compiling threw: SyntaxError: missing { before function body

tryItOut 263
Compiling threw: SyntaxError: invalid for/in left-hand side

tryItOut 264

tryItOut 265
Compiling threw: SyntaxError: missing name after . operator

tryItOut 266
Compiling threw: SyntaxError: missing ) after with-statement object

tryItOut 267
Compiling threw: SyntaxError: unterminated string literal

tryItOut 268

tryItOut 269
It's an iterator!
Iterating succeeded, iterCount == 1

tryItOut 270
Compiling threw: SyntaxError: missing variable name

tryItOut 271
Compiling threw: SyntaxError: missing ) after condition

tryItOut 272
Compiling threw: SyntaxError: missing ] after element list

tryItOut 273
Compiling threw: SyntaxError: missing name in export statement

tryItOut 274
Compiling threw: SyntaxError: missing variable name

tryItOut 275
Compiling threw: SyntaxError: invalid for/in left-hand side

tryItOut 276
Compiling threw: SyntaxError: invalid for/in left-hand side

tryItOut 277

tryItOut 278
It's an iterator!
Iterating succeeded, iterCount == 1

tryItOut 279
Compiling threw: SyntaxError: missing ( before formal parameters

tryItOut 280
Running threw: TypeError: __count__ has no properties

tryItOut 281
Compiling threw: SyntaxError: missing ) after let head

tryItOut 282

tryItOut 283

tryItOut 284

tryItOut 285
Compiling threw: SyntaxError: invalid for/in left-hand side

tryItOut 286

tryItOut 287
It's an iterator!
Iterating succeeded, iterCount == 1

tryItOut 288
Compiling threw: SyntaxError: syntax error

tryItOut 289
Compiling threw: SyntaxError: missing ) after condition

tryItOut 290
Compiling threw: SyntaxError: illegal character

tryItOut 291

tryItOut 292
It's an iterator!
Iterating threw!
Iterating threw: ReferenceError: reference to undefined XML name *

tryItOut 293
Compiling threw: SyntaxError: missing variable name

tryItOut 294
Compiling threw: SyntaxError: missing ] after element list

tryItOut 295

tryItOut 296
Compiling threw: SyntaxError: missing ] after element list

tryItOut 297

tryItOut 298

tryItOut 299
Compiling threw: SyntaxError: missing ] after element list

tryItOut 300
Compiling threw: SyntaxError: missing ; before statement

tryItOut 301
It's an iterator!
Iterating succeeded, iterCount == 1

tryItOut 302
Compiling threw: SyntaxError: invalid destructuring assignment operator

tryItOut 303
Running threw: ReferenceError: __iterator__ is not defined

tryItOut 304
It's an iterator!
Iterating threw!
Iterating threw: ReferenceError: reference to undefined XML name @foo

tryItOut 305

tryItOut 306

tryItOut 307
Compiling threw: SyntaxError: invalid assignment left-hand side

tryItOut 308
Compiling threw: SyntaxError: missing { before function body

tryItOut 309
Compiling threw: SyntaxError: missing ; before statement

tryItOut 310
It's an iterator!
Iterating threw!
Iterating threw: ReferenceError: reference to undefined XML name *

tryItOut 311

tryItOut 312
It's an iterator!
Iterating threw!
Iterating threw: ReferenceError: reference to undefined XML name *::*

tryItOut 313
Compiling threw: SyntaxError: missing variable name

tryItOut 314
Compiling threw: SyntaxError: missing } after let block

tryItOut 315
Compiling threw: SyntaxError: syntax error

tryItOut 316
Compiling threw: SyntaxError: invalid assignment left-hand side

tryItOut 317
Compiling threw: SyntaxError: invalid for/in left-hand side

tryItOut 318

tryItOut 319
Compiling threw: SyntaxError: missing ) after with-statement object

tryItOut 320
Compiling threw: SyntaxError: syntax error

tryItOut 321

tryItOut 322
It's an iterator!
Iterating threw!
Iterating threw: ReferenceError: reference to undefined XML name *

tryItOut 323
Compiling threw: SyntaxError: invalid sharp variable definition

tryItOut 324
Compiling threw: SyntaxError: missing ) in parenthetical

tryItOut 325
Compiling threw: SyntaxError: missing ] after element list

tryItOut 326

tryItOut 327
It's an iterator!
Iterating threw!
Iterating threw: TypeError: this.zzz has no properties

tryItOut 328
Running threw: ReferenceError: reference to undefined XML name @foo

tryItOut 329
Compiling threw: SyntaxError: syntax error

tryItOut 330
Compiling threw: SyntaxError: missing { before function body

tryItOut 331

tryItOut 332
Compiling threw: SyntaxError: missing ) in parenthetical

tryItOut 333

tryItOut 334
Compiling threw: TypeError: redeclaration of const prototype

tryItOut 335

tryItOut 336
Running threw: ReferenceError: window is not defined

tryItOut 337
Running threw: 

tryItOut 338
It's an iterator!
Iterating threw!
Iterating threw: ReferenceError: reference to undefined XML name @foo

tryItOut 339
Compiling threw: SyntaxError: syntax error

tryItOut 340

tryItOut 341

tryItOut 342
It's an iterator!
Iterating succeeded, iterCount == 1

tryItOut 343

tryItOut 344
Compiling threw: SyntaxError: missing ) in parenthetical

tryItOut 345

tryItOut 346

tryItOut 347
It's an iterator!
Iterating succeeded, iterCount == 1

tryItOut 348
It's an iterator!
Iterating succeeded, iterCount == 0

tryItOut 349

tryItOut 350
Compiling threw: SyntaxError: invalid for/in left-hand side

tryItOut 351

tryItOut 352
Compiling threw: SyntaxError: syntax error

tryItOut 353
Compiling threw: SyntaxError: missing ] after element list

tryItOut 354

tryItOut 355

tryItOut 356
Compiling threw: SyntaxError: missing ; after for-loop initializer

tryItOut 357

tryItOut 358

tryItOut 359

tryItOut 360

tryItOut 361

tryItOut 362
Compiling threw: SyntaxError: invalid property id

tryItOut 363
Compiling threw: SyntaxError: missing ] after element list

tryItOut 364

tryItOut 365
Compiling threw: SyntaxError: missing variable name

tryItOut 366
Running threw: TypeError: "".call has no properties

tryItOut 367
Compiling threw: SyntaxError: missing ; before statement

tryItOut 368

tryItOut 369
It's an iterator!
Iterating threw!
Iterating threw: TypeError: this.zzz has no properties

tryItOut 370

tryItOut 371
It's an iterator!
Iterating succeeded, iterCount == 1

tryItOut 372
It's an iterator!
Iterating succeeded, iterCount == 1

tryItOut 373

tryItOut 374
Compiling threw: SyntaxError: missing ; before statement

tryItOut 375

tryItOut 376
Compiling threw: SyntaxError: missing { before function body

tryItOut 377

tryItOut 378
Compiling threw: SyntaxError: missing ( before let head

tryItOut 379
Compiling threw: SyntaxError: missing name in export statement

tryItOut 380

tryItOut 381
Compiling threw: SyntaxError: syntax error

tryItOut 382
It's an iterator!
Iterating succeeded, iterCount == 0

tryItOut 383
Compiling threw: SyntaxError: missing ; after for-loop initializer

tryItOut 384
Compiling threw: SyntaxError: invalid for/in left-hand side

tryItOut 385

tryItOut 386
Compiling threw: SyntaxError: invalid assignment left-hand side

tryItOut 387

tryItOut 388
It's an iterator!
Iterating threw!
Iterating threw: ReferenceError: reference to undefined XML name *

tryItOut 389
Compiling threw: SyntaxError: missing : after property id

tryItOut 390
Compiling threw: SyntaxError: missing ) in parenthetical

tryItOut 391
It's an iterator!
Iterating threw!
Iterating threw: ReferenceError: __iterator__ is not defined

tryItOut 392

tryItOut 393
Compiling threw: SyntaxError: missing ) in parenthetical

tryItOut 394
It's an iterator!
Iterating succeeded, iterCount == 1

tryItOut 395
Running threw: ReferenceError: __parent__ is not defined

tryItOut 396

tryItOut 397

tryItOut 398
Compiling threw: SyntaxError: invalid variable initialization

tryItOut 399
Compiling threw: SyntaxError: invalid assignment left-hand side

tryItOut 400
Compiling threw: SyntaxError: missing ) in parenthetical

tryItOut 401
It's an iterator!
Iterating succeeded, iterCount == 1

tryItOut 402
Compiling threw: SyntaxError: missing ; before statement

tryItOut 403
Compiling threw: SyntaxError: missing variable name

tryItOut 404
Running threw: SyntaxError: syntax error

tryItOut 405
Running threw: ReferenceError: reference to undefined XML name *

tryItOut 406
Compiling threw: TypeError: redeclaration of variable __count__

tryItOut 407
Compiling threw: SyntaxError: missing { before function body

tryItOut 408
Compiling threw: SyntaxError: invalid sharp variable definition

tryItOut 409
Compiling threw: SyntaxError: missing ) in parenthetical

tryItOut 410
Compiling threw: SyntaxError: syntax error

tryItOut 411
It's an iterator!
Iterating succeeded, iterCount == 2

tryItOut 412
Compiling threw: SyntaxError: invalid assignment left-hand side

tryItOut 413
Compiling threw: SyntaxError: invalid increment operand

tryItOut 414
Compiling threw: SyntaxError: missing variable name

tryItOut 415
Compiling threw: SyntaxError: invalid for/in left-hand side

tryItOut 416

tryItOut 417
Compiling threw: SyntaxError: invalid for/in left-hand side

tryItOut 418
It's an iterator!
Iterating succeeded, iterCount == 1

tryItOut 419

tryItOut 420
It's an iterator!
Iterating threw!
Iterating threw: TypeError: "" is not a function

tryItOut 421
Compiling threw: SyntaxError: missing variable name

tryItOut 422

tryItOut 423
Compiling threw: SyntaxError: missing ) in parenthetical

tryItOut 424
Running threw: ReferenceError: reference to undefined XML name *

tryItOut 425
Running threw: ReferenceError: reference to undefined XML name *::*

tryItOut 426
Running threw: ReferenceError: window is not defined

tryItOut 427
Compiling threw: SyntaxError: missing ) in parenthetical

tryItOut 428
Running threw: ReferenceError: window is not defined

tryItOut 429
It's an iterator!
Iterating threw!
Iterating threw: TypeError: can't convert this to number

tryItOut 430

tryItOut 431

tryItOut 432

tryItOut 433

tryItOut 434
Compiling threw: SyntaxError: invalid property id

tryItOut 435

tryItOut 436

tryItOut 437
Compiling threw: SyntaxError: invalid destructuring assignment operator

tryItOut 438

tryItOut 439
Running threw: [object StopIteration]

tryItOut 440
It's an iterator!
Iterating succeeded, iterCount == 1

tryItOut 441

tryItOut 442
Compiling threw: SyntaxError: missing ) after condition

tryItOut 443

tryItOut 444
Compiling threw: SyntaxError: missing } after let block

tryItOut 445
It's an iterator!
Iterating threw!
Iterating threw: ReferenceError: reference to undefined XML name *::*

tryItOut 446
Running threw: [object StopIteration]

tryItOut 447
Compiling threw: SyntaxError: syntax error

tryItOut 448
Compiling threw: SyntaxError: invalid assignment left-hand side

tryItOut 449
Compiling threw: SyntaxError: missing variable name

tryItOut 450
It's an iterator!
Iterating succeeded, iterCount == 1

tryItOut 451

tryItOut 452
Running threw: ReferenceError: z2 is not defined

tryItOut 453
Compiling threw: SyntaxError: syntax error

tryItOut 454
It's an iterator!
Iterating threw!
Iterating threw: ReferenceError: window is not defined

tryItOut 455

tryItOut 456

tryItOut 457
Compiling threw: SyntaxError: missing ) in parenthetical

tryItOut 458
It's an iterator!
Iterating succeeded, iterCount == 0

tryItOut 459
Compiling threw: SyntaxError: invalid for/in left-hand side

tryItOut 460
Compiling threw: SyntaxError: missing ; before statement

tryItOut 461
Compiling threw: SyntaxError: missing ) in parenthetical

tryItOut 462
Compiling threw: SyntaxError: missing ] after element list

tryItOut 463

tryItOut 464
Running threw: ReferenceError: __iterator__ is not defined

tryItOut 465
It's an iterator!
Iterating succeeded, iterCount == 1

tryItOut 466
Compiling threw: SyntaxError: syntax error

tryItOut 467
Running threw: 

tryItOut 468

tryItOut 469
Running threw: [object StopIteration]

tryItOut 470

tryItOut 471

tryItOut 472
Compiling threw: SyntaxError: missing ; before statement

tryItOut 473
Running threw: [object StopIteration]

tryItOut 474
Compiling threw: SyntaxError: missing ; before statement

tryItOut 475
Compiling threw: SyntaxError: missing ; after for-loop initializer

tryItOut 476
Compiling threw: TypeError: redeclaration of const prototype

tryItOut 477
Compiling threw: SyntaxError: missing { before function body

tryItOut 478

tryItOut 479
Compiling threw: SyntaxError: invalid assignment left-hand side

tryItOut 480
uneval returned the string: [[]]

tryItOut 481

tryItOut 482

tryItOut 483
It's an iterator!
Iterating threw!
Iterating threw: ReferenceError: reference to undefined XML name @foo

tryItOut 484

tryItOut 485
It's an iterator!
Iterating threw!
Iterating threw: TypeError: [1] is not a function

tryItOut 486
It's an iterator!
Iterating succeeded, iterCount == 1

tryItOut 487
It's an iterator!
Iterating threw!
Iterating threw: ReferenceError: reference to undefined XML name *::*

tryItOut 488
Compiling threw: SyntaxError: missing variable name

tryItOut 489

tryItOut 490

tryItOut 491
Compiling threw: SyntaxError: missing ; after for-loop initializer

tryItOut 492

tryItOut 493
It's an iterator!
Iterating threw!
Iterating threw: ReferenceError: window is not defined

tryItOut 494
Compiling threw: SyntaxError: invalid assignment left-hand side

tryItOut 495
Compiling threw: SyntaxError: missing ) after with-statement object

tryItOut 496

tryItOut 497
Compiling threw: SyntaxError: missing ; before statement

tryItOut 498

tryItOut 499

tryItOut 500
Compiling threw: SyntaxError: syntax error

tryItOut 501
Compiling threw: SyntaxError: syntax error

tryItOut 502
Compiling threw: SyntaxError: missing variable name

tryItOut 503
It's an iterator!
Iterating threw!
Iterating threw: TypeError: undefined has no properties

tryItOut 504

tryItOut 505
Compiling threw: SyntaxError: missing ) in parenthetical

tryItOut 506
Running threw: ReferenceError: reference to undefined XML name *::*

tryItOut 507

tryItOut 508

tryItOut 509
Compiling threw: TypeError: redeclaration of const prototype

tryItOut 510
Compiling threw: SyntaxError: missing ; before statement

tryItOut 511

tryItOut 512
Compiling threw: SyntaxError: missing ) in parenthetical

tryItOut 513

tryItOut 514
Compiling threw: SyntaxError: missing ; before statement

tryItOut 515

tryItOut 516

tryItOut 517
Compiling threw: SyntaxError: missing { before function body

tryItOut 518

tryItOut 519
It's an iterator!
Iterating threw!
Iterating threw: TypeError: this.zzz has no properties

tryItOut 520

tryItOut 521

tryItOut 522
Running threw: ReferenceError: reference to undefined XML name *

tryItOut 523
Compiling threw: SyntaxError: syntax error

tryItOut 524
Compiling threw: SyntaxError: invalid assignment left-hand side

tryItOut 525

tryItOut 526

tryItOut 527
Compiling threw: SyntaxError: invalid for/in left-hand side

tryItOut 528

tryItOut 529
Compiling threw: SyntaxError: syntax error

tryItOut 530

tryItOut 531
Running threw: NaN

tryItOut 532
It's an iterator!
Iterating threw!
Iterating threw: ReferenceError: reference to undefined XML name @foo

tryItOut 533
Compiling threw: SyntaxError: missing ; before statement

tryItOut 534
Compiling threw: SyntaxError: invalid for/in left-hand side

tryItOut 535
Compiling threw: SyntaxError: syntax error

tryItOut 536
Compiling threw: SyntaxError: missing ] after element list

tryItOut 537

tryItOut 538
It's an iterator!
Iterating succeeded, iterCount == 0

tryItOut 539
Running threw: ReferenceError: reference to undefined XML name @foo

tryItOut 540
Compiling threw: SyntaxError: missing variable name

tryItOut 541

tryItOut 542
Compiling threw: SyntaxError: missing ] after element list

tryItOut 543

tryItOut 544

tryItOut 545

tryItOut 546

tryItOut 547

tryItOut 548
It's an iterator!
Iterating threw!
Iterating threw: TypeError: false is not a function

tryItOut 549
Compiling threw: SyntaxError: missing ; after for-loop initializer

tryItOut 550
Compiling threw: TypeError: redeclaration of variable __proto__

tryItOut 551
It's an iterator!
Iterating succeeded, iterCount == 1

tryItOut 552
Running threw: [object StopIteration]

tryItOut 553
Compiling threw: SyntaxError: missing ) in parenthetical

tryItOut 554
Compiling threw: SyntaxError: missing ; before statement

tryItOut 555
Compiling threw: SyntaxError: missing formal parameter

tryItOut 556
Compiling threw: SyntaxError: invalid for/in left-hand side

tryItOut 557
Running threw: TypeError: null is not a function

tryItOut 558
Compiling threw: SyntaxError: syntax error

tryItOut 559
Compiling threw: SyntaxError: invalid sharp variable definition

tryItOut 560

tryItOut 561

tryItOut 562
Compiling threw: SyntaxError: invalid for/in left-hand side

tryItOut 563
It's an iterator!
Iterating threw!
Iterating threw: ReferenceError: reference to undefined XML name @foo

tryItOut 564

tryItOut 565
Compiling threw: SyntaxError: missing ; before statement

tryItOut 566

tryItOut 567
Compiling threw: SyntaxError: missing ; before statement

tryItOut 568

tryItOut 569

tryItOut 570
It's an iterator!
Iterating succeeded, iterCount == 1

tryItOut 571
Compiling threw: SyntaxError: missing exponent

tryItOut 572
Compiling threw: SyntaxError: unterminated regular expression literal

tryItOut 573
Running threw: ReferenceError: window is not defined

tryItOut 574
Running threw: TypeError: 0.1 is not a function

tryItOut 575
It's an iterator!
Iterating succeeded, iterCount == 0

tryItOut 576
Compiling threw: SyntaxError: missing ) in parenthetical

tryItOut 577
It's an iterator!
Iterating succeeded, iterCount == 1

tryItOut 578

tryItOut 579

tryItOut 580

tryItOut 581
Compiling threw: SyntaxError: illegal XML character

tryItOut 582
Compiling threw: SyntaxError: syntax error

tryItOut 583
Compiling threw: SyntaxError: missing name in export statement

tryItOut 584

tryItOut 585
It's an iterator!
Iterating succeeded, iterCount == 1

tryItOut 586
Compiling threw: SyntaxError: missing ) in parenthetical

tryItOut 587

tryItOut 588
Compiling threw: SyntaxError: missing ] after element list

tryItOut 589
Compiling threw: SyntaxError: invalid destructuring assignment operator

tryItOut 590
It's an iterator!
Iterating threw!
Iterating threw: TypeError: this is not a function

tryItOut 591
Compiling threw: SyntaxError: syntax error

tryItOut 592
Compiling threw: SyntaxError: missing ) in parenthetical

tryItOut 593

tryItOut 594
Compiling threw: SyntaxError: missing variable name

tryItOut 595
It's an iterator!
Iterating threw!
Iterating threw: TypeError: Object() is not a constructor

tryItOut 596
Running threw: ReferenceError: window is not defined

tryItOut 597
Compiling threw: SyntaxError: invalid assignment left-hand side

tryItOut 598

tryItOut 599
Compiling threw: SyntaxError: invalid assignment left-hand side

tryItOut 600
Compiling threw: SyntaxError: missing ; before statement

tryItOut 601
It's an iterator!
Iterating succeeded, iterCount == 1

tryItOut 602
It's an iterator!
Iterating threw!
Iterating threw: ReferenceError: z1 is not defined

tryItOut 603

tryItOut 604
Running threw: 0

tryItOut 605
It's an iterator!
Iterating succeeded, iterCount == 1

tryItOut 606
It's an iterator!
Iterating succeeded, iterCount == 1

tryItOut 607
Compiling threw: SyntaxError: invalid assignment left-hand side

tryItOut 608
Compiling threw: SyntaxError: missing : after property id

tryItOut 609
Compiling threw: SyntaxError: invalid default XML namespace

tryItOut 610

tryItOut 611

tryItOut 612

tryItOut 613
Running threw: ReferenceError: reference to undefined XML name *::*

tryItOut 614
Compiling threw: SyntaxError: missing ) after argument list

tryItOut 615

tryItOut 616
Compiling threw: TypeError: redeclaration of variable __count__

tryItOut 617
Compiling threw: SyntaxError: missing ; after for-loop initializer

tryItOut 618
It's an iterator!
Iterating succeeded, iterCount == 1

tryItOut 619
Compiling threw: SyntaxError: missing ) after condition

tryItOut 620
Compiling threw: SyntaxError: missing ; before statement

tryItOut 621
Compiling threw: SyntaxError: missing ) in parenthetical

tryItOut 622
Compiling threw: SyntaxError: invalid assignment left-hand side

tryItOut 623

tryItOut 624
Running threw: ReferenceError: __iterator__ is not defined

tryItOut 625
It's an iterator!
Iterating succeeded, iterCount == 1

tryItOut 626
Compiling threw: SyntaxError: missing ; before statement

tryItOut 627
Compiling threw: SyntaxError: missing ) after condition

tryItOut 628
Compiling threw: SyntaxError: missing ) after condition

tryItOut 629
Running threw: ReferenceError: reference to undefined XML name @foo

tryItOut 630

tryItOut 631
Compiling threw: SyntaxError: missing { before function body

tryItOut 632

tryItOut 633
Compiling threw: SyntaxError: invalid for/in left-hand side

tryItOut 634
Compiling threw: SyntaxError: missing variable name

tryItOut 635
Compiling threw: SyntaxError: missing ; before statement

tryItOut 636
Compiling threw: SyntaxError: syntax error

tryItOut 637
Compiling threw: SyntaxError: syntax error

tryItOut 638
Compiling threw: SyntaxError: invalid assignment left-hand side

tryItOut 639
Compiling threw: SyntaxError: missing variable name

tryItOut 640
Compiling threw: SyntaxError: missing variable name

tryItOut 641
Compiling threw: SyntaxError: missing variable name

tryItOut 642
Running threw: ReferenceError: z2 is not defined

tryItOut 643
Compiling threw: SyntaxError: missing ; after for-loop initializer

tryItOut 644
Compiling threw: SyntaxError: missing ) in parenthetical

tryItOut 645
Compiling threw: SyntaxError: syntax error

tryItOut 646
Compiling threw: SyntaxError: duplicate label

tryItOut 647
Compiling threw: SyntaxError: missing ) after condition

tryItOut 648
It's an iterator!
Iterating succeeded, iterCount == 1

tryItOut 649

tryItOut 650
Running threw: ReferenceError: z1 is not defined

tryItOut 651
Compiling threw: SyntaxError: missing { before function body

tryItOut 652

tryItOut 653
Running threw: TypeError: [[1]] is not a function

tryItOut 654
It's an iterator!
Iterating succeeded, iterCount == 1

tryItOut 655
Compiling threw: SyntaxError: invalid for/in left-hand side

tryItOut 656
It's an iterator!
Iterating threw!
Iterating threw: TypeError: __proto__.prop is not a function

tryItOut 657

tryItOut 658
Compiling threw: SyntaxError: syntax error

tryItOut 659
It's an iterator!
Iterating threw!
Iterating threw: ReferenceError: reference to undefined XML name *

tryItOut 660

tryItOut 661
It's an iterator!
Iterating succeeded, iterCount == 1

tryItOut 662

tryItOut 663

tryItOut 664

tryItOut 665
Compiling threw: SyntaxError: missing ; after for-loop condition

tryItOut 666
Compiling threw: SyntaxError: missing ) after let head

tryItOut 667

tryItOut 668
Compiling threw: SyntaxError: invalid assignment left-hand side

tryItOut 669
It's an iterator!
Iterating succeeded, iterCount == 2

tryItOut 670
Compiling threw: SyntaxError: invalid for/in left-hand side

tryItOut 671

tryItOut 672
Compiling threw: SyntaxError: missing } after let block

tryItOut 673
Compiling threw: TypeError: redeclaration of variable constructor

tryItOut 674

tryItOut 675
Running threw: ReferenceError: Exception is not defined

tryItOut 676
Compiling threw: SyntaxError: missing ) after condition

tryItOut 677

tryItOut 678
It's an iterator!
Iterating succeeded, iterCount == 1

tryItOut 679
It's an iterator!
Iterating threw!
Iterating threw: ReferenceError: reference to undefined XML name *

tryItOut 680
Running threw: ReferenceError: z2 is not defined

tryItOut 681
Compiling threw: SyntaxError: invalid assignment left-hand side

tryItOut 682

tryItOut 683
It's an iterator!
Iterating succeeded, iterCount == 1

tryItOut 684

tryItOut 685
It's an iterator!
Iterating succeeded, iterCount == 2

tryItOut 686

tryItOut 687
Compiling threw: SyntaxError: syntax error

tryItOut 688

tryItOut 689
Compiling threw: SyntaxError: missing ) in parenthetical

tryItOut 690
It's an iterator!
Iterating threw!
Iterating threw: ReferenceError: reference to undefined XML name *::*

tryItOut 691
Compiling threw: SyntaxError: missing name in export statement

tryItOut 692

tryItOut 693
Compiling threw: SyntaxError: missing ; before statement

tryItOut 694

tryItOut 695

tryItOut 696

tryItOut 697
Compiling threw: SyntaxError: missing { before function body

tryItOut 698
Compiling threw: SyntaxError: missing { before function body

tryItOut 699
It's an iterator!
Iterating threw!
Iterating threw: TypeError: __count__ has no properties

tryItOut 700
Compiling threw: SyntaxError: syntax error

tryItOut 701

tryItOut 702
It's an iterator!
Iterating threw!
Iterating threw: ReferenceError: window is not defined

tryItOut 703

tryItOut 704
It's an iterator!
Iterating succeeded, iterCount == 1

tryItOut 705

tryItOut 706

tryItOut 707
Compiling threw: SyntaxError: missing ; before statement

tryItOut 708

tryItOut 709
It's an iterator!
Iterating succeeded, iterCount == 1

tryItOut 710
It's an iterator!
Iterating succeeded, iterCount == 1

tryItOut 711
Compiling threw: SyntaxError: missing ] after element list

tryItOut 712

tryItOut 713
Compiling threw: SyntaxError: syntax error

tryItOut 714
Compiling threw: SyntaxError: invalid assignment left-hand side

tryItOut 715

tryItOut 716

tryItOut 717
Compiling threw: SyntaxError: invalid for/in left-hand side

tryItOut 718
Compiling threw: SyntaxError: missing ; before statement

tryItOut 719
Running threw: [object StopIteration]

tryItOut 720
It's an iterator!
Iterating threw!
Iterating threw: ReferenceError: __iterator__ is not defined

tryItOut 721
Compiling threw: SyntaxError: invalid for/in left-hand side

tryItOut 722

tryItOut 723
Compiling threw: SyntaxError: missing ) in parenthetical

tryItOut 724
Compiling threw: SyntaxError: syntax error

tryItOut 725
Compiling threw: SyntaxError: invalid property id

tryItOut 726

tryItOut 727

tryItOut 728
It's an iterator!
Iterating succeeded, iterCount == 1

tryItOut 729
Compiling threw: SyntaxError: invalid for/in left-hand side

tryItOut 730

tryItOut 731
Compiling threw: SyntaxError: invalid for/in left-hand side

tryItOut 732

tryItOut 733
Compiling threw: SyntaxError: missing = in destructuring declaration

tryItOut 734
Compiling threw: SyntaxError: missing { before function body

tryItOut 735

tryItOut 736
It's an iterator!
Iterating threw!
Iterating threw: ReferenceError: window is not defined

tryItOut 737
Compiling threw: SyntaxError: missing ) in parenthetical

tryItOut 738
Running threw: ReferenceError: reference to undefined XML name @foo

tryItOut 739
It's an iterator!
Iterating succeeded, iterCount == 0

tryItOut 740

tryItOut 741

tryItOut 742
Compiling threw: SyntaxError: missing ; before statement

tryItOut 743
Compiling threw: SyntaxError: missing { before function body

tryItOut 744
Compiling threw: SyntaxError: invalid for/in left-hand side

tryItOut 745

tryItOut 746

tryItOut 747

tryItOut 748
Compiling threw: SyntaxError: invalid XML name

tryItOut 749

tryItOut 750
Running threw: ReferenceError: z2 is not defined

tryItOut 751
Compiling threw: SyntaxError: invalid assignment left-hand side

tryItOut 752
Compiling threw: SyntaxError: missing name in export statement

tryItOut 753

tryItOut 754
Compiling threw: SyntaxError: syntax error

tryItOut 755
Compiling threw: SyntaxError: syntax error

tryItOut 756

tryItOut 757

tryItOut 758

tryItOut 759

tryItOut 760
Running threw: [object StopIteration]

tryItOut 761
Compiling threw: SyntaxError: missing exponent

tryItOut 762
Compiling threw: SyntaxError: syntax error

tryItOut 763

tryItOut 764
Compiling threw: SyntaxError: syntax error

tryItOut 765
Compiling threw: SyntaxError: missing ; after for-loop initializer

tryItOut 766
It's an iterator!
Iterating succeeded, iterCount == 2

tryItOut 767
It's an iterator!
Iterating threw!
Iterating threw: 

tryItOut 768
Running threw: ReferenceError: reference to undefined XML name @mozilla.org/js/function::prototype

tryItOut 769
Compiling threw: SyntaxError: invalid for/in left-hand side

tryItOut 770
Compiling threw: SyntaxError: syntax error

tryItOut 771
Compiling threw: SyntaxError: missing variable name

tryItOut 772

tryItOut 773

tryItOut 774

tryItOut 775

tryItOut 776
Running threw: function Object() {
    [native code]
}

tryItOut 777
Compiling threw: SyntaxError: missing } after let block

tryItOut 778
Compiling threw: SyntaxError: missing variable name

tryItOut 779
It's an iterator!
Iterating threw!
Iterating threw: TypeError: /x/ is not a constructor

tryItOut 780

tryItOut 781

tryItOut 782
Compiling threw: SyntaxError: invalid for/in left-hand side

tryItOut 783
Compiling threw: SyntaxError: missing ) in parenthetical

tryItOut 784
It's an iterator!
Iterating succeeded, iterCount == 1

tryItOut 785
Compiling threw: SyntaxError: missing ] after element list

tryItOut 786

tryItOut 787

tryItOut 788
Compiling threw: SyntaxError: missing ; before statement

tryItOut 789

tryItOut 790
Running threw: ReferenceError: z1 is not defined

tryItOut 791
Compiling threw: SyntaxError: missing variable name

tryItOut 792
Compiling threw: SyntaxError: missing variable name

tryItOut 793
Compiling threw: SyntaxError: invalid assignment left-hand side

tryItOut 794

tryItOut 795

tryItOut 796
It's an iterator!
Iterating threw!
Iterating threw: TypeError: this.zzz has no properties

tryItOut 797
Compiling threw: SyntaxError: syntax error

tryItOut 798

tryItOut 799
Compiling threw: SyntaxError: missing { before function body

tryItOut 800
Compiling threw: SyntaxError: missing ] after element list

tryItOut 801
Compiling threw: SyntaxError: invalid for/in left-hand side

tryItOut 802
It's an iterator!
Iterating succeeded, iterCount == 0

tryItOut 803
Compiling threw: SyntaxError: missing ) in parenthetical

tryItOut 804
It's an iterator!
Iterating threw!
Iterating threw: ReferenceError: reference to undefined XML name @foo

tryItOut 805
Compiling threw: SyntaxError: syntax error

tryItOut 806

tryItOut 807

tryItOut 808
Compiling threw: SyntaxError: syntax error

tryItOut 809
Compiling threw: SyntaxError: invalid assignment left-hand side

tryItOut 810

tryItOut 811

tryItOut 812

tryItOut 813
Compiling threw: SyntaxError: invalid for/in left-hand side

tryItOut 814
Compiling threw: SyntaxError: missing { before function body

tryItOut 815
Running threw: TypeError: can't convert this to number

tryItOut 816

tryItOut 817

tryItOut 818

tryItOut 819
Running threw: [object StopIteration]

tryItOut 820
It's an iterator!
Iterating succeeded, iterCount == 1

tryItOut 821
Running threw: ReferenceError: z1 is not defined

tryItOut 822
Running threw: ReferenceError: z1 is not defined

tryItOut 823
Running threw: ReferenceError: window is not defined

tryItOut 824
Compiling threw: SyntaxError: missing { before function body

tryItOut 825
It's an iterator!
Iterating threw!
Iterating threw: ReferenceError: reference to undefined XML name *

tryItOut 826
Compiling threw: SyntaxError: missing ; before statement

tryItOut 827

tryItOut 828
It's an iterator!
Iterating succeeded, iterCount == 1

tryItOut 829
Compiling threw: SyntaxError: invalid for/in left-hand side

tryItOut 830

tryItOut 831

tryItOut 832

tryItOut 833
It's an iterator!
Iterating succeeded, iterCount == 1

tryItOut 834
Compiling threw: TypeError: redeclaration of variable __iterator__

tryItOut 835

tryItOut 836
Compiling threw: SyntaxError: missing = in destructuring declaration

tryItOut 837

tryItOut 838
Running threw: [object StopIteration]

tryItOut 839
Compiling threw: SyntaxError: invalid for/in left-hand side

tryItOut 840
Compiling threw: SyntaxError: invalid for/in left-hand side

tryItOut 841

tryItOut 842

tryItOut 843
It's an iterator!
Iterating succeeded, iterCount == 1

tryItOut 844
It's an iterator!
Iterating succeeded, iterCount == 1

tryItOut 845
Compiling threw: SyntaxError: missing { before function body

tryItOut 846

tryItOut 847

tryItOut 848
Compiling threw: SyntaxError: syntax error

tryItOut 849
Running threw: TypeError: prop.__lookupGetter__("prop") has no properties

tryItOut 850

tryItOut 851
It's an iterator!
Iterating succeeded, iterCount == 1

tryItOut 852

tryItOut 853

tryItOut 854
Compiling threw: SyntaxError: missing variable name

tryItOut 855
Compiling threw: SyntaxError: syntax error

tryItOut 856
It's an iterator!
Iterating threw!
Iterating threw: ReferenceError: window is not defined

tryItOut 857
Running threw: ReferenceError: window is not defined

tryItOut 858

tryItOut 859
Compiling threw: SyntaxError: syntax error

tryItOut 860
Compiling threw: SyntaxError: invalid for/in left-hand side

tryItOut 861
Compiling threw: SyntaxError: missing ) in parenthetical

tryItOut 862
It's an iterator!
Iterating succeeded, iterCount == 1

tryItOut 863
Compiling threw: SyntaxError: missing ; before statement

tryItOut 864
Compiling threw: SyntaxError: syntax error

tryItOut 865

tryItOut 866
Compiling threw: SyntaxError: syntax error

tryItOut 867

tryItOut 868
Compiling threw: SyntaxError: syntax error

tryItOut 869
Compiling threw: SyntaxError: missing variable name

tryItOut 870

tryItOut 871
Compiling threw: SyntaxError: missing { before function body

tryItOut 872
Compiling threw: SyntaxError: syntax error

tryItOut 873
Compiling threw: SyntaxError: unterminated comment

tryItOut 874
Compiling threw: SyntaxError: invalid for/in left-hand side

tryItOut 875
Compiling threw: SyntaxError: syntax error

tryItOut 876
Compiling threw: SyntaxError: missing formal parameter

tryItOut 877

tryItOut 878

tryItOut 879
Compiling threw: SyntaxError: missing ] after element list

tryItOut 880
Compiling threw: SyntaxError: missing ] after element list

tryItOut 881

tryItOut 882

tryItOut 883
Running threw: ReferenceError: reference to undefined XML name @foo

tryItOut 884
It's an iterator!
Iterating threw!
Iterating threw: ReferenceError: __iterator__ is not defined

tryItOut 885

tryItOut 886

tryItOut 887
Compiling threw: SyntaxError: syntax error

tryItOut 888
Running threw: ReferenceError: window is not defined

tryItOut 889
It's an iterator!
Iterating succeeded, iterCount == 1

tryItOut 890
Compiling threw: SyntaxError: syntax error

tryItOut 891
It's an iterator!
Iterating succeeded, iterCount == 0

tryItOut 892

tryItOut 893

tryItOut 894
Compiling threw: SyntaxError: missing ) in parenthetical

tryItOut 895
Compiling threw: SyntaxError: missing ; before statement

tryItOut 896

tryItOut 897
Running threw: ReferenceError: reference to undefined XML name *::*

tryItOut 898
Compiling threw: SyntaxError: missing ) in parenthetical

tryItOut 899
Compiling threw: SyntaxError: invalid for/in left-hand side

tryItOut 900
Compiling threw: SyntaxError: invalid label

tryItOut 901
Compiling threw: SyntaxError: invalid for/in left-hand side

tryItOut 902

tryItOut 903
Compiling threw: TypeError: redeclaration of const prototype

tryItOut 904

tryItOut 905
It's an iterator!
Iterating succeeded, iterCount == 0

tryItOut 906
Running threw: ReferenceError: window is not defined

tryItOut 907
Running threw: TypeError: this.zzz has no properties

tryItOut 908
Compiling threw: SyntaxError: syntax error

tryItOut 909
It's an iterator!
Iterating threw!
Iterating threw: ReferenceError: window is not defined

tryItOut 910
Compiling threw: SyntaxError: missing ] after element list

tryItOut 911
Running threw: TypeError: false is not a function

tryItOut 912

tryItOut 913
Compiling threw: SyntaxError: syntax error

tryItOut 914
Compiling threw: SyntaxError: syntax error

tryItOut 915
It's an iterator!
Iterating succeeded, iterCount == 0

tryItOut 916
It's an iterator!
Iterating succeeded, iterCount == 1

tryItOut 917
Compiling threw: SyntaxError: missing : after property id

tryItOut 918
Compiling threw: SyntaxError: invalid assignment left-hand side

tryItOut 919
Compiling threw: SyntaxError: missing } after let block

tryItOut 920
It's an iterator!
Iterating threw!
Iterating threw: ReferenceError: z1 is not defined

tryItOut 921
Compiling threw: SyntaxError: missing ) after for-loop control

tryItOut 922
Compiling threw: SyntaxError: syntax error

tryItOut 923

tryItOut 924

tryItOut 925
Compiling threw: SyntaxError: invalid increment operand

tryItOut 926
Compiling threw: SyntaxError: illegal character

tryItOut 927
It's an iterator!
Iterating succeeded, iterCount == 1

tryItOut 928
Compiling threw: SyntaxError: missing { before function body

tryItOut 929
Compiling threw: SyntaxError: missing ) after for-loop control

tryItOut 930

tryItOut 931
Compiling threw: SyntaxError: syntax error

tryItOut 932
It's an iterator!
Iterating threw!
Iterating threw: ReferenceError: z1 is not defined

tryItOut 933
It's an iterator!
Iterating threw!
Iterating threw: TypeError: can't convert this to primitive type

tryItOut 934
It's an iterator!
Iterating threw!
Iterating threw: TypeError: 0.1 is not a function

tryItOut 935
Running threw: function Object() {
    [native code]
}

tryItOut 936

tryItOut 937
Compiling threw: SyntaxError: syntax error

tryItOut 938
Running threw: ReferenceError: reference to undefined XML name *::*

tryItOut 939

tryItOut 940
It's an iterator!
Iterating succeeded, iterCount == 1

tryItOut 941

tryItOut 942

tryItOut 943
Compiling threw: SyntaxError: invalid assignment left-hand side

tryItOut 944
Compiling threw: SyntaxError: invalid for/in left-hand side

tryItOut 945

tryItOut 946
Compiling threw: SyntaxError: syntax error

tryItOut 947
Compiling threw: TypeError: generator function anonymous returns a value

tryItOut 948
Compiling threw: SyntaxError: missing variable name

tryItOut 949

tryItOut 950
Running threw: TypeError: __noSuchMethod__ has no properties

tryItOut 951
Compiling threw: SyntaxError: missing { before function body

tryItOut 952
Running threw: ReferenceError: reference to undefined XML name @foo

tryItOut 953
Compiling threw: SyntaxError: syntax error

tryItOut 954
Compiling threw: SyntaxError: invalid for/in left-hand side

tryItOut 955
Compiling threw: SyntaxError: invalid for/in left-hand side

tryItOut 956
Compiling threw: SyntaxError: missing ( before formal parameters

tryItOut 957

tryItOut 958
Compiling threw: SyntaxError: invalid for/in left-hand side

tryItOut 959
Compiling threw: SyntaxError: syntax error

tryItOut 960
Compiling threw: SyntaxError: invalid assignment left-hand side

tryItOut 961
It's an iterator!
Iterating succeeded, iterCount == 1

tryItOut 962
Compiling threw: SyntaxError: missing { before function body

tryItOut 963
Compiling threw: SyntaxError: invalid assignment left-hand side

tryItOut 964

tryItOut 965
Compiling threw: SyntaxError: missing ) in parenthetical

tryItOut 966
Compiling threw: SyntaxError: invalid for/in left-hand side

tryItOut 967
Compiling threw: TypeError: redeclaration of const __count__

tryItOut 968

tryItOut 969

tryItOut 970
Compiling threw: SyntaxError: missing ) in parenthetical

tryItOut 971
Compiling threw: SyntaxError: missing ) after condition

tryItOut 972
It's an iterator!
Iterating succeeded, iterCount == 1

tryItOut 973
Compiling threw: SyntaxError: syntax error

tryItOut 974

tryItOut 975
It's an iterator!
Iterating threw!
Iterating threw: Error: invalid sharp variable use #1#

tryItOut 976
Compiling threw: SyntaxError: syntax error

tryItOut 977
Compiling threw: SyntaxError: missing { before function body

tryItOut 978

tryItOut 979
Compiling threw: SyntaxError: missing variable name

tryItOut 980

tryItOut 981
It's an iterator!
Iterating succeeded, iterCount == 1

tryItOut 982

tryItOut 983
Compiling threw: SyntaxError: invalid for/in left-hand side

tryItOut 984
Running threw: ReferenceError: z1 is not defined

tryItOut 985
Compiling threw: SyntaxError: invalid for/in left-hand side

tryItOut 986
Running threw: ReferenceError: window is not defined

tryItOut 987
Compiling threw: SyntaxError: invalid assignment left-hand side

tryItOut 988
It's an iterator!
Iterating succeeded, iterCount == 1

tryItOut 989

tryItOut 990

tryItOut 991

tryItOut 992

tryItOut 993
Compiling threw: SyntaxError: invalid sharp variable definition

tryItOut 994
Compiling threw: SyntaxError: missing : after property id

tryItOut 995
Compiling threw: SyntaxError: missing variable name

tryItOut 996

tryItOut 997
Compiling threw: SyntaxError: missing variable name

tryItOut 998
Compiling threw: SyntaxError: missing } after let block

tryItOut 999
Compiling threw: SyntaxError: syntax error

tryItOut 1000
It's an iterator!
Iterating threw!
Iterating threw: ReferenceError: reference to undefined XML name @foo

ALL OK

Script done on Sat 04 May 2013 08:08:44 AM PDT
