Script started on Sat 04 May 2013 08:09:23 AM PDT
***
Targeting SpiderMonkey / Gecko.

tryItOut 1

tryItOut 2

tryItOut 3
Compiling threw: SyntaxError: missing : after property id

tryItOut 4
Compiling threw: SyntaxError: syntax error

tryItOut 5
Running threw: ReferenceError: __noSuchMethod__ is not defined

tryItOut 6
Compiling threw: SyntaxError: syntax error

tryItOut 7
Compiling threw: SyntaxError: missing ) after catch

tryItOut 8
Compiling threw: SyntaxError: missing ( before let head

tryItOut 9

tryItOut 10
It's an iterator!
Iterating succeeded, iterCount == 2

tryItOut 11

tryItOut 12
Compiling threw: SyntaxError: missing name after . operator

tryItOut 13
Compiling threw: SyntaxError: invalid for/in left-hand side

tryItOut 14
Compiling threw: SyntaxError: syntax error

tryItOut 15
Compiling threw: SyntaxError: missing } after let block

tryItOut 16
Compiling threw: SyntaxError: missing } after let block

tryItOut 17
Compiling threw: SyntaxError: syntax error

tryItOut 18
Compiling threw: SyntaxError: missing } in compound statement

tryItOut 19
Compiling threw: SyntaxError: missing ; after for-loop initializer

tryItOut 20
Compiling threw: SyntaxError: syntax error

tryItOut 21
Compiling threw: SyntaxError: missing { before function body

tryItOut 22
Compiling threw: TypeError: redeclaration of variable __iterator__

tryItOut 23

tryItOut 24
Compiling threw: TypeError: redeclaration of var prop

tryItOut 25
Compiling threw: SyntaxError: invalid for/in left-hand side

tryItOut 26

tryItOut 27

tryItOut 28
Running threw: <y>
  <z/>
</y>

tryItOut 29
Compiling threw: SyntaxError: missing formal parameter

tryItOut 30
Compiling threw: SyntaxError: syntax error

tryItOut 31
It's an iterator!
Iterating succeeded, iterCount == 1

tryItOut 32
Compiling threw: SyntaxError: missing { before function body

tryItOut 33

tryItOut 34
Compiling threw: SyntaxError: syntax error

tryItOut 35

tryItOut 36
Compiling threw: SyntaxError: missing ; before statement

tryItOut 37
Running threw: ReferenceError: __noSuchMethod__ is not defined

tryItOut 38

tryItOut 39
Compiling threw: SyntaxError: missing { before function body

tryItOut 40
Running threw: function ([y]) {
}

tryItOut 41
Compiling threw: SyntaxError: missing ) in parenthetical

tryItOut 42

tryItOut 43

tryItOut 44

tryItOut 45
Compiling threw: SyntaxError: syntax error

tryItOut 46

tryItOut 47
Compiling threw: SyntaxError: missing ) in parenthetical

tryItOut 48

tryItOut 49
Compiling threw: SyntaxError: syntax error

tryItOut 50
Compiling threw: SyntaxError: missing variable name

tryItOut 51
It's an iterator!
Iterating succeeded, iterCount == 4

tryItOut 52

tryItOut 53
Compiling threw: SyntaxError: invalid for/in left-hand side

tryItOut 54

tryItOut 55
Compiling threw: SyntaxError: missing ) in parenthetical

tryItOut 56
Compiling threw: SyntaxError: missing { before function body

tryItOut 57
Compiling threw: SyntaxError: syntax error

tryItOut 58
Compiling threw: SyntaxError: invalid assignment left-hand side

tryItOut 59
Compiling threw: SyntaxError: missing ) after condition

tryItOut 60
It's an iterator!
Iterating succeeded, iterCount == 1

tryItOut 61
It's an iterator!
Iterating threw!
Iterating threw: TypeError: <x/> is not a constructor

tryItOut 62
It's an iterator!
Iterating succeeded, iterCount == 1

tryItOut 63

tryItOut 64

tryItOut 65
Compiling threw: SyntaxError: missing ) in parenthetical

tryItOut 66
Compiling threw: SyntaxError: invalid for/in left-hand side

tryItOut 67
Compiling threw: SyntaxError: missing name after . operator

tryItOut 68
Compiling threw: SyntaxError: missing formal parameter

tryItOut 69
Compiling threw: TypeError: generator function anonymous returns a value

tryItOut 70
Compiling threw: SyntaxError: invalid assignment left-hand side

tryItOut 71

tryItOut 72
Compiling threw: SyntaxError: syntax error

tryItOut 73
It's an iterator!
Iterating succeeded, iterCount == 1

tryItOut 74
Compiling threw: SyntaxError: missing { before function body

tryItOut 75
It's an iterator!
Iterating succeeded, iterCount == 0

tryItOut 76
Running threw: ReferenceError: z1 is not defined

tryItOut 77

tryItOut 78

tryItOut 79
Compiling threw: SyntaxError: missing ; before statement

tryItOut 80
Compiling threw: SyntaxError: invalid assignment left-hand side

tryItOut 81
It's an iterator!
Iterating threw!
Iterating threw: ReferenceError: z1 is not defined

tryItOut 82
Compiling threw: SyntaxError: syntax error

tryItOut 83

tryItOut 84
Running threw: ReferenceError: __noSuchMethod__ is not defined

tryItOut 85
Compiling threw: SyntaxError: missing ; before statement

tryItOut 86

tryItOut 87
It's an iterator!
Iterating succeeded, iterCount == 1

tryItOut 88
before 104640, after 104640, break 02134000
before 104640, after 104640, break 02134000
before 104640, after 104640, break 02134000
Running threw: false

tryItOut 89

tryItOut 90
Compiling threw: SyntaxError: syntax error

tryItOut 91

tryItOut 92
Compiling threw: SyntaxError: invalid assignment left-hand side

tryItOut 93
Compiling threw: SyntaxError: missing ; before statement

tryItOut 94
Compiling threw: SyntaxError: syntax error

tryItOut 95

tryItOut 96
Compiling threw: SyntaxError: syntax error

tryItOut 97
Compiling threw: SyntaxError: missing variable name

tryItOut 98

tryItOut 99
Compiling threw: SyntaxError: invalid increment operand

tryItOut 100
It's an iterator!
Iterating threw!
Iterating threw: ReferenceError: z1 is not defined

tryItOut 101
Compiling threw: SyntaxError: missing ) in parenthetical

tryItOut 102
Compiling threw: TypeError: redeclaration of const __noSuchMethod__

tryItOut 103

tryItOut 104

tryItOut 105

tryItOut 106

tryItOut 107
It's an iterator!
Iterating succeeded, iterCount == 1

tryItOut 108

tryItOut 109
Compiling threw: TypeError: redeclaration of variable prop

tryItOut 110
Compiling threw: SyntaxError: missing { before function body

tryItOut 111
It's an iterator!
Iterating threw!
Iterating threw: SyntaxError: invalid assignment left-hand side

tryItOut 112

tryItOut 113

tryItOut 114
It's an iterator!
Iterating succeeded, iterCount == 1

tryItOut 115
Compiling threw: SyntaxError: missing ) in parenthetical

tryItOut 116

tryItOut 117
Compiling threw: TypeError: generator function anonymous returns a value

tryItOut 118
Compiling threw: SyntaxError: missing ; before statement

tryItOut 119

tryItOut 120
Compiling threw: SyntaxError: missing variable name

tryItOut 121

tryItOut 122
Compiling threw: SyntaxError: syntax error

tryItOut 123

tryItOut 124

tryItOut 125
Compiling threw: SyntaxError: syntax error

tryItOut 126

tryItOut 127
Compiling threw: SyntaxError: invalid for/in left-hand side

tryItOut 128

tryItOut 129
Compiling threw: SyntaxError: invalid for/in left-hand side

tryItOut 130

tryItOut 131

tryItOut 132
Compiling threw: TypeError: generator function anonymous returns a value

tryItOut 133
Compiling threw: SyntaxError: invalid for/in left-hand side

tryItOut 134

tryItOut 135
It's an iterator!
Iterating succeeded, iterCount == 1

tryItOut 136
Compiling threw: SyntaxError: missing variable name

tryItOut 137

tryItOut 138

tryItOut 139
Compiling threw: SyntaxError: syntax error

tryItOut 140

tryItOut 141
It's an iterator!
Iterating succeeded, iterCount == 1

tryItOut 142

tryItOut 143
Compiling threw: SyntaxError: invalid assignment left-hand side

tryItOut 144
Compiling threw: SyntaxError: missing ) in parenthetical

tryItOut 145

tryItOut 146

tryItOut 147
Compiling threw: SyntaxError: invalid assignment left-hand side

tryItOut 148

tryItOut 149
Compiling threw: SyntaxError: invalid for/in left-hand side

tryItOut 150

tryItOut 151

tryItOut 152

tryItOut 153
Compiling threw: SyntaxError: missing variable name

tryItOut 154

tryItOut 155
Running threw: TypeError: undefined has no properties

tryItOut 156

tryItOut 157

tryItOut 158

tryItOut 159
Compiling threw: SyntaxError: duplicate label

tryItOut 160

tryItOut 161
Compiling threw: SyntaxError: missing variable name

tryItOut 162
Compiling threw: SyntaxError: invalid assignment left-hand side

tryItOut 163

tryItOut 164
Compiling threw: SyntaxError: missing ; before statement

tryItOut 165
It's an iterator!
Iterating threw!
Iterating threw: ReferenceError: z1 is not defined

tryItOut 166

tryItOut 167
Compiling threw: SyntaxError: syntax error

tryItOut 168

tryItOut 169
Compiling threw: SyntaxError: missing variable name

tryItOut 170
Compiling threw: SyntaxError: invalid assignment left-hand side

tryItOut 171

tryItOut 172

tryItOut 173
before 122080, after 122080, break 02151000

tryItOut 174
Running threw: [object Object]

tryItOut 175
Running threw: ReferenceError: z1 is not defined

tryItOut 176

tryItOut 177

tryItOut 178
Compiling threw: SyntaxError: missing { before function body

tryItOut 179
Compiling threw: SyntaxError: invalid assignment left-hand side

tryItOut 180
Compiling threw: SyntaxError: syntax error

tryItOut 181

tryItOut 182
before 122080, after 122080, break 02151000

tryItOut 183
Compiling threw: SyntaxError: invalid variable initialization

tryItOut 184
Compiling threw: SyntaxError: invalid for/in left-hand side

tryItOut 185
Running threw: TypeError: undefined has no properties

tryItOut 186

tryItOut 187

tryItOut 188
Compiling threw: SyntaxError: missing } after let block

tryItOut 189
It's an iterator!
Iterating succeeded, iterCount == 1

tryItOut 190
Compiling threw: SyntaxError: syntax error

tryItOut 191

tryItOut 192

tryItOut 193

tryItOut 194
Running threw: TypeError: true is not a constructor

tryItOut 195
Compiling threw: SyntaxError: syntax error

tryItOut 196
Compiling threw: SyntaxError: missing variable name

tryItOut 197
Compiling threw: SyntaxError: missing ; before statement

tryItOut 198

tryItOut 199

tryItOut 200
Compiling threw: SyntaxError: invalid for/in left-hand side

tryItOut 201
It's an iterator!
Iterating succeeded, iterCount == 1

tryItOut 202
Compiling threw: SyntaxError: syntax error

tryItOut 203
Compiling threw: SyntaxError: missing ) after switch expression

tryItOut 204
Compiling threw: TypeError: redeclaration of variable __proto__

tryItOut 205

tryItOut 206

tryItOut 207

tryItOut 208
Running threw: TypeError: p.z = undefined is not a function

tryItOut 209
Compiling threw: SyntaxError: syntax error

tryItOut 210
Running threw: ReferenceError: z1 is not defined

tryItOut 211
It's an iterator!
Iterating threw!
Iterating threw: TypeError: this.zzz has no properties

tryItOut 212
Compiling threw: SyntaxError: invalid for/in left-hand side

tryItOut 213
It's an iterator!
Iterating succeeded, iterCount == 2

tryItOut 214
Compiling threw: SyntaxError: invalid for/in left-hand side

tryItOut 215
It's an iterator!
Iterating succeeded, iterCount == 1

tryItOut 216
Compiling threw: SyntaxError: missing ) in parenthetical

tryItOut 217

tryItOut 218
Running threw: <y>
  <z/>
</y>

tryItOut 219
Compiling threw: SyntaxError: missing ) after argument list

tryItOut 220
Compiling threw: SyntaxError: missing { before function body

tryItOut 221
It's an iterator!
Iterating succeeded, iterCount == 3

tryItOut 222
It's an iterator!
Iterating succeeded, iterCount == 1

tryItOut 223
It's an iterator!
Iterating succeeded, iterCount == 1

tryItOut 224

tryItOut 225
It's an iterator!
Iterating succeeded, iterCount == 1

tryItOut 226
It's an iterator!
Iterating succeeded, iterCount == 1

tryItOut 227

tryItOut 228
Running threw: ReferenceError: z1 is not defined

tryItOut 229
Compiling threw: SyntaxError: invalid decrement operand

tryItOut 230

tryItOut 231
Compiling threw: SyntaxError: missing ) in parenthetical

tryItOut 232

tryItOut 233

tryItOut 234
Running threw: 1

tryItOut 235
Compiling threw: SyntaxError: syntax error

tryItOut 236
Running threw: function anonymous() {
}

tryItOut 237
Compiling threw: SyntaxError: syntax error

tryItOut 238
Compiling threw: SyntaxError: invalid for/in left-hand side

tryItOut 239

tryItOut 240

tryItOut 241

tryItOut 242

tryItOut 243
It's an iterator!
Iterating threw!
Iterating threw: ReferenceError: __noSuchMethod__ is not defined

tryItOut 244
It's an iterator!
Iterating threw!
Iterating threw: ReferenceError: z1 is not defined

tryItOut 245
It's an iterator!
Iterating succeeded, iterCount == 1

tryItOut 246
Compiling threw: SyntaxError: missing formal parameter

tryItOut 247

tryItOut 248
Running threw: null

tryItOut 249

tryItOut 250
It's an iterator!
Iterating succeeded, iterCount == 1

tryItOut 251
Compiling threw: SyntaxError: missing ; before statement

tryItOut 252
Compiling threw: SyntaxError: invalid assignment left-hand side

tryItOut 253

tryItOut 254

tryItOut 255
Compiling threw: SyntaxError: missing { before function body

tryItOut 256
It's an iterator!
Iterating succeeded, iterCount == 1

tryItOut 257
Compiling threw: SyntaxError: missing ; before statement

tryItOut 258
Compiling threw: SyntaxError: syntax error

tryItOut 259

tryItOut 260
Compiling threw: SyntaxError: invalid assignment left-hand side

tryItOut 261
Compiling threw: SyntaxError: syntax error

tryItOut 262
Running threw: 0

tryItOut 263
It's an iterator!
Iterating succeeded, iterCount == 2

tryItOut 264
Compiling threw: SyntaxError: invalid for/in left-hand side

tryItOut 265
Compiling threw: SyntaxError: missing variable name

tryItOut 266
It's an iterator!
Iterating succeeded, iterCount == 0

tryItOut 267
Running threw: ReferenceError: __noSuchMethod__ is not defined

tryItOut 268
Running threw: TypeError: null has no properties

tryItOut 269
Compiling threw: SyntaxError: invalid for/in left-hand side

tryItOut 270
Compiling threw: SyntaxError: missing } after let block

tryItOut 271

tryItOut 272
It's an iterator!
Iterating succeeded, iterCount == 4

tryItOut 273

tryItOut 274

tryItOut 275
Compiling threw: SyntaxError: invalid decrement operand

tryItOut 276

tryItOut 277

tryItOut 278

tryItOut 279
Compiling threw: SyntaxError: catch without try

tryItOut 280
Compiling threw: SyntaxError: syntax error

tryItOut 281

tryItOut 282

tryItOut 283
Compiling threw: SyntaxError: missing ) in parenthetical

tryItOut 284
It's an iterator!
Iterating succeeded, iterCount == 2

tryItOut 285
Running threw: ReferenceError: z2 is not defined

tryItOut 286
Running threw: <y>
  <z/>
</y>

tryItOut 287
Compiling threw: SyntaxError: invalid increment operand

tryItOut 288
It's an iterator!
Iterating succeeded, iterCount == 2

tryItOut 289

tryItOut 290
Compiling threw: SyntaxError: syntax error

tryItOut 291
Compiling threw: SyntaxError: invalid for/in left-hand side

tryItOut 292

tryItOut 293
Compiling threw: TypeError: redeclaration of variable prop

tryItOut 294

tryItOut 295

tryItOut 296
Running threw: 

tryItOut 297
It's an iterator!
Iterating succeeded, iterCount == 1

tryItOut 298
Compiling threw: SyntaxError: invalid assignment left-hand side

tryItOut 299

tryItOut 300

tryItOut 301
Compiling threw: SyntaxError: invalid increment operand

tryItOut 302

tryItOut 303

tryItOut 304
Compiling threw: SyntaxError: missing variable name

tryItOut 305
Compiling threw: SyntaxError: syntax error

tryItOut 306

tryItOut 307
It's an iterator!
Iterating succeeded, iterCount == 1

tryItOut 308
Compiling threw: SyntaxError: invalid for/in left-hand side

tryItOut 309

tryItOut 310
Compiling threw: SyntaxError: missing ) in parenthetical

tryItOut 311

tryItOut 312
It's an iterator!
Iterating succeeded, iterCount == 1

tryItOut 313
Compiling threw: SyntaxError: invalid assignment left-hand side

tryItOut 314
It's an iterator!
Iterating threw!
Iterating threw: TypeError: arguments[0] has no properties

tryItOut 315
Compiling threw: SyntaxError: missing ) in parenthetical

tryItOut 316
Compiling threw: SyntaxError: invalid assignment left-hand side

tryItOut 317
It's an iterator!
before 174400, after 174400, break 021c5000
Iterating succeeded, iterCount == 1

tryItOut 318
Compiling threw: SyntaxError: syntax error

tryItOut 319
It's an iterator!
Iterating succeeded, iterCount == 1

tryItOut 320
Compiling threw: SyntaxError: missing variable name

tryItOut 321
Compiling threw: TypeError: redeclaration of const prototype

tryItOut 322
Compiling threw: SyntaxError: missing ; before statement

tryItOut 323
Compiling threw: SyntaxError: invalid assignment left-hand side

tryItOut 324
Compiling threw: SyntaxError: syntax error

tryItOut 325

tryItOut 326

tryItOut 327

tryItOut 328

tryItOut 329
Compiling threw: TypeError: generator function anonymous returns a value

tryItOut 330

tryItOut 331

tryItOut 332

tryItOut 333
Compiling threw: SyntaxError: missing { before function body

tryItOut 334

tryItOut 335
Compiling threw: SyntaxError: syntax error

tryItOut 336
Compiling threw: SyntaxError: syntax error

tryItOut 337
Compiling threw: SyntaxError: syntax error

tryItOut 338
It's an iterator!
Iterating succeeded, iterCount == 1

tryItOut 339
Compiling threw: SyntaxError: missing } after let block

tryItOut 340

tryItOut 341
It's an iterator!
Iterating succeeded, iterCount == 4

tryItOut 342
Compiling threw: SyntaxError: syntax error

tryItOut 343
Compiling threw: SyntaxError: invalid default XML namespace

tryItOut 344
Compiling threw: SyntaxError: missing { before function body

tryItOut 345

tryItOut 346
Compiling threw: SyntaxError: syntax error

tryItOut 347

tryItOut 348
Compiling threw: SyntaxError: missing { before function body

tryItOut 349

tryItOut 350

tryItOut 351

tryItOut 352
Compiling threw: SyntaxError: missing variable name

tryItOut 353
Compiling threw: SyntaxError: missing { before function body

tryItOut 354

tryItOut 355

tryItOut 356
It's an iterator!
Iterating succeeded, iterCount == 1

tryItOut 357
Compiling threw: SyntaxError: missing ; after for-loop initializer

tryItOut 358
Compiling threw: SyntaxError: syntax error

tryItOut 359
Compiling threw: SyntaxError: missing { before function body

tryItOut 360
Compiling threw: SyntaxError: invalid for/in left-hand side

tryItOut 361

tryItOut 362
Running threw: SyntaxError: invalid setter usage

tryItOut 363

tryItOut 364
Running threw: TypeError: this.zzz has no properties

tryItOut 365
It's an iterator!
Iterating threw!
Iterating threw: TypeError: __iterator__ is not a constructor

tryItOut 366

tryItOut 367
Compiling threw: SyntaxError: invalid assignment left-hand side

tryItOut 368

tryItOut 369
It's an iterator!
Iterating succeeded, iterCount == 1

tryItOut 370

tryItOut 371
Compiling threw: TypeError: redeclaration of variable __iterator__

tryItOut 372
Compiling threw: SyntaxError: missing variable name

tryItOut 373
It's an iterator!
Iterating succeeded, iterCount == 0

tryItOut 374
Compiling threw: SyntaxError: missing ; before statement

tryItOut 375
Compiling threw: SyntaxError: missing ; before statement

tryItOut 376
It's an iterator!
Iterating threw!
Iterating threw: 1

tryItOut 377
It's an iterator!
Iterating threw!
Iterating threw: Error: invalid sharp variable use #1#

tryItOut 378

tryItOut 379
Running threw: TypeError: constructor has no properties

tryItOut 380
It's an iterator!
Iterating succeeded, iterCount == 1

tryItOut 381

tryItOut 382
Compiling threw: SyntaxError: syntax error

tryItOut 383
Compiling threw: SyntaxError: missing { before function body

tryItOut 384

tryItOut 385
It's an iterator!
Iterating succeeded, iterCount == 1

tryItOut 386
Compiling threw: SyntaxError: invalid assignment left-hand side

tryItOut 387

tryItOut 388

tryItOut 389
It's an iterator!
Iterating succeeded, iterCount == 0

tryItOut 390

tryItOut 391
Compiling threw: SyntaxError: invalid for/in left-hand side

tryItOut 392
It's an iterator!
Iterating succeeded, iterCount == 1

tryItOut 393
Compiling threw: SyntaxError: invalid default XML namespace

tryItOut 394

tryItOut 395

tryItOut 396

tryItOut 397

tryItOut 398

tryItOut 399

tryItOut 400

tryItOut 401
Compiling threw: TypeError: generator function anonymous returns a value

tryItOut 402
Compiling threw: TypeError: redeclaration of variable __iterator__

tryItOut 403

tryItOut 404

tryItOut 405
Compiling threw: SyntaxError: invalid assignment left-hand side

tryItOut 406
Running threw: [object Object]

tryItOut 407
Compiling threw: SyntaxError: invalid for/in left-hand side

tryItOut 408
Compiling threw: SyntaxError: invalid for/in left-hand side

tryItOut 409

tryItOut 410

tryItOut 411

tryItOut 412
Compiling threw: SyntaxError: syntax error

tryItOut 413

tryItOut 414
Compiling threw: SyntaxError: missing } in compound statement

tryItOut 415

tryItOut 416
Compiling threw: SyntaxError: invalid for/in left-hand side

tryItOut 417

tryItOut 418

tryItOut 419
Compiling threw: SyntaxError: syntax error

tryItOut 420
Running threw: TypeError: redeclaration of var __count__

tryItOut 421

tryItOut 422
Compiling threw: SyntaxError: missing { before function body

tryItOut 423
Running threw: true

tryItOut 424
Running threw: 

tryItOut 425
Running threw: false

tryItOut 426
Compiling threw: SyntaxError: syntax error

tryItOut 427

tryItOut 428
Compiling threw: SyntaxError: syntax error

tryItOut 429

tryItOut 430

tryItOut 431
It's an iterator!
Iterating succeeded, iterCount == 0

tryItOut 432

tryItOut 433
Compiling threw: SyntaxError: syntax error

tryItOut 434

tryItOut 435
Running threw: <y>
  <z/>
</y>

tryItOut 436
Compiling threw: SyntaxError: syntax error

tryItOut 437

tryItOut 438
Compiling threw: SyntaxError: missing { before function body

tryItOut 439
Compiling threw: SyntaxError: missing ; before statement

tryItOut 440

tryItOut 441

tryItOut 442
It's an iterator!
Iterating succeeded, iterCount == 1

tryItOut 443
It's an iterator!
Iterating succeeded, iterCount == 1

tryItOut 444
It's an iterator!
Iterating succeeded, iterCount == 1

tryItOut 445
Compiling threw: SyntaxError: invalid for/in left-hand side

tryItOut 446
It's an iterator!
Iterating threw!
Iterating threw: Error: invalid sharp variable use #1#

tryItOut 447

tryItOut 448

tryItOut 449
Compiling threw: SyntaxError: missing ) in parenthetical

tryItOut 450
Compiling threw: SyntaxError: missing variable name

tryItOut 451

tryItOut 452

tryItOut 453
Compiling threw: SyntaxError: syntax error

tryItOut 454

tryItOut 455

tryItOut 456

tryItOut 457
Compiling threw: SyntaxError: syntax error

tryItOut 458

tryItOut 459

tryItOut 460
Compiling threw: SyntaxError: missing } after let block

tryItOut 461
Compiling threw: SyntaxError: missing } after let block

tryItOut 462
Compiling threw: SyntaxError: missing variable name

tryItOut 463
Compiling threw: SyntaxError: missing { before function body

tryItOut 464
Compiling threw: SyntaxError: invalid assignment left-hand side

tryItOut 465

tryItOut 466
Compiling threw: SyntaxError: missing variable name

tryItOut 467

tryItOut 468

tryItOut 469

tryItOut 470
Compiling threw: SyntaxError: missing { before function body

tryItOut 471
It's an iterator!
Iterating succeeded, iterCount == 1

tryItOut 472

tryItOut 473
Compiling threw: SyntaxError: invalid for/in left-hand side

tryItOut 474
Running threw: TypeError: this.zzz has no properties

tryItOut 475
Running threw: TypeError: p.z = <y><z/></y> is not a function

tryItOut 476
Compiling threw: SyntaxError: missing } after let block

tryItOut 477

tryItOut 478
It's an iterator!
Iterating threw!
Iterating threw: TypeError: redeclaration of var __proto__

tryItOut 479

tryItOut 480
Compiling threw: SyntaxError: missing { before function body

tryItOut 481

tryItOut 482
It's an iterator!
Iterating succeeded, iterCount == 1

tryItOut 483
Running threw: 

tryItOut 484
It's an iterator!
Iterating succeeded, iterCount == 1

tryItOut 485

tryItOut 486

tryItOut 487

tryItOut 488

tryItOut 489

tryItOut 490
Compiling threw: SyntaxError: syntax error

tryItOut 491
Compiling threw: SyntaxError: invalid assignment left-hand side

tryItOut 492
Running threw: TypeError: p.z = __parent__ = <x/> is not a function

tryItOut 493
Compiling threw: SyntaxError: invalid increment operand

tryItOut 494
Compiling threw: SyntaxError: syntax error

tryItOut 495
Running threw: function split() {
    [native code]
}

tryItOut 496
Compiling threw: SyntaxError: syntax error

tryItOut 497
It's an iterator!
Iterating threw!
Iterating threw: TypeError: p.z = #3={, a:#3#} is not a function

tryItOut 498
Compiling threw: SyntaxError: missing ) in parenthetical

tryItOut 499
Compiling threw: SyntaxError: missing ) in parenthetical

tryItOut 500
Compiling threw: SyntaxError: missing variable name

tryItOut 501
It's an iterator!
Iterating threw!
Iterating threw: TypeError: __parent__ has no properties

tryItOut 502

tryItOut 503
Compiling threw: SyntaxError: missing ; before statement

tryItOut 504
Compiling threw: SyntaxError: syntax error

tryItOut 505
It's an iterator!
Iterating succeeded, iterCount == 1

tryItOut 506

tryItOut 507
It's an iterator!
Iterating succeeded, iterCount == 4

tryItOut 508
Compiling threw: SyntaxError: syntax error

tryItOut 509

tryItOut 510

tryItOut 511

tryItOut 512
Compiling threw: SyntaxError: duplicate label

tryItOut 513
It's an iterator!
Iterating succeeded, iterCount == 0

tryItOut 514
Compiling threw: SyntaxError: missing ( before let head

tryItOut 515

tryItOut 516
It's an iterator!
Iterating succeeded, iterCount == 1

tryItOut 517

tryItOut 518
It's an iterator!
Iterating succeeded, iterCount == 1

tryItOut 519
Compiling threw: SyntaxError: missing variable name

tryItOut 520
Compiling threw: SyntaxError: syntax error

tryItOut 521

tryItOut 522

tryItOut 523

tryItOut 524
It's an iterator!
Iterating threw!
Iterating threw: Error: invalid sharp variable use #1#

tryItOut 525

tryItOut 526

tryItOut 527

tryItOut 528

tryItOut 529
Compiling threw: SyntaxError: syntax error

tryItOut 530

tryItOut 531

tryItOut 532

tryItOut 533
It's an iterator!
Iterating succeeded, iterCount == 1

tryItOut 534

tryItOut 535

tryItOut 536
Compiling threw: SyntaxError: missing ; before statement

tryItOut 537
Compiling threw: SyntaxError: invalid assignment left-hand side

tryItOut 538

tryItOut 539
Compiling threw: SyntaxError: syntax error

tryItOut 540

tryItOut 541
Compiling threw: SyntaxError: missing variable name

tryItOut 542
Compiling threw: SyntaxError: missing ; before statement

tryItOut 543
Compiling threw: SyntaxError: missing ; before statement

tryItOut 544

tryItOut 545

tryItOut 546
Running threw: ReferenceError: z2 is not defined

tryItOut 547

tryItOut 548
Compiling threw: SyntaxError: invalid decrement operand

tryItOut 549
Compiling threw: SyntaxError: missing ; before statement

tryItOut 550
Compiling threw: SyntaxError: syntax error

tryItOut 551

tryItOut 552
Compiling threw: SyntaxError: missing variable name

tryItOut 553
Compiling threw: SyntaxError: missing ) in parenthetical

tryItOut 554
It's an iterator!
Iterating threw!
Iterating threw: ReferenceError: z2 is not defined

tryItOut 555
Compiling threw: SyntaxError: invalid for/in left-hand side

tryItOut 556
Compiling threw: SyntaxError: syntax error

tryItOut 557

tryItOut 558
Running threw: SyntaxError: yield not in function

tryItOut 559

tryItOut 560
Compiling threw: SyntaxError: missing { before function body

tryItOut 561
It's an iterator!
Iterating succeeded, iterCount == 1

tryItOut 562

tryItOut 563

tryItOut 564
Compiling threw: SyntaxError: invalid for/in left-hand side

tryItOut 565
Compiling threw: SyntaxError: missing ; after for-loop condition

tryItOut 566
Compiling threw: SyntaxError: yield expression must be parenthesized

tryItOut 567
Compiling threw: SyntaxError: missing { before function body

tryItOut 568
Compiling threw: SyntaxError: invalid for/in left-hand side

tryItOut 569

tryItOut 570
Running threw: true

tryItOut 571
Compiling threw: SyntaxError: invalid for/in left-hand side

tryItOut 572

tryItOut 573

tryItOut 574

tryItOut 575
It's an iterator!
Iterating succeeded, iterCount == 1

tryItOut 576
Compiling threw: SyntaxError: missing ) in parenthetical

tryItOut 577
Compiling threw: SyntaxError: syntax error

tryItOut 578

tryItOut 579
Compiling threw: SyntaxError: invalid for/in left-hand side

tryItOut 580

tryItOut 581
Compiling threw: SyntaxError: missing } after let block

tryItOut 582
Compiling threw: SyntaxError: missing : after property id

tryItOut 583

tryItOut 584

tryItOut 585

tryItOut 586

tryItOut 587
Running threw: ReferenceError: z1 is not defined

tryItOut 588

tryItOut 589
Compiling threw: SyntaxError: invalid decrement operand

tryItOut 590

tryItOut 591
Running threw: ,

tryItOut 592
Compiling threw: SyntaxError: missing ) in parenthetical

tryItOut 593

tryItOut 594
Compiling threw: SyntaxError: invalid destructuring assignment operator

tryItOut 595
Running threw: TypeError: null is not a constructor

tryItOut 596

tryItOut 597

tryItOut 598

tryItOut 599
Compiling threw: SyntaxError: syntax error

tryItOut 600

tryItOut 601
Running threw: null

tryItOut 602
Compiling threw: SyntaxError: invalid for/in left-hand side

tryItOut 603
Compiling threw: SyntaxError: syntax error

tryItOut 604
Compiling threw: SyntaxError: invalid increment operand

tryItOut 605
Compiling threw: SyntaxError: invalid assignment left-hand side

tryItOut 606
Compiling threw: SyntaxError: syntax error

tryItOut 607
It's an iterator!
Iterating succeeded, iterCount == 0

tryItOut 608

tryItOut 609
Compiling threw: SyntaxError: invalid assignment left-hand side

tryItOut 610
Compiling threw: SyntaxError: invalid for/in left-hand side

tryItOut 611

tryItOut 612

tryItOut 613
Compiling threw: SyntaxError: catch without try

tryItOut 614
Compiling threw: SyntaxError: missing ; after for-loop initializer

tryItOut 615

tryItOut 616

tryItOut 617
Compiling threw: SyntaxError: missing { before function body

tryItOut 618
Compiling threw: TypeError: redeclaration of const constructor

tryItOut 619
Compiling threw: SyntaxError: missing formal parameter

tryItOut 620
Compiling threw: SyntaxError: syntax error

tryItOut 621
Compiling threw: SyntaxError: missing ; before statement

tryItOut 622

tryItOut 623
It's an iterator!
Iterating succeeded, iterCount == 1

tryItOut 624
It's an iterator!
Iterating succeeded, iterCount == 1

tryItOut 625

tryItOut 626
Compiling threw: SyntaxError: syntax error

tryItOut 627
Compiling threw: SyntaxError: duplicate label

tryItOut 628
It's an iterator!
Iterating succeeded, iterCount == 1

tryItOut 629
Compiling threw: SyntaxError: invalid assignment left-hand side

tryItOut 630

tryItOut 631

tryItOut 632
Compiling threw: SyntaxError: missing { before function body

tryItOut 633
Compiling threw: TypeError: redeclaration of variable prop

tryItOut 634

tryItOut 635
Compiling threw: SyntaxError: missing { before function body

tryItOut 636

tryItOut 637
Compiling threw: SyntaxError: invalid for/in left-hand side

tryItOut 638
Compiling threw: SyntaxError: missing ; before statement

tryItOut 639

tryItOut 640

tryItOut 641

tryItOut 642

tryItOut 643
Running threw: true

tryItOut 644
Running threw: null

tryItOut 645
Compiling threw: SyntaxError: missing { before function body

tryItOut 646
Compiling threw: SyntaxError: syntax error

tryItOut 647

tryItOut 648
It's an iterator!
Iterating succeeded, iterCount == 1

tryItOut 649
It's an iterator!
Iterating succeeded, iterCount == 2

tryItOut 650
Compiling threw: SyntaxError: invalid for/in left-hand side

tryItOut 651
It's an iterator!
Iterating succeeded, iterCount == 4

tryItOut 652
Compiling threw: SyntaxError: invalid increment operand

tryItOut 653
Compiling threw: SyntaxError: missing ( before let head

tryItOut 654
Compiling threw: SyntaxError: missing ; before statement

tryItOut 655

tryItOut 656
Running threw: 112

tryItOut 657

tryItOut 658
It's an iterator!
Iterating threw!
Iterating threw: ReferenceError: z1 is not defined

tryItOut 659

tryItOut 660
Compiling threw: SyntaxError: missing = in destructuring declaration

tryItOut 661

tryItOut 662
Compiling threw: TypeError: redeclaration of variable __noSuchMethod__

tryItOut 663
Running threw: ReferenceError: z1 is not defined

tryItOut 664
Compiling threw: SyntaxError: missing variable name

tryItOut 665

tryItOut 666

tryItOut 667
Compiling threw: SyntaxError: missing ) after let head

tryItOut 668

tryItOut 669
Compiling threw: SyntaxError: syntax error

tryItOut 670
It's an iterator!
Iterating succeeded, iterCount == 1

tryItOut 671

tryItOut 672
It's an iterator!
Iterating threw!
Iterating threw: ReferenceError: z1 is not defined

tryItOut 673
Compiling threw: SyntaxError: invalid for/in left-hand side

tryItOut 674

tryItOut 675
Compiling threw: SyntaxError: invalid assignment left-hand side

tryItOut 676
Compiling threw: SyntaxError: syntax error

tryItOut 677
It's an iterator!
Iterating succeeded, iterCount == 2

tryItOut 678

tryItOut 679
Compiling threw: SyntaxError: invalid for/in left-hand side

tryItOut 680
Compiling threw: SyntaxError: missing { before function body

tryItOut 681
It's an iterator!
Iterating succeeded, iterCount == 0

tryItOut 682

tryItOut 683

tryItOut 684

tryItOut 685
Running threw: ,

tryItOut 686
Compiling threw: SyntaxError: missing ) in parenthetical

tryItOut 687

tryItOut 688
It's an iterator!
Iterating threw!
Iterating threw: Error: invalid sharp variable use #1#

tryItOut 689

tryItOut 690
Compiling threw: SyntaxError: missing ; before statement

tryItOut 691

tryItOut 692
Compiling threw: SyntaxError: missing { before function body

tryItOut 693
It's an iterator!
Iterating succeeded, iterCount == 1

tryItOut 694
Compiling threw: SyntaxError: missing } after let block

tryItOut 695

tryItOut 696
Running threw: TypeError: __iterator__..constructor is not a constructor

tryItOut 697

tryItOut 698

tryItOut 699
It's an iterator!
Iterating succeeded, iterCount == 1

tryItOut 700

tryItOut 701

tryItOut 702

tryItOut 703
Running threw: TypeError: __parent__ is not a constructor

tryItOut 704
It's an iterator!
Iterating succeeded, iterCount == 1

tryItOut 705
Compiling threw: SyntaxError: missing variable name

tryItOut 706
Compiling threw: SyntaxError: missing ; before statement

tryItOut 707

tryItOut 708

tryItOut 709
Compiling threw: SyntaxError: invalid for/in left-hand side

tryItOut 710
Compiling threw: TypeError: redeclaration of variable __iterator__

tryItOut 711
Compiling threw: SyntaxError: duplicate label

tryItOut 712
Compiling threw: TypeError: generator function anonymous returns a value

tryItOut 713
Compiling threw: SyntaxError: yield expression must be parenthesized

tryItOut 714
Running threw: 

tryItOut 715

tryItOut 716
Compiling threw: SyntaxError: missing } after let block

tryItOut 717
Compiling threw: SyntaxError: invalid assignment left-hand side

tryItOut 718
Compiling threw: TypeError: generator function anonymous returns a value

tryItOut 719

tryItOut 720
Compiling threw: SyntaxError: missing variable name

tryItOut 721
Running threw: <y>
  <z/>
</y>

tryItOut 722

tryItOut 723
Compiling threw: SyntaxError: syntax error

tryItOut 724
Compiling threw: SyntaxError: syntax error

tryItOut 725
It's an iterator!
Iterating succeeded, iterCount == 1

tryItOut 726
It's an iterator!
Iterating succeeded, iterCount == 1

tryItOut 727

tryItOut 728
Compiling threw: SyntaxError: invalid for/in left-hand side

tryItOut 729

tryItOut 730
Compiling threw: SyntaxError: syntax error

tryItOut 731
Compiling threw: SyntaxError: invalid assignment left-hand side

tryItOut 732
Compiling threw: SyntaxError: invalid assignment left-hand side

tryItOut 733

tryItOut 734

tryItOut 735

tryItOut 736

tryItOut 737
Compiling threw: SyntaxError: missing { before function body

tryItOut 738
Compiling threw: SyntaxError: syntax error

tryItOut 739

tryItOut 740

tryItOut 741

tryItOut 742

tryItOut 743

tryItOut 744
It's an iterator!
Iterating threw!
Iterating threw: true

tryItOut 745
Compiling threw: SyntaxError: missing variable name

tryItOut 746
Compiling threw: SyntaxError: syntax error

tryItOut 747

tryItOut 748

tryItOut 749

tryItOut 750
Compiling threw: SyntaxError: duplicate label

tryItOut 751
Running threw: ReferenceError: z1 is not defined

tryItOut 752
Running threw: 

tryItOut 753
Compiling threw: SyntaxError: missing ; before statement

tryItOut 754
Compiling threw: SyntaxError: missing variable name

tryItOut 755
Running threw: Error: invalid sharp variable use #1#

tryItOut 756
Compiling threw: SyntaxError: missing { before function body

tryItOut 757

tryItOut 758
Compiling threw: SyntaxError: duplicate label

tryItOut 759

tryItOut 760
Compiling threw: SyntaxError: duplicate label

tryItOut 761
Compiling threw: SyntaxError: missing variable name

tryItOut 762
Compiling threw: SyntaxError: missing ) in parenthetical

tryItOut 763
Compiling threw: SyntaxError: missing ; before statement

tryItOut 764
Compiling threw: SyntaxError: invalid increment operand

tryItOut 765
Compiling threw: SyntaxError: yield expression must be parenthesized

tryItOut 766

tryItOut 767
Compiling threw: SyntaxError: invalid for/in left-hand side

tryItOut 768
It's an iterator!
Iterating succeeded, iterCount == 1

tryItOut 769
uneval returned the string: [NaN]
Skipping re-eval test

tryItOut 770
Compiling threw: SyntaxError: catch without try

tryItOut 771
Running threw: SyntaxError: invalid setter usage

tryItOut 772
It's an iterator!
Iterating threw!
Iterating threw: Error: invalid sharp variable use #1#

tryItOut 773

tryItOut 774
Compiling threw: SyntaxError: invalid assignment left-hand side

tryItOut 775
Compiling threw: SyntaxError: missing name in export statement

tryItOut 776
Compiling threw: SyntaxError: missing ; before statement

tryItOut 777

tryItOut 778

tryItOut 779
Compiling threw: SyntaxError: missing ; before statement

tryItOut 780
Compiling threw: SyntaxError: syntax error

tryItOut 781

tryItOut 782

tryItOut 783

tryItOut 784

tryItOut 785

tryItOut 786

tryItOut 787
It's an iterator!
Iterating succeeded, iterCount == 2

tryItOut 788
Compiling threw: SyntaxError: syntax error

tryItOut 789
Compiling threw: SyntaxError: missing ) after argument list

tryItOut 790

tryItOut 791

tryItOut 792
Running threw: function ([y]) {
}

tryItOut 793
Compiling threw: SyntaxError: invalid for/in left-hand side

tryItOut 794
Compiling threw: SyntaxError: missing { before function body

tryItOut 795
Compiling threw: SyntaxError: missing variable name

tryItOut 796

tryItOut 797
Compiling threw: SyntaxError: invalid for/in left-hand side

tryItOut 798

tryItOut 799

tryItOut 800
Compiling threw: SyntaxError: syntax error

tryItOut 801
Compiling threw: SyntaxError: invalid for/in left-hand side

tryItOut 802
Compiling threw: TypeError: redeclaration of var __proto__

tryItOut 803
It's an iterator!
Iterating succeeded, iterCount == 1

tryItOut 804

tryItOut 805
Compiling threw: SyntaxError: catch without try

tryItOut 806
Compiling threw: SyntaxError: syntax error

tryItOut 807
Running threw: 0

tryItOut 808

tryItOut 809
Compiling threw: SyntaxError: invalid for/in left-hand side

tryItOut 810

tryItOut 811
Compiling threw: SyntaxError: syntax error

tryItOut 812
It's an iterator!
Iterating succeeded, iterCount == 1

tryItOut 813

tryItOut 814
Compiling threw: SyntaxError: invalid for/in left-hand side

tryItOut 815
Compiling threw: SyntaxError: invalid decrement operand

tryItOut 816
Compiling threw: SyntaxError: missing ) after switch expression

tryItOut 817

tryItOut 818

tryItOut 819
Running threw: 

tryItOut 820

tryItOut 821

tryItOut 822
Compiling threw: SyntaxError: invalid for/in left-hand side

tryItOut 823

tryItOut 824

tryItOut 825
Compiling threw: SyntaxError: syntax error

tryItOut 826
Compiling threw: SyntaxError: missing ; before statement

tryItOut 827

tryItOut 828

tryItOut 829

tryItOut 830

tryItOut 831
It's an iterator!
Iterating succeeded, iterCount == 1

tryItOut 832
Compiling threw: SyntaxError: invalid for/in left-hand side

tryItOut 833

tryItOut 834

tryItOut 835
Compiling threw: SyntaxError: syntax error

tryItOut 836
It's an iterator!
Iterating threw!
Iterating threw: <y>
  <z/>
</y>

tryItOut 837
Running threw: false

tryItOut 838

tryItOut 839

tryItOut 840
It's an iterator!
Iterating threw!
Iterating threw: TypeError: prop.__lookupGetter__("prop") has no properties

tryItOut 841
Compiling threw: SyntaxError: invalid assignment left-hand side

tryItOut 842
Compiling threw: SyntaxError: invalid assignment left-hand side

tryItOut 843
Running threw: ReferenceError: z1 is not defined

tryItOut 844

tryItOut 845
Compiling threw: SyntaxError: missing ) in parenthetical

tryItOut 846

tryItOut 847

tryItOut 848
Compiling threw: SyntaxError: syntax error

tryItOut 849
Compiling threw: SyntaxError: missing } after let block

tryItOut 850
Compiling threw: SyntaxError: missing { before function body

tryItOut 851
Compiling threw: SyntaxError: missing { before function body

tryItOut 852

tryItOut 853

tryItOut 854

tryItOut 855
Compiling threw: SyntaxError: invalid assignment left-hand side

tryItOut 856

tryItOut 857
Compiling threw: SyntaxError: syntax error

tryItOut 858
Compiling threw: SyntaxError: syntax error

tryItOut 859
Running threw: TypeError: this.zzz has no properties

tryItOut 860

tryItOut 861
Compiling threw: SyntaxError: missing } after let block

tryItOut 862

tryItOut 863
Compiling threw: SyntaxError: invalid for/in left-hand side

tryItOut 864
Compiling threw: SyntaxError: missing ; before statement

tryItOut 865

tryItOut 866
Compiling threw: SyntaxError: missing ) in parenthetical

tryItOut 867
Compiling threw: SyntaxError: missing ) in parenthetical

tryItOut 868
Compiling threw: SyntaxError: missing ( before let head

tryItOut 869

tryItOut 870
Compiling threw: SyntaxError: syntax error

tryItOut 871

tryItOut 872

tryItOut 873

tryItOut 874
Compiling threw: SyntaxError: missing ) in parenthetical

tryItOut 875
It's an iterator!
Iterating succeeded, iterCount == 0

tryItOut 876
Compiling threw: SyntaxError: syntax error

tryItOut 877
Compiling threw: SyntaxError: invalid assignment left-hand side

tryItOut 878
It's an iterator!
Iterating succeeded, iterCount == 1

tryItOut 879

tryItOut 880

tryItOut 881

tryItOut 882
Compiling threw: SyntaxError: missing variable name

tryItOut 883

tryItOut 884

tryItOut 885
Compiling threw: SyntaxError: missing ; before statement

tryItOut 886
Compiling threw: SyntaxError: catch without try

tryItOut 887

tryItOut 888
Running threw: <y>
  <z/>
</y>

tryItOut 889
Compiling threw: SyntaxError: invalid for/in left-hand side

tryItOut 890

tryItOut 891

tryItOut 892

tryItOut 893
Compiling threw: SyntaxError: missing ; before statement

tryItOut 894

tryItOut 895

tryItOut 896

tryItOut 897

tryItOut 898

tryItOut 899

tryItOut 900
It's an iterator!
Iterating succeeded, iterCount == 1

tryItOut 901
It's an iterator!
Iterating succeeded, iterCount == 0

tryItOut 902
It's an iterator!
Iterating succeeded, iterCount == 0

tryItOut 903

tryItOut 904

tryItOut 905
Compiling threw: TypeError: generator function anonymous returns a value

tryItOut 906

tryItOut 907
It's an iterator!
Iterating succeeded, iterCount == 1

tryItOut 908
It's an iterator!
Iterating succeeded, iterCount == 1

tryItOut 909
Compiling threw: SyntaxError: syntax error

tryItOut 910

tryItOut 911
It's an iterator!
Iterating succeeded, iterCount == 1

tryItOut 912
Compiling threw: SyntaxError: invalid assignment left-hand side

tryItOut 913

tryItOut 914
Compiling threw: SyntaxError: missing } after let block

tryItOut 915
Compiling threw: SyntaxError: syntax error

tryItOut 916
Compiling threw: SyntaxError: syntax error

tryItOut 917

tryItOut 918
Compiling threw: SyntaxError: missing formal parameter

tryItOut 919

tryItOut 920
It's an iterator!
Iterating succeeded, iterCount == 1

tryItOut 921
Compiling threw: SyntaxError: missing { before function body

tryItOut 922
Compiling threw: SyntaxError: missing ) in parenthetical

tryItOut 923
Running threw: function ([y]) {
}

tryItOut 924

tryItOut 925
Compiling threw: TypeError: redeclaration of const __parent__

tryItOut 926
Running threw: TypeError: [1] is not a function

tryItOut 927
Compiling threw: SyntaxError: missing { before function body

tryItOut 928

tryItOut 929
Compiling threw: SyntaxError: missing ( before formal parameters

tryItOut 930

tryItOut 931
Compiling threw: SyntaxError: invalid for/in left-hand side

tryItOut 932

tryItOut 933
Compiling threw: SyntaxError: missing } after let block

tryItOut 934
Compiling threw: SyntaxError: missing ; before statement

tryItOut 935
Compiling threw: SyntaxError: duplicate label

tryItOut 936

tryItOut 937

tryItOut 938

tryItOut 939
Compiling threw: SyntaxError: missing ) in parenthetical

tryItOut 940
Running threw: 

tryItOut 941
It's an iterator!
Iterating succeeded, iterCount == 1

tryItOut 942

tryItOut 943

tryItOut 944
Compiling threw: SyntaxError: syntax error

tryItOut 945
It's an iterator!
Iterating succeeded, iterCount == 1

tryItOut 946
Running threw: true

tryItOut 947
Compiling threw: SyntaxError: missing ; before statement

tryItOut 948
Compiling threw: SyntaxError: syntax error

tryItOut 949

tryItOut 950

tryItOut 951

tryItOut 952

tryItOut 953

tryItOut 954
It's an iterator!
Iterating succeeded, iterCount == 0

tryItOut 955
Compiling threw: TypeError: redeclaration of variable prop

tryItOut 956
Compiling threw: SyntaxError: syntax error

tryItOut 957
Compiling threw: SyntaxError: invalid for/in left-hand side

tryItOut 958
Compiling threw: SyntaxError: missing variable name

tryItOut 959
Compiling threw: SyntaxError: missing ) after for-loop control

tryItOut 960
Running threw: TypeError: this.zzz has no properties

tryItOut 961
It's an iterator!
Iterating threw!
Iterating threw: TypeError: p.z = <x/> is not a function

tryItOut 962

tryItOut 963
Compiling threw: SyntaxError: syntax error

tryItOut 964
Compiling threw: SyntaxError: syntax error

tryItOut 965

tryItOut 966
Compiling threw: SyntaxError: invalid for/in left-hand side

tryItOut 967

tryItOut 968
Compiling threw: SyntaxError: missing ( before let head

tryItOut 969
Compiling threw: SyntaxError: missing ) in parenthetical

tryItOut 970

tryItOut 971
Compiling threw: SyntaxError: missing variable name

tryItOut 972

tryItOut 973

tryItOut 974
Compiling threw: SyntaxError: syntax error

tryItOut 975
Compiling threw: SyntaxError: missing ) in parenthetical

tryItOut 976
Running threw: SyntaxError: invalid assignment left-hand side

tryItOut 977
Compiling threw: SyntaxError: invalid assignment left-hand side

tryItOut 978
It's an iterator!
Iterating succeeded, iterCount == 1

tryItOut 979
Compiling threw: SyntaxError: missing ; before statement

tryItOut 980
It's an iterator!
Iterating succeeded, iterCount == 1

tryItOut 981

tryItOut 982

tryItOut 983
It's an iterator!
Iterating threw!
Iterating threw: SyntaxError: yield not in function

tryItOut 984
Compiling threw: SyntaxError: syntax error

tryItOut 985
Compiling threw: SyntaxError: missing ; before statement

tryItOut 986
Compiling threw: SyntaxError: missing } in compound statement

tryItOut 987

tryItOut 988
Compiling threw: SyntaxError: invalid decrement operand

tryItOut 989

tryItOut 990
Compiling threw: SyntaxError: missing variable name

tryItOut 991
Compiling threw: SyntaxError: syntax error

tryItOut 992
Compiling threw: SyntaxError: syntax error

tryItOut 993
Compiling threw: SyntaxError: missing { before function body

tryItOut 994

tryItOut 995

tryItOut 996

tryItOut 997
It's an iterator!
Iterating threw!
Iterating threw: 0

tryItOut 998

tryItOut 999
It's an iterator!
Iterating succeeded, iterCount == 1

tryItOut 1000
It's an iterator!
Iterating succeeded, iterCount == 1

ALL OK

Script done on Sat 04 May 2013 08:09:23 AM PDT
