Script started on Sat 04 May 2013 08:13:40 AM PDT
***
Targeting SpiderMonkey / Gecko.

tryItOut 1

tryItOut 2

tryItOut 3

tryItOut 4
Compiling threw: SyntaxError: syntax error

tryItOut 5
Compiling threw: SyntaxError: syntax error

tryItOut 6

tryItOut 7

tryItOut 8
Compiling threw: SyntaxError: illegal XML character

tryItOut 9

tryItOut 10

tryItOut 11
Compiling threw: SyntaxError: missing variable name

tryItOut 12

tryItOut 13
Compiling threw: SyntaxError: missing ; before statement

tryItOut 14
Compiling threw: SyntaxError: invalid XML tag syntax

tryItOut 15

tryItOut 16
It's an iterator!
Iterating threw!
Iterating threw: TypeError: __parent__ has no properties

tryItOut 17

tryItOut 18
Compiling threw: SyntaxError: label not found

tryItOut 19
Compiling threw: SyntaxError: syntax error

tryItOut 20

tryItOut 21
Compiling threw: SyntaxError: syntax error

tryItOut 22
Running threw: TypeError: arguments[0] has no properties

tryItOut 23
Compiling threw: TypeError: redeclaration of const constructor

tryItOut 24
Running threw: ReferenceError: reference to undefined XML name *

tryItOut 25

tryItOut 26
Running threw: ReferenceError: z1 is not defined

tryItOut 27
Compiling threw: SyntaxError: missing ] after element list

tryItOut 28

tryItOut 29
Running threw: ReferenceError: prototype is not defined

tryItOut 30
Running threw: TypeError: #3={, a:#3#}.__lookupSetter__("constructor") has no properties

tryItOut 31
Compiling threw: SyntaxError: invalid assignment left-hand side

tryItOut 32
Running threw: ReferenceError: reference to undefined XML name *::*

tryItOut 33

tryItOut 34
Compiling threw: TypeError: generator function anonymous returns a value

tryItOut 35
Running threw: ReferenceError: window is not defined

tryItOut 36

tryItOut 37

tryItOut 38
uneval returned the string: ({a1:1})
Skipping re-eval test

tryItOut 39
Compiling threw: SyntaxError: missing variable name

tryItOut 40

tryItOut 41
Compiling threw: SyntaxError: invalid break

tryItOut 42

tryItOut 43

tryItOut 44
Compiling threw: SyntaxError: syntax error

tryItOut 45
Running threw: ReferenceError: window is not defined

tryItOut 46

tryItOut 47
Compiling threw: SyntaxError: label not found

tryItOut 48

tryItOut 49

tryItOut 50

tryItOut 51
Compiling threw: SyntaxError: invalid continue

tryItOut 52
Compiling threw: SyntaxError: missing { before function body

tryItOut 53

tryItOut 54
Compiling threw: SyntaxError: missing ; after for-loop initializer

tryItOut 55

tryItOut 56
Compiling threw: SyntaxError: illegal XML character

tryItOut 57

tryItOut 58
Compiling threw: SyntaxError: missing ) in parenthetical

tryItOut 59

tryItOut 60

tryItOut 61
Compiling threw: SyntaxError: invalid for/in left-hand side

tryItOut 62
Compiling threw: SyntaxError: invalid for/in left-hand side

tryItOut 63

tryItOut 64
Compiling threw: SyntaxError: invalid for/in left-hand side

tryItOut 65

tryItOut 66

tryItOut 67

tryItOut 68
Compiling threw: SyntaxError: invalid decrement operand

tryItOut 69
Compiling threw: SyntaxError: syntax error

tryItOut 70
Compiling threw: SyntaxError: syntax error

tryItOut 71

tryItOut 72

tryItOut 73
Compiling threw: SyntaxError: missing : after property id

tryItOut 74

tryItOut 75

tryItOut 76
Running threw: ReferenceError: window is not defined

tryItOut 77

tryItOut 78

tryItOut 79
before 104640, after 104640, break 00abb000

tryItOut 80
Compiling threw: SyntaxError: syntax error

tryItOut 81

tryItOut 82

tryItOut 83

tryItOut 84

tryItOut 85

tryItOut 86
Compiling threw: SyntaxError: invalid continue

tryItOut 87
Compiling threw: SyntaxError: missing ; before statement

tryItOut 88

tryItOut 89
Compiling threw: SyntaxError: label not found

tryItOut 90
Compiling threw: SyntaxError: missing ) after with-statement object

tryItOut 91

tryItOut 92
Compiling threw: SyntaxError: syntax error

tryItOut 93
Compiling threw: SyntaxError: missing ) in parenthetical

tryItOut 94
Compiling threw: SyntaxError: syntax error

tryItOut 95

tryItOut 96
Compiling threw: SyntaxError: missing variable name

tryItOut 97

tryItOut 98
Compiling threw: SyntaxError: invalid for/in left-hand side

tryItOut 99

tryItOut 100
Compiling threw: SyntaxError: illegal XML character

tryItOut 101
Running threw: TypeError: ({}) is not a function

tryItOut 102
Compiling threw: SyntaxError: syntax error

tryItOut 103

tryItOut 104

tryItOut 105
Compiling threw: SyntaxError: syntax error

tryItOut 106

tryItOut 107

tryItOut 108

tryItOut 109

tryItOut 110

tryItOut 111

tryItOut 112

tryItOut 113

tryItOut 114
Compiling threw: TypeError: redeclaration of const prop

tryItOut 115

tryItOut 116

tryItOut 117

tryItOut 118
Compiling threw: SyntaxError: invalid for/in left-hand side

tryItOut 119
Compiling threw: SyntaxError: invalid assignment left-hand side

tryItOut 120
Compiling threw: TypeError: redeclaration of const __proto__

tryItOut 121

tryItOut 122
Running threw: ReferenceError: window is not defined

tryItOut 123

tryItOut 124
Compiling threw: SyntaxError: missing variable name

tryItOut 125

tryItOut 126

tryItOut 127
Compiling threw: SyntaxError: missing { before function body

tryItOut 128
Compiling threw: SyntaxError: syntax error

tryItOut 129
Compiling threw: SyntaxError: missing { before function body

tryItOut 130
Compiling threw: SyntaxError: invalid decrement operand

tryItOut 131
before 104640, after 104640, break 00abb000

tryItOut 132
Running threw: TypeError: XML filtering predicate operator called on incompatible Function

tryItOut 133

tryItOut 134
Compiling threw: SyntaxError: illegal XML character

tryItOut 135
Compiling threw: SyntaxError: invalid for each loop

tryItOut 136

tryItOut 137
Compiling threw: SyntaxError: invalid break

tryItOut 138
before 104640, after 104640, break 00abb000

tryItOut 139

tryItOut 140

tryItOut 141

tryItOut 142
It's an iterator!
Iterating threw!
Iterating threw: ReferenceError: prop is not defined

tryItOut 143

tryItOut 144
Compiling threw: SyntaxError: invalid for each loop

tryItOut 145
Compiling threw: SyntaxError: invalid for/in left-hand side

tryItOut 146
Compiling threw: SyntaxError: missing variable name

tryItOut 147

tryItOut 148

tryItOut 149

tryItOut 150
Compiling threw: SyntaxError: invalid assignment left-hand side

tryItOut 151

tryItOut 152

tryItOut 153
Compiling threw: SyntaxError: missing ; before statement

tryItOut 154
Compiling threw: SyntaxError: missing ; before statement

tryItOut 155
Compiling threw: SyntaxError: missing ) in parenthetical

tryItOut 156

tryItOut 157
Compiling threw: SyntaxError: missing ) in parenthetical

tryItOut 158
Compiling threw: SyntaxError: syntax error

tryItOut 159
Compiling threw: SyntaxError: invalid destructuring assignment operator

tryItOut 160

tryItOut 161
Compiling threw: SyntaxError: invalid for/in left-hand side

tryItOut 162

tryItOut 163

tryItOut 164
before 104640, after 104640, break 00abb000

tryItOut 165

tryItOut 166
Compiling threw: SyntaxError: missing { before function body

tryItOut 167
Compiling threw: SyntaxError: label not found

tryItOut 168

tryItOut 169

tryItOut 170
Compiling threw: SyntaxError: missing ] after element list

tryItOut 171
Compiling threw: SyntaxError: syntax error

tryItOut 172

tryItOut 173

tryItOut 174

tryItOut 175

tryItOut 176
Running threw: ReferenceError: F is not defined

tryItOut 177

tryItOut 178
Compiling threw: SyntaxError: invalid decrement operand

tryItOut 179

tryItOut 180

tryItOut 181
Compiling threw: SyntaxError: invalid for/in left-hand side

tryItOut 182
before 104640, after 104640, break 00abb000

tryItOut 183

tryItOut 184
It's an iterator!
Iterating succeeded, iterCount == 1

tryItOut 185

tryItOut 186
before 104640, after 104640, break 00abb000

tryItOut 187
before 104640, after 104640, break 00abb000

tryItOut 188
Running threw: ReferenceError: reference to undefined XML name @foo

tryItOut 189

tryItOut 190
Compiling threw: SyntaxError: syntax error

tryItOut 191
Compiling threw: SyntaxError: missing ; before statement

tryItOut 192
Running threw: ReferenceError: reference to undefined XML name @mozilla.org/js/function::__proto__

tryItOut 193

tryItOut 194
Compiling threw: SyntaxError: invalid break

tryItOut 195
Compiling threw: SyntaxError: missing { before function body

tryItOut 196

tryItOut 197
Compiling threw: SyntaxError: missing variable name

tryItOut 198
Compiling threw: SyntaxError: illegal XML character

tryItOut 199
Compiling threw: SyntaxError: illegal XML character

tryItOut 200

tryItOut 201
Compiling threw: SyntaxError: invalid for/in left-hand side

tryItOut 202

tryItOut 203

tryItOut 204

tryItOut 205
Running threw: ReferenceError: reference to undefined XML name *

tryItOut 206

tryItOut 207

tryItOut 208
Compiling threw: SyntaxError: label not found

tryItOut 209
Compiling threw: SyntaxError: invalid decrement operand

tryItOut 210

tryItOut 211

tryItOut 212

tryItOut 213

tryItOut 214
Compiling threw: SyntaxError: illegal XML character

tryItOut 215

tryItOut 216

tryItOut 217
Compiling threw: SyntaxError: missing ; before statement

tryItOut 218
Running threw: ReferenceError: reference to undefined XML name *::*

tryItOut 219
Compiling threw: SyntaxError: invalid assignment left-hand side

tryItOut 220
Compiling threw: SyntaxError: invalid break

tryItOut 221
before 104640, after 104640, break 00abb000

tryItOut 222

tryItOut 223

tryItOut 224
Running threw: SyntaxError: invalid setter usage

tryItOut 225

tryItOut 226
Compiling threw: SyntaxError: missing ] after element list

tryItOut 227
Compiling threw: SyntaxError: invalid increment operand

tryItOut 228
Compiling threw: SyntaxError: invalid flag after regular expression

tryItOut 229
It's an iterator!
Iterating threw!
Iterating threw: ReferenceError: window is not defined

tryItOut 230
Compiling threw: SyntaxError: invalid continue

tryItOut 231

tryItOut 232
Compiling threw: SyntaxError: invalid for/in left-hand side

tryItOut 233

tryItOut 234

tryItOut 235

tryItOut 236
Compiling threw: SyntaxError: invalid for/in left-hand side

tryItOut 237

tryItOut 238

tryItOut 239
Running threw: ReferenceError: prop is not defined

tryItOut 240

tryItOut 241

tryItOut 242
Compiling threw: SyntaxError: invalid assignment left-hand side

tryItOut 243

tryItOut 244
Running threw: TypeError: arguments[0] has no properties

tryItOut 245
Running threw: ReferenceError: prop is not defined

tryItOut 246

tryItOut 247

tryItOut 248

tryItOut 249
Compiling threw: SyntaxError: missing { before function body

tryItOut 250

tryItOut 251
Running threw: ReferenceError: prop is not defined

tryItOut 252

tryItOut 253
Compiling threw: SyntaxError: missing { before function body

tryItOut 254

tryItOut 255
Running threw: ReferenceError: window is not defined

tryItOut 256
Running threw: ReferenceError: reference to undefined XML name *

tryItOut 257
Compiling threw: SyntaxError: invalid assignment left-hand side

tryItOut 258
Running threw: ReferenceError: __noSuchMethod__ is not defined

tryItOut 259
Compiling threw: SyntaxError: syntax error

tryItOut 260
Running threw: Error: invalid sharp variable use #1#

tryItOut 261
Compiling threw: SyntaxError: invalid assignment left-hand side

tryItOut 262

tryItOut 263
Compiling threw: TypeError: redeclaration of variable constructor

tryItOut 264
Compiling threw: SyntaxError: missing ] after element list

tryItOut 265
Compiling threw: SyntaxError: missing ) in parenthetical

tryItOut 266
Compiling threw: SyntaxError: missing = in destructuring declaration

tryItOut 267
Compiling threw: SyntaxError: missing variable name

tryItOut 268

tryItOut 269
Compiling threw: SyntaxError: invalid for/in left-hand side

tryItOut 270
before 122080, after 122080, break 00ad0000

tryItOut 271
Compiling threw: SyntaxError: missing ) in parenthetical

tryItOut 272
Compiling threw: SyntaxError: missing ; before statement

tryItOut 273

tryItOut 274
Compiling threw: SyntaxError: missing variable name

tryItOut 275
Compiling threw: SyntaxError: missing : after property id

tryItOut 276
Running threw: ReferenceError: window is not defined

tryItOut 277
Compiling threw: SyntaxError: missing : after property id

tryItOut 278
Compiling threw: SyntaxError: invalid continue

tryItOut 279
Running threw: ReferenceError: z2 is not defined

tryItOut 280
Compiling threw: SyntaxError: invalid for/in left-hand side

tryItOut 281
Compiling threw: SyntaxError: invalid for/in left-hand side

tryItOut 282

tryItOut 283

tryItOut 284

tryItOut 285
Running threw: ReferenceError: window is not defined

tryItOut 286
Running threw: ReferenceError: reference to undefined XML name @foo

tryItOut 287
Compiling threw: SyntaxError: label not found

tryItOut 288
Compiling threw: SyntaxError: missing : after property id

tryItOut 289
Compiling threw: SyntaxError: label not found

tryItOut 290
Compiling threw: SyntaxError: missing ; before statement

tryItOut 291
It's an iterator!
Iterating succeeded, iterCount == 1

tryItOut 292

tryItOut 293
before 122080, after 122080, break 00ad0000

tryItOut 294
Running threw: ReferenceError: __noSuchMethod__ is not defined

tryItOut 295

tryItOut 296

tryItOut 297

tryItOut 298
Compiling threw: SyntaxError: missing ; before statement

tryItOut 299

tryItOut 300
Compiling threw: SyntaxError: missing { before function body

tryItOut 301
Compiling threw: SyntaxError: missing ) in parenthetical

tryItOut 302
Compiling threw: SyntaxError: illegal XML character

tryItOut 303

tryItOut 304

tryItOut 305
Compiling threw: SyntaxError: unterminated string literal

tryItOut 306

tryItOut 307

tryItOut 308
Compiling threw: SyntaxError: missing ; before statement

tryItOut 309
Compiling threw: SyntaxError: invalid continue

tryItOut 310
Running threw: TypeError: this.zzz has no properties

tryItOut 311

tryItOut 312
Compiling threw: SyntaxError: missing variable name

tryItOut 313
Compiling threw: SyntaxError: missing variable name

tryItOut 314

tryItOut 315

tryItOut 316
Compiling threw: SyntaxError: syntax error

tryItOut 317
Compiling threw: SyntaxError: syntax error

tryItOut 318
Compiling threw: SyntaxError: missing = in destructuring declaration

tryItOut 319
Compiling threw: SyntaxError: missing ( before let head

tryItOut 320
Compiling threw: SyntaxError: invalid assignment left-hand side

tryItOut 321
Compiling threw: SyntaxError: label not found

tryItOut 322
Compiling threw: SyntaxError: missing { before function body

tryItOut 323

tryItOut 324
Running threw: TypeError: __parent__ has no properties

tryItOut 325
Compiling threw: SyntaxError: syntax error

tryItOut 326
Compiling threw: SyntaxError: syntax error

tryItOut 327

tryItOut 328
Running threw: ReferenceError: reference to undefined XML name *

tryItOut 329
Compiling threw: SyntaxError: invalid assignment left-hand side

tryItOut 330
Compiling threw: SyntaxError: invalid for/in left-hand side

tryItOut 331

tryItOut 332

tryItOut 333

tryItOut 334
Compiling threw: SyntaxError: invalid continue

tryItOut 335
Compiling threw: SyntaxError: missing { before function body

tryItOut 336
Compiling threw: SyntaxError: missing ) in parenthetical

tryItOut 337
Compiling threw: SyntaxError: missing { before function body

tryItOut 338

tryItOut 339

tryItOut 340

tryItOut 341
It's an iterator!
Iterating threw!
Iterating threw: ReferenceError: reference to undefined XML name @mozilla.org/js/function::__noSuchMethod__

tryItOut 342
Running threw: TypeError: this.zzz has no properties

tryItOut 343
Compiling threw: SyntaxError: missing ) in parenthetical

tryItOut 344

tryItOut 345
Compiling threw: SyntaxError: invalid XML name

tryItOut 346
Compiling threw: SyntaxError: missing ; before statement

tryItOut 347
Compiling threw: SyntaxError: missing ; before statement

tryItOut 348

tryItOut 349

tryItOut 350
Compiling threw: SyntaxError: missing { before function body

tryItOut 351
Running threw: ReferenceError: reference to undefined XML name @foo

tryItOut 352

tryItOut 353
Compiling threw: SyntaxError: syntax error

tryItOut 354

tryItOut 355

tryItOut 356
Compiling threw: SyntaxError: missing { before function body

tryItOut 357
Running threw: ReferenceError: reference to undefined XML name @foo

tryItOut 358
Compiling threw: SyntaxError: label not found

tryItOut 359

tryItOut 360

tryItOut 361
Compiling threw: SyntaxError: invalid for/in left-hand side

tryItOut 362
Compiling threw: SyntaxError: invalid default XML namespace

tryItOut 363

tryItOut 364
Compiling threw: SyntaxError: invalid for each loop

tryItOut 365

tryItOut 366

tryItOut 367
Compiling threw: SyntaxError: missing = in destructuring declaration

tryItOut 368
Compiling threw: SyntaxError: invalid continue

tryItOut 369

tryItOut 370

tryItOut 371

tryItOut 372
Compiling threw: SyntaxError: missing { before function body

tryItOut 373
before 139520, after 139520, break 00af7000

tryItOut 374

tryItOut 375
Compiling threw: SyntaxError: missing { before function body

tryItOut 376
It's an iterator!
Iterating threw!
Iterating threw: Error: invalid sharp variable use #1#

tryItOut 377
Compiling threw: SyntaxError: missing ; before statement

tryItOut 378
Compiling threw: SyntaxError: invalid increment operand

tryItOut 379

tryItOut 380
Running threw: ReferenceError: prop is not defined

tryItOut 381
Compiling threw: SyntaxError: invalid assignment left-hand side

tryItOut 382

tryItOut 383
Compiling threw: SyntaxError: invalid destructuring assignment operator

tryItOut 384
Compiling threw: SyntaxError: missing { before function body

tryItOut 385
Compiling threw: SyntaxError: invalid destructuring assignment operator

tryItOut 386

tryItOut 387

tryItOut 388
Compiling threw: SyntaxError: invalid for/in left-hand side

tryItOut 389
Compiling threw: SyntaxError: syntax error

tryItOut 390

tryItOut 391
Compiling threw: SyntaxError: missing ) in parenthetical

tryItOut 392
Compiling threw: SyntaxError: invalid destructuring assignment operator

tryItOut 393
Compiling threw: SyntaxError: invalid for/in left-hand side

tryItOut 394
Compiling threw: SyntaxError: invalid increment operand

tryItOut 395

tryItOut 396

tryItOut 397
Compiling threw: SyntaxError: missing ; before statement

tryItOut 398

tryItOut 399

tryItOut 400
Running threw: TypeError: this.zzz has no properties

tryItOut 401

tryItOut 402
Compiling threw: SyntaxError: missing { before function body

tryItOut 403
Compiling threw: SyntaxError: missing ] after element list

tryItOut 404
Compiling threw: SyntaxError: missing ) in parenthetical

tryItOut 405

tryItOut 406
Compiling threw: SyntaxError: missing : after property id

tryItOut 407
Compiling threw: SyntaxError: missing ) after for-loop control

tryItOut 408
Compiling threw: SyntaxError: invalid break

tryItOut 409

tryItOut 410

tryItOut 411

tryItOut 412

tryItOut 413
Running threw: ReferenceError: __noSuchMethod__ is not defined

tryItOut 414

tryItOut 415
Compiling threw: SyntaxError: missing ) in parenthetical

tryItOut 416

tryItOut 417

tryItOut 418
before 139520, after 139520, break 00af7000

tryItOut 419
Compiling threw: SyntaxError: missing variable name

tryItOut 420

tryItOut 421

tryItOut 422
Compiling threw: SyntaxError: missing ) in parenthetical

tryItOut 423
Compiling threw: SyntaxError: syntax error

tryItOut 424
It's an iterator!
Iterating succeeded, iterCount == 1

tryItOut 425

tryItOut 426
Compiling threw: SyntaxError: syntax error

tryItOut 427

tryItOut 428

tryItOut 429
Compiling threw: SyntaxError: syntax error

tryItOut 430

tryItOut 431
Compiling threw: SyntaxError: invalid for/in left-hand side

tryItOut 432
Compiling threw: SyntaxError: missing ; after for-loop initializer

tryItOut 433
Compiling threw: SyntaxError: label not found

tryItOut 434
Compiling threw: SyntaxError: label not found

tryItOut 435

tryItOut 436
Compiling threw: SyntaxError: syntax error

tryItOut 437
Compiling threw: SyntaxError: invalid decrement operand

tryItOut 438
Compiling threw: SyntaxError: invalid assignment left-hand side

tryItOut 439

tryItOut 440

tryItOut 441

tryItOut 442
Compiling threw: SyntaxError: missing = in destructuring declaration

tryItOut 443
Running threw: ReferenceError: window is not defined

tryItOut 444
Compiling threw: SyntaxError: missing { before function body

tryItOut 445

tryItOut 446

tryItOut 447
Running threw: ReferenceError: __noSuchMethod__ is not defined

tryItOut 448
Compiling threw: SyntaxError: missing variable name

tryItOut 449
Compiling threw: SyntaxError: invalid decrement operand

tryItOut 450

tryItOut 451

tryItOut 452
Compiling threw: SyntaxError: invalid decrement operand

tryItOut 453
Compiling threw: SyntaxError: invalid break

tryItOut 454
Compiling threw: SyntaxError: label not found

tryItOut 455
Compiling threw: SyntaxError: invalid label

tryItOut 456
Compiling threw: SyntaxError: invalid for/in left-hand side

tryItOut 457

tryItOut 458

tryItOut 459
Compiling threw: SyntaxError: invalid assignment left-hand side

tryItOut 460
Compiling threw: SyntaxError: missing { before function body

tryItOut 461

tryItOut 462
Compiling threw: SyntaxError: invalid for/in left-hand side

tryItOut 463
Compiling threw: SyntaxError: invalid destructuring assignment operator

tryItOut 464

tryItOut 465
Compiling threw: SyntaxError: missing : after property id

tryItOut 466
Compiling threw: SyntaxError: syntax error

tryItOut 467

tryItOut 468
Compiling threw: SyntaxError: syntax error

tryItOut 469
Compiling threw: SyntaxError: missing : after property id

tryItOut 470

tryItOut 471
Compiling threw: SyntaxError: missing ) in parenthetical

tryItOut 472
Compiling threw: SyntaxError: invalid for each loop

tryItOut 473
Compiling threw: SyntaxError: syntax error

tryItOut 474
Running threw: ReferenceError: prop is not defined

tryItOut 475

tryItOut 476
Compiling threw: SyntaxError: missing variable name

tryItOut 477
Compiling threw: SyntaxError: invalid for/in left-hand side

tryItOut 478
Compiling threw: SyntaxError: missing ; before statement

tryItOut 479
Compiling threw: SyntaxError: missing { before function body

tryItOut 480
It's an iterator!
Iterating succeeded, iterCount == 1

tryItOut 481
Running threw: ReferenceError: reference to undefined XML name @foo

tryItOut 482

tryItOut 483
Compiling threw: SyntaxError: invalid assignment left-hand side

tryItOut 484

tryItOut 485
Compiling threw: SyntaxError: syntax error

tryItOut 486
Compiling threw: SyntaxError: invalid break

tryItOut 487

tryItOut 488
Compiling threw: SyntaxError: missing ) in parenthetical

tryItOut 489
Compiling threw: SyntaxError: missing ) in parenthetical

tryItOut 490

tryItOut 491
Compiling threw: SyntaxError: syntax error

tryItOut 492
Running threw: ReferenceError: prop is not defined

tryItOut 493

tryItOut 494

tryItOut 495
Compiling threw: SyntaxError: syntax error

tryItOut 496
Compiling threw: SyntaxError: invalid for/in left-hand side

tryItOut 497
Compiling threw: SyntaxError: invalid assignment left-hand side

tryItOut 498
Compiling threw: SyntaxError: missing ) after let head

tryItOut 499

tryItOut 500
Compiling threw: SyntaxError: invalid for/in left-hand side

tryItOut 501
Compiling threw: SyntaxError: missing variable name

tryItOut 502
Compiling threw: SyntaxError: missing { before function body

tryItOut 503
Compiling threw: TypeError: redeclaration of const prop

tryItOut 504
Compiling threw: SyntaxError: missing ] after element list

tryItOut 505
Compiling threw: SyntaxError: syntax error

tryItOut 506

tryItOut 507
Compiling threw: TypeError: redeclaration of const __iterator__

tryItOut 508
Compiling threw: SyntaxError: syntax error

tryItOut 509
Compiling threw: SyntaxError: label not found

tryItOut 510

tryItOut 511
Compiling threw: SyntaxError: label not found

tryItOut 512
Compiling threw: SyntaxError: missing ; before statement

tryItOut 513
Compiling threw: SyntaxError: invalid for/in left-hand side

tryItOut 514
Compiling threw: SyntaxError: syntax error

tryItOut 515
Compiling threw: SyntaxError: syntax error

tryItOut 516
Compiling threw: SyntaxError: missing ) after for-loop control

tryItOut 517

tryItOut 518

tryItOut 519
Compiling threw: SyntaxError: missing ; before statement

tryItOut 520
It's an iterator!
Iterating threw!
Iterating threw: TypeError: XML filtering predicate operator called on incompatible Function

tryItOut 521

tryItOut 522
Compiling threw: SyntaxError: missing name after . operator

tryItOut 523

tryItOut 524
Compiling threw: TypeError: generator function anonymous returns a value

tryItOut 525

tryItOut 526
Compiling threw: TypeError: redeclaration of variable __iterator__

tryItOut 527
Compiling threw: SyntaxError: label not found

tryItOut 528
Compiling threw: SyntaxError: invalid destructuring assignment operator

tryItOut 529
Compiling threw: SyntaxError: invalid for/in left-hand side

tryItOut 530
Compiling threw: SyntaxError: missing ) in parenthetical

tryItOut 531

tryItOut 532
Compiling threw: SyntaxError: missing ) after let head

tryItOut 533

tryItOut 534
Compiling threw: SyntaxError: invalid assignment left-hand side

tryItOut 535
Compiling threw: SyntaxError: syntax error

tryItOut 536

tryItOut 537
before 156960, after 156960, break 00b39000

tryItOut 538
Compiling threw: SyntaxError: invalid continue

tryItOut 539
Compiling threw: SyntaxError: invalid for each loop

tryItOut 540

tryItOut 541
Compiling threw: SyntaxError: invalid for each loop

tryItOut 542
Compiling threw: SyntaxError: invalid XML tag syntax

tryItOut 543
before 156960, after 156960, break 00b39000

tryItOut 544
before 156960, after 156960, break 00b39000

tryItOut 545
IGNORING BUG 379528!

tryItOut 546
Compiling threw: SyntaxError: missing { before function body

tryItOut 547
Compiling threw: SyntaxError: missing while after do-loop body

tryItOut 548
Running threw: TypeError: this.zzz has no properties

tryItOut 549

tryItOut 550
Compiling threw: SyntaxError: missing ) in parenthetical

tryItOut 551
Compiling threw: SyntaxError: label not found

tryItOut 552
Running threw: ReferenceError: prop is not defined

tryItOut 553

tryItOut 554

tryItOut 555
Running threw: TypeError: __count__ is not a function

tryItOut 556

tryItOut 557

tryItOut 558

tryItOut 559

tryItOut 560
Compiling threw: SyntaxError: duplicate label

tryItOut 561
Compiling threw: SyntaxError: missing ; before statement

tryItOut 562
Running threw: TypeError: redeclaration of function __proto__

tryItOut 563

tryItOut 564

tryItOut 565
Compiling threw: SyntaxError: label not found

tryItOut 566
Compiling threw: SyntaxError: invalid for/in left-hand side

tryItOut 567
Compiling threw: TypeError: redeclaration of variable prototype

tryItOut 568

tryItOut 569

tryItOut 570

tryItOut 571
Compiling threw: SyntaxError: missing { before function body

tryItOut 572

tryItOut 573

tryItOut 574
Compiling threw: SyntaxError: missing ; before statement

tryItOut 575
Compiling threw: SyntaxError: label not found

tryItOut 576

tryItOut 577

tryItOut 578

tryItOut 579

tryItOut 580
Running threw: ReferenceError: prop is not defined

tryItOut 581

tryItOut 582
Compiling threw: SyntaxError: label not found

tryItOut 583

tryItOut 584
Compiling threw: SyntaxError: invalid assignment left-hand side

tryItOut 585

tryItOut 586

tryItOut 587
Compiling threw: SyntaxError: missing variable name

tryItOut 588
Compiling threw: SyntaxError: label not found

tryItOut 589
Compiling threw: SyntaxError: invalid assignment left-hand side

tryItOut 590

tryItOut 591
Compiling threw: SyntaxError: invalid for/in left-hand side

tryItOut 592
Compiling threw: SyntaxError: syntax error

tryItOut 593
Compiling threw: SyntaxError: invalid property id

tryItOut 594
It's an iterator!
Iterating threw!
Iterating threw: ReferenceError: reference to undefined XML name @foo

tryItOut 595
Compiling threw: SyntaxError: missing ) in parenthetical

tryItOut 596

tryItOut 597
Running threw: ReferenceError: _ is not defined

tryItOut 598
Compiling threw: SyntaxError: missing variable name

tryItOut 599
Compiling threw: SyntaxError: syntax error

tryItOut 600
Compiling threw: SyntaxError: missing ; before statement

tryItOut 601
Compiling threw: TypeError: redeclaration of const __iterator__

tryItOut 602
Compiling threw: SyntaxError: syntax error

tryItOut 603
Compiling threw: SyntaxError: missing ; before statement

tryItOut 604
Running threw: ReferenceError: reference to undefined XML name @foo

tryItOut 605
Compiling threw: SyntaxError: syntax error

tryItOut 606
before 156960, after 156960, break 00b39000

tryItOut 607
Compiling threw: SyntaxError: missing ) in parenthetical

tryItOut 608
Running threw: TypeError: this.zzz has no properties

tryItOut 609

tryItOut 610
Compiling threw: SyntaxError: syntax error

tryItOut 611

tryItOut 612

tryItOut 613

tryItOut 614

tryItOut 615

tryItOut 616

tryItOut 617
Compiling threw: SyntaxError: invalid for/in left-hand side

tryItOut 618
Compiling threw: SyntaxError: missing ; after for-loop condition

tryItOut 619
Running threw: ReferenceError: prop is not defined

tryItOut 620

tryItOut 621
Compiling threw: SyntaxError: syntax error

tryItOut 622
Compiling threw: SyntaxError: syntax error

tryItOut 623

tryItOut 624
before 156960, after 156960, break 00b39000

tryItOut 625
Compiling threw: SyntaxError: invalid for each loop

tryItOut 626

tryItOut 627
Compiling threw: SyntaxError: invalid for/in left-hand side

tryItOut 628
before 156960, after 156960, break 00b39000

tryItOut 629
before 156960, after 156960, break 00b39000

tryItOut 630

tryItOut 631

tryItOut 632
before 156960, after 156960, break 00b39000

tryItOut 633

tryItOut 634

tryItOut 635
Compiling threw: SyntaxError: label not found

tryItOut 636
Compiling threw: SyntaxError: invalid for each loop

tryItOut 637
Running threw: ReferenceError: reference to undefined XML name @foo

tryItOut 638
Compiling threw: SyntaxError: invalid for/in left-hand side

tryItOut 639

tryItOut 640
Compiling threw: SyntaxError: missing ] after element list

tryItOut 641

tryItOut 642
Compiling threw: SyntaxError: missing ) in parenthetical

tryItOut 643

tryItOut 644
Compiling threw: SyntaxError: missing : after property id

tryItOut 645
Compiling threw: SyntaxError: missing ) after condition

tryItOut 646
Compiling threw: SyntaxError: missing ) after switch expression

tryItOut 647

tryItOut 648
Compiling threw: SyntaxError: missing ; before statement

tryItOut 649
It's an iterator!
Iterating succeeded, iterCount == 2

tryItOut 650

tryItOut 651
Compiling threw: SyntaxError: missing ; before statement

tryItOut 652
Compiling threw: SyntaxError: missing : after property id

tryItOut 653
Compiling threw: SyntaxError: invalid for/in left-hand side

tryItOut 654

tryItOut 655
Compiling threw: SyntaxError: syntax error

tryItOut 656
Compiling threw: SyntaxError: missing ) in parenthetical

tryItOut 657
Compiling threw: SyntaxError: missing { before function body

tryItOut 658
Running threw: ReferenceError: window is not defined

tryItOut 659

tryItOut 660
Compiling threw: SyntaxError: invalid assignment left-hand side

tryItOut 661
Compiling threw: SyntaxError: missing { before function body

tryItOut 662
Compiling threw: SyntaxError: syntax error

tryItOut 663

tryItOut 664

tryItOut 665
Compiling threw: SyntaxError: label not found

tryItOut 666
Running threw: TypeError: new this.__defineGetter__("constructor", /a/gi) is not a function

tryItOut 667

tryItOut 668
Running threw: TypeError: this.zzz has no properties

tryItOut 669
Running threw: ReferenceError: __iterator__ is not defined

tryItOut 670
Compiling threw: SyntaxError: syntax error

tryItOut 671
Running threw: TypeError: undefined has no properties

tryItOut 672
Compiling threw: SyntaxError: illegal XML character

tryItOut 673
Compiling threw: SyntaxError: invalid for/in left-hand side

tryItOut 674
Compiling threw: SyntaxError: invalid for each loop

tryItOut 675
Running threw: ReferenceError: reference to undefined XML name @foo

tryItOut 676

tryItOut 677
It's an iterator!
Iterating threw!
Iterating threw: TypeError: "".__lookupGetter__("constructor") has no properties

tryItOut 678
Running threw: TypeError: ({a1:1}) is not a constructor

tryItOut 679
Compiling threw: SyntaxError: syntax error

tryItOut 680
before 156960, after 156960, break 00b39000

tryItOut 681
Compiling threw: SyntaxError: label not found

tryItOut 682
Compiling threw: SyntaxError: invalid assignment left-hand side

tryItOut 683

tryItOut 684
Compiling threw: SyntaxError: syntax error

tryItOut 685

tryItOut 686

tryItOut 687
Compiling threw: SyntaxError: invalid decrement operand

tryItOut 688
Compiling threw: SyntaxError: missing variable name

tryItOut 689
before 156960, after 156960, break 00b39000

tryItOut 690

tryItOut 691
Compiling threw: SyntaxError: invalid increment operand

tryItOut 692

tryItOut 693

tryItOut 694
Compiling threw: SyntaxError: illegal character

tryItOut 695
Compiling threw: SyntaxError: missing ) in parenthetical

tryItOut 696

tryItOut 697

tryItOut 698
Compiling threw: SyntaxError: missing variable name

tryItOut 699

tryItOut 700
Compiling threw: SyntaxError: invalid for/in left-hand side

tryItOut 701

tryItOut 702

tryItOut 703
Compiling threw: TypeError: redeclaration of const __parent__

tryItOut 704

tryItOut 705

tryItOut 706
Compiling threw: SyntaxError: missing { before function body

tryItOut 707
Compiling threw: SyntaxError: invalid break

tryItOut 708
Compiling threw: SyntaxError: syntax error

tryItOut 709
Compiling threw: SyntaxError: missing variable name

tryItOut 710
Compiling threw: SyntaxError: unterminated string literal

tryItOut 711
Compiling threw: SyntaxError: missing = in destructuring declaration

tryItOut 712
Compiling threw: SyntaxError: syntax error

tryItOut 713

tryItOut 714
Running threw: TypeError: arguments[0] has no properties

tryItOut 715

tryItOut 716

tryItOut 717

tryItOut 718

tryItOut 719
Running threw: ReferenceError: reference to undefined XML name *::*

tryItOut 720
Compiling threw: SyntaxError: missing variable name

tryItOut 721

tryItOut 722

tryItOut 723
Compiling threw: SyntaxError: missing { before function body

tryItOut 724

tryItOut 725
Compiling threw: SyntaxError: missing variable name

tryItOut 726
Compiling threw: SyntaxError: invalid for/in left-hand side

tryItOut 727

tryItOut 728

tryItOut 729
Compiling threw: SyntaxError: missing ) in parenthetical

tryItOut 730

tryItOut 731

tryItOut 732
before 156960, after 156960, break 00b51000
Running threw: TypeError: gc() is not a function

tryItOut 733
Compiling threw: SyntaxError: invalid for/in left-hand side

tryItOut 734
Compiling threw: TypeError: redeclaration of variable __noSuchMethod__

tryItOut 735

tryItOut 736
Compiling threw: SyntaxError: syntax error

tryItOut 737

tryItOut 738

tryItOut 739

tryItOut 740

tryItOut 741
Compiling threw: SyntaxError: missing ; before statement

tryItOut 742
Compiling threw: SyntaxError: syntax error

tryItOut 743

tryItOut 744
Compiling threw: TypeError: redeclaration of const __iterator__

tryItOut 745

tryItOut 746
Compiling threw: SyntaxError: missing ) in parenthetical

tryItOut 747
Compiling threw: SyntaxError: invalid assignment left-hand side

tryItOut 748

tryItOut 749
Running threw: ReferenceError: reference to undefined XML name *

tryItOut 750
Compiling threw: SyntaxError: invalid assignment left-hand side

tryItOut 751
Running threw: ReferenceError: reference to undefined XML name *

tryItOut 752
Compiling threw: SyntaxError: missing { before function body

tryItOut 753
Compiling threw: TypeError: anonymous generator function returns a value

tryItOut 754
Running threw: TypeError: XML filtering predicate operator called on incompatible Number

tryItOut 755

tryItOut 756

tryItOut 757

tryItOut 758

tryItOut 759
Running threw: ReferenceError: z1 is not defined

tryItOut 760
Compiling threw: SyntaxError: label not found

tryItOut 761

tryItOut 762
Compiling threw: SyntaxError: missing { before function body

tryItOut 763

tryItOut 764
Compiling threw: SyntaxError: missing ] after element list

tryItOut 765

tryItOut 766
Running threw: TypeError: prop has no properties

tryItOut 767

tryItOut 768
Compiling threw: SyntaxError: invalid for/in left-hand side

tryItOut 769
Compiling threw: SyntaxError: missing { before function body

tryItOut 770
Compiling threw: SyntaxError: invalid assignment left-hand side

tryItOut 771

tryItOut 772

tryItOut 773
Compiling threw: SyntaxError: invalid for/in left-hand side

tryItOut 774

tryItOut 775
Compiling threw: SyntaxError: invalid for/in left-hand side

tryItOut 776
Compiling threw: SyntaxError: invalid assignment left-hand side

tryItOut 777
Compiling threw: SyntaxError: missing variable name

tryItOut 778

tryItOut 779
Compiling threw: SyntaxError: syntax error

tryItOut 780

tryItOut 781
It's an iterator!
Iterating succeeded, iterCount == 1

tryItOut 782
Compiling threw: SyntaxError: invalid continue

tryItOut 783

tryItOut 784
Compiling threw: SyntaxError: label not found

tryItOut 785

tryItOut 786

tryItOut 787

tryItOut 788
Compiling threw: SyntaxError: missing { before function body

tryItOut 789
before 174400, after 174400, break 00b51000

tryItOut 790
before 174400, after 174400, break 00b51000

tryItOut 791
Compiling threw: SyntaxError: illegal XML character

tryItOut 792
Compiling threw: SyntaxError: missing ] after element list

tryItOut 793

tryItOut 794
Compiling threw: SyntaxError: missing ) in parenthetical

tryItOut 795

tryItOut 796

tryItOut 797

tryItOut 798

tryItOut 799

tryItOut 800
Compiling threw: SyntaxError: missing = in destructuring declaration

tryItOut 801

tryItOut 802

tryItOut 803
Compiling threw: SyntaxError: missing ; before statement

tryItOut 804
Running threw: TypeError: this.zzz has no properties

tryItOut 805

tryItOut 806

tryItOut 807
Compiling threw: SyntaxError: missing ; before statement

tryItOut 808
Compiling threw: SyntaxError: syntax error

tryItOut 809
Compiling threw: SyntaxError: missing ; before statement

tryItOut 810

tryItOut 811
Compiling threw: SyntaxError: missing { before function body

tryItOut 812
Compiling threw: SyntaxError: invalid continue

tryItOut 813
Compiling threw: SyntaxError: syntax error

tryItOut 814
Compiling threw: SyntaxError: syntax error

tryItOut 815
Compiling threw: SyntaxError: invalid decrement operand

tryItOut 816

tryItOut 817

tryItOut 818
before 174400, after 174400, break 00b62000

tryItOut 819

tryItOut 820
Compiling threw: SyntaxError: missing ; before statement

tryItOut 821

tryItOut 822
Compiling threw: SyntaxError: missing ) after with-statement object

tryItOut 823

tryItOut 824
Compiling threw: SyntaxError: syntax error

tryItOut 825

tryItOut 826

tryItOut 827

tryItOut 828

tryItOut 829
Running threw: TypeError: this.zzz has no properties

tryItOut 830
Running threw: TypeError: this.zzz has no properties

tryItOut 831
Compiling threw: SyntaxError: invalid for/in left-hand side

tryItOut 832

tryItOut 833

tryItOut 834

tryItOut 835
Compiling threw: SyntaxError: missing { before function body

tryItOut 836

tryItOut 837

tryItOut 838

tryItOut 839
Running threw: TypeError: arguments[0] has no properties

tryItOut 840

tryItOut 841
Compiling threw: SyntaxError: invalid for/in left-hand side

tryItOut 842
Compiling threw: SyntaxError: invalid for/in left-hand side

tryItOut 843
Running threw: ReferenceError: window is not defined

tryItOut 844
Running threw: TypeError: this.zzz has no properties

tryItOut 845

tryItOut 846
Compiling threw: SyntaxError: syntax error

tryItOut 847

tryItOut 848
Compiling threw: TypeError: redeclaration of const __count__

tryItOut 849

tryItOut 850

tryItOut 851

tryItOut 852

tryItOut 853

tryItOut 854
Compiling threw: SyntaxError: invalid destructuring assignment operator

tryItOut 855

tryItOut 856
Compiling threw: SyntaxError: invalid assignment left-hand side

tryItOut 857
Compiling threw: SyntaxError: syntax error

tryItOut 858
Compiling threw: SyntaxError: invalid continue

tryItOut 859
Compiling threw: SyntaxError: invalid for/in left-hand side

tryItOut 860
Compiling threw: SyntaxError: label not found

tryItOut 861

tryItOut 862
Compiling threw: SyntaxError: invalid assignment left-hand side

tryItOut 863
Compiling threw: SyntaxError: missing { before function body

tryItOut 864
Compiling threw: SyntaxError: label not found

tryItOut 865
Running threw: ReferenceError: reference to undefined XML name *::*

tryItOut 866

tryItOut 867
Compiling threw: SyntaxError: missing = in destructuring declaration

tryItOut 868

tryItOut 869
Compiling threw: SyntaxError: invalid for/in left-hand side

tryItOut 870
Compiling threw: SyntaxError: invalid for/in left-hand side

tryItOut 871

tryItOut 872

tryItOut 873

tryItOut 874
Compiling threw: TypeError: redeclaration of const __parent__

tryItOut 875

tryItOut 876
Running threw: TypeError: Function.prototype.toString called on incompatible object

tryItOut 877
Running threw: TypeError: this.zzz has no properties

tryItOut 878
Compiling threw: SyntaxError: syntax error

tryItOut 879
Compiling threw: SyntaxError: invalid increment operand

tryItOut 880

tryItOut 881

tryItOut 882

tryItOut 883
Compiling threw: SyntaxError: illegal XML character

tryItOut 884
Compiling threw: SyntaxError: syntax error

tryItOut 885
Compiling threw: SyntaxError: syntax error

tryItOut 886
Compiling threw: SyntaxError: syntax error

tryItOut 887
Compiling threw: SyntaxError: missing ] after element list

tryItOut 888
Compiling threw: SyntaxError: missing variable name

tryItOut 889
Compiling threw: SyntaxError: missing variable name

tryItOut 890
Compiling threw: SyntaxError: label not found

tryItOut 891

tryItOut 892
Compiling threw: SyntaxError: missing { before function body

tryItOut 893
Running threw: ReferenceError: reference to undefined XML name *::*

tryItOut 894

tryItOut 895
Running threw: TypeError: #1={a:#1#} is not a constructor

tryItOut 896

tryItOut 897
Compiling threw: SyntaxError: invalid continue

tryItOut 898

tryItOut 899

tryItOut 900
Running threw: TypeError: this is not a function

tryItOut 901
Running threw: ReferenceError: reference to undefined XML name *::*

tryItOut 902
Compiling threw: SyntaxError: missing ) in parenthetical

tryItOut 903
Running threw: TypeError: this.zzz has no properties

tryItOut 904
Compiling threw: SyntaxError: invalid break

tryItOut 905

tryItOut 906

tryItOut 907

tryItOut 908

tryItOut 909
Compiling threw: SyntaxError: missing ) in parenthetical

tryItOut 910
Compiling threw: SyntaxError: missing ) in parenthetical

tryItOut 911
Compiling threw: SyntaxError: invalid for/in left-hand side

tryItOut 912

tryItOut 913

tryItOut 914

tryItOut 915
Compiling threw: SyntaxError: invalid continue

tryItOut 916

tryItOut 917

tryItOut 918
Compiling threw: SyntaxError: invalid break

tryItOut 919

tryItOut 920
Compiling threw: SyntaxError: missing variable name

tryItOut 921

tryItOut 922
Compiling threw: TypeError: redeclaration of variable constructor

tryItOut 923
Running threw: ReferenceError: window is not defined

tryItOut 924
Compiling threw: SyntaxError: invalid continue

tryItOut 925
It's an iterator!
Iterating threw!
Iterating threw: TypeError: __parent__ has no properties

tryItOut 926

tryItOut 927

tryItOut 928

tryItOut 929
Compiling threw: SyntaxError: invalid continue

tryItOut 930

tryItOut 931
Running threw: TypeError: __parent__ has no properties

tryItOut 932
Compiling threw: SyntaxError: invalid for/in left-hand side

tryItOut 933

tryItOut 934

tryItOut 935

tryItOut 936

tryItOut 937

tryItOut 938
Compiling threw: SyntaxError: missing formal parameter

tryItOut 939
Compiling threw: SyntaxError: missing variable name

tryItOut 940
Compiling threw: SyntaxError: missing ] after element list

tryItOut 941

tryItOut 942
Compiling threw: SyntaxError: syntax error

tryItOut 943
Compiling threw: SyntaxError: invalid default XML namespace

tryItOut 944
Compiling threw: SyntaxError: illegal XML character

tryItOut 945
Compiling threw: SyntaxError: label not found

tryItOut 946
Compiling threw: SyntaxError: missing ) in parenthetical

tryItOut 947
Compiling threw: SyntaxError: missing ; before statement

tryItOut 948
Compiling threw: SyntaxError: label not found

tryItOut 949

tryItOut 950

tryItOut 951

tryItOut 952

tryItOut 953

tryItOut 954
Running threw: SyntaxError: invalid setter usage

tryItOut 955
Running threw: TypeError: this.zzz has no properties

tryItOut 956
Compiling threw: SyntaxError: invalid for/in left-hand side

tryItOut 957

tryItOut 958
Compiling threw: TypeError: generator function anonymous returns a value

tryItOut 959
It's an iterator!
Iterating threw!
Iterating threw: ReferenceError: reference to undefined XML name *

tryItOut 960

tryItOut 961
Compiling threw: SyntaxError: syntax error

tryItOut 962
Running threw: TypeError: this.zzz has no properties

tryItOut 963
Compiling threw: SyntaxError: missing = in destructuring declaration

tryItOut 964

tryItOut 965

tryItOut 966
Running threw: TypeError: ({}) is not a function

tryItOut 967

tryItOut 968
Compiling threw: SyntaxError: invalid continue

tryItOut 969

tryItOut 970

tryItOut 971

tryItOut 972
Compiling threw: SyntaxError: missing ; before statement

tryItOut 973

tryItOut 974

tryItOut 975
Compiling threw: SyntaxError: invalid assignment left-hand side

tryItOut 976

tryItOut 977

tryItOut 978
Compiling threw: SyntaxError: missing { before function body

tryItOut 979
Compiling threw: SyntaxError: invalid XML name

tryItOut 980
Compiling threw: SyntaxError: missing ] after element list

tryItOut 981
Compiling threw: SyntaxError: label not found

tryItOut 982
Compiling threw: SyntaxError: invalid assignment left-hand side

tryItOut 983

tryItOut 984
Compiling threw: SyntaxError: invalid increment operand

tryItOut 985

tryItOut 986
Compiling threw: SyntaxError: syntax error

tryItOut 987

tryItOut 988
Compiling threw: SyntaxError: missing while after do-loop body

tryItOut 989
Compiling threw: SyntaxError: syntax error

tryItOut 990
Compiling threw: SyntaxError: syntax error

tryItOut 991
Compiling threw: SyntaxError: invalid continue

tryItOut 992

tryItOut 993
Compiling threw: SyntaxError: missing : after case label

tryItOut 994

tryItOut 995

tryItOut 996

tryItOut 997
Compiling threw: SyntaxError: invalid for/in left-hand side

tryItOut 998

tryItOut 999
Compiling threw: SyntaxError: missing { before function body

tryItOut 1000
Running threw: TypeError: prop has no properties

ALL OK

Script done on Sat 04 May 2013 08:13:41 AM PDT
