Script started on Sat 04 May 2013 08:14:29 AM PDT
***
Targeting SpiderMonkey / Gecko.

tryItOut 1
Compiling threw: SyntaxError: missing ; before statement

tryItOut 2

tryItOut 3

tryItOut 4
Compiling threw: SyntaxError: missing } after let block

tryItOut 5

tryItOut 6

tryItOut 7
Compiling threw: SyntaxError: missing ] after element list

tryItOut 8
Compiling threw: SyntaxError: syntax error

tryItOut 9

tryItOut 10
Running threw: Error: invalid sharp variable use #1#

tryItOut 11
Running threw: [object StopIteration]

tryItOut 12

tryItOut 13

tryItOut 14
It's an iterator!
Iterating succeeded, iterCount == 1

tryItOut 15
Compiling threw: SyntaxError: missing ; before statement

tryItOut 16

tryItOut 17
It's an iterator!
Iterating succeeded, iterCount == 1

tryItOut 18
Compiling threw: SyntaxError: missing catch or finally after try

tryItOut 19
It's an iterator!
Iterating threw!
Iterating threw: ReferenceError: reference to undefined XML name *::*

tryItOut 20
Compiling threw: SyntaxError: invalid for/in left-hand side

tryItOut 21

tryItOut 22

tryItOut 23

tryItOut 24

tryItOut 25

tryItOut 26

tryItOut 27
Running threw: TypeError: __parent__ has no properties

tryItOut 28
It's an iterator!
Iterating succeeded, iterCount == 1

tryItOut 29

tryItOut 30

tryItOut 31
Compiling threw: SyntaxError: missing ( before let head

tryItOut 32

tryItOut 33
Compiling threw: SyntaxError: missing { before function body

tryItOut 34

tryItOut 35
It's an iterator!
Iterating threw!
Iterating threw: SyntaxError: return not in function

tryItOut 36
It's an iterator!
Iterating succeeded, iterCount == 0

tryItOut 37
Running threw: TypeError: undefined has no properties

tryItOut 38
It's an iterator!
Iterating succeeded, iterCount == 1

tryItOut 39
Compiling threw: SyntaxError: syntax error

tryItOut 40
Compiling threw: SyntaxError: invalid for/in left-hand side

tryItOut 41
Running threw: ReferenceError: reference to undefined XML name *

tryItOut 42

tryItOut 43
It's an iterator!
Iterating threw!
Iterating threw: ReferenceError: reference to undefined XML name *

tryItOut 44

tryItOut 45
It's an iterator!
Iterating threw!
Iterating threw: TypeError: null is not a function

tryItOut 46
It's an iterator!
Iterating succeeded, iterCount == 1

tryItOut 47
It's an iterator!
Iterating succeeded, iterCount == 1

tryItOut 48

tryItOut 49
Compiling threw: SyntaxError: missing ) in parenthetical

tryItOut 50
It's an iterator!
Iterating succeeded, iterCount == 1

tryItOut 51
It's an iterator!
Iterating succeeded, iterCount == 1

tryItOut 52
Compiling threw: TypeError: redeclaration of const prototype

tryItOut 53
Compiling threw: SyntaxError: illegal XML character

tryItOut 54

tryItOut 55
Compiling threw: SyntaxError: syntax error

tryItOut 56
Compiling threw: SyntaxError: invalid for/in left-hand side

tryItOut 57

tryItOut 58
Compiling threw: SyntaxError: finally without try

tryItOut 59
Compiling threw: SyntaxError: invalid default XML namespace

tryItOut 60
It's an iterator!
Iterating succeeded, iterCount == 1

tryItOut 61

tryItOut 62

tryItOut 63
Compiling threw: SyntaxError: missing } after catch block

tryItOut 64
Compiling threw: SyntaxError: invalid for/in left-hand side

tryItOut 65
Compiling threw: SyntaxError: missing ] after element list

tryItOut 66

tryItOut 67
It's an iterator!
Iterating threw!
Iterating threw: ReferenceError: __noSuchMethod__ is not defined

tryItOut 68

tryItOut 69

tryItOut 70
Compiling threw: SyntaxError: invalid assignment left-hand side

tryItOut 71

tryItOut 72

tryItOut 73

tryItOut 74

tryItOut 75
It's an iterator!
Iterating threw!
Iterating threw: ReferenceError: reference to undefined XML name *::*

tryItOut 76

tryItOut 77
Compiling threw: SyntaxError: syntax error

tryItOut 78
Compiling threw: SyntaxError: syntax error

tryItOut 79
Running threw: [object StopIteration]

tryItOut 80
It's an iterator!
Iterating succeeded, iterCount == 1

tryItOut 81
Compiling threw: SyntaxError: missing ; before statement

tryItOut 82
Running threw: ReferenceError: reference to undefined XML name *

tryItOut 83
Compiling threw: SyntaxError: missing ) in parenthetical

tryItOut 84

tryItOut 85
Running threw: ReferenceError: reference to undefined XML name *::*

tryItOut 86
Compiling threw: SyntaxError: invalid for/in left-hand side

tryItOut 87
Compiling threw: TypeError: redeclaration of variable __count__

tryItOut 88
Running threw: ReferenceError: z1 is not defined

tryItOut 89

tryItOut 90
Compiling threw: SyntaxError: missing name in export statement

tryItOut 91
Compiling threw: SyntaxError: missing ; before statement

tryItOut 92
Running threw: [object StopIteration]

tryItOut 93
Compiling threw: TypeError: redeclaration of variable __iterator__

tryItOut 94
Compiling threw: SyntaxError: missing ) in parenthetical

tryItOut 95

tryItOut 96
Running threw: [object StopIteration]

tryItOut 97
Running threw: null

tryItOut 98

tryItOut 99
It's an iterator!
Iterating succeeded, iterCount == 1

tryItOut 100
It's an iterator!
Iterating succeeded, iterCount == 0

tryItOut 101

tryItOut 102
Running threw: [object StopIteration]

tryItOut 103
Running threw: SyntaxError: malformed formal parameter

tryItOut 104

tryItOut 105

tryItOut 106
Compiling threw: SyntaxError: missing : after case label

tryItOut 107
Running threw: [object StopIteration]

tryItOut 108

tryItOut 109
It's an iterator!
Iterating succeeded, iterCount == 1

tryItOut 110
Compiling threw: SyntaxError: invalid sharp variable definition

tryItOut 111
It's an iterator!
Iterating succeeded, iterCount == 1

tryItOut 112
Compiling threw: SyntaxError: missing } in compound statement

tryItOut 113
Compiling threw: SyntaxError: missing { before function body

tryItOut 114

tryItOut 115
Compiling threw: SyntaxError: missing = in destructuring declaration

tryItOut 116
It's an iterator!
Iterating succeeded, iterCount == 1

tryItOut 117
Compiling threw: SyntaxError: invalid property id

tryItOut 118

tryItOut 119
Compiling threw: SyntaxError: duplicate label

tryItOut 120
Compiling threw: SyntaxError: syntax error

tryItOut 121
Running threw: 1

tryItOut 122

tryItOut 123
It's an iterator!
Iterating succeeded, iterCount == 0

tryItOut 124
Running threw: ReferenceError: reference to undefined XML name *

tryItOut 125

tryItOut 126
It's an iterator!
Iterating succeeded, iterCount == 1

tryItOut 127
Running threw: ReferenceError: reference to undefined XML name *::*

tryItOut 128

tryItOut 129

tryItOut 130

tryItOut 131
Compiling threw: SyntaxError: invalid property id

tryItOut 132
Running threw: [object StopIteration]

tryItOut 133
It's an iterator!
Iterating threw!
Iterating threw: SyntaxError: invalid getter usage

tryItOut 134
Compiling threw: SyntaxError: syntax error

tryItOut 135

tryItOut 136

tryItOut 137

tryItOut 138

tryItOut 139

tryItOut 140
Running threw: null

tryItOut 141
Compiling threw: SyntaxError: syntax error

tryItOut 142
Running threw: null

tryItOut 143
Running threw: [object StopIteration]

tryItOut 144

tryItOut 145

tryItOut 146
It's an iterator!
Iterating succeeded, iterCount == 1

tryItOut 147

tryItOut 148

tryItOut 149

tryItOut 150

tryItOut 151

tryItOut 152
It's an iterator!
Iterating succeeded, iterCount == 1

tryItOut 153

tryItOut 154

tryItOut 155

tryItOut 156
Compiling threw: SyntaxError: invalid for/in left-hand side

tryItOut 157

tryItOut 158

tryItOut 159
It's an iterator!
Iterating succeeded, iterCount == 1

tryItOut 160
Compiling threw: SyntaxError: missing = in destructuring declaration

tryItOut 161

tryItOut 162
Compiling threw: SyntaxError: missing ) in parenthetical

tryItOut 163
It's an iterator!
Iterating succeeded, iterCount == 1

tryItOut 164
Compiling threw: SyntaxError: missing ) after let head

tryItOut 165
Running threw: [object StopIteration]

tryItOut 166
It's an iterator!
Iterating succeeded, iterCount == 1

tryItOut 167

tryItOut 168
Compiling threw: SyntaxError: invalid assignment left-hand side

tryItOut 169
Running threw: [object StopIteration]

tryItOut 170
It's an iterator!
Iterating succeeded, iterCount == 1

tryItOut 171
Compiling threw: SyntaxError: missing name in export statement

tryItOut 172

tryItOut 173
Compiling threw: SyntaxError: missing ] after element list

tryItOut 174
Compiling threw: SyntaxError: missing ; before statement

tryItOut 175
It's an iterator!
Iterating succeeded, iterCount == 1

tryItOut 176
It's an iterator!
Iterating succeeded, iterCount == 1

tryItOut 177
Compiling threw: SyntaxError: missing name in export statement

tryItOut 178
Compiling threw: SyntaxError: missing : after case label

tryItOut 179
Compiling threw: SyntaxError: missing ; before statement

tryItOut 180
Compiling threw: SyntaxError: invalid assignment left-hand side

tryItOut 181
Compiling threw: SyntaxError: missing ) after for-loop control

tryItOut 182

tryItOut 183
It's an iterator!
Iterating threw!
Iterating threw: ReferenceError: reference to undefined XML name *

tryItOut 184
Compiling threw: SyntaxError: missing ) in parenthetical

tryItOut 185
Running threw: ReferenceError: __iterator__ is not defined

tryItOut 186
It's an iterator!
Iterating succeeded, iterCount == 2

tryItOut 187

tryItOut 188
It's an iterator!
Iterating succeeded, iterCount == 1

tryItOut 189

tryItOut 190
Compiling threw: TypeError: redeclaration of variable prop

tryItOut 191
Running threw: ReferenceError: reference to undefined XML name *

tryItOut 192
Compiling threw: SyntaxError: invalid for/in left-hand side

tryItOut 193

tryItOut 194
Compiling threw: SyntaxError: missing { before function body

tryItOut 195
It's an iterator!
Iterating threw!
Iterating threw: TypeError: null has no properties

tryItOut 196
It's an iterator!
Iterating succeeded, iterCount == 1

tryItOut 197

tryItOut 198

tryItOut 199
Compiling threw: SyntaxError: missing { before function body

tryItOut 200
Compiling threw: SyntaxError: syntax error

tryItOut 201
It's an iterator!
Iterating succeeded, iterCount == 1

tryItOut 202
It's an iterator!
Iterating succeeded, iterCount == 1

tryItOut 203
Compiling threw: SyntaxError: invalid decrement operand

tryItOut 204
Compiling threw: SyntaxError: invalid for/in left-hand side

tryItOut 205
It's an iterator!
Iterating succeeded, iterCount == 1

tryItOut 206

tryItOut 207
Compiling threw: SyntaxError: missing } after let block

tryItOut 208

tryItOut 209

tryItOut 210
Compiling threw: TypeError: redeclaration of variable __noSuchMethod__

tryItOut 211
Running threw: ReferenceError: __noSuchMethod__ is not defined

tryItOut 212

tryItOut 213
Compiling threw: SyntaxError: invalid for/in left-hand side

tryItOut 214
It's an iterator!
Iterating succeeded, iterCount == 0

tryItOut 215

tryItOut 216
Compiling threw: SyntaxError: syntax error

tryItOut 217
Running threw: ReferenceError: reference to undefined XML name *

tryItOut 218
Compiling threw: TypeError: generator function anonymous returns a value

tryItOut 219
Compiling threw: SyntaxError: missing ; before statement

tryItOut 220
Compiling threw: SyntaxError: invalid for/in left-hand side

tryItOut 221

tryItOut 222
It's an iterator!
Iterating threw!
Iterating threw: TypeError: arguments[0] has no properties

tryItOut 223

tryItOut 224
It's an iterator!
Iterating succeeded, iterCount == 1

tryItOut 225
Compiling threw: SyntaxError: missing ] after element list

tryItOut 226

tryItOut 227

tryItOut 228

tryItOut 229
Running threw: [object StopIteration]

tryItOut 230
It's an iterator!
Iterating succeeded, iterCount == 1

tryItOut 231

tryItOut 232
Compiling threw: SyntaxError: missing ] after element list

tryItOut 233

tryItOut 234
Compiling threw: SyntaxError: missing ; before statement

tryItOut 235
It's an iterator!
Iterating succeeded, iterCount == 1

tryItOut 236
Compiling threw: SyntaxError: illegal XML character

tryItOut 237

tryItOut 238
It's an iterator!
Iterating succeeded, iterCount == 1

tryItOut 239
Compiling threw: SyntaxError: syntax error

tryItOut 240

tryItOut 241
Compiling threw: SyntaxError: invalid increment operand

tryItOut 242

tryItOut 243
Compiling threw: SyntaxError: missing ) in parenthetical

tryItOut 244

tryItOut 245

tryItOut 246
Running threw: ReferenceError: reference to undefined XML name *::*

tryItOut 247
It's an iterator!
Iterating succeeded, iterCount == 1

tryItOut 248

tryItOut 249

tryItOut 250
Compiling threw: SyntaxError: syntax error

tryItOut 251

tryItOut 252

tryItOut 253
Compiling threw: SyntaxError: illegal XML character

tryItOut 254

tryItOut 255
Running threw: true

tryItOut 256
Running threw: [object StopIteration]

tryItOut 257
Compiling threw: SyntaxError: syntax error

tryItOut 258
It's an iterator!
Iterating succeeded, iterCount == 1

tryItOut 259

tryItOut 260
Compiling threw: SyntaxError: missing } after let block

tryItOut 261
Running threw: ReferenceError: reference to undefined XML name @foo

tryItOut 262

tryItOut 263
Compiling threw: SyntaxError: illegal XML character

tryItOut 264
Compiling threw: SyntaxError: missing ] after element list

tryItOut 265

tryItOut 266

tryItOut 267

tryItOut 268
Compiling threw: SyntaxError: missing ) in parenthetical

tryItOut 269
Running threw: ReferenceError: reference to undefined XML name @foo

tryItOut 270
Compiling threw: SyntaxError: syntax error

tryItOut 271
Running threw: ReferenceError: reference to undefined XML name @foo

tryItOut 272
Compiling threw: SyntaxError: catch without try

tryItOut 273
Compiling threw: SyntaxError: syntax error

tryItOut 274
Running threw: false

tryItOut 275

tryItOut 276
Running threw: 

tryItOut 277
Compiling threw: SyntaxError: invalid increment operand

tryItOut 278
Compiling threw: SyntaxError: missing ) in parenthetical

tryItOut 279
It's an iterator!
Iterating succeeded, iterCount == 0

tryItOut 280
Compiling threw: SyntaxError: missing { before function body

tryItOut 281
Compiling threw: SyntaxError: missing name after . operator

tryItOut 282
Compiling threw: SyntaxError: syntax error

tryItOut 283
It's an iterator!
Iterating succeeded, iterCount == 0

tryItOut 284

tryItOut 285
Compiling threw: SyntaxError: invalid for/in left-hand side

tryItOut 286

tryItOut 287
Running threw: 1

tryItOut 288

tryItOut 289
Compiling threw: TypeError: redeclaration of var prototype

tryItOut 290

tryItOut 291
It's an iterator!
Iterating succeeded, iterCount == 1

tryItOut 292
Compiling threw: SyntaxError: syntax error

tryItOut 293

tryItOut 294
Running threw: SyntaxError: invalid getter usage

tryItOut 295

tryItOut 296

tryItOut 297
It's an iterator!
Iterating succeeded, iterCount == 1

tryItOut 298
Running threw: false

tryItOut 299
Running threw: [object StopIteration]

tryItOut 300

tryItOut 301
Compiling threw: SyntaxError: invalid for/in left-hand side

tryItOut 302
Compiling threw: SyntaxError: invalid for/in left-hand side

tryItOut 303

tryItOut 304
Compiling threw: SyntaxError: syntax error

tryItOut 305
It's an iterator!
Iterating threw!
Iterating threw: ReferenceError: reference to undefined XML name *

tryItOut 306
Compiling threw: SyntaxError: invalid for/in left-hand side

tryItOut 307
It's an iterator!
Iterating succeeded, iterCount == 2

tryItOut 308

tryItOut 309

tryItOut 310
Compiling threw: TypeError: generator function anonymous returns a value

tryItOut 311
It's an iterator!
Iterating succeeded, iterCount == 1

tryItOut 312
Compiling threw: SyntaxError: illegal XML character

tryItOut 313

tryItOut 314

tryItOut 315

tryItOut 316

tryItOut 317
Compiling threw: TypeError: redeclaration of const constructor

tryItOut 318

tryItOut 319

tryItOut 320
Running threw: TypeError: <x><y/></x>.call is not a function

tryItOut 321

tryItOut 322

tryItOut 323
Running threw: 1

tryItOut 324
Compiling threw: SyntaxError: missing ) after condition

tryItOut 325

tryItOut 326
Running threw: ReferenceError: __noSuchMethod__ is not defined

tryItOut 327

tryItOut 328

tryItOut 329
Compiling threw: SyntaxError: unterminated regular expression literal

tryItOut 330
Compiling threw: SyntaxError: missing { before function body

tryItOut 331
It's an iterator!
Iterating threw!
Iterating threw: ReferenceError: reference to undefined XML name @foo

tryItOut 332

tryItOut 333
Running threw: ReferenceError: __noSuchMethod__ is not defined

tryItOut 334
Compiling threw: TypeError: redeclaration of variable prop

tryItOut 335
Compiling threw: SyntaxError: missing = in destructuring declaration

tryItOut 336
It's an iterator!
Iterating succeeded, iterCount == 1

tryItOut 337
Compiling threw: SyntaxError: syntax error

tryItOut 338
Compiling threw: SyntaxError: invalid for/in left-hand side

tryItOut 339

tryItOut 340

tryItOut 341
Compiling threw: SyntaxError: missing catch or finally after try

tryItOut 342
Compiling threw: SyntaxError: missing ) in parenthetical

tryItOut 343

tryItOut 344
Compiling threw: SyntaxError: missing = in destructuring declaration

tryItOut 345

tryItOut 346
Running threw: null

tryItOut 347

tryItOut 348
Compiling threw: SyntaxError: syntax error

tryItOut 349

tryItOut 350
Running threw: ReferenceError: reference to undefined XML name *::*

tryItOut 351
Running threw: ReferenceError: reference to undefined XML name *::*

tryItOut 352

tryItOut 353
Running threw: ReferenceError: reference to undefined XML name @foo

tryItOut 354
Compiling threw: SyntaxError: missing { before function body

tryItOut 355
Compiling threw: SyntaxError: missing } after let block

tryItOut 356
Compiling threw: SyntaxError: missing ) in parenthetical

tryItOut 357

tryItOut 358
Compiling threw: SyntaxError: missing ] after element list

tryItOut 359
Compiling threw: SyntaxError: illegal XML character

tryItOut 360

tryItOut 361
Compiling threw: SyntaxError: syntax error

tryItOut 362

tryItOut 363

tryItOut 364
Running threw: TypeError: invalid XML name 1

tryItOut 365
Compiling threw: SyntaxError: missing ) in parenthetical

tryItOut 366

tryItOut 367

tryItOut 368
Running threw: [object StopIteration]

tryItOut 369
It's an iterator!
Iterating succeeded, iterCount == 1

tryItOut 370

tryItOut 371
It's an iterator!
Iterating succeeded, iterCount == 1

tryItOut 372

tryItOut 373
Compiling threw: SyntaxError: missing } after let block

tryItOut 374
Compiling threw: SyntaxError: missing { before function body

tryItOut 375

tryItOut 376

tryItOut 377
It's an iterator!
Iterating succeeded, iterCount == 1

tryItOut 378

tryItOut 379

tryItOut 380
It's an iterator!
Iterating succeeded, iterCount == 1

tryItOut 381
Compiling threw: SyntaxError: missing variable name

tryItOut 382
It's an iterator!
Iterating succeeded, iterCount == 2

tryItOut 383

tryItOut 384

tryItOut 385
Compiling threw: SyntaxError: missing variable name

tryItOut 386

tryItOut 387

tryItOut 388

tryItOut 389
Running threw: ReferenceError: reference to undefined XML name @foo

tryItOut 390
It's an iterator!
Iterating succeeded, iterCount == 1

tryItOut 391

tryItOut 392
Running threw: [object StopIteration]

tryItOut 393

tryItOut 394
Compiling threw: SyntaxError: missing ) in parenthetical

tryItOut 395

tryItOut 396
Compiling threw: SyntaxError: missing = in destructuring declaration

tryItOut 397

tryItOut 398

tryItOut 399
Running threw: [object StopIteration]

tryItOut 400

tryItOut 401

tryItOut 402
Running threw: [object StopIteration]

tryItOut 403

tryItOut 404

tryItOut 405

tryItOut 406
Compiling threw: SyntaxError: missing name after . operator

tryItOut 407
Running threw: [object StopIteration]

tryItOut 408
Compiling threw: TypeError: redeclaration of const __iterator__

tryItOut 409
Compiling threw: SyntaxError: catch without try

tryItOut 410

tryItOut 411

tryItOut 412
Compiling threw: SyntaxError: missing ] after element list

tryItOut 413
Running threw: ReferenceError: reference to undefined XML name *::*

tryItOut 414
It's an iterator!
Iterating succeeded, iterCount == 1

tryItOut 415

tryItOut 416
Compiling threw: SyntaxError: missing variable name

tryItOut 417

tryItOut 418
It's an iterator!
Iterating threw!
Iterating threw: ReferenceError: reference to undefined XML name *::*

tryItOut 419
Compiling threw: SyntaxError: syntax error

tryItOut 420

tryItOut 421
Compiling threw: SyntaxError: missing = in destructuring declaration

tryItOut 422
Running threw: ReferenceError: reference to undefined XML name *::*

tryItOut 423
Compiling threw: SyntaxError: syntax error

tryItOut 424
Compiling threw: TypeError: redeclaration of var prototype

tryItOut 425

tryItOut 426
Running threw: TypeError: arguments[0] has no properties

tryItOut 427
Running threw: ReferenceError: reference to undefined XML name @foo

tryItOut 428
Compiling threw: SyntaxError: illegal XML character

tryItOut 429

tryItOut 430

tryItOut 431

tryItOut 432
Compiling threw: SyntaxError: missing } after let block

tryItOut 433
Running threw: ReferenceError: __noSuchMethod__ is not defined

tryItOut 434
uneval returned the string: []

tryItOut 435
Compiling threw: SyntaxError: invalid for/in left-hand side

tryItOut 436
Running threw: ReferenceError: reference to undefined XML name *

tryItOut 437
Running threw: ReferenceError: reference to undefined XML name @foo

tryItOut 438
Compiling threw: SyntaxError: missing variable name

tryItOut 439
Compiling threw: TypeError: redeclaration of const __iterator__

tryItOut 440
It's an iterator!
Iterating threw!
Iterating threw: TypeError: <x>
  <y/>
</x> is not a function

tryItOut 441
Compiling threw: TypeError: generator function anonymous returns a value

tryItOut 442
Compiling threw: SyntaxError: syntax error

tryItOut 443
Compiling threw: SyntaxError: invalid for/in left-hand side

tryItOut 444
Compiling threw: SyntaxError: missing ) after for-loop control

tryItOut 445
Compiling threw: SyntaxError: missing { before function body

tryItOut 446
It's an iterator!
Iterating succeeded, iterCount == 1

tryItOut 447
It's an iterator!
Iterating succeeded, iterCount == 1

tryItOut 448

tryItOut 449
Compiling threw: SyntaxError: syntax error

tryItOut 450
Compiling threw: SyntaxError: syntax error

tryItOut 451
Compiling threw: SyntaxError: catch without try

tryItOut 452
Compiling threw: TypeError: redeclaration of variable __parent__

tryItOut 453
Compiling threw: SyntaxError: missing ; before statement

tryItOut 454

tryItOut 455

tryItOut 456
Compiling threw: TypeError: redeclaration of variable __parent__

tryItOut 457

tryItOut 458

tryItOut 459
Compiling threw: SyntaxError: missing ; before statement

tryItOut 460
It's an iterator!
Iterating succeeded, iterCount == 2

tryItOut 461
Compiling threw: SyntaxError: invalid increment operand

tryItOut 462

tryItOut 463

tryItOut 464
Compiling threw: SyntaxError: missing } after let block

tryItOut 465

tryItOut 466

tryItOut 467

tryItOut 468

tryItOut 469

tryItOut 470
Running threw: [object StopIteration]

tryItOut 471

tryItOut 472
Compiling threw: SyntaxError: missing = in destructuring declaration

tryItOut 473
Compiling threw: SyntaxError: syntax error

tryItOut 474

tryItOut 475
Running threw: ReferenceError: reference to undefined XML name *::*

tryItOut 476

tryItOut 477

tryItOut 478
Compiling threw: SyntaxError: invalid assignment left-hand side

tryItOut 479

tryItOut 480
Compiling threw: TypeError: redeclaration of const __iterator__

tryItOut 481

tryItOut 482

tryItOut 483
Running threw: [object StopIteration]

tryItOut 484
Compiling threw: SyntaxError: invalid decrement operand

tryItOut 485
It's an iterator!
Iterating succeeded, iterCount == 1

tryItOut 486
Compiling threw: SyntaxError: invalid for/in left-hand side

tryItOut 487

tryItOut 488
Compiling threw: SyntaxError: syntax error

tryItOut 489
It's an iterator!
Iterating succeeded, iterCount == 1

tryItOut 490
Compiling threw: SyntaxError: missing ) in parenthetical

tryItOut 491
Compiling threw: SyntaxError: missing } in compound statement

tryItOut 492

tryItOut 493

tryItOut 494

tryItOut 495
Running threw: true

tryItOut 496
Compiling threw: SyntaxError: invalid decrement operand

tryItOut 497
It's an iterator!
Iterating succeeded, iterCount == 1

tryItOut 498
Running threw: NaN

tryItOut 499

tryItOut 500
It's an iterator!
Iterating succeeded, iterCount == 1

tryItOut 501
Compiling threw: SyntaxError: duplicate label

tryItOut 502
Compiling threw: SyntaxError: missing variable name

tryItOut 503
Compiling threw: SyntaxError: missing ) in parenthetical

tryItOut 504
Running threw: ReferenceError: reference to undefined XML name @foo

tryItOut 505

tryItOut 506

tryItOut 507
Compiling threw: SyntaxError: syntax error

tryItOut 508
Compiling threw: TypeError: redeclaration of const __noSuchMethod__

tryItOut 509
It's an iterator!
Iterating threw!
Iterating threw: ReferenceError: reference to undefined XML name *

tryItOut 510

tryItOut 511
It's an iterator!
Iterating succeeded, iterCount == 1

tryItOut 512
Running threw: ReferenceError: reference to undefined XML name @foo

tryItOut 513
Compiling threw: SyntaxError: missing ) in parenthetical

tryItOut 514

tryItOut 515
It's an iterator!
Iterating succeeded, iterCount == 1

tryItOut 516

tryItOut 517
It's an iterator!
Iterating succeeded, iterCount == 1

tryItOut 518
Running threw: ReferenceError: Exception is not defined

tryItOut 519
It's an iterator!
Iterating succeeded, iterCount == 1

tryItOut 520
Running threw: null

tryItOut 521

tryItOut 522

tryItOut 523
It's an iterator!
Iterating succeeded, iterCount == 1

tryItOut 524
It's an iterator!
Iterating succeeded, iterCount == 1

tryItOut 525

tryItOut 526
It's an iterator!
Iterating threw!
Iterating threw: ReferenceError: reference to undefined XML name @foo

tryItOut 527
It's an iterator!
Iterating threw!
Iterating threw: TypeError: <y>
  <z/>
</y> is not a function

tryItOut 528

tryItOut 529
Running threw: ReferenceError: __noSuchMethod__ is not defined

tryItOut 530
Compiling threw: SyntaxError: missing ) after condition

tryItOut 531
Running threw: ReferenceError: z2 is not defined

tryItOut 532
It's an iterator!
Iterating succeeded, iterCount == 1

tryItOut 533
Compiling threw: SyntaxError: missing ) in parenthetical

tryItOut 534
It's an iterator!
Iterating succeeded, iterCount == 1

tryItOut 535
Compiling threw: SyntaxError: missing } after let block

tryItOut 536
Running threw: [object StopIteration]

tryItOut 537
It's an iterator!
Iterating threw!
Iterating threw: ReferenceError: reference to undefined XML name *::*

tryItOut 538
It's an iterator!
Iterating succeeded, iterCount == 1

tryItOut 539
Compiling threw: SyntaxError: missing ] after element list

tryItOut 540
It's an iterator!
Iterating threw!
Iterating threw: ReferenceError: reference to undefined XML name @foo

tryItOut 541
Compiling threw: SyntaxError: missing { before function body

tryItOut 542
Compiling threw: SyntaxError: missing ] after element list

tryItOut 543
Running threw: [object StopIteration]

tryItOut 544
It's an iterator!
Iterating succeeded, iterCount == 1

tryItOut 545
Running threw: TypeError: [1].__noSuchMethod__ has no properties

tryItOut 546

tryItOut 547
Running threw: TypeError: arguments[0] has no properties

tryItOut 548

tryItOut 549

tryItOut 550

tryItOut 551

tryItOut 552

tryItOut 553

tryItOut 554
Running threw: ReferenceError: reference to undefined XML name @foo

tryItOut 555
Running threw: false

tryItOut 556

tryItOut 557
Compiling threw: SyntaxError: missing variable name

tryItOut 558
Compiling threw: SyntaxError: invalid assignment left-hand side

tryItOut 559

tryItOut 560

tryItOut 561
Compiling threw: SyntaxError: syntax error

tryItOut 562
It's an iterator!
Iterating succeeded, iterCount == 1

tryItOut 563

tryItOut 564

tryItOut 565
It's an iterator!
Iterating succeeded, iterCount == 4

tryItOut 566
Running threw: [object StopIteration]

tryItOut 567

tryItOut 568

tryItOut 569
Compiling threw: SyntaxError: invalid for/in left-hand side

tryItOut 570

tryItOut 571

tryItOut 572

tryItOut 573
Compiling threw: SyntaxError: missing ] after element list

tryItOut 574

tryItOut 575
Compiling threw: SyntaxError: syntax error

tryItOut 576
Compiling threw: SyntaxError: missing ) after for-loop control

tryItOut 577

tryItOut 578

tryItOut 579
Compiling threw: SyntaxError: invalid destructuring assignment operator

tryItOut 580
Compiling threw: SyntaxError: missing ) after switch expression

tryItOut 581

tryItOut 582
Running threw: NaN

tryItOut 583
Running threw: ReferenceError: reference to undefined XML name *::*

tryItOut 584

tryItOut 585
Compiling threw: SyntaxError: syntax error

tryItOut 586
Compiling threw: SyntaxError: missing { before function body

tryItOut 587
Compiling threw: SyntaxError: missing variable name

tryItOut 588
It's an iterator!
Iterating threw!
Iterating threw: TypeError: <x>
  <y/>
</x> is not a function

tryItOut 589

tryItOut 590
Compiling threw: SyntaxError: syntax error

tryItOut 591
Compiling threw: SyntaxError: missing ) in parenthetical

tryItOut 592

tryItOut 593
Running threw: ReferenceError: reference to undefined XML name *

tryItOut 594
Running threw: TypeError: undefined has no properties

tryItOut 595
It's an iterator!
Iterating threw!
Iterating threw: TypeError: null has no properties

tryItOut 596

tryItOut 597
Compiling threw: SyntaxError: missing } after let block

tryItOut 598
It's an iterator!
Iterating succeeded, iterCount == 1

tryItOut 599
It's an iterator!
Iterating succeeded, iterCount == 2

tryItOut 600
uneval returned the string: [1, 2, 3, 4]

tryItOut 601

tryItOut 602

tryItOut 603
Compiling threw: SyntaxError: missing ) in parenthetical

tryItOut 604

tryItOut 605

tryItOut 606
Running threw: TypeError: <x>
  <y/>
</x> is not a function

tryItOut 607

tryItOut 608
Running threw: ReferenceError: reference to undefined XML name *

tryItOut 609
Compiling threw: SyntaxError: invalid assignment left-hand side

tryItOut 610

tryItOut 611
Running threw: NaN

tryItOut 612
Running threw: ReferenceError: reference to undefined XML name *

tryItOut 613

tryItOut 614

tryItOut 615

tryItOut 616
It's an iterator!
Iterating succeeded, iterCount == 1

tryItOut 617

tryItOut 618

tryItOut 619
Compiling threw: TypeError: redeclaration of variable __iterator__

tryItOut 620

tryItOut 621

tryItOut 622

tryItOut 623

tryItOut 624
Compiling threw: SyntaxError: invalid assignment left-hand side

tryItOut 625
Compiling threw: SyntaxError: illegal XML character

tryItOut 626

tryItOut 627
Compiling threw: SyntaxError: missing ) after argument list

tryItOut 628

tryItOut 629
It's an iterator!
Iterating succeeded, iterCount == 1

tryItOut 630
Running threw: null

tryItOut 631
Running threw: [object StopIteration]

tryItOut 632

tryItOut 633
Running threw: ReferenceError: reference to undefined XML name @foo

tryItOut 634
It's an iterator!
Iterating threw!
Iterating threw: ReferenceError: propyield is not defined

tryItOut 635
Compiling threw: SyntaxError: invalid for/in left-hand side

tryItOut 636

tryItOut 637

tryItOut 638
It's an iterator!
Iterating succeeded, iterCount == 1

tryItOut 639
It's an iterator!
Iterating succeeded, iterCount == 1

tryItOut 640
Compiling threw: SyntaxError: invalid for/in left-hand side

tryItOut 641
Compiling threw: TypeError: redeclaration of variable prop

tryItOut 642

tryItOut 643

tryItOut 644
Compiling threw: SyntaxError: missing { before function body

tryItOut 645
Running threw: [object StopIteration]

tryItOut 646
Running threw: 

tryItOut 647

tryItOut 648
Compiling threw: TypeError: redeclaration of variable prototype

tryItOut 649

tryItOut 650
Running threw: [object StopIteration]

tryItOut 651
Compiling threw: SyntaxError: missing ; before statement

tryItOut 652
Compiling threw: SyntaxError: missing ) in parenthetical

tryItOut 653
Compiling threw: SyntaxError: invalid for/in left-hand side

tryItOut 654

tryItOut 655
Compiling threw: SyntaxError: missing = in destructuring declaration

tryItOut 656
It's an iterator!
Iterating succeeded, iterCount == 1

tryItOut 657
Compiling threw: SyntaxError: syntax error

tryItOut 658
Running threw: [object StopIteration]

tryItOut 659
Compiling threw: SyntaxError: missing ] after element list

tryItOut 660

tryItOut 661

tryItOut 662
It's an iterator!
Iterating threw!
Iterating threw: ReferenceError: z1 is not defined

tryItOut 663
Compiling threw: SyntaxError: missing = in destructuring declaration

tryItOut 664
Compiling threw: TypeError: redeclaration of const __iterator__

tryItOut 665
Compiling threw: SyntaxError: missing ) in parenthetical

tryItOut 666
Compiling threw: SyntaxError: missing } after let block

tryItOut 667

tryItOut 668
Running threw: null

tryItOut 669
It's an iterator!
Iterating succeeded, iterCount == 1

tryItOut 670
Compiling threw: SyntaxError: missing { before function body

tryItOut 671
Compiling threw: SyntaxError: syntax error

tryItOut 672
Running threw: [object StopIteration]

tryItOut 673
Compiling threw: SyntaxError: missing = in destructuring declaration

tryItOut 674

tryItOut 675
It's an iterator!
Iterating succeeded, iterCount == 1

tryItOut 676
Compiling threw: SyntaxError: missing ] after element list

tryItOut 677
It's an iterator!
Iterating succeeded, iterCount == 2

tryItOut 678
Compiling threw: TypeError: redeclaration of const __iterator__

tryItOut 679
Compiling threw: SyntaxError: missing { before function body

tryItOut 680

tryItOut 681
Compiling threw: SyntaxError: syntax error

tryItOut 682

tryItOut 683
It's an iterator!
Iterating succeeded, iterCount == 1

tryItOut 684
Running threw: TypeError: undefined has no properties

tryItOut 685

tryItOut 686
Running threw: undefined

tryItOut 687
It's an iterator!
Iterating succeeded, iterCount == 2

tryItOut 688

tryItOut 689

tryItOut 690
Running threw: NaN

tryItOut 691
Running threw: ReferenceError: reference to undefined XML name @foo

tryItOut 692
Running threw: ReferenceError: reference to undefined XML name *

tryItOut 693
Running threw: ReferenceError: reference to undefined XML name *

tryItOut 694
Running threw: ReferenceError: reference to undefined XML name *::*

tryItOut 695

tryItOut 696

tryItOut 697

tryItOut 698
Compiling threw: SyntaxError: invalid assignment left-hand side

tryItOut 699
Running threw: 112

tryItOut 700
Compiling threw: SyntaxError: missing variable name

tryItOut 701

tryItOut 702
It's an iterator!
Iterating succeeded, iterCount == 1

tryItOut 703
Running threw: TypeError: redeclaration of var __proto__

tryItOut 704

tryItOut 705
Compiling threw: SyntaxError: syntax error

tryItOut 706
Compiling threw: SyntaxError: missing ) in parenthetical

tryItOut 707

tryItOut 708
Running threw: false

tryItOut 709
It's an iterator!
Iterating succeeded, iterCount == 0

tryItOut 710

tryItOut 711

tryItOut 712
Running threw: [object StopIteration]

tryItOut 713
Running threw: null

tryItOut 714

tryItOut 715
Compiling threw: SyntaxError: missing ] after element list

tryItOut 716
Running threw: [object StopIteration]

tryItOut 717
Compiling threw: SyntaxError: invalid assignment left-hand side

tryItOut 718
Compiling threw: SyntaxError: missing ] after element list

tryItOut 719
It's an iterator!
Iterating succeeded, iterCount == 1

tryItOut 720
Compiling threw: SyntaxError: missing ) in parenthetical

tryItOut 721
Compiling threw: SyntaxError: invalid default XML namespace

tryItOut 722

tryItOut 723
It's an iterator!
Iterating threw!
Iterating threw: ReferenceError: reference to undefined XML name *

tryItOut 724
Compiling threw: SyntaxError: invalid decrement operand

tryItOut 725

tryItOut 726
Compiling threw: SyntaxError: missing variable name

tryItOut 727
Compiling threw: SyntaxError: invalid for/in left-hand side

tryItOut 728
Compiling threw: SyntaxError: invalid sharp variable definition

tryItOut 729
Compiling threw: SyntaxError: syntax error

tryItOut 730
Compiling threw: SyntaxError: invalid default XML namespace

tryItOut 731
Running threw: [object StopIteration]

tryItOut 732
It's an iterator!
Iterating succeeded, iterCount == 1

tryItOut 733

tryItOut 734

tryItOut 735
Running threw: null

tryItOut 736

tryItOut 737
Compiling threw: SyntaxError: syntax error

tryItOut 738
Compiling threw: SyntaxError: missing ) in parenthetical

tryItOut 739
Running threw: [object StopIteration]

tryItOut 740
Running threw: ReferenceError: z1 is not defined

tryItOut 741

tryItOut 742
Running threw: ReferenceError: reference to undefined XML name *::*

tryItOut 743
It's an iterator!
Iterating threw!
Iterating threw: ReferenceError: reference to undefined XML name *

tryItOut 744
It's an iterator!
Iterating succeeded, iterCount == 1

tryItOut 745

tryItOut 746

tryItOut 747
It's an iterator!
Iterating succeeded, iterCount == 1

tryItOut 748
Compiling threw: SyntaxError: invalid for/in left-hand side

tryItOut 749

tryItOut 750

tryItOut 751
Running threw: ReferenceError: reference to undefined XML name @foo

tryItOut 752

tryItOut 753
It's an iterator!
Iterating succeeded, iterCount == 1

tryItOut 754
Running threw: [object StopIteration]

tryItOut 755
Running threw: ReferenceError: reference to undefined XML name @foo

tryItOut 756
It's an iterator!
Iterating succeeded, iterCount == 1

tryItOut 757
It's an iterator!
Iterating succeeded, iterCount == 1

tryItOut 758
Compiling threw: SyntaxError: syntax error

tryItOut 759
Compiling threw: TypeError: redeclaration of variable prop

tryItOut 760
It's an iterator!
Iterating succeeded, iterCount == 1

tryItOut 761
Compiling threw: SyntaxError: invalid assignment left-hand side

tryItOut 762
Compiling threw: SyntaxError: missing { before function body

tryItOut 763
Compiling threw: SyntaxError: missing ) after condition

tryItOut 764
Running threw: [object StopIteration]

tryItOut 765

tryItOut 766

tryItOut 767
Running threw: false

tryItOut 768

tryItOut 769

tryItOut 770

tryItOut 771

tryItOut 772
Running threw: [object StopIteration]

tryItOut 773
Compiling threw: SyntaxError: missing ; before statement

tryItOut 774

tryItOut 775
Running threw: null

tryItOut 776
Compiling threw: SyntaxError: missing variable name

tryItOut 777
Compiling threw: SyntaxError: syntax error

tryItOut 778
Compiling threw: SyntaxError: syntax error

tryItOut 779

tryItOut 780
Compiling threw: SyntaxError: missing ) in parenthetical

tryItOut 781
It's an iterator!
Iterating succeeded, iterCount == 1

tryItOut 782
Compiling threw: SyntaxError: invalid XML tag syntax

tryItOut 783

tryItOut 784

tryItOut 785
Running threw: ReferenceError: z1 is not defined

tryItOut 786

tryItOut 787
Running threw: ReferenceError: z1 is not defined

tryItOut 788

tryItOut 789
Compiling threw: SyntaxError: missing ( before let head

tryItOut 790

tryItOut 791
Compiling threw: TypeError: redeclaration of var prototype

tryItOut 792
Compiling threw: SyntaxError: invalid assignment left-hand side

tryItOut 793
Compiling threw: SyntaxError: missing ) in parenthetical

tryItOut 794
Compiling threw: SyntaxError: syntax error

tryItOut 795
It's an iterator!
Iterating threw!
Iterating threw: ReferenceError: z1 is not defined

tryItOut 796
Compiling threw: SyntaxError: duplicate label

tryItOut 797

tryItOut 798

tryItOut 799
Compiling threw: SyntaxError: invalid for/in left-hand side

tryItOut 800
Running threw: TypeError: #1=[, #1#][<x/>] has no properties

tryItOut 801

tryItOut 802
Running threw: undefined

tryItOut 803
Compiling threw: SyntaxError: missing { before function body

tryItOut 804
Running threw: 

tryItOut 805
Running threw: [object StopIteration]

tryItOut 806

tryItOut 807
It's an iterator!
Iterating succeeded, iterCount == 1

tryItOut 808

tryItOut 809

tryItOut 810
Running threw: ReferenceError: reference to undefined XML name @foo

tryItOut 811
Compiling threw: SyntaxError: invalid for/in left-hand side

tryItOut 812

tryItOut 813
Compiling threw: SyntaxError: missing ) in parenthetical

tryItOut 814

tryItOut 815
Compiling threw: SyntaxError: missing ; before statement

tryItOut 816
Compiling threw: SyntaxError: syntax error

tryItOut 817

tryItOut 818
It's an iterator!
Iterating threw!
Iterating threw: TypeError: arguments[0] has no properties

tryItOut 819
It's an iterator!
Iterating threw!
Iterating threw: ReferenceError: each is not defined

tryItOut 820
Compiling threw: SyntaxError: missing ; after for-loop condition

tryItOut 821

tryItOut 822
It's an iterator!
Iterating succeeded, iterCount == 2

tryItOut 823
Compiling threw: SyntaxError: missing ) in parenthetical

tryItOut 824
It's an iterator!
Iterating succeeded, iterCount == 1

tryItOut 825
Running threw: ReferenceError: reference to undefined XML name @foo

tryItOut 826

tryItOut 827

tryItOut 828
Compiling threw: SyntaxError: missing ) in parenthetical

tryItOut 829

tryItOut 830

tryItOut 831
Compiling threw: SyntaxError: missing variable name

tryItOut 832

tryItOut 833

tryItOut 834
Compiling threw: SyntaxError: syntax error

tryItOut 835
Running threw: ReferenceError: z1 is not defined

tryItOut 836
Running threw: ReferenceError: z1 is not defined

tryItOut 837
Compiling threw: SyntaxError: missing ) in parenthetical

tryItOut 838
Running threw: 112

tryItOut 839
It's an iterator!
Iterating threw!
Iterating threw: ReferenceError: reference to undefined XML name @foo

tryItOut 840

tryItOut 841
Compiling threw: SyntaxError: invalid default XML namespace

tryItOut 842
It's an iterator!
Iterating succeeded, iterCount == 2

tryItOut 843
Compiling threw: SyntaxError: missing ) in parenthetical

tryItOut 844

tryItOut 845
Running threw: ReferenceError: reference to undefined XML name *::*

tryItOut 846

tryItOut 847
Compiling threw: TypeError: redeclaration of var prop

tryItOut 848

tryItOut 849

tryItOut 850

tryItOut 851
It's an iterator!
Iterating threw!
Iterating threw: ReferenceError: reference to undefined XML name *

tryItOut 852
Running threw: [object StopIteration]

tryItOut 853
Running threw: [object StopIteration]

tryItOut 854
Compiling threw: SyntaxError: missing variable name

tryItOut 855
Compiling threw: SyntaxError: syntax error

tryItOut 856
Running threw: ReferenceError: reference to undefined XML name *::*

tryItOut 857

tryItOut 858

tryItOut 859
Running threw: ReferenceError: reference to undefined XML name @foo

tryItOut 860

tryItOut 861

tryItOut 862
Compiling threw: SyntaxError: missing { before function body

tryItOut 863
It's an iterator!
Iterating succeeded, iterCount == 1

tryItOut 864
Running threw: [object StopIteration]

tryItOut 865

tryItOut 866
Running threw: NaN

tryItOut 867
Compiling threw: TypeError: redeclaration of variable prototype

tryItOut 868

tryItOut 869

tryItOut 870
Compiling threw: SyntaxError: syntax error

tryItOut 871
Running threw: TypeError: arguments[0] has no properties

tryItOut 872

tryItOut 873
Running threw: ReferenceError: reference to undefined XML name *::*

tryItOut 874
Compiling threw: SyntaxError: invalid for/in left-hand side

tryItOut 875

tryItOut 876

tryItOut 877
Compiling threw: SyntaxError: missing { before function body

tryItOut 878

tryItOut 879
Running threw: NaN

tryItOut 880
Running threw: [object StopIteration]

tryItOut 881
It's an iterator!
Iterating threw!
Iterating threw: ReferenceError: reference to undefined XML name *::*

tryItOut 882

tryItOut 883
It's an iterator!
Iterating threw!
Iterating threw: ReferenceError: reference to undefined XML name *::*

tryItOut 884
Compiling threw: SyntaxError: missing } after let block

tryItOut 885
Running threw: TypeError: redeclaration of var __count__

tryItOut 886
Compiling threw: SyntaxError: invalid for/in left-hand side

tryItOut 887
Compiling threw: TypeError: redeclaration of variable prototype

tryItOut 888
Running threw: ReferenceError: reference to undefined XML name *::*

tryItOut 889

tryItOut 890

tryItOut 891
It's an iterator!
Iterating succeeded, iterCount == 4

tryItOut 892
Compiling threw: TypeError: redeclaration of const __count__

tryItOut 893
Compiling threw: SyntaxError: invalid decrement operand

tryItOut 894
It's an iterator!
Iterating succeeded, iterCount == 1

tryItOut 895
Compiling threw: SyntaxError: syntax error

tryItOut 896
It's an iterator!
Iterating succeeded, iterCount == 0

tryItOut 897

tryItOut 898

tryItOut 899

tryItOut 900
Running threw: [object StopIteration]

tryItOut 901

tryItOut 902
Compiling threw: SyntaxError: syntax error

tryItOut 903
Running threw: [object StopIteration]

tryItOut 904

tryItOut 905

tryItOut 906

tryItOut 907
Running threw: ReferenceError: l is not defined

tryItOut 908

tryItOut 909
It's an iterator!
Iterating succeeded, iterCount == 1

tryItOut 910
It's an iterator!
Iterating succeeded, iterCount == 1

tryItOut 911

tryItOut 912

tryItOut 913
It's an iterator!
Iterating succeeded, iterCount == 1

tryItOut 914

tryItOut 915
Running threw: ReferenceError: reference to undefined XML name *

tryItOut 916
Compiling threw: SyntaxError: invalid assignment left-hand side

tryItOut 917

tryItOut 918

tryItOut 919
Running threw: ReferenceError: reference to undefined XML name @foo

tryItOut 920

tryItOut 921

tryItOut 922
It's an iterator!
Iterating succeeded, iterCount == 0

tryItOut 923

tryItOut 924

tryItOut 925
Compiling threw: SyntaxError: missing ) in parenthetical

tryItOut 926

tryItOut 927

tryItOut 928

tryItOut 929
Compiling threw: SyntaxError: missing } after catch block

tryItOut 930

tryItOut 931

tryItOut 932
Compiling threw: SyntaxError: illegal XML character

tryItOut 933
Compiling threw: SyntaxError: missing { before function body

tryItOut 934
Compiling threw: SyntaxError: invalid for/in left-hand side

tryItOut 935
Compiling threw: SyntaxError: missing ) in parenthetical

tryItOut 936

tryItOut 937

tryItOut 938
It's an iterator!
Iterating threw!
Iterating threw: TypeError: arguments[0] has no properties

tryItOut 939
It's an iterator!
Iterating succeeded, iterCount == 1

tryItOut 940
Compiling threw: TypeError: redeclaration of variable prototype

tryItOut 941

tryItOut 942

tryItOut 943
Compiling threw: SyntaxError: syntax error

tryItOut 944

tryItOut 945

tryItOut 946

tryItOut 947
Compiling threw: TypeError: generator function anonymous returns a value

tryItOut 948
Compiling threw: SyntaxError: syntax error

tryItOut 949

tryItOut 950
It's an iterator!
Iterating succeeded, iterCount == 1

tryItOut 951

tryItOut 952

tryItOut 953
Compiling threw: TypeError: redeclaration of var constructor

tryItOut 954
It's an iterator!
Iterating succeeded, iterCount == 1

tryItOut 955
Compiling threw: TypeError: redeclaration of variable __proto__

tryItOut 956
Compiling threw: SyntaxError: missing variable name

tryItOut 957
Compiling threw: SyntaxError: illegal XML character

tryItOut 958

tryItOut 959
Compiling threw: TypeError: redeclaration of var __iterator__

tryItOut 960
Running threw: [object StopIteration]

tryItOut 961

tryItOut 962
Compiling threw: SyntaxError: invalid for/in left-hand side

tryItOut 963
Compiling threw: SyntaxError: invalid for/in left-hand side

tryItOut 964

tryItOut 965

tryItOut 966
It's an iterator!
Iterating succeeded, iterCount == 1

tryItOut 967

tryItOut 968
Running threw: ReferenceError: z2 is not defined

tryItOut 969
Compiling threw: SyntaxError: missing { before function body

tryItOut 970
Compiling threw: SyntaxError: missing ) in parenthetical

tryItOut 971
Running threw: ReferenceError: reference to undefined XML name *

tryItOut 972
Compiling threw: TypeError: redeclaration of variable prop

tryItOut 973

tryItOut 974
Compiling threw: SyntaxError: missing } after let block

tryItOut 975
Compiling threw: SyntaxError: syntax error

tryItOut 976

tryItOut 977

tryItOut 978
Running threw: TypeError: redeclaration of var __count__

tryItOut 979
It's an iterator!
Iterating succeeded, iterCount == 1

tryItOut 980
Compiling threw: SyntaxError: missing ) after let head

tryItOut 981
Compiling threw: SyntaxError: missing ] after element list

tryItOut 982
Running threw: ReferenceError: z1 is not defined

tryItOut 983

tryItOut 984

tryItOut 985

tryItOut 986

tryItOut 987

tryItOut 988

tryItOut 989

tryItOut 990

tryItOut 991

tryItOut 992

tryItOut 993
Compiling threw: SyntaxError: missing ) in parenthetical

tryItOut 994

tryItOut 995
Compiling threw: TypeError: redeclaration of variable __noSuchMethod__

tryItOut 996
Compiling threw: SyntaxError: missing } after let block

tryItOut 997
It's an iterator!
Iterating threw!
Iterating threw: ReferenceError: reference to undefined XML name *

tryItOut 998
It's an iterator!
Iterating succeeded, iterCount == 1

tryItOut 999
Compiling threw: SyntaxError: missing ) in parenthetical

tryItOut 1000
It's an iterator!
Iterating succeeded, iterCount == 1

ALL OK

Script done on Sat 04 May 2013 08:14:30 AM PDT
